,GameId,PlayId,Team,X,Y,S,A,Dis,Orientation,Dir,NflId,DisplayName,JerseyNumber,Season,YardLine,Quarter,GameClock,PossessionTeam,Down,Distance,FieldPosition,HomeScoreBeforePlay,VisitorScoreBeforePlay,NflIdRusher,OffenseFormation,OffensePersonnel,DefendersInTheBox,DefensePersonnel,PlayDirection,TimeHandoff,TimeSnap,PlayerHeight,PlayerWeight,PlayerBirthDate,PlayerCollegeName,Position,HomeTeamAbbr,VisitorTeamAbbr,Week,Stadium,Location,StadiumType,Turf,GameWeather,Temperature,Humidity,WindSpeed,WindDirection
5632,2019090805,20190908051219,away,67.92,32.77,6.54,0.33,0.65,177.45,242.34,2539240,Micah Hyde,23,2019,30,2,13:22:00,NYJ,2,10,NYJ,6,0,2540175,SHOTGUN,"1 RB, 1 TE, 3 WR",6,"4 DL, 2 LB, 5 DB",left,2019-09-08T17:50:17.000Z,2019-09-08T17:50:16.000Z,6-0,197,12/31/1990,Iowa,SS,NYJ,BUF,1,MetLife Stadium,"East Rutherford, N.J.",Outdoor,FieldTurf,Mostly Sunny,77.0,46,6,WNW
5633,2019090805,20190908051219,away,70.85,23.41,3.66,3.11,0.36,85.01,86.01,2539290,Jordan Poyer,21,2019,30,2,13:22:00,NYJ,2,10,NYJ,6,0,2540175,SHOTGUN,"1 RB, 1 TE, 3 WR",6,"4 DL, 2 LB, 5 DB",left,2019-09-08T17:50:17.000Z,2019-09-08T17:50:16.000Z,6-0,191,04/25/1991,Oregon State,FS,NYJ,BUF,1,MetLife Stadium,"East Rutherford, N.J.",Outdoor,FieldTurf,Mostly Sunny,77.0,46,6,WNW
5634,2019090805,20190908051219,away,80.13,31.04,0.42,2.18,0.05,93.97,150.91,2552492,Jordan Phillips,97,2019,30,2,13:22:00,NYJ,2,10,NYJ,6,0,2540175,SHOTGUN,"1 RB, 1 TE, 3 WR",6,"4 DL, 2 LB, 5 DB",left,2019-09-08T17:50:17.000Z,2019-09-08T17:50:16.000Z,6-6,341,09/21/1992,Oklahoma,DT,NYJ,BUF,1,MetLife Stadium,"East Rutherford, N.J.",Outdoor,FieldTurf,Mostly Sunny,77.0,46,6,WNW
5635,2019090805,20190908051219,away,79.6,27.28,3.15,1.72,0.32,78.13,353.57,2555252,Shaq Lawson,90,2019,30,2,13:22:00,NYJ,2,10,NYJ,6,0,2540175,SHOTGUN,"1 RB, 1 TE, 3 WR",6,"4 DL, 2 LB, 5 DB",left,2019-09-08T17:50:17.000Z,2019-09-08T17:50:16.000Z,6-3,267,06/17/1994,Clemson,DE,NYJ,BUF,1,MetLife Stadium,"East Rutherford, N.J.",Outdoor,FieldTurf,Mostly Sunny,77.0,46,6,WNW
5636,2019090805,20190908051219,away,77.82,41.83,2.57,2.7,0.25,110.88,263.27,2557867,Tre'Davious White,27,2019,30,2,13:22:00,NYJ,2,10,NYJ,6,0,2540175,SHOTGUN,"1 RB, 1 TE, 3 WR",6,"4 DL, 2 LB, 5 DB",left,2019-09-08T17:50:17.000Z,2019-09-08T17:50:16.000Z,5-11,192,01/16/1995,Louisiana State,CB,NYJ,BUF,1,MetLife Stadium,"East Rutherford, N.J.",Outdoor,FieldTurf,Mostly Sunny,77.0,46,6,WNW
5637,2019090805,20190908051219,away,80.15,34.79,2.77,3.25,0.27,139.21,171.42,2557969,Matt Milano,58,2019,30,2,13:22:00,NYJ,2,10,NYJ,6,0,2540175,SHOTGUN,"1 RB, 1 TE, 3 WR",6,"4 DL, 2 LB, 5 DB",left,2019-09-08T17:50:17.000Z,2019-09-08T17:50:16.000Z,6-0,223,07/28/1994,Boston College,OLB,NYJ,BUF,1,MetLife Stadium,"East Rutherford, N.J.",Outdoor,FieldTurf,Mostly Sunny,77.0,46,6,WNW
5638,2019090805,20190908051219,away,78.93,27.73,2.03,4.03,0.18,70.74,354.67,2560713,Tremaine Edmunds,49,2019,30,2,13:22:00,NYJ,2,10,NYJ,6,0,2540175,SHOTGUN,"1 RB, 1 TE, 3 WR",6,"4 DL, 2 LB, 5 DB",left,2019-09-08T17:50:17.000Z,2019-09-08T17:50:16.000Z,6-5,250,05/02/1998,Virginia Tech,LB,NYJ,BUF,1,MetLife Stadium,"East Rutherford, N.J.",Outdoor,FieldTurf,Mostly Sunny,77.0,46,6,WNW
5639,2019090805,20190908051219,away,81.43,23.79,6.73,1.51,0.67,42.14,30.0,2560766,Taron Johnson,24,2019,30,2,13:22:00,NYJ,2,10,NYJ,6,0,2540175,SHOTGUN,"1 RB, 1 TE, 3 WR",6,"4 DL, 2 LB, 5 DB",left,2019-09-08T17:50:17.000Z,2019-09-08T17:50:16.000Z,5-11,192,07/27/1996,Weber State,CB,NYJ,BUF,1,MetLife Stadium,"East Rutherford, N.J.",Outdoor,FieldTurf,Mostly Sunny,77.0,46,6,WNW
5640,2019090805,20190908051219,away,79.73,30.31,1.29,1.35,0.13,73.5,354.11,2560840,Harrison Phillips,99,2019,30,2,13:22:00,NYJ,2,10,NYJ,6,0,2540175,SHOTGUN,"1 RB, 1 TE, 3 WR",6,"4 DL, 2 LB, 5 DB",left,2019-09-08T17:50:17.000Z,2019-09-08T17:50:16.000Z,6-3,307,01/25/1996,Stanford,DT,NYJ,BUF,1,MetLife Stadium,"East Rutherford, N.J.",Outdoor,FieldTurf,Mostly Sunny,77.0,46,6,WNW
5641,2019090805,20190908051219,away,78.9,9.93,2.45,4.53,0.23,93.29,224.12,2560914,Levi Wallace,39,2019,30,2,13:22:00,NYJ,2,10,NYJ,6,0,2540175,SHOTGUN,"1 RB, 1 TE, 3 WR",6,"4 DL, 2 LB, 5 DB",left,2019-09-08T17:50:17.000Z,2019-09-08T17:50:16.000Z,6-0,179,06/12/1995,Alabama,CB,NYJ,BUF,1,MetLife Stadium,"East Rutherford, N.J.",Outdoor,FieldTurf,Mostly Sunny,77.0,46,6,WNW
5642,2019090805,20190908051219,away,80.86,33.3,2.81,1.03,0.28,120.63,152.87,2562672,Darryl Johnson,92,2019,30,2,13:22:00,NYJ,2,10,NYJ,6,0,2540175,SHOTGUN,"1 RB, 1 TE, 3 WR",6,"4 DL, 2 LB, 5 DB",left,2019-09-08T17:50:17.000Z,2019-09-08T17:50:16.000Z,6-6,253,04/04/1997,North Carolina A&T,DE,NYJ,BUF,1,MetLife Stadium,"East Rutherford, N.J.",Outdoor,FieldTurf,Mostly Sunny,77.0,46,6,WNW
5643,2019090805,20190908051219,home,80.17,29.87,0.99,1.21,0.11,239.28,275.26,2495655,Ryan Kalil,55,2019,30,2,13:22:00,NYJ,2,10,NYJ,6,0,2540175,SHOTGUN,"1 RB, 1 TE, 3 WR",6,"4 DL, 2 LB, 5 DB",left,2019-09-08T17:50:17.000Z,2019-09-08T17:50:16.000Z,6-2,300,03/29/1985,Southern California,C,NYJ,BUF,1,MetLife Stadium,"East Rutherford, N.J.",Outdoor,FieldTurf,Mostly Sunny,77.0,46,6,WNW
5644,2019090805,20190908051219,home,81.94,29.77,3.03,2.03,0.3,322.74,350.69,2532922,Kelechi Osemele,70,2019,30,2,13:22:00,NYJ,2,10,NYJ,6,0,2540175,SHOTGUN,"1 RB, 1 TE, 3 WR",6,"4 DL, 2 LB, 5 DB",left,2019-09-08T17:50:17.000Z,2019-09-08T17:50:16.000Z,6-5,330,06/24/1989,Iowa State,G,NYJ,BUF,1,MetLife Stadium,"East Rutherford, N.J.",Outdoor,FieldTurf,Mostly Sunny,77.0,46,6,WNW
5645,2019090805,20190908051219,home,80.64,27.62,2.25,0.48,0.23,251.44,326.79,2533442,Kelvin Beachum,68,2019,30,2,13:22:00,NYJ,2,10,NYJ,6,0,2540175,SHOTGUN,"1 RB, 1 TE, 3 WR",6,"4 DL, 2 LB, 5 DB",left,2019-09-08T17:50:17.000Z,2019-09-08T17:50:16.000Z,6-3,308,06/08/1989,Southern Methodist,T,NYJ,BUF,1,MetLife Stadium,"East Rutherford, N.J.",Outdoor,FieldTurf,Mostly Sunny,77.0,46,6,WNW
5646,2019090805,20190908051219,home,80.75,30.43,0.69,1.25,0.07,221.63,239.01,2539247,Brian Winters,67,2019,30,2,13:22:00,NYJ,2,10,NYJ,6,0,2540175,SHOTGUN,"1 RB, 1 TE, 3 WR",6,"4 DL, 2 LB, 5 DB",left,2019-09-08T17:50:17.000Z,2019-09-08T17:50:16.000Z,6-4,320,07/10/1991,Kent State,G,NYJ,BUF,1,MetLife Stadium,"East Rutherford, N.J.",Outdoor,FieldTurf,Mostly Sunny,77.0,46,6,WNW
5647,2019090805,20190908051219,home,84.96,31.29,2.92,2.34,0.28,260.26,206.81,2540175,Le'Veon Bell,26,2019,30,2,13:22:00,NYJ,2,10,NYJ,6,0,2540175,SHOTGUN,"1 RB, 1 TE, 3 WR",6,"4 DL, 2 LB, 5 DB",left,2019-09-08T17:50:17.000Z,2019-09-08T17:50:16.000Z,6-1,225,02/18/1992,Michigan State,RB,NYJ,BUF,1,MetLife Stadium,"East Rutherford, N.J.",Outdoor,FieldTurf,Mostly Sunny,77.0,46,6,WNW
5648,2019090805,20190908051219,home,82.6,27.82,4.76,1.97,0.47,317.91,350.2,2541316,Ryan Griffin,85,2019,30,2,13:22:00,NYJ,2,10,NYJ,6,0,2540175,SHOTGUN,"1 RB, 1 TE, 3 WR",6,"4 DL, 2 LB, 5 DB",left,2019-09-08T17:50:17.000Z,2019-09-08T17:50:16.000Z,6-6,255,01/11/1990,Connecticut,TE,NYJ,BUF,1,MetLife Stadium,"East Rutherford, N.J.",Outdoor,FieldTurf,Mostly Sunny,77.0,46,6,WNW
5649,2019090805,20190908051219,home,79.4,41.28,3.32,2.85,0.32,255.55,250.35,2543828,Quincy Enunwa,81,2019,30,2,13:22:00,NYJ,2,10,NYJ,6,0,2540175,SHOTGUN,"1 RB, 1 TE, 3 WR",6,"4 DL, 2 LB, 5 DB",left,2019-09-08T17:50:17.000Z,2019-09-08T17:50:16.000Z,6-2,225,05/31/1992,Nebraska,WR,NYJ,BUF,1,MetLife Stadium,"East Rutherford, N.J.",Outdoor,FieldTurf,Mostly Sunny,77.0,46,6,WNW
5650,2019090805,20190908051219,home,80.67,20.85,4.66,2.49,0.45,301.91,325.31,2552415,Jamison Crowder,82,2019,30,2,13:22:00,NYJ,2,10,NYJ,6,0,2540175,SHOTGUN,"1 RB, 1 TE, 3 WR",6,"4 DL, 2 LB, 5 DB",left,2019-09-08T17:50:17.000Z,2019-09-08T17:50:16.000Z,5-9,177,06/17/1993,Duke,WR,NYJ,BUF,1,MetLife Stadium,"East Rutherford, N.J.",Outdoor,FieldTurf,Mostly Sunny,77.0,46,6,WNW
5651,2019090805,20190908051219,home,80.97,31.27,1.21,1.89,0.12,248.86,223.21,2555193,Brandon Shell,72,2019,30,2,13:22:00,NYJ,2,10,NYJ,6,0,2540175,SHOTGUN,"1 RB, 1 TE, 3 WR",6,"4 DL, 2 LB, 5 DB",left,2019-09-08T17:50:17.000Z,2019-09-08T17:50:16.000Z,6-5,324,02/06/1992,South Carolina,T,NYJ,BUF,1,MetLife Stadium,"East Rutherford, N.J.",Outdoor,FieldTurf,Mostly Sunny,77.0,46,6,WNW
5652,2019090805,20190908051219,home,80.16,9.47,3.9,3.4,0.38,266.57,231.09,2556462,Robby Anderson,11,2019,30,2,13:22:00,NYJ,2,10,NYJ,6,0,2540175,SHOTGUN,"1 RB, 1 TE, 3 WR",6,"4 DL, 2 LB, 5 DB",left,2019-09-08T17:50:17.000Z,2019-09-08T17:50:16.000Z,6-3,190,05/09/1993,Temple,WR,NYJ,BUF,1,MetLife Stadium,"East Rutherford, N.J.",Outdoor,FieldTurf,Mostly Sunny,77.0,46,6,WNW
5653,2019090805,20190908051219,home,85.06,29.81,1.63,2.05,0.15,335.96,45.29,2561036,Sam Darnold,14,2019,30,2,13:22:00,NYJ,2,10,NYJ,6,0,2540175,SHOTGUN,"1 RB, 1 TE, 3 WR",6,"4 DL, 2 LB, 5 DB",left,2019-09-08T17:50:17.000Z,2019-09-08T17:50:16.000Z,6-3,225,06/05/1997,Southern California,QB,NYJ,BUF,1,MetLife Stadium,"East Rutherford, N.J.",Outdoor,FieldTurf,Mostly Sunny,77.0,46,6,WNW
