,GameId,PlayId,Team,X,Y,S,A,Dis,Orientation,Dir,NflId,DisplayName,JerseyNumber,Season,YardLine,Quarter,GameClock,PossessionTeam,Down,Distance,FieldPosition,HomeScoreBeforePlay,VisitorScoreBeforePlay,NflIdRusher,OffenseFormation,OffensePersonnel,DefendersInTheBox,DefensePersonnel,PlayDirection,TimeHandoff,TimeSnap,PlayerHeight,PlayerWeight,PlayerBirthDate,PlayerCollegeName,Position,HomeTeamAbbr,VisitorTeamAbbr,Week,Stadium,Location,StadiumType,Turf,GameWeather,Temperature,Humidity,WindSpeed,WindDirection
47762,2019092900,20190929004100,away,46.22,23.24,2.04,0.53,0.21,269.91,312.42,497048,Rodger Saffold,76,2019,36,4,02:01:00,TEN,3,11,ATL,10,24,2556075,SHOTGUN,"1 RB, 1 TE, 3 WR",8,"5 DL, 2 LB, 4 DB",left,2019-09-29T19:53:01.000Z,2019-09-29T19:53:00.000Z,6-5,325,06/06/1988,Indiana,G,ATL,TEN,4,Mercedes-Benz Stadium,"Atlanta, GA","Domed, closed",FieldTurf,,,0,,
47763,2019092900,20190929004100,away,46.52,24.4,1.08,0.31,0.11,325.32,338.93,2532883,Ben Jones,60,2019,36,4,02:01:00,TEN,3,11,ATL,10,24,2556075,SHOTGUN,"1 RB, 1 TE, 3 WR",8,"5 DL, 2 LB, 4 DB",left,2019-09-29T19:53:01.000Z,2019-09-29T19:53:00.000Z,6-3,308,07/02/1989,Georgia,C,ATL,TEN,4,Mercedes-Benz Stadium,"Atlanta, GA","Domed, closed",FieldTurf,,,0,,
47764,2019092900,20190929004100,away,46.58,22.74,2.24,0.84,0.23,302.24,327.31,2535131,Dennis Kelly,71,2019,36,4,02:01:00,TEN,3,11,ATL,10,24,2556075,SHOTGUN,"1 RB, 1 TE, 3 WR",8,"5 DL, 2 LB, 4 DB",left,2019-09-29T19:53:01.000Z,2019-09-29T19:53:00.000Z,6-8,321,01/16/1990,Purdue,OT,ATL,TEN,4,Mercedes-Benz Stadium,"Atlanta, GA","Domed, closed",FieldTurf,,,0,,
47765,2019092900,20190929004100,away,50.9,23.61,1.29,1.55,0.12,254.9,243.36,2552466,Marcus Mariota,8,2019,36,4,02:01:00,TEN,3,11,ATL,10,24,2556075,SHOTGUN,"1 RB, 1 TE, 3 WR",8,"5 DL, 2 LB, 4 DB",left,2019-09-29T19:53:01.000Z,2019-09-29T19:53:00.000Z,6-4,222,10/30/1993,Oregon,QB,ATL,TEN,4,Mercedes-Benz Stadium,"Atlanta, GA","Domed, closed",FieldTurf,,,0,,
47766,2019092900,20190929004100,away,48.48,36.56,4.18,2.88,0.4,276.25,9.26,2553895,Adam Humphries,10,2019,36,4,02:01:00,TEN,3,11,ATL,10,24,2556075,SHOTGUN,"1 RB, 1 TE, 3 WR",8,"5 DL, 2 LB, 4 DB",left,2019-09-29T19:53:01.000Z,2019-09-29T19:53:00.000Z,5-11,195,06/24/1993,Clemson,WR,ATL,TEN,4,Mercedes-Benz Stadium,"Atlanta, GA","Domed, closed",FieldTurf,,,0,,
47767,2019092900,20190929004100,away,47.71,27.75,1.36,0.88,0.14,326.23,31.16,2555279,Jack Conklin,78,2019,36,4,02:01:00,TEN,3,11,ATL,10,24,2556075,SHOTGUN,"1 RB, 1 TE, 3 WR",8,"5 DL, 2 LB, 4 DB",left,2019-09-29T19:53:01.000Z,2019-09-29T19:53:00.000Z,6-6,308,08/17/1994,Michigan State,T,ATL,TEN,4,Mercedes-Benz Stadium,"Atlanta, GA","Domed, closed",FieldTurf,,,0,,
47768,2019092900,20190929004100,away,45.39,42.68,3.74,2.76,0.36,276.54,297.54,2555317,Tajae Sharpe,19,2019,36,4,02:01:00,TEN,3,11,ATL,10,24,2556075,SHOTGUN,"1 RB, 1 TE, 3 WR",8,"5 DL, 2 LB, 4 DB",left,2019-09-29T19:53:01.000Z,2019-09-29T19:53:00.000Z,6-2,194,12/23/1994,Massachusetts,WR,ATL,TEN,4,Mercedes-Benz Stadium,"Atlanta, GA","Domed, closed",FieldTurf,,,0,,
47769,2019092900,20190929004100,away,50.31,23.01,3.8,2.31,0.37,292.46,312.27,2556075,Derrick Henry,22,2019,36,4,02:01:00,TEN,3,11,ATL,10,24,2556075,SHOTGUN,"1 RB, 1 TE, 3 WR",8,"5 DL, 2 LB, 4 DB",left,2019-09-29T19:53:01.000Z,2019-09-29T19:53:00.000Z,6-3,247,01/04/1994,Alabama,RB,ATL,TEN,4,Mercedes-Benz Stadium,"Atlanta, GA","Domed, closed",FieldTurf,,,0,,
47770,2019092900,20190929004100,away,45.11,14.18,3.79,2.52,0.37,271.95,265.94,2557848,Corey Davis,84,2019,36,4,02:01:00,TEN,3,11,ATL,10,24,2556075,SHOTGUN,"1 RB, 1 TE, 3 WR",8,"5 DL, 2 LB, 4 DB",left,2019-09-29T19:53:01.000Z,2019-09-29T19:53:00.000Z,6-3,209,01/11/1995,Western Michigan,WR,ATL,TEN,4,Mercedes-Benz Stadium,"Atlanta, GA","Domed, closed",FieldTurf,,,0,,
47771,2019092900,20190929004100,away,46.91,16.59,4.8,2.49,0.46,213.05,214.38,2558207,Jonnu Smith,81,2019,36,4,02:01:00,TEN,3,11,ATL,10,24,2556075,SHOTGUN,"1 RB, 1 TE, 3 WR",8,"5 DL, 2 LB, 4 DB",left,2019-09-29T19:53:01.000Z,2019-09-29T19:53:00.000Z,6-3,248,08/22/1995,Florida International,TE,ATL,TEN,4,Mercedes-Benz Stadium,"Atlanta, GA","Domed, closed",FieldTurf,,,0,,
47772,2019092900,20190929004100,away,47.39,25.96,0.52,1.57,0.04,332.61,49.29,2562641,Nate Davis,64,2019,36,4,02:01:00,TEN,3,11,ATL,10,24,2556075,SHOTGUN,"1 RB, 1 TE, 3 WR",8,"5 DL, 2 LB, 4 DB",left,2019-09-29T19:53:01.000Z,2019-09-29T19:53:00.000Z,6-3,316,09/23/1996,North Carolina-Charlotte,G,ATL,TEN,4,Mercedes-Benz Stadium,"Atlanta, GA","Domed, closed",FieldTurf,,,0,,
47773,2019092900,20190929004100,home,45.49,22.69,1.4,1.02,0.13,67.19,334.0,2495116,Allen Bailey,93,2019,36,4,02:01:00,TEN,3,11,ATL,10,24,2556075,SHOTGUN,"1 RB, 1 TE, 3 WR",8,"5 DL, 2 LB, 4 DB",left,2019-09-29T19:53:01.000Z,2019-09-29T19:53:00.000Z,6-3,288,03/25/1989,Miami,DE,ATL,TEN,4,Mercedes-Benz Stadium,"Atlanta, GA","Domed, closed",FieldTurf,,,0,,
47774,2019092900,20190929004100,home,43.81,42.71,2.83,2.06,0.27,83.67,296.25,2539334,Desmond Trufant,21,2019,36,4,02:01:00,TEN,3,11,ATL,10,24,2556075,SHOTGUN,"1 RB, 1 TE, 3 WR",8,"5 DL, 2 LB, 4 DB",left,2019-09-29T19:53:01.000Z,2019-09-29T19:53:00.000Z,6-0,190,09/10/1990,Washington,CB,ATL,TEN,4,Mercedes-Benz Stadium,"Atlanta, GA","Domed, closed",FieldTurf,,,0,,
47775,2019092900,20190929004100,home,43.82,26.11,1.49,0.31,0.15,91.96,87.53,2543850,Ricardo Allen,37,2019,36,4,02:01:00,TEN,3,11,ATL,10,24,2556075,SHOTGUN,"1 RB, 1 TE, 3 WR",8,"5 DL, 2 LB, 4 DB",left,2019-09-29T19:53:01.000Z,2019-09-29T19:53:00.000Z,5-9,186,12/18/1991,Purdue,SS,ATL,TEN,4,Mercedes-Benz Stadium,"Atlanta, GA","Domed, closed",FieldTurf,,,0,,
47776,2019092900,20190929004100,home,46.8,26.73,0.58,2.52,0.06,129.66,96.94,2552327,Grady Jarrett,97,2019,36,4,02:01:00,TEN,3,11,ATL,10,24,2556075,SHOTGUN,"1 RB, 1 TE, 3 WR",8,"5 DL, 2 LB, 4 DB",left,2019-09-29T19:53:01.000Z,2019-09-29T19:53:00.000Z,6-0,305,04/28/1993,Clemson,DT,ATL,TEN,4,Mercedes-Benz Stadium,"Atlanta, GA","Domed, closed",FieldTurf,,,0,,
47777,2019092900,20190929004100,home,45.9,24.84,1.68,0.73,0.17,130.05,6.89,2552329,Tyeler Davison,96,2019,36,4,02:01:00,TEN,3,11,ATL,10,24,2556075,SHOTGUN,"1 RB, 1 TE, 3 WR",8,"5 DL, 2 LB, 4 DB",left,2019-09-29T19:53:01.000Z,2019-09-29T19:53:00.000Z,6-2,309,09/03/1992,Fresno State,DT,ATL,TEN,4,Mercedes-Benz Stadium,"Atlanta, GA","Domed, closed",FieldTurf,,,0,,
47778,2019092900,20190929004100,home,41.24,22.66,1.95,1.74,0.19,63.22,32.97,2555162,Deion Jones,45,2019,36,4,02:01:00,TEN,3,11,ATL,10,24,2556075,SHOTGUN,"1 RB, 1 TE, 3 WR",8,"5 DL, 2 LB, 4 DB",left,2019-09-29T19:53:01.000Z,2019-09-29T19:53:00.000Z,6-1,227,11/04/1994,Louisiana State,MLB,ATL,TEN,4,Mercedes-Benz Stadium,"Atlanta, GA","Domed, closed",FieldTurf,,,0,,
47779,2019092900,20190929004100,home,41.99,17.93,2.84,2.4,0.27,116.16,170.11,2555255,De'Vondre Campbell,59,2019,36,4,02:01:00,TEN,3,11,ATL,10,24,2556075,SHOTGUN,"1 RB, 1 TE, 3 WR",8,"5 DL, 2 LB, 4 DB",left,2019-09-29T19:53:01.000Z,2019-09-29T19:53:00.000Z,6-3,232,07/01/1993,Minnesota,OLB,ATL,TEN,4,Mercedes-Benz Stadium,"Atlanta, GA","Domed, closed",FieldTurf,,,0,,
47780,2019092900,20190929004100,home,47.45,21.67,3.5,1.65,0.36,72.61,50.5,2557872,Takkarist McKinley,98,2019,36,4,02:01:00,TEN,3,11,ATL,10,24,2556075,SHOTGUN,"1 RB, 1 TE, 3 WR",8,"5 DL, 2 LB, 4 DB",left,2019-09-29T19:53:01.000Z,2019-09-29T19:53:00.000Z,6-2,265,11/02/1995,UCLA,DE,ATL,TEN,4,Mercedes-Benz Stadium,"Atlanta, GA","Domed, closed",FieldTurf,,,0,,
47781,2019092900,20190929004100,home,43.69,36.66,2.94,2.07,0.28,96.99,323.05,2558184,Damontae Kazee,27,2019,36,4,02:01:00,TEN,3,11,ATL,10,24,2556075,SHOTGUN,"1 RB, 1 TE, 3 WR",8,"5 DL, 2 LB, 4 DB",left,2019-09-29T19:53:01.000Z,2019-09-29T19:53:00.000Z,5-11,190,06/05/1993,San Diego State,SS,ATL,TEN,4,Mercedes-Benz Stadium,"Atlanta, GA","Domed, closed",FieldTurf,,,0,,
47782,2019092900,20190929004100,home,44.1,14.13,2.58,2.93,0.24,104.05,234.9,2560830,Isaiah Oliver,26,2019,36,4,02:01:00,TEN,3,11,ATL,10,24,2556075,SHOTGUN,"1 RB, 1 TE, 3 WR",8,"5 DL, 2 LB, 4 DB",left,2019-09-29T19:53:01.000Z,2019-09-29T19:53:00.000Z,6-0,210,09/30/1996,Colorado,CB,ATL,TEN,4,Mercedes-Benz Stadium,"Atlanta, GA","Domed, closed",FieldTurf,,,0,,
47783,2019092900,20190929004100,home,47.29,28.55,2.4,1.6,0.25,134.86,74.57,2562249,John Cominsky,50,2019,36,4,02:01:00,TEN,3,11,ATL,10,24,2556075,SHOTGUN,"1 RB, 1 TE, 3 WR",8,"5 DL, 2 LB, 4 DB",left,2019-09-29T19:53:01.000Z,2019-09-29T19:53:00.000Z,6-5,285,11/22/1995,"Charleston, W. Va.",DE,ATL,TEN,4,Mercedes-Benz Stadium,"Atlanta, GA","Domed, closed",FieldTurf,,,0,,
