,GameId,PlayId,Team,X,Y,S,A,Dis,Orientation,Dir,NflId,DisplayName,JerseyNumber,Season,YardLine,Quarter,GameClock,PossessionTeam,Down,Distance,FieldPosition,HomeScoreBeforePlay,VisitorScoreBeforePlay,NflIdRusher,OffenseFormation,OffensePersonnel,DefendersInTheBox,DefensePersonnel,PlayDirection,TimeHandoff,TimeSnap,PlayerHeight,PlayerWeight,PlayerBirthDate,PlayerCollegeName,Position,HomeTeamAbbr,VisitorTeamAbbr,Week,Stadium,Location,StadiumType,Turf,GameWeather,Temperature,Humidity,WindSpeed,WindDirection
48906,2019092902,20190929020558,away,104.93,33.08,1.99,3.86,0.18,81.17,44.1,238498,Julian Edelman,11,2019,4,1,07:39:00,NE,1,4,BUF,0,0,2532797,SINGLEBACK,"2 RB, 1 TE, 2 WR",6,"4 DL, 2 LB, 5 DB",right,2019-09-29T17:20:01.000Z,2019-09-29T17:20:00.000Z,5-10,200,05/22/1986,Kent State,WR,BUF,NE,4,New Era Field,Orchard Park NY,Outdoors,A-Turf Titan,Mostly cloudy,58.0,71,10,E
48907,2019092902,20190929020558,away,105.47,26.33,1.16,0.38,0.13,125.45,163.17,497030,Marshall Newhouse,72,2019,4,1,07:39:00,NE,1,4,BUF,0,0,2532797,SINGLEBACK,"2 RB, 1 TE, 2 WR",6,"4 DL, 2 LB, 5 DB",right,2019-09-29T17:20:01.000Z,2019-09-29T17:20:00.000Z,6-4,328,09/29/1988,Texas Christian,T,BUF,NE,4,New Era Field,Orchard Park NY,Outdoors,A-Turf Titan,Mostly cloudy,58.0,71,10,E
48908,2019092902,20190929020558,away,105.05,21.41,1.96,0.31,0.19,118.53,5.62,2495131,Marcus Cannon,61,2019,4,1,07:39:00,NE,1,4,BUF,0,0,2532797,SINGLEBACK,"2 RB, 1 TE, 2 WR",6,"4 DL, 2 LB, 5 DB",right,2019-09-29T17:20:01.000Z,2019-09-29T17:20:00.000Z,6-6,335,05/06/1988,Texas Christian,T,BUF,NE,4,New Era Field,Orchard Park NY,Outdoors,A-Turf Titan,Mostly cloudy,58.0,71,10,E
48909,2019092902,20190929020558,away,103.83,23.59,2.02,1.0,0.21,249.15,269.53,2504211,Tom Brady,12,2019,4,1,07:39:00,NE,1,4,BUF,0,0,2532797,SINGLEBACK,"2 RB, 1 TE, 2 WR",6,"4 DL, 2 LB, 5 DB",right,2019-09-29T17:20:01.000Z,2019-09-29T17:20:00.000Z,6-4,225,08/03/1977,Michigan,QB,BUF,NE,4,New Era Field,Orchard Park NY,Outdoors,A-Turf Titan,Mostly cloudy,58.0,71,10,E
48910,2019092902,20190929020558,away,103.12,23.51,8.08,0.38,0.81,344.71,357.22,2532797,Brandon Bolden,38,2019,4,1,07:39:00,NE,1,4,BUF,0,0,2532797,SINGLEBACK,"2 RB, 1 TE, 2 WR",6,"4 DL, 2 LB, 5 DB",right,2019-09-29T17:20:01.000Z,2019-09-29T17:20:00.000Z,5-11,220,01/26/1990,Mississippi,RB,BUF,NE,4,New Era Field,Orchard Park NY,Outdoors,A-Turf Titan,Mostly cloudy,58.0,71,10,E
48911,2019092902,20190929020558,away,105.72,8.11,1.76,2.82,0.16,60.09,78.79,2537931,Josh Gordon,10,2019,4,1,07:39:00,NE,1,4,BUF,0,0,2532797,SINGLEBACK,"2 RB, 1 TE, 2 WR",6,"4 DL, 2 LB, 5 DB",right,2019-09-29T17:20:01.000Z,2019-09-29T17:20:00.000Z,6-3,225,04/13/1991,Baylor,WR,BUF,NE,4,New Era Field,Orchard Park NY,Outdoors,A-Turf Titan,Mostly cloudy,58.0,71,10,E
48912,2019092902,20190929020558,away,98.66,23.94,1.28,2.74,0.12,61.96,55.26,2543773,James White,28,2019,4,1,07:39:00,NE,1,4,BUF,0,0,2532797,SINGLEBACK,"2 RB, 1 TE, 2 WR",6,"4 DL, 2 LB, 5 DB",right,2019-09-29T17:20:01.000Z,2019-09-29T17:20:00.000Z,5-10,205,02/03/1992,Wisconsin,RB,BUF,NE,4,New Era Field,Orchard Park NY,Outdoors,A-Turf Titan,Mostly cloudy,58.0,71,10,E
48913,2019092902,20190929020558,away,104.68,23.14,2.95,1.73,0.31,63.56,356.66,2552563,Shaq Mason,69,2019,4,1,07:39:00,NE,1,4,BUF,0,0,2532797,SINGLEBACK,"2 RB, 1 TE, 2 WR",6,"4 DL, 2 LB, 5 DB",right,2019-09-29T17:20:01.000Z,2019-09-29T17:20:00.000Z,6-1,310,08/28/1993,Georgia Tech,G,BUF,NE,4,New Era Field,Orchard Park NY,Outdoors,A-Turf Titan,Mostly cloudy,58.0,71,10,E
48914,2019092902,20190929020558,away,105.9,23.75,0.43,0.97,0.04,155.78,342.37,2555145,Ted Karras,75,2019,4,1,07:39:00,NE,1,4,BUF,0,0,2532797,SINGLEBACK,"2 RB, 1 TE, 2 WR",6,"4 DL, 2 LB, 5 DB",right,2019-09-29T17:20:01.000Z,2019-09-29T17:20:00.000Z,6-4,305,03/15/1993,Illinois,C,BUF,NE,4,New Era Field,Orchard Park NY,Outdoors,A-Turf Titan,Mostly cloudy,58.0,71,10,E
48915,2019092902,20190929020558,away,105.61,25.43,0.72,0.53,0.07,88.49,123.49,2555281,Joe Thuney,62,2019,4,1,07:39:00,NE,1,4,BUF,0,0,2532797,SINGLEBACK,"2 RB, 1 TE, 2 WR",6,"4 DL, 2 LB, 5 DB",right,2019-09-29T17:20:01.000Z,2019-09-29T17:20:00.000Z,6-5,308,11/18/1992,North Carolina State,G,BUF,NE,4,New Era Field,Orchard Park NY,Outdoors,A-Turf Titan,Mostly cloudy,58.0,71,10,E
48916,2019092902,20190929020558,away,105.54,27.88,0.82,1.64,0.07,74.45,187.32,2560751,Ryan Izzo,85,2019,4,1,07:39:00,NE,1,4,BUF,0,0,2532797,SINGLEBACK,"2 RB, 1 TE, 2 WR",6,"4 DL, 2 LB, 5 DB",right,2019-09-29T17:20:01.000Z,2019-09-29T17:20:00.000Z,6-5,255,12/21/1995,Florida State,TE,BUF,NE,4,New Era Field,Orchard Park NY,Outdoors,A-Turf Titan,Mostly cloudy,58.0,71,10,E
48917,2019092902,20190929020558,home,109.05,18.02,3.15,1.26,0.31,272.41,325.63,2539240,Micah Hyde,23,2019,4,1,07:39:00,NE,1,4,BUF,0,0,2532797,SINGLEBACK,"2 RB, 1 TE, 2 WR",6,"4 DL, 2 LB, 5 DB",right,2019-09-29T17:20:01.000Z,2019-09-29T17:20:00.000Z,6-0,197,12/31/1990,Iowa,SS,BUF,NE,4,New Era Field,Orchard Park NY,Outdoors,A-Turf Titan,Mostly cloudy,58.0,71,10,E
48918,2019092902,20190929020558,home,112.16,27.06,2.72,2.87,0.26,247.77,351.36,2539290,Jordan Poyer,21,2019,4,1,07:39:00,NE,1,4,BUF,0,0,2532797,SINGLEBACK,"2 RB, 1 TE, 2 WR",6,"4 DL, 2 LB, 5 DB",right,2019-09-29T17:20:01.000Z,2019-09-29T17:20:00.000Z,6-0,191,04/25/1991,Oregon State,FS,BUF,NE,4,New Era Field,Orchard Park NY,Outdoors,A-Turf Titan,Mostly cloudy,58.0,71,10,E
48919,2019092902,20190929020558,home,106.54,23.03,1.03,0.27,0.1,320.49,294.44,2539329,Star Lotulelei,98,2019,4,1,07:39:00,NE,1,4,BUF,0,0,2532797,SINGLEBACK,"2 RB, 1 TE, 2 WR",6,"4 DL, 2 LB, 5 DB",right,2019-09-29T17:20:01.000Z,2019-09-29T17:20:00.000Z,6-2,318,12/20/1989,Utah,DT,BUF,NE,4,New Era Field,Orchard Park NY,Outdoors,A-Turf Titan,Mostly cloudy,58.0,71,10,E
48920,2019092902,20190929020558,home,106.42,25.87,0.47,0.76,0.05,258.12,243.96,2552492,Jordan Phillips,97,2019,4,1,07:39:00,NE,1,4,BUF,0,0,2532797,SINGLEBACK,"2 RB, 1 TE, 2 WR",6,"4 DL, 2 LB, 5 DB",right,2019-09-29T17:20:01.000Z,2019-09-29T17:20:00.000Z,6-6,341,09/21/1992,Oklahoma,DT,BUF,NE,4,New Era Field,Orchard Park NY,Outdoors,A-Turf Titan,Mostly cloudy,58.0,71,10,E
48921,2019092902,20190929020558,home,106.8,27.89,1.0,0.45,0.1,248.21,233.75,2555252,Shaq Lawson,90,2019,4,1,07:39:00,NE,1,4,BUF,0,0,2532797,SINGLEBACK,"2 RB, 1 TE, 2 WR",6,"4 DL, 2 LB, 5 DB",right,2019-09-29T17:20:01.000Z,2019-09-29T17:20:00.000Z,6-3,267,06/17/1994,Clemson,DE,BUF,NE,4,New Era Field,Orchard Park NY,Outdoors,A-Turf Titan,Mostly cloudy,58.0,71,10,E
48922,2019092902,20190929020558,home,107.72,8.08,0.81,1.29,0.08,266.41,79.05,2557867,Tre'Davious White,27,2019,4,1,07:39:00,NE,1,4,BUF,0,0,2532797,SINGLEBACK,"2 RB, 1 TE, 2 WR",6,"4 DL, 2 LB, 5 DB",right,2019-09-29T17:20:01.000Z,2019-09-29T17:20:00.000Z,5-11,192,01/16/1995,Louisiana State,CB,BUF,NE,4,New Era Field,Orchard Park NY,Outdoors,A-Turf Titan,Mostly cloudy,58.0,71,10,E
48923,2019092902,20190929020558,home,108.84,21.61,3.7,0.48,0.37,271.29,337.9,2557969,Matt Milano,58,2019,4,1,07:39:00,NE,1,4,BUF,0,0,2532797,SINGLEBACK,"2 RB, 1 TE, 2 WR",6,"4 DL, 2 LB, 5 DB",right,2019-09-29T17:20:01.000Z,2019-09-29T17:20:00.000Z,6-0,223,07/28/1994,Boston College,OLB,BUF,NE,4,New Era Field,Orchard Park NY,Outdoors,A-Turf Titan,Mostly cloudy,58.0,71,10,E
48924,2019092902,20190929020558,home,109.2,25.63,2.99,2.24,0.29,277.6,306.84,2560713,Tremaine Edmunds,49,2019,4,1,07:39:00,NE,1,4,BUF,0,0,2532797,SINGLEBACK,"2 RB, 1 TE, 2 WR",6,"4 DL, 2 LB, 5 DB",right,2019-09-29T17:20:01.000Z,2019-09-29T17:20:00.000Z,6-5,250,05/02/1998,Virginia Tech,LB,BUF,NE,4,New Era Field,Orchard Park NY,Outdoors,A-Turf Titan,Mostly cloudy,58.0,71,10,E
48925,2019092902,20190929020558,home,107.25,31.51,3.85,2.72,0.37,251.89,357.69,2560818,Siran Neal,33,2019,4,1,07:39:00,NE,1,4,BUF,0,0,2532797,SINGLEBACK,"2 RB, 1 TE, 2 WR",6,"4 DL, 2 LB, 5 DB",right,2019-09-29T17:20:01.000Z,2019-09-29T17:20:00.000Z,6-0,205,08/04/1994,Jacksonville State,DB,BUF,NE,4,New Era Field,Orchard Park NY,Outdoors,A-Turf Titan,Mostly cloudy,58.0,71,10,E
48926,2019092902,20190929020558,home,108.85,33.48,0.06,0.35,0.01,271.12,203.78,2560914,Levi Wallace,39,2019,4,1,07:39:00,NE,1,4,BUF,0,0,2532797,SINGLEBACK,"2 RB, 1 TE, 2 WR",6,"4 DL, 2 LB, 5 DB",right,2019-09-29T17:20:01.000Z,2019-09-29T17:20:00.000Z,6-0,179,06/12/1995,Alabama,CB,BUF,NE,4,New Era Field,Orchard Park NY,Outdoors,A-Turf Titan,Mostly cloudy,58.0,71,10,E
48927,2019092902,20190929020558,home,105.93,19.4,2.62,1.0,0.28,338.17,306.92,2562672,Darryl Johnson,92,2019,4,1,07:39:00,NE,1,4,BUF,0,0,2532797,SINGLEBACK,"2 RB, 1 TE, 2 WR",6,"4 DL, 2 LB, 5 DB",right,2019-09-29T17:20:01.000Z,2019-09-29T17:20:00.000Z,6-6,253,04/04/1997,North Carolina A&T,DE,BUF,NE,4,New Era Field,Orchard Park NY,Outdoors,A-Turf Titan,Mostly cloudy,58.0,71,10,E
