,GameId,PlayId,Team,X,Y,S,A,Dis,Orientation,Dir,NflId,DisplayName,JerseyNumber,Season,YardLine,Quarter,GameClock,PossessionTeam,Down,Distance,FieldPosition,HomeScoreBeforePlay,VisitorScoreBeforePlay,NflIdRusher,OffenseFormation,OffensePersonnel,DefendersInTheBox,DefensePersonnel,PlayDirection,TimeHandoff,TimeSnap,PlayerHeight,PlayerWeight,PlayerBirthDate,PlayerCollegeName,Position,HomeTeamAbbr,VisitorTeamAbbr,Week,Stadium,Location,StadiumType,Turf,GameWeather,Temperature,Humidity,WindSpeed,WindDirection
32340,2019092201,20190922010729,away,103.5,26.26,1.83,2.4,0.19,317.73,167.04,2539231,John Jenkins,95,2019,7,1,06:35:00,DAL,1,7,MIA,3,0,2555224,SHOTGUN,"1 RB, 1 TE, 3 WR",6,"3 DL, 3 LB, 5 DB",right,2019-09-22T17:29:26.000Z,2019-09-22T17:29:24.000Z,6-3,327,07/11/1989,Georgia,NT,DAL,MIA,3,AT&T Stadium,"Arlington, Texas",indoor,Artificial,,,0,,
32341,2019092201,20190922010729,away,107.07,36.05,2.13,2.46,0.2,257.41,188.66,2543724,Walt Aikens,35,2019,7,1,06:35:00,DAL,1,7,MIA,3,0,2555224,SHOTGUN,"1 RB, 1 TE, 3 WR",6,"3 DL, 3 LB, 5 DB",right,2019-09-22T17:29:26.000Z,2019-09-22T17:29:24.000Z,6-1,200,06/19/1991,Liberty,CB,DAL,MIA,3,AT&T Stadium,"Arlington, Texas",indoor,Artificial,,,0,,
32342,2019092201,20190922010729,away,109.85,11.42,1.31,1.07,0.13,308.76,342.8,2552255,Eric Rowe,21,2019,7,1,06:35:00,DAL,1,7,MIA,3,0,2555224,SHOTGUN,"1 RB, 1 TE, 3 WR",6,"3 DL, 3 LB, 5 DB",right,2019-09-22T17:29:26.000Z,2019-09-22T17:29:24.000Z,6-1,205,10/03/1992,Utah,CB,DAL,MIA,3,AT&T Stadium,"Arlington, Texas",indoor,Artificial,,,0,,
32343,2019092201,20190922010729,away,113.54,29.5,1.64,3.26,0.15,241.73,243.77,2552434,Bobby McCain,28,2019,7,1,06:35:00,DAL,1,7,MIA,3,0,2555224,SHOTGUN,"1 RB, 1 TE, 3 WR",6,"3 DL, 3 LB, 5 DB",right,2019-09-22T17:29:26.000Z,2019-09-22T17:29:24.000Z,5-11,192,08/18/1993,Memphis,CB,DAL,MIA,3,AT&T Stadium,"Arlington, Texas",indoor,Artificial,,,0,,
32344,2019092201,20190922010729,away,109.92,40.95,1.88,1.64,0.18,258.81,146.29,2555539,Xavien Howard,25,2019,7,1,06:35:00,DAL,1,7,MIA,3,0,2555224,SHOTGUN,"1 RB, 1 TE, 3 WR",6,"3 DL, 3 LB, 5 DB",right,2019-09-22T17:29:26.000Z,2019-09-22T17:29:24.000Z,6-1,200,07/04/1993,Baylor,CB,DAL,MIA,3,AT&T Stadium,"Arlington, Texas",indoor,Artificial,,,0,,
32345,2019092201,20190922010729,away,102.42,25.64,1.25,1.69,0.13,270.66,347.26,2558001,Charles Harris,90,2019,7,1,06:35:00,DAL,1,7,MIA,3,0,2555224,SHOTGUN,"1 RB, 1 TE, 3 WR",6,"3 DL, 3 LB, 5 DB",right,2019-09-22T17:29:26.000Z,2019-09-22T17:29:24.000Z,6-3,250,03/06/1995,Missouri,DE,DAL,MIA,3,AT&T Stadium,"Arlington, Texas",indoor,Artificial,,,0,,
32346,2019092201,20190922010729,away,103.57,30.96,0.73,0.51,0.08,264.4,189.98,2558012,Davon Godchaux,56,2019,7,1,06:35:00,DAL,1,7,MIA,3,0,2555224,SHOTGUN,"1 RB, 1 TE, 3 WR",6,"3 DL, 3 LB, 5 DB",right,2019-09-22T17:29:26.000Z,2019-09-22T17:29:24.000Z,6-3,311,11/11/1994,Louisiana State,DT,DAL,MIA,3,AT&T Stadium,"Arlington, Texas",indoor,Artificial,,,0,,
32347,2019092201,20190922010729,away,101.93,35.23,2.11,4.18,0.2,202.15,206.23,2558031,Avery Moss,93,2019,7,1,06:35:00,DAL,1,7,MIA,3,0,2555224,SHOTGUN,"1 RB, 1 TE, 3 WR",6,"3 DL, 3 LB, 5 DB",right,2019-09-22T17:29:26.000Z,2019-09-22T17:29:24.000Z,6-3,271,09/16/1994,Youngstown State,OLB,DAL,MIA,3,AT&T Stadium,"Arlington, Texas",indoor,Artificial,,,0,,
32348,2019092201,20190922010729,away,107.0,18.94,0.74,0.77,0.07,288.45,121.15,2559283,Jomal Wiltz,33,2019,7,1,06:35:00,DAL,1,7,MIA,3,0,2555224,SHOTGUN,"1 RB, 1 TE, 3 WR",6,"3 DL, 3 LB, 5 DB",right,2019-09-22T17:29:26.000Z,2019-09-22T17:29:24.000Z,5-10,180,10/23/1994,Iowa State,CB,DAL,MIA,3,AT&T Stadium,"Arlington, Texas",indoor,Artificial,,,0,,
32349,2019092201,20190922010729,away,105.25,27.62,3.87,2.84,0.37,324.12,290.55,2560966,Jerome Baker,55,2019,7,1,06:35:00,DAL,1,7,MIA,3,0,2555224,SHOTGUN,"1 RB, 1 TE, 3 WR",6,"3 DL, 3 LB, 5 DB",right,2019-09-22T17:29:26.000Z,2019-09-22T17:29:24.000Z,6-2,225,12/25/1996,Ohio State,LB,DAL,MIA,3,AT&T Stadium,"Arlington, Texas",indoor,Artificial,,,0,,
32350,2019092201,20190922010729,away,106.6,29.7,1.03,1.46,0.1,323.63,234.29,2562038,Sam Eguavoen,49,2019,7,1,06:35:00,DAL,1,7,MIA,3,0,2555224,SHOTGUN,"1 RB, 1 TE, 3 WR",6,"3 DL, 3 LB, 5 DB",right,2019-09-22T17:29:26.000Z,2019-09-22T17:29:24.000Z,6-0,236,02/22/1993,Texas Tech,LB,DAL,MIA,3,AT&T Stadium,"Arlington, Texas",indoor,Artificial,,,0,,
32351,2019092201,20190922010729,home,103.09,31.62,1.0,1.66,0.11,159.86,142.61,2495435,Tyron Smith,77,2019,7,1,06:35:00,DAL,1,7,MIA,3,0,2555224,SHOTGUN,"1 RB, 1 TE, 3 WR",6,"3 DL, 3 LB, 5 DB",right,2019-09-22T17:29:26.000Z,2019-09-22T17:29:24.000Z,6-5,320,12/12/1990,Southern California,T,DAL,MIA,3,AT&T Stadium,"Arlington, Texas",indoor,Artificial,,,0,,
32352,2019092201,20190922010729,home,104.87,19.49,4.42,0.78,0.44,115.89,100.54,2495448,Randall Cobb,18,2019,7,1,06:35:00,DAL,1,7,MIA,3,0,2555224,SHOTGUN,"1 RB, 1 TE, 3 WR",6,"3 DL, 3 LB, 5 DB",right,2019-09-22T17:29:26.000Z,2019-09-22T17:29:24.000Z,5-10,192,08/22/1990,Kentucky,WR,DAL,MIA,3,AT&T Stadium,"Arlington, Texas",indoor,Artificial,,,0,,
32353,2019092201,20190922010729,home,102.75,38.33,4.8,1.71,0.47,11.88,25.92,2505629,Jason Witten,82,2019,7,1,06:35:00,DAL,1,7,MIA,3,0,2555224,SHOTGUN,"1 RB, 1 TE, 3 WR",6,"3 DL, 3 LB, 5 DB",right,2019-09-22T17:29:26.000Z,2019-09-22T17:29:24.000Z,6-6,263,05/06/1982,Tennessee,TE,DAL,MIA,3,AT&T Stadium,"Arlington, Texas",indoor,Artificial,,,0,,
32354,2019092201,20190922010729,home,103.42,27.39,2.32,4.31,0.24,85.19,137.92,2540161,Travis Frederick,72,2019,7,1,06:35:00,DAL,1,7,MIA,3,0,2555224,SHOTGUN,"1 RB, 1 TE, 3 WR",6,"3 DL, 3 LB, 5 DB",right,2019-09-22T17:29:26.000Z,2019-09-22T17:29:24.000Z,6-4,320,03/18/1991,Wisconsin,C,DAL,MIA,3,AT&T Stadium,"Arlington, Texas",indoor,Artificial,,,0,,
32355,2019092201,20190922010729,home,102.75,26.6,1.55,1.48,0.15,130.87,149.56,2543480,Zack Martin,70,2019,7,1,06:35:00,DAL,1,7,MIA,3,0,2555224,SHOTGUN,"1 RB, 1 TE, 3 WR",6,"3 DL, 3 LB, 5 DB",right,2019-09-22T17:29:26.000Z,2019-09-22T17:29:24.000Z,6-4,315,11/20/1990,Notre Dame,G,DAL,MIA,3,AT&T Stadium,"Arlington, Texas",indoor,Artificial,,,0,,
32356,2019092201,20190922010729,home,105.28,38.89,4.6,2.24,0.46,147.45,124.35,2552487,Amari Cooper,19,2019,7,1,06:35:00,DAL,1,7,MIA,3,0,2555224,SHOTGUN,"1 RB, 1 TE, 3 WR",6,"3 DL, 3 LB, 5 DB",right,2019-09-22T17:29:26.000Z,2019-09-22T17:29:24.000Z,6-1,211,06/17/1994,Alabama,WR,DAL,MIA,3,AT&T Stadium,"Arlington, Texas",indoor,Artificial,,,0,,
32357,2019092201,20190922010729,home,105.04,10.78,5.34,2.75,0.52,85.48,89.79,2553434,Devin Smith,15,2019,7,1,06:35:00,DAL,1,7,MIA,3,0,2555224,SHOTGUN,"1 RB, 1 TE, 3 WR",6,"3 DL, 3 LB, 5 DB",right,2019-09-22T17:29:26.000Z,2019-09-22T17:29:24.000Z,6-1,199,03/03/1992,Ohio State,WR,DAL,MIA,3,AT&T Stadium,"Arlington, Texas",indoor,Artificial,,,0,,
32358,2019092201,20190922010729,home,102.01,25.73,1.15,1.65,0.1,75.85,138.83,2553505,La'el Collins,71,2019,7,1,06:35:00,DAL,1,7,MIA,3,0,2555224,SHOTGUN,"1 RB, 1 TE, 3 WR",6,"3 DL, 3 LB, 5 DB",right,2019-09-22T17:29:26.000Z,2019-09-22T17:29:24.000Z,6-4,320,07/26/1993,Louisiana State,T,DAL,MIA,3,AT&T Stadium,"Arlington, Texas",indoor,Artificial,,,0,,
32359,2019092201,20190922010729,home,99.5,30.17,3.7,2.72,0.36,94.18,118.58,2555224,Ezekiel Elliott,21,2019,7,1,06:35:00,DAL,1,7,MIA,3,0,2555224,SHOTGUN,"1 RB, 1 TE, 3 WR",6,"3 DL, 3 LB, 5 DB",right,2019-09-22T17:29:26.000Z,2019-09-22T17:29:24.000Z,6-0,228,07/22/1995,Ohio State,RB,DAL,MIA,3,AT&T Stadium,"Arlington, Texas",indoor,Artificial,,,0,,
32360,2019092201,20190922010729,home,98.84,30.14,2.12,3.19,0.2,42.48,60.17,2555260,Dak Prescott,4,2019,7,1,06:35:00,DAL,1,7,MIA,3,0,2555224,SHOTGUN,"1 RB, 1 TE, 3 WR",6,"3 DL, 3 LB, 5 DB",right,2019-09-22T17:29:26.000Z,2019-09-22T17:29:24.000Z,6-2,238,07/29/1993,Mississippi State,QB,DAL,MIA,3,AT&T Stadium,"Arlington, Texas",indoor,Artificial,,,0,,
32361,2019092201,20190922010729,home,102.93,30.82,0.63,1.14,0.06,75.3,158.11,2560934,Connor Williams,52,2019,7,1,06:35:00,DAL,1,7,MIA,3,0,2555224,SHOTGUN,"1 RB, 1 TE, 3 WR",6,"3 DL, 3 LB, 5 DB",right,2019-09-22T17:29:26.000Z,2019-09-22T17:29:24.000Z,6-5,298,05/12/1997,Texas,G,DAL,MIA,3,AT&T Stadium,"Arlington, Texas",indoor,Artificial,,,0,,
