,GameId,PlayId,Team,X,Y,S,A,Dis,Orientation,Dir,NflId,DisplayName,JerseyNumber,Season,YardLine,Quarter,GameClock,PossessionTeam,Down,Distance,FieldPosition,HomeScoreBeforePlay,VisitorScoreBeforePlay,NflIdRusher,OffenseFormation,OffensePersonnel,DefendersInTheBox,DefensePersonnel,PlayDirection,TimeHandoff,TimeSnap,PlayerHeight,PlayerWeight,PlayerBirthDate,PlayerCollegeName,Position,HomeTeamAbbr,VisitorTeamAbbr,Week,Stadium,Location,StadiumType,Turf,GameWeather,Temperature,Humidity,WindSpeed,WindDirection
47344,2019092900,20190929002677,away,52.16,28.61,3.49,1.09,0.36,89.85,131.11,497048,Rodger Saffold,76,2019,41,3,11:05:00,TEN,1,10,TEN,10,24,2556075,I_FORM,"1 RB, 2 TE, 2 WR",8,"4 DL, 3 LB, 4 DB",right,2019-09-29T18:56:58.000Z,2019-09-29T18:56:57.000Z,6-5,325,06/06/1988,Indiana,G,ATL,TEN,4,Mercedes-Benz Stadium,"Atlanta, GA","Domed, closed",FieldTurf,,,0,,
47345,2019092900,20190929002677,away,50.22,26.42,3.22,0.78,0.33,65.26,181.82,2532883,Ben Jones,60,2019,41,3,11:05:00,TEN,1,10,TEN,10,24,2556075,I_FORM,"1 RB, 2 TE, 2 WR",8,"4 DL, 3 LB, 4 DB",right,2019-09-29T18:56:58.000Z,2019-09-29T18:56:57.000Z,6-3,308,07/02/1989,Georgia,C,ATL,TEN,4,Mercedes-Benz Stadium,"Atlanta, GA","Domed, closed",FieldTurf,,,0,,
47346,2019092900,20190929002677,away,50.98,29.04,4.3,0.82,0.43,103.85,153.45,2535131,Dennis Kelly,71,2019,41,3,11:05:00,TEN,1,10,TEN,10,24,2556075,I_FORM,"1 RB, 2 TE, 2 WR",8,"4 DL, 3 LB, 4 DB",right,2019-09-29T18:56:58.000Z,2019-09-29T18:56:57.000Z,6-8,321,01/16/1990,Purdue,OT,ATL,TEN,4,Mercedes-Benz Stadium,"Atlanta, GA","Domed, closed",FieldTurf,,,0,,
47347,2019092900,20190929002677,away,52.04,26.0,2.86,1.64,0.29,40.24,146.1,2552339,Jamil Douglas,75,2019,41,3,11:05:00,TEN,1,10,TEN,10,24,2556075,I_FORM,"1 RB, 2 TE, 2 WR",8,"4 DL, 3 LB, 4 DB",right,2019-09-29T18:56:58.000Z,2019-09-29T18:56:57.000Z,6-4,308,02/28/1992,Arizona State,OG,ATL,TEN,4,Mercedes-Benz Stadium,"Atlanta, GA","Domed, closed",FieldTurf,,,0,,
47348,2019092900,20190929002677,away,48.52,25.86,5.48,1.99,0.54,129.47,142.57,2552401,MyCole Pruitt,85,2019,41,3,11:05:00,TEN,1,10,TEN,10,24,2556075,I_FORM,"1 RB, 2 TE, 2 WR",8,"4 DL, 3 LB, 4 DB",right,2019-09-29T18:56:58.000Z,2019-09-29T18:56:57.000Z,6-2,243,03/24/1992,Southern Illinois,TE,ATL,TEN,4,Mercedes-Benz Stadium,"Atlanta, GA","Domed, closed",FieldTurf,,,0,,
47349,2019092900,20190929002677,away,46.67,27.63,4.09,2.05,0.41,226.72,241.81,2552466,Marcus Mariota,8,2019,41,3,11:05:00,TEN,1,10,TEN,10,24,2556075,I_FORM,"1 RB, 2 TE, 2 WR",8,"4 DL, 3 LB, 4 DB",right,2019-09-29T18:56:58.000Z,2019-09-29T18:56:57.000Z,6-4,222,10/30/1993,Oregon,QB,ATL,TEN,4,Mercedes-Benz Stadium,"Atlanta, GA","Domed, closed",FieldTurf,,,0,,
47350,2019092900,20190929002677,away,49.34,24.13,2.13,1.25,0.22,82.47,196.67,2555279,Jack Conklin,78,2019,41,3,11:05:00,TEN,1,10,TEN,10,24,2556075,I_FORM,"1 RB, 2 TE, 2 WR",8,"4 DL, 3 LB, 4 DB",right,2019-09-29T18:56:58.000Z,2019-09-29T18:56:57.000Z,6-6,308,08/17/1994,Michigan State,T,ATL,TEN,4,Mercedes-Benz Stadium,"Atlanta, GA","Domed, closed",FieldTurf,,,0,,
47351,2019092900,20190929002677,away,52.92,40.59,5.24,2.63,0.52,89.98,67.58,2555317,Tajae Sharpe,19,2019,41,3,11:05:00,TEN,1,10,TEN,10,24,2556075,I_FORM,"1 RB, 2 TE, 2 WR",8,"4 DL, 3 LB, 4 DB",right,2019-09-29T18:56:58.000Z,2019-09-29T18:56:57.000Z,6-2,194,12/23/1994,Massachusetts,WR,ATL,TEN,4,Mercedes-Benz Stadium,"Atlanta, GA","Domed, closed",FieldTurf,,,0,,
47352,2019092900,20190929002677,away,45.99,26.73,5.76,1.82,0.57,140.45,145.08,2556075,Derrick Henry,22,2019,41,3,11:05:00,TEN,1,10,TEN,10,24,2556075,I_FORM,"1 RB, 2 TE, 2 WR",8,"4 DL, 3 LB, 4 DB",right,2019-09-29T18:56:58.000Z,2019-09-29T18:56:57.000Z,6-3,247,01/04/1994,Alabama,RB,ATL,TEN,4,Mercedes-Benz Stadium,"Atlanta, GA","Domed, closed",FieldTurf,,,0,,
47353,2019092900,20190929002677,away,52.73,14.18,5.62,2.48,0.55,84.85,107.44,2557848,Corey Davis,84,2019,41,3,11:05:00,TEN,1,10,TEN,10,24,2556075,I_FORM,"1 RB, 2 TE, 2 WR",8,"4 DL, 3 LB, 4 DB",right,2019-09-29T18:56:58.000Z,2019-09-29T18:56:57.000Z,6-3,209,01/11/1995,Western Michigan,WR,ATL,TEN,4,Mercedes-Benz Stadium,"Atlanta, GA","Domed, closed",FieldTurf,,,0,,
47354,2019092900,20190929002677,away,50.22,21.69,2.57,2.0,0.26,157.71,192.68,2558207,Jonnu Smith,81,2019,41,3,11:05:00,TEN,1,10,TEN,10,24,2556075,I_FORM,"1 RB, 2 TE, 2 WR",8,"4 DL, 3 LB, 4 DB",right,2019-09-29T18:56:58.000Z,2019-09-29T18:56:57.000Z,6-3,248,08/22/1995,Florida International,TE,ATL,TEN,4,Mercedes-Benz Stadium,"Atlanta, GA","Domed, closed",FieldTurf,,,0,,
47355,2019092900,20190929002677,home,50.18,24.28,2.16,1.51,0.22,261.0,198.08,2495116,Allen Bailey,93,2019,41,3,11:05:00,TEN,1,10,TEN,10,24,2556075,I_FORM,"1 RB, 2 TE, 2 WR",8,"4 DL, 3 LB, 4 DB",right,2019-09-29T18:56:58.000Z,2019-09-29T18:56:57.000Z,6-3,288,03/25/1989,Miami,DE,ATL,TEN,4,Mercedes-Benz Stadium,"Atlanta, GA","Domed, closed",FieldTurf,,,0,,
47356,2019092900,20190929002677,home,57.04,12.86,4.03,1.01,0.4,20.3,105.26,2539334,Desmond Trufant,21,2019,41,3,11:05:00,TEN,1,10,TEN,10,24,2556075,I_FORM,"1 RB, 2 TE, 2 WR",8,"4 DL, 3 LB, 4 DB",right,2019-09-29T18:56:58.000Z,2019-09-29T18:56:57.000Z,6-0,190,09/10/1990,Washington,CB,ATL,TEN,4,Mercedes-Benz Stadium,"Atlanta, GA","Domed, closed",FieldTurf,,,0,,
47357,2019092900,20190929002677,home,54.75,30.78,4.39,2.4,0.43,222.48,190.07,2541431,Kemal Ishmael,36,2019,41,3,11:05:00,TEN,1,10,TEN,10,24,2556075,I_FORM,"1 RB, 2 TE, 2 WR",8,"4 DL, 3 LB, 4 DB",right,2019-09-29T18:56:58.000Z,2019-09-29T18:56:57.000Z,6-0,206,05/06/1991,Central Florida,FS,ATL,TEN,4,Mercedes-Benz Stadium,"Atlanta, GA","Domed, closed",FieldTurf,,,0,,
47358,2019092900,20190929002677,home,71.17,26.73,2.24,1.42,0.22,259.12,114.29,2543850,Ricardo Allen,37,2019,41,3,11:05:00,TEN,1,10,TEN,10,24,2556075,I_FORM,"1 RB, 2 TE, 2 WR",8,"4 DL, 3 LB, 4 DB",right,2019-09-29T18:56:58.000Z,2019-09-29T18:56:57.000Z,5-9,186,12/18/1991,Purdue,SS,ATL,TEN,4,Mercedes-Benz Stadium,"Atlanta, GA","Domed, closed",FieldTurf,,,0,,
47359,2019092900,20190929002677,home,50.49,21.22,2.71,0.48,0.27,315.65,205.73,2552301,Vic Beasley,44,2019,41,3,11:05:00,TEN,1,10,TEN,10,24,2556075,I_FORM,"1 RB, 2 TE, 2 WR",8,"4 DL, 3 LB, 4 DB",right,2019-09-29T18:56:58.000Z,2019-09-29T18:56:57.000Z,6-3,246,07/08/1992,Clemson,OLB,ATL,TEN,4,Mercedes-Benz Stadium,"Atlanta, GA","Domed, closed",FieldTurf,,,0,,
47360,2019092900,20190929002677,home,52.11,29.58,2.96,0.53,0.31,191.19,152.34,2552327,Grady Jarrett,97,2019,41,3,11:05:00,TEN,1,10,TEN,10,24,2556075,I_FORM,"1 RB, 2 TE, 2 WR",8,"4 DL, 3 LB, 4 DB",right,2019-09-29T18:56:58.000Z,2019-09-29T18:56:57.000Z,6-0,305,04/28/1993,Clemson,DT,ATL,TEN,4,Mercedes-Benz Stadium,"Atlanta, GA","Domed, closed",FieldTurf,,,0,,
47361,2019092900,20190929002677,home,51.08,26.73,3.29,1.06,0.34,265.12,181.54,2552329,Tyeler Davison,96,2019,41,3,11:05:00,TEN,1,10,TEN,10,24,2556075,I_FORM,"1 RB, 2 TE, 2 WR",8,"4 DL, 3 LB, 4 DB",right,2019-09-29T18:56:58.000Z,2019-09-29T18:56:57.000Z,6-2,309,09/03/1992,Fresno State,DT,ATL,TEN,4,Mercedes-Benz Stadium,"Atlanta, GA","Domed, closed",FieldTurf,,,0,,
47362,2019092900,20190929002677,home,53.0,24.15,4.96,1.36,0.49,276.32,239.12,2555162,Deion Jones,45,2019,41,3,11:05:00,TEN,1,10,TEN,10,24,2556075,I_FORM,"1 RB, 2 TE, 2 WR",8,"4 DL, 3 LB, 4 DB",right,2019-09-29T18:56:58.000Z,2019-09-29T18:56:57.000Z,6-1,227,11/04/1994,Louisiana State,MLB,ATL,TEN,4,Mercedes-Benz Stadium,"Atlanta, GA","Domed, closed",FieldTurf,,,0,,
47363,2019092900,20190929002677,home,53.47,27.01,4.83,1.34,0.48,261.21,234.5,2555255,De'Vondre Campbell,59,2019,41,3,11:05:00,TEN,1,10,TEN,10,24,2556075,I_FORM,"1 RB, 2 TE, 2 WR",8,"4 DL, 3 LB, 4 DB",right,2019-09-29T18:56:58.000Z,2019-09-29T18:56:57.000Z,6-3,232,07/01/1993,Minnesota,OLB,ATL,TEN,4,Mercedes-Benz Stadium,"Atlanta, GA","Domed, closed",FieldTurf,,,0,,
47364,2019092900,20190929002677,home,51.14,32.59,4.6,1.28,0.48,228.53,182.7,2557872,Takkarist McKinley,98,2019,41,3,11:05:00,TEN,1,10,TEN,10,24,2556075,I_FORM,"1 RB, 2 TE, 2 WR",8,"4 DL, 3 LB, 4 DB",right,2019-09-29T18:56:58.000Z,2019-09-29T18:56:57.000Z,6-2,265,11/02/1995,UCLA,DE,ATL,TEN,4,Mercedes-Benz Stadium,"Atlanta, GA","Domed, closed",FieldTurf,,,0,,
47365,2019092900,20190929002677,home,54.12,40.49,4.51,2.49,0.44,147.6,56.56,2560830,Isaiah Oliver,26,2019,41,3,11:05:00,TEN,1,10,TEN,10,24,2556075,I_FORM,"1 RB, 2 TE, 2 WR",8,"4 DL, 3 LB, 4 DB",right,2019-09-29T18:56:58.000Z,2019-09-29T18:56:57.000Z,6-0,210,09/30/1996,Colorado,CB,ATL,TEN,4,Mercedes-Benz Stadium,"Atlanta, GA","Domed, closed",FieldTurf,,,0,,
