,GameId,PlayId,Team,X,Y,S,A,Dis,Orientation,Dir,NflId,DisplayName,JerseyNumber,Season,YardLine,Quarter,GameClock,PossessionTeam,Down,Distance,FieldPosition,HomeScoreBeforePlay,VisitorScoreBeforePlay,NflIdRusher,OffenseFormation,OffensePersonnel,DefendersInTheBox,DefensePersonnel,PlayDirection,TimeHandoff,TimeSnap,PlayerHeight,PlayerWeight,PlayerBirthDate,PlayerCollegeName,Position,HomeTeamAbbr,VisitorTeamAbbr,Week,Stadium,Location,StadiumType,Turf,GameWeather,Temperature,Humidity,WindSpeed,WindDirection
58564,2019092911,20190929113618,away,47.66,24.56,4.26,2.55,0.42,31.28,32.43,2543475,Marqise Lee,11,2019,37,4,07:48:00,JAX,2,8,JAX,17,20,2557973,I_FORM,"1 RB, 2 TE, 2 WR",8,"3 DL, 4 LB, 4 DB",right,2019-09-29T23:11:08.000Z,2019-09-29T23:11:07.000Z,6-0,196,11/25/1991,Southern California,WR,DEN,JAX,4,Empower Field at Mile High,"Denver, CO",Outdoor,Grass,Sunny,87.0,11,14 Gusting to 24,Southwest
58565,2019092911,20190929113618,away,48.08,31.18,3.34,1.08,0.34,28.54,44.22,2543729,Brandon Linder,65,2019,37,4,07:48:00,JAX,2,8,JAX,17,20,2557973,I_FORM,"1 RB, 2 TE, 2 WR",8,"3 DL, 4 LB, 4 DB",right,2019-09-29T23:11:08.000Z,2019-09-29T23:11:07.000Z,6-6,315,01/25/1992,Miami,C,DEN,JAX,4,Empower Field at Mile High,"Denver, CO",Outdoor,Grass,Sunny,87.0,11,14 Gusting to 24,Southwest
58566,2019092911,20190929113618,away,46.54,32.5,1.42,0.85,0.14,75.68,11.05,2550589,Andrew Norwell,68,2019,37,4,07:48:00,JAX,2,8,JAX,17,20,2557973,I_FORM,"1 RB, 2 TE, 2 WR",8,"3 DL, 4 LB, 4 DB",right,2019-09-29T23:11:08.000Z,2019-09-29T23:11:07.000Z,6-6,325,10/25/1991,Ohio State,G,DEN,JAX,4,Empower Field at Mile High,"Denver, CO",Outdoor,Grass,Sunny,87.0,11,14 Gusting to 24,Southwest
58567,2019092911,20190929113618,away,48.69,39.75,4.05,1.94,0.39,60.06,101.74,2552652,Chris Conley,18,2019,37,4,07:48:00,JAX,2,8,JAX,17,20,2557973,I_FORM,"1 RB, 2 TE, 2 WR",8,"3 DL, 4 LB, 4 DB",right,2019-09-29T23:11:08.000Z,2019-09-29T23:11:07.000Z,6-3,205,10/25/1992,Georgia,WR,DEN,JAX,4,Empower Field at Mile High,"Denver, CO",Outdoor,Grass,Sunny,87.0,11,14 Gusting to 24,Southwest
58568,2019092911,20190929113618,away,46.37,25.48,1.84,2.17,0.18,123.67,2.74,2553318,James O'Shaughnessy,80,2019,37,4,07:48:00,JAX,2,8,JAX,17,20,2557973,I_FORM,"1 RB, 2 TE, 2 WR",8,"3 DL, 4 LB, 4 DB",right,2019-09-29T23:11:08.000Z,2019-09-29T23:11:07.000Z,6-4,245,01/14/1992,Illinois State,TE,DEN,JAX,4,Empower Field at Mile High,"Denver, CO",Outdoor,Grass,Sunny,87.0,11,14 Gusting to 24,Southwest
58569,2019092911,20190929113618,away,45.55,28.93,4.28,0.71,0.42,75.45,57.45,2556365,Seth DeValve,88,2019,37,4,07:48:00,JAX,2,8,JAX,17,20,2557973,I_FORM,"1 RB, 2 TE, 2 WR",8,"3 DL, 4 LB, 4 DB",right,2019-09-29T23:11:08.000Z,2019-09-29T23:11:07.000Z,6-3,245,01/29/1993,Princeton,TE,DEN,JAX,4,Empower Field at Mile High,"Denver, CO",Outdoor,Grass,Sunny,87.0,11,14 Gusting to 24,Southwest
58570,2019092911,20190929113618,away,41.95,30.1,4.74,2.66,0.46,99.59,69.11,2557973,Leonard Fournette,27,2019,37,4,07:48:00,JAX,2,8,JAX,17,20,2557973,I_FORM,"1 RB, 2 TE, 2 WR",8,"3 DL, 4 LB, 4 DB",right,2019-09-29T23:11:08.000Z,2019-09-29T23:11:07.000Z,6-0,228,01/18/1995,Louisiana State,RB,DEN,JAX,4,Empower Field at Mile High,"Denver, CO",Outdoor,Grass,Sunny,87.0,11,14 Gusting to 24,Southwest
58571,2019092911,20190929113618,away,45.89,34.54,2.31,0.7,0.23,53.93,5.0,2558004,Cam Robinson,74,2019,37,4,07:48:00,JAX,2,8,JAX,17,20,2557973,I_FORM,"1 RB, 2 TE, 2 WR",8,"3 DL, 4 LB, 4 DB",right,2019-09-29T23:11:08.000Z,2019-09-29T23:11:07.000Z,6-6,320,10/09/1995,Alabama,T,DEN,JAX,4,Empower Field at Mile High,"Denver, CO",Outdoor,Grass,Sunny,87.0,11,14 Gusting to 24,Southwest
58572,2019092911,20190929113618,away,46.46,29.98,2.04,0.45,0.21,91.71,14.56,2560853,Will Richardson,76,2019,37,4,07:48:00,JAX,2,8,JAX,17,20,2557973,I_FORM,"1 RB, 2 TE, 2 WR",8,"3 DL, 4 LB, 4 DB",right,2019-09-29T23:11:08.000Z,2019-09-29T23:11:07.000Z,6-6,303,01/04/1996,North Carolina State,T,DEN,JAX,4,Empower Field at Mile High,"Denver, CO",Outdoor,Grass,Sunny,87.0,11,14 Gusting to 24,Southwest
58573,2019092911,20190929113618,away,47.12,27.26,0.91,0.9,0.1,37.25,44.83,2562756,Jawaan Taylor,75,2019,37,4,07:48:00,JAX,2,8,JAX,17,20,2557973,I_FORM,"1 RB, 2 TE, 2 WR",8,"3 DL, 4 LB, 4 DB",right,2019-09-29T23:11:08.000Z,2019-09-29T23:11:07.000Z,6-5,312,11/25/1997,Florida,T,DEN,JAX,4,Empower Field at Mile High,"Denver, CO",Outdoor,Grass,Sunny,87.0,11,14 Gusting to 24,Southwest
58574,2019092911,20190929113618,away,42.36,29.23,4.42,0.73,0.44,303.87,267.91,2562796,Gardner Minshew,15,2019,37,4,07:48:00,JAX,2,8,JAX,17,20,2557973,I_FORM,"1 RB, 2 TE, 2 WR",8,"3 DL, 4 LB, 4 DB",right,2019-09-29T23:11:08.000Z,2019-09-29T23:11:07.000Z,6-1,225,05/16/1996,Washington State,QB,DEN,JAX,4,Empower Field at Mile High,"Denver, CO",Outdoor,Grass,Sunny,87.0,11,14 Gusting to 24,Southwest
58575,2019092911,20190929113618,home,47.0,24.77,1.68,1.22,0.17,331.0,348.64,2495202,Von Miller,58,2019,37,4,07:48:00,JAX,2,8,JAX,17,20,2557973,I_FORM,"1 RB, 2 TE, 2 WR",8,"3 DL, 4 LB, 4 DB",right,2019-09-29T23:11:08.000Z,2019-09-29T23:11:07.000Z,6-3,250,03/26/1989,Texas A&M,OLB,DEN,JAX,4,Empower Field at Mile High,"Denver, CO",Outdoor,Grass,Sunny,87.0,11,14 Gusting to 24,Southwest
58576,2019092911,20190929113618,home,53.49,22.14,2.27,0.93,0.23,329.37,34.0,2530510,Chris Harris,25,2019,37,4,07:48:00,JAX,2,8,JAX,17,20,2557973,I_FORM,"1 RB, 2 TE, 2 WR",8,"3 DL, 4 LB, 4 DB",right,2019-09-29T23:11:08.000Z,2019-09-29T23:11:07.000Z,5-10,199,06/18/1989,Kansas,CB,DEN,JAX,4,Empower Field at Mile High,"Denver, CO",Outdoor,Grass,Sunny,87.0,11,14 Gusting to 24,Southwest
58577,2019092911,20190929113618,home,47.36,27.58,1.21,1.36,0.13,246.69,354.57,2533026,Derek Wolfe,95,2019,37,4,07:48:00,JAX,2,8,JAX,17,20,2557973,I_FORM,"1 RB, 2 TE, 2 WR",8,"3 DL, 4 LB, 4 DB",right,2019-09-29T23:11:08.000Z,2019-09-29T23:11:07.000Z,6-5,285,02/24/1990,Cincinnati,DE,DEN,JAX,4,Empower Field at Mile High,"Denver, CO",Outdoor,Grass,Sunny,87.0,11,14 Gusting to 24,Southwest
58578,2019092911,20190929113618,home,47.29,29.59,1.39,1.03,0.17,288.62,355.64,2549926,Shelby Harris,96,2019,37,4,07:48:00,JAX,2,8,JAX,17,20,2557973,I_FORM,"1 RB, 2 TE, 2 WR",8,"3 DL, 4 LB, 4 DB",right,2019-09-29T23:11:08.000Z,2019-09-29T23:11:07.000Z,6-2,290,08/11/1991,Illinois State,NT,DEN,JAX,4,Empower Field at Mile High,"Denver, CO",Outdoor,Grass,Sunny,87.0,11,14 Gusting to 24,Southwest
58579,2019092911,20190929113618,home,49.65,31.73,2.6,0.23,0.26,234.48,310.53,2550167,Corey Nelson,56,2019,37,4,07:48:00,JAX,2,8,JAX,17,20,2557973,I_FORM,"1 RB, 2 TE, 2 WR",8,"3 DL, 4 LB, 4 DB",right,2019-09-29T23:11:08.000Z,2019-09-29T23:11:07.000Z,6-1,226,04/22/1992,Oklahoma,ILB,DEN,JAX,4,Empower Field at Mile High,"Denver, CO",Outdoor,Grass,Sunny,87.0,11,14 Gusting to 24,Southwest
58580,2019092911,20190929113618,home,49.14,28.66,2.48,0.63,0.26,275.51,314.0,2550930,Todd Davis,51,2019,37,4,07:48:00,JAX,2,8,JAX,17,20,2557973,I_FORM,"1 RB, 2 TE, 2 WR",8,"3 DL, 4 LB, 4 DB",right,2019-09-29T23:11:08.000Z,2019-09-29T23:11:07.000Z,6-1,230,05/17/1992,Sacramento State,ILB,DEN,JAX,4,Empower Field at Mile High,"Denver, CO",Outdoor,Grass,Sunny,87.0,11,14 Gusting to 24,Southwest
58581,2019092911,20190929113618,home,49.74,40.08,2.78,2.23,0.28,222.39,105.46,2553790,DeVante Bausby,41,2019,37,4,07:48:00,JAX,2,8,JAX,17,20,2557973,I_FORM,"1 RB, 2 TE, 2 WR",8,"3 DL, 4 LB, 4 DB",right,2019-09-29T23:11:08.000Z,2019-09-29T23:11:07.000Z,6-2,190,01/15/1993,Pittsburg State,CB,DEN,JAX,4,Empower Field at Mile High,"Denver, CO",Outdoor,Grass,Sunny,87.0,11,14 Gusting to 24,Southwest
58582,2019092911,20190929113618,home,49.35,25.25,4.05,2.53,0.39,319.49,325.97,2555550,Justin Simmons,31,2019,37,4,07:48:00,JAX,2,8,JAX,17,20,2557973,I_FORM,"1 RB, 2 TE, 2 WR",8,"3 DL, 4 LB, 4 DB",right,2019-09-29T23:11:08.000Z,2019-09-29T23:11:07.000Z,6-2,202,11/19/1993,Boston College,SS,DEN,JAX,4,Empower Field at Mile High,"Denver, CO",Outdoor,Grass,Sunny,87.0,11,14 Gusting to 24,Southwest
58583,2019092911,20190929113618,home,61.05,30.89,1.73,0.42,0.17,264.79,93.45,2556278,Will Parks,34,2019,37,4,07:48:00,JAX,2,8,JAX,17,20,2557973,I_FORM,"1 RB, 2 TE, 2 WR",8,"3 DL, 4 LB, 4 DB",right,2019-09-29T23:11:08.000Z,2019-09-29T23:11:07.000Z,6-1,194,07/29/1994,Arizona,FS,DEN,JAX,4,Empower Field at Mile High,"Denver, CO",Outdoor,Grass,Sunny,87.0,11,14 Gusting to 24,Southwest
58584,2019092911,20190929113618,home,47.31,32.8,1.6,0.75,0.16,265.79,5.65,2557894,DeMarcus Walker,57,2019,37,4,07:48:00,JAX,2,8,JAX,17,20,2557973,I_FORM,"1 RB, 2 TE, 2 WR",8,"3 DL, 4 LB, 4 DB",right,2019-09-29T23:11:08.000Z,2019-09-29T23:11:07.000Z,6-4,280,09/30/1994,Florida State,DE,DEN,JAX,4,Empower Field at Mile High,"Denver, CO",Outdoor,Grass,Sunny,87.0,11,14 Gusting to 24,Southwest
58585,2019092911,20190929113618,home,46.75,35.42,1.42,1.33,0.13,210.8,306.86,2561020,Bradley Chubb,55,2019,37,4,07:48:00,JAX,2,8,JAX,17,20,2557973,I_FORM,"1 RB, 2 TE, 2 WR",8,"3 DL, 4 LB, 4 DB",right,2019-09-29T23:11:08.000Z,2019-09-29T23:11:07.000Z,6-4,275,06/24/1996,North Carolina State,DE,DEN,JAX,4,Empower Field at Mile High,"Denver, CO",Outdoor,Grass,Sunny,87.0,11,14 Gusting to 24,Southwest
