,GameId,PlayId,Team,X,Y,S,A,Dis,Orientation,Dir,NflId,DisplayName,JerseyNumber,Season,YardLine,Quarter,GameClock,PossessionTeam,Down,Distance,FieldPosition,HomeScoreBeforePlay,VisitorScoreBeforePlay,NflIdRusher,OffenseFormation,OffensePersonnel,DefendersInTheBox,DefensePersonnel,PlayDirection,TimeHandoff,TimeSnap,PlayerHeight,PlayerWeight,PlayerBirthDate,PlayerCollegeName,Position,HomeTeamAbbr,VisitorTeamAbbr,Week,Stadium,Location,StadiumType,Turf,GameWeather,Temperature,Humidity,WindSpeed,WindDirection
39974,2019092208,20190922081548,away,58.4,30.5,2.48,1.85,0.24,119.67,168.48,496816,Gerald McCoy,93,2019,48,2,04:24:00,ARZ,2,10,CAR,7,7,2560711,SHOTGUN,"1 RB, 1 TE, 3 WR",6,"3 DL, 3 LB, 5 DB",left,2019-09-22T20:57:56.000Z,2019-09-22T20:57:55.000Z,6-4,300,02/25/1988,Oklahoma,DT,ARI,CAR,3,State Farm Stadium,"Glendale, AZ",Dome,Grass,,,0,,
39975,2019092208,20190922081548,away,58.31,28.95,0.6,0.9,0.07,89.92,97.86,2507837,Kyle Love,77,2019,48,2,04:24:00,ARZ,2,10,CAR,7,7,2560711,SHOTGUN,"1 RB, 1 TE, 3 WR",6,"3 DL, 3 LB, 5 DB",left,2019-09-22T20:57:56.000Z,2019-09-22T20:57:55.000Z,6-1,310,11/18/1986,Mississippi State,NT,ARI,CAR,3,State Farm Stadium,"Glendale, AZ",Dome,Grass,,,0,,
39976,2019092208,20190922081548,away,56.1,29.07,2.33,0.49,0.23,72.01,26.28,2533056,Luke Kuechly,59,2019,48,2,04:24:00,ARZ,2,10,CAR,7,7,2560711,SHOTGUN,"1 RB, 1 TE, 3 WR",6,"3 DL, 3 LB, 5 DB",left,2019-09-22T20:57:56.000Z,2019-09-22T20:57:55.000Z,6-3,238,04/20/1991,Boston College,MLB,ARI,CAR,3,State Farm Stadium,"Glendale, AZ",Dome,Grass,,,0,,
39977,2019092208,20190922081548,away,48.07,33.23,0.45,0.78,0.04,47.87,292.55,2540152,Eric Reid,25,2019,48,2,04:24:00,ARZ,2,10,CAR,7,7,2560711,SHOTGUN,"1 RB, 1 TE, 3 WR",6,"3 DL, 3 LB, 5 DB",left,2019-09-22T20:57:56.000Z,2019-09-22T20:57:55.000Z,6-1,213,12/10/1991,Louisiana State,SS,ARI,CAR,3,State Farm Stadium,"Glendale, AZ",Dome,Grass,,,0,,
39978,2019092208,20190922081548,away,55.77,25.29,0.99,1.49,0.09,100.0,112.03,2543799,Ross Cockrell,47,2019,48,2,04:24:00,ARZ,2,10,CAR,7,7,2560711,SHOTGUN,"1 RB, 1 TE, 3 WR",6,"3 DL, 3 LB, 5 DB",left,2019-09-22T20:57:56.000Z,2019-09-22T20:57:55.000Z,6-0,191,08/06/1991,Duke,CB,ARI,CAR,3,State Farm Stadium,"Glendale, AZ",Dome,Grass,,,0,,
39979,2019092208,20190922081548,away,45.82,23.83,0.42,0.82,0.04,106.5,168.15,2543830,Tre Boston,33,2019,48,2,04:24:00,ARZ,2,10,CAR,7,7,2560711,SHOTGUN,"1 RB, 1 TE, 3 WR",6,"3 DL, 3 LB, 5 DB",left,2019-09-22T20:57:56.000Z,2019-09-22T20:57:55.000Z,6-1,205,06/25/1992,North Carolina,FS,ARI,CAR,3,State Farm Stadium,"Glendale, AZ",Dome,Grass,,,0,,
39980,2019092208,20190922081548,away,55.49,30.61,1.15,2.04,0.11,75.48,36.67,2552447,Shaq Thompson,54,2019,48,2,04:24:00,ARZ,2,10,CAR,7,7,2560711,SHOTGUN,"1 RB, 1 TE, 3 WR",6,"3 DL, 3 LB, 5 DB",left,2019-09-22T20:57:56.000Z,2019-09-22T20:57:55.000Z,6-0,230,04/21/1994,Washington,OLB,ARI,CAR,3,State Farm Stadium,"Glendale, AZ",Dome,Grass,,,0,,
39981,2019092208,20190922081548,away,54.11,36.78,1.99,1.99,0.19,95.87,107.49,2555175,James Bradberry,24,2019,48,2,04:24:00,ARZ,2,10,CAR,7,7,2560711,SHOTGUN,"1 RB, 1 TE, 3 WR",6,"3 DL, 3 LB, 5 DB",left,2019-09-22T20:57:56.000Z,2019-09-22T20:57:55.000Z,6-1,212,08/04/1993,Samford,CB,ARI,CAR,3,State Farm Stadium,"Glendale, AZ",Dome,Grass,,,0,,
39982,2019092208,20190922081548,away,53.49,18.92,1.49,2.22,0.14,347.26,77.3,2560753,Donte Jackson,26,2019,48,2,04:24:00,ARZ,2,10,CAR,7,7,2560711,SHOTGUN,"1 RB, 1 TE, 3 WR",6,"3 DL, 3 LB, 5 DB",left,2019-09-22T20:57:56.000Z,2019-09-22T20:57:55.000Z,5-10,180,11/08/1995,Louisiana State,DB,ARI,CAR,3,State Farm Stadium,"Glendale, AZ",Dome,Grass,,,0,,
39983,2019092208,20190922081548,away,58.79,25.2,2.31,1.86,0.22,40.68,115.0,2562242,Brian Burns,53,2019,48,2,04:24:00,ARZ,2,10,CAR,7,7,2560711,SHOTGUN,"1 RB, 1 TE, 3 WR",6,"3 DL, 3 LB, 5 DB",left,2019-09-22T20:57:56.000Z,2019-09-22T20:57:55.000Z,6-5,250,04/23/1998,Florida State,DL,ARI,CAR,3,State Farm Stadium,"Glendale, AZ",Dome,Grass,,,0,,
39984,2019092208,20190922081548,away,57.51,32.79,2.34,1.52,0.22,80.64,182.21,2562313,Christian Miller,50,2019,48,2,04:24:00,ARZ,2,10,CAR,7,7,2560711,SHOTGUN,"1 RB, 1 TE, 3 WR",6,"3 DL, 3 LB, 5 DB",left,2019-09-22T20:57:56.000Z,2019-09-22T20:57:55.000Z,6-3,244,06/19/1996,Alabama,LB,ARI,CAR,3,State Farm Stadium,"Glendale, AZ",Dome,Grass,,,0,,
39985,2019092208,20190922081548,home,59.16,28.0,2.76,1.47,0.28,261.67,188.14,71461,A.Q. Shipley,53,2019,48,2,04:24:00,ARZ,2,10,CAR,7,7,2560711,SHOTGUN,"1 RB, 1 TE, 3 WR",6,"3 DL, 3 LB, 5 DB",left,2019-09-22T20:57:56.000Z,2019-09-22T20:57:55.000Z,6-1,307,05/22/1986,Penn State,C,ARI,CAR,3,State Farm Stadium,"Glendale, AZ",Dome,Grass,,,0,,
39986,2019092208,20190922081548,home,58.36,33.22,1.67,0.61,0.17,249.74,211.63,2495139,Charles Clay,85,2019,48,2,04:24:00,ARZ,2,10,CAR,7,7,2560711,SHOTGUN,"1 RB, 1 TE, 3 WR",6,"3 DL, 3 LB, 5 DB",left,2019-09-22T20:57:56.000Z,2019-09-22T20:57:55.000Z,6-3,246,02/13/1989,Tulsa,TE,ARI,CAR,3,State Farm Stadium,"Glendale, AZ",Dome,Grass,,,0,,
39987,2019092208,20190922081548,home,58.15,24.77,2.21,1.28,0.21,281.46,250.08,2506106,Larry Fitzgerald,11,2019,48,2,04:24:00,ARZ,2,10,CAR,7,7,2560711,SHOTGUN,"1 RB, 1 TE, 3 WR",6,"3 DL, 3 LB, 5 DB",left,2019-09-22T20:57:56.000Z,2019-09-22T20:57:55.000Z,6-3,218,08/31/1983,Pittsburgh,WR,ARI,CAR,3,State Farm Stadium,"Glendale, AZ",Dome,Grass,,,0,,
39988,2019092208,20190922081548,home,58.95,29.73,2.06,1.47,0.21,260.63,173.22,2533342,J.R. Sweezy,64,2019,48,2,04:24:00,ARZ,2,10,CAR,7,7,2560711,SHOTGUN,"1 RB, 1 TE, 3 WR",6,"3 DL, 3 LB, 5 DB",left,2019-09-22T20:57:56.000Z,2019-09-22T20:57:55.000Z,6-5,310,04/08/1989,North Carolina State,G,ARI,CAR,3,State Farm Stadium,"Glendale, AZ",Dome,Grass,,,0,,
39989,2019092208,20190922081548,home,58.74,28.53,0.47,1.41,0.05,303.02,231.0,2540195,Justin Pugh,67,2019,48,2,04:24:00,ARZ,2,10,CAR,7,7,2560711,SHOTGUN,"1 RB, 1 TE, 3 WR",6,"3 DL, 3 LB, 5 DB",left,2019-09-22T20:57:56.000Z,2019-09-22T20:57:55.000Z,6-5,311,08/15/1990,Syracuse,G,ARI,CAR,3,State Farm Stadium,"Glendale, AZ",Dome,Grass,,,0,,
39990,2019092208,20190922081548,home,59.08,26.09,1.34,1.15,0.13,160.66,183.55,2552626,D.J. Humphries,74,2019,48,2,04:24:00,ARZ,2,10,CAR,7,7,2560711,SHOTGUN,"1 RB, 1 TE, 3 WR",6,"3 DL, 3 LB, 5 DB",left,2019-09-22T20:57:56.000Z,2019-09-22T20:57:55.000Z,6-5,307,12/28/1993,Florida,OT,ARI,CAR,3,State Farm Stadium,"Glendale, AZ",Dome,Grass,,,0,,
39991,2019092208,20190922081548,home,62.63,25.17,4.77,4.07,0.46,13.08,47.24,2553499,Damiere Byrd,14,2019,48,2,04:24:00,ARZ,2,10,CAR,7,7,2560711,SHOTGUN,"1 RB, 1 TE, 3 WR",6,"3 DL, 3 LB, 5 DB",left,2019-09-22T20:57:56.000Z,2019-09-22T20:57:55.000Z,5-9,180,01/27/1993,South Carolina,WR,ARI,CAR,3,State Farm Stadium,"Glendale, AZ",Dome,Grass,,,0,,
39992,2019092208,20190922081548,home,59.21,30.89,3.15,0.46,0.31,229.47,182.35,2556628,Justin Murray,71,2019,48,2,04:24:00,ARZ,2,10,CAR,7,7,2560711,SHOTGUN,"1 RB, 1 TE, 3 WR",6,"3 DL, 3 LB, 5 DB",left,2019-09-22T20:57:56.000Z,2019-09-22T20:57:55.000Z,6-5,315,04/19/1993,Cincinnati,OT,ARI,CAR,3,State Farm Stadium,"Glendale, AZ",Dome,Grass,,,0,,
39993,2019092208,20190922081548,home,63.34,30.07,4.32,3.3,0.42,240.18,205.79,2560711,Chase Edmonds,29,2019,48,2,04:24:00,ARZ,2,10,CAR,7,7,2560711,SHOTGUN,"1 RB, 1 TE, 3 WR",6,"3 DL, 3 LB, 5 DB",left,2019-09-22T20:57:56.000Z,2019-09-22T20:57:55.000Z,5-9,210,04/13/1996,Fordham,RB,ARI,CAR,3,State Farm Stadium,"Glendale, AZ",Dome,Grass,,,0,,
39994,2019092208,20190922081548,home,60.9,28.32,5.2,4.05,0.5,322.32,2.51,2560781,Christian Kirk,13,2019,48,2,04:24:00,ARZ,2,10,CAR,7,7,2560711,SHOTGUN,"1 RB, 1 TE, 3 WR",6,"3 DL, 3 LB, 5 DB",left,2019-09-22T20:57:56.000Z,2019-09-22T20:57:55.000Z,5-11,200,11/18/1996,Texas A&M,WR,ARI,CAR,3,State Farm Stadium,"Glendale, AZ",Dome,Grass,,,0,,
39995,2019092208,20190922081548,home,63.5,29.67,0.44,1.86,0.04,290.27,331.06,2562382,Kyler Murray,1,2019,48,2,04:24:00,ARZ,2,10,CAR,7,7,2560711,SHOTGUN,"1 RB, 1 TE, 3 WR",6,"3 DL, 3 LB, 5 DB",left,2019-09-22T20:57:56.000Z,2019-09-22T20:57:55.000Z,5-10,207,08/07/1997,Oklahoma,QB,ARI,CAR,3,State Farm Stadium,"Glendale, AZ",Dome,Grass,,,0,,
