,GameId,PlayId,Team,X,Y,S,A,Dis,Orientation,Dir,NflId,DisplayName,JerseyNumber,Season,YardLine,Quarter,GameClock,PossessionTeam,Down,Distance,FieldPosition,HomeScoreBeforePlay,VisitorScoreBeforePlay,NflIdRusher,OffenseFormation,OffensePersonnel,DefendersInTheBox,DefensePersonnel,PlayDirection,TimeHandoff,TimeSnap,PlayerHeight,PlayerWeight,PlayerBirthDate,PlayerCollegeName,Position,HomeTeamAbbr,VisitorTeamAbbr,Week,Stadium,Location,StadiumType,Turf,GameWeather,Temperature,Humidity,WindSpeed,WindDirection
52140,2019092905,20190929051287,away,42.42,30.0,2.09,0.39,0.22,29.36,175.94,2495483,Corey Liuget,94,2019,33,2,11:13:00,IND,1,10,OAK,7,21,2558123,I_FORM,"1 RB, 3 TE, 1 WR",7,"4 DL, 3 LB, 4 DB",left,2019-09-29T18:00:20.000Z,2019-09-29T18:00:18.000Z,6-2,300,03/18/1990,Illinois,DT,IND,OAK,4,Lucas Oil Stadium,"Indianapolis, Ind.",Retr. Roof-Closed,Artificial,Cloudy,77.0,72,10,NNE
52141,2019092905,20190929051287,away,39.47,24.31,1.01,1.19,0.11,59.93,109.83,2532974,Kyle Wilber,58,2019,33,2,11:13:00,IND,1,10,OAK,7,21,2558123,I_FORM,"1 RB, 3 TE, 1 WR",7,"4 DL, 3 LB, 4 DB",left,2019-09-29T18:00:20.000Z,2019-09-29T18:00:18.000Z,6-4,240,04/26/1989,Wake Forest,OLB,IND,OAK,4,Lucas Oil Stadium,"Indianapolis, Ind.",Retr. Roof-Closed,Artificial,Cloudy,77.0,72,10,NNE
52142,2019092905,20190929051287,away,40.14,28.47,1.76,3.64,0.18,70.19,92.91,2532986,Tahir Whitehead,59,2019,33,2,11:13:00,IND,1,10,OAK,7,21,2558123,I_FORM,"1 RB, 3 TE, 1 WR",7,"4 DL, 3 LB, 4 DB",left,2019-09-29T18:00:20.000Z,2019-09-29T18:00:18.000Z,6-1,241,04/02/1990,Temple,OLB,IND,OAK,4,Lucas Oil Stadium,"Indianapolis, Ind.",Retr. Roof-Closed,Artificial,Cloudy,77.0,72,10,NNE
52143,2019092905,20190929051287,away,43.83,27.54,0.81,2.54,0.08,38.83,157.76,2540147,Johnathan Hankins,90,2019,33,2,11:13:00,IND,1,10,OAK,7,21,2558123,I_FORM,"1 RB, 3 TE, 1 WR",7,"4 DL, 3 LB, 4 DB",left,2019-09-29T18:00:20.000Z,2019-09-29T18:00:18.000Z,6-3,340,03/30/1992,Ohio State,DT,IND,OAK,4,Lucas Oil Stadium,"Indianapolis, Ind.",Retr. Roof-Closed,Artificial,Cloudy,77.0,72,10,NNE
52144,2019092905,20190929051287,away,43.67,31.48,1.77,2.27,0.18,135.29,134.83,2550437,Josh Mauro,97,2019,33,2,11:13:00,IND,1,10,OAK,7,21,2558123,I_FORM,"1 RB, 3 TE, 1 WR",7,"4 DL, 3 LB, 4 DB",left,2019-09-29T18:00:20.000Z,2019-09-29T18:00:18.000Z,6-6,290,02/17/1991,Stanford,DE,IND,OAK,4,Lucas Oil Stadium,"Indianapolis, Ind.",Retr. Roof-Closed,Artificial,Cloudy,77.0,72,10,NNE
52145,2019092905,20190929051287,away,33.83,22.36,0.6,0.21,0.06,60.4,265.9,2555342,Karl Joseph,42,2019,33,2,11:13:00,IND,1,10,OAK,7,21,2558123,I_FORM,"1 RB, 3 TE, 1 WR",7,"4 DL, 3 LB, 4 DB",left,2019-09-29T18:00:20.000Z,2019-09-29T18:00:18.000Z,5-10,200,09/08/1993,West Virginia,SS,IND,OAK,4,Lucas Oil Stadium,"Indianapolis, Ind.",Retr. Roof-Closed,Artificial,Cloudy,77.0,72,10,NNE
52146,2019092905,20190929051287,away,40.8,35.93,2.54,2.09,0.25,120.46,163.84,2555394,Daryl Worley,20,2019,33,2,11:13:00,IND,1,10,OAK,7,21,2558123,I_FORM,"1 RB, 3 TE, 1 WR",7,"4 DL, 3 LB, 4 DB",left,2019-09-29T18:00:20.000Z,2019-09-29T18:00:18.000Z,6-1,215,02/22/1995,West Virginia,CB,IND,OAK,4,Lucas Oil Stadium,"Indianapolis, Ind.",Retr. Roof-Closed,Artificial,Cloudy,77.0,72,10,NNE
52147,2019092905,20190929051287,away,31.49,35.68,2.23,1.98,0.21,112.51,278.94,2555568,Erik Harris,25,2019,33,2,11:13:00,IND,1,10,OAK,7,21,2558123,I_FORM,"1 RB, 3 TE, 1 WR",7,"4 DL, 3 LB, 4 DB",left,2019-09-29T18:00:20.000Z,2019-09-29T18:00:18.000Z,6-2,220,04/02/1990,"California, Pa.",SS,IND,OAK,4,Lucas Oil Stadium,"Indianapolis, Ind.",Retr. Roof-Closed,Artificial,Cloudy,77.0,72,10,NNE
52148,2019092905,20190929051287,away,40.14,12.68,3.97,3.55,0.38,158.47,245.13,2558062,Gareon Conley,21,2019,33,2,11:13:00,IND,1,10,OAK,7,21,2558123,I_FORM,"1 RB, 3 TE, 1 WR",7,"4 DL, 3 LB, 4 DB",left,2019-09-29T18:00:20.000Z,2019-09-29T18:00:18.000Z,6-0,190,06/29/1995,Ohio State,CB,IND,OAK,4,Lucas Oil Stadium,"Indianapolis, Ind.",Retr. Roof-Closed,Artificial,Cloudy,77.0,72,10,NNE
52149,2019092905,20190929051287,away,40.12,32.06,2.32,2.35,0.23,66.04,55.8,2559054,Nicholas Morrow,50,2019,33,2,11:13:00,IND,1,10,OAK,7,21,2558123,I_FORM,"1 RB, 3 TE, 1 WR",7,"4 DL, 3 LB, 4 DB",left,2019-09-29T18:00:20.000Z,2019-09-29T18:00:18.000Z,6-0,225,07/10/1995,Greenville,ILB,IND,OAK,4,Lucas Oil Stadium,"Indianapolis, Ind.",Retr. Roof-Closed,Artificial,Cloudy,77.0,72,10,NNE
52150,2019092905,20190929051287,away,44.38,23.59,2.28,1.63,0.24,36.48,150.73,2562263,Clelin Ferrell,96,2019,33,2,11:13:00,IND,1,10,OAK,7,21,2558123,I_FORM,"1 RB, 3 TE, 1 WR",7,"4 DL, 3 LB, 4 DB",left,2019-09-29T18:00:20.000Z,2019-09-29T18:00:18.000Z,6-4,265,05/17/1997,Clemson,DL,IND,OAK,4,Lucas Oil Stadium,"Indianapolis, Ind.",Retr. Roof-Closed,Artificial,Cloudy,77.0,72,10,NNE
52151,2019092905,20190929051287,home,44.64,24.53,2.45,0.8,0.25,218.04,164.6,2495137,Anthony Castonzo,74,2019,33,2,11:13:00,IND,1,10,OAK,7,21,2558123,I_FORM,"1 RB, 3 TE, 1 WR",7,"4 DL, 3 LB, 4 DB",left,2019-09-29T18:00:20.000Z,2019-09-29T18:00:18.000Z,6-7,307,08/09/1988,Boston College,T,IND,OAK,4,Lucas Oil Stadium,"Indianapolis, Ind.",Retr. Roof-Closed,Artificial,Cloudy,77.0,72,10,NNE
52152,2019092905,20190929051287,home,41.85,33.4,2.86,2.66,0.29,206.79,246.54,2540232,Jack Doyle,84,2019,33,2,11:13:00,IND,1,10,OAK,7,21,2558123,I_FORM,"1 RB, 3 TE, 1 WR",7,"4 DL, 3 LB, 4 DB",left,2019-09-29T18:00:20.000Z,2019-09-29T18:00:18.000Z,6-6,262,05/05/1990,Western Kentucky,TE,IND,OAK,4,Lucas Oil Stadium,"Indianapolis, Ind.",Retr. Roof-Closed,Artificial,Cloudy,77.0,72,10,NNE
52153,2019092905,20190929051287,home,45.55,29.13,4.7,2.09,0.46,3.22,355.09,2543466,Eric Ebron,85,2019,33,2,11:13:00,IND,1,10,OAK,7,21,2558123,I_FORM,"1 RB, 3 TE, 1 WR",7,"4 DL, 3 LB, 4 DB",left,2019-09-29T18:00:20.000Z,2019-09-29T18:00:18.000Z,6-4,253,04/10/1993,North Carolina,TE,IND,OAK,4,Lucas Oil Stadium,"Indianapolis, Ind.",Retr. Roof-Closed,Artificial,Cloudy,77.0,72,10,NNE
52154,2019092905,20190929051287,home,42.71,30.47,1.32,0.78,0.14,228.86,216.3,2552467,Mark Glowinski,64,2019,33,2,11:13:00,IND,1,10,OAK,7,21,2558123,I_FORM,"1 RB, 3 TE, 1 WR",7,"4 DL, 3 LB, 4 DB",left,2019-09-29T18:00:20.000Z,2019-09-29T18:00:18.000Z,6-4,310,05/03/1992,West Virginia,G,IND,OAK,4,Lucas Oil Stadium,"Indianapolis, Ind.",Retr. Roof-Closed,Artificial,Cloudy,77.0,72,10,NNE
52155,2019092905,20190929051287,home,44.18,28.12,0.99,1.16,0.1,189.51,151.75,2555191,Ryan Kelly,78,2019,33,2,11:13:00,IND,1,10,OAK,7,21,2558123,I_FORM,"1 RB, 3 TE, 1 WR",7,"4 DL, 3 LB, 4 DB",left,2019-09-29T18:00:20.000Z,2019-09-29T18:00:18.000Z,6-4,309,05/30/1993,Alabama,C,IND,OAK,4,Lucas Oil Stadium,"Indianapolis, Ind.",Retr. Roof-Closed,Artificial,Cloudy,77.0,72,10,NNE
52156,2019092905,20190929051287,home,47.85,28.55,4.6,0.64,0.46,113.29,105.69,2555261,Jacoby Brissett,7,2019,33,2,11:13:00,IND,1,10,OAK,7,21,2558123,I_FORM,"1 RB, 3 TE, 1 WR",7,"4 DL, 3 LB, 4 DB",left,2019-09-29T18:00:20.000Z,2019-09-29T18:00:18.000Z,6-4,235,12/11/1992,North Carolina State,QB,IND,OAK,4,Lucas Oil Stadium,"Indianapolis, Ind.",Retr. Roof-Closed,Artificial,Cloudy,77.0,72,10,NNE
52157,2019092905,20190929051287,home,49.18,29.23,3.67,3.69,0.35,292.12,282.8,2558123,Marlon Mack,25,2019,33,2,11:13:00,IND,1,10,OAK,7,21,2558123,I_FORM,"1 RB, 3 TE, 1 WR",7,"4 DL, 3 LB, 4 DB",left,2019-09-29T18:00:20.000Z,2019-09-29T18:00:18.000Z,6-0,210,03/07/1996,South Florida,RB,IND,OAK,4,Lucas Oil Stadium,"Indianapolis, Ind.",Retr. Roof-Closed,Artificial,Cloudy,77.0,72,10,NNE
52158,2019092905,20190929051287,home,44.18,31.6,2.43,3.19,0.25,231.7,140.92,2558832,Mo Alie-Cox,81,2019,33,2,11:13:00,IND,1,10,OAK,7,21,2558123,I_FORM,"1 RB, 3 TE, 1 WR",7,"4 DL, 3 LB, 4 DB",left,2019-09-29T18:00:20.000Z,2019-09-29T18:00:18.000Z,6-5,267,09/19/1993,Virginia Commonwealth,TE,IND,OAK,4,Lucas Oil Stadium,"Indianapolis, Ind.",Retr. Roof-Closed,Artificial,Cloudy,77.0,72,10,NNE
52159,2019092905,20190929051287,home,41.48,26.04,3.16,1.61,0.32,239.2,248.62,2560820,Quenton Nelson,56,2019,33,2,11:13:00,IND,1,10,OAK,7,21,2558123,I_FORM,"1 RB, 3 TE, 1 WR",7,"4 DL, 3 LB, 4 DB",left,2019-09-29T18:00:20.000Z,2019-09-29T18:00:18.000Z,6-5,330,03/19/1996,Notre Dame,G,IND,OAK,4,Lucas Oil Stadium,"Indianapolis, Ind.",Retr. Roof-Closed,Artificial,Cloudy,77.0,72,10,NNE
52160,2019092905,20190929051287,home,42.02,30.95,2.31,0.67,0.24,197.71,238.59,2560876,Braden Smith,72,2019,33,2,11:13:00,IND,1,10,OAK,7,21,2558123,I_FORM,"1 RB, 3 TE, 1 WR",7,"4 DL, 3 LB, 4 DB",left,2019-09-29T18:00:20.000Z,2019-09-29T18:00:18.000Z,6-6,315,03/25/1996,Auburn,G,IND,OAK,4,Lucas Oil Stadium,"Indianapolis, Ind.",Retr. Roof-Closed,Artificial,Cloudy,77.0,72,10,NNE
52161,2019092905,20190929051287,home,41.58,11.82,5.22,2.67,0.51,263.42,235.34,2562646,Ashton Dulin,16,2019,33,2,11:13:00,IND,1,10,OAK,7,21,2558123,I_FORM,"1 RB, 3 TE, 1 WR",7,"4 DL, 3 LB, 4 DB",left,2019-09-29T18:00:20.000Z,2019-09-29T18:00:18.000Z,6-1,215,05/15/1997,Malone,WR,IND,OAK,4,Lucas Oil Stadium,"Indianapolis, Ind.",Retr. Roof-Closed,Artificial,Cloudy,77.0,72,10,NNE
