,GameId,PlayId,Team,X,Y,S,A,Dis,Orientation,Dir,NflId,DisplayName,JerseyNumber,Season,YardLine,Quarter,GameClock,PossessionTeam,Down,Distance,FieldPosition,HomeScoreBeforePlay,VisitorScoreBeforePlay,NflIdRusher,OffenseFormation,OffensePersonnel,DefendersInTheBox,DefensePersonnel,PlayDirection,TimeHandoff,TimeSnap,PlayerHeight,PlayerWeight,PlayerBirthDate,PlayerCollegeName,Position,HomeTeamAbbr,VisitorTeamAbbr,Week,Stadium,Location,StadiumType,Turf,GameWeather,Temperature,Humidity,WindSpeed,WindDirection
16060,2019091500,20190915002656,away,29.38,33.28,2.58,0.69,0.26,278.18,331.16,496841,Corey Peters,98,2019,20,3,08:52:00,BLT,1,10,BLT,17,9,2495466,PISTOL,"1 RB, 1 TE, 3 WR",6,"3 DL, 3 LB, 5 DB",right,2019-09-15T19:03:09.000Z,2019-09-15T19:03:08.000Z,6-3,335,06/08/1988,Kentucky,DT,BAL,ARI,2,M&T Stadium,"Baltimore, Maryland",Outdoor,Natural Grass,Sunny,82.0,60,8,NNW
16061,2019091500,20190915002656,away,29.99,27.79,3.38,1.01,0.34,350.82,3.02,2505660,Terrell Suggs,56,2019,20,3,08:52:00,BLT,1,10,BLT,17,9,2495466,PISTOL,"1 RB, 1 TE, 3 WR",6,"3 DL, 3 LB, 5 DB",right,2019-09-15T19:03:09.000Z,2019-09-15T19:03:08.000Z,6-3,265,10/11/1982,Arizona State,OLB,BAL,ARI,2,M&T Stadium,"Baltimore, Maryland",Outdoor,Natural Grass,Sunny,82.0,60,8,NNW
16062,2019091500,20190915002656,away,39.5,19.76,1.99,0.34,0.2,57.06,21.33,2507917,Tramaine Brock,20,2019,20,3,08:52:00,BLT,1,10,BLT,17,9,2495466,PISTOL,"1 RB, 1 TE, 3 WR",6,"3 DL, 3 LB, 5 DB",right,2019-09-15T19:03:09.000Z,2019-09-15T19:03:08.000Z,6-0,188,08/20/1988,Belhaven,CB,BAL,ARI,2,M&T Stadium,"Baltimore, Maryland",Outdoor,Natural Grass,Sunny,82.0,60,8,NNW
16063,2019091500,20190915002656,away,30.26,35.58,1.47,0.77,0.14,246.67,327.41,2533538,Chandler Jones,55,2019,20,3,08:52:00,BLT,1,10,BLT,17,9,2495466,PISTOL,"1 RB, 1 TE, 3 WR",6,"3 DL, 3 LB, 5 DB",right,2019-09-15T19:03:09.000Z,2019-09-15T19:03:08.000Z,6-5,265,02/27/1990,Syracuse,OLB,BAL,ARI,2,M&T Stadium,"Baltimore, Maryland",Outdoor,Natural Grass,Sunny,82.0,60,8,NNW
16064,2019091500,20190915002656,away,42.95,36.69,2.03,2.33,0.19,36.32,27.38,2539943,D.J. Swearinger,36,2019,20,3,08:52:00,BLT,1,10,BLT,17,9,2495466,PISTOL,"1 RB, 1 TE, 3 WR",6,"3 DL, 3 LB, 5 DB",right,2019-09-15T19:03:09.000Z,2019-09-15T19:03:08.000Z,5-10,205,09/01/1991,South Carolina,FS,BAL,ARI,2,M&T Stadium,"Baltimore, Maryland",Outdoor,Natural Grass,Sunny,82.0,60,8,NNW
16065,2019091500,20190915002656,away,31.63,29.43,3.86,1.59,0.39,341.24,320.77,2552315,Jordan Hicks,58,2019,20,3,08:52:00,BLT,1,10,BLT,17,9,2495466,PISTOL,"1 RB, 1 TE, 3 WR",6,"3 DL, 3 LB, 5 DB",right,2019-09-15T19:03:09.000Z,2019-09-15T19:03:08.000Z,6-1,236,06/27/1992,Texas,MLB,BAL,ARI,2,M&T Stadium,"Baltimore, Maryland",Outdoor,Natural Grass,Sunny,82.0,60,8,NNW
16066,2019091500,20190915002656,away,33.45,33.11,1.87,0.32,0.19,62.77,342.42,2557887,Haason Reddick,43,2019,20,3,08:52:00,BLT,1,10,BLT,17,9,2495466,PISTOL,"1 RB, 1 TE, 3 WR",6,"3 DL, 3 LB, 5 DB",right,2019-09-15T19:03:09.000Z,2019-09-15T19:03:08.000Z,6-1,235,09/22/1994,Temple,ILB,BAL,ARI,2,M&T Stadium,"Baltimore, Maryland",Outdoor,Natural Grass,Sunny,82.0,60,8,NNW
16067,2019091500,20190915002656,away,28.91,25.78,4.44,0.9,0.44,330.3,327.01,2558009,Budda Baker,32,2019,20,3,08:52:00,BLT,1,10,BLT,17,9,2495466,PISTOL,"1 RB, 1 TE, 3 WR",6,"3 DL, 3 LB, 5 DB",right,2019-09-15T19:03:09.000Z,2019-09-15T19:03:08.000Z,5-10,195,01/10/1996,Washington,FS,BAL,ARI,2,M&T Stadium,"Baltimore, Maryland",Outdoor,Natural Grass,Sunny,82.0,60,8,NNW
16068,2019091500,20190915002656,away,29.83,31.26,4.55,0.79,0.48,341.62,341.73,2562219,Zach Allen,97,2019,20,3,08:52:00,BLT,1,10,BLT,17,9,2495466,PISTOL,"1 RB, 1 TE, 3 WR",6,"3 DL, 3 LB, 5 DB",right,2019-09-15T19:03:09.000Z,2019-09-15T19:03:08.000Z,6-5,281,08/20/1997,Boston College,DE,BAL,ARI,2,M&T Stadium,"Baltimore, Maryland",Outdoor,Natural Grass,Sunny,82.0,60,8,NNW
16069,2019091500,20190915002656,away,35.15,45.71,1.74,1.69,0.18,193.95,62.56,2562318,Byron Murphy,33,2019,20,3,08:52:00,BLT,1,10,BLT,17,9,2495466,PISTOL,"1 RB, 1 TE, 3 WR",6,"3 DL, 3 LB, 5 DB",right,2019-09-15T19:03:09.000Z,2019-09-15T19:03:08.000Z,5-11,190,01/18/1998,Washington,DB,BAL,ARI,2,M&T Stadium,"Baltimore, Maryland",Outdoor,Natural Grass,Sunny,82.0,60,8,NNW
16070,2019091500,20190915002656,away,42.79,27.53,3.57,1.89,0.37,80.5,35.99,2562760,Deionte Thompson,35,2019,20,3,08:52:00,BLT,1,10,BLT,17,9,2495466,PISTOL,"1 RB, 1 TE, 3 WR",6,"3 DL, 3 LB, 5 DB",right,2019-09-15T19:03:09.000Z,2019-09-15T19:03:08.000Z,6-1,196,02/11/1997,Alabama,S,BAL,ARI,2,M&T Stadium,"Baltimore, Maryland",Outdoor,Natural Grass,Sunny,82.0,60,8,NNW
16071,2019091500,20190915002656,home,24.03,31.47,4.05,2.48,0.39,348.8,70.87,2495466,Mark Ingram,21,2019,20,3,08:52:00,BLT,1,10,BLT,17,9,2495466,PISTOL,"1 RB, 1 TE, 3 WR",6,"3 DL, 3 LB, 5 DB",right,2019-09-15T19:03:09.000Z,2019-09-15T19:03:08.000Z,5-9,215,12/21/1989,Alabama,RB,BAL,ARI,2,M&T Stadium,"Baltimore, Maryland",Outdoor,Natural Grass,Sunny,82.0,60,8,NNW
16072,2019091500,20190915002656,home,29.06,30.63,2.96,1.8,0.31,2.67,5.89,2507188,Marshal Yanda,73,2019,20,3,08:52:00,BLT,1,10,BLT,17,9,2495466,PISTOL,"1 RB, 1 TE, 3 WR",6,"3 DL, 3 LB, 5 DB",right,2019-09-15T19:03:09.000Z,2019-09-15T19:03:08.000Z,6-3,305,09/15/1984,Iowa,G,BAL,ARI,2,M&T Stadium,"Baltimore, Maryland",Outdoor,Natural Grass,Sunny,82.0,60,8,NNW
16073,2019091500,20190915002656,home,31.41,21.77,4.77,2.41,0.47,344.51,65.83,2550256,Willie Snead,83,2019,20,3,08:52:00,BLT,1,10,BLT,17,9,2495466,PISTOL,"1 RB, 1 TE, 3 WR",6,"3 DL, 3 LB, 5 DB",right,2019-09-15T19:03:09.000Z,2019-09-15T19:03:08.000Z,5-11,205,10/17/1992,Ball State,WR,BAL,ARI,2,M&T Stadium,"Baltimore, Maryland",Outdoor,Natural Grass,Sunny,82.0,60,8,NNW
16074,2019091500,20190915002656,home,27.72,29.54,4.58,1.57,0.47,25.65,51.37,2552402,Nick Boyle,86,2019,20,3,08:52:00,BLT,1,10,BLT,17,9,2495466,PISTOL,"1 RB, 1 TE, 3 WR",6,"3 DL, 3 LB, 5 DB",right,2019-09-15T19:03:09.000Z,2019-09-15T19:03:08.000Z,6-4,270,02/17/1993,Delaware,TE,BAL,ARI,2,M&T Stadium,"Baltimore, Maryland",Outdoor,Natural Grass,Sunny,82.0,60,8,NNW
16075,2019091500,20190915002656,home,29.44,34.85,2.18,0.32,0.22,5.07,29.09,2555204,Ronnie Stanley,79,2019,20,3,08:52:00,BLT,1,10,BLT,17,9,2495466,PISTOL,"1 RB, 1 TE, 3 WR",6,"3 DL, 3 LB, 5 DB",right,2019-09-15T19:03:09.000Z,2019-09-15T19:03:08.000Z,6-6,315,03/18/1994,Notre Dame,T,BAL,ARI,2,M&T Stadium,"Baltimore, Maryland",Outdoor,Natural Grass,Sunny,82.0,60,8,NNW
16076,2019091500,20190915002656,home,30.93,32.02,3.08,0.85,0.32,11.22,52.27,2556683,Matt Skura,68,2019,20,3,08:52:00,BLT,1,10,BLT,17,9,2495466,PISTOL,"1 RB, 1 TE, 3 WR",6,"3 DL, 3 LB, 5 DB",right,2019-09-15T19:03:09.000Z,2019-09-15T19:03:08.000Z,6-3,313,02/17/1993,Duke,C,BAL,ARI,2,M&T Stadium,"Baltimore, Maryland",Outdoor,Natural Grass,Sunny,82.0,60,8,NNW
16077,2019091500,20190915002656,home,28.88,33.23,1.85,2.11,0.19,16.43,346.84,2559827,Bradley Bozeman,77,2019,20,3,08:52:00,BLT,1,10,BLT,17,9,2495466,PISTOL,"1 RB, 1 TE, 3 WR",6,"3 DL, 3 LB, 5 DB",right,2019-09-15T19:03:09.000Z,2019-09-15T19:03:08.000Z,6-3,317,11/24/1994,Alabama,C,BAL,ARI,2,M&T Stadium,"Baltimore, Maryland",Outdoor,Natural Grass,Sunny,82.0,60,8,NNW
16078,2019091500,20190915002656,home,24.58,30.74,1.88,1.76,0.18,8.24,332.62,2560757,Lamar Jackson,8,2019,20,3,08:52:00,BLT,1,10,BLT,17,9,2495466,PISTOL,"1 RB, 1 TE, 3 WR",6,"3 DL, 3 LB, 5 DB",right,2019-09-15T19:03:09.000Z,2019-09-15T19:03:08.000Z,6-2,212,01/07/1997,Louisville,QB,BAL,ARI,2,M&T Stadium,"Baltimore, Maryland",Outdoor,Natural Grass,Sunny,82.0,60,8,NNW
16079,2019091500,20190915002656,home,28.81,28.32,2.02,0.52,0.23,131.41,13.39,2560981,Orlando Brown,78,2019,20,3,08:52:00,BLT,1,10,BLT,17,9,2495466,PISTOL,"1 RB, 1 TE, 3 WR",6,"3 DL, 3 LB, 5 DB",right,2019-09-15T19:03:09.000Z,2019-09-15T19:03:08.000Z,6-8,345,05/02/1996,Oklahoma,T,BAL,ARI,2,M&T Stadium,"Baltimore, Maryland",Outdoor,Natural Grass,Sunny,82.0,60,8,NNW
16080,2019091500,20190915002656,home,26.46,39.73,5.95,2.32,0.6,341.91,4.46,2562379,Marquise Brown,15,2019,20,3,08:52:00,BLT,1,10,BLT,17,9,2495466,PISTOL,"1 RB, 1 TE, 3 WR",6,"3 DL, 3 LB, 5 DB",right,2019-09-15T19:03:09.000Z,2019-09-15T19:03:08.000Z,5-9,170,06/04/1997,Oklahoma,WR,BAL,ARI,2,M&T Stadium,"Baltimore, Maryland",Outdoor,Natural Grass,Sunny,82.0,60,8,NNW
16081,2019091500,20190915002656,home,31.16,41.96,5.34,2.38,0.53,202.56,120.15,2562631,Miles Boykin,80,2019,20,3,08:52:00,BLT,1,10,BLT,17,9,2495466,PISTOL,"1 RB, 1 TE, 3 WR",6,"3 DL, 3 LB, 5 DB",right,2019-09-15T19:03:09.000Z,2019-09-15T19:03:08.000Z,6-4,220,10/12/1996,Notre Dame,WR,BAL,ARI,2,M&T Stadium,"Baltimore, Maryland",Outdoor,Natural Grass,Sunny,82.0,60,8,NNW
