,GameId,PlayId,Team,X,Y,S,A,Dis,Orientation,Dir,NflId,DisplayName,JerseyNumber,Season,YardLine,Quarter,GameClock,PossessionTeam,Down,Distance,FieldPosition,HomeScoreBeforePlay,VisitorScoreBeforePlay,NflIdRusher,OffenseFormation,OffensePersonnel,DefendersInTheBox,DefensePersonnel,PlayDirection,TimeHandoff,TimeSnap,PlayerHeight,PlayerWeight,PlayerBirthDate,PlayerCollegeName,Position,HomeTeamAbbr,VisitorTeamAbbr,Week,Stadium,Location,StadiumType,Turf,GameWeather,Temperature,Humidity,WindSpeed,WindDirection
9328,2019090809,20190908091583,away,82.15,22.18,4.54,1.62,0.46,226.01,248.45,79860,Matthew Stafford,9,2019,23,2,05:48:00,DET,2,5,ARZ,0,10,2540269,I_FORM,"2 RB, 1 TE, 2 WR",8,"4 DL, 3 LB, 4 DB",right,2019-09-08T21:27:44.000Z,2019-09-08T21:27:43.000Z,6-3,220,02/07/1988,Georgia,QB,ARI,DET,1,State Farm Stadium,"Glendale, AZ",Dome,Grass,,,0,,
9329,2019090809,20190908091583,away,89.45,33.02,4.49,0.81,0.44,64.11,107.58,2532884,Marvin Jones,11,2019,23,2,05:48:00,DET,2,5,ARZ,0,10,2540269,I_FORM,"2 RB, 1 TE, 2 WR",8,"4 DL, 3 LB, 4 DB",right,2019-09-08T21:27:44.000Z,2019-09-08T21:27:43.000Z,6-2,198,03/12/1990,California,WR,ARI,DET,1,State Farm Stadium,"Glendale, AZ",Dome,Grass,,,0,,
9330,2019090809,20190908091583,away,85.23,17.5,2.79,1.17,0.29,119.88,207.65,2539340,Rick Wagner,71,2019,23,2,05:48:00,DET,2,5,ARZ,0,10,2540269,I_FORM,"2 RB, 1 TE, 2 WR",8,"4 DL, 3 LB, 4 DB",right,2019-09-08T21:27:44.000Z,2019-09-08T21:27:43.000Z,6-6,315,10/21/1989,Wisconsin,T,ARI,DET,1,State Farm Stadium,"Glendale, AZ",Dome,Grass,,,0,,
9331,2019090809,20190908091583,away,82.14,21.18,4.97,0.77,0.49,108.25,137.31,2540269,C.J. Anderson,26,2019,23,2,05:48:00,DET,2,5,ARZ,0,10,2540269,I_FORM,"2 RB, 1 TE, 2 WR",8,"4 DL, 3 LB, 4 DB",right,2019-09-08T21:27:44.000Z,2019-09-08T21:27:43.000Z,5-8,225,02/10/1991,California,RB,ARI,DET,1,State Farm Stadium,"Glendale, AZ",Dome,Grass,,,0,,
9332,2019090809,20190908091583,away,85.39,26.04,2.98,0.92,0.3,301.33,180.6,2552633,Jesse James,83,2019,23,2,05:48:00,DET,2,5,ARZ,0,10,2540269,I_FORM,"2 RB, 1 TE, 2 WR",8,"4 DL, 3 LB, 4 DB",right,2019-09-08T21:27:44.000Z,2019-09-08T21:27:43.000Z,6-7,250,06/04/1994,Penn State,TE,ARI,DET,1,State Farm Stadium,"Glendale, AZ",Dome,Grass,,,0,,
9333,2019090809,20190908091583,away,87.57,22.87,2.7,0.72,0.28,120.38,152.29,2555136,Joe Dahl,66,2019,23,2,05:48:00,DET,2,5,ARZ,0,10,2540269,I_FORM,"2 RB, 1 TE, 2 WR",8,"4 DL, 3 LB, 4 DB",right,2019-09-08T21:27:44.000Z,2019-09-08T21:27:43.000Z,6-4,310,04/09/1993,Washington State,G,ARI,DET,1,State Farm Stadium,"Glendale, AZ",Dome,Grass,,,0,,
9334,2019090809,20190908091583,away,86.04,19.28,2.49,0.51,0.26,112.94,170.52,2555182,Graham Glasgow,60,2019,23,2,05:48:00,DET,2,5,ARZ,0,10,2540269,I_FORM,"2 RB, 1 TE, 2 WR",8,"4 DL, 3 LB, 4 DB",right,2019-09-08T21:27:44.000Z,2019-09-08T21:27:43.000Z,6-6,310,08/19/1992,Michigan,C,ARI,DET,1,State Farm Stadium,"Glendale, AZ",Dome,Grass,,,0,,
9335,2019090809,20190908091583,away,86.85,24.54,2.04,1.92,0.21,164.55,159.59,2555206,Taylor Decker,68,2019,23,2,05:48:00,DET,2,5,ARZ,0,10,2540269,I_FORM,"2 RB, 1 TE, 2 WR",8,"4 DL, 3 LB, 4 DB",right,2019-09-08T21:27:44.000Z,2019-09-08T21:27:43.000Z,6-7,318,08/23/1993,Ohio State,T,ARI,DET,1,State Farm Stadium,"Glendale, AZ",Dome,Grass,,,0,,
9336,2019090809,20190908091583,away,87.54,9.28,3.69,2.07,0.36,294.23,137.15,2558052,Kenny Golladay,19,2019,23,2,05:48:00,DET,2,5,ARZ,0,10,2540269,I_FORM,"2 RB, 1 TE, 2 WR",8,"4 DL, 3 LB, 4 DB",right,2019-09-08T21:27:44.000Z,2019-09-08T21:27:43.000Z,6-4,213,11/03/1993,Northern Illinois,WR,ARI,DET,1,State Farm Stadium,"Glendale, AZ",Dome,Grass,,,0,,
9337,2019090809,20190908091583,away,83.82,19.96,5.71,0.95,0.56,120.01,151.62,2560972,Nick Bawden,46,2019,23,2,05:48:00,DET,2,5,ARZ,0,10,2540269,I_FORM,"2 RB, 1 TE, 2 WR",8,"4 DL, 3 LB, 4 DB",right,2019-09-08T21:27:44.000Z,2019-09-08T21:27:43.000Z,6-2,245,06/22/1996,San Diego State,RB,ARI,DET,1,State Farm Stadium,"Glendale, AZ",Dome,Grass,,,0,,
9338,2019090809,20190908091583,away,88.2,21.64,3.92,0.61,0.39,115.71,141.6,2561142,Frank Ragnow,77,2019,23,2,05:48:00,DET,2,5,ARZ,0,10,2540269,I_FORM,"2 RB, 1 TE, 2 WR",8,"4 DL, 3 LB, 4 DB",right,2019-09-08T21:27:44.000Z,2019-09-08T21:27:43.000Z,6-5,311,05/17/1996,Arkansas,C,ARI,DET,1,State Farm Stadium,"Glendale, AZ",Dome,Grass,,,0,,
9339,2019090809,20190908091583,home,86.76,19.05,2.94,0.96,0.29,319.06,172.91,89758,Clinton McDonald,93,2019,23,2,05:48:00,DET,2,5,ARZ,0,10,2540269,I_FORM,"2 RB, 1 TE, 2 WR",8,"4 DL, 3 LB, 4 DB",right,2019-09-08T21:27:44.000Z,2019-09-08T21:27:43.000Z,6-2,297,01/06/1987,Memphis,DT,ARI,DET,1,State Farm Stadium,"Glendale, AZ",Dome,Grass,,,0,,
9340,2019090809,20190908091583,home,84.91,26.74,3.52,1.99,0.35,169.39,205.8,2505660,Terrell Suggs,56,2019,23,2,05:48:00,DET,2,5,ARZ,0,10,2540269,I_FORM,"2 RB, 1 TE, 2 WR",8,"4 DL, 3 LB, 4 DB",right,2019-09-08T21:27:44.000Z,2019-09-08T21:27:43.000Z,6-3,265,10/11/1982,Arizona State,OLB,ARI,DET,1,State Farm Stadium,"Glendale, AZ",Dome,Grass,,,0,,
9341,2019090809,20190908091583,home,89.35,9.6,3.46,1.28,0.34,280.11,133.78,2507917,Tramaine Brock,20,2019,23,2,05:48:00,DET,2,5,ARZ,0,10,2540269,I_FORM,"2 RB, 1 TE, 2 WR",8,"4 DL, 3 LB, 4 DB",right,2019-09-08T21:27:44.000Z,2019-09-08T21:27:43.000Z,6-0,188,08/20/1988,Belhaven,CB,ARI,DET,1,State Farm Stadium,"Glendale, AZ",Dome,Grass,,,0,,
9342,2019090809,20190908091583,home,85.78,16.96,3.13,0.57,0.32,303.14,223.09,2533538,Chandler Jones,55,2019,23,2,05:48:00,DET,2,5,ARZ,0,10,2540269,I_FORM,"2 RB, 1 TE, 2 WR",8,"4 DL, 3 LB, 4 DB",right,2019-09-08T21:27:44.000Z,2019-09-08T21:27:43.000Z,6-5,265,02/27/1990,Syracuse,OLB,ARI,DET,1,State Farm Stadium,"Glendale, AZ",Dome,Grass,,,0,,
9343,2019090809,20190908091583,home,88.93,27.94,3.43,1.62,0.34,209.03,183.52,2539943,D.J. Swearinger,36,2019,23,2,05:48:00,DET,2,5,ARZ,0,10,2540269,I_FORM,"2 RB, 1 TE, 2 WR",8,"4 DL, 3 LB, 4 DB",right,2019-09-08T21:27:44.000Z,2019-09-08T21:27:43.000Z,5-10,205,09/01/1991,South Carolina,FS,ARI,DET,1,State Farm Stadium,"Glendale, AZ",Dome,Grass,,,0,,
9344,2019090809,20190908091583,home,90.61,22.46,4.62,1.29,0.46,241.43,196.27,2552315,Jordan Hicks,58,2019,23,2,05:48:00,DET,2,5,ARZ,0,10,2540269,I_FORM,"2 RB, 1 TE, 2 WR",8,"4 DL, 3 LB, 4 DB",right,2019-09-08T21:27:44.000Z,2019-09-08T21:27:43.000Z,6-1,236,06/27/1992,Texas,MLB,ARI,DET,1,State Farm Stadium,"Glendale, AZ",Dome,Grass,,,0,,
9345,2019090809,20190908091583,home,88.38,22.92,2.49,0.42,0.28,270.44,156.7,2553437,Rodney Gunter,95,2019,23,2,05:48:00,DET,2,5,ARZ,0,10,2540269,I_FORM,"2 RB, 1 TE, 2 WR",8,"4 DL, 3 LB, 4 DB",right,2019-09-08T21:27:44.000Z,2019-09-08T21:27:43.000Z,6-5,305,01/19/1992,Delaware State,DT,ARI,DET,1,State Farm Stadium,"Glendale, AZ",Dome,Grass,,,0,,
9346,2019090809,20190908091583,home,88.94,19.73,4.21,1.83,0.42,270.34,212.99,2557887,Haason Reddick,43,2019,23,2,05:48:00,DET,2,5,ARZ,0,10,2540269,I_FORM,"2 RB, 1 TE, 2 WR",8,"4 DL, 3 LB, 4 DB",right,2019-09-08T21:27:44.000Z,2019-09-08T21:27:43.000Z,6-1,235,09/22/1994,Temple,ILB,ARI,DET,1,State Farm Stadium,"Glendale, AZ",Dome,Grass,,,0,,
9347,2019090809,20190908091583,home,105.3,24.8,3.42,2.0,0.33,275.17,143.98,2558009,Budda Baker,32,2019,23,2,05:48:00,DET,2,5,ARZ,0,10,2540269,I_FORM,"2 RB, 1 TE, 2 WR",8,"4 DL, 3 LB, 4 DB",right,2019-09-08T21:27:44.000Z,2019-09-08T21:27:43.000Z,5-10,195,01/10/1996,Washington,FS,ARI,DET,1,State Farm Stadium,"Glendale, AZ",Dome,Grass,,,0,,
9348,2019090809,20190908091583,home,87.02,24.73,1.84,2.1,0.18,219.66,168.63,2562219,Zach Allen,97,2019,23,2,05:48:00,DET,2,5,ARZ,0,10,2540269,I_FORM,"2 RB, 1 TE, 2 WR",8,"4 DL, 3 LB, 4 DB",right,2019-09-08T21:27:44.000Z,2019-09-08T21:27:43.000Z,6-5,281,08/20/1997,Boston College,DE,ARI,DET,1,State Farm Stadium,"Glendale, AZ",Dome,Grass,,,0,,
9349,2019090809,20190908091583,home,90.74,34.66,3.75,3.09,0.36,186.88,105.96,2562318,Byron Murphy,33,2019,23,2,05:48:00,DET,2,5,ARZ,0,10,2540269,I_FORM,"2 RB, 1 TE, 2 WR",8,"4 DL, 3 LB, 4 DB",right,2019-09-08T21:27:44.000Z,2019-09-08T21:27:43.000Z,5-11,190,01/18/1998,Washington,DB,ARI,DET,1,State Farm Stadium,"Glendale, AZ",Dome,Grass,,,0,,
