,GameId,PlayId,Team,X,Y,S,A,Dis,Orientation,Dir,NflId,DisplayName,JerseyNumber,Season,YardLine,Quarter,GameClock,PossessionTeam,Down,Distance,FieldPosition,HomeScoreBeforePlay,VisitorScoreBeforePlay,NflIdRusher,OffenseFormation,OffensePersonnel,DefendersInTheBox,DefensePersonnel,PlayDirection,TimeHandoff,TimeSnap,PlayerHeight,PlayerWeight,PlayerBirthDate,PlayerCollegeName,Position,HomeTeamAbbr,VisitorTeamAbbr,Week,Stadium,Location,StadiumType,Turf,GameWeather,Temperature,Humidity,WindSpeed,WindDirection
9636,2019090809,20190908093671,away,81.08,26.33,2.43,0.94,0.26,288.14,305.85,2532826,Mike Daniels,96,2019,29,4,12:18:00,ARZ,3,2,DET,6,24,2560781,SINGLEBACK,"6 OL, 1 RB, 2 TE, 1 WR",6,"3 DL, 3 LB, 5 DB",right,2019-09-08T22:59:32.000Z,2019-09-08T22:59:31.000Z,6-0,310,05/05/1989,Iowa,DT,ARI,DET,1,State Farm Stadium,"Glendale, AZ",Dome,Grass,,,0,,
9637,2019090809,20190908093671,away,81.11,28.6,1.19,0.93,0.13,301.33,321.67,2535718,Damon Harrison,98,2019,29,4,12:18:00,ARZ,3,2,DET,6,24,2560781,SINGLEBACK,"6 OL, 1 RB, 2 TE, 1 WR",6,"3 DL, 3 LB, 5 DB",right,2019-09-08T22:59:32.000Z,2019-09-08T22:59:31.000Z,6-3,350,11/29/1988,William Penn,DT,ARI,DET,1,State Farm Stadium,"Glendale, AZ",Dome,Grass,,,0,,
9638,2019090809,20190908093671,away,84.68,20.08,1.5,4.33,0.14,310.39,191.23,2540288,Darius Slay,23,2019,29,4,12:18:00,ARZ,3,2,DET,6,24,2560781,SINGLEBACK,"6 OL, 1 RB, 2 TE, 1 WR",6,"3 DL, 3 LB, 5 DB",right,2019-09-08T22:59:32.000Z,2019-09-08T22:59:31.000Z,6-0,190,01/01/1991,Mississippi State,CB,ARI,DET,1,State Farm Stadium,"Glendale, AZ",Dome,Grass,,,0,,
9639,2019090809,20190908093671,away,84.72,32.0,7.91,0.51,0.79,155.55,165.81,2541200,Rashaan Melvin,29,2019,29,4,12:18:00,ARZ,3,2,DET,6,24,2560781,SINGLEBACK,"6 OL, 1 RB, 2 TE, 1 WR",6,"3 DL, 3 LB, 5 DB",right,2019-09-08T22:59:32.000Z,2019-09-08T22:59:31.000Z,6-2,196,10/02/1989,Northern Illinois,CB,ARI,DET,1,State Farm Stadium,"Glendale, AZ",Dome,Grass,,,0,,
9640,2019090809,20190908093671,away,81.26,23.77,1.78,1.97,0.17,274.84,231.51,2543869,Devon Kennard,42,2019,29,4,12:18:00,ARZ,3,2,DET,6,24,2560781,SINGLEBACK,"6 OL, 1 RB, 2 TE, 1 WR",6,"3 DL, 3 LB, 5 DB",right,2019-09-08T22:59:32.000Z,2019-09-08T22:59:31.000Z,6-3,256,06/24/1991,Southern California,OLB,ARI,DET,1,State Farm Stadium,"Glendale, AZ",Dome,Grass,,,0,,
9641,2019090809,20190908093671,away,93.97,27.53,4.64,2.2,0.46,268.53,187.25,2552262,Quandre Diggs,28,2019,29,4,12:18:00,ARZ,3,2,DET,6,24,2560781,SINGLEBACK,"6 OL, 1 RB, 2 TE, 1 WR",6,"3 DL, 3 LB, 5 DB",right,2019-09-08T22:59:32.000Z,2019-09-08T22:59:31.000Z,5-9,197,01/22/1993,Texas,CB,ARI,DET,1,State Farm Stadium,"Glendale, AZ",Dome,Grass,,,0,,
9642,2019090809,20190908093671,away,81.08,31.14,1.44,0.96,0.15,311.94,304.05,2552278,Trey Flowers,90,2019,29,4,12:18:00,ARZ,3,2,DET,6,24,2560781,SINGLEBACK,"6 OL, 1 RB, 2 TE, 1 WR",6,"3 DL, 3 LB, 5 DB",right,2019-09-08T22:59:32.000Z,2019-09-08T22:59:31.000Z,6-2,265,08/16/1993,Arkansas,DE,ARI,DET,1,State Farm Stadium,"Glendale, AZ",Dome,Grass,,,0,,
9643,2019090809,20190908093671,away,82.93,20.99,3.61,1.35,0.35,283.35,215.64,2553637,Justin Coleman,27,2019,29,4,12:18:00,ARZ,3,2,DET,6,24,2560781,SINGLEBACK,"6 OL, 1 RB, 2 TE, 1 WR",6,"3 DL, 3 LB, 5 DB",right,2019-09-08T22:59:32.000Z,2019-09-08T22:59:31.000Z,5-11,190,03/27/1993,Tennessee,CB,ARI,DET,1,State Farm Stadium,"Glendale, AZ",Dome,Grass,,,0,,
9644,2019090809,20190908093671,away,85.08,28.72,0.86,4.75,0.07,238.35,233.52,2557924,Jalen Reeves-Maybin,44,2019,29,4,12:18:00,ARZ,3,2,DET,6,24,2560781,SINGLEBACK,"6 OL, 1 RB, 2 TE, 1 WR",6,"3 DL, 3 LB, 5 DB",right,2019-09-08T22:59:32.000Z,2019-09-08T22:59:31.000Z,6-0,233,01/31/1995,Tennessee,OLB,ARI,DET,1,State Farm Stadium,"Glendale, AZ",Dome,Grass,,,0,,
9645,2019090809,20190908093671,away,80.79,22.64,3.28,3.51,0.31,288.69,258.14,2560913,Tracy Walker,47,2019,29,4,12:18:00,ARZ,3,2,DET,6,24,2560781,SINGLEBACK,"6 OL, 1 RB, 2 TE, 1 WR",6,"3 DL, 3 LB, 5 DB",right,2019-09-08T22:59:32.000Z,2019-09-08T22:59:31.000Z,6-1,210,02/01/1995,Louisiana-Lafayette,DB,ARI,DET,1,State Farm Stadium,"Glendale, AZ",Dome,Grass,,,0,,
9646,2019090809,20190908093671,away,81.18,34.73,1.62,1.78,0.16,260.83,311.8,2562755,Jahlani Tavai,51,2019,29,4,12:18:00,ARZ,3,2,DET,6,24,2560781,SINGLEBACK,"6 OL, 1 RB, 2 TE, 1 WR",6,"3 DL, 3 LB, 5 DB",right,2019-09-08T22:59:32.000Z,2019-09-08T22:59:31.000Z,6-2,250,09/28/1996,Hawaii,LB,ARI,DET,1,State Farm Stadium,"Glendale, AZ",Dome,Grass,,,0,,
9647,2019090809,20190908093671,home,80.34,31.05,1.14,1.7,0.11,75.87,325.87,71461,A.Q. Shipley,53,2019,29,4,12:18:00,ARZ,3,2,DET,6,24,2560781,SINGLEBACK,"6 OL, 1 RB, 2 TE, 1 WR",6,"3 DL, 3 LB, 5 DB",right,2019-09-08T22:59:32.000Z,2019-09-08T22:59:31.000Z,6-1,307,05/22/1986,Penn State,C,ARI,DET,1,State Farm Stadium,"Glendale, AZ",Dome,Grass,,,0,,
9648,2019090809,20190908093671,home,79.43,21.08,3.38,4.24,0.32,79.65,172.32,2495139,Charles Clay,85,2019,29,4,12:18:00,ARZ,3,2,DET,6,24,2560781,SINGLEBACK,"6 OL, 1 RB, 2 TE, 1 WR",6,"3 DL, 3 LB, 5 DB",right,2019-09-08T22:59:32.000Z,2019-09-08T22:59:31.000Z,6-3,246,02/13/1989,Tulsa,TE,ARI,DET,1,State Farm Stadium,"Glendale, AZ",Dome,Grass,,,0,,
9649,2019090809,20190908093671,home,80.42,28.93,1.01,1.51,0.1,100.85,0.84,2533342,J.R. Sweezy,64,2019,29,4,12:18:00,ARZ,3,2,DET,6,24,2560781,SINGLEBACK,"6 OL, 1 RB, 2 TE, 1 WR",6,"3 DL, 3 LB, 5 DB",right,2019-09-08T22:59:32.000Z,2019-09-08T22:59:31.000Z,6-5,310,04/08/1989,North Carolina State,G,ARI,DET,1,State Farm Stadium,"Glendale, AZ",Dome,Grass,,,0,,
9650,2019090809,20190908093671,home,80.51,31.57,1.42,0.38,0.14,110.28,50.85,2540195,Justin Pugh,67,2019,29,4,12:18:00,ARZ,3,2,DET,6,24,2560781,SINGLEBACK,"6 OL, 1 RB, 2 TE, 1 WR",6,"3 DL, 3 LB, 5 DB",right,2019-09-08T22:59:32.000Z,2019-09-08T22:59:31.000Z,6-5,311,08/15/1990,Syracuse,G,ARI,DET,1,State Farm Stadium,"Glendale, AZ",Dome,Grass,,,0,,
9651,2019090809,20190908093671,home,80.09,21.91,4.29,3.19,0.41,92.86,170.04,2552468,Maxx Williams,87,2019,29,4,12:18:00,ARZ,3,2,DET,6,24,2560781,SINGLEBACK,"6 OL, 1 RB, 2 TE, 1 WR",6,"3 DL, 3 LB, 5 DB",right,2019-09-08T22:59:32.000Z,2019-09-08T22:59:31.000Z,6-4,252,04/12/1994,Minnesota,TE,ARI,DET,1,State Farm Stadium,"Glendale, AZ",Dome,Grass,,,0,,
9652,2019090809,20190908093671,home,80.07,24.25,3.08,2.38,0.29,76.67,172.12,2552626,D.J. Humphries,74,2019,29,4,12:18:00,ARZ,3,2,DET,6,24,2560781,SINGLEBACK,"6 OL, 1 RB, 2 TE, 1 WR",6,"3 DL, 3 LB, 5 DB",right,2019-09-08T22:59:32.000Z,2019-09-08T22:59:31.000Z,6-5,307,12/28/1993,Florida,OT,ARI,DET,1,State Farm Stadium,"Glendale, AZ",Dome,Grass,,,0,,
9653,2019090809,20190908093671,home,74.81,30.95,3.59,3.45,0.34,73.86,47.84,2553435,David Johnson,31,2019,29,4,12:18:00,ARZ,3,2,DET,6,24,2560781,SINGLEBACK,"6 OL, 1 RB, 2 TE, 1 WR",6,"3 DL, 3 LB, 5 DB",right,2019-09-08T22:59:32.000Z,2019-09-08T22:59:31.000Z,6-1,224,12/16/1991,Northern Iowa,RB,ARI,DET,1,State Farm Stadium,"Glendale, AZ",Dome,Grass,,,0,,
9654,2019090809,20190908093671,home,80.85,27.66,1.48,0.81,0.15,45.53,49.11,2556628,Justin Murray,71,2019,29,4,12:18:00,ARZ,3,2,DET,6,24,2560781,SINGLEBACK,"6 OL, 1 RB, 2 TE, 1 WR",6,"3 DL, 3 LB, 5 DB",right,2019-09-08T22:59:32.000Z,2019-09-08T22:59:31.000Z,6-5,315,04/19/1993,Cincinnati,OT,ARI,DET,1,State Farm Stadium,"Glendale, AZ",Dome,Grass,,,0,,
9655,2019090809,20190908093671,home,77.55,29.06,8.71,0.46,0.87,157.61,185.37,2560781,Christian Kirk,13,2019,29,4,12:18:00,ARZ,3,2,DET,6,24,2560781,SINGLEBACK,"6 OL, 1 RB, 2 TE, 1 WR",6,"3 DL, 3 LB, 5 DB",right,2019-09-08T22:59:32.000Z,2019-09-08T22:59:31.000Z,5-11,200,11/18/1996,Texas A&M,WR,ARI,DET,1,State Farm Stadium,"Glendale, AZ",Dome,Grass,,,0,,
9656,2019090809,20190908093671,home,80.2,34.27,0.96,0.97,0.1,60.11,8.81,2561025,Mason Cole,52,2019,29,4,12:18:00,ARZ,3,2,DET,6,24,2560781,SINGLEBACK,"6 OL, 1 RB, 2 TE, 1 WR",6,"3 DL, 3 LB, 5 DB",right,2019-09-08T22:59:32.000Z,2019-09-08T22:59:31.000Z,6-5,292,03/28/1996,Michigan,C,ARI,DET,1,State Farm Stadium,"Glendale, AZ",Dome,Grass,,,0,,
9657,2019090809,20190908093671,home,78.11,30.43,2.79,1.91,0.27,276.9,295.99,2562382,Kyler Murray,1,2019,29,4,12:18:00,ARZ,3,2,DET,6,24,2560781,SINGLEBACK,"6 OL, 1 RB, 2 TE, 1 WR",6,"3 DL, 3 LB, 5 DB",right,2019-09-08T22:59:32.000Z,2019-09-08T22:59:31.000Z,5-10,207,08/07/1997,Oklahoma,QB,ARI,DET,1,State Farm Stadium,"Glendale, AZ",Dome,Grass,,,0,,
