,GameId,PlayId,Team,X,Y,S,A,Dis,Orientation,Dir,NflId,DisplayName,JerseyNumber,Season,YardLine,Quarter,GameClock,PossessionTeam,Down,Distance,FieldPosition,HomeScoreBeforePlay,VisitorScoreBeforePlay,NflIdRusher,OffenseFormation,OffensePersonnel,DefendersInTheBox,DefensePersonnel,PlayDirection,TimeHandoff,TimeSnap,PlayerHeight,PlayerWeight,PlayerBirthDate,PlayerCollegeName,Position,HomeTeamAbbr,VisitorTeamAbbr,Week,Stadium,Location,StadiumType,Turf,GameWeather,Temperature,Humidity,WindSpeed,WindDirection
37312,2019092205,20190922052724,away,75.1,34.83,4.02,2.19,0.39,297.13,354.77,2532974,Kyle Wilber,58,2019,37,3,01:23:00,MIN,2,10,OAK,28,7,2562682,I_FORM,"2 RB, 1 TE, 2 WR",6,"4 DL, 3 LB, 4 DB",right,2019-09-22T19:10:16.000Z,2019-09-22T19:10:15.000Z,6-4,240,04/26/1989,Wake Forest,OLB,MIN,OAK,3,U.S. Bank Stadium,"Minneapolis, MN",Indoors,Field Turf,N/A (Indoors),,0,,
37313,2019092205,20190922052724,away,75.98,26.54,4.9,0.07,0.49,285.84,328.32,2532986,Tahir Whitehead,59,2019,37,3,01:23:00,MIN,2,10,OAK,28,7,2562682,I_FORM,"2 RB, 1 TE, 2 WR",6,"4 DL, 3 LB, 4 DB",right,2019-09-22T19:10:16.000Z,2019-09-22T19:10:15.000Z,6-1,241,04/02/1990,Temple,OLB,MIN,OAK,3,U.S. Bank Stadium,"Minneapolis, MN",Indoors,Field Turf,N/A (Indoors),,0,,
37314,2019092205,20190922052724,away,74.5,29.78,4.28,0.74,0.43,274.74,305.03,2533058,Vontaze Burfict,55,2019,37,3,01:23:00,MIN,2,10,OAK,28,7,2562682,I_FORM,"2 RB, 1 TE, 2 WR",6,"4 DL, 3 LB, 4 DB",right,2019-09-22T19:10:16.000Z,2019-09-22T19:10:15.000Z,6-1,255,09/24/1990,Arizona State,OLB,MIN,OAK,3,U.S. Bank Stadium,"Minneapolis, MN",Indoors,Field Turf,N/A (Indoors),,0,,
37315,2019092205,20190922052724,away,72.6,27.2,3.39,1.32,0.35,323.37,357.6,2540147,Johnathan Hankins,90,2019,37,3,01:23:00,MIN,2,10,OAK,28,7,2562682,I_FORM,"2 RB, 1 TE, 2 WR",6,"4 DL, 3 LB, 4 DB",right,2019-09-22T19:10:16.000Z,2019-09-22T19:10:15.000Z,6-3,340,03/30/1992,Ohio State,DT,MIN,OAK,3,U.S. Bank Stadium,"Minneapolis, MN",Indoors,Field Turf,N/A (Indoors),,0,,
37316,2019092205,20190922052724,away,71.93,19.35,1.89,1.04,0.19,358.73,316.31,2550437,Josh Mauro,97,2019,37,3,01:23:00,MIN,2,10,OAK,28,7,2562682,I_FORM,"2 RB, 1 TE, 2 WR",6,"4 DL, 3 LB, 4 DB",right,2019-09-22T19:10:16.000Z,2019-09-22T19:10:15.000Z,6-6,290,02/17/1991,Stanford,DE,MIN,OAK,3,U.S. Bank Stadium,"Minneapolis, MN",Indoors,Field Turf,N/A (Indoors),,0,,
37317,2019092205,20190922052724,away,81.32,21.35,3.57,2.57,0.35,287.68,348.7,2555342,Karl Joseph,42,2019,37,3,01:23:00,MIN,2,10,OAK,28,7,2562682,I_FORM,"2 RB, 1 TE, 2 WR",6,"4 DL, 3 LB, 4 DB",right,2019-09-22T19:10:16.000Z,2019-09-22T19:10:15.000Z,5-10,200,09/08/1993,West Virginia,SS,MIN,OAK,3,U.S. Bank Stadium,"Minneapolis, MN",Indoors,Field Turf,N/A (Indoors),,0,,
37318,2019092205,20190922052724,away,85.91,32.52,0.7,2.17,0.06,267.56,31.64,2555568,Erik Harris,25,2019,37,3,01:23:00,MIN,2,10,OAK,28,7,2562682,I_FORM,"2 RB, 1 TE, 2 WR",6,"4 DL, 3 LB, 4 DB",right,2019-09-22T19:10:16.000Z,2019-09-22T19:10:15.000Z,6-2,220,04/02/1990,"California, Pa.",SS,MIN,OAK,3,U.S. Bank Stadium,"Minneapolis, MN",Indoors,Field Turf,N/A (Indoors),,0,,
37319,2019092205,20190922052724,away,74.18,19.22,3.86,2.22,0.37,332.56,3.53,2558062,Gareon Conley,21,2019,37,3,01:23:00,MIN,2,10,OAK,28,7,2562682,I_FORM,"2 RB, 1 TE, 2 WR",6,"4 DL, 3 LB, 4 DB",right,2019-09-22T19:10:16.000Z,2019-09-22T19:10:15.000Z,6-0,190,06/29/1995,Ohio State,CB,MIN,OAK,3,U.S. Bank Stadium,"Minneapolis, MN",Indoors,Field Turf,N/A (Indoors),,0,,
37320,2019092205,20190922052724,away,74.44,24.9,3.52,1.06,0.39,300.23,18.61,2560080,P.J. Hall,92,2019,37,3,01:23:00,MIN,2,10,OAK,28,7,2562682,I_FORM,"2 RB, 1 TE, 2 WR",6,"4 DL, 3 LB, 4 DB",right,2019-09-22T19:10:16.000Z,2019-09-22T19:10:15.000Z,6-0,305,04/05/1995,Sam Houston State,DT,MIN,OAK,3,U.S. Bank Stadium,"Minneapolis, MN",Indoors,Field Turf,N/A (Indoors),,0,,
37321,2019092205,20190922052724,away,70.75,31.39,4.69,1.33,0.49,273.19,316.81,2562263,Clelin Ferrell,96,2019,37,3,01:23:00,MIN,2,10,OAK,28,7,2562682,I_FORM,"2 RB, 1 TE, 2 WR",6,"4 DL, 3 LB, 4 DB",right,2019-09-22T19:10:16.000Z,2019-09-22T19:10:15.000Z,6-4,265,05/17/1997,Clemson,DL,MIN,OAK,3,U.S. Bank Stadium,"Minneapolis, MN",Indoors,Field Turf,N/A (Indoors),,0,,
37322,2019092205,20190922052724,away,80.9,41.68,4.52,0.2,0.45,262.16,91.53,2562380,Trayvon Mullen,27,2019,37,3,01:23:00,MIN,2,10,OAK,28,7,2562682,I_FORM,"2 RB, 1 TE, 2 WR",6,"4 DL, 3 LB, 4 DB",right,2019-09-22T19:10:16.000Z,2019-09-22T19:10:15.000Z,6-2,200,09/20/1997,Clemson,CB,MIN,OAK,3,U.S. Bank Stadium,"Minneapolis, MN",Indoors,Field Turf,N/A (Indoors),,0,,
37323,2019092205,20190922052724,home,72.12,20.29,1.65,2.41,0.16,154.43,331.66,2495438,Kyle Rudolph,82,2019,37,3,01:23:00,MIN,2,10,OAK,28,7,2562682,I_FORM,"2 RB, 1 TE, 2 WR",6,"4 DL, 3 LB, 4 DB",right,2019-09-22T19:10:16.000Z,2019-09-22T19:10:15.000Z,6-6,265,11/09/1989,Notre Dame,TE,MIN,OAK,3,U.S. Bank Stadium,"Minneapolis, MN",Indoors,Field Turf,N/A (Indoors),,0,,
37324,2019092205,20190922052724,home,68.66,25.73,4.21,2.21,0.42,282.5,289.18,2532820,Kirk Cousins,8,2019,37,3,01:23:00,MIN,2,10,OAK,28,7,2562682,I_FORM,"2 RB, 1 TE, 2 WR",6,"4 DL, 3 LB, 4 DB",right,2019-09-22T19:10:16.000Z,2019-09-22T19:10:15.000Z,6-3,202,08/19/1988,Michigan State,QB,MIN,OAK,3,U.S. Bank Stadium,"Minneapolis, MN",Indoors,Field Turf,N/A (Indoors),,0,,
37325,2019092205,20190922052724,home,71.34,30.56,3.37,0.52,0.36,296.52,341.42,2533042,Riley Reiff,71,2019,37,3,01:23:00,MIN,2,10,OAK,28,7,2562682,I_FORM,"2 RB, 1 TE, 2 WR",6,"4 DL, 3 LB, 4 DB",right,2019-09-22T19:10:16.000Z,2019-09-22T19:10:15.000Z,6-6,305,12/01/1988,Iowa,T,MIN,OAK,3,U.S. Bank Stadium,"Minneapolis, MN",Indoors,Field Turf,N/A (Indoors),,0,,
37326,2019092205,20190922052724,home,74.35,35.47,4.73,3.57,0.46,82.16,24.1,2541785,Adam Thielen,19,2019,37,3,01:23:00,MIN,2,10,OAK,28,7,2562682,I_FORM,"2 RB, 1 TE, 2 WR",6,"4 DL, 3 LB, 4 DB",right,2019-09-22T19:10:16.000Z,2019-09-22T19:10:15.000Z,6-2,200,08/22/1990,Minn. State-Mankato,WR,MIN,OAK,3,U.S. Bank Stadium,"Minneapolis, MN",Indoors,Field Turf,N/A (Indoors),,0,,
37327,2019092205,20190922052724,home,73.88,25.11,3.87,0.35,0.41,92.12,21.1,2543805,Dakota Dozier,78,2019,37,3,01:23:00,MIN,2,10,OAK,28,7,2562682,I_FORM,"2 RB, 1 TE, 2 WR",6,"4 DL, 3 LB, 4 DB",right,2019-09-22T19:10:16.000Z,2019-09-22T19:10:15.000Z,6-4,313,04/30/1991,Furman,G,MIN,OAK,3,U.S. Bank Stadium,"Minneapolis, MN",Indoors,Field Turf,N/A (Indoors),,0,,
37328,2019092205,20190922052724,home,75.45,41.62,5.36,1.61,0.53,81.31,86.08,2552608,Stefon Diggs,14,2019,37,3,01:23:00,MIN,2,10,OAK,28,7,2562682,I_FORM,"2 RB, 1 TE, 2 WR",6,"4 DL, 3 LB, 4 DB",right,2019-09-22T19:10:16.000Z,2019-09-22T19:10:15.000Z,6-0,191,11/29/1993,Maryland,WR,MIN,OAK,3,U.S. Bank Stadium,"Minneapolis, MN",Indoors,Field Turf,N/A (Indoors),,0,,
37329,2019092205,20190922052724,home,69.19,30.42,5.25,1.59,0.52,17.61,0.59,2556803,C.J. Ham,30,2019,37,3,01:23:00,MIN,2,10,OAK,28,7,2562682,I_FORM,"2 RB, 1 TE, 2 WR",6,"4 DL, 3 LB, 4 DB",right,2019-09-22T19:10:16.000Z,2019-09-22T19:10:15.000Z,5-11,235,07/22/1993,"Augustana, S.D.",FB,MIN,OAK,3,U.S. Bank Stadium,"Minneapolis, MN",Indoors,Field Turf,N/A (Indoors),,0,,
37330,2019092205,20190922052724,home,73.01,28.66,4.15,0.89,0.45,50.65,8.07,2558848,Pat Elflein,65,2019,37,3,01:23:00,MIN,2,10,OAK,28,7,2562682,I_FORM,"2 RB, 1 TE, 2 WR",6,"4 DL, 3 LB, 4 DB",right,2019-09-22T19:10:16.000Z,2019-09-22T19:10:15.000Z,6-3,303,07/06/1994,Ohio State,G,MIN,OAK,3,U.S. Bank Stadium,"Minneapolis, MN",Indoors,Field Turf,N/A (Indoors),,0,,
37331,2019092205,20190922052724,home,72.69,24.81,3.79,1.39,0.39,65.46,23.25,2560831,Brian O'Neill,75,2019,37,3,01:23:00,MIN,2,10,OAK,28,7,2562682,I_FORM,"2 RB, 1 TE, 2 WR",6,"4 DL, 3 LB, 4 DB",right,2019-09-22T19:10:16.000Z,2019-09-22T19:10:15.000Z,6-7,297,09/15/1995,Pittsburgh,T,MIN,OAK,3,U.S. Bank Stadium,"Minneapolis, MN",Indoors,Field Turf,N/A (Indoors),,0,,
37332,2019092205,20190922052724,home,72.13,27.72,3.57,1.58,0.38,121.94,2.83,2562632,Garrett Bradbury,56,2019,37,3,01:23:00,MIN,2,10,OAK,28,7,2562682,I_FORM,"2 RB, 1 TE, 2 WR",6,"4 DL, 3 LB, 4 DB",right,2019-09-22T19:10:16.000Z,2019-09-22T19:10:15.000Z,6-3,305,06/20/1995,North Carolina State,C,MIN,OAK,3,U.S. Bank Stadium,"Minneapolis, MN",Indoors,Field Turf,N/A (Indoors),,0,,
37333,2019092205,20190922052724,home,68.92,26.72,5.49,0.44,0.55,74.2,41.2,2562682,Alexander Mattison,25,2019,37,3,01:23:00,MIN,2,10,OAK,28,7,2562682,I_FORM,"2 RB, 1 TE, 2 WR",6,"4 DL, 3 LB, 4 DB",right,2019-09-22T19:10:16.000Z,2019-09-22T19:10:15.000Z,5-11,220,06/19/1998,Boise State,RB,MIN,OAK,3,U.S. Bank Stadium,"Minneapolis, MN",Indoors,Field Turf,N/A (Indoors),,0,,
