,GameId,PlayId,Team,X,Y,S,A,Dis,Orientation,Dir,NflId,DisplayName,JerseyNumber,Season,YardLine,Quarter,GameClock,PossessionTeam,Down,Distance,FieldPosition,HomeScoreBeforePlay,VisitorScoreBeforePlay,NflIdRusher,OffenseFormation,OffensePersonnel,DefendersInTheBox,DefensePersonnel,PlayDirection,TimeHandoff,TimeSnap,PlayerHeight,PlayerWeight,PlayerBirthDate,PlayerCollegeName,Position,HomeTeamAbbr,VisitorTeamAbbr,Week,Stadium,Location,StadiumType,Turf,GameWeather,Temperature,Humidity,WindSpeed,WindDirection
55990,2019092909,20190929090638,away,29.22,30.45,3.99,0.91,0.4,38.59,14.71,2507716,Demar Dotson,69,2019,20,1,06:58:00,TB,1,10,TB,0,7,2560770,SINGLEBACK,"1 RB, 1 TE, 3 WR",7,"4 DL, 2 LB, 5 DB",right,2019-09-29T20:26:27.000Z,2019-09-29T20:26:26.000Z,6-9,315,10/11/1985,Southern Mississippi,OT,LA,TB,4,Los Angeles Memorial Coliseum,"Los Angeles, Calif.",Outdoor,Grass,Mostly Sunny,74.0,41,2,SW
55991,2019092909,20190929090638,away,27.31,33.15,3.88,0.8,0.4,134.98,320.05,2541159,Ryan Jensen,66,2019,20,1,06:58:00,TB,1,10,TB,0,7,2560770,SINGLEBACK,"1 RB, 1 TE, 3 WR",7,"4 DL, 2 LB, 5 DB",right,2019-09-29T20:26:27.000Z,2019-09-29T20:26:26.000Z,6-4,319,05/27/1991,Colorado State-Pueblo,C,LA,TB,4,Los Angeles Memorial Coliseum,"Los Angeles, Calif.",Outdoor,Grass,Mostly Sunny,74.0,41,2,SW
55992,2019092909,20190929090638,away,32.28,12.6,4.93,2.17,0.48,56.73,49.05,2543468,Mike Evans,13,2019,20,1,06:58:00,TB,1,10,TB,0,7,2560770,SINGLEBACK,"1 RB, 1 TE, 3 WR",7,"4 DL, 2 LB, 5 DB",right,2019-09-29T20:26:27.000Z,2019-09-29T20:26:26.000Z,6-5,231,08/21/1993,Texas A&M,WR,LA,TB,4,Los Angeles Memorial Coliseum,"Los Angeles, Calif.",Outdoor,Grass,Mostly Sunny,74.0,41,2,SW
55993,2019092909,20190929090638,away,24.57,31.82,4.91,3.02,0.49,315.42,284.87,2552033,Jameis Winston,3,2019,20,1,06:58:00,TB,1,10,TB,0,7,2560770,SINGLEBACK,"1 RB, 1 TE, 3 WR",7,"4 DL, 2 LB, 5 DB",right,2019-09-29T20:26:27.000Z,2019-09-29T20:26:26.000Z,6-4,231,01/06/1994,Florida State,QB,LA,TB,4,Los Angeles Memorial Coliseum,"Los Angeles, Calif.",Outdoor,Grass,Mostly Sunny,74.0,41,2,SW
55994,2019092909,20190929090638,away,30.28,34.8,3.19,1.21,0.33,21.96,24.91,2552332,Ali Marpet,74,2019,20,1,06:58:00,TB,1,10,TB,0,7,2560770,SINGLEBACK,"1 RB, 1 TE, 3 WR",7,"4 DL, 2 LB, 5 DB",right,2019-09-29T20:26:27.000Z,2019-09-29T20:26:26.000Z,6-4,307,04/17/1993,Hobart,G,LA,TB,4,Los Angeles Memorial Coliseum,"Los Angeles, Calif.",Outdoor,Grass,Mostly Sunny,74.0,41,2,SW
55995,2019092909,20190929090638,away,30.1,35.81,4.28,0.7,0.44,98.5,19.67,2552460,Donovan Smith,76,2019,20,1,06:58:00,TB,1,10,TB,0,7,2560770,SINGLEBACK,"1 RB, 1 TE, 3 WR",7,"4 DL, 2 LB, 5 DB",right,2019-09-29T20:26:27.000Z,2019-09-29T20:26:26.000Z,6-6,338,06/23/1993,Penn State,T,LA,TB,4,Los Angeles Memorial Coliseum,"Los Angeles, Calif.",Outdoor,Grass,Mostly Sunny,74.0,41,2,SW
55996,2019092909,20190929090638,away,32.82,43.11,5.07,3.06,0.5,119.26,117.02,2552597,Breshad Perriman,19,2019,20,1,06:58:00,TB,1,10,TB,0,7,2560770,SINGLEBACK,"1 RB, 1 TE, 3 WR",7,"4 DL, 2 LB, 5 DB",right,2019-09-29T20:26:27.000Z,2019-09-29T20:26:26.000Z,6-2,215,09/10/1993,Central Florida,WR,LA,TB,4,Los Angeles Memorial Coliseum,"Los Angeles, Calif.",Outdoor,Grass,Mostly Sunny,74.0,41,2,SW
55997,2019092909,20190929090638,away,27.74,35.32,1.55,2.65,0.15,62.16,312.11,2557856,O.J. Howard,80,2019,20,1,06:58:00,TB,1,10,TB,0,7,2560770,SINGLEBACK,"1 RB, 1 TE, 3 WR",7,"4 DL, 2 LB, 5 DB",right,2019-09-29T20:26:27.000Z,2019-09-29T20:26:26.000Z,6-6,250,11/18/1994,Alabama,TE,LA,TB,4,Los Angeles Memorial Coliseum,"Los Angeles, Calif.",Outdoor,Grass,Mostly Sunny,74.0,41,2,SW
55998,2019092909,20190929090638,away,32.03,19.25,5.5,2.03,0.54,88.46,71.49,2558105,Chris Godwin,12,2019,20,1,06:58:00,TB,1,10,TB,0,7,2560770,SINGLEBACK,"1 RB, 1 TE, 3 WR",7,"4 DL, 2 LB, 5 DB",right,2019-09-29T20:26:27.000Z,2019-09-29T20:26:26.000Z,6-1,209,02/27/1996,Penn State,WR,LA,TB,4,Los Angeles Memorial Coliseum,"Los Angeles, Calif.",Outdoor,Grass,Mostly Sunny,74.0,41,2,SW
55999,2019092909,20190929090638,away,25.36,33.06,5.52,0.63,0.54,67.07,34.93,2560770,Ronald Jones,27,2019,20,1,06:58:00,TB,1,10,TB,0,7,2560770,SINGLEBACK,"1 RB, 1 TE, 3 WR",7,"4 DL, 2 LB, 5 DB",right,2019-09-29T20:26:27.000Z,2019-09-29T20:26:26.000Z,5-11,208,08/03/1997,Southern California,RB,LA,TB,4,Los Angeles Memorial Coliseum,"Los Angeles, Calif.",Outdoor,Grass,Mostly Sunny,74.0,41,2,SW
56000,2019092909,20190929090638,away,29.71,31.13,3.57,0.23,0.38,125.24,7.64,2560991,Alex Cappa,65,2019,20,1,06:58:00,TB,1,10,TB,0,7,2560770,SINGLEBACK,"1 RB, 1 TE, 3 WR",7,"4 DL, 2 LB, 5 DB",right,2019-09-29T20:26:27.000Z,2019-09-29T20:26:26.000Z,6-6,305,01/27/1995,Humboldt State,G,LA,TB,4,Los Angeles Memorial Coliseum,"Los Angeles, Calif.",Outdoor,Grass,Mostly Sunny,74.0,41,2,SW
56001,2019092909,20190929090638,home,40.51,11.84,3.53,2.02,0.35,2.79,59.31,1302,Aqib Talib,21,2019,20,1,06:58:00,TB,1,10,TB,0,7,2560770,SINGLEBACK,"1 RB, 1 TE, 3 WR",7,"4 DL, 2 LB, 5 DB",right,2019-09-29T20:26:27.000Z,2019-09-29T20:26:26.000Z,6-1,209,02/13/1986,Kansas,CB,LA,TB,4,Los Angeles Memorial Coliseum,"Los Angeles, Calif.",Outdoor,Grass,Mostly Sunny,74.0,41,2,SW
56002,2019092909,20190929090638,home,28.22,35.71,0.96,2.8,0.1,286.71,295.59,80431,Clay Matthews,52,2019,20,1,06:58:00,TB,1,10,TB,0,7,2560770,SINGLEBACK,"1 RB, 1 TE, 3 WR",7,"4 DL, 2 LB, 5 DB",right,2019-09-29T20:26:27.000Z,2019-09-29T20:26:26.000Z,6-3,255,05/14/1986,Southern California,OLB,LA,TB,4,Los Angeles Memorial Coliseum,"Los Angeles, Calif.",Outdoor,Grass,Mostly Sunny,74.0,41,2,SW
56003,2019092909,20190929090638,home,41.7,34.31,2.57,3.82,0.24,284.46,330.56,2495775,Eric Weddle,32,2019,20,1,06:58:00,TB,1,10,TB,0,7,2560770,SINGLEBACK,"1 RB, 1 TE, 3 WR",7,"4 DL, 2 LB, 5 DB",right,2019-09-29T20:26:27.000Z,2019-09-29T20:26:26.000Z,5-11,195,01/04/1985,Utah,FS,LA,TB,4,Los Angeles Memorial Coliseum,"Los Angeles, Calif.",Outdoor,Grass,Mostly Sunny,74.0,41,2,SW
56004,2019092909,20190929090638,home,30.57,35.59,3.55,1.18,0.36,258.29,8.79,2533050,Michael Brockers,90,2019,20,1,06:58:00,TB,1,10,TB,0,7,2560770,SINGLEBACK,"1 RB, 1 TE, 3 WR",7,"4 DL, 2 LB, 5 DB",right,2019-09-29T20:26:27.000Z,2019-09-29T20:26:26.000Z,6-5,305,12/21/1990,Louisiana State,DT,LA,TB,4,Los Angeles Memorial Coliseum,"Los Angeles, Calif.",Outdoor,Grass,Mostly Sunny,74.0,41,2,SW
56005,2019092909,20190929090638,home,36.81,18.37,2.26,1.27,0.22,330.03,72.25,2540197,Nickell Robey-Coleman,23,2019,20,1,06:58:00,TB,1,10,TB,0,7,2560770,SINGLEBACK,"1 RB, 1 TE, 3 WR",7,"4 DL, 2 LB, 5 DB",right,2019-09-29T20:26:27.000Z,2019-09-29T20:26:26.000Z,5-8,178,01/17/1992,Southern California,CB,LA,TB,4,Los Angeles Memorial Coliseum,"Los Angeles, Calif.",Outdoor,Grass,Mostly Sunny,74.0,41,2,SW
56006,2019092909,20190929090638,home,30.26,30.95,3.33,0.88,0.34,275.84,2.18,2543485,Aaron Donald,99,2019,20,1,06:58:00,TB,1,10,TB,0,7,2560770,SINGLEBACK,"1 RB, 1 TE, 3 WR",7,"4 DL, 2 LB, 5 DB",right,2019-09-29T20:26:27.000Z,2019-09-29T20:26:26.000Z,6-1,280,05/23/1991,Pittsburgh,DT,LA,TB,4,Los Angeles Memorial Coliseum,"Los Angeles, Calif.",Outdoor,Grass,Mostly Sunny,74.0,41,2,SW
56007,2019092909,20190929090638,home,38.89,44.52,2.65,0.99,0.27,184.9,91.97,2552488,Marcus Peters,22,2019,20,1,06:58:00,TB,1,10,TB,0,7,2560770,SINGLEBACK,"1 RB, 1 TE, 3 WR",7,"4 DL, 2 LB, 5 DB",right,2019-09-29T20:26:27.000Z,2019-09-29T20:26:26.000Z,6-0,197,01/09/1993,Washington,CB,LA,TB,4,Los Angeles Memorial Coliseum,"Los Angeles, Calif.",Outdoor,Grass,Mostly Sunny,74.0,41,2,SW
56008,2019092909,20190929090638,home,28.62,28.38,4.68,2.04,0.48,340.32,349.01,2553431,Dante Fowler,56,2019,20,1,06:58:00,TB,1,10,TB,0,7,2560770,SINGLEBACK,"1 RB, 1 TE, 3 WR",7,"4 DL, 2 LB, 5 DB",right,2019-09-29T20:26:27.000Z,2019-09-29T20:26:26.000Z,6-3,255,08/03/1994,Florida,OLB,LA,TB,4,Los Angeles Memorial Coliseum,"Los Angeles, Calif.",Outdoor,Grass,Mostly Sunny,74.0,41,2,SW
56009,2019092909,20190929090638,home,34.32,27.54,4.72,3.23,0.46,318.08,1.56,2556593,Cory Littleton,58,2019,20,1,06:58:00,TB,1,10,TB,0,7,2560770,SINGLEBACK,"1 RB, 1 TE, 3 WR",7,"4 DL, 2 LB, 5 DB",right,2019-09-29T20:26:27.000Z,2019-09-29T20:26:26.000Z,6-3,228,11/18/1993,Washington,ILB,LA,TB,4,Los Angeles Memorial Coliseum,"Los Angeles, Calif.",Outdoor,Grass,Mostly Sunny,74.0,41,2,SW
56010,2019092909,20190929090638,home,33.37,34.72,4.01,1.48,0.4,288.27,333.64,2558183,John Johnson,43,2019,20,1,06:58:00,TB,1,10,TB,0,7,2560770,SINGLEBACK,"1 RB, 1 TE, 3 WR",7,"4 DL, 2 LB, 5 DB",right,2019-09-29T20:26:27.000Z,2019-09-29T20:26:26.000Z,6-0,209,12/19/1995,Boston College,SS,LA,TB,4,Los Angeles Memorial Coliseum,"Los Angeles, Calif.",Outdoor,Grass,Mostly Sunny,74.0,41,2,SW
56011,2019092909,20190929090638,home,27.8,32.68,3.4,1.11,0.35,358.0,315.38,2561079,Sebastian Joseph-Day,69,2019,20,1,06:58:00,TB,1,10,TB,0,7,2560770,SINGLEBACK,"1 RB, 1 TE, 3 WR",7,"4 DL, 2 LB, 5 DB",right,2019-09-29T20:26:27.000Z,2019-09-29T20:26:26.000Z,6-4,310,03/21/1995,Rutgers,DT,LA,TB,4,Los Angeles Memorial Coliseum,"Los Angeles, Calif.",Outdoor,Grass,Mostly Sunny,74.0,41,2,SW
