,GameId,PlayId,Team,X,Y,S,A,Dis,Orientation,Dir,NflId,DisplayName,JerseyNumber,Season,YardLine,Quarter,GameClock,PossessionTeam,Down,Distance,FieldPosition,HomeScoreBeforePlay,VisitorScoreBeforePlay,NflIdRusher,OffenseFormation,OffensePersonnel,DefendersInTheBox,DefensePersonnel,PlayDirection,TimeHandoff,TimeSnap,PlayerHeight,PlayerWeight,PlayerBirthDate,PlayerCollegeName,Position,HomeTeamAbbr,VisitorTeamAbbr,Week,Stadium,Location,StadiumType,Turf,GameWeather,Temperature,Humidity,WindSpeed,WindDirection
57882,2019092911,20190929111108,away,34.32,21.86,0.93,1.92,0.09,234.21,209.75,2543729,Brandon Linder,65,2019,25,2,13:39:00,JAX,1,10,JAX,14,3,2557973,I_FORM,"1 RB, 2 TE, 2 WR",7,"3 DL, 4 LB, 4 DB",right,2019-09-29T21:13:26.000Z,2019-09-29T21:13:25.000Z,6-6,315,01/25/1992,Miami,C,DEN,JAX,4,Empower Field at Mile High,"Denver, CO",Outdoor,Grass,Sunny,87.0,11,14 Gusting to 24,Southwest
57883,2019092911,20190929111108,away,34.77,24.99,0.68,1.06,0.06,131.26,34.36,2550589,Andrew Norwell,68,2019,25,2,13:39:00,JAX,1,10,JAX,14,3,2557973,I_FORM,"1 RB, 2 TE, 2 WR",7,"3 DL, 4 LB, 4 DB",right,2019-09-29T21:13:26.000Z,2019-09-29T21:13:25.000Z,6-6,325,10/25/1991,Ohio State,G,DEN,JAX,4,Empower Field at Mile High,"Denver, CO",Outdoor,Grass,Sunny,87.0,11,14 Gusting to 24,Southwest
57884,2019092911,20190929111108,away,37.07,11.47,4.54,3.76,0.45,66.68,41.81,2552652,Chris Conley,18,2019,25,2,13:39:00,JAX,1,10,JAX,14,3,2557973,I_FORM,"1 RB, 2 TE, 2 WR",7,"3 DL, 4 LB, 4 DB",right,2019-09-29T21:13:26.000Z,2019-09-29T21:13:25.000Z,6-3,205,10/25/1992,Georgia,WR,DEN,JAX,4,Empower Field at Mile High,"Denver, CO",Outdoor,Grass,Sunny,87.0,11,14 Gusting to 24,Southwest
57885,2019092911,20190929111108,away,35.6,26.69,2.79,2.01,0.28,172.85,120.57,2553318,James O'Shaughnessy,80,2019,25,2,13:39:00,JAX,1,10,JAX,14,3,2557973,I_FORM,"1 RB, 2 TE, 2 WR",7,"3 DL, 4 LB, 4 DB",right,2019-09-29T21:13:26.000Z,2019-09-29T21:13:25.000Z,6-4,245,01/14/1992,Illinois State,TE,DEN,JAX,4,Empower Field at Mile High,"Denver, CO",Outdoor,Grass,Sunny,87.0,11,14 Gusting to 24,Southwest
57886,2019092911,20190929111108,away,33.35,24.88,5.48,0.75,0.54,66.36,36.62,2556365,Seth DeValve,88,2019,25,2,13:39:00,JAX,1,10,JAX,14,3,2557973,I_FORM,"1 RB, 2 TE, 2 WR",7,"3 DL, 4 LB, 4 DB",right,2019-09-29T21:13:26.000Z,2019-09-29T21:13:25.000Z,6-3,245,01/29/1993,Princeton,TE,DEN,JAX,4,Empower Field at Mile High,"Denver, CO",Outdoor,Grass,Sunny,87.0,11,14 Gusting to 24,Southwest
57887,2019092911,20190929111108,away,29.28,23.88,3.92,4.78,0.37,97.28,57.59,2557973,Leonard Fournette,27,2019,25,2,13:39:00,JAX,1,10,JAX,14,3,2557973,I_FORM,"1 RB, 2 TE, 2 WR",7,"3 DL, 4 LB, 4 DB",right,2019-09-29T21:13:26.000Z,2019-09-29T21:13:25.000Z,6-0,228,01/18/1995,Louisiana State,RB,DEN,JAX,4,Empower Field at Mile High,"Denver, CO",Outdoor,Grass,Sunny,87.0,11,14 Gusting to 24,Southwest
57888,2019092911,20190929111108,away,35.6,26.01,1.55,1.56,0.16,130.16,112.89,2558004,Cam Robinson,74,2019,25,2,13:39:00,JAX,1,10,JAX,14,3,2557973,I_FORM,"1 RB, 2 TE, 2 WR",7,"3 DL, 4 LB, 4 DB",right,2019-09-29T21:13:26.000Z,2019-09-29T21:13:25.000Z,6-6,320,10/09/1995,Alabama,T,DEN,JAX,4,Empower Field at Mile High,"Denver, CO",Outdoor,Grass,Sunny,87.0,11,14 Gusting to 24,Southwest
57889,2019092911,20190929111108,away,34.44,26.39,4.05,1.68,0.42,50.49,19.93,2560853,Will Richardson,76,2019,25,2,13:39:00,JAX,1,10,JAX,14,3,2557973,I_FORM,"1 RB, 2 TE, 2 WR",7,"3 DL, 4 LB, 4 DB",right,2019-09-29T21:13:26.000Z,2019-09-29T21:13:25.000Z,6-6,303,01/04/1996,North Carolina State,T,DEN,JAX,4,Empower Field at Mile High,"Denver, CO",Outdoor,Grass,Sunny,87.0,11,14 Gusting to 24,Southwest
57890,2019092911,20190929111108,away,35.88,34.11,4.18,2.66,0.41,111.44,112.39,2561018,D.J. Chark,17,2019,25,2,13:39:00,JAX,1,10,JAX,14,3,2557973,I_FORM,"1 RB, 2 TE, 2 WR",7,"3 DL, 4 LB, 4 DB",right,2019-09-29T21:13:26.000Z,2019-09-29T21:13:25.000Z,6-4,198,09/23/1996,Louisiana State,WR,DEN,JAX,4,Empower Field at Mile High,"Denver, CO",Outdoor,Grass,Sunny,87.0,11,14 Gusting to 24,Southwest
57891,2019092911,20190929111108,away,33.11,21.63,0.94,1.19,0.09,119.21,232.99,2562756,Jawaan Taylor,75,2019,25,2,13:39:00,JAX,1,10,JAX,14,3,2557973,I_FORM,"1 RB, 2 TE, 2 WR",7,"3 DL, 4 LB, 4 DB",right,2019-09-29T21:13:26.000Z,2019-09-29T21:13:25.000Z,6-5,312,11/25/1997,Florida,T,DEN,JAX,4,Empower Field at Mile High,"Denver, CO",Outdoor,Grass,Sunny,87.0,11,14 Gusting to 24,Southwest
57892,2019092911,20190929111108,away,29.73,23.07,4.76,1.94,0.48,293.35,247.31,2562796,Gardner Minshew,15,2019,25,2,13:39:00,JAX,1,10,JAX,14,3,2557973,I_FORM,"1 RB, 2 TE, 2 WR",7,"3 DL, 4 LB, 4 DB",right,2019-09-29T21:13:26.000Z,2019-09-29T21:13:25.000Z,6-1,225,05/16/1996,Washington State,QB,DEN,JAX,4,Empower Field at Mile High,"Denver, CO",Outdoor,Grass,Sunny,87.0,11,14 Gusting to 24,Southwest
57893,2019092911,20190929111108,home,33.55,20.07,0.9,3.43,0.11,325.92,306.21,2495202,Von Miller,58,2019,25,2,13:39:00,JAX,1,10,JAX,14,3,2557973,I_FORM,"1 RB, 2 TE, 2 WR",7,"3 DL, 4 LB, 4 DB",right,2019-09-29T21:13:26.000Z,2019-09-29T21:13:25.000Z,6-3,250,03/26/1989,Texas A&M,OLB,DEN,JAX,4,Empower Field at Mile High,"Denver, CO",Outdoor,Grass,Sunny,87.0,11,14 Gusting to 24,Southwest
57894,2019092911,20190929111108,home,39.17,11.42,2.67,2.37,0.26,292.62,349.38,2530510,Chris Harris,25,2019,25,2,13:39:00,JAX,1,10,JAX,14,3,2557973,I_FORM,"1 RB, 2 TE, 2 WR",7,"3 DL, 4 LB, 4 DB",right,2019-09-29T21:13:26.000Z,2019-09-29T21:13:25.000Z,5-10,199,06/18/1989,Kansas,CB,DEN,JAX,4,Empower Field at Mile High,"Denver, CO",Outdoor,Grass,Sunny,87.0,11,14 Gusting to 24,Southwest
57895,2019092911,20190929111108,home,35.42,24.46,0.53,0.52,0.06,312.43,15.55,2549926,Shelby Harris,96,2019,25,2,13:39:00,JAX,1,10,JAX,14,3,2557973,I_FORM,"1 RB, 2 TE, 2 WR",7,"3 DL, 4 LB, 4 DB",right,2019-09-29T21:13:26.000Z,2019-09-29T21:13:25.000Z,6-2,290,08/11/1991,Illinois State,NT,DEN,JAX,4,Empower Field at Mile High,"Denver, CO",Outdoor,Grass,Sunny,87.0,11,14 Gusting to 24,Southwest
57896,2019092911,20190929111108,home,37.17,26.82,2.79,0.64,0.27,257.75,296.41,2550930,Todd Davis,51,2019,25,2,13:39:00,JAX,1,10,JAX,14,3,2557973,I_FORM,"1 RB, 2 TE, 2 WR",7,"3 DL, 4 LB, 4 DB",right,2019-09-29T21:13:26.000Z,2019-09-29T21:13:25.000Z,6-1,230,05/17/1992,Sacramento State,ILB,DEN,JAX,4,Empower Field at Mile High,"Denver, CO",Outdoor,Grass,Sunny,87.0,11,14 Gusting to 24,Southwest
57897,2019092911,20190929111108,home,46.12,36.6,1.3,0.74,0.13,215.94,99.82,2553790,DeVante Bausby,41,2019,25,2,13:39:00,JAX,1,10,JAX,14,3,2557973,I_FORM,"1 RB, 2 TE, 2 WR",7,"3 DL, 4 LB, 4 DB",right,2019-09-29T21:13:26.000Z,2019-09-29T21:13:25.000Z,6-2,190,01/15/1993,Pittsburg State,CB,DEN,JAX,4,Empower Field at Mile High,"Denver, CO",Outdoor,Grass,Sunny,87.0,11,14 Gusting to 24,Southwest
57898,2019092911,20190929111108,home,36.22,25.71,1.63,0.9,0.16,262.44,136.14,2555502,Adam Gotsis,99,2019,25,2,13:39:00,JAX,1,10,JAX,14,3,2557973,I_FORM,"1 RB, 2 TE, 2 WR",7,"3 DL, 4 LB, 4 DB",right,2019-09-29T21:13:26.000Z,2019-09-29T21:13:25.000Z,6-4,287,09/23/1992,Georgia Tech,DE,DEN,JAX,4,Empower Field at Mile High,"Denver, CO",Outdoor,Grass,Sunny,87.0,11,14 Gusting to 24,Southwest
57899,2019092911,20190929111108,home,50.57,15.83,2.25,2.12,0.23,263.15,86.32,2555550,Justin Simmons,31,2019,25,2,13:39:00,JAX,1,10,JAX,14,3,2557973,I_FORM,"1 RB, 2 TE, 2 WR",7,"3 DL, 4 LB, 4 DB",right,2019-09-29T21:13:26.000Z,2019-09-29T21:13:25.000Z,6-2,202,11/19/1993,Boston College,SS,DEN,JAX,4,Empower Field at Mile High,"Denver, CO",Outdoor,Grass,Sunny,87.0,11,14 Gusting to 24,Southwest
57900,2019092911,20190929111108,home,44.85,28.83,1.6,3.76,0.14,271.29,236.52,2556278,Will Parks,34,2019,25,2,13:39:00,JAX,1,10,JAX,14,3,2557973,I_FORM,"1 RB, 2 TE, 2 WR",7,"3 DL, 4 LB, 4 DB",right,2019-09-29T21:13:26.000Z,2019-09-29T21:13:25.000Z,6-1,194,07/29/1994,Arizona,FS,DEN,JAX,4,Empower Field at Mile High,"Denver, CO",Outdoor,Grass,Sunny,87.0,11,14 Gusting to 24,Southwest
57901,2019092911,20190929111108,home,33.92,21.15,0.85,1.52,0.09,312.58,256.1,2557894,DeMarcus Walker,57,2019,25,2,13:39:00,JAX,1,10,JAX,14,3,2557973,I_FORM,"1 RB, 2 TE, 2 WR",7,"3 DL, 4 LB, 4 DB",right,2019-09-29T21:13:26.000Z,2019-09-29T21:13:25.000Z,6-4,280,09/30/1994,Florida State,DE,DEN,JAX,4,Empower Field at Mile High,"Denver, CO",Outdoor,Grass,Sunny,87.0,11,14 Gusting to 24,Southwest
57902,2019092911,20190929111108,home,38.01,23.99,3.26,1.1,0.32,269.97,348.02,2560763,Josey Jewell,47,2019,25,2,13:39:00,JAX,1,10,JAX,14,3,2557973,I_FORM,"1 RB, 2 TE, 2 WR",7,"3 DL, 4 LB, 4 DB",right,2019-09-29T21:13:26.000Z,2019-09-29T21:13:25.000Z,6-2,236,12/25/1994,Iowa,LB,DEN,JAX,4,Empower Field at Mile High,"Denver, CO",Outdoor,Grass,Sunny,87.0,11,14 Gusting to 24,Southwest
57903,2019092911,20190929111108,home,35.47,29.31,1.62,1.57,0.17,211.82,195.39,2561020,Bradley Chubb,55,2019,25,2,13:39:00,JAX,1,10,JAX,14,3,2557973,I_FORM,"1 RB, 2 TE, 2 WR",7,"3 DL, 4 LB, 4 DB",right,2019-09-29T21:13:26.000Z,2019-09-29T21:13:25.000Z,6-4,275,06/24/1996,North Carolina State,DE,DEN,JAX,4,Empower Field at Mile High,"Denver, CO",Outdoor,Grass,Sunny,87.0,11,14 Gusting to 24,Southwest
