,GameId,PlayId,Team,X,Y,S,A,Dis,Orientation,Dir,NflId,DisplayName,JerseyNumber,Season,YardLine,Quarter,GameClock,PossessionTeam,Down,Distance,FieldPosition,HomeScoreBeforePlay,VisitorScoreBeforePlay,NflIdRusher,OffenseFormation,OffensePersonnel,DefendersInTheBox,DefensePersonnel,PlayDirection,TimeHandoff,TimeSnap,PlayerHeight,PlayerWeight,PlayerBirthDate,PlayerCollegeName,Position,HomeTeamAbbr,VisitorTeamAbbr,Week,Stadium,Location,StadiumType,Turf,GameWeather,Temperature,Humidity,WindSpeed,WindDirection
12848,2019090812,20190908123513,away,18.57,35.98,0.55,1.43,0.05,116.11,164.43,496733,Joe Haden,23,2019,15,4,07:16:00,NE,1,10,PIT,30,3,2539265,SINGLEBACK,"2 RB, 1 TE, 2 WR",7,"3 DL, 4 LB, 4 DB",left,2019-09-09T03:01:01.000Z,2019-09-09T03:01:00.000Z,5-11,195,04/14/1989,Florida,CB,NE,PIT,1,Gillette Stadium,"Foxborough, MA",Outdoor,Field Turf,Partly cloudy and mild,66.0,62,2,NW
12849,2019090812,20190908123513,away,24.16,30.19,0.92,0.74,0.09,131.1,347.93,496760,Tyson Alualu,94,2019,15,4,07:16:00,NE,1,10,PIT,30,3,2539265,SINGLEBACK,"2 RB, 1 TE, 2 WR",7,"3 DL, 4 LB, 4 DB",left,2019-09-09T03:01:01.000Z,2019-09-09T03:01:00.000Z,6-3,304,05/12/1987,California,DE,NE,PIT,1,Gillette Stadium,"Foxborough, MA",Outdoor,Field Turf,Partly cloudy and mild,66.0,62,2,NW
12850,2019090812,20190908123513,away,23.87,24.09,0.85,1.29,0.11,88.3,295.72,2508109,Cameron Heyward,97,2019,15,4,07:16:00,NE,1,10,PIT,30,3,2539265,SINGLEBACK,"2 RB, 1 TE, 2 WR",7,"3 DL, 4 LB, 4 DB",left,2019-09-09T03:01:01.000Z,2019-09-09T03:01:00.000Z,6-5,295,05/06/1989,Ohio State,DT,NE,PIT,1,Gillette Stadium,"Foxborough, MA",Outdoor,Field Turf,Partly cloudy and mild,66.0,62,2,NW
12851,2019090812,20190908123513,away,22.5,25.91,3.53,1.09,0.35,91.34,66.95,2540221,Vince Williams,98,2019,15,4,07:16:00,NE,1,10,PIT,30,3,2539265,SINGLEBACK,"2 RB, 1 TE, 2 WR",7,"3 DL, 4 LB, 4 DB",left,2019-09-09T03:01:01.000Z,2019-09-09T03:01:00.000Z,6-1,233,12/27/1989,Florida State,ILB,NE,PIT,1,Gillette Stadium,"Foxborough, MA",Outdoor,Field Turf,Partly cloudy and mild,66.0,62,2,NW
12852,2019090812,20190908123513,away,18.55,10.86,4.7,2.91,0.46,312.08,288.12,2552265,Steven Nelson,22,2019,15,4,07:16:00,NE,1,10,PIT,30,3,2539265,SINGLEBACK,"2 RB, 1 TE, 2 WR",7,"3 DL, 4 LB, 4 DB",left,2019-09-09T03:01:01.000Z,2019-09-09T03:01:00.000Z,5-11,194,01/22/1993,Oregon State,CB,NE,PIT,1,Gillette Stadium,"Foxborough, MA",Outdoor,Field Turf,Partly cloudy and mild,66.0,62,2,NW
12853,2019090812,20190908123513,away,23.66,31.38,0.5,1.48,0.04,124.72,320.52,2552266,Anthony Chickillo,56,2019,15,4,07:16:00,NE,1,10,PIT,30,3,2539265,SINGLEBACK,"2 RB, 1 TE, 2 WR",7,"3 DL, 4 LB, 4 DB",left,2019-09-09T03:01:01.000Z,2019-09-09T03:01:00.000Z,6-3,255,12/10/1992,Miami,OLB,NE,PIT,1,Gillette Stadium,"Foxborough, MA",Outdoor,Field Turf,Partly cloudy and mild,66.0,62,2,NW
12854,2019090812,20190908123513,away,24.4,21.71,0.8,0.32,0.08,54.9,62.21,2552289,Bud Dupree,48,2019,15,4,07:16:00,NE,1,10,PIT,30,3,2539265,SINGLEBACK,"2 RB, 1 TE, 2 WR",7,"3 DL, 4 LB, 4 DB",left,2019-09-09T03:01:01.000Z,2019-09-09T03:01:00.000Z,6-4,269,02/12/1993,Kentucky,OLB,NE,PIT,1,Gillette Stadium,"Foxborough, MA",Outdoor,Field Turf,Partly cloudy and mild,66.0,62,2,NW
12855,2019090812,20190908123513,away,25.03,28.19,1.82,2.94,0.19,47.56,14.38,2555239,Javon Hargrave,79,2019,15,4,07:16:00,NE,1,10,PIT,30,3,2539265,SINGLEBACK,"2 RB, 1 TE, 2 WR",7,"3 DL, 4 LB, 4 DB",left,2019-09-09T03:01:01.000Z,2019-09-09T03:01:00.000Z,6-2,305,02/07/1993,South Carolina State,NT,NE,PIT,1,Gillette Stadium,"Foxborough, MA",Outdoor,Field Turf,Partly cloudy and mild,66.0,62,2,NW
12856,2019090812,20190908123513,away,23.69,32.46,0.38,1.58,0.04,123.08,139.65,2560712,Terrell Edmunds,34,2019,15,4,07:16:00,NE,1,10,PIT,30,3,2539265,SINGLEBACK,"2 RB, 1 TE, 2 WR",7,"3 DL, 4 LB, 4 DB",left,2019-09-09T03:01:01.000Z,2019-09-09T03:01:00.000Z,6-1,217,01/20/1997,Virginia Tech,S,NE,PIT,1,Gillette Stadium,"Foxborough, MA",Outdoor,Field Turf,Partly cloudy and mild,66.0,62,2,NW
12857,2019090812,20190908123513,away,11.57,23.82,0.57,0.79,0.06,102.46,319.55,2560778,Kam Kelly,29,2019,15,4,07:16:00,NE,1,10,PIT,30,3,2539265,SINGLEBACK,"2 RB, 1 TE, 2 WR",7,"3 DL, 4 LB, 4 DB",left,2019-09-09T03:01:01.000Z,2019-09-09T03:01:00.000Z,6-2,205,08/19/1996,San Diego State,DB,NE,PIT,1,Gillette Stadium,"Foxborough, MA",Outdoor,Field Turf,Partly cloudy and mild,66.0,62,2,NW
12858,2019090812,20190908123513,away,22.39,28.04,2.03,1.54,0.2,125.81,126.61,2562243,Devin Bush,55,2019,15,4,07:16:00,NE,1,10,PIT,30,3,2539265,SINGLEBACK,"2 RB, 1 TE, 2 WR",7,"3 DL, 4 LB, 4 DB",left,2019-09-09T03:01:01.000Z,2019-09-09T03:01:00.000Z,5-11,233,07/18/1998,Michigan,LB,NE,PIT,1,Gillette Stadium,"Foxborough, MA",Outdoor,Field Turf,Partly cloudy and mild,66.0,62,2,NW
12859,2019090812,20190908123513,home,25.54,33.0,2.4,1.46,0.24,255.15,225.64,238498,Julian Edelman,11,2019,15,4,07:16:00,NE,1,10,PIT,30,3,2539265,SINGLEBACK,"2 RB, 1 TE, 2 WR",7,"3 DL, 4 LB, 4 DB",left,2019-09-09T03:01:01.000Z,2019-09-09T03:01:00.000Z,5-10,200,05/22/1986,Kent State,WR,NE,PIT,1,Gillette Stadium,"Foxborough, MA",Outdoor,Field Turf,Partly cloudy and mild,66.0,62,2,NW
12860,2019090812,20190908123513,home,29.2,27.33,4.01,0.99,0.39,43.53,71.55,2504211,Tom Brady,12,2019,15,4,07:16:00,NE,1,10,PIT,30,3,2539265,SINGLEBACK,"2 RB, 1 TE, 2 WR",7,"3 DL, 4 LB, 4 DB",left,2019-09-09T03:01:01.000Z,2019-09-09T03:01:00.000Z,6-4,225,08/03/1977,Michigan,QB,NE,PIT,1,Gillette Stadium,"Foxborough, MA",Outdoor,Field Turf,Partly cloudy and mild,66.0,62,2,NW
12861,2019090812,20190908123513,home,25.79,28.89,1.4,4.07,0.15,262.55,223.5,2508101,James Develin,46,2019,15,4,07:16:00,NE,1,10,PIT,30,3,2539265,SINGLEBACK,"2 RB, 1 TE, 2 WR",7,"3 DL, 4 LB, 4 DB",left,2019-09-09T03:01:01.000Z,2019-09-09T03:01:00.000Z,6-3,255,07/23/1988,Brown,FB,NE,PIT,1,Gillette Stadium,"Foxborough, MA",Outdoor,Field Turf,Partly cloudy and mild,66.0,62,2,NW
12862,2019090812,20190908123513,home,29.33,27.82,4.63,1.47,0.45,272.3,296.48,2539265,Rex Burkhead,34,2019,15,4,07:16:00,NE,1,10,PIT,30,3,2539265,SINGLEBACK,"2 RB, 1 TE, 2 WR",7,"3 DL, 4 LB, 4 DB",left,2019-09-09T03:01:01.000Z,2019-09-09T03:01:00.000Z,5-10,215,07/02/1990,Nebraska,RB,NE,PIT,1,Gillette Stadium,"Foxborough, MA",Outdoor,Field Turf,Partly cloudy and mild,66.0,62,2,NW
12863,2019090812,20190908123513,home,23.09,12.53,4.42,1.72,0.44,298.12,309.96,2552424,Phillip Dorsett,13,2019,15,4,07:16:00,NE,1,10,PIT,30,3,2539265,SINGLEBACK,"2 RB, 1 TE, 2 WR",7,"3 DL, 4 LB, 4 DB",left,2019-09-09T03:01:01.000Z,2019-09-09T03:01:00.000Z,5-10,192,01/05/1993,Miami,WR,NE,PIT,1,Gillette Stadium,"Foxborough, MA",Outdoor,Field Turf,Partly cloudy and mild,66.0,62,2,NW
12864,2019090812,20190908123513,home,23.95,28.96,1.77,1.54,0.19,275.83,267.52,2552563,Shaq Mason,69,2019,15,4,07:16:00,NE,1,10,PIT,30,3,2539265,SINGLEBACK,"2 RB, 1 TE, 2 WR",7,"3 DL, 4 LB, 4 DB",left,2019-09-09T03:01:01.000Z,2019-09-09T03:01:00.000Z,6-1,310,08/28/1993,Georgia Tech,G,NE,PIT,1,Gillette Stadium,"Foxborough, MA",Outdoor,Field Turf,Partly cloudy and mild,66.0,62,2,NW
12865,2019090812,20190908123513,home,26.13,24.32,2.46,1.33,0.26,232.13,168.67,2555145,Ted Karras,75,2019,15,4,07:16:00,NE,1,10,PIT,30,3,2539265,SINGLEBACK,"2 RB, 1 TE, 2 WR",7,"3 DL, 4 LB, 4 DB",left,2019-09-09T03:01:01.000Z,2019-09-09T03:01:00.000Z,6-4,305,03/15/1993,Illinois,C,NE,PIT,1,Gillette Stadium,"Foxborough, MA",Outdoor,Field Turf,Partly cloudy and mild,66.0,62,2,NW
12866,2019090812,20190908123513,home,24.65,29.99,0.79,0.65,0.08,314.59,289.33,2555281,Joe Thuney,62,2019,15,4,07:16:00,NE,1,10,PIT,30,3,2539265,SINGLEBACK,"2 RB, 1 TE, 2 WR",7,"3 DL, 4 LB, 4 DB",left,2019-09-09T03:01:01.000Z,2019-09-09T03:01:00.000Z,6-5,308,11/18/1992,North Carolina State,G,NE,PIT,1,Gillette Stadium,"Foxborough, MA",Outdoor,Field Turf,Partly cloudy and mild,66.0,62,2,NW
12867,2019090812,20190908123513,home,23.85,25.29,2.57,0.25,0.25,307.63,283.56,2558257,Jermaine Eluemunor,65,2019,15,4,07:16:00,NE,1,10,PIT,30,3,2539265,SINGLEBACK,"2 RB, 1 TE, 2 WR",7,"3 DL, 4 LB, 4 DB",left,2019-09-09T03:01:01.000Z,2019-09-09T03:01:00.000Z,6-4,335,12/13/1994,Texas A&M,T,NE,PIT,1,Gillette Stadium,"Foxborough, MA",Outdoor,Field Turf,Partly cloudy and mild,66.0,62,2,NW
12868,2019090812,20190908123513,home,24.52,31.47,0.37,1.5,0.04,265.96,248.96,2560751,Ryan Izzo,85,2019,15,4,07:16:00,NE,1,10,PIT,30,3,2539265,SINGLEBACK,"2 RB, 1 TE, 2 WR",7,"3 DL, 4 LB, 4 DB",left,2019-09-09T03:01:01.000Z,2019-09-09T03:01:00.000Z,6-5,255,12/21/1995,Florida State,TE,NE,PIT,1,Gillette Stadium,"Foxborough, MA",Outdoor,Field Turf,Partly cloudy and mild,66.0,62,2,NW
12869,2019090812,20190908123513,home,24.52,24.07,1.5,1.95,0.16,274.07,262.21,2560945,Isaiah Wynn,76,2019,15,4,07:16:00,NE,1,10,PIT,30,3,2539265,SINGLEBACK,"2 RB, 1 TE, 2 WR",7,"3 DL, 4 LB, 4 DB",left,2019-09-09T03:01:01.000Z,2019-09-09T03:01:00.000Z,6-2,310,12/09/1995,Georgia,T,NE,PIT,1,Gillette Stadium,"Foxborough, MA",Outdoor,Field Turf,Partly cloudy and mild,66.0,62,2,NW
