,GameId,PlayId,Team,X,Y,S,A,Dis,Orientation,Dir,NflId,DisplayName,JerseyNumber,Season,YardLine,Quarter,GameClock,PossessionTeam,Down,Distance,FieldPosition,HomeScoreBeforePlay,VisitorScoreBeforePlay,NflIdRusher,OffenseFormation,OffensePersonnel,DefendersInTheBox,DefensePersonnel,PlayDirection,TimeHandoff,TimeSnap,PlayerHeight,PlayerWeight,PlayerBirthDate,PlayerCollegeName,Position,HomeTeamAbbr,VisitorTeamAbbr,Week,Stadium,Location,StadiumType,Turf,GameWeather,Temperature,Humidity,WindSpeed,WindDirection
4312,2019090803,20190908033541,away,77.46,44.34,3.07,2.3,0.3,50.18,309.79,2532792,Justin Bethel,28,2019,30,4,09:21:00,MIA,2,10,MIA,10,59,2560915,SINGLEBACK,"1 RB, 2 TE, 2 WR",6,"2 DL, 4 LB, 5 DB",left,2019-09-08T19:47:51.000Z,2019-09-08T19:47:50.000Z,6-0,200,06/17/1990,Presbyterian,CB,MIA,BAL,1,Hard Rock Stadium,"Miami Gardens, FL",Outdoor,Natural grass,Mostly Cloudy,91.0,56,8,SSE
4313,2019090803,20190908033541,away,76.52,25.95,4.75,2.55,0.46,49.46,8.18,2555380,Cyrus Jones,27,2019,30,4,09:21:00,MIA,2,10,MIA,10,59,2560915,SINGLEBACK,"1 RB, 2 TE, 2 WR",6,"2 DL, 4 LB, 5 DB",left,2019-09-08T19:47:51.000Z,2019-09-08T19:47:50.000Z,5-10,195,11/29/1993,Alabama,CB,MIA,BAL,1,Hard Rock Stadium,"Miami Gardens, FL",Outdoor,Natural grass,Mostly Cloudy,91.0,56,8,SSE
4314,2019090803,20190908033541,away,82.55,36.55,2.94,2.59,0.32,160.91,56.89,2555505,Matt Judon,99,2019,30,4,09:21:00,MIA,2,10,MIA,10,59,2560915,SINGLEBACK,"1 RB, 2 TE, 2 WR",6,"2 DL, 4 LB, 5 DB",left,2019-09-08T19:47:51.000Z,2019-09-08T19:47:50.000Z,6-3,261,08/15/1992,Grand Valley State,OLB,MIA,BAL,1,Hard Rock Stadium,"Miami Gardens, FL",Outdoor,Natural grass,Mostly Cloudy,91.0,56,8,SSE
4315,2019090803,20190908033541,away,76.3,30.93,5.02,2.02,0.49,80.53,16.99,2556642,Patrick Onwuasor,48,2019,30,4,09:21:00,MIA,2,10,MIA,10,59,2560915,SINGLEBACK,"1 RB, 2 TE, 2 WR",6,"2 DL, 4 LB, 5 DB",left,2019-09-08T19:47:51.000Z,2019-09-08T19:47:50.000Z,6-0,227,08/22/1992,Portland State,ILB,MIA,BAL,1,Hard Rock Stadium,"Miami Gardens, FL",Outdoor,Natural grass,Mostly Cloudy,91.0,56,8,SSE
4316,2019090803,20190908033541,away,81.06,33.23,3.17,0.96,0.32,80.71,18.26,2556650,Michael Pierce,97,2019,30,4,09:21:00,MIA,2,10,MIA,10,59,2560915,SINGLEBACK,"1 RB, 2 TE, 2 WR",6,"2 DL, 4 LB, 5 DB",left,2019-09-08T19:47:51.000Z,2019-09-08T19:47:50.000Z,6-0,340,11/06/1992,Samford,DT,MIA,BAL,1,Hard Rock Stadium,"Miami Gardens, FL",Outdoor,Natural grass,Mostly Cloudy,91.0,56,8,SSE
4317,2019090803,20190908033541,away,80.04,28.13,4.35,2.37,0.43,32.79,349.81,2557841,Tim Williams,56,2019,30,4,09:21:00,MIA,2,10,MIA,10,59,2560915,SINGLEBACK,"1 RB, 2 TE, 2 WR",6,"2 DL, 4 LB, 5 DB",left,2019-09-08T19:47:51.000Z,2019-09-08T19:47:50.000Z,6-3,252,11/12/1993,Alabama,OLB,MIA,BAL,1,Hard Rock Stadium,"Miami Gardens, FL",Outdoor,Natural grass,Mostly Cloudy,91.0,56,8,SSE
4318,2019090803,20190908033541,away,81.04,30.69,4.09,2.62,0.43,79.41,10.88,2557862,Chris Wormley,93,2019,30,4,09:21:00,MIA,2,10,MIA,10,59,2560915,SINGLEBACK,"1 RB, 2 TE, 2 WR",6,"2 DL, 4 LB, 5 DB",left,2019-09-08T19:47:51.000Z,2019-09-08T19:47:50.000Z,6-5,300,10/25/1993,Michigan,DE,MIA,BAL,1,Hard Rock Stadium,"Miami Gardens, FL",Outdoor,Natural grass,Mostly Cloudy,91.0,56,8,SSE
4319,2019090803,20190908033541,away,67.25,24.45,3.27,3.14,0.31,20.94,2.62,2558248,Chuck Clark,36,2019,30,4,09:21:00,MIA,2,10,MIA,10,59,2560915,SINGLEBACK,"1 RB, 2 TE, 2 WR",6,"2 DL, 4 LB, 5 DB",left,2019-09-08T19:47:51.000Z,2019-09-08T19:47:50.000Z,6-0,205,04/19/1995,Virginia Tech,FS,MIA,BAL,1,Hard Rock Stadium,"Miami Gardens, FL",Outdoor,Natural grass,Mostly Cloudy,91.0,56,8,SSE
4320,2019090803,20190908033541,away,74.92,37.36,5.47,1.15,0.54,89.25,77.38,2560715,DeShon Elliott,32,2019,30,4,09:21:00,MIA,2,10,MIA,10,59,2560915,SINGLEBACK,"1 RB, 2 TE, 2 WR",6,"2 DL, 4 LB, 5 DB",left,2019-09-08T19:47:51.000Z,2019-09-08T19:47:50.000Z,6-0,210,04/21/1997,Texas,DB,MIA,BAL,1,Hard Rock Stadium,"Miami Gardens, FL",Outdoor,Natural grass,Mostly Cloudy,91.0,56,8,SSE
4321,2019090803,20190908033541,away,80.06,34.77,4.62,4.19,0.45,102.77,24.0,2560947,Kenny Young,40,2019,30,4,09:21:00,MIA,2,10,MIA,10,59,2560915,SINGLEBACK,"1 RB, 2 TE, 2 WR",6,"2 DL, 4 LB, 5 DB",left,2019-09-08T19:47:51.000Z,2019-09-08T19:47:50.000Z,6-1,235,11/15/1994,UCLA,LB,MIA,BAL,1,Hard Rock Stadium,"Miami Gardens, FL",Outdoor,Natural grass,Mostly Cloudy,91.0,56,8,SSE
4322,2019090803,20190908033541,away,72.11,10.48,2.82,2.1,0.27,43.11,302.66,2560963,Anthony Averett,34,2019,30,4,09:21:00,MIA,2,10,MIA,10,59,2560915,SINGLEBACK,"1 RB, 2 TE, 2 WR",6,"2 DL, 4 LB, 5 DB",left,2019-09-08T19:47:51.000Z,2019-09-08T19:47:50.000Z,5-11,178,11/30/1994,Alabama,CB,MIA,BAL,1,Hard Rock Stadium,"Miami Gardens, FL",Outdoor,Natural grass,Mostly Cloudy,91.0,56,8,SSE
4323,2019090803,20190908033541,home,81.78,33.38,3.64,0.79,0.37,286.99,13.49,2495299,Daniel Kilgore,67,2019,30,4,09:21:00,MIA,2,10,MIA,10,59,2560915,SINGLEBACK,"1 RB, 2 TE, 2 WR",6,"2 DL, 4 LB, 5 DB",left,2019-09-08T19:47:51.000Z,2019-09-08T19:47:50.000Z,6-3,291,12/18/1987,Appalachian State,C,MIA,BAL,1,Hard Rock Stadium,"Miami Gardens, FL",Outdoor,Natural grass,Mostly Cloudy,91.0,56,8,SSE
4324,2019090803,20190908033541,home,80.45,10.22,4.0,3.25,0.38,291.25,305.25,2550353,Allen Hurns,86,2019,30,4,09:21:00,MIA,2,10,MIA,10,59,2560915,SINGLEBACK,"1 RB, 2 TE, 2 WR",6,"2 DL, 4 LB, 5 DB",left,2019-09-08T19:47:51.000Z,2019-09-08T19:47:50.000Z,6-3,195,11/12/1991,Miami,WR,MIA,BAL,1,Hard Rock Stadium,"Miami Gardens, FL",Outdoor,Natural grass,Mostly Cloudy,91.0,56,8,SSE
4325,2019090803,20190908033541,home,81.59,27.47,5.23,2.14,0.51,311.77,345.19,2552403,Nick O'Leary,83,2019,30,4,09:21:00,MIA,2,10,MIA,10,59,2560915,SINGLEBACK,"1 RB, 2 TE, 2 WR",6,"2 DL, 4 LB, 5 DB",left,2019-09-08T19:47:51.000Z,2019-09-08T19:47:50.000Z,6-3,252,08/31/1992,Florida State,TE,MIA,BAL,1,Hard Rock Stadium,"Miami Gardens, FL",Outdoor,Natural grass,Mostly Cloudy,91.0,56,8,SSE
4326,2019090803,20190908033541,home,81.75,30.64,4.32,0.29,0.45,334.33,5.2,2553705,Jesse Davis,77,2019,30,4,09:21:00,MIA,2,10,MIA,10,59,2560915,SINGLEBACK,"1 RB, 2 TE, 2 WR",6,"2 DL, 4 LB, 5 DB",left,2019-09-08T19:47:51.000Z,2019-09-08T19:47:50.000Z,6-6,325,09/15/1991,Idaho,G,MIA,BAL,1,Hard Rock Stadium,"Miami Gardens, FL",Outdoor,Natural grass,Mostly Cloudy,91.0,56,8,SSE
4327,2019090803,20190908033541,home,82.15,36.29,3.18,1.47,0.33,60.63,30.67,2557963,Julie'n Davenport,70,2019,30,4,09:21:00,MIA,2,10,MIA,10,59,2560915,SINGLEBACK,"1 RB, 2 TE, 2 WR",6,"2 DL, 4 LB, 5 DB",left,2019-09-08T19:47:51.000Z,2019-09-08T19:47:50.000Z,6-7,325,01/09/1995,Bucknell,T,MIA,BAL,1,Hard Rock Stadium,"Miami Gardens, FL",Outdoor,Natural grass,Mostly Cloudy,91.0,56,8,SSE
4328,2019090803,20190908033541,home,81.0,34.64,3.84,0.91,0.39,103.82,0.59,2558181,Danny Isidora,65,2019,30,4,09:21:00,MIA,2,10,MIA,10,59,2560915,SINGLEBACK,"1 RB, 2 TE, 2 WR",6,"2 DL, 4 LB, 5 DB",left,2019-09-08T19:47:51.000Z,2019-09-08T19:47:50.000Z,6-3,306,06/05/1994,Miami (Fla.),G,MIA,BAL,1,Hard Rock Stadium,"Miami Gardens, FL",Outdoor,Natural grass,Mostly Cloudy,91.0,56,8,SSE
4329,2019090803,20190908033541,home,84.64,32.38,4.06,1.9,0.41,36.98,56.76,2560858,Josh Rosen,3,2019,30,4,09:21:00,MIA,2,10,MIA,10,59,2560915,SINGLEBACK,"1 RB, 2 TE, 2 WR",6,"2 DL, 4 LB, 5 DB",left,2019-09-08T19:47:51.000Z,2019-09-08T19:47:50.000Z,6-4,226,02/10/1997,UCLA,QB,MIA,BAL,1,Hard Rock Stadium,"Miami Gardens, FL",Outdoor,Natural grass,Mostly Cloudy,91.0,56,8,SSE
4330,2019090803,20190908033541,home,80.62,28.64,4.74,1.15,0.47,277.88,343.11,2560880,Durham Smythe,81,2019,30,4,09:21:00,MIA,2,10,MIA,10,59,2560915,SINGLEBACK,"1 RB, 2 TE, 2 WR",6,"2 DL, 4 LB, 5 DB",left,2019-09-08T19:47:51.000Z,2019-09-08T19:47:50.000Z,6-6,260,08/09/1995,Notre Dame,TE,MIA,BAL,1,Hard Rock Stadium,"Miami Gardens, FL",Outdoor,Natural grass,Mostly Cloudy,91.0,56,8,SSE
4331,2019090803,20190908033541,home,84.54,33.27,5.87,1.56,0.58,308.84,322.06,2560915,Mark Walton,9,2019,30,4,09:21:00,MIA,2,10,MIA,10,59,2560915,SINGLEBACK,"1 RB, 2 TE, 2 WR",6,"2 DL, 4 LB, 5 DB",left,2019-09-08T19:47:51.000Z,2019-09-08T19:47:50.000Z,5-10,200,03/29/1997,Miami,HB,MIA,BAL,1,Hard Rock Stadium,"Miami Gardens, FL",Outdoor,Natural grass,Mostly Cloudy,91.0,56,8,SSE
4332,2019090803,20190908033541,home,78.56,31.57,5.2,0.67,0.52,294.67,317.39,2562255,Michael Deiter,63,2019,30,4,09:21:00,MIA,2,10,MIA,10,59,2560915,SINGLEBACK,"1 RB, 2 TE, 2 WR",6,"2 DL, 4 LB, 5 DB",left,2019-09-08T19:47:51.000Z,2019-09-08T19:47:50.000Z,6-6,310,09/03/1996,Wisconsin,OG,MIA,BAL,1,Hard Rock Stadium,"Miami Gardens, FL",Outdoor,Natural grass,Mostly Cloudy,91.0,56,8,SSE
4333,2019090803,20190908033541,home,78.59,44.67,4.09,2.57,0.4,288.07,304.64,2562805,Preston Williams,82,2019,30,4,09:21:00,MIA,2,10,MIA,10,59,2560915,SINGLEBACK,"1 RB, 2 TE, 2 WR",6,"2 DL, 4 LB, 5 DB",left,2019-09-08T19:47:51.000Z,2019-09-08T19:47:50.000Z,6-5,218,03/27/1997,Colorado State,WR,MIA,BAL,1,Hard Rock Stadium,"Miami Gardens, FL",Outdoor,Natural grass,Mostly Cloudy,91.0,56,8,SSE
