,GameId,PlayId,Team,X,Y,S,A,Dis,Orientation,Dir,NflId,DisplayName,JerseyNumber,Season,YardLine,Quarter,GameClock,PossessionTeam,Down,Distance,FieldPosition,HomeScoreBeforePlay,VisitorScoreBeforePlay,NflIdRusher,OffenseFormation,OffensePersonnel,DefendersInTheBox,DefensePersonnel,PlayDirection,TimeHandoff,TimeSnap,PlayerHeight,PlayerWeight,PlayerBirthDate,PlayerCollegeName,Position,HomeTeamAbbr,VisitorTeamAbbr,Week,Stadium,Location,StadiumType,Turf,GameWeather,Temperature,Humidity,WindSpeed,WindDirection
22858,2019091507,20190915070340,away,28.74,34.94,1.96,1.2,0.2,353.58,354.11,808,Duane Brown,76,2019,21,1,09:53:00,SEA,1,10,SEA,0,0,2558865,SINGLEBACK,"6 OL, 1 RB, 1 TE, 2 WR",7,"3 DL, 4 LB, 4 DB",right,2019-09-15T17:16:23.000Z,2019-09-15T17:16:22.000Z,6-4,315,08/30/1985,Virginia Tech,T,PIT,SEA,2,Heinz Field,Pittsburgh,Outdoors,Grass,Sunny,81.0,51,3,From S
22859,2019091507,20190915070340,away,30.28,34.33,2.16,2.86,0.23,63.37,358.66,497016,Mike Iupati,70,2019,21,1,09:53:00,SEA,1,10,SEA,0,0,2558865,SINGLEBACK,"6 OL, 1 RB, 1 TE, 2 WR",7,"3 DL, 4 LB, 4 DB",right,2019-09-15T17:16:23.000Z,2019-09-15T17:16:22.000Z,6-5,331,05/12/1987,Idaho,OG,PIT,SEA,2,Heinz Field,Pittsburgh,Outdoors,Grass,Sunny,81.0,51,3,From S
22860,2019091507,20190915070340,away,26.24,31.02,4.55,2.52,0.45,286.26,277.74,2532975,Russell Wilson,3,2019,21,1,09:53:00,SEA,1,10,SEA,0,0,2558865,SINGLEBACK,"6 OL, 1 RB, 1 TE, 2 WR",7,"3 DL, 4 LB, 4 DB",right,2019-09-15T17:16:23.000Z,2019-09-15T17:16:22.000Z,5-11,215,11/29/1988,Wisconsin,QB,PIT,SEA,2,Heinz Field,Pittsburgh,Outdoors,Grass,Sunny,81.0,51,3,From S
22861,2019091507,20190915070340,away,30.86,30.9,2.48,0.42,0.24,59.64,21.17,2540166,D.J. Fluker,78,2019,21,1,09:53:00,SEA,1,10,SEA,0,0,2558865,SINGLEBACK,"6 OL, 1 RB, 1 TE, 2 WR",7,"3 DL, 4 LB, 4 DB",right,2019-09-15T17:16:23.000Z,2019-09-15T17:16:22.000Z,6-5,342,03/13/1991,Alabama,OG,PIT,SEA,2,Heinz Field,Pittsburgh,Outdoors,Grass,Sunny,81.0,51,3,From S
22862,2019091507,20190915070340,away,30.67,24.23,5.09,2.07,0.5,9.89,16.14,2541966,Jaron Brown,18,2019,21,1,09:53:00,SEA,1,10,SEA,0,0,2558865,SINGLEBACK,"6 OL, 1 RB, 1 TE, 2 WR",7,"3 DL, 4 LB, 4 DB",right,2019-09-15T17:16:23.000Z,2019-09-15T17:16:22.000Z,6-3,205,01/08/1990,Clemson,WR,PIT,SEA,2,Heinz Field,Pittsburgh,Outdoors,Grass,Sunny,81.0,51,3,From S
22863,2019091507,20190915070340,away,30.75,31.81,2.38,0.74,0.24,47.18,358.63,2550135,Justin Britt,68,2019,21,1,09:53:00,SEA,1,10,SEA,0,0,2558865,SINGLEBACK,"6 OL, 1 RB, 1 TE, 2 WR",7,"3 DL, 4 LB, 4 DB",right,2019-09-15T17:16:23.000Z,2019-09-15T17:16:22.000Z,6-6,315,05/29/1991,Missouri,C,PIT,SEA,2,Heinz Field,Pittsburgh,Outdoors,Grass,Sunny,81.0,51,3,From S
22864,2019091507,20190915070340,away,30.6,29.29,3.11,0.88,0.33,65.94,8.33,2555395,Germain Ifedi,65,2019,21,1,09:53:00,SEA,1,10,SEA,0,0,2558865,SINGLEBACK,"6 OL, 1 RB, 1 TE, 2 WR",7,"3 DL, 4 LB, 4 DB",right,2019-09-15T17:16:23.000Z,2019-09-15T17:16:22.000Z,6-5,325,06/02/1994,Texas A&M,G,PIT,SEA,2,Heinz Field,Pittsburgh,Outdoors,Grass,Sunny,81.0,51,3,From S
22865,2019091507,20190915070340,away,31.17,28.61,3.88,1.62,0.39,41.89,30.24,2556524,George Fant,74,2019,21,1,09:53:00,SEA,1,10,SEA,0,0,2558865,SINGLEBACK,"6 OL, 1 RB, 1 TE, 2 WR",7,"3 DL, 4 LB, 4 DB",right,2019-09-15T17:16:23.000Z,2019-09-15T17:16:22.000Z,6-5,322,07/19/1992,Western Kentucky,OT,PIT,SEA,2,Heinz Field,Pittsburgh,Outdoors,Grass,Sunny,81.0,51,3,From S
22866,2019091507,20190915070340,away,25.7,31.8,4.21,3.77,0.41,113.51,75.12,2558865,Chris Carson,32,2019,21,1,09:53:00,SEA,1,10,SEA,0,0,2558865,SINGLEBACK,"6 OL, 1 RB, 1 TE, 2 WR",7,"3 DL, 4 LB, 4 DB",right,2019-09-15T17:16:23.000Z,2019-09-15T17:16:22.000Z,5-11,222,09/16/1994,Oklahoma State,RB,PIT,SEA,2,Heinz Field,Pittsburgh,Outdoors,Grass,Sunny,81.0,51,3,From S
22867,2019091507,20190915070340,away,28.44,30.97,4.61,1.65,0.46,160.88,173.02,2561046,Will Dissly,88,2019,21,1,09:53:00,SEA,1,10,SEA,0,0,2558865,SINGLEBACK,"6 OL, 1 RB, 1 TE, 2 WR",7,"3 DL, 4 LB, 4 DB",right,2019-09-15T17:16:23.000Z,2019-09-15T17:16:22.000Z,6-4,267,07/08/1996,Washington,TE,PIT,SEA,2,Heinz Field,Pittsburgh,Outdoors,Grass,Sunny,81.0,51,3,From S
22868,2019091507,20190915070340,away,32.08,37.04,3.51,1.25,0.34,62.83,100.01,2562685,D.K. Metcalf,14,2019,21,1,09:53:00,SEA,1,10,SEA,0,0,2558865,SINGLEBACK,"6 OL, 1 RB, 1 TE, 2 WR",7,"3 DL, 4 LB, 4 DB",right,2019-09-15T17:16:23.000Z,2019-09-15T17:16:22.000Z,6-4,230,12/14/1997,Mississippi,WR,PIT,SEA,2,Heinz Field,Pittsburgh,Outdoors,Grass,Sunny,81.0,51,3,From S
22869,2019091507,20190915070340,home,35.69,20.75,2.99,3.22,0.28,325.74,5.39,496733,Joe Haden,23,2019,21,1,09:53:00,SEA,1,10,SEA,0,0,2558865,SINGLEBACK,"6 OL, 1 RB, 1 TE, 2 WR",7,"3 DL, 4 LB, 4 DB",right,2019-09-15T17:16:23.000Z,2019-09-15T17:16:22.000Z,5-11,195,04/14/1989,Florida,CB,PIT,SEA,2,Heinz Field,Pittsburgh,Outdoors,Grass,Sunny,81.0,51,3,From S
22870,2019091507,20190915070340,home,31.24,34.73,1.75,0.95,0.19,232.64,347.42,2508109,Cameron Heyward,97,2019,21,1,09:53:00,SEA,1,10,SEA,0,0,2558865,SINGLEBACK,"6 OL, 1 RB, 1 TE, 2 WR",7,"3 DL, 4 LB, 4 DB",right,2019-09-15T17:16:23.000Z,2019-09-15T17:16:22.000Z,6-5,295,05/06/1989,Ohio State,DT,PIT,SEA,2,Heinz Field,Pittsburgh,Outdoors,Grass,Sunny,81.0,51,3,From S
22871,2019091507,20190915070340,home,32.04,33.84,2.6,2.27,0.25,258.29,258.81,2532789,Mark Barron,26,2019,21,1,09:53:00,SEA,1,10,SEA,0,0,2558865,SINGLEBACK,"6 OL, 1 RB, 1 TE, 2 WR",7,"3 DL, 4 LB, 4 DB",right,2019-09-15T17:16:23.000Z,2019-09-15T17:16:22.000Z,6-2,230,10/27/1989,Alabama,ILB,PIT,SEA,2,Heinz Field,Pittsburgh,Outdoors,Grass,Sunny,81.0,51,3,From S
22872,2019091507,20190915070340,home,33.08,31.37,1.71,1.52,0.17,264.9,325.96,2540221,Vince Williams,98,2019,21,1,09:53:00,SEA,1,10,SEA,0,0,2558865,SINGLEBACK,"6 OL, 1 RB, 1 TE, 2 WR",7,"3 DL, 4 LB, 4 DB",right,2019-09-15T17:16:23.000Z,2019-09-15T17:16:22.000Z,6-1,233,12/27/1989,Florida State,ILB,PIT,SEA,2,Heinz Field,Pittsburgh,Outdoors,Grass,Sunny,81.0,51,3,From S
22873,2019091507,20190915070340,home,31.65,29.7,3.17,0.18,0.32,265.31,5.24,2543483,Stephon Tuitt,91,2019,21,1,09:53:00,SEA,1,10,SEA,0,0,2558865,SINGLEBACK,"6 OL, 1 RB, 1 TE, 2 WR",7,"3 DL, 4 LB, 4 DB",right,2019-09-15T17:16:23.000Z,2019-09-15T17:16:22.000Z,6-6,303,05/23/1993,Notre Dame,DE,PIT,SEA,2,Heinz Field,Pittsburgh,Outdoors,Grass,Sunny,81.0,51,3,From S
22874,2019091507,20190915070340,home,33.26,37.62,2.02,0.41,0.2,240.16,103.25,2552265,Steven Nelson,22,2019,21,1,09:53:00,SEA,1,10,SEA,0,0,2558865,SINGLEBACK,"6 OL, 1 RB, 1 TE, 2 WR",7,"3 DL, 4 LB, 4 DB",right,2019-09-15T17:16:23.000Z,2019-09-15T17:16:22.000Z,5-11,194,01/22/1993,Oregon State,CB,PIT,SEA,2,Heinz Field,Pittsburgh,Outdoors,Grass,Sunny,81.0,51,3,From S
22875,2019091507,20190915070340,home,28.8,36.65,2.18,2.46,0.22,168.91,278.23,2552289,Bud Dupree,48,2019,21,1,09:53:00,SEA,1,10,SEA,0,0,2558865,SINGLEBACK,"6 OL, 1 RB, 1 TE, 2 WR",7,"3 DL, 4 LB, 4 DB",right,2019-09-15T17:16:23.000Z,2019-09-15T17:16:22.000Z,6-4,269,02/12/1993,Kentucky,OLB,PIT,SEA,2,Heinz Field,Pittsburgh,Outdoors,Grass,Sunny,81.0,51,3,From S
22876,2019091507,20190915070340,home,31.56,31.17,2.46,1.76,0.24,252.99,17.44,2555239,Javon Hargrave,79,2019,21,1,09:53:00,SEA,1,10,SEA,0,0,2558865,SINGLEBACK,"6 OL, 1 RB, 1 TE, 2 WR",7,"3 DL, 4 LB, 4 DB",right,2019-09-15T17:16:23.000Z,2019-09-15T17:16:22.000Z,6-2,305,02/07/1993,South Carolina State,NT,PIT,SEA,2,Heinz Field,Pittsburgh,Outdoors,Grass,Sunny,81.0,51,3,From S
22877,2019091507,20190915070340,home,45.68,31.18,1.1,0.93,0.11,263.56,50.49,2555386,Sean Davis,21,2019,21,1,09:53:00,SEA,1,10,SEA,0,0,2558865,SINGLEBACK,"6 OL, 1 RB, 1 TE, 2 WR",7,"3 DL, 4 LB, 4 DB",right,2019-09-15T17:16:23.000Z,2019-09-15T17:16:22.000Z,6-1,202,10/23/1993,Maryland,SS,PIT,SEA,2,Heinz Field,Pittsburgh,Outdoors,Grass,Sunny,81.0,51,3,From S
22878,2019091507,20190915070340,home,28.89,26.68,4.32,1.16,0.44,346.98,317.28,2558064,T.J. Watt,90,2019,21,1,09:53:00,SEA,1,10,SEA,0,0,2558865,SINGLEBACK,"6 OL, 1 RB, 1 TE, 2 WR",7,"3 DL, 4 LB, 4 DB",right,2019-09-15T17:16:23.000Z,2019-09-15T17:16:22.000Z,6-4,252,10/11/1994,Wisconsin,OLB,PIT,SEA,2,Heinz Field,Pittsburgh,Outdoors,Grass,Sunny,81.0,51,3,From S
22879,2019091507,20190915070340,home,33.39,27.56,3.09,2.27,0.3,282.94,307.68,2560712,Terrell Edmunds,34,2019,21,1,09:53:00,SEA,1,10,SEA,0,0,2558865,SINGLEBACK,"6 OL, 1 RB, 1 TE, 2 WR",7,"3 DL, 4 LB, 4 DB",right,2019-09-15T17:16:23.000Z,2019-09-15T17:16:22.000Z,6-1,217,01/20/1997,Virginia Tech,S,PIT,SEA,2,Heinz Field,Pittsburgh,Outdoors,Grass,Sunny,81.0,51,3,From S
