,GameId,PlayId,Team,X,Y,S,A,Dis,Orientation,Dir,NflId,DisplayName,JerseyNumber,Season,YardLine,Quarter,GameClock,PossessionTeam,Down,Distance,FieldPosition,HomeScoreBeforePlay,VisitorScoreBeforePlay,NflIdRusher,OffenseFormation,OffensePersonnel,DefendersInTheBox,DefensePersonnel,PlayDirection,TimeHandoff,TimeSnap,PlayerHeight,PlayerWeight,PlayerBirthDate,PlayerCollegeName,Position,HomeTeamAbbr,VisitorTeamAbbr,Week,Stadium,Location,StadiumType,Turf,GameWeather,Temperature,Humidity,WindSpeed,WindDirection
60522,2019100300,20191003000385,away,52.5,23.6,2.47,2.23,0.24,289.47,338.73,1302,Aqib Talib,21,2019,36,1,11:00:00,SEA,1,10,SEA,0,3,2558865,SHOTGUN,"1 RB, 2 TE, 2 WR",7,"3 DL, 4 LB, 4 DB",right,2019-10-04T00:38:13.000Z,2019-10-04T00:38:12.000Z,6-1,209,02/13/1986,Kansas,CB,SEA,LA,5,CenturyLink Field,Seattle,Outdoor,FieldTurf,Cloudy,57.0,56,7,SW
60523,2019100300,20191003000385,away,45.79,22.28,2.8,1.11,0.27,303.42,345.54,80431,Clay Matthews,52,2019,36,1,11:00:00,SEA,1,10,SEA,0,3,2558865,SHOTGUN,"1 RB, 2 TE, 2 WR",7,"3 DL, 4 LB, 4 DB",right,2019-10-04T00:38:13.000Z,2019-10-04T00:38:12.000Z,6-3,255,05/14/1986,Southern California,OLB,SEA,LA,5,CenturyLink Field,Seattle,Outdoor,FieldTurf,Cloudy,57.0,56,7,SW
60524,2019100300,20191003000385,away,51.96,34.74,1.66,1.2,0.16,297.27,95.11,2495775,Eric Weddle,32,2019,36,1,11:00:00,SEA,1,10,SEA,0,3,2558865,SHOTGUN,"1 RB, 2 TE, 2 WR",7,"3 DL, 4 LB, 4 DB",right,2019-10-04T00:38:13.000Z,2019-10-04T00:38:12.000Z,5-11,195,01/04/1985,Utah,FS,SEA,LA,5,CenturyLink Field,Seattle,Outdoor,FieldTurf,Cloudy,57.0,56,7,SW
60525,2019100300,20191003000385,away,45.03,26.07,3.16,0.85,0.32,309.13,321.11,2533050,Michael Brockers,90,2019,36,1,11:00:00,SEA,1,10,SEA,0,3,2558865,SHOTGUN,"1 RB, 2 TE, 2 WR",7,"3 DL, 4 LB, 4 DB",right,2019-10-04T00:38:13.000Z,2019-10-04T00:38:12.000Z,6-5,305,12/21/1990,Louisiana State,DT,SEA,LA,5,CenturyLink Field,Seattle,Outdoor,FieldTurf,Cloudy,57.0,56,7,SW
60526,2019100300,20191003000385,away,43.46,28.61,3.29,0.79,0.34,220.84,258.31,2543485,Aaron Donald,99,2019,36,1,11:00:00,SEA,1,10,SEA,0,3,2558865,SHOTGUN,"1 RB, 2 TE, 2 WR",7,"3 DL, 4 LB, 4 DB",right,2019-10-04T00:38:13.000Z,2019-10-04T00:38:12.000Z,6-1,280,05/23/1991,Pittsburgh,DT,SEA,LA,5,CenturyLink Field,Seattle,Outdoor,FieldTurf,Cloudy,57.0,56,7,SW
60527,2019100300,20191003000385,away,47.52,44.35,2.59,2.59,0.24,238.01,40.33,2552488,Marcus Peters,22,2019,36,1,11:00:00,SEA,1,10,SEA,0,3,2558865,SHOTGUN,"1 RB, 2 TE, 2 WR",7,"3 DL, 4 LB, 4 DB",right,2019-10-04T00:38:13.000Z,2019-10-04T00:38:12.000Z,6-0,197,01/09/1993,Washington,CB,SEA,LA,5,CenturyLink Field,Seattle,Outdoor,FieldTurf,Cloudy,57.0,56,7,SW
60528,2019100300,20191003000385,away,45.49,33.52,1.27,1.09,0.13,190.1,257.57,2553431,Dante Fowler,56,2019,36,1,11:00:00,SEA,1,10,SEA,0,3,2558865,SHOTGUN,"1 RB, 2 TE, 2 WR",7,"3 DL, 4 LB, 4 DB",right,2019-10-04T00:38:13.000Z,2019-10-04T00:38:12.000Z,6-3,255,08/03/1994,Florida,OLB,SEA,LA,5,CenturyLink Field,Seattle,Outdoor,FieldTurf,Cloudy,57.0,56,7,SW
60529,2019100300,20191003000385,away,48.7,31.92,2.52,4.46,0.23,272.74,310.45,2556593,Cory Littleton,58,2019,36,1,11:00:00,SEA,1,10,SEA,0,3,2558865,SHOTGUN,"1 RB, 2 TE, 2 WR",7,"3 DL, 4 LB, 4 DB",right,2019-10-04T00:38:13.000Z,2019-10-04T00:38:12.000Z,6-3,228,11/18/1993,Washington,ILB,SEA,LA,5,CenturyLink Field,Seattle,Outdoor,FieldTurf,Cloudy,57.0,56,7,SW
60530,2019100300,20191003000385,away,61.21,32.07,2.37,1.17,0.24,298.14,34.16,2558183,John Johnson,43,2019,36,1,11:00:00,SEA,1,10,SEA,0,3,2558865,SHOTGUN,"1 RB, 2 TE, 2 WR",7,"3 DL, 4 LB, 4 DB",right,2019-10-04T00:38:13.000Z,2019-10-04T00:38:12.000Z,6-0,209,12/19/1995,Boston College,SS,SEA,LA,5,CenturyLink Field,Seattle,Outdoor,FieldTurf,Cloudy,57.0,56,7,SW
60531,2019100300,20191003000385,away,44.71,27.36,2.61,0.99,0.26,301.69,316.8,2561079,Sebastian Joseph-Day,69,2019,36,1,11:00:00,SEA,1,10,SEA,0,3,2558865,SHOTGUN,"1 RB, 2 TE, 2 WR",7,"3 DL, 4 LB, 4 DB",right,2019-10-04T00:38:13.000Z,2019-10-04T00:38:12.000Z,6-4,310,03/21/1995,Rutgers,DT,SEA,LA,5,CenturyLink Field,Seattle,Outdoor,FieldTurf,Cloudy,57.0,56,7,SW
60532,2019100300,20191003000385,away,48.81,28.35,3.9,1.74,0.38,296.95,337.36,2563313,Troy Reeder,51,2019,36,1,11:00:00,SEA,1,10,SEA,0,3,2558865,SHOTGUN,"1 RB, 2 TE, 2 WR",7,"3 DL, 4 LB, 4 DB",right,2019-10-04T00:38:13.000Z,2019-10-04T00:38:12.000Z,6-3,245,09/13/1994,Delaware,LB,SEA,LA,5,CenturyLink Field,Seattle,Outdoor,FieldTurf,Cloudy,57.0,56,7,SW
60533,2019100300,20191003000385,home,44.8,29.36,1.12,1.4,0.11,192.5,184.05,808,Duane Brown,76,2019,36,1,11:00:00,SEA,1,10,SEA,0,3,2558865,SHOTGUN,"1 RB, 2 TE, 2 WR",7,"3 DL, 4 LB, 4 DB",right,2019-10-04T00:38:13.000Z,2019-10-04T00:38:12.000Z,6-4,315,08/30/1985,Virginia Tech,T,SEA,LA,5,CenturyLink Field,Seattle,Outdoor,FieldTurf,Cloudy,57.0,56,7,SW
60534,2019100300,20191003000385,home,44.16,30.95,3.29,2.12,0.32,61.63,11.54,497016,Mike Iupati,70,2019,36,1,11:00:00,SEA,1,10,SEA,0,3,2558865,SHOTGUN,"1 RB, 2 TE, 2 WR",7,"3 DL, 4 LB, 4 DB",right,2019-10-04T00:38:13.000Z,2019-10-04T00:38:12.000Z,6-5,331,05/12/1987,Idaho,OG,SEA,LA,5,CenturyLink Field,Seattle,Outdoor,FieldTurf,Cloudy,57.0,56,7,SW
60535,2019100300,20191003000385,home,41.01,26.9,0.59,1.58,0.05,101.52,159.03,2532975,Russell Wilson,3,2019,36,1,11:00:00,SEA,1,10,SEA,0,3,2558865,SHOTGUN,"1 RB, 2 TE, 2 WR",7,"3 DL, 4 LB, 4 DB",right,2019-10-04T00:38:13.000Z,2019-10-04T00:38:12.000Z,5-11,215,11/29/1988,Wisconsin,QB,SEA,LA,5,CenturyLink Field,Seattle,Outdoor,FieldTurf,Cloudy,57.0,56,7,SW
60536,2019100300,20191003000385,home,44.26,27.94,3.21,1.73,0.32,81.47,343.45,2540166,D.J. Fluker,78,2019,36,1,11:00:00,SEA,1,10,SEA,0,3,2558865,SHOTGUN,"1 RB, 2 TE, 2 WR",7,"3 DL, 4 LB, 4 DB",right,2019-10-04T00:38:13.000Z,2019-10-04T00:38:12.000Z,6-5,342,03/13/1991,Alabama,OG,SEA,LA,5,CenturyLink Field,Seattle,Outdoor,FieldTurf,Cloudy,57.0,56,7,SW
60537,2019100300,20191003000385,home,45.28,32.79,0.8,0.62,0.08,9.89,19.29,2541199,Luke Willson,82,2019,36,1,11:00:00,SEA,1,10,SEA,0,3,2558865,SHOTGUN,"1 RB, 2 TE, 2 WR",7,"3 DL, 4 LB, 4 DB",right,2019-10-04T00:38:13.000Z,2019-10-04T00:38:12.000Z,6-5,254,01/15/1990,Rice,TE,SEA,LA,5,CenturyLink Field,Seattle,Outdoor,FieldTurf,Cloudy,57.0,56,7,SW
60538,2019100300,20191003000385,home,46.76,28.86,3.3,0.29,0.39,43.22,45.86,2550135,Justin Britt,68,2019,36,1,11:00:00,SEA,1,10,SEA,0,3,2558865,SHOTGUN,"1 RB, 2 TE, 2 WR",7,"3 DL, 4 LB, 4 DB",right,2019-10-04T00:38:13.000Z,2019-10-04T00:38:12.000Z,6-6,315,05/29/1991,Missouri,C,SEA,LA,5,CenturyLink Field,Seattle,Outdoor,FieldTurf,Cloudy,57.0,56,7,SW
60539,2019100300,20191003000385,home,45.42,44.13,3.7,2.74,0.35,75.33,65.12,2552430,Tyler Lockett,16,2019,36,1,11:00:00,SEA,1,10,SEA,0,3,2558865,SHOTGUN,"1 RB, 2 TE, 2 WR",7,"3 DL, 4 LB, 4 DB",right,2019-10-04T00:38:13.000Z,2019-10-04T00:38:12.000Z,5-10,182,09/28/1992,Kansas State,WR,SEA,LA,5,CenturyLink Field,Seattle,Outdoor,FieldTurf,Cloudy,57.0,56,7,SW
60540,2019100300,20191003000385,home,43.96,26.72,3.58,1.08,0.4,29.91,345.35,2555395,Germain Ifedi,65,2019,36,1,11:00:00,SEA,1,10,SEA,0,3,2558865,SHOTGUN,"1 RB, 2 TE, 2 WR",7,"3 DL, 4 LB, 4 DB",right,2019-10-04T00:38:13.000Z,2019-10-04T00:38:12.000Z,6-5,325,06/02/1994,Texas A&M,G,SEA,LA,5,CenturyLink Field,Seattle,Outdoor,FieldTurf,Cloudy,57.0,56,7,SW
60541,2019100300,20191003000385,home,41.32,26.11,3.19,1.97,0.3,34.29,31.85,2558865,Chris Carson,32,2019,36,1,11:00:00,SEA,1,10,SEA,0,3,2558865,SHOTGUN,"1 RB, 2 TE, 2 WR",7,"3 DL, 4 LB, 4 DB",right,2019-10-04T00:38:13.000Z,2019-10-04T00:38:12.000Z,5-11,222,09/16/1994,Oklahoma State,RB,SEA,LA,5,CenturyLink Field,Seattle,Outdoor,FieldTurf,Cloudy,57.0,56,7,SW
60542,2019100300,20191003000385,home,46.14,24.33,4.84,2.82,0.47,47.67,45.02,2561046,Will Dissly,88,2019,36,1,11:00:00,SEA,1,10,SEA,0,3,2558865,SHOTGUN,"1 RB, 2 TE, 2 WR",7,"3 DL, 4 LB, 4 DB",right,2019-10-04T00:38:13.000Z,2019-10-04T00:38:12.000Z,6-4,267,07/08/1996,Washington,TE,SEA,LA,5,CenturyLink Field,Seattle,Outdoor,FieldTurf,Cloudy,57.0,56,7,SW
60543,2019100300,20191003000385,home,45.98,36.66,4.06,2.57,0.39,106.31,87.24,2562685,D.K. Metcalf,14,2019,36,1,11:00:00,SEA,1,10,SEA,0,3,2558865,SHOTGUN,"1 RB, 2 TE, 2 WR",7,"3 DL, 4 LB, 4 DB",right,2019-10-04T00:38:13.000Z,2019-10-04T00:38:12.000Z,6-4,230,12/14/1997,Mississippi,WR,SEA,LA,5,CenturyLink Field,Seattle,Outdoor,FieldTurf,Cloudy,57.0,56,7,SW
