,GameId,PlayId,Team,X,Y,S,A,Dis,Orientation,Dir,NflId,DisplayName,JerseyNumber,Season,YardLine,Quarter,GameClock,PossessionTeam,Down,Distance,FieldPosition,HomeScoreBeforePlay,VisitorScoreBeforePlay,NflIdRusher,OffenseFormation,OffensePersonnel,DefendersInTheBox,DefensePersonnel,PlayDirection,TimeHandoff,TimeSnap,PlayerHeight,PlayerWeight,PlayerBirthDate,PlayerCollegeName,Position,HomeTeamAbbr,VisitorTeamAbbr,Week,Stadium,Location,StadiumType,Turf,GameWeather,Temperature,Humidity,WindSpeed,WindDirection
33374,2019092202,20190922020125,away,47.62,25.11,5.18,3.02,0.51,49.12,40.19,496735,Kareem Jackson,22,2019,44,1,13:00:00,GB,1,10,DEN,0,0,2558204,SINGLEBACK,"1 RB, 1 TE, 3 WR",7,"3 DL, 4 LB, 4 DB",left,2019-09-22T17:05:10.000Z,2019-09-22T17:05:09.000Z,5-10,185,04/10/1988,Alabama,CB,GB,DEN,3,Lambeau Field,"Green Bay, WI",Outdoor,SISGrass,Rain,69.0,93,7,S-SW
33375,2019092202,20190922020125,away,55.45,37.14,2.34,2.99,0.24,132.71,35.87,2495202,Von Miller,58,2019,44,1,13:00:00,GB,1,10,DEN,0,0,2558204,SINGLEBACK,"1 RB, 1 TE, 3 WR",7,"3 DL, 4 LB, 4 DB",left,2019-09-22T17:05:10.000Z,2019-09-22T17:05:09.000Z,6-3,250,03/26/1989,Texas A&M,OLB,GB,DEN,3,Lambeau Field,"Green Bay, WI",Outdoor,SISGrass,Rain,69.0,93,7,S-SW
33376,2019092202,20190922020125,away,47.75,40.78,2.95,1.77,0.29,111.43,320.52,2530510,Chris Harris,25,2019,44,1,13:00:00,GB,1,10,DEN,0,0,2558204,SINGLEBACK,"1 RB, 1 TE, 3 WR",7,"3 DL, 4 LB, 4 DB",left,2019-09-22T17:05:10.000Z,2019-09-22T17:05:09.000Z,5-10,199,06/18/1989,Kansas,CB,GB,DEN,3,Lambeau Field,"Green Bay, WI",Outdoor,SISGrass,Rain,69.0,93,7,S-SW
33377,2019092202,20190922020125,away,53.8,33.39,3.73,0.56,0.38,79.93,4.96,2549926,Shelby Harris,96,2019,44,1,13:00:00,GB,1,10,DEN,0,0,2558204,SINGLEBACK,"1 RB, 1 TE, 3 WR",7,"3 DL, 4 LB, 4 DB",left,2019-09-22T17:05:10.000Z,2019-09-22T17:05:09.000Z,6-2,290,08/11/1991,Illinois State,NT,GB,DEN,3,Lambeau Field,"Green Bay, WI",Outdoor,SISGrass,Rain,69.0,93,7,S-SW
33378,2019092202,20190922020125,away,51.37,36.33,4.34,1.73,0.42,79.75,24.11,2550930,Todd Davis,51,2019,44,1,13:00:00,GB,1,10,DEN,0,0,2558204,SINGLEBACK,"1 RB, 1 TE, 3 WR",7,"3 DL, 4 LB, 4 DB",left,2019-09-22T17:05:10.000Z,2019-09-22T17:05:09.000Z,6-1,230,05/17/1992,Sacramento State,ILB,GB,DEN,3,Lambeau Field,"Green Bay, WI",Outdoor,SISGrass,Rain,69.0,93,7,S-SW
33379,2019092202,20190922020125,away,52.81,30.85,3.67,1.28,0.39,37.51,340.53,2555502,Adam Gotsis,99,2019,44,1,13:00:00,GB,1,10,DEN,0,0,2558204,SINGLEBACK,"1 RB, 1 TE, 3 WR",7,"3 DL, 4 LB, 4 DB",left,2019-09-22T17:05:10.000Z,2019-09-22T17:05:09.000Z,6-4,287,09/23/1992,Georgia Tech,DE,GB,DEN,3,Lambeau Field,"Green Bay, WI",Outdoor,SISGrass,Rain,69.0,93,7,S-SW
33380,2019092202,20190922020125,away,40.43,34.66,3.81,1.23,0.38,112.18,259.46,2555550,Justin Simmons,31,2019,44,1,13:00:00,GB,1,10,DEN,0,0,2558204,SINGLEBACK,"1 RB, 1 TE, 3 WR",7,"3 DL, 4 LB, 4 DB",left,2019-09-22T17:05:10.000Z,2019-09-22T17:05:09.000Z,6-2,202,11/19/1993,Boston College,SS,GB,DEN,3,Lambeau Field,"Green Bay, WI",Outdoor,SISGrass,Rain,69.0,93,7,S-SW
33381,2019092202,20190922020125,away,53.2,36.25,4.23,0.43,0.44,45.84,351.46,2557894,DeMarcus Walker,57,2019,44,1,13:00:00,GB,1,10,DEN,0,0,2558204,SINGLEBACK,"1 RB, 1 TE, 3 WR",7,"3 DL, 4 LB, 4 DB",left,2019-09-22T17:05:10.000Z,2019-09-22T17:05:09.000Z,6-4,280,09/30/1994,Florida State,DE,GB,DEN,3,Lambeau Field,"Green Bay, WI",Outdoor,SISGrass,Rain,69.0,93,7,S-SW
33382,2019092202,20190922020125,away,51.16,32.4,4.89,2.41,0.48,55.02,28.62,2560763,Josey Jewell,47,2019,44,1,13:00:00,GB,1,10,DEN,0,0,2558204,SINGLEBACK,"1 RB, 1 TE, 3 WR",7,"3 DL, 4 LB, 4 DB",left,2019-09-22T17:05:10.000Z,2019-09-22T17:05:09.000Z,6-2,236,12/25/1994,Iowa,LB,GB,DEN,3,Lambeau Field,"Green Bay, WI",Outdoor,SISGrass,Rain,69.0,93,7,S-SW
33383,2019092202,20190922020125,away,50.72,20.76,4.1,2.71,0.39,5.34,328.32,2560946,Isaac Yiadom,26,2019,44,1,13:00:00,GB,1,10,DEN,0,0,2558204,SINGLEBACK,"1 RB, 1 TE, 3 WR",7,"3 DL, 4 LB, 4 DB",left,2019-09-22T17:05:10.000Z,2019-09-22T17:05:09.000Z,6-1,190,02/20/1996,Boston College,DB,GB,DEN,3,Lambeau Field,"Green Bay, WI",Outdoor,SISGrass,Rain,69.0,93,7,S-SW
33384,2019092202,20190922020125,away,53.86,27.14,4.46,2.24,0.44,70.44,354.35,2561020,Bradley Chubb,55,2019,44,1,13:00:00,GB,1,10,DEN,0,0,2558204,SINGLEBACK,"1 RB, 1 TE, 3 WR",7,"3 DL, 4 LB, 4 DB",left,2019-09-22T17:05:10.000Z,2019-09-22T17:05:09.000Z,6-4,275,06/24/1996,North Carolina State,DE,GB,DEN,3,Lambeau Field,"Green Bay, WI",Outdoor,SISGrass,Rain,69.0,93,7,S-SW
33385,2019092202,20190922020125,home,54.13,36.03,4.1,1.54,0.4,314.71,342.58,496988,Bryan Bulaga,75,2019,44,1,13:00:00,GB,1,10,DEN,0,0,2558204,SINGLEBACK,"1 RB, 1 TE, 3 WR",7,"3 DL, 4 LB, 4 DB",left,2019-09-22T17:05:10.000Z,2019-09-22T17:05:09.000Z,6-5,314,03/21/1989,Iowa,OT,GB,DEN,3,Lambeau Field,"Green Bay, WI",Outdoor,SISGrass,Rain,69.0,93,7,S-SW
33386,2019092202,20190922020125,home,55.99,36.92,2.32,0.95,0.23,313.37,12.27,497236,Jimmy Graham,80,2019,44,1,13:00:00,GB,1,10,DEN,0,0,2558204,SINGLEBACK,"1 RB, 1 TE, 3 WR",7,"3 DL, 4 LB, 4 DB",left,2019-09-22T17:05:10.000Z,2019-09-22T17:05:09.000Z,6-7,265,11/24/1986,Miami,TE,GB,DEN,3,Lambeau Field,"Green Bay, WI",Outdoor,SISGrass,Rain,69.0,93,7,S-SW
33387,2019092202,20190922020125,home,58.13,32.67,4.59,2.52,0.45,46.95,56.99,2506363,Aaron Rodgers,12,2019,44,1,13:00:00,GB,1,10,DEN,0,0,2558204,SINGLEBACK,"1 RB, 1 TE, 3 WR",7,"3 DL, 4 LB, 4 DB",left,2019-09-22T17:05:10.000Z,2019-09-22T17:05:09.000Z,6-2,225,12/02/1983,California,QB,GB,DEN,3,Lambeau Field,"Green Bay, WI",Outdoor,SISGrass,Rain,69.0,93,7,S-SW
33388,2019092202,20190922020125,home,53.82,30.42,4.3,0.77,0.44,316.44,330.17,2540183,David Bakhtiari,69,2019,44,1,13:00:00,GB,1,10,DEN,0,0,2558204,SINGLEBACK,"1 RB, 1 TE, 3 WR",7,"3 DL, 4 LB, 4 DB",left,2019-09-22T17:05:10.000Z,2019-09-22T17:05:09.000Z,6-4,310,09/30/1991,Colorado,T,GB,DEN,3,Lambeau Field,"Green Bay, WI",Outdoor,SISGrass,Rain,69.0,93,7,S-SW
33389,2019092202,20190922020125,home,54.75,33.33,3.82,0.22,0.4,255.68,4.64,2543631,Corey Linsley,63,2019,44,1,13:00:00,GB,1,10,DEN,0,0,2558204,SINGLEBACK,"1 RB, 1 TE, 3 WR",7,"3 DL, 4 LB, 4 DB",left,2019-09-22T17:05:10.000Z,2019-09-22T17:05:09.000Z,6-3,301,07/27/1991,Ohio State,C,GB,DEN,3,Lambeau Field,"Green Bay, WI",Outdoor,SISGrass,Rain,69.0,93,7,S-SW
33390,2019092202,20190922020125,home,53.93,35.3,4.93,1.42,0.49,337.48,330.75,2543740,Billy Turner,77,2019,44,1,13:00:00,GB,1,10,DEN,0,0,2558204,SINGLEBACK,"1 RB, 1 TE, 3 WR",7,"3 DL, 4 LB, 4 DB",left,2019-09-22T17:05:10.000Z,2019-09-22T17:05:09.000Z,6-5,310,10/17/1991,North Dakota State,OG,GB,DEN,3,Lambeau Field,"Green Bay, WI",Outdoor,SISGrass,Rain,69.0,93,7,S-SW
33391,2019092202,20190922020125,home,54.65,27.22,4.45,0.65,0.44,312.33,337.71,2556460,Geronimo Allison,81,2019,44,1,13:00:00,GB,1,10,DEN,0,0,2558204,SINGLEBACK,"1 RB, 1 TE, 3 WR",7,"3 DL, 4 LB, 4 DB",left,2019-09-22T17:05:10.000Z,2019-09-22T17:05:09.000Z,6-3,202,01/18/1994,Illinois,WR,GB,DEN,3,Lambeau Field,"Green Bay, WI",Outdoor,SISGrass,Rain,69.0,93,7,S-SW
33392,2019092202,20190922020125,home,59.14,33.26,5.76,2.18,0.57,312.18,318.43,2558204,Jamaal Williams,30,2019,44,1,13:00:00,GB,1,10,DEN,0,0,2558204,SINGLEBACK,"1 RB, 1 TE, 3 WR",7,"3 DL, 4 LB, 4 DB",left,2019-09-22T17:05:10.000Z,2019-09-22T17:05:09.000Z,6-0,213,04/03/1995,Brigham Young,RB,GB,DEN,3,Lambeau Field,"Green Bay, WI",Outdoor,SISGrass,Rain,69.0,93,7,S-SW
33393,2019092202,20190922020125,home,52.46,21.76,5.69,2.74,0.56,321.91,329.07,2560787,Allen Lazard,13,2019,44,1,13:00:00,GB,1,10,DEN,0,0,2558204,SINGLEBACK,"1 RB, 1 TE, 3 WR",7,"3 DL, 4 LB, 4 DB",left,2019-09-22T17:05:10.000Z,2019-09-22T17:05:09.000Z,6-5,227,12/11/1995,Iowa State,WR,GB,DEN,3,Lambeau Field,"Green Bay, WI",Outdoor,SISGrass,Rain,69.0,93,7,S-SW
33394,2019092202,20190922020125,home,53.5,31.38,4.22,1.15,0.44,271.06,338.45,2562671,Elgton Jenkins,74,2019,44,1,13:00:00,GB,1,10,DEN,0,0,2558204,SINGLEBACK,"1 RB, 1 TE, 3 WR",7,"3 DL, 4 LB, 4 DB",left,2019-09-22T17:05:10.000Z,2019-09-22T17:05:09.000Z,6-5,310,12/26/1995,Mississippi State,G,GB,DEN,3,Lambeau Field,"Green Bay, WI",Outdoor,SISGrass,Rain,69.0,93,7,S-SW
33395,2019092202,20190922020125,home,51.54,40.01,5.42,1.7,0.53,278.01,294.62,2563128,Darrius Shepherd,10,2019,44,1,13:00:00,GB,1,10,DEN,0,0,2558204,SINGLEBACK,"1 RB, 1 TE, 3 WR",7,"3 DL, 4 LB, 4 DB",left,2019-09-22T17:05:10.000Z,2019-09-22T17:05:09.000Z,5-11,188,11/01/1995,North Dakota State,WR,GB,DEN,3,Lambeau Field,"Green Bay, WI",Outdoor,SISGrass,Rain,69.0,93,7,S-SW
