,GameId,PlayId,Team,X,Y,S,A,Dis,Orientation,Dir,NflId,DisplayName,JerseyNumber,Season,YardLine,Quarter,GameClock,PossessionTeam,Down,Distance,FieldPosition,HomeScoreBeforePlay,VisitorScoreBeforePlay,NflIdRusher,OffenseFormation,OffensePersonnel,DefendersInTheBox,DefensePersonnel,PlayDirection,TimeHandoff,TimeSnap,PlayerHeight,PlayerWeight,PlayerBirthDate,PlayerCollegeName,Position,HomeTeamAbbr,VisitorTeamAbbr,Week,Stadium,Location,StadiumType,Turf,GameWeather,Temperature,Humidity,WindSpeed,WindDirection
69696,2019100608,20191006080267,away,50.29,21.71,3.64,0.82,0.36,55.66,29.34,2495347,Lee Smith,85,2019,40,1,10:54:00,BUF,2,6,BUF,0,0,2506404,I_FORM,"2 RB, 1 TE, 2 WR",8,"3 DL, 4 LB, 4 DB",right,2019-10-06T17:09:37.000Z,2019-10-06T17:09:36.000Z,6-6,265,11/21/1987,Marshall,TE,TEN,BUF,5,Nissan Stadium,"Nashville, TN",Outdoors,Grass,Cloudy,77.0,71,13,S
69697,2019100608,20191006080267,away,44.83,23.66,3.6,2.44,0.35,98.93,104.68,2506404,Frank Gore,20,2019,40,1,10:54:00,BUF,2,6,BUF,0,0,2506404,I_FORM,"2 RB, 1 TE, 2 WR",8,"3 DL, 4 LB, 4 DB",right,2019-10-06T17:09:37.000Z,2019-10-06T17:09:36.000Z,5-9,212,05/14/1983,Miami,RB,TEN,BUF,5,Nissan Stadium,"Nashville, TN",Outdoors,Grass,Cloudy,77.0,71,13,S
69698,2019100608,20191006080267,away,47.16,24.09,4.12,2.2,0.4,117.86,163.35,2530763,Patrick DiMarco,42,2019,40,1,10:54:00,BUF,2,6,BUF,0,0,2506404,I_FORM,"2 RB, 1 TE, 2 WR",8,"3 DL, 4 LB, 4 DB",right,2019-10-06T17:09:37.000Z,2019-10-06T17:09:36.000Z,6-1,234,04/30/1989,South Carolina,FB,TEN,BUF,5,Nissan Stadium,"Nashville, TN",Outdoors,Grass,Cloudy,77.0,71,13,S
69699,2019100608,20191006080267,away,50.91,38.0,4.26,1.99,0.42,72.16,42.71,2543847,John Brown,15,2019,40,1,10:54:00,BUF,2,6,BUF,0,0,2506404,I_FORM,"2 RB, 1 TE, 2 WR",8,"3 DL, 4 LB, 4 DB",right,2019-10-06T17:09:37.000Z,2019-10-06T17:09:36.000Z,5-11,179,04/03/1990,Pittsburg State,WR,TEN,BUF,5,Nissan Stadium,"Nashville, TN",Outdoors,Grass,Cloudy,77.0,71,13,S
69700,2019100608,20191006080267,away,48.71,24.44,1.83,1.29,0.19,11.69,315.48,2552343,Jon Feliciano,76,2019,40,1,10:54:00,BUF,2,6,BUF,0,0,2506404,I_FORM,"2 RB, 1 TE, 2 WR",8,"3 DL, 4 LB, 4 DB",right,2019-10-06T17:09:37.000Z,2019-10-06T17:09:36.000Z,6-4,323,02/10/1992,Miami,G,TEN,BUF,5,Nissan Stadium,"Nashville, TN",Outdoors,Grass,Cloudy,77.0,71,13,S
69701,2019100608,20191006080267,away,48.61,25.6,1.71,1.65,0.17,288.97,298.81,2552668,Mitch Morse,60,2019,40,1,10:54:00,BUF,2,6,BUF,0,0,2506404,I_FORM,"2 RB, 1 TE, 2 WR",8,"3 DL, 4 LB, 4 DB",right,2019-10-06T17:09:37.000Z,2019-10-06T17:09:36.000Z,6-6,305,04/21/1992,Missouri,C,TEN,BUF,5,Nissan Stadium,"Nashville, TN",Outdoors,Grass,Cloudy,77.0,71,13,S
69702,2019100608,20191006080267,away,48.56,22.68,3.24,1.17,0.32,129.58,178.74,2553824,Quinton Spain,67,2019,40,1,10:54:00,BUF,2,6,BUF,0,0,2506404,I_FORM,"2 RB, 1 TE, 2 WR",8,"3 DL, 4 LB, 4 DB",right,2019-10-06T17:09:37.000Z,2019-10-06T17:09:36.000Z,6-4,330,08/07/1991,West Virginia,G,TEN,BUF,5,Nissan Stadium,"Nashville, TN",Outdoors,Grass,Cloudy,77.0,71,13,S
69703,2019100608,20191006080267,away,50.46,18.55,4.16,1.71,0.41,64.59,29.47,2556836,Duke Williams,82,2019,40,1,10:54:00,BUF,2,6,BUF,0,0,2506404,I_FORM,"2 RB, 1 TE, 2 WR",8,"3 DL, 4 LB, 4 DB",right,2019-10-06T17:09:37.000Z,2019-10-06T17:09:36.000Z,6-3,225,05/13/1993,Auburn,WR,TEN,BUF,5,Nissan Stadium,"Nashville, TN",Outdoors,Grass,Cloudy,77.0,71,13,S
69704,2019100608,20191006080267,away,47.51,25.07,2.52,1.51,0.26,66.21,230.73,2557875,Dion Dawkins,73,2019,40,1,10:54:00,BUF,2,6,BUF,0,0,2506404,I_FORM,"2 RB, 1 TE, 2 WR",8,"3 DL, 4 LB, 4 DB",right,2019-10-06T17:09:37.000Z,2019-10-06T17:09:36.000Z,6-5,320,04/26/1994,Temple,T,TEN,BUF,5,Nissan Stadium,"Nashville, TN",Outdoors,Grass,Cloudy,77.0,71,13,S
69705,2019100608,20191006080267,away,45.24,24.14,4.39,1.26,0.44,220.96,286.85,2560955,Josh Allen,17,2019,40,1,10:54:00,BUF,2,6,BUF,0,0,2506404,I_FORM,"2 RB, 1 TE, 2 WR",8,"3 DL, 4 LB, 4 DB",right,2019-10-06T17:09:37.000Z,2019-10-06T17:09:36.000Z,6-5,237,05/21/1996,Wyoming,QB,TEN,BUF,5,Nissan Stadium,"Nashville, TN",Outdoors,Grass,Cloudy,77.0,71,13,S
69706,2019100608,20191006080267,away,49.74,22.57,1.86,0.86,0.18,49.76,2.96,2562266,Cody Ford,70,2019,40,1,10:54:00,BUF,2,6,BUF,0,0,2506404,I_FORM,"2 RB, 1 TE, 2 WR",8,"3 DL, 4 LB, 4 DB",right,2019-10-06T17:09:37.000Z,2019-10-06T17:09:36.000Z,6-3,329,12/28/1996,Oklahoma,T,TEN,BUF,5,Nissan Stadium,"Nashville, TN",Outdoors,Grass,Cloudy,77.0,71,13,S
69707,2019100608,20191006080267,home,47.97,25.19,2.27,1.35,0.25,184.47,251.02,2495476,Jurrell Casey,99,2019,40,1,10:54:00,BUF,2,6,BUF,0,0,2506404,I_FORM,"2 RB, 1 TE, 2 WR",8,"3 DL, 4 LB, 4 DB",right,2019-10-06T17:09:37.000Z,2019-10-06T17:09:36.000Z,6-1,305,12/05/1989,Southern California,DT,TEN,BUF,5,Nissan Stadium,"Nashville, TN",Outdoors,Grass,Cloudy,77.0,71,13,S
69708,2019100608,20191006080267,home,67.86,28.32,1.1,2.84,0.11,260.2,167.5,2539320,Kenny Vaccaro,24,2019,40,1,10:54:00,BUF,2,6,BUF,0,0,2506404,I_FORM,"2 RB, 1 TE, 2 WR",8,"3 DL, 4 LB, 4 DB",right,2019-10-06T17:09:37.000Z,2019-10-06T17:09:36.000Z,6-0,214,02/15/1991,Texas,SS,TEN,BUF,5,Nissan Stadium,"Nashville, TN",Outdoors,Grass,Cloudy,77.0,71,13,S
69709,2019100608,20191006080267,home,52.58,37.79,3.03,1.34,0.3,291.74,36.03,2540162,Logan Ryan,26,2019,40,1,10:54:00,BUF,2,6,BUF,0,0,2506404,I_FORM,"2 RB, 1 TE, 2 WR",8,"3 DL, 4 LB, 4 DB",right,2019-10-06T17:09:37.000Z,2019-10-06T17:09:36.000Z,5-11,195,02/09/1991,Rutgers,CB,TEN,BUF,5,Nissan Stadium,"Nashville, TN",Outdoors,Grass,Cloudy,77.0,71,13,S
69710,2019100608,20191006080267,home,48.51,25.0,2.23,1.68,0.24,284.22,310.52,2543504,DaQuan Jones,90,2019,40,1,10:54:00,BUF,2,6,BUF,0,0,2506404,I_FORM,"2 RB, 1 TE, 2 WR",8,"3 DL, 4 LB, 4 DB",right,2019-10-06T17:09:37.000Z,2019-10-06T17:09:36.000Z,6-4,322,12/27/1991,Penn State,DE,TEN,BUF,5,Nissan Stadium,"Nashville, TN",Outdoors,Grass,Cloudy,77.0,71,13,S
69711,2019100608,20191006080267,home,56.72,16.91,2.48,2.72,0.24,294.49,300.68,2550613,Malcolm Butler,21,2019,40,1,10:54:00,BUF,2,6,BUF,0,0,2506404,I_FORM,"2 RB, 1 TE, 2 WR",8,"3 DL, 4 LB, 4 DB",right,2019-10-06T17:09:37.000Z,2019-10-06T17:09:36.000Z,5-11,190,03/02/1990,West Alabama,CB,TEN,BUF,5,Nissan Stadium,"Nashville, TN",Outdoors,Grass,Cloudy,77.0,71,13,S
69712,2019100608,20191006080267,home,53.29,20.47,2.62,2.03,0.26,277.22,282.88,2555158,Kevin Byard,31,2019,40,1,10:54:00,BUF,2,6,BUF,0,0,2506404,I_FORM,"2 RB, 1 TE, 2 WR",8,"3 DL, 4 LB, 4 DB",right,2019-10-06T17:09:37.000Z,2019-10-06T17:09:36.000Z,5-11,212,08/17/1993,Middle Tennessee,FS,TEN,BUF,5,Nissan Stadium,"Nashville, TN",Outdoors,Grass,Cloudy,77.0,71,13,S
69713,2019100608,20191006080267,home,50.0,23.05,2.06,1.89,0.21,219.41,358.02,2556368,Austin Johnson,94,2019,40,1,10:54:00,BUF,2,6,BUF,0,0,2506404,I_FORM,"2 RB, 1 TE, 2 WR",8,"3 DL, 4 LB, 4 DB",right,2019-10-06T17:09:37.000Z,2019-10-06T17:09:36.000Z,6-4,314,05/08/1994,Penn State,NT,TEN,BUF,5,Nissan Stadium,"Nashville, TN",Outdoors,Grass,Cloudy,77.0,71,13,S
69714,2019100608,20191006080267,home,49.6,19.91,3.7,1.84,0.36,282.33,340.67,2556537,Reggie Gilbert,93,2019,40,1,10:54:00,BUF,2,6,BUF,0,0,2506404,I_FORM,"2 RB, 1 TE, 2 WR",8,"3 DL, 4 LB, 4 DB",right,2019-10-06T17:09:37.000Z,2019-10-06T17:09:36.000Z,6-4,261,04/01/1993,Arizona,LB,TEN,BUF,5,Nissan Stadium,"Nashville, TN",Outdoors,Grass,Cloudy,77.0,71,13,S
69715,2019100608,20191006080267,home,53.33,26.43,2.59,3.27,0.25,264.9,252.99,2558005,Jayon Brown,55,2019,40,1,10:54:00,BUF,2,6,BUF,0,0,2506404,I_FORM,"2 RB, 1 TE, 2 WR",8,"3 DL, 4 LB, 4 DB",right,2019-10-06T17:09:37.000Z,2019-10-06T17:09:36.000Z,6-0,226,02/26/1995,UCLA,ILB,TEN,BUF,5,Nissan Stadium,"Nashville, TN",Outdoors,Grass,Cloudy,77.0,71,13,S
69716,2019100608,20191006080267,home,53.36,23.28,3.79,1.49,0.37,270.06,239.42,2560718,Rashaan Evans,54,2019,40,1,10:54:00,BUF,2,6,BUF,0,0,2506404,I_FORM,"2 RB, 1 TE, 2 WR",8,"3 DL, 4 LB, 4 DB",right,2019-10-06T17:09:37.000Z,2019-10-06T17:09:36.000Z,6-2,234,11/08/1995,Alabama,LB,TEN,BUF,5,Nissan Stadium,"Nashville, TN",Outdoors,Grass,Cloudy,77.0,71,13,S
69717,2019100608,20191006080267,home,47.73,27.75,3.61,3.56,0.36,216.11,228.59,2560784,Harold Landry,58,2019,40,1,10:54:00,BUF,2,6,BUF,0,0,2506404,I_FORM,"2 RB, 1 TE, 2 WR",8,"3 DL, 4 LB, 4 DB",right,2019-10-06T17:09:37.000Z,2019-10-06T17:09:36.000Z,6-2,250,06/05/1996,Boston College,OLB,TEN,BUF,5,Nissan Stadium,"Nashville, TN",Outdoors,Grass,Cloudy,77.0,71,13,S
