,GameId,PlayId,Team,X,Y,S,A,Dis,Orientation,Dir,NflId,DisplayName,JerseyNumber,Season,YardLine,Quarter,GameClock,PossessionTeam,Down,Distance,FieldPosition,HomeScoreBeforePlay,VisitorScoreBeforePlay,NflIdRusher,OffenseFormation,OffensePersonnel,DefendersInTheBox,DefensePersonnel,PlayDirection,TimeHandoff,TimeSnap,PlayerHeight,PlayerWeight,PlayerBirthDate,PlayerCollegeName,Position,HomeTeamAbbr,VisitorTeamAbbr,Week,Stadium,Location,StadiumType,Turf,GameWeather,Temperature,Humidity,WindSpeed,WindDirection
53086,2019092906,20190929061151,away,89.02,25.58,1.24,1.62,0.11,321.08,20.64,2495677,Brandon Mebane,92,2019,21,2,12:42:00,MIA,2,3,LAC,7,10,2560967,SINGLEBACK,"1 RB, 2 TE, 2 WR",7,"4 DL, 3 LB, 4 DB",right,2019-09-29T17:40:55.000Z,2019-09-29T17:40:54.000Z,6-1,311,01/15/1985,California,NT,MIA,LAC,4,Hard Rock Stadium,"Miami Gardens, FL",Outdoor,Natural Grass,Mostly Cloudy,88.0,53,15,ENE
53087,2019092906,20190929061151,away,92.28,28.08,2.85,1.25,0.28,289.39,300.39,2506352,Thomas Davis,58,2019,21,2,12:42:00,MIA,2,3,LAC,7,10,2560967,SINGLEBACK,"1 RB, 2 TE, 2 WR",7,"4 DL, 3 LB, 4 DB",right,2019-09-29T17:40:55.000Z,2019-09-29T17:40:54.000Z,6-1,235,03/22/1983,Georgia,OLB,MIA,LAC,4,Hard Rock Stadium,"Miami Gardens, FL",Outdoor,Natural Grass,Mostly Cloudy,88.0,53,15,ENE
53088,2019092906,20190929061151,away,95.29,43.42,2.92,1.1,0.29,190.05,102.5,2532861,Casey Hayward,26,2019,21,2,12:42:00,MIA,2,3,LAC,7,10,2560967,SINGLEBACK,"1 RB, 2 TE, 2 WR",7,"4 DL, 3 LB, 4 DB",right,2019-09-29T17:40:55.000Z,2019-09-29T17:40:54.000Z,5-11,192,09/09/1989,Vanderbilt,CB,MIA,LAC,4,Hard Rock Stadium,"Miami Gardens, FL",Outdoor,Natural Grass,Mostly Cloudy,88.0,53,15,ENE
53089,2019092906,20190929061151,away,93.1,24.61,3.07,1.57,0.3,269.84,324.92,2552310,Denzel Perryman,52,2019,21,2,12:42:00,MIA,2,3,LAC,7,10,2560967,SINGLEBACK,"1 RB, 2 TE, 2 WR",7,"4 DL, 3 LB, 4 DB",right,2019-09-29T17:40:55.000Z,2019-09-29T17:40:54.000Z,5-11,240,12/05/1992,Miami,ILB,MIA,LAC,4,Hard Rock Stadium,"Miami Gardens, FL",Outdoor,Natural Grass,Mostly Cloudy,88.0,53,15,ENE
53090,2019092906,20190929061151,away,89.7,27.97,1.83,2.15,0.18,260.72,140.94,2555249,Joey Bosa,97,2019,21,2,12:42:00,MIA,2,3,LAC,7,10,2560967,SINGLEBACK,"1 RB, 2 TE, 2 WR",7,"4 DL, 3 LB, 4 DB",right,2019-09-29T17:40:55.000Z,2019-09-29T17:40:54.000Z,6-5,280,07/11/1995,Ohio State,DE,MIA,LAC,4,Hard Rock Stadium,"Miami Gardens, FL",Outdoor,Natural Grass,Mostly Cloudy,88.0,53,15,ENE
53091,2019092906,20190929061151,away,88.74,22.07,3.13,0.57,0.33,277.7,350.69,2557860,Isaac Rochell,98,2019,21,2,12:42:00,MIA,2,3,LAC,7,10,2560967,SINGLEBACK,"1 RB, 2 TE, 2 WR",7,"4 DL, 3 LB, 4 DB",right,2019-09-29T17:40:55.000Z,2019-09-29T17:40:54.000Z,6-4,280,04/22/1995,Notre Dame,DE,MIA,LAC,4,Hard Rock Stadium,"Miami Gardens, FL",Outdoor,Natural Grass,Mostly Cloudy,88.0,53,15,ENE
53092,2019092906,20190929061151,away,103.14,25.62,1.11,1.22,0.11,273.76,282.01,2558182,Rayshawn Jenkins,23,2019,21,2,12:42:00,MIA,2,3,LAC,7,10,2560967,SINGLEBACK,"1 RB, 2 TE, 2 WR",7,"4 DL, 3 LB, 4 DB",right,2019-09-29T17:40:55.000Z,2019-09-29T17:40:54.000Z,6-2,220,01/25/1994,Miami,SS,MIA,LAC,4,Hard Rock Stadium,"Miami Gardens, FL",Outdoor,Natural Grass,Mostly Cloudy,88.0,53,15,ENE
53093,2019092906,20190929061151,away,91.45,16.6,3.93,3.06,0.38,310.83,336.22,2559164,Michael Davis,43,2019,21,2,12:42:00,MIA,2,3,LAC,7,10,2560967,SINGLEBACK,"1 RB, 2 TE, 2 WR",7,"4 DL, 3 LB, 4 DB",right,2019-09-29T17:40:55.000Z,2019-09-29T17:40:54.000Z,6-2,196,01/06/1995,Brigham Young,CB,MIA,LAC,4,Hard Rock Stadium,"Miami Gardens, FL",Outdoor,Natural Grass,Mostly Cloudy,88.0,53,15,ENE
53094,2019092906,20190929061151,away,89.23,23.72,1.26,1.53,0.13,295.32,25.08,2560769,Justin Jones,93,2019,21,2,12:42:00,MIA,2,3,LAC,7,10,2560967,SINGLEBACK,"1 RB, 2 TE, 2 WR",7,"4 DL, 3 LB, 4 DB",right,2019-09-29T17:40:55.000Z,2019-09-29T17:40:54.000Z,6-3,309,08/28/1996,North Carolina State,DT,MIA,LAC,4,Hard Rock Stadium,"Miami Gardens, FL",Outdoor,Natural Grass,Mostly Cloudy,88.0,53,15,ENE
53095,2019092906,20190929061151,away,90.37,20.34,2.87,0.48,0.28,258.62,339.46,2560928,Kyzir White,44,2019,21,2,12:42:00,MIA,2,3,LAC,7,10,2560967,SINGLEBACK,"1 RB, 2 TE, 2 WR",7,"4 DL, 3 LB, 4 DB",right,2019-09-29T17:40:55.000Z,2019-09-29T17:40:54.000Z,6-2,216,03/24/1996,West Virginia,LB,MIA,LAC,4,Hard Rock Stadium,"Miami Gardens, FL",Outdoor,Natural Grass,Mostly Cloudy,88.0,53,15,ENE
53096,2019092906,20190929061151,away,95.59,36.78,2.37,1.59,0.23,207.62,104.19,2562981,Roderic Teamer,36,2019,21,2,12:42:00,MIA,2,3,LAC,7,10,2560967,SINGLEBACK,"1 RB, 2 TE, 2 WR",7,"4 DL, 3 LB, 4 DB",right,2019-09-29T17:40:55.000Z,2019-09-29T17:40:54.000Z,5-11,205,05/12/1997,Tulane,DB,MIA,LAC,4,Hard Rock Stadium,"Miami Gardens, FL",Outdoor,Natural Grass,Mostly Cloudy,88.0,53,15,ENE
53097,2019092906,20190929061151,home,88.75,28.33,1.15,1.12,0.12,118.37,97.29,1037880,J'Marcus Webb,61,2019,21,2,12:42:00,MIA,2,3,LAC,7,10,2560967,SINGLEBACK,"1 RB, 2 TE, 2 WR",7,"4 DL, 3 LB, 4 DB",right,2019-09-29T17:40:55.000Z,2019-09-29T17:40:54.000Z,6-7,320,08/08/1988,West Texas A&M,T,MIA,LAC,4,Hard Rock Stadium,"Miami Gardens, FL",Outdoor,Natural Grass,Mostly Cloudy,88.0,53,15,ENE
53098,2019092906,20190929061151,home,89.07,25.12,0.98,0.24,0.1,49.69,12.9,2495299,Daniel Kilgore,67,2019,21,2,12:42:00,MIA,2,3,LAC,7,10,2560967,SINGLEBACK,"1 RB, 2 TE, 2 WR",7,"4 DL, 3 LB, 4 DB",right,2019-09-29T17:40:55.000Z,2019-09-29T17:40:54.000Z,6-3,291,12/18/1987,Appalachian State,C,MIA,LAC,4,Hard Rock Stadium,"Miami Gardens, FL",Outdoor,Natural Grass,Mostly Cloudy,88.0,53,15,ENE
53099,2019092906,20190929061151,home,89.39,20.09,2.87,2.01,0.29,58.14,20.09,2552403,Nick O'Leary,83,2019,21,2,12:42:00,MIA,2,3,LAC,7,10,2560967,SINGLEBACK,"1 RB, 2 TE, 2 WR",7,"4 DL, 3 LB, 4 DB",right,2019-09-29T17:40:55.000Z,2019-09-29T17:40:54.000Z,6-3,252,08/31/1992,Florida State,TE,MIA,LAC,4,Hard Rock Stadium,"Miami Gardens, FL",Outdoor,Natural Grass,Mostly Cloudy,88.0,53,15,ENE
53100,2019092906,20190929061151,home,90.26,43.09,3.99,1.89,0.39,79.99,101.16,2552409,DeVante Parker,11,2019,21,2,12:42:00,MIA,2,3,LAC,7,10,2560967,SINGLEBACK,"1 RB, 2 TE, 2 WR",7,"4 DL, 3 LB, 4 DB",right,2019-09-29T17:40:55.000Z,2019-09-29T17:40:54.000Z,6-3,216,01/20/1993,Louisville,WR,MIA,LAC,4,Hard Rock Stadium,"Miami Gardens, FL",Outdoor,Natural Grass,Mostly Cloudy,88.0,53,15,ENE
53101,2019092906,20190929061151,home,88.63,23.92,1.94,0.23,0.19,32.55,9.05,2555181,Evan Boehm,76,2019,21,2,12:42:00,MIA,2,3,LAC,7,10,2560967,SINGLEBACK,"1 RB, 2 TE, 2 WR",7,"4 DL, 3 LB, 4 DB",right,2019-09-29T17:40:55.000Z,2019-09-29T17:40:54.000Z,6-3,321,08/19/1993,Missouri,G,MIA,LAC,4,Hard Rock Stadium,"Miami Gardens, FL",Outdoor,Natural Grass,Mostly Cloudy,88.0,53,15,ENE
53102,2019092906,20190929061151,home,90.3,34.73,5.28,1.75,0.52,77.27,105.17,2556190,Jakeem Grant,19,2019,21,2,12:42:00,MIA,2,3,LAC,7,10,2560967,SINGLEBACK,"1 RB, 2 TE, 2 WR",7,"4 DL, 3 LB, 4 DB",right,2019-09-29T17:40:55.000Z,2019-09-29T17:40:54.000Z,5-7,169,10/30/1992,Texas Tech,WR,MIA,LAC,4,Hard Rock Stadium,"Miami Gardens, FL",Outdoor,Natural Grass,Mostly Cloudy,88.0,53,15,ENE
53103,2019092906,20190929061151,home,84.93,25.15,3.87,1.78,0.38,305.24,286.47,2560858,Josh Rosen,3,2019,21,2,12:42:00,MIA,2,3,LAC,7,10,2560967,SINGLEBACK,"1 RB, 2 TE, 2 WR",7,"4 DL, 3 LB, 4 DB",right,2019-09-29T17:40:55.000Z,2019-09-29T17:40:54.000Z,6-4,226,02/10/1997,UCLA,QB,MIA,LAC,4,Hard Rock Stadium,"Miami Gardens, FL",Outdoor,Natural Grass,Mostly Cloudy,88.0,53,15,ENE
53104,2019092906,20190929061151,home,88.31,21.74,2.78,1.78,0.27,55.15,5.48,2560880,Durham Smythe,81,2019,21,2,12:42:00,MIA,2,3,LAC,7,10,2560967,SINGLEBACK,"1 RB, 2 TE, 2 WR",7,"4 DL, 3 LB, 4 DB",right,2019-09-29T17:40:55.000Z,2019-09-29T17:40:54.000Z,6-6,260,08/09/1995,Notre Dame,TE,MIA,LAC,4,Hard Rock Stadium,"Miami Gardens, FL",Outdoor,Natural Grass,Mostly Cloudy,88.0,53,15,ENE
53105,2019092906,20190929061151,home,84.02,25.87,4.57,1.57,0.45,64.66,58.79,2560967,Kalen Ballage,27,2019,21,2,12:42:00,MIA,2,3,LAC,7,10,2560967,SINGLEBACK,"1 RB, 2 TE, 2 WR",7,"4 DL, 3 LB, 4 DB",right,2019-09-29T17:40:55.000Z,2019-09-29T17:40:54.000Z,6-2,230,12/22/1995,Arizona State,RB,MIA,LAC,4,Hard Rock Stadium,"Miami Gardens, FL",Outdoor,Natural Grass,Mostly Cloudy,88.0,53,15,ENE
53106,2019092906,20190929061151,home,89.31,26.27,2.16,1.07,0.21,85.21,62.89,2562255,Michael Deiter,63,2019,21,2,12:42:00,MIA,2,3,LAC,7,10,2560967,SINGLEBACK,"1 RB, 2 TE, 2 WR",7,"4 DL, 3 LB, 4 DB",right,2019-09-29T17:40:55.000Z,2019-09-29T17:40:54.000Z,6-6,310,09/03/1996,Wisconsin,OG,MIA,LAC,4,Hard Rock Stadium,"Miami Gardens, FL",Outdoor,Natural Grass,Mostly Cloudy,88.0,53,15,ENE
53107,2019092906,20190929061151,home,89.74,23.14,3.06,1.46,0.31,346.18,47.0,2562705,Isaiah Prince,72,2019,21,2,12:42:00,MIA,2,3,LAC,7,10,2560967,SINGLEBACK,"1 RB, 2 TE, 2 WR",7,"4 DL, 3 LB, 4 DB",right,2019-09-29T17:40:55.000Z,2019-09-29T17:40:54.000Z,6-7,305,07/29/1997,Ohio State,T,MIA,LAC,4,Hard Rock Stadium,"Miami Gardens, FL",Outdoor,Natural Grass,Mostly Cloudy,88.0,53,15,ENE
