,GameId,PlayId,Team,X,Y,S,A,Dis,Orientation,Dir,NflId,DisplayName,JerseyNumber,Season,YardLine,Quarter,GameClock,PossessionTeam,Down,Distance,FieldPosition,HomeScoreBeforePlay,VisitorScoreBeforePlay,NflIdRusher,OffenseFormation,OffensePersonnel,DefendersInTheBox,DefensePersonnel,PlayDirection,TimeHandoff,TimeSnap,PlayerHeight,PlayerWeight,PlayerBirthDate,PlayerCollegeName,Position,HomeTeamAbbr,VisitorTeamAbbr,Week,Stadium,Location,StadiumType,Turf,GameWeather,Temperature,Humidity,WindSpeed,WindDirection
57068,2019092910,20190929101437,away,56.2,22.69,1.74,1.42,0.17,291.32,204.55,2495438,Kyle Rudolph,82,2019,46,2,07:25:00,MIN,2,2,CHI,7,0,2562682,SINGLEBACK,"1 RB, 2 TE, 2 WR",8,"3 DL, 4 LB, 4 DB",left,2019-09-29T21:16:10.000Z,2019-09-29T21:16:09.000Z,6-6,265,11/09/1989,Notre Dame,TE,CHI,MIN,4,Soldier Field,"Chicago, IL",Outdoor,Natural Grass,Cloudy,67.0,89,8,East
57069,2019092910,20190929101437,away,59.37,28.16,2.9,2.14,0.29,124.32,105.69,2532820,Kirk Cousins,8,2019,46,2,07:25:00,MIN,2,2,CHI,7,0,2562682,SINGLEBACK,"1 RB, 2 TE, 2 WR",8,"3 DL, 4 LB, 4 DB",left,2019-09-29T21:16:10.000Z,2019-09-29T21:16:09.000Z,6-3,202,08/19/1988,Michigan State,QB,CHI,MIN,4,Soldier Field,"Chicago, IL",Outdoor,Natural Grass,Cloudy,67.0,89,8,East
57070,2019092910,20190929101437,away,54.68,24.5,3.07,2.03,0.31,278.17,233.6,2533042,Riley Reiff,71,2019,46,2,07:25:00,MIN,2,2,CHI,7,0,2562682,SINGLEBACK,"1 RB, 2 TE, 2 WR",8,"3 DL, 4 LB, 4 DB",left,2019-09-29T21:16:10.000Z,2019-09-29T21:16:09.000Z,6-6,305,12/01/1988,Iowa,T,CHI,MIN,4,Soldier Field,"Chicago, IL",Outdoor,Natural Grass,Cloudy,67.0,89,8,East
57071,2019092910,20190929101437,away,55.54,27.75,4.01,1.13,0.41,224.37,201.64,2543805,Dakota Dozier,78,2019,46,2,07:25:00,MIN,2,2,CHI,7,0,2562682,SINGLEBACK,"1 RB, 2 TE, 2 WR",8,"3 DL, 4 LB, 4 DB",left,2019-09-29T21:16:10.000Z,2019-09-29T21:16:09.000Z,6-4,313,04/30/1991,Furman,G,CHI,MIN,4,Soldier Field,"Chicago, IL",Outdoor,Natural Grass,Cloudy,67.0,89,8,East
57072,2019092910,20190929101437,away,57.34,22.16,1.41,3.44,0.13,259.59,244.23,2555214,Laquon Treadwell,11,2019,46,2,07:25:00,MIN,2,2,CHI,7,0,2562682,SINGLEBACK,"1 RB, 2 TE, 2 WR",8,"3 DL, 4 LB, 4 DB",left,2019-09-29T21:16:10.000Z,2019-09-29T21:16:09.000Z,6-2,215,06/14/1995,Mississippi,WR,CHI,MIN,4,Soldier Field,"Chicago, IL",Outdoor,Natural Grass,Cloudy,67.0,89,8,East
57073,2019092910,20190929101437,away,56.49,25.15,3.41,1.23,0.35,258.15,168.24,2558848,Pat Elflein,65,2019,46,2,07:25:00,MIN,2,2,CHI,7,0,2562682,SINGLEBACK,"1 RB, 2 TE, 2 WR",8,"3 DL, 4 LB, 4 DB",left,2019-09-29T21:16:10.000Z,2019-09-29T21:16:09.000Z,6-3,303,07/06/1994,Ohio State,G,CHI,MIN,4,Soldier Field,"Chicago, IL",Outdoor,Natural Grass,Cloudy,67.0,89,8,East
57074,2019092910,20190929101437,away,56.58,29.22,3.23,1.57,0.39,251.51,194.68,2560831,Brian O'Neill,75,2019,46,2,07:25:00,MIN,2,2,CHI,7,0,2562682,SINGLEBACK,"1 RB, 2 TE, 2 WR",8,"3 DL, 4 LB, 4 DB",left,2019-09-29T21:16:10.000Z,2019-09-29T21:16:09.000Z,6-7,297,09/15/1995,Pittsburgh,T,CHI,MIN,4,Soldier Field,"Chicago, IL",Outdoor,Natural Grass,Cloudy,67.0,89,8,East
57075,2019092910,20190929101437,away,54.18,39.44,5.39,3.48,0.52,281.37,279.93,2562465,Bisi Johnson,81,2019,46,2,07:25:00,MIN,2,2,CHI,7,0,2562682,SINGLEBACK,"1 RB, 2 TE, 2 WR",8,"3 DL, 4 LB, 4 DB",left,2019-09-29T21:16:10.000Z,2019-09-29T21:16:09.000Z,6-0,203,03/17/1997,Colorado State,WR,CHI,MIN,4,Soldier Field,"Chicago, IL",Outdoor,Natural Grass,Cloudy,67.0,89,8,East
57076,2019092910,20190929101437,away,55.87,26.47,3.44,0.36,0.36,260.2,180.79,2562632,Garrett Bradbury,56,2019,46,2,07:25:00,MIN,2,2,CHI,7,0,2562682,SINGLEBACK,"1 RB, 2 TE, 2 WR",8,"3 DL, 4 LB, 4 DB",left,2019-09-29T21:16:10.000Z,2019-09-29T21:16:09.000Z,6-3,305,06/20/1995,North Carolina State,C,CHI,MIN,4,Soldier Field,"Chicago, IL",Outdoor,Natural Grass,Cloudy,67.0,89,8,East
57077,2019092910,20190929101437,away,60.1,27.73,4.9,1.49,0.48,234.04,225.59,2562682,Alexander Mattison,25,2019,46,2,07:25:00,MIN,2,2,CHI,7,0,2562682,SINGLEBACK,"1 RB, 2 TE, 2 WR",8,"3 DL, 4 LB, 4 DB",left,2019-09-29T21:16:10.000Z,2019-09-29T21:16:09.000Z,5-11,220,06/19/1998,Boise State,RB,CHI,MIN,4,Soldier Field,"Chicago, IL",Outdoor,Natural Grass,Cloudy,67.0,89,8,East
57078,2019092910,20190929101437,away,57.43,27.7,3.43,2.15,0.34,309.69,322.99,2562738,Irv Smith,84,2019,46,2,07:25:00,MIN,2,2,CHI,7,0,2562682,SINGLEBACK,"1 RB, 2 TE, 2 WR",8,"3 DL, 4 LB, 4 DB",left,2019-09-29T21:16:10.000Z,2019-09-29T21:16:09.000Z,6-2,240,08/09/1998,Alabama,TE,CHI,MIN,4,Soldier Field,"Chicago, IL",Outdoor,Natural Grass,Cloudy,67.0,89,8,East
57079,2019092910,20190929101437,home,47.21,18.39,1.96,1.64,0.19,84.93,175.3,2495108,Prince Amukamara,20,2019,46,2,07:25:00,MIN,2,2,CHI,7,0,2562682,SINGLEBACK,"1 RB, 2 TE, 2 WR",8,"3 DL, 4 LB, 4 DB",left,2019-09-29T21:16:10.000Z,2019-09-29T21:16:09.000Z,6-0,204,06/06/1989,Nebraska,CB,CHI,MIN,4,Soldier Field,"Chicago, IL",Outdoor,Natural Grass,Cloudy,67.0,89,8,East
57080,2019092910,20190929101437,home,52.82,25.5,1.24,0.36,0.13,72.14,143.56,2532961,Danny Trevathan,59,2019,46,2,07:25:00,MIN,2,2,CHI,7,0,2562682,SINGLEBACK,"1 RB, 2 TE, 2 WR",8,"3 DL, 4 LB, 4 DB",left,2019-09-29T21:16:10.000Z,2019-09-29T21:16:09.000Z,6-0,239,03/24/1990,Kentucky,ILB,CHI,MIN,4,Soldier Field,"Chicago, IL",Outdoor,Natural Grass,Cloudy,67.0,89,8,East
57081,2019092910,20190929101437,home,55.08,26.8,3.29,0.82,0.33,124.48,183.03,2541479,Nick Williams,97,2019,46,2,07:25:00,MIN,2,2,CHI,7,0,2562682,SINGLEBACK,"1 RB, 2 TE, 2 WR",8,"3 DL, 4 LB, 4 DB",left,2019-09-29T21:16:10.000Z,2019-09-29T21:16:09.000Z,6-4,309,02/21/1990,Samford,DT,CHI,MIN,4,Soldier Field,"Chicago, IL",Outdoor,Natural Grass,Cloudy,67.0,89,8,East
57082,2019092910,20190929101437,home,36.41,32.16,2.36,1.63,0.24,101.74,235.31,2543470,Ha Ha Clinton-Dix,21,2019,46,2,07:25:00,MIN,2,2,CHI,7,0,2562682,SINGLEBACK,"1 RB, 2 TE, 2 WR",8,"3 DL, 4 LB, 4 DB",left,2019-09-29T21:16:10.000Z,2019-09-29T21:16:09.000Z,6-1,211,12/21/1992,Alabama,FS,CHI,MIN,4,Soldier Field,"Chicago, IL",Outdoor,Natural Grass,Cloudy,67.0,89,8,East
57083,2019092910,20190929101437,home,55.52,31.67,4.22,1.29,0.42,132.15,177.97,2543650,Aaron Lynch,99,2019,46,2,07:25:00,MIN,2,2,CHI,7,0,2562682,SINGLEBACK,"1 RB, 2 TE, 2 WR",8,"3 DL, 4 LB, 4 DB",left,2019-09-29T21:16:10.000Z,2019-09-29T21:16:09.000Z,6-5,285,02/08/1993,South Florida,OLB,CHI,MIN,4,Soldier Field,"Chicago, IL",Outdoor,Natural Grass,Cloudy,67.0,89,8,East
57084,2019092910,20190929101437,home,47.71,41.64,2.91,1.07,0.29,110.06,295.38,2543681,Kyle Fuller,23,2019,46,2,07:25:00,MIN,2,2,CHI,7,0,2562682,SINGLEBACK,"1 RB, 2 TE, 2 WR",8,"3 DL, 4 LB, 4 DB",left,2019-09-29T21:16:10.000Z,2019-09-29T21:16:09.000Z,5-11,194,02/16/1992,Virginia Tech,CB,CHI,MIN,4,Soldier Field,"Chicago, IL",Outdoor,Natural Grass,Cloudy,67.0,89,8,East
57085,2019092910,20190929101437,home,55.88,23.27,0.46,0.65,0.05,78.52,98.33,2555285,Leonard Floyd,94,2019,46,2,07:25:00,MIN,2,2,CHI,7,0,2562682,SINGLEBACK,"1 RB, 2 TE, 2 WR",8,"3 DL, 4 LB, 4 DB",left,2019-09-29T21:16:10.000Z,2019-09-29T21:16:09.000Z,6-5,240,09/08/1992,Georgia,OLB,CHI,MIN,4,Soldier Field,"Chicago, IL",Outdoor,Natural Grass,Cloudy,67.0,89,8,East
57086,2019092910,20190929101437,home,52.3,31.43,1.12,0.65,0.11,106.54,77.25,2555288,Nick Kwiatkoski,44,2019,46,2,07:25:00,MIN,2,2,CHI,7,0,2562682,SINGLEBACK,"1 RB, 2 TE, 2 WR",8,"3 DL, 4 LB, 4 DB",left,2019-09-29T21:16:10.000Z,2019-09-29T21:16:09.000Z,6-2,242,05/26/1993,West Virginia,ILB,CHI,MIN,4,Soldier Field,"Chicago, IL",Outdoor,Natural Grass,Cloudy,67.0,89,8,East
57087,2019092910,20190929101437,home,52.85,23.09,1.67,0.68,0.16,78.48,209.01,2558176,Eddie Jackson,39,2019,46,2,07:25:00,MIN,2,2,CHI,7,0,2562682,SINGLEBACK,"1 RB, 2 TE, 2 WR",8,"3 DL, 4 LB, 4 DB",left,2019-09-29T21:16:10.000Z,2019-09-29T21:16:09.000Z,6-0,202,12/10/1993,Alabama,FS,CHI,MIN,4,Soldier Field,"Chicago, IL",Outdoor,Natural Grass,Cloudy,67.0,89,8,East
57088,2019092910,20190929101437,home,55.84,25.09,2.82,0.8,0.29,124.45,162.36,2561088,Abdullah Anderson,76,2019,46,2,07:25:00,MIN,2,2,CHI,7,0,2562682,SINGLEBACK,"1 RB, 2 TE, 2 WR",8,"3 DL, 4 LB, 4 DB",left,2019-09-29T21:16:10.000Z,2019-09-29T21:16:09.000Z,6-3,297,01/24/1996,Bucknell,DT,CHI,MIN,4,Soldier Field,"Chicago, IL",Outdoor,Natural Grass,Cloudy,67.0,89,8,East
57089,2019092910,20190929101437,home,55.16,29.0,3.54,1.6,0.36,120.91,180.78,2562945,Jonathan Harris,71,2019,46,2,07:25:00,MIN,2,2,CHI,7,0,2562682,SINGLEBACK,"1 RB, 2 TE, 2 WR",8,"3 DL, 4 LB, 4 DB",left,2019-09-29T21:16:10.000Z,2019-09-29T21:16:09.000Z,6-5,295,08/04/1996,Lindenwood,DE,CHI,MIN,4,Soldier Field,"Chicago, IL",Outdoor,Natural Grass,Cloudy,67.0,89,8,East
