,GameId,PlayId,Team,X,Y,S,A,Dis,Orientation,Dir,NflId,DisplayName,JerseyNumber,Season,YardLine,Quarter,GameClock,PossessionTeam,Down,Distance,FieldPosition,HomeScoreBeforePlay,VisitorScoreBeforePlay,NflIdRusher,OffenseFormation,OffensePersonnel,DefendersInTheBox,DefensePersonnel,PlayDirection,TimeHandoff,TimeSnap,PlayerHeight,PlayerWeight,PlayerBirthDate,PlayerCollegeName,Position,HomeTeamAbbr,VisitorTeamAbbr,Week,Stadium,Location,StadiumType,Turf,GameWeather,Temperature,Humidity,WindSpeed,WindDirection
74448,2019100700,20191007000247,away,29.37,23.62,4.14,0.34,0.41,266.3,233.42,496727,Morgan Burnett,42,2019,17,1,13:28:00,SF,1,10,SF,0,0,2558918,I_FORM,"2 RB, 1 TE, 2 WR",7,"3 DL, 3 LB, 5 DB",right,2019-10-08T00:23:02.000Z,2019-10-08T00:23:01.000Z,6-1,209,01/13/1989,Georgia Tech,SS,SF,CLE,5,Levis Stadium,"Santa Clara, CA",Outdoor,Natural Grass,Clear,87.0,36,8,NW
74449,2019100700,20191007000247,away,26.88,32.98,3.8,1.18,0.37,223.42,199.12,2533534,Olivier Vernon,54,2019,17,1,13:28:00,SF,1,10,SF,0,0,2558918,I_FORM,"2 RB, 1 TE, 2 WR",7,"3 DL, 3 LB, 5 DB",right,2019-10-08T00:23:02.000Z,2019-10-08T00:23:01.000Z,6-2,262,10/07/1990,Miami,OLB,SF,CLE,5,Levis Stadium,"Santa Clara, CA",Outdoor,Natural Grass,Clear,87.0,36,8,NW
74450,2019100700,20191007000247,away,27.33,29.39,3.02,0.96,0.32,196.27,182.78,2540142,Sheldon Richardson,98,2019,17,1,13:28:00,SF,1,10,SF,0,0,2558918,I_FORM,"2 RB, 1 TE, 2 WR",7,"3 DL, 3 LB, 5 DB",right,2019-10-08T00:23:02.000Z,2019-10-08T00:23:01.000Z,6-3,294,11/29/1990,Missouri,DT,SF,CLE,5,Levis Stadium,"Santa Clara, CA",Outdoor,Natural Grass,Clear,87.0,36,8,NW
74451,2019100700,20191007000247,away,35.96,8.56,0.55,2.12,0.05,316.52,97.98,2543637,Terrance Mitchell,39,2019,17,1,13:28:00,SF,1,10,SF,0,0,2558918,I_FORM,"2 RB, 1 TE, 2 WR",7,"3 DL, 3 LB, 5 DB",right,2019-10-08T00:23:02.000Z,2019-10-08T00:23:01.000Z,5-11,190,05/17/1992,Oregon,CB,SF,CLE,5,Levis Stadium,"Santa Clara, CA",Outdoor,Natural Grass,Clear,87.0,36,8,NW
74452,2019100700,20191007000247,away,30.77,34.33,2.67,2.05,0.26,219.41,209.29,2550164,T.J. Carrie,38,2019,17,1,13:28:00,SF,1,10,SF,0,0,2558918,I_FORM,"2 RB, 1 TE, 2 WR",7,"3 DL, 3 LB, 5 DB",right,2019-10-08T00:23:02.000Z,2019-10-08T00:23:01.000Z,6-0,204,07/28/1990,Ohio,CB,SF,CLE,5,Levis Stadium,"Santa Clara, CA",Outdoor,Natural Grass,Clear,87.0,36,8,NW
74453,2019100700,20191007000247,away,42.84,25.59,0.42,0.97,0.04,299.49,114.67,2552389,Damarious Randall,23,2019,17,1,13:28:00,SF,1,10,SF,0,0,2558918,I_FORM,"2 RB, 1 TE, 2 WR",7,"3 DL, 3 LB, 5 DB",right,2019-10-08T00:23:02.000Z,2019-10-08T00:23:01.000Z,5-11,196,08/29/1992,Arizona State,CB,SF,CLE,5,Levis Stadium,"Santa Clara, CA",Outdoor,Natural Grass,Clear,87.0,36,8,NW
74454,2019100700,20191007000247,away,29.33,17.4,2.45,1.7,0.24,303.91,131.96,2552697,Jermaine Whitehead,35,2019,17,1,13:28:00,SF,1,10,SF,0,0,2558918,I_FORM,"2 RB, 1 TE, 2 WR",7,"3 DL, 3 LB, 5 DB",right,2019-10-08T00:23:02.000Z,2019-10-08T00:23:01.000Z,5-11,195,03/12/1993,Auburn,FS,SF,CLE,5,Levis Stadium,"Santa Clara, CA",Outdoor,Natural Grass,Clear,87.0,36,8,NW
74455,2019100700,20191007000247,away,30.05,26.51,2.47,2.43,0.25,299.63,241.92,2555166,Joe Schobert,53,2019,17,1,13:28:00,SF,1,10,SF,0,0,2558918,I_FORM,"2 RB, 1 TE, 2 WR",7,"3 DL, 3 LB, 5 DB",right,2019-10-08T00:23:02.000Z,2019-10-08T00:23:01.000Z,6-1,245,11/06/1993,Wisconsin,MLB,SF,CLE,5,Levis Stadium,"Santa Clara, CA",Outdoor,Natural Grass,Clear,87.0,36,8,NW
74456,2019100700,20191007000247,away,26.27,27.38,2.47,1.62,0.25,267.26,206.83,2557836,Larry Ogunjobi,65,2019,17,1,13:28:00,SF,1,10,SF,0,0,2558918,I_FORM,"2 RB, 1 TE, 2 WR",7,"3 DL, 3 LB, 5 DB",right,2019-10-08T00:23:02.000Z,2019-10-08T00:23:01.000Z,6-3,305,06/03/1994,North Carolina-Charlotte,DT,SF,CLE,5,Levis Stadium,"Santa Clara, CA",Outdoor,Natural Grass,Clear,87.0,36,8,NW
74457,2019100700,20191007000247,away,25.68,23.67,2.09,1.46,0.21,323.64,219.16,2557965,Myles Garrett,95,2019,17,1,13:28:00,SF,1,10,SF,0,0,2558918,I_FORM,"2 RB, 1 TE, 2 WR",7,"3 DL, 3 LB, 5 DB",right,2019-10-08T00:23:02.000Z,2019-10-08T00:23:01.000Z,6-4,272,12/29/1995,Texas A&M,DE,SF,CLE,5,Levis Stadium,"Santa Clara, CA",Outdoor,Natural Grass,Clear,87.0,36,8,NW
74458,2019100700,20191007000247,away,30.21,28.12,4.37,1.97,0.44,278.92,203.45,2562605,Mack Wilson,51,2019,17,1,13:28:00,SF,1,10,SF,0,0,2558918,I_FORM,"2 RB, 1 TE, 2 WR",7,"3 DL, 3 LB, 5 DB",right,2019-10-08T00:23:02.000Z,2019-10-08T00:23:01.000Z,6-1,240,02/14/1998,Alabama,LB,SF,CLE,5,Levis Stadium,"Santa Clara, CA",Outdoor,Natural Grass,Clear,87.0,36,8,NW
74459,2019100700,20191007000247,home,27.61,25.0,3.86,0.81,0.4,165.73,154.01,2508140,Mike Person,68,2019,17,1,13:28:00,SF,1,10,SF,0,0,2558918,I_FORM,"2 RB, 1 TE, 2 WR",7,"3 DL, 3 LB, 5 DB",right,2019-10-08T00:23:02.000Z,2019-10-08T00:23:01.000Z,6-4,299,06/17/1988,Montana State,C,SF,CLE,5,Levis Stadium,"Santa Clara, CA",Outdoor,Natural Grass,Clear,87.0,36,8,NW
74460,2019100700,20191007000247,home,28.17,17.42,3.22,1.45,0.31,109.13,94.0,2539964,Marquise Goodwin,11,2019,17,1,13:28:00,SF,1,10,SF,0,0,2558918,I_FORM,"2 RB, 1 TE, 2 WR",7,"3 DL, 3 LB, 5 DB",right,2019-10-08T00:23:02.000Z,2019-10-08T00:23:01.000Z,5-9,179,11/19/1990,Texas,WR,SF,CLE,5,Levis Stadium,"Santa Clara, CA",Outdoor,Natural Grass,Clear,87.0,36,8,NW
74461,2019100700,20191007000247,home,24.06,27.85,3.04,5.5,0.3,56.74,64.83,2540230,Kyle Juszczyk,44,2019,17,1,13:28:00,SF,1,10,SF,0,0,2558918,I_FORM,"2 RB, 1 TE, 2 WR",7,"3 DL, 3 LB, 5 DB",right,2019-10-08T00:23:02.000Z,2019-10-08T00:23:01.000Z,6-1,240,04/23/1991,Harvard,RB,SF,CLE,5,Levis Stadium,"Santa Clara, CA",Outdoor,Natural Grass,Clear,87.0,36,8,NW
74462,2019100700,20191007000247,home,25.62,27.45,2.42,1.09,0.24,101.03,201.13,2543705,Weston Richburg,58,2019,17,1,13:28:00,SF,1,10,SF,0,0,2558918,I_FORM,"2 RB, 1 TE, 2 WR",7,"3 DL, 3 LB, 5 DB",right,2019-10-08T00:23:02.000Z,2019-10-08T00:23:01.000Z,6-4,290,07/09/1991,Colorado State,C,SF,CLE,5,Levis Stadium,"Santa Clara, CA",Outdoor,Natural Grass,Clear,87.0,36,8,NW
74463,2019100700,20191007000247,home,22.47,28.54,4.47,0.93,0.44,268.28,251.87,2543801,Jimmy Garoppolo,10,2019,17,1,13:28:00,SF,1,10,SF,0,0,2558918,I_FORM,"2 RB, 1 TE, 2 WR",7,"3 DL, 3 LB, 5 DB",right,2019-10-08T00:23:02.000Z,2019-10-08T00:23:01.000Z,6-2,225,11/02/1991,Eastern Illinois,QB,SF,CLE,5,Levis Stadium,"Santa Clara, CA",Outdoor,Natural Grass,Clear,87.0,36,8,NW
74464,2019100700,20191007000247,home,29.2,28.68,3.61,2.1,0.37,152.17,138.7,2552345,Laken Tomlinson,75,2019,17,1,13:28:00,SF,1,10,SF,0,0,2558918,I_FORM,"2 RB, 1 TE, 2 WR",7,"3 DL, 3 LB, 5 DB",right,2019-10-08T00:23:02.000Z,2019-10-08T00:23:01.000Z,6-3,312,02/09/1992,Duke,G,SF,CLE,5,Levis Stadium,"Santa Clara, CA",Outdoor,Natural Grass,Clear,87.0,36,8,NW
74465,2019100700,20191007000247,home,28.27,31.88,3.93,0.8,0.4,102.24,130.93,2558266,George Kittle,85,2019,17,1,13:28:00,SF,1,10,SF,0,0,2558918,I_FORM,"2 RB, 1 TE, 2 WR",7,"3 DL, 3 LB, 5 DB",right,2019-10-08T00:23:02.000Z,2019-10-08T00:23:01.000Z,6-4,250,10/09/1993,Iowa,TE,SF,CLE,5,Levis Stadium,"Santa Clara, CA",Outdoor,Natural Grass,Clear,87.0,36,8,NW
74466,2019100700,20191007000247,home,21.54,27.58,4.43,3.76,0.43,96.28,110.1,2558918,Matt Breida,22,2019,17,1,13:28:00,SF,1,10,SF,0,0,2558918,I_FORM,"2 RB, 1 TE, 2 WR",7,"3 DL, 3 LB, 5 DB",right,2019-10-08T00:23:02.000Z,2019-10-08T00:23:01.000Z,5-11,190,02/28/1995,Georgia Southern,RB,SF,CLE,5,Levis Stadium,"Santa Clara, CA",Outdoor,Natural Grass,Clear,87.0,36,8,NW
74467,2019100700,20191007000247,home,25.96,24.71,1.56,0.48,0.15,155.4,181.72,2560805,Mike McGlinchey,69,2019,17,1,13:28:00,SF,1,10,SF,0,0,2558918,I_FORM,"2 RB, 1 TE, 2 WR",7,"3 DL, 3 LB, 5 DB",right,2019-10-08T00:23:02.000Z,2019-10-08T00:23:01.000Z,6-8,315,01/12/1995,Notre Dame,OT,SF,CLE,5,Levis Stadium,"Santa Clara, CA",Outdoor,Natural Grass,Clear,87.0,36,8,NW
74468,2019100700,20191007000247,home,27.95,8.89,4.98,2.89,0.49,90.01,90.16,2560836,Dante Pettis,18,2019,17,1,13:28:00,SF,1,10,SF,0,0,2558918,I_FORM,"2 RB, 1 TE, 2 WR",7,"3 DL, 3 LB, 5 DB",right,2019-10-08T00:23:02.000Z,2019-10-08T00:23:01.000Z,6-1,195,10/23/1995,Washington,WR,SF,CLE,5,Levis Stadium,"Santa Clara, CA",Outdoor,Natural Grass,Clear,87.0,36,8,NW
74469,2019100700,20191007000247,home,26.78,29.6,2.88,0.72,0.3,127.61,172.16,2562927,Justin Skule,67,2019,17,1,13:28:00,SF,1,10,SF,0,0,2558918,I_FORM,"2 RB, 1 TE, 2 WR",7,"3 DL, 3 LB, 5 DB",right,2019-10-08T00:23:02.000Z,2019-10-08T00:23:01.000Z,6-6,318,11/23/1996,Vanderbilt,T,SF,CLE,5,Levis Stadium,"Santa Clara, CA",Outdoor,Natural Grass,Clear,87.0,36,8,NW
