,GameId,PlayId,Team,X,Y,S,A,Dis,Orientation,Dir,NflId,DisplayName,JerseyNumber,Season,YardLine,Quarter,GameClock,PossessionTeam,Down,Distance,FieldPosition,HomeScoreBeforePlay,VisitorScoreBeforePlay,NflIdRusher,OffenseFormation,OffensePersonnel,DefendersInTheBox,DefensePersonnel,PlayDirection,TimeHandoff,TimeSnap,PlayerHeight,PlayerWeight,PlayerBirthDate,PlayerCollegeName,Position,HomeTeamAbbr,VisitorTeamAbbr,Week,Stadium,Location,StadiumType,Turf,GameWeather,Temperature,Humidity,WindSpeed,WindDirection
12738,2019090812,20190908123285,away,56.52,36.99,2.17,0.87,0.21,127.88,139.04,496733,Joe Haden,23,2019,48,4,11:52:00,NE,2,7,NE,30,3,238498,I_FORM,"2 RB, 1 TE, 2 WR",7,"3 DL, 4 LB, 4 DB",left,2019-09-09T02:49:20.000Z,2019-09-09T02:49:18.000Z,5-11,195,04/14/1989,Florida,CB,NE,PIT,1,Gillette Stadium,"Foxborough, MA",Outdoor,Field Turf,Partly cloudy and mild,66.0,62,2,NW
12739,2019090812,20190908123285,away,60.99,26.4,2.45,1.06,0.26,80.15,186.36,2508109,Cameron Heyward,97,2019,48,4,11:52:00,NE,2,7,NE,30,3,238498,I_FORM,"2 RB, 1 TE, 2 WR",7,"3 DL, 4 LB, 4 DB",left,2019-09-09T02:49:20.000Z,2019-09-09T02:49:18.000Z,6-5,295,05/06/1989,Ohio State,DT,NE,PIT,1,Gillette Stadium,"Foxborough, MA",Outdoor,Field Turf,Partly cloudy and mild,66.0,62,2,NW
12740,2019090812,20190908123285,away,59.87,26.95,0.52,1.85,0.04,73.76,330.02,2540221,Vince Williams,98,2019,48,4,11:52:00,NE,2,7,NE,30,3,238498,I_FORM,"2 RB, 1 TE, 2 WR",7,"3 DL, 4 LB, 4 DB",left,2019-09-09T02:49:20.000Z,2019-09-09T02:49:18.000Z,6-1,233,12/27/1989,Florida State,ILB,NE,PIT,1,Gillette Stadium,"Foxborough, MA",Outdoor,Field Turf,Partly cloudy and mild,66.0,62,2,NW
12741,2019090812,20190908123285,away,62.19,29.6,1.32,2.44,0.14,113.01,177.48,2543483,Stephon Tuitt,91,2019,48,4,11:52:00,NE,2,7,NE,30,3,238498,I_FORM,"2 RB, 1 TE, 2 WR",7,"3 DL, 4 LB, 4 DB",left,2019-09-09T02:49:20.000Z,2019-09-09T02:49:18.000Z,6-6,303,05/23/1993,Notre Dame,DE,NE,PIT,1,Gillette Stadium,"Foxborough, MA",Outdoor,Field Turf,Partly cloudy and mild,66.0,62,2,NW
12742,2019090812,20190908123285,away,62.38,28.7,0.97,0.21,0.1,118.82,137.47,2550154,Dan McCullers,93,2019,48,4,11:52:00,NE,2,7,NE,30,3,238498,I_FORM,"2 RB, 1 TE, 2 WR",7,"3 DL, 4 LB, 4 DB",left,2019-09-09T02:49:20.000Z,2019-09-09T02:49:18.000Z,6-7,352,08/11/1992,Tennessee,DT,NE,PIT,1,Gillette Stadium,"Foxborough, MA",Outdoor,Field Turf,Partly cloudy and mild,66.0,62,2,NW
12743,2019090812,20190908123285,away,52.19,9.02,4.98,0.73,0.5,352.87,269.57,2552265,Steven Nelson,22,2019,48,4,11:52:00,NE,2,7,NE,30,3,238498,I_FORM,"2 RB, 1 TE, 2 WR",7,"3 DL, 4 LB, 4 DB",left,2019-09-09T02:49:20.000Z,2019-09-09T02:49:18.000Z,5-11,194,01/22/1993,Oregon State,CB,NE,PIT,1,Gillette Stadium,"Foxborough, MA",Outdoor,Field Turf,Partly cloudy and mild,66.0,62,2,NW
12744,2019090812,20190908123285,away,62.79,21.53,4.08,2.71,0.4,98.27,181.45,2552266,Anthony Chickillo,56,2019,48,4,11:52:00,NE,2,7,NE,30,3,238498,I_FORM,"2 RB, 1 TE, 2 WR",7,"3 DL, 4 LB, 4 DB",left,2019-09-09T02:49:20.000Z,2019-09-09T02:49:18.000Z,6-3,255,12/10/1992,Miami,OLB,NE,PIT,1,Gillette Stadium,"Foxborough, MA",Outdoor,Field Turf,Partly cloudy and mild,66.0,62,2,NW
12745,2019090812,20190908123285,away,63.72,33.52,2.43,0.52,0.24,165.92,142.7,2558064,T.J. Watt,90,2019,48,4,11:52:00,NE,2,7,NE,30,3,238498,I_FORM,"2 RB, 1 TE, 2 WR",7,"3 DL, 4 LB, 4 DB",left,2019-09-09T02:49:20.000Z,2019-09-09T02:49:18.000Z,6-4,252,10/11/1994,Wisconsin,OLB,NE,PIT,1,Gillette Stadium,"Foxborough, MA",Outdoor,Field Turf,Partly cloudy and mild,66.0,62,2,NW
12746,2019090812,20190908123285,away,60.25,32.45,2.26,2.34,0.23,133.79,203.05,2560712,Terrell Edmunds,34,2019,48,4,11:52:00,NE,2,7,NE,30,3,238498,I_FORM,"2 RB, 1 TE, 2 WR",7,"3 DL, 4 LB, 4 DB",left,2019-09-09T02:49:20.000Z,2019-09-09T02:49:18.000Z,6-1,217,01/20/1997,Virginia Tech,S,NE,PIT,1,Gillette Stadium,"Foxborough, MA",Outdoor,Field Turf,Partly cloudy and mild,66.0,62,2,NW
12747,2019090812,20190908123285,away,48.85,24.37,2.53,1.13,0.25,111.15,184.15,2560778,Kam Kelly,29,2019,48,4,11:52:00,NE,2,7,NE,30,3,238498,I_FORM,"2 RB, 1 TE, 2 WR",7,"3 DL, 4 LB, 4 DB",left,2019-09-09T02:49:20.000Z,2019-09-09T02:49:18.000Z,6-2,205,08/19/1996,San Diego State,DB,NE,PIT,1,Gillette Stadium,"Foxborough, MA",Outdoor,Field Turf,Partly cloudy and mild,66.0,62,2,NW
12748,2019090812,20190908123285,away,60.92,30.1,0.93,3.25,0.11,103.75,91.89,2562243,Devin Bush,55,2019,48,4,11:52:00,NE,2,7,NE,30,3,238498,I_FORM,"2 RB, 1 TE, 2 WR",7,"3 DL, 4 LB, 4 DB",left,2019-09-09T02:49:20.000Z,2019-09-09T02:49:18.000Z,5-11,233,07/18/1998,Michigan,LB,NE,PIT,1,Gillette Stadium,"Foxborough, MA",Outdoor,Field Turf,Partly cloudy and mild,66.0,62,2,NW
12749,2019090812,20190908123285,home,68.93,29.64,7.11,3.7,0.71,185.55,174.76,238498,Julian Edelman,11,2019,48,4,11:52:00,NE,2,7,NE,30,3,238498,I_FORM,"2 RB, 1 TE, 2 WR",7,"3 DL, 4 LB, 4 DB",left,2019-09-09T02:49:20.000Z,2019-09-09T02:49:18.000Z,5-10,200,05/22/1986,Kent State,WR,NE,PIT,1,Gillette Stadium,"Foxborough, MA",Outdoor,Field Turf,Partly cloudy and mild,66.0,62,2,NW
12750,2019090812,20190908123285,home,63.36,29.16,2.9,1.07,0.3,244.43,178.24,2495131,Marcus Cannon,61,2019,48,4,11:52:00,NE,2,7,NE,30,3,238498,I_FORM,"2 RB, 1 TE, 2 WR",7,"3 DL, 4 LB, 4 DB",left,2019-09-09T02:49:20.000Z,2019-09-09T02:49:18.000Z,6-6,335,05/06/1988,Texas Christian,T,NE,PIT,1,Gillette Stadium,"Foxborough, MA",Outdoor,Field Turf,Partly cloudy and mild,66.0,62,2,NW
12751,2019090812,20190908123285,home,68.2,30.28,3.61,1.94,0.36,91.22,54.87,2504211,Tom Brady,12,2019,48,4,11:52:00,NE,2,7,NE,30,3,238498,I_FORM,"2 RB, 1 TE, 2 WR",7,"3 DL, 4 LB, 4 DB",left,2019-09-09T02:49:20.000Z,2019-09-09T02:49:18.000Z,6-4,225,08/03/1977,Michigan,QB,NE,PIT,1,Gillette Stadium,"Foxborough, MA",Outdoor,Field Turf,Partly cloudy and mild,66.0,62,2,NW
12752,2019090812,20190908123285,home,63.7,21.6,4.9,2.98,0.5,267.98,194.56,2508101,James Develin,46,2019,48,4,11:52:00,NE,2,7,NE,30,3,238498,I_FORM,"2 RB, 1 TE, 2 WR",7,"3 DL, 4 LB, 4 DB",left,2019-09-09T02:49:20.000Z,2019-09-09T02:49:18.000Z,6-3,255,07/23/1988,Brown,FB,NE,PIT,1,Gillette Stadium,"Foxborough, MA",Outdoor,Field Turf,Partly cloudy and mild,66.0,62,2,NW
12753,2019090812,20190908123285,home,55.97,8.85,5.83,1.1,0.59,286.94,272.36,2537931,Josh Gordon,10,2019,48,4,11:52:00,NE,2,7,NE,30,3,238498,I_FORM,"2 RB, 1 TE, 2 WR",7,"3 DL, 4 LB, 4 DB",left,2019-09-09T02:49:20.000Z,2019-09-09T02:49:18.000Z,6-3,225,04/13/1991,Baylor,WR,NE,PIT,1,Gillette Stadium,"Foxborough, MA",Outdoor,Field Turf,Partly cloudy and mild,66.0,62,2,NW
12754,2019090812,20190908123285,home,62.66,27.9,1.54,1.29,0.16,340.8,166.19,2552563,Shaq Mason,69,2019,48,4,11:52:00,NE,2,7,NE,30,3,238498,I_FORM,"2 RB, 1 TE, 2 WR",7,"3 DL, 4 LB, 4 DB",left,2019-09-09T02:49:20.000Z,2019-09-09T02:49:18.000Z,6-1,310,08/28/1993,Georgia Tech,G,NE,PIT,1,Gillette Stadium,"Foxborough, MA",Outdoor,Field Turf,Partly cloudy and mild,66.0,62,2,NW
12755,2019090812,20190908123285,home,62.24,27.03,2.6,0.42,0.27,222.18,177.91,2555145,Ted Karras,75,2019,48,4,11:52:00,NE,2,7,NE,30,3,238498,I_FORM,"2 RB, 1 TE, 2 WR",7,"3 DL, 4 LB, 4 DB",left,2019-09-09T02:49:20.000Z,2019-09-09T02:49:18.000Z,6-4,305,03/15/1993,Illinois,C,NE,PIT,1,Gillette Stadium,"Foxborough, MA",Outdoor,Field Turf,Partly cloudy and mild,66.0,62,2,NW
12756,2019090812,20190908123285,home,63.96,31.86,1.91,1.6,0.2,325.84,353.6,2555281,Joe Thuney,62,2019,48,4,11:52:00,NE,2,7,NE,30,3,238498,I_FORM,"2 RB, 1 TE, 2 WR",7,"3 DL, 4 LB, 4 DB",left,2019-09-09T02:49:20.000Z,2019-09-09T02:49:18.000Z,6-5,308,11/18/1992,North Carolina State,G,NE,PIT,1,Gillette Stadium,"Foxborough, MA",Outdoor,Field Turf,Partly cloudy and mild,66.0,62,2,NW
12757,2019090812,20190908123285,home,62.01,33.81,1.56,1.72,0.15,90.9,133.19,2560751,Ryan Izzo,85,2019,48,4,11:52:00,NE,2,7,NE,30,3,238498,I_FORM,"2 RB, 1 TE, 2 WR",7,"3 DL, 4 LB, 4 DB",left,2019-09-09T02:49:20.000Z,2019-09-09T02:49:18.000Z,6-5,255,12/21/1995,Florida State,TE,NE,PIT,1,Gillette Stadium,"Foxborough, MA",Outdoor,Field Turf,Partly cloudy and mild,66.0,62,2,NW
12758,2019090812,20190908123285,home,65.15,29.83,3.53,3.82,0.36,263.4,251.32,2560809,Sony Michel,26,2019,48,4,11:52:00,NE,2,7,NE,30,3,238498,I_FORM,"2 RB, 1 TE, 2 WR",7,"3 DL, 4 LB, 4 DB",left,2019-09-09T02:49:20.000Z,2019-09-09T02:49:18.000Z,5-11,215,02/17/1995,Georgia,RB,NE,PIT,1,Gillette Stadium,"Foxborough, MA",Outdoor,Field Turf,Partly cloudy and mild,66.0,62,2,NW
12759,2019090812,20190908123285,home,61.81,26.37,2.58,1.5,0.28,282.48,185.24,2560945,Isaiah Wynn,76,2019,48,4,11:52:00,NE,2,7,NE,30,3,238498,I_FORM,"2 RB, 1 TE, 2 WR",7,"3 DL, 4 LB, 4 DB",left,2019-09-09T02:49:20.000Z,2019-09-09T02:49:18.000Z,6-2,310,12/09/1995,Georgia,T,NE,PIT,1,Gillette Stadium,"Foxborough, MA",Outdoor,Field Turf,Partly cloudy and mild,66.0,62,2,NW
