,GameId,PlayId,Team,X,Y,S,A,Dis,Orientation,Dir,NflId,DisplayName,JerseyNumber,Season,YardLine,Quarter,GameClock,PossessionTeam,Down,Distance,FieldPosition,HomeScoreBeforePlay,VisitorScoreBeforePlay,NflIdRusher,OffenseFormation,OffensePersonnel,DefendersInTheBox,DefensePersonnel,PlayDirection,TimeHandoff,TimeSnap,PlayerHeight,PlayerWeight,PlayerBirthDate,PlayerCollegeName,Position,HomeTeamAbbr,VisitorTeamAbbr,Week,Stadium,Location,StadiumType,Turf,GameWeather,Temperature,Humidity,WindSpeed,WindDirection
51062,2019092904,20190929040830,away,69.95,27.55,3.79,1.28,0.38,263.09,337.18,2507837,Kyle Love,77,2019,38,2,15:00:00,HST,1,10,CAR,0,3,2543743,SINGLEBACK,"1 RB, 1 TE, 3 WR",7,"3 DL, 3 LB, 5 DB",right,2019-09-29T17:34:39.000Z,2019-09-29T17:34:38.000Z,6-1,310,11/18/1986,Mississippi State,NT,HOU,CAR,4,NRG Stadium,"Houston, TX",Retractable Roof,Artificial,Mostly Cloudy,89.0,61,6mph,SE
51063,2019092904,20190929040830,away,71.41,27.85,3.6,0.34,0.35,268.7,289.29,2533056,Luke Kuechly,59,2019,38,2,15:00:00,HST,1,10,CAR,0,3,2543743,SINGLEBACK,"1 RB, 1 TE, 3 WR",7,"3 DL, 3 LB, 5 DB",right,2019-09-29T17:34:39.000Z,2019-09-29T17:34:38.000Z,6-3,238,04/20/1991,Boston College,MLB,HOU,CAR,4,NRG Stadium,"Houston, TX",Retractable Roof,Artificial,Mostly Cloudy,89.0,61,6mph,SE
51064,2019092904,20190929040830,away,73.37,14.4,3.13,1.68,0.32,263.48,172.79,2540152,Eric Reid,25,2019,38,2,15:00:00,HST,1,10,CAR,0,3,2543743,SINGLEBACK,"1 RB, 1 TE, 3 WR",7,"3 DL, 3 LB, 5 DB",right,2019-09-29T17:34:39.000Z,2019-09-29T17:34:38.000Z,6-1,213,12/10/1991,Louisiana State,SS,HOU,CAR,4,NRG Stadium,"Houston, TX",Retractable Roof,Artificial,Mostly Cloudy,89.0,61,6mph,SE
51065,2019092904,20190929040830,away,75.82,13.0,3.49,2.12,0.34,8.31,94.88,2543799,Ross Cockrell,47,2019,38,2,15:00:00,HST,1,10,CAR,0,3,2543743,SINGLEBACK,"1 RB, 1 TE, 3 WR",7,"3 DL, 3 LB, 5 DB",right,2019-09-29T17:34:39.000Z,2019-09-29T17:34:38.000Z,6-0,191,08/06/1991,Duke,CB,HOU,CAR,4,NRG Stadium,"Houston, TX",Retractable Roof,Artificial,Mostly Cloudy,89.0,61,6mph,SE
51066,2019092904,20190929040830,away,90.69,25.06,0.32,0.64,0.03,283.73,75.95,2543830,Tre Boston,33,2019,38,2,15:00:00,HST,1,10,CAR,0,3,2543743,SINGLEBACK,"1 RB, 1 TE, 3 WR",7,"3 DL, 3 LB, 5 DB",right,2019-09-29T17:34:39.000Z,2019-09-29T17:34:38.000Z,6-1,205,06/25/1992,North Carolina,FS,HOU,CAR,4,NRG Stadium,"Houston, TX",Retractable Roof,Artificial,Mostly Cloudy,89.0,61,6mph,SE
51067,2019092904,20190929040830,away,74.06,24.68,2.33,1.82,0.2,296.28,305.19,2552447,Shaq Thompson,54,2019,38,2,15:00:00,HST,1,10,CAR,0,3,2543743,SINGLEBACK,"1 RB, 1 TE, 3 WR",7,"3 DL, 3 LB, 5 DB",right,2019-09-29T17:34:39.000Z,2019-09-29T17:34:38.000Z,6-0,230,04/21/1994,Washington,OLB,HOU,CAR,4,NRG Stadium,"Houston, TX",Retractable Roof,Artificial,Mostly Cloudy,89.0,61,6mph,SE
51068,2019092904,20190929040830,away,71.26,23.43,3.84,2.28,0.4,355.54,5.25,2553310,Efe Obada,94,2019,38,2,15:00:00,HST,1,10,CAR,0,3,2543743,SINGLEBACK,"1 RB, 1 TE, 3 WR",7,"3 DL, 3 LB, 5 DB",right,2019-09-29T17:34:39.000Z,2019-09-29T17:34:38.000Z,6-6,265,04/13/1992,No College,DE,HOU,CAR,4,NRG Stadium,"Houston, TX",Retractable Roof,Artificial,Mostly Cloudy,89.0,61,6mph,SE
51069,2019092904,20190929040830,away,80.83,36.2,1.71,2.09,0.17,247.67,57.75,2555175,James Bradberry,24,2019,38,2,15:00:00,HST,1,10,CAR,0,3,2543743,SINGLEBACK,"1 RB, 1 TE, 3 WR",7,"3 DL, 3 LB, 5 DB",right,2019-09-29T17:34:39.000Z,2019-09-29T17:34:38.000Z,6-1,212,08/04/1993,Samford,CB,HOU,CAR,4,NRG Stadium,"Houston, TX",Retractable Roof,Artificial,Mostly Cloudy,89.0,61,6mph,SE
51070,2019092904,20190929040830,away,70.68,25.42,4.35,1.08,0.47,330.54,339.94,2555243,Vernon Butler,92,2019,38,2,15:00:00,HST,1,10,CAR,0,3,2543743,SINGLEBACK,"1 RB, 1 TE, 3 WR",7,"3 DL, 3 LB, 5 DB",right,2019-09-29T17:34:39.000Z,2019-09-29T17:34:38.000Z,6-4,330,06/14/1994,Louisiana Tech,DT,HOU,CAR,4,NRG Stadium,"Houston, TX",Retractable Roof,Artificial,Mostly Cloudy,89.0,61,6mph,SE
51071,2019092904,20190929040830,away,71.14,30.26,5.13,3.8,0.5,214.93,299.73,2556934,Javien Elliott,23,2019,38,2,15:00:00,HST,1,10,CAR,0,3,2543743,SINGLEBACK,"1 RB, 1 TE, 3 WR",7,"3 DL, 3 LB, 5 DB",right,2019-09-29T17:34:39.000Z,2019-09-29T17:34:38.000Z,5-11,176,07/18/1993,Florida State,CB,HOU,CAR,4,NRG Stadium,"Houston, TX",Retractable Roof,Artificial,Mostly Cloudy,89.0,61,6mph,SE
51072,2019092904,20190929040830,away,70.82,31.54,3.6,0.97,0.36,258.02,344.98,2562313,Christian Miller,50,2019,38,2,15:00:00,HST,1,10,CAR,0,3,2543743,SINGLEBACK,"1 RB, 1 TE, 3 WR",7,"3 DL, 3 LB, 5 DB",right,2019-09-29T17:34:39.000Z,2019-09-29T17:34:38.000Z,6-3,244,06/19/1996,Alabama,LB,HOU,CAR,4,NRG Stadium,"Houston, TX",Retractable Roof,Artificial,Mostly Cloudy,89.0,61,6mph,SE
51073,2019092904,20190929040830,home,73.22,35.57,3.45,1.09,0.35,83.69,68.77,2540165,DeAndre Hopkins,10,2019,38,2,15:00:00,HST,1,10,CAR,0,3,2543743,SINGLEBACK,"1 RB, 1 TE, 3 WR",7,"3 DL, 3 LB, 5 DB",right,2019-09-29T17:34:39.000Z,2019-09-29T17:34:38.000Z,6-1,212,06/06/1992,Clemson,WR,HOU,CAR,4,NRG Stadium,"Houston, TX",Retractable Roof,Artificial,Mostly Cloudy,89.0,61,6mph,SE
51074,2019092904,20190929040830,home,70.75,23.14,3.94,0.81,0.4,45.67,10.41,2540928,Darren Fells,87,2019,38,2,15:00:00,HST,1,10,CAR,0,3,2543743,SINGLEBACK,"1 RB, 1 TE, 3 WR",7,"3 DL, 3 LB, 5 DB",right,2019-09-29T17:34:39.000Z,2019-09-29T17:34:38.000Z,6-7,270,04/22/1986,California-Irvine,TE,HOU,CAR,4,NRG Stadium,"Houston, TX",Retractable Roof,Artificial,Mostly Cloudy,89.0,61,6mph,SE
51075,2019092904,20190929040830,home,65.99,26.3,4.17,1.69,0.38,55.08,44.91,2543743,Carlos Hyde,23,2019,38,2,15:00:00,HST,1,10,CAR,0,3,2543743,SINGLEBACK,"1 RB, 1 TE, 3 WR",7,"3 DL, 3 LB, 5 DB",right,2019-09-29T17:34:39.000Z,2019-09-29T17:34:38.000Z,6-0,229,09/20/1990,Ohio State,RB,HOU,CAR,4,NRG Stadium,"Houston, TX",Retractable Roof,Artificial,Mostly Cloudy,89.0,61,6mph,SE
51076,2019092904,20190929040830,home,74.12,25.36,3.79,2.37,0.38,73.15,65.65,2553560,Greg Mancz,65,2019,38,2,15:00:00,HST,1,10,CAR,0,3,2543743,SINGLEBACK,"1 RB, 1 TE, 3 WR",7,"3 DL, 3 LB, 5 DB",right,2019-09-29T17:34:39.000Z,2019-09-29T17:34:38.000Z,6-4,310,04/23/1992,Toledo,C,HOU,CAR,4,NRG Stadium,"Houston, TX",Retractable Roof,Artificial,Mostly Cloudy,89.0,61,6mph,SE
51077,2019092904,20190929040830,home,69.28,27.27,3.51,1.01,0.39,42.62,336.4,2555189,Nick Martin,66,2019,38,2,15:00:00,HST,1,10,CAR,0,3,2543743,SINGLEBACK,"1 RB, 1 TE, 3 WR",7,"3 DL, 3 LB, 5 DB",right,2019-09-29T17:34:39.000Z,2019-09-29T17:34:38.000Z,6-4,300,04/29/1993,Notre Dame,C,HOU,CAR,4,NRG Stadium,"Houston, TX",Retractable Roof,Artificial,Mostly Cloudy,89.0,61,6mph,SE
51078,2019092904,20190929040830,home,70.1,31.13,3.45,0.99,0.37,68.69,345.89,2555201,Laremy Tunsil,78,2019,38,2,15:00:00,HST,1,10,CAR,0,3,2543743,SINGLEBACK,"1 RB, 1 TE, 3 WR",7,"3 DL, 3 LB, 5 DB",right,2019-09-29T17:34:39.000Z,2019-09-29T17:34:38.000Z,6-5,313,08/02/1994,Mississippi,T,HOU,CAR,4,NRG Stadium,"Houston, TX",Retractable Roof,Artificial,Mostly Cloudy,89.0,61,6mph,SE
51079,2019092904,20190929040830,home,72.83,16.13,3.06,1.59,0.31,103.93,68.89,2555346,Will Fuller,15,2019,38,2,15:00:00,HST,1,10,CAR,0,3,2543743,SINGLEBACK,"1 RB, 1 TE, 3 WR",7,"3 DL, 3 LB, 5 DB",right,2019-09-29T17:34:39.000Z,2019-09-29T17:34:38.000Z,6-0,184,04/16/1994,Notre Dame,WR,HOU,CAR,4,NRG Stadium,"Houston, TX",Retractable Roof,Artificial,Mostly Cloudy,89.0,61,6mph,SE
51080,2019092904,20190929040830,home,66.39,25.8,4.49,3.21,0.45,247.59,278.95,2558063,Deshaun Watson,4,2019,38,2,15:00:00,HST,1,10,CAR,0,3,2543743,SINGLEBACK,"1 RB, 1 TE, 3 WR",7,"3 DL, 3 LB, 5 DB",right,2019-09-29T17:34:39.000Z,2019-09-29T17:34:38.000Z,6-2,221,09/14/1995,Clemson,QB,HOU,CAR,4,NRG Stadium,"Houston, TX",Retractable Roof,Artificial,Mostly Cloudy,89.0,61,6mph,SE
51081,2019092904,20190929040830,home,67.36,17.23,7.21,2.9,0.73,140.35,187.3,2561029,Keke Coutee,16,2019,38,2,15:00:00,HST,1,10,CAR,0,3,2543743,SINGLEBACK,"1 RB, 1 TE, 3 WR",7,"3 DL, 3 LB, 5 DB",right,2019-09-29T17:34:39.000Z,2019-09-29T17:34:38.000Z,5-11,180,01/14/1997,Texas Tech,WR,HOU,CAR,4,NRG Stadium,"Houston, TX",Retractable Roof,Artificial,Mostly Cloudy,89.0,61,6mph,SE
51082,2019092904,20190929040830,home,70.5,24.84,3.93,1.21,0.43,322.36,348.05,2562286,Tytus Howard,71,2019,38,2,15:00:00,HST,1,10,CAR,0,3,2543743,SINGLEBACK,"1 RB, 1 TE, 3 WR",7,"3 DL, 3 LB, 5 DB",right,2019-09-29T17:34:39.000Z,2019-09-29T17:34:38.000Z,6-5,322,05/23/1996,Alabama State,T,HOU,CAR,4,NRG Stadium,"Houston, TX",Retractable Roof,Artificial,Mostly Cloudy,89.0,61,6mph,SE
51083,2019092904,20190929040830,home,70.71,29.26,4.08,1.39,0.44,12.05,345.03,2562726,Max Scharping,74,2019,38,2,15:00:00,HST,1,10,CAR,0,3,2543743,SINGLEBACK,"1 RB, 1 TE, 3 WR",7,"3 DL, 3 LB, 5 DB",right,2019-09-29T17:34:39.000Z,2019-09-29T17:34:38.000Z,6-6,325,08/10/1996,Northern Illinois,T,HOU,CAR,4,NRG Stadium,"Houston, TX",Retractable Roof,Artificial,Mostly Cloudy,89.0,61,6mph,SE
