,GameId,PlayId,Team,X,Y,S,A,Dis,Orientation,Dir,NflId,DisplayName,JerseyNumber,Season,YardLine,Quarter,GameClock,PossessionTeam,Down,Distance,FieldPosition,HomeScoreBeforePlay,VisitorScoreBeforePlay,NflIdRusher,OffenseFormation,OffensePersonnel,DefendersInTheBox,DefensePersonnel,PlayDirection,TimeHandoff,TimeSnap,PlayerHeight,PlayerWeight,PlayerBirthDate,PlayerCollegeName,Position,HomeTeamAbbr,VisitorTeamAbbr,Week,Stadium,Location,StadiumType,Turf,GameWeather,Temperature,Humidity,WindSpeed,WindDirection
20944,2019091505,20190915050370,away,11.36,21.03,2.53,3.51,0.24,304.98,336.88,4487,Matthew Slater,18,2019,1,1,07:49:00,NE,2,1,MIA,0,0,2560809,JUMBO,"2 RB, 2 TE, 1 WR",8,"5 DL, 4 LB, 2 DB",left,2019-09-15T17:12:52.000Z,2019-09-15T17:12:50.000Z,6-0,205,09/09/1985,UCLA,WR,MIA,NE,2,Hard Rock Stadium,"Miami Gardens, FL",Outdoor,Natural Grass,Mostly Cloudy,87.0,67,4,S
20945,2019091505,20190915050370,away,10.71,27.25,0.82,0.24,0.09,248.6,176.12,497030,Marshall Newhouse,72,2019,1,1,07:49:00,NE,2,1,MIA,0,0,2560809,JUMBO,"2 RB, 2 TE, 1 WR",8,"5 DL, 4 LB, 2 DB",left,2019-09-15T17:12:52.000Z,2019-09-15T17:12:50.000Z,6-4,328,09/29/1988,Texas Christian,T,MIA,NE,2,Hard Rock Stadium,"Miami Gardens, FL",Outdoor,Natural Grass,Mostly Cloudy,87.0,67,4,S
20946,2019091505,20190915050370,away,13.49,25.13,2.79,1.18,0.27,168.98,94.52,2504211,Tom Brady,12,2019,1,1,07:49:00,NE,2,1,MIA,0,0,2560809,JUMBO,"2 RB, 2 TE, 1 WR",8,"5 DL, 4 LB, 2 DB",left,2019-09-15T17:12:52.000Z,2019-09-15T17:12:50.000Z,6-4,225,08/03/1977,Michigan,QB,MIA,NE,2,Hard Rock Stadium,"Miami Gardens, FL",Outdoor,Natural Grass,Mostly Cloudy,87.0,67,4,S
20947,2019091505,20190915050370,away,12.61,24.09,3.39,1.08,0.33,273.5,242.42,2508101,James Develin,46,2019,1,1,07:49:00,NE,2,1,MIA,0,0,2560809,JUMBO,"2 RB, 2 TE, 1 WR",8,"5 DL, 4 LB, 2 DB",left,2019-09-15T17:12:52.000Z,2019-09-15T17:12:50.000Z,6-3,255,07/23/1988,Brown,FB,MIA,NE,2,Hard Rock Stadium,"Miami Gardens, FL",Outdoor,Natural Grass,Mostly Cloudy,87.0,67,4,S
20948,2019091505,20190915050370,away,9.77,25.69,1.7,0.24,0.17,197.49,240.13,2552563,Shaq Mason,69,2019,1,1,07:49:00,NE,2,1,MIA,0,0,2560809,JUMBO,"2 RB, 2 TE, 1 WR",8,"5 DL, 4 LB, 2 DB",left,2019-09-15T17:12:52.000Z,2019-09-15T17:12:50.000Z,6-1,310,08/28/1993,Georgia Tech,G,MIA,NE,2,Hard Rock Stadium,"Miami Gardens, FL",Outdoor,Natural Grass,Mostly Cloudy,87.0,67,4,S
20949,2019091505,20190915050370,away,10.73,22.66,2.09,0.65,0.21,304.4,358.54,2553667,Matt LaCosse,83,2019,1,1,07:49:00,NE,2,1,MIA,0,0,2560809,JUMBO,"2 RB, 2 TE, 1 WR",8,"5 DL, 4 LB, 2 DB",left,2019-09-15T17:12:52.000Z,2019-09-15T17:12:50.000Z,6-6,255,09/21/1992,Illinois,TE,MIA,NE,2,Hard Rock Stadium,"Miami Gardens, FL",Outdoor,Natural Grass,Mostly Cloudy,87.0,67,4,S
20950,2019091505,20190915050370,away,9.81,25.11,1.03,0.13,0.12,254.78,251.38,2555145,Ted Karras,75,2019,1,1,07:49:00,NE,2,1,MIA,0,0,2560809,JUMBO,"2 RB, 2 TE, 1 WR",8,"5 DL, 4 LB, 2 DB",left,2019-09-15T17:12:52.000Z,2019-09-15T17:12:50.000Z,6-4,305,03/15/1993,Illinois,C,MIA,NE,2,Hard Rock Stadium,"Miami Gardens, FL",Outdoor,Natural Grass,Mostly Cloudy,87.0,67,4,S
20951,2019091505,20190915050370,away,10.69,25.36,1.83,0.24,0.21,280.27,359.57,2555281,Joe Thuney,62,2019,1,1,07:49:00,NE,2,1,MIA,0,0,2560809,JUMBO,"2 RB, 2 TE, 1 WR",8,"5 DL, 4 LB, 2 DB",left,2019-09-15T17:12:52.000Z,2019-09-15T17:12:50.000Z,6-5,308,11/18/1992,North Carolina State,G,MIA,NE,2,Hard Rock Stadium,"Miami Gardens, FL",Outdoor,Natural Grass,Mostly Cloudy,87.0,67,4,S
20952,2019091505,20190915050370,away,11.23,28.25,1.63,0.56,0.16,267.32,153.53,2560751,Ryan Izzo,85,2019,1,1,07:49:00,NE,2,1,MIA,0,0,2560809,JUMBO,"2 RB, 2 TE, 1 WR",8,"5 DL, 4 LB, 2 DB",left,2019-09-15T17:12:52.000Z,2019-09-15T17:12:50.000Z,6-5,255,12/21/1995,Florida State,TE,MIA,NE,2,Hard Rock Stadium,"Miami Gardens, FL",Outdoor,Natural Grass,Mostly Cloudy,87.0,67,4,S
20953,2019091505,20190915050370,away,14.24,24.53,4.68,2.09,0.46,258.79,255.4,2560809,Sony Michel,26,2019,1,1,07:49:00,NE,2,1,MIA,0,0,2560809,JUMBO,"2 RB, 2 TE, 1 WR",8,"5 DL, 4 LB, 2 DB",left,2019-09-15T17:12:52.000Z,2019-09-15T17:12:50.000Z,5-11,215,02/17/1995,Georgia,RB,MIA,NE,2,Hard Rock Stadium,"Miami Gardens, FL",Outdoor,Natural Grass,Mostly Cloudy,87.0,67,4,S
20954,2019091505,20190915050370,away,10.24,23.97,2.1,0.8,0.21,304.23,337.13,2560945,Isaiah Wynn,76,2019,1,1,07:49:00,NE,2,1,MIA,0,0,2560809,JUMBO,"2 RB, 2 TE, 1 WR",8,"5 DL, 4 LB, 2 DB",left,2019-09-15T17:12:52.000Z,2019-09-15T17:12:50.000Z,6-2,310,12/09/1995,Georgia,T,MIA,NE,2,Hard Rock Stadium,"Miami Gardens, FL",Outdoor,Natural Grass,Mostly Cloudy,87.0,67,4,S
20955,2019091505,20190915050370,home,9.94,24.78,1.92,0.5,0.19,114.78,10.5,2539224,Tank Carradine,92,2019,1,1,07:49:00,NE,2,1,MIA,0,0,2560809,JUMBO,"2 RB, 2 TE, 1 WR",8,"5 DL, 4 LB, 2 DB",left,2019-09-15T17:12:52.000Z,2019-09-15T17:12:50.000Z,6-4,270,02/18/1990,Florida State,DE,MIA,NE,2,Hard Rock Stadium,"Miami Gardens, FL",Outdoor,Natural Grass,Mostly Cloudy,87.0,67,4,S
20956,2019091505,20190915050370,home,9.25,25.6,1.03,0.44,0.1,90.1,256.37,2539231,John Jenkins,95,2019,1,1,07:49:00,NE,2,1,MIA,0,0,2560809,JUMBO,"2 RB, 2 TE, 1 WR",8,"5 DL, 4 LB, 2 DB",left,2019-09-15T17:12:52.000Z,2019-09-15T17:12:50.000Z,6-3,327,07/11/1989,Georgia,NT,MIA,NE,2,Hard Rock Stadium,"Miami Gardens, FL",Outdoor,Natural Grass,Mostly Cloudy,87.0,67,4,S
20957,2019091505,20190915050370,home,10.14,18.94,3.64,2.71,0.35,66.65,18.47,2543724,Walt Aikens,35,2019,1,1,07:49:00,NE,2,1,MIA,0,0,2560809,JUMBO,"2 RB, 2 TE, 1 WR",8,"5 DL, 4 LB, 2 DB",left,2019-09-15T17:12:52.000Z,2019-09-15T17:12:50.000Z,6-1,200,06/19/1991,Liberty,CB,MIA,NE,2,Hard Rock Stadium,"Miami Gardens, FL",Outdoor,Natural Grass,Mostly Cloudy,87.0,67,4,S
20958,2019091505,20190915050370,home,10.35,21.27,4.03,1.96,0.4,44.65,42.62,2552255,Eric Rowe,21,2019,1,1,07:49:00,NE,2,1,MIA,0,0,2560809,JUMBO,"2 RB, 2 TE, 1 WR",8,"5 DL, 4 LB, 2 DB",left,2019-09-15T17:12:52.000Z,2019-09-15T17:12:50.000Z,6-1,205,10/03/1992,Utah,CB,MIA,NE,2,Hard Rock Stadium,"Miami Gardens, FL",Outdoor,Natural Grass,Mostly Cloudy,87.0,67,4,S
20959,2019091505,20190915050370,home,10.2,22.72,1.67,0.21,0.17,83.68,29.46,2558001,Charles Harris,90,2019,1,1,07:49:00,NE,2,1,MIA,0,0,2560809,JUMBO,"2 RB, 2 TE, 1 WR",8,"5 DL, 4 LB, 2 DB",left,2019-09-15T17:12:52.000Z,2019-09-15T17:12:50.000Z,6-3,250,03/06/1995,Missouri,DE,MIA,NE,2,Hard Rock Stadium,"Miami Gardens, FL",Outdoor,Natural Grass,Mostly Cloudy,87.0,67,4,S
20960,2019091505,20190915050370,home,9.84,24.79,0.14,0.49,0.02,351.8,135.65,2558012,Davon Godchaux,56,2019,1,1,07:49:00,NE,2,1,MIA,0,0,2560809,JUMBO,"2 RB, 2 TE, 1 WR",8,"5 DL, 4 LB, 2 DB",left,2019-09-15T17:12:52.000Z,2019-09-15T17:12:50.000Z,6-3,311,11/11/1994,Louisiana State,DT,MIA,NE,2,Hard Rock Stadium,"Miami Gardens, FL",Outdoor,Natural Grass,Mostly Cloudy,87.0,67,4,S
20961,2019091505,20190915050370,home,10.5,28.43,1.81,0.44,0.18,98.94,140.34,2558031,Avery Moss,93,2019,1,1,07:49:00,NE,2,1,MIA,0,0,2560809,JUMBO,"2 RB, 2 TE, 1 WR",8,"5 DL, 4 LB, 2 DB",left,2019-09-15T17:12:52.000Z,2019-09-15T17:12:50.000Z,6-3,271,09/16/1994,Youngstown State,OLB,MIA,NE,2,Hard Rock Stadium,"Miami Gardens, FL",Outdoor,Natural Grass,Mostly Cloudy,87.0,67,4,S
20962,2019091505,20190915050370,home,8.09,25.21,2.78,1.38,0.27,94.51,140.3,2558070,Raekwon McMillan,52,2019,1,1,07:49:00,NE,2,1,MIA,0,0,2560809,JUMBO,"2 RB, 2 TE, 1 WR",8,"5 DL, 4 LB, 2 DB",left,2019-09-15T17:12:52.000Z,2019-09-15T17:12:50.000Z,6-2,242,11/17/1995,Ohio State,LB,MIA,NE,2,Hard Rock Stadium,"Miami Gardens, FL",Outdoor,Natural Grass,Mostly Cloudy,87.0,67,4,S
20963,2019091505,20190915050370,home,5.94,22.98,3.71,3.05,0.35,84.74,90.12,2560966,Jerome Baker,55,2019,1,1,07:49:00,NE,2,1,MIA,0,0,2560809,JUMBO,"2 RB, 2 TE, 1 WR",8,"5 DL, 4 LB, 2 DB",left,2019-09-15T17:12:52.000Z,2019-09-15T17:12:50.000Z,6-2,225,12/25/1996,Ohio State,LB,MIA,NE,2,Hard Rock Stadium,"Miami Gardens, FL",Outdoor,Natural Grass,Mostly Cloudy,87.0,67,4,S
20964,2019091505,20190915050370,home,10.6,30.53,3.72,2.14,0.36,148.78,129.27,2562038,Sam Eguavoen,49,2019,1,1,07:49:00,NE,2,1,MIA,0,0,2560809,JUMBO,"2 RB, 2 TE, 1 WR",8,"5 DL, 4 LB, 2 DB",left,2019-09-15T17:12:52.000Z,2019-09-15T17:12:50.000Z,6-0,236,02/22/1993,Texas Tech,LB,MIA,NE,2,Hard Rock Stadium,"Miami Gardens, FL",Outdoor,Natural Grass,Mostly Cloudy,87.0,67,4,S
20965,2019091505,20190915050370,home,10.08,27.14,1.23,0.47,0.14,279.54,165.64,2562782,Christian Wilkins,94,2019,1,1,07:49:00,NE,2,1,MIA,0,0,2560809,JUMBO,"2 RB, 2 TE, 1 WR",8,"5 DL, 4 LB, 2 DB",left,2019-09-15T17:12:52.000Z,2019-09-15T17:12:50.000Z,6-4,315,12/20/1995,Clemson,DT,MIA,NE,2,Hard Rock Stadium,"Miami Gardens, FL",Outdoor,Natural Grass,Mostly Cloudy,87.0,67,4,S
