,GameId,PlayId,Team,X,Y,S,A,Dis,Orientation,Dir,NflId,DisplayName,JerseyNumber,Season,YardLine,Quarter,GameClock,PossessionTeam,Down,Distance,FieldPosition,HomeScoreBeforePlay,VisitorScoreBeforePlay,NflIdRusher,OffenseFormation,OffensePersonnel,DefendersInTheBox,DefensePersonnel,PlayDirection,TimeHandoff,TimeSnap,PlayerHeight,PlayerWeight,PlayerBirthDate,PlayerCollegeName,Position,HomeTeamAbbr,VisitorTeamAbbr,Week,Stadium,Location,StadiumType,Turf,GameWeather,Temperature,Humidity,WindSpeed,WindDirection
64372,2019100602,20191006022310,away,92.57,33.1,4.12,1.11,0.45,225.44,184.43,2495116,Allen Bailey,93,2019,18,3,13:33:00,HST,1,10,ATL,16,17,2552461,SINGLEBACK,"1 RB, 1 TE, 3 WR",6,"3 DL, 3 LB, 5 DB",right,2019-10-06T18:41:35.000Z,2019-10-06T18:41:34.000Z,6-3,288,03/25/1989,Miami,DE,HOU,ATL,5,NRG Stadium,"Houston, Texas",Retractable Roof,Artificial,Partly Cloudy,86.0,63,4,E
64373,2019100602,20191006022310,away,98.15,11.31,2.31,4.26,0.22,286.32,307.9,2539334,Desmond Trufant,21,2019,18,3,13:33:00,HST,1,10,ATL,16,17,2552461,SINGLEBACK,"1 RB, 1 TE, 3 WR",6,"3 DL, 3 LB, 5 DB",right,2019-10-06T18:41:35.000Z,2019-10-06T18:41:34.000Z,6-0,190,09/10/1990,Washington,CB,HOU,ATL,5,NRG Stadium,"Houston, Texas",Retractable Roof,Artificial,Partly Cloudy,86.0,63,4,E
64374,2019100602,20191006022310,away,103.17,37.04,3.47,1.77,0.35,253.81,92.8,2541431,Kemal Ishmael,36,2019,18,3,13:33:00,HST,1,10,ATL,16,17,2552461,SINGLEBACK,"1 RB, 1 TE, 3 WR",6,"3 DL, 3 LB, 5 DB",right,2019-10-06T18:41:35.000Z,2019-10-06T18:41:34.000Z,6-0,206,05/06/1991,Central Florida,FS,HOU,ATL,5,NRG Stadium,"Houston, Texas",Retractable Roof,Artificial,Partly Cloudy,86.0,63,4,E
64375,2019100602,20191006022310,away,103.04,18.9,2.29,1.52,0.22,269.85,115.59,2543850,Ricardo Allen,37,2019,18,3,13:33:00,HST,1,10,ATL,16,17,2552461,SINGLEBACK,"1 RB, 1 TE, 3 WR",6,"3 DL, 3 LB, 5 DB",right,2019-10-06T18:41:35.000Z,2019-10-06T18:41:34.000Z,5-9,186,12/18/1991,Purdue,SS,HOU,ATL,5,NRG Stadium,"Houston, Texas",Retractable Roof,Artificial,Partly Cloudy,86.0,63,4,E
64376,2019100602,20191006022310,away,91.18,23.83,3.07,3.12,0.3,277.42,217.66,2552301,Vic Beasley,44,2019,18,3,13:33:00,HST,1,10,ATL,16,17,2552461,SINGLEBACK,"1 RB, 1 TE, 3 WR",6,"3 DL, 3 LB, 5 DB",right,2019-10-06T18:41:35.000Z,2019-10-06T18:41:34.000Z,6-3,246,07/08/1992,Clemson,OLB,HOU,ATL,5,NRG Stadium,"Houston, Texas",Retractable Roof,Artificial,Partly Cloudy,86.0,63,4,E
64377,2019100602,20191006022310,away,92.7,28.7,3.85,1.25,0.39,266.37,172.31,2552327,Grady Jarrett,97,2019,18,3,13:33:00,HST,1,10,ATL,16,17,2552461,SINGLEBACK,"1 RB, 1 TE, 3 WR",6,"3 DL, 3 LB, 5 DB",right,2019-10-06T18:41:35.000Z,2019-10-06T18:41:34.000Z,6-0,305,04/28/1993,Clemson,DT,HOU,ATL,5,NRG Stadium,"Houston, Texas",Retractable Roof,Artificial,Partly Cloudy,86.0,63,4,E
64378,2019100602,20191006022310,away,92.14,27.24,2.95,2.52,0.3,248.92,181.34,2552329,Tyeler Davison,96,2019,18,3,13:33:00,HST,1,10,ATL,16,17,2552461,SINGLEBACK,"1 RB, 1 TE, 3 WR",6,"3 DL, 3 LB, 5 DB",right,2019-10-06T18:41:35.000Z,2019-10-06T18:41:34.000Z,6-2,309,09/03/1992,Fresno State,DT,HOU,ATL,5,NRG Stadium,"Houston, Texas",Retractable Roof,Artificial,Partly Cloudy,86.0,63,4,E
64379,2019100602,20191006022310,away,96.99,24.48,4.38,4.57,0.41,225.01,192.39,2555162,Deion Jones,45,2019,18,3,13:33:00,HST,1,10,ATL,16,17,2552461,SINGLEBACK,"1 RB, 1 TE, 3 WR",6,"3 DL, 3 LB, 5 DB",right,2019-10-06T18:41:35.000Z,2019-10-06T18:41:34.000Z,6-1,227,11/04/1994,Louisiana State,MLB,HOU,ATL,5,NRG Stadium,"Houston, Texas",Retractable Roof,Artificial,Partly Cloudy,86.0,63,4,E
64380,2019100602,20191006022310,away,95.38,27.98,5.55,1.51,0.55,238.49,209.62,2555255,De'Vondre Campbell,59,2019,18,3,13:33:00,HST,1,10,ATL,16,17,2552461,SINGLEBACK,"1 RB, 1 TE, 3 WR",6,"3 DL, 3 LB, 5 DB",right,2019-10-06T18:41:35.000Z,2019-10-06T18:41:34.000Z,6-3,232,07/01/1993,Minnesota,OLB,HOU,ATL,5,NRG Stadium,"Houston, Texas",Retractable Roof,Artificial,Partly Cloudy,86.0,63,4,E
64381,2019100602,20191006022310,away,93.57,19.85,0.96,2.55,0.08,255.05,95.91,2558184,Damontae Kazee,27,2019,18,3,13:33:00,HST,1,10,ATL,16,17,2552461,SINGLEBACK,"1 RB, 1 TE, 3 WR",6,"3 DL, 3 LB, 5 DB",right,2019-10-06T18:41:35.000Z,2019-10-06T18:41:34.000Z,5-11,190,06/05/1993,San Diego State,SS,HOU,ATL,5,NRG Stadium,"Houston, Texas",Retractable Roof,Artificial,Partly Cloudy,86.0,63,4,E
64382,2019100602,20191006022310,away,94.11,46.8,1.96,2.53,0.19,201.96,51.25,2560830,Isaiah Oliver,26,2019,18,3,13:33:00,HST,1,10,ATL,16,17,2552461,SINGLEBACK,"1 RB, 1 TE, 3 WR",6,"3 DL, 3 LB, 5 DB",right,2019-10-06T18:41:35.000Z,2019-10-06T18:41:34.000Z,6-0,210,09/30/1996,Colorado,CB,HOU,ATL,5,NRG Stadium,"Houston, Texas",Retractable Roof,Artificial,Partly Cloudy,86.0,63,4,E
64383,2019100602,20191006022310,home,91.25,10.5,1.5,2.88,0.14,56.5,96.02,2540165,DeAndre Hopkins,10,2019,18,3,13:33:00,HST,1,10,ATL,16,17,2552461,SINGLEBACK,"1 RB, 1 TE, 3 WR",6,"3 DL, 3 LB, 5 DB",right,2019-10-06T18:41:35.000Z,2019-10-06T18:41:34.000Z,6-1,212,06/06/1992,Clemson,WR,HOU,ATL,5,NRG Stadium,"Houston, Texas",Retractable Roof,Artificial,Partly Cloudy,86.0,63,4,E
64384,2019100602,20191006022310,home,92.41,25.57,4.39,0.88,0.45,131.79,154.99,2543862,Zach Fulton,73,2019,18,3,13:33:00,HST,1,10,ATL,16,17,2552461,SINGLEBACK,"1 RB, 1 TE, 3 WR",6,"3 DL, 3 LB, 5 DB",right,2019-10-06T18:41:35.000Z,2019-10-06T18:41:34.000Z,6-5,321,09/23/1991,Tennessee,G,HOU,ATL,5,NRG Stadium,"Houston, Texas",Retractable Roof,Artificial,Partly Cloudy,86.0,63,4,E
64385,2019100602,20191006022310,home,85.83,27.3,5.56,3.37,0.54,152.62,151.05,2552461,Duke Johnson,25,2019,18,3,13:33:00,HST,1,10,ATL,16,17,2552461,SINGLEBACK,"1 RB, 1 TE, 3 WR",6,"3 DL, 3 LB, 5 DB",right,2019-10-06T18:41:35.000Z,2019-10-06T18:41:34.000Z,5-9,210,09/23/1993,Miami,RB,HOU,ATL,5,NRG Stadium,"Houston, Texas",Retractable Roof,Artificial,Partly Cloudy,86.0,63,4,E
64386,2019100602,20191006022310,home,91.28,27.02,2.88,1.08,0.29,101.78,177.02,2555189,Nick Martin,66,2019,18,3,13:33:00,HST,1,10,ATL,16,17,2552461,SINGLEBACK,"1 RB, 1 TE, 3 WR",6,"3 DL, 3 LB, 5 DB",right,2019-10-06T18:41:35.000Z,2019-10-06T18:41:34.000Z,6-4,300,04/29/1993,Notre Dame,C,HOU,ATL,5,NRG Stadium,"Houston, Texas",Retractable Roof,Artificial,Partly Cloudy,86.0,63,4,E
64387,2019100602,20191006022310,home,91.52,29.45,4.24,1.04,0.43,134.54,162.21,2555201,Laremy Tunsil,78,2019,18,3,13:33:00,HST,1,10,ATL,16,17,2552461,SINGLEBACK,"1 RB, 1 TE, 3 WR",6,"3 DL, 3 LB, 5 DB",right,2019-10-06T18:41:35.000Z,2019-10-06T18:41:34.000Z,6-5,313,08/02/1994,Mississippi,T,HOU,ATL,5,NRG Stadium,"Houston, Texas",Retractable Roof,Artificial,Partly Cloudy,86.0,63,4,E
64388,2019100602,20191006022310,home,93.19,46.23,2.98,1.1,0.29,79.98,86.08,2555346,Will Fuller,15,2019,18,3,13:33:00,HST,1,10,ATL,16,17,2552461,SINGLEBACK,"1 RB, 1 TE, 3 WR",6,"3 DL, 3 LB, 5 DB",right,2019-10-06T18:41:35.000Z,2019-10-06T18:41:34.000Z,6-0,184,04/16/1994,Notre Dame,WR,HOU,ATL,5,NRG Stadium,"Houston, Texas",Retractable Roof,Artificial,Partly Cloudy,86.0,63,4,E
64389,2019100602,20191006022310,home,87.36,27.73,4.57,2.4,0.46,247.85,245.49,2558063,Deshaun Watson,4,2019,18,3,13:33:00,HST,1,10,ATL,16,17,2552461,SINGLEBACK,"1 RB, 1 TE, 3 WR",6,"3 DL, 3 LB, 5 DB",right,2019-10-06T18:41:35.000Z,2019-10-06T18:41:34.000Z,6-2,221,09/14/1995,Clemson,QB,HOU,ATL,5,NRG Stadium,"Houston, Texas",Retractable Roof,Artificial,Partly Cloudy,86.0,63,4,E
64390,2019100602,20191006022310,home,90.83,32.29,3.9,1.58,0.38,104.99,163.39,2560951,Jordan Akins,88,2019,18,3,13:33:00,HST,1,10,ATL,16,17,2552461,SINGLEBACK,"1 RB, 1 TE, 3 WR",6,"3 DL, 3 LB, 5 DB",right,2019-10-06T18:41:35.000Z,2019-10-06T18:41:34.000Z,6-4,243,04/19/1992,Central Florida,TE,HOU,ATL,5,NRG Stadium,"Houston, Texas",Retractable Roof,Artificial,Partly Cloudy,86.0,63,4,E
64391,2019100602,20191006022310,home,91.94,18.86,2.75,1.23,0.27,77.24,105.55,2561029,Keke Coutee,16,2019,18,3,13:33:00,HST,1,10,ATL,16,17,2552461,SINGLEBACK,"1 RB, 1 TE, 3 WR",6,"3 DL, 3 LB, 5 DB",right,2019-10-06T18:41:35.000Z,2019-10-06T18:41:34.000Z,5-11,180,01/14/1997,Texas Tech,WR,HOU,ATL,5,NRG Stadium,"Houston, Texas",Retractable Roof,Artificial,Partly Cloudy,86.0,63,4,E
64392,2019100602,20191006022310,home,90.37,24.64,4.06,0.53,0.41,133.11,187.71,2562286,Tytus Howard,71,2019,18,3,13:33:00,HST,1,10,ATL,16,17,2552461,SINGLEBACK,"1 RB, 1 TE, 3 WR",6,"3 DL, 3 LB, 5 DB",right,2019-10-06T18:41:35.000Z,2019-10-06T18:41:34.000Z,6-5,322,05/23/1996,Alabama State,T,HOU,ATL,5,NRG Stadium,"Houston, Texas",Retractable Roof,Artificial,Partly Cloudy,86.0,63,4,E
64393,2019100602,20191006022310,home,92.05,28.77,3.28,0.8,0.35,121.29,165.69,2562726,Max Scharping,74,2019,18,3,13:33:00,HST,1,10,ATL,16,17,2552461,SINGLEBACK,"1 RB, 1 TE, 3 WR",6,"3 DL, 3 LB, 5 DB",right,2019-10-06T18:41:35.000Z,2019-10-06T18:41:34.000Z,6-6,325,08/10/1996,Northern Illinois,T,HOU,ATL,5,NRG Stadium,"Houston, Texas",Retractable Roof,Artificial,Partly Cloudy,86.0,63,4,E
