,GameId,PlayId,Team,X,Y,S,A,Dis,Orientation,Dir,NflId,DisplayName,JerseyNumber,Season,YardLine,Quarter,GameClock,PossessionTeam,Down,Distance,FieldPosition,HomeScoreBeforePlay,VisitorScoreBeforePlay,NflIdRusher,OffenseFormation,OffensePersonnel,DefendersInTheBox,DefensePersonnel,PlayDirection,TimeHandoff,TimeSnap,PlayerHeight,PlayerWeight,PlayerBirthDate,PlayerCollegeName,Position,HomeTeamAbbr,VisitorTeamAbbr,Week,Stadium,Location,StadiumType,Turf,GameWeather,Temperature,Humidity,WindSpeed,WindDirection
15114,2019091200,20190912001022,away,73.27,30.09,4.4,3.66,0.42,33.82,29.83,2532828,Lavonte David,54,2019,34,2,14:13:00,CAR,2,10,CAR,3,3,2557997,SHOTGUN,"1 RB, 1 TE, 3 WR",6,"2 DL, 4 LB, 5 DB",left,2019-09-13T01:31:20.000Z,2019-09-13T01:31:19.000Z,6-1,233,01/23/1990,Nebraska,OLB,CAR,TB,2,Bank of America Stadium,"Charlotte, North Carolina",Outdoors,Natural Grass,Cloudy,85.0,55,3,ENE
15115,2019091200,20190912001022,away,73.7,26.66,3.96,2.96,0.38,48.11,18.94,2540159,Kevin Minter,51,2019,34,2,14:13:00,CAR,2,10,CAR,3,3,2557997,SHOTGUN,"1 RB, 1 TE, 3 WR",6,"2 DL, 4 LB, 5 DB",left,2019-09-13T01:31:20.000Z,2019-09-13T01:31:19.000Z,6-0,246,12/03/1990,Louisiana State,MLB,CAR,TB,2,Bank of America Stadium,"Charlotte, North Carolina",Outdoors,Natural Grass,Cloudy,85.0,55,3,ENE
15116,2019091200,20190912001022,away,76.22,29.74,1.16,0.93,0.12,42.6,46.1,2540176,William Gholston,92,2019,34,2,14:13:00,CAR,2,10,CAR,3,3,2557997,SHOTGUN,"1 RB, 1 TE, 3 WR",6,"2 DL, 4 LB, 5 DB",left,2019-09-13T01:31:20.000Z,2019-09-13T01:31:19.000Z,6-6,281,07/31/1991,Michigan State,DE,CAR,TB,2,Bank of America Stadium,"Charlotte, North Carolina",Outdoors,Natural Grass,Cloudy,85.0,55,3,ENE
15117,2019091200,20190912001022,away,61.31,26.41,0.93,0.4,0.09,105.95,279.9,2540185,Mike Edwards,34,2019,34,2,14:13:00,CAR,2,10,CAR,3,3,2557997,SHOTGUN,"1 RB, 1 TE, 3 WR",6,"2 DL, 4 LB, 5 DB",left,2019-09-13T01:31:20.000Z,2019-09-13T01:31:19.000Z,5-10,200,05/18/1996,Kentucky,FS,CAR,TB,2,Bank of America Stadium,"Charlotte, North Carolina",Outdoors,Natural Grass,Cloudy,85.0,55,3,ENE
15118,2019091200,20190912001022,away,76.03,31.29,1.18,2.09,0.13,119.36,55.92,2555270,Carl Nassib,94,2019,34,2,14:13:00,CAR,2,10,CAR,3,3,2557997,SHOTGUN,"1 RB, 1 TE, 3 WR",6,"2 DL, 4 LB, 5 DB",left,2019-09-13T01:31:20.000Z,2019-09-13T01:31:19.000Z,6-7,275,04/12/1993,Penn State,DE,CAR,TB,2,Bank of America Stadium,"Charlotte, North Carolina",Outdoors,Natural Grass,Cloudy,85.0,55,3,ENE
15119,2019091200,20190912001022,away,67.52,9.89,1.94,3.83,0.18,64.95,284.89,2555299,Vernon Hargreaves III,28,2019,34,2,14:13:00,CAR,2,10,CAR,3,3,2557997,SHOTGUN,"1 RB, 1 TE, 3 WR",6,"2 DL, 4 LB, 5 DB",left,2019-09-13T01:31:20.000Z,2019-09-13T01:31:19.000Z,5-10,204,06/03/1995,Florida,CB,CAR,TB,2,Bank of America Stadium,"Charlotte, North Carolina",Outdoors,Natural Grass,Cloudy,85.0,55,3,ENE
15120,2019091200,20190912001022,away,70.01,18.37,1.28,1.72,0.12,81.28,251.27,2560884,M.J. Stewart,36,2019,34,2,14:13:00,CAR,2,10,CAR,3,3,2557997,SHOTGUN,"1 RB, 1 TE, 3 WR",6,"2 DL, 4 LB, 5 DB",left,2019-09-13T01:31:20.000Z,2019-09-13T01:31:19.000Z,5-11,205,09/16/1995,North Carolina,CB,CAR,TB,2,Bank of America Stadium,"Charlotte, North Carolina",Outdoors,Natural Grass,Cloudy,85.0,55,3,ENE
15121,2019091200,20190912001022,away,76.96,27.94,3.1,1.39,0.32,350.05,36.63,2560909,Vita Vea,50,2019,34,2,14:13:00,CAR,2,10,CAR,3,3,2557997,SHOTGUN,"1 RB, 1 TE, 3 WR",6,"2 DL, 4 LB, 5 DB",left,2019-09-13T01:31:20.000Z,2019-09-13T01:31:19.000Z,6-4,347,02/05/1995,Washington,DT,CAR,TB,2,Bank of America Stadium,"Charlotte, North Carolina",Outdoors,Natural Grass,Cloudy,85.0,55,3,ENE
15122,2019091200,20190912001022,away,72.85,34.18,2.96,4.32,0.28,103.82,47.48,2560930,Jordan Whitehead,31,2019,34,2,14:13:00,CAR,2,10,CAR,3,3,2557997,SHOTGUN,"1 RB, 1 TE, 3 WR",6,"2 DL, 4 LB, 5 DB",left,2019-09-13T01:31:20.000Z,2019-09-13T01:31:19.000Z,5-10,198,03/18/1997,Pittsburgh,DB,CAR,TB,2,Bank of America Stadium,"Charlotte, North Carolina",Outdoors,Natural Grass,Cloudy,85.0,55,3,ENE
15123,2019091200,20190912001022,away,71.09,19.95,6.17,1.31,0.63,139.68,172.69,2561039,Carlton Davis,33,2019,34,2,14:13:00,CAR,2,10,CAR,3,3,2557997,SHOTGUN,"1 RB, 1 TE, 3 WR",6,"2 DL, 4 LB, 5 DB",left,2019-09-13T01:31:20.000Z,2019-09-13T01:31:19.000Z,6-1,206,12/31/1996,Auburn,CB,CAR,TB,2,Bank of America Stadium,"Charlotte, North Carolina",Outdoors,Natural Grass,Cloudy,85.0,55,3,ENE
15124,2019091200,20190912001022,away,77.35,25.51,4.9,2.06,0.48,22.26,30.63,2562507,Anthony Nelson,98,2019,34,2,14:13:00,CAR,2,10,CAR,3,3,2557997,SHOTGUN,"1 RB, 1 TE, 3 WR",6,"2 DL, 4 LB, 5 DB",left,2019-09-13T01:31:20.000Z,2019-09-13T01:31:19.000Z,6-7,272,03/04/1997,Iowa,DL,CAR,TB,2,Bank of America Stadium,"Charlotte, North Carolina",Outdoors,Natural Grass,Cloudy,85.0,55,3,ENE
15125,2019091200,20190912001022,home,81.63,27.39,0.4,0.75,0.04,256.11,267.95,2495455,Cam Newton,1,2019,34,2,14:13:00,CAR,2,10,CAR,3,3,2557997,SHOTGUN,"1 RB, 1 TE, 3 WR",6,"2 DL, 4 LB, 5 DB",left,2019-09-13T01:31:20.000Z,2019-09-13T01:31:19.000Z,6-5,245,05/11/1989,Auburn,QB,CAR,TB,2,Bank of America Stadium,"Charlotte, North Carolina",Outdoors,Natural Grass,Cloudy,85.0,55,3,ENE
15126,2019091200,20190912001022,home,74.95,9.31,4.26,3.67,0.41,302.99,267.55,2532978,Jarius Wright,13,2019,34,2,14:13:00,CAR,2,10,CAR,3,3,2557997,SHOTGUN,"1 RB, 1 TE, 3 WR",6,"2 DL, 4 LB, 5 DB",left,2019-09-13T01:31:20.000Z,2019-09-13T01:31:19.000Z,5-10,191,11/25/1989,Arkansas,WR,CAR,TB,2,Bank of America Stadium,"Charlotte, North Carolina",Outdoors,Natural Grass,Cloudy,85.0,55,3,ENE
15127,2019091200,20190912001022,home,76.63,28.36,3.16,0.77,0.32,268.68,339.43,2538145,Greg Van Roten,73,2019,34,2,14:13:00,CAR,2,10,CAR,3,3,2557997,SHOTGUN,"1 RB, 1 TE, 3 WR",6,"2 DL, 4 LB, 5 DB",left,2019-09-13T01:31:20.000Z,2019-09-13T01:31:19.000Z,6-3,305,02/26/1990,Pennsylvania,G,CAR,TB,2,Bank of America Stadium,"Charlotte, North Carolina",Outdoors,Natural Grass,Cloudy,85.0,55,3,ENE
15128,2019091200,20190912001022,home,78.02,31.23,3.98,1.37,0.42,322.0,15.01,2543606,Trai Turner,70,2019,34,2,14:13:00,CAR,2,10,CAR,3,3,2557997,SHOTGUN,"1 RB, 1 TE, 3 WR",6,"2 DL, 4 LB, 5 DB",left,2019-09-13T01:31:20.000Z,2019-09-13T01:31:19.000Z,6-3,315,06/14/1993,Louisiana State,G,CAR,TB,2,Bank of America Stadium,"Charlotte, North Carolina",Outdoors,Natural Grass,Cloudy,85.0,55,3,ENE
15129,2019091200,20190912001022,home,77.82,29.52,3.85,1.05,0.4,346.81,18.35,2550155,Matt Paradis,61,2019,34,2,14:13:00,CAR,2,10,CAR,3,3,2557997,SHOTGUN,"1 RB, 1 TE, 3 WR",6,"2 DL, 4 LB, 5 DB",left,2019-09-13T01:31:20.000Z,2019-09-13T01:31:19.000Z,6-3,300,10/12/1989,Boise State,C,CAR,TB,2,Bank of America Stadium,"Charlotte, North Carolina",Outdoors,Natural Grass,Cloudy,85.0,55,3,ENE
15130,2019091200,20190912001022,home,78.07,27.4,4.01,0.53,0.42,314.2,12.13,2552357,Daryl Williams,60,2019,34,2,14:13:00,CAR,2,10,CAR,3,3,2557997,SHOTGUN,"1 RB, 1 TE, 3 WR",6,"2 DL, 4 LB, 5 DB",left,2019-09-13T01:31:20.000Z,2019-09-13T01:31:19.000Z,6-6,330,08/31/1992,Oklahoma,T,CAR,TB,2,Bank of America Stadium,"Charlotte, North Carolina",Outdoors,Natural Grass,Cloudy,85.0,55,3,ENE
15131,2019091200,20190912001022,home,76.79,31.29,0.42,1.92,0.06,226.73,6.55,2552622,Chris Manhertz,82,2019,34,2,14:13:00,CAR,2,10,CAR,3,3,2557997,SHOTGUN,"1 RB, 1 TE, 3 WR",6,"2 DL, 4 LB, 5 DB",left,2019-09-13T01:31:20.000Z,2019-09-13T01:31:19.000Z,6-6,255,04/10/1992,Canisius,TE,CAR,TB,2,Bank of America Stadium,"Charlotte, North Carolina",Outdoors,Natural Grass,Cloudy,85.0,55,3,ENE
15132,2019091200,20190912001022,home,77.1,29.7,0.36,1.91,0.04,247.99,0.65,2557871,Taylor Moton,72,2019,34,2,14:13:00,CAR,2,10,CAR,3,3,2557997,SHOTGUN,"1 RB, 1 TE, 3 WR",6,"2 DL, 4 LB, 5 DB",left,2019-09-13T01:31:20.000Z,2019-09-13T01:31:19.000Z,6-5,325,03/18/1994,Western Michigan,T,CAR,TB,2,Bank of America Stadium,"Charlotte, North Carolina",Outdoors,Natural Grass,Cloudy,85.0,55,3,ENE
15133,2019091200,20190912001022,home,80.67,27.41,5.06,3.1,0.5,333.02,349.31,2557997,Christian McCaffrey,22,2019,34,2,14:13:00,CAR,2,10,CAR,3,3,2557997,SHOTGUN,"1 RB, 1 TE, 3 WR",6,"2 DL, 4 LB, 5 DB",left,2019-09-13T01:31:20.000Z,2019-09-13T01:31:19.000Z,5-11,205,06/07/1996,Stanford,RB,CAR,TB,2,Bank of America Stadium,"Charlotte, North Carolina",Outdoors,Natural Grass,Cloudy,85.0,55,3,ENE
15134,2019091200,20190912001022,home,76.52,16.24,3.22,2.33,0.32,299.77,221.36,2558066,Curtis Samuel,10,2019,34,2,14:13:00,CAR,2,10,CAR,3,3,2557997,SHOTGUN,"1 RB, 1 TE, 3 WR",6,"2 DL, 4 LB, 5 DB",left,2019-09-13T01:31:20.000Z,2019-09-13T01:31:19.000Z,5-11,195,08/11/1996,Ohio State,WR,CAR,TB,2,Bank of America Stadium,"Charlotte, North Carolina",Outdoors,Natural Grass,Cloudy,85.0,55,3,ENE
15135,2019091200,20190912001022,home,83.15,14.97,6.57,1.91,0.67,250.3,195.24,2560813,D.J. Moore,12,2019,34,2,14:13:00,CAR,2,10,CAR,3,3,2557997,SHOTGUN,"1 RB, 1 TE, 3 WR",6,"2 DL, 4 LB, 5 DB",left,2019-09-13T01:31:20.000Z,2019-09-13T01:31:19.000Z,6-0,215,04/14/1997,Maryland,WR,CAR,TB,2,Bank of America Stadium,"Charlotte, North Carolina",Outdoors,Natural Grass,Cloudy,85.0,55,3,ENE
