,GameId,PlayId,Team,X,Y,S,A,Dis,Orientation,Dir,NflId,DisplayName,JerseyNumber,Season,YardLine,Quarter,GameClock,PossessionTeam,Down,Distance,FieldPosition,HomeScoreBeforePlay,VisitorScoreBeforePlay,NflIdRusher,OffenseFormation,OffensePersonnel,DefendersInTheBox,DefensePersonnel,PlayDirection,TimeHandoff,TimeSnap,PlayerHeight,PlayerWeight,PlayerBirthDate,PlayerCollegeName,Position,HomeTeamAbbr,VisitorTeamAbbr,Week,Stadium,Location,StadiumType,Turf,GameWeather,Temperature,Humidity,WindSpeed,WindDirection
35398,2019092203,20190922033981,away,73.55,32.15,0.12,1.24,0.02,95.96,84.97,2495116,Allen Bailey,93,2019,37,4,02:41:00,IND,1,10,IND,27,24,2558123,SINGLEBACK,"1 RB, 3 TE, 1 WR",8,"4 DL, 3 LB, 4 DB",left,2019-09-22T19:52:26.000Z,2019-09-22T19:52:25.000Z,6-3,288,03/25/1989,Miami,DE,IND,ATL,3,Lucas Oil Stadium,"Indianapolis, Ind.",Retr. Roof-Closed,Artificial,Sunny,82.0,48,13,SSW
35399,2019092203,20190922033981,away,72.72,28.97,2.01,0.53,0.21,59.76,336.71,2532992,Jack Crawford,95,2019,37,4,02:41:00,IND,1,10,IND,27,24,2558123,SINGLEBACK,"1 RB, 3 TE, 1 WR",8,"4 DL, 3 LB, 4 DB",left,2019-09-22T19:52:26.000Z,2019-09-22T19:52:25.000Z,6-5,288,09/07/1988,Penn State,DE,IND,ATL,3,Lucas Oil Stadium,"Indianapolis, Ind.",Retr. Roof-Closed,Artificial,Sunny,82.0,48,13,SSW
35400,2019092203,20190922033981,away,71.28,40.03,2.97,3.65,0.27,26.36,298.42,2539334,Desmond Trufant,21,2019,37,4,02:41:00,IND,1,10,IND,27,24,2558123,SINGLEBACK,"1 RB, 3 TE, 1 WR",8,"4 DL, 3 LB, 4 DB",left,2019-09-22T19:52:26.000Z,2019-09-22T19:52:25.000Z,6-0,190,09/10/1990,Washington,CB,IND,ATL,3,Lucas Oil Stadium,"Indianapolis, Ind.",Retr. Roof-Closed,Artificial,Sunny,82.0,48,13,SSW
35401,2019092203,20190922033981,away,72.33,35.3,0.61,1.14,0.07,139.33,14.65,2541431,Kemal Ishmael,36,2019,37,4,02:41:00,IND,1,10,IND,27,24,2558123,SINGLEBACK,"1 RB, 3 TE, 1 WR",8,"4 DL, 3 LB, 4 DB",left,2019-09-22T19:52:26.000Z,2019-09-22T19:52:25.000Z,6-0,206,05/06/1991,Central Florida,FS,IND,ATL,3,Lucas Oil Stadium,"Indianapolis, Ind.",Retr. Roof-Closed,Artificial,Sunny,82.0,48,13,SSW
35402,2019092203,20190922033981,away,64.27,29.45,1.96,1.21,0.19,94.92,121.87,2543850,Ricardo Allen,37,2019,37,4,02:41:00,IND,1,10,IND,27,24,2558123,SINGLEBACK,"1 RB, 3 TE, 1 WR",8,"4 DL, 3 LB, 4 DB",left,2019-09-22T19:52:26.000Z,2019-09-22T19:52:25.000Z,5-9,186,12/18/1991,Purdue,SS,IND,ATL,3,Lucas Oil Stadium,"Indianapolis, Ind.",Retr. Roof-Closed,Artificial,Sunny,82.0,48,13,SSW
35403,2019092203,20190922033981,away,74.44,35.63,1.49,1.56,0.15,133.56,134.14,2552301,Vic Beasley,44,2019,37,4,02:41:00,IND,1,10,IND,27,24,2558123,SINGLEBACK,"1 RB, 3 TE, 1 WR",8,"4 DL, 3 LB, 4 DB",left,2019-09-22T19:52:26.000Z,2019-09-22T19:52:25.000Z,6-3,246,07/08/1992,Clemson,OLB,IND,ATL,3,Lucas Oil Stadium,"Indianapolis, Ind.",Retr. Roof-Closed,Artificial,Sunny,82.0,48,13,SSW
35404,2019092203,20190922033981,away,72.83,30.7,1.03,1.72,0.1,116.46,328.92,2552329,Tyeler Davison,96,2019,37,4,02:41:00,IND,1,10,IND,27,24,2558123,SINGLEBACK,"1 RB, 3 TE, 1 WR",8,"4 DL, 3 LB, 4 DB",left,2019-09-22T19:52:26.000Z,2019-09-22T19:52:25.000Z,6-2,309,09/03/1992,Fresno State,DT,IND,ATL,3,Lucas Oil Stadium,"Indianapolis, Ind.",Retr. Roof-Closed,Artificial,Sunny,82.0,48,13,SSW
35405,2019092203,20190922033981,away,72.68,29.6,2.4,3.99,0.25,110.66,61.34,2555162,Deion Jones,45,2019,37,4,02:41:00,IND,1,10,IND,27,24,2558123,SINGLEBACK,"1 RB, 3 TE, 1 WR",8,"4 DL, 3 LB, 4 DB",left,2019-09-22T19:52:26.000Z,2019-09-22T19:52:25.000Z,6-1,227,11/04/1994,Louisiana State,MLB,IND,ATL,3,Lucas Oil Stadium,"Indianapolis, Ind.",Retr. Roof-Closed,Artificial,Sunny,82.0,48,13,SSW
35406,2019092203,20190922033981,away,72.0,27.02,2.36,1.4,0.23,110.45,340.26,2555255,De'Vondre Campbell,59,2019,37,4,02:41:00,IND,1,10,IND,27,24,2558123,SINGLEBACK,"1 RB, 3 TE, 1 WR",8,"4 DL, 3 LB, 4 DB",left,2019-09-22T19:52:26.000Z,2019-09-22T19:52:25.000Z,6-3,232,07/01/1993,Minnesota,OLB,IND,ATL,3,Lucas Oil Stadium,"Indianapolis, Ind.",Retr. Roof-Closed,Artificial,Sunny,82.0,48,13,SSW
35407,2019092203,20190922033981,away,73.0,25.41,2.21,1.43,0.22,48.84,350.94,2557872,Takkarist McKinley,98,2019,37,4,02:41:00,IND,1,10,IND,27,24,2558123,SINGLEBACK,"1 RB, 3 TE, 1 WR",8,"4 DL, 3 LB, 4 DB",left,2019-09-22T19:52:26.000Z,2019-09-22T19:52:25.000Z,6-2,265,11/02/1995,UCLA,DE,IND,ATL,3,Lucas Oil Stadium,"Indianapolis, Ind.",Retr. Roof-Closed,Artificial,Sunny,82.0,48,13,SSW
35408,2019092203,20190922033981,away,70.76,22.88,2.21,3.06,0.21,68.57,82.57,2560830,Isaiah Oliver,26,2019,37,4,02:41:00,IND,1,10,IND,27,24,2558123,SINGLEBACK,"1 RB, 3 TE, 1 WR",8,"4 DL, 3 LB, 4 DB",left,2019-09-22T19:52:26.000Z,2019-09-22T19:52:25.000Z,6-0,210,09/30/1996,Colorado,CB,IND,ATL,3,Lucas Oil Stadium,"Indianapolis, Ind.",Retr. Roof-Closed,Artificial,Sunny,82.0,48,13,SSW
35409,2019092203,20190922033981,home,73.35,28.25,2.5,1.56,0.26,313.77,328.17,2495137,Anthony Castonzo,74,2019,37,4,02:41:00,IND,1,10,IND,27,24,2558123,SINGLEBACK,"1 RB, 3 TE, 1 WR",8,"4 DL, 3 LB, 4 DB",left,2019-09-22T19:52:26.000Z,2019-09-22T19:52:25.000Z,6-7,307,08/09/1988,Boston College,T,IND,ATL,3,Lucas Oil Stadium,"Indianapolis, Ind.",Retr. Roof-Closed,Artificial,Sunny,82.0,48,13,SSW
35410,2019092203,20190922033981,home,73.66,25.53,2.42,0.52,0.25,257.18,339.94,2540232,Jack Doyle,84,2019,37,4,02:41:00,IND,1,10,IND,27,24,2558123,SINGLEBACK,"1 RB, 3 TE, 1 WR",8,"4 DL, 3 LB, 4 DB",left,2019-09-22T19:52:26.000Z,2019-09-22T19:52:25.000Z,6-6,262,05/05/1990,Western Kentucky,TE,IND,ATL,3,Lucas Oil Stadium,"Indianapolis, Ind.",Retr. Roof-Closed,Artificial,Sunny,82.0,48,13,SSW
35411,2019092203,20190922033981,home,74.95,35.39,1.08,2.47,0.1,314.97,113.75,2543466,Eric Ebron,85,2019,37,4,02:41:00,IND,1,10,IND,27,24,2558123,SINGLEBACK,"1 RB, 3 TE, 1 WR",8,"4 DL, 3 LB, 4 DB",left,2019-09-22T19:52:26.000Z,2019-09-22T19:52:25.000Z,6-4,253,04/10/1993,North Carolina,TE,IND,ATL,3,Lucas Oil Stadium,"Indianapolis, Ind.",Retr. Roof-Closed,Artificial,Sunny,82.0,48,13,SSW
35412,2019092203,20190922033981,home,74.42,31.82,0.52,0.2,0.05,286.39,20.91,2552467,Mark Glowinski,64,2019,37,4,02:41:00,IND,1,10,IND,27,24,2558123,SINGLEBACK,"1 RB, 3 TE, 1 WR",8,"4 DL, 3 LB, 4 DB",left,2019-09-22T19:52:26.000Z,2019-09-22T19:52:25.000Z,6-4,310,05/03/1992,West Virginia,G,IND,ATL,3,Lucas Oil Stadium,"Indianapolis, Ind.",Retr. Roof-Closed,Artificial,Sunny,82.0,48,13,SSW
35413,2019092203,20190922033981,home,73.55,30.34,1.16,0.33,0.12,293.57,331.0,2555191,Ryan Kelly,78,2019,37,4,02:41:00,IND,1,10,IND,27,24,2558123,SINGLEBACK,"1 RB, 3 TE, 1 WR",8,"4 DL, 3 LB, 4 DB",left,2019-09-22T19:52:26.000Z,2019-09-22T19:52:25.000Z,6-4,309,05/30/1993,Alabama,C,IND,ATL,3,Lucas Oil Stadium,"Indianapolis, Ind.",Retr. Roof-Closed,Artificial,Sunny,82.0,48,13,SSW
35414,2019092203,20190922033981,home,78.15,29.29,4.56,0.73,0.45,128.44,98.88,2555261,Jacoby Brissett,7,2019,37,4,02:41:00,IND,1,10,IND,27,24,2558123,SINGLEBACK,"1 RB, 3 TE, 1 WR",8,"4 DL, 3 LB, 4 DB",left,2019-09-22T19:52:26.000Z,2019-09-22T19:52:25.000Z,6-4,235,12/11/1992,North Carolina State,QB,IND,ATL,3,Lucas Oil Stadium,"Indianapolis, Ind.",Retr. Roof-Closed,Artificial,Sunny,82.0,48,13,SSW
35415,2019092203,20190922033981,home,78.53,28.62,4.87,1.76,0.48,237.75,262.24,2558123,Marlon Mack,25,2019,37,4,02:41:00,IND,1,10,IND,27,24,2558123,SINGLEBACK,"1 RB, 3 TE, 1 WR",8,"4 DL, 3 LB, 4 DB",left,2019-09-22T19:52:26.000Z,2019-09-22T19:52:25.000Z,6-0,210,03/07/1996,South Florida,RB,IND,ATL,3,Lucas Oil Stadium,"Indianapolis, Ind.",Retr. Roof-Closed,Artificial,Sunny,82.0,48,13,SSW
35416,2019092203,20190922033981,home,72.59,26.74,2.53,0.63,0.26,287.11,318.68,2558832,Mo Alie-Cox,81,2019,37,4,02:41:00,IND,1,10,IND,27,24,2558123,SINGLEBACK,"1 RB, 3 TE, 1 WR",8,"4 DL, 3 LB, 4 DB",left,2019-09-22T19:52:26.000Z,2019-09-22T19:52:25.000Z,6-5,267,09/19/1993,Virginia Commonwealth,TE,IND,ATL,3,Lucas Oil Stadium,"Indianapolis, Ind.",Retr. Roof-Closed,Artificial,Sunny,82.0,48,13,SSW
35417,2019092203,20190922033981,home,72.71,40.94,4.21,2.69,0.41,302.84,318.73,2558877,Zach Pascal,14,2019,37,4,02:41:00,IND,1,10,IND,27,24,2558123,SINGLEBACK,"1 RB, 3 TE, 1 WR",8,"4 DL, 3 LB, 4 DB",left,2019-09-22T19:52:26.000Z,2019-09-22T19:52:25.000Z,6-2,214,12/18/1994,Old Dominion,WR,IND,ATL,3,Lucas Oil Stadium,"Indianapolis, Ind.",Retr. Roof-Closed,Artificial,Sunny,82.0,48,13,SSW
35418,2019092203,20190922033981,home,73.6,29.17,1.27,1.13,0.13,322.35,352.76,2560820,Quenton Nelson,56,2019,37,4,02:41:00,IND,1,10,IND,27,24,2558123,SINGLEBACK,"1 RB, 3 TE, 1 WR",8,"4 DL, 3 LB, 4 DB",left,2019-09-22T19:52:26.000Z,2019-09-22T19:52:25.000Z,6-5,330,03/19/1996,Notre Dame,G,IND,ATL,3,Lucas Oil Stadium,"Indianapolis, Ind.",Retr. Roof-Closed,Artificial,Sunny,82.0,48,13,SSW
35419,2019092203,20190922033981,home,73.38,34.26,1.82,0.89,0.19,335.71,309.23,2560876,Braden Smith,72,2019,37,4,02:41:00,IND,1,10,IND,27,24,2558123,SINGLEBACK,"1 RB, 3 TE, 1 WR",8,"4 DL, 3 LB, 4 DB",left,2019-09-22T19:52:26.000Z,2019-09-22T19:52:25.000Z,6-6,315,03/25/1996,Auburn,G,IND,ATL,3,Lucas Oil Stadium,"Indianapolis, Ind.",Retr. Roof-Closed,Artificial,Sunny,82.0,48,13,SSW
