,GameId,PlayId,Team,X,Y,S,A,Dis,Orientation,Dir,NflId,DisplayName,JerseyNumber,Season,YardLine,Quarter,GameClock,PossessionTeam,Down,Distance,FieldPosition,HomeScoreBeforePlay,VisitorScoreBeforePlay,NflIdRusher,OffenseFormation,OffensePersonnel,DefendersInTheBox,DefensePersonnel,PlayDirection,TimeHandoff,TimeSnap,PlayerHeight,PlayerWeight,PlayerBirthDate,PlayerCollegeName,Position,HomeTeamAbbr,VisitorTeamAbbr,Week,Stadium,Location,StadiumType,Turf,GameWeather,Temperature,Humidity,WindSpeed,WindDirection
56848,2019092910,20190929100724,away,60.69,23.31,1.96,1.79,0.19,212.43,236.97,2495438,Kyle Rudolph,82,2019,47,1,04:19:00,MIN,1,10,CHI,7,0,2557991,SINGLEBACK,"1 RB, 2 TE, 2 WR",8,"3 DL, 4 LB, 4 DB",right,2019-09-29T20:49:51.000Z,2019-09-29T20:49:50.000Z,6-6,265,11/09/1989,Notre Dame,TE,CHI,MIN,4,Soldier Field,"Chicago, IL",Outdoor,Natural Grass,Cloudy,67.0,89,8,East
56849,2019092910,20190929100724,away,57.57,29.67,4.07,0.53,0.4,198.74,266.12,2532820,Kirk Cousins,8,2019,47,1,04:19:00,MIN,1,10,CHI,7,0,2557991,SINGLEBACK,"1 RB, 2 TE, 2 WR",8,"3 DL, 4 LB, 4 DB",right,2019-09-29T20:49:51.000Z,2019-09-29T20:49:50.000Z,6-3,202,08/19/1988,Michigan State,QB,CHI,MIN,4,Soldier Field,"Chicago, IL",Outdoor,Natural Grass,Cloudy,67.0,89,8,East
56850,2019092910,20190929100724,away,60.06,35.03,2.3,0.85,0.23,347.21,322.19,2533042,Riley Reiff,71,2019,47,1,04:19:00,MIN,1,10,CHI,7,0,2557991,SINGLEBACK,"1 RB, 2 TE, 2 WR",8,"3 DL, 4 LB, 4 DB",right,2019-09-29T20:49:51.000Z,2019-09-29T20:49:50.000Z,6-6,305,12/01/1988,Iowa,T,CHI,MIN,4,Soldier Field,"Chicago, IL",Outdoor,Natural Grass,Cloudy,67.0,89,8,East
56851,2019092910,20190929100724,away,66.66,17.62,6.03,2.74,0.6,164.2,128.89,2541785,Adam Thielen,19,2019,47,1,04:19:00,MIN,1,10,CHI,7,0,2557991,SINGLEBACK,"1 RB, 2 TE, 2 WR",8,"3 DL, 4 LB, 4 DB",right,2019-09-29T20:49:51.000Z,2019-09-29T20:49:50.000Z,6-2,200,08/22/1990,Minn. State-Mankato,WR,CHI,MIN,4,Soldier Field,"Chicago, IL",Outdoor,Natural Grass,Cloudy,67.0,89,8,East
56852,2019092910,20190929100724,away,61.71,29.16,1.77,0.6,0.18,45.42,347.66,2543805,Dakota Dozier,78,2019,47,1,04:19:00,MIN,1,10,CHI,7,0,2557991,SINGLEBACK,"1 RB, 2 TE, 2 WR",8,"3 DL, 4 LB, 4 DB",right,2019-09-29T20:49:51.000Z,2019-09-29T20:49:50.000Z,6-4,313,04/30/1991,Furman,G,CHI,MIN,4,Soldier Field,"Chicago, IL",Outdoor,Natural Grass,Cloudy,67.0,89,8,East
56853,2019092910,20190929100724,away,63.88,42.64,5.29,0.61,0.53,20.99,33.21,2552608,Stefon Diggs,14,2019,47,1,04:19:00,MIN,1,10,CHI,7,0,2557991,SINGLEBACK,"1 RB, 2 TE, 2 WR",8,"3 DL, 4 LB, 4 DB",right,2019-09-29T20:49:51.000Z,2019-09-29T20:49:50.000Z,6-0,191,11/29/1993,Maryland,WR,CHI,MIN,4,Soldier Field,"Chicago, IL",Outdoor,Natural Grass,Cloudy,67.0,89,8,East
56854,2019092910,20190929100724,away,56.92,29.08,3.36,4.34,0.32,92.74,103.45,2557991,Dalvin Cook,33,2019,47,1,04:19:00,MIN,1,10,CHI,7,0,2557991,SINGLEBACK,"1 RB, 2 TE, 2 WR",8,"3 DL, 4 LB, 4 DB",right,2019-09-29T20:49:51.000Z,2019-09-29T20:49:50.000Z,5-10,210,08/10/1995,Florida State,RB,CHI,MIN,4,Soldier Field,"Chicago, IL",Outdoor,Natural Grass,Cloudy,67.0,89,8,East
56855,2019092910,20190929100724,away,61.64,32.76,0.57,1.83,0.06,95.8,71.73,2558848,Pat Elflein,65,2019,47,1,04:19:00,MIN,1,10,CHI,7,0,2557991,SINGLEBACK,"1 RB, 2 TE, 2 WR",8,"3 DL, 4 LB, 4 DB",right,2019-09-29T20:49:51.000Z,2019-09-29T20:49:50.000Z,6-3,303,07/06/1994,Ohio State,G,CHI,MIN,4,Soldier Field,"Chicago, IL",Outdoor,Natural Grass,Cloudy,67.0,89,8,East
56856,2019092910,20190929100724,away,61.67,27.17,0.75,1.67,0.08,150.08,260.04,2560831,Brian O'Neill,75,2019,47,1,04:19:00,MIN,1,10,CHI,7,0,2557991,SINGLEBACK,"1 RB, 2 TE, 2 WR",8,"3 DL, 4 LB, 4 DB",right,2019-09-29T20:49:51.000Z,2019-09-29T20:49:50.000Z,6-7,297,09/15/1995,Pittsburgh,T,CHI,MIN,4,Soldier Field,"Chicago, IL",Outdoor,Natural Grass,Cloudy,67.0,89,8,East
56857,2019092910,20190929100724,away,62.0,31.74,2.09,2.39,0.22,327.24,299.99,2562632,Garrett Bradbury,56,2019,47,1,04:19:00,MIN,1,10,CHI,7,0,2557991,SINGLEBACK,"1 RB, 2 TE, 2 WR",8,"3 DL, 4 LB, 4 DB",right,2019-09-29T20:49:51.000Z,2019-09-29T20:49:50.000Z,6-3,305,06/20/1995,North Carolina State,C,CHI,MIN,4,Soldier Field,"Chicago, IL",Outdoor,Natural Grass,Cloudy,67.0,89,8,East
56858,2019092910,20190929100724,away,61.76,31.14,3.15,3.31,0.32,110.86,124.79,2562738,Irv Smith,84,2019,47,1,04:19:00,MIN,1,10,CHI,7,0,2557991,SINGLEBACK,"1 RB, 2 TE, 2 WR",8,"3 DL, 4 LB, 4 DB",right,2019-09-29T20:49:51.000Z,2019-09-29T20:49:50.000Z,6-2,240,08/09/1998,Alabama,TE,CHI,MIN,4,Soldier Field,"Chicago, IL",Outdoor,Natural Grass,Cloudy,67.0,89,8,East
56859,2019092910,20190929100724,home,65.15,42.8,4.22,1.25,0.42,243.78,28.4,2495108,Prince Amukamara,20,2019,47,1,04:19:00,MIN,1,10,CHI,7,0,2557991,SINGLEBACK,"1 RB, 2 TE, 2 WR",8,"3 DL, 4 LB, 4 DB",right,2019-09-29T20:49:51.000Z,2019-09-29T20:49:50.000Z,6-0,204,06/06/1989,Nebraska,CB,CHI,MIN,4,Soldier Field,"Chicago, IL",Outdoor,Natural Grass,Cloudy,67.0,89,8,East
56860,2019092910,20190929100724,home,62.07,26.71,3.83,1.49,0.4,307.15,267.51,2532961,Danny Trevathan,59,2019,47,1,04:19:00,MIN,1,10,CHI,7,0,2557991,SINGLEBACK,"1 RB, 2 TE, 2 WR",8,"3 DL, 4 LB, 4 DB",right,2019-09-29T20:49:51.000Z,2019-09-29T20:49:50.000Z,6-0,239,03/24/1990,Kentucky,ILB,CHI,MIN,4,Soldier Field,"Chicago, IL",Outdoor,Natural Grass,Cloudy,67.0,89,8,East
56861,2019092910,20190929100724,home,61.09,31.72,2.97,1.99,0.31,223.0,268.73,2541479,Nick Williams,97,2019,47,1,04:19:00,MIN,1,10,CHI,7,0,2557991,SINGLEBACK,"1 RB, 2 TE, 2 WR",8,"3 DL, 4 LB, 4 DB",right,2019-09-29T20:49:51.000Z,2019-09-29T20:49:50.000Z,6-4,309,02/21/1990,Samford,DT,CHI,MIN,4,Soldier Field,"Chicago, IL",Outdoor,Natural Grass,Cloudy,67.0,89,8,East
56862,2019092910,20190929100724,home,64.13,35.82,1.38,1.3,0.13,228.24,65.75,2543463,Khalil Mack,52,2019,47,1,04:19:00,MIN,1,10,CHI,7,0,2557991,SINGLEBACK,"1 RB, 2 TE, 2 WR",8,"3 DL, 4 LB, 4 DB",right,2019-09-29T20:49:51.000Z,2019-09-29T20:49:50.000Z,6-3,269,02/22/1991,Buffalo,OLB,CHI,MIN,4,Soldier Field,"Chicago, IL",Outdoor,Natural Grass,Cloudy,67.0,89,8,East
56863,2019092910,20190929100724,home,83.55,31.46,2.28,2.38,0.24,277.61,106.03,2543470,Ha Ha Clinton-Dix,21,2019,47,1,04:19:00,MIN,1,10,CHI,7,0,2557991,SINGLEBACK,"1 RB, 2 TE, 2 WR",8,"3 DL, 4 LB, 4 DB",right,2019-09-29T20:49:51.000Z,2019-09-29T20:49:50.000Z,6-1,211,12/21/1992,Alabama,FS,CHI,MIN,4,Soldier Field,"Chicago, IL",Outdoor,Natural Grass,Cloudy,67.0,89,8,East
56864,2019092910,20190929100724,home,72.9,14.93,3.43,1.08,0.34,307.87,163.58,2543681,Kyle Fuller,23,2019,47,1,04:19:00,MIN,1,10,CHI,7,0,2557991,SINGLEBACK,"1 RB, 2 TE, 2 WR",8,"3 DL, 4 LB, 4 DB",right,2019-09-29T20:49:51.000Z,2019-09-29T20:49:50.000Z,5-11,194,02/16/1992,Virginia Tech,CB,CHI,MIN,4,Soldier Field,"Chicago, IL",Outdoor,Natural Grass,Cloudy,67.0,89,8,East
56865,2019092910,20190929100724,home,60.13,22.46,2.95,3.08,0.31,336.73,253.05,2555285,Leonard Floyd,94,2019,47,1,04:19:00,MIN,1,10,CHI,7,0,2557991,SINGLEBACK,"1 RB, 2 TE, 2 WR",8,"3 DL, 4 LB, 4 DB",right,2019-09-29T20:49:51.000Z,2019-09-29T20:49:50.000Z,6-5,240,09/08/1992,Georgia,OLB,CHI,MIN,4,Soldier Field,"Chicago, IL",Outdoor,Natural Grass,Cloudy,67.0,89,8,East
56866,2019092910,20190929100724,home,66.33,29.92,2.31,2.29,0.23,254.0,227.16,2555288,Nick Kwiatkoski,44,2019,47,1,04:19:00,MIN,1,10,CHI,7,0,2557991,SINGLEBACK,"1 RB, 2 TE, 2 WR",8,"3 DL, 4 LB, 4 DB",right,2019-09-29T20:49:51.000Z,2019-09-29T20:49:50.000Z,6-2,242,05/26/1993,West Virginia,ILB,CHI,MIN,4,Soldier Field,"Chicago, IL",Outdoor,Natural Grass,Cloudy,67.0,89,8,East
56867,2019092910,20190929100724,home,59.64,35.82,5.01,1.6,0.54,210.46,295.45,2556665,Roy Robertson-Harris,95,2019,47,1,04:19:00,MIN,1,10,CHI,7,0,2557991,SINGLEBACK,"1 RB, 2 TE, 2 WR",8,"3 DL, 4 LB, 4 DB",right,2019-09-29T20:49:51.000Z,2019-09-29T20:49:50.000Z,6-5,294,07/23/1993,Texas-El Paso,DE,CHI,MIN,4,Soldier Field,"Chicago, IL",Outdoor,Natural Grass,Cloudy,67.0,89,8,East
56868,2019092910,20190929100724,home,68.41,21.22,2.28,1.48,0.22,280.16,178.74,2558176,Eddie Jackson,39,2019,47,1,04:19:00,MIN,1,10,CHI,7,0,2557991,SINGLEBACK,"1 RB, 2 TE, 2 WR",8,"3 DL, 4 LB, 4 DB",right,2019-09-29T20:49:51.000Z,2019-09-29T20:49:50.000Z,6-0,202,12/10/1993,Alabama,FS,CHI,MIN,4,Soldier Field,"Chicago, IL",Outdoor,Natural Grass,Cloudy,67.0,89,8,East
56869,2019092910,20190929100724,home,62.36,29.39,2.33,1.94,0.24,260.52,339.26,2561088,Abdullah Anderson,76,2019,47,1,04:19:00,MIN,1,10,CHI,7,0,2557991,SINGLEBACK,"1 RB, 2 TE, 2 WR",8,"3 DL, 4 LB, 4 DB",right,2019-09-29T20:49:51.000Z,2019-09-29T20:49:50.000Z,6-3,297,01/24/1996,Bucknell,DT,CHI,MIN,4,Soldier Field,"Chicago, IL",Outdoor,Natural Grass,Cloudy,67.0,89,8,East
