,GameId,PlayId,Team,X,Y,S,A,Dis,Orientation,Dir,NflId,DisplayName,JerseyNumber,Season,YardLine,Quarter,GameClock,PossessionTeam,Down,Distance,FieldPosition,HomeScoreBeforePlay,VisitorScoreBeforePlay,NflIdRusher,OffenseFormation,OffensePersonnel,DefendersInTheBox,DefensePersonnel,PlayDirection,TimeHandoff,TimeSnap,PlayerHeight,PlayerWeight,PlayerBirthDate,PlayerCollegeName,Position,HomeTeamAbbr,VisitorTeamAbbr,Week,Stadium,Location,StadiumType,Turf,GameWeather,Temperature,Humidity,WindSpeed,WindDirection
8030,2019090807,20190908073209,away,78.99,32.69,3.07,0.31,0.32,72.45,341.55,2495137,Anthony Castonzo,74,2019,29,4,02:00:00,IND,1,10,LAC,24,16,2558123,SHOTGUN,"1 RB, 1 TE, 3 WR",5,"4 DL, 2 LB, 5 DB",right,2019-09-08T22:42:29.000Z,2019-09-08T22:42:27.000Z,6-7,307,08/09/1988,Boston College,T,LAC,IND,1,Dignity Health Sports Park,"Carson, CA",,Grass,Sunny,77.0,52,10,SW
8031,2019090807,20190908073209,away,82.04,9.0,4.4,3.79,0.42,84.74,84.68,2532865,T.Y. Hilton,13,2019,29,4,02:00:00,IND,1,10,LAC,24,16,2558123,SHOTGUN,"1 RB, 1 TE, 3 WR",5,"4 DL, 2 LB, 5 DB",right,2019-09-08T22:42:29.000Z,2019-09-08T22:42:27.000Z,5-10,183,11/14/1989,Florida International,WR,LAC,IND,1,Dignity Health Sports Park,"Carson, CA",,Grass,Sunny,77.0,52,10,SW
8032,2019090807,20190908073209,away,79.56,35.28,4.59,2.78,0.46,69.7,17.17,2540232,Jack Doyle,84,2019,29,4,02:00:00,IND,1,10,LAC,24,16,2558123,SHOTGUN,"1 RB, 1 TE, 3 WR",5,"4 DL, 2 LB, 5 DB",right,2019-09-08T22:42:29.000Z,2019-09-08T22:42:27.000Z,6-6,262,05/05/1990,Western Kentucky,TE,LAC,IND,1,Dignity Health Sports Park,"Carson, CA",,Grass,Sunny,77.0,52,10,SW
8033,2019090807,20190908073209,away,79.92,28.11,3.04,0.81,0.31,89.12,0.29,2552467,Mark Glowinski,64,2019,29,4,02:00:00,IND,1,10,LAC,24,16,2558123,SHOTGUN,"1 RB, 1 TE, 3 WR",5,"4 DL, 2 LB, 5 DB",right,2019-09-08T22:42:29.000Z,2019-09-08T22:42:27.000Z,6-4,310,05/03/1992,West Virginia,G,LAC,IND,1,Dignity Health Sports Park,"Carson, CA",,Grass,Sunny,77.0,52,10,SW
8034,2019090807,20190908073209,away,80.6,28.9,1.91,0.22,0.2,146.0,5.46,2555191,Ryan Kelly,78,2019,29,4,02:00:00,IND,1,10,LAC,24,16,2558123,SHOTGUN,"1 RB, 1 TE, 3 WR",5,"4 DL, 2 LB, 5 DB",right,2019-09-08T22:42:29.000Z,2019-09-08T22:42:27.000Z,6-4,309,05/30/1993,Alabama,C,LAC,IND,1,Dignity Health Sports Park,"Carson, CA",,Grass,Sunny,77.0,52,10,SW
8035,2019090807,20190908073209,away,76.38,27.62,0.61,0.87,0.06,107.02,295.72,2555261,Jacoby Brissett,7,2019,29,4,02:00:00,IND,1,10,LAC,24,16,2558123,SHOTGUN,"1 RB, 1 TE, 3 WR",5,"4 DL, 2 LB, 5 DB",right,2019-09-08T22:42:29.000Z,2019-09-08T22:42:27.000Z,6-4,235,12/11/1992,North Carolina State,QB,LAC,IND,1,Dignity Health Sports Park,"Carson, CA",,Grass,Sunny,77.0,52,10,SW
8036,2019090807,20190908073209,away,82.15,17.91,4.54,2.04,0.44,98.58,78.93,2556396,Chester Rogers,80,2019,29,4,02:00:00,IND,1,10,LAC,24,16,2558123,SHOTGUN,"1 RB, 1 TE, 3 WR",5,"4 DL, 2 LB, 5 DB",right,2019-09-08T22:42:29.000Z,2019-09-08T22:42:27.000Z,6-0,184,01/12/1994,Grambling,WR,LAC,IND,1,Dignity Health Sports Park,"Carson, CA",,Grass,Sunny,77.0,52,10,SW
8037,2019090807,20190908073209,away,76.37,26.69,3.73,2.88,0.36,42.67,2.69,2558123,Marlon Mack,25,2019,29,4,02:00:00,IND,1,10,LAC,24,16,2558123,SHOTGUN,"1 RB, 1 TE, 3 WR",5,"4 DL, 2 LB, 5 DB",right,2019-09-08T22:42:29.000Z,2019-09-08T22:42:27.000Z,6-0,210,03/07/1996,South Florida,RB,LAC,IND,1,Dignity Health Sports Park,"Carson, CA",,Grass,Sunny,77.0,52,10,SW
8038,2019090807,20190908073209,away,82.71,42.71,4.1,1.62,0.4,98.62,91.95,2558877,Zach Pascal,14,2019,29,4,02:00:00,IND,1,10,LAC,24,16,2558123,SHOTGUN,"1 RB, 1 TE, 3 WR",5,"4 DL, 2 LB, 5 DB",right,2019-09-08T22:42:29.000Z,2019-09-08T22:42:27.000Z,6-2,214,12/18/1994,Old Dominion,WR,LAC,IND,1,Dignity Health Sports Park,"Carson, CA",,Grass,Sunny,77.0,52,10,SW
8039,2019090807,20190908073209,away,79.51,31.39,3.23,0.64,0.34,107.36,348.86,2560820,Quenton Nelson,56,2019,29,4,02:00:00,IND,1,10,LAC,24,16,2558123,SHOTGUN,"1 RB, 1 TE, 3 WR",5,"4 DL, 2 LB, 5 DB",right,2019-09-08T22:42:29.000Z,2019-09-08T22:42:27.000Z,6-5,330,03/19/1996,Notre Dame,G,LAC,IND,1,Dignity Health Sports Park,"Carson, CA",,Grass,Sunny,77.0,52,10,SW
8040,2019090807,20190908073209,away,79.03,23.64,1.61,1.49,0.18,133.94,257.84,2560876,Braden Smith,72,2019,29,4,02:00:00,IND,1,10,LAC,24,16,2558123,SHOTGUN,"1 RB, 1 TE, 3 WR",5,"4 DL, 2 LB, 5 DB",right,2019-09-08T22:42:29.000Z,2019-09-08T22:42:27.000Z,6-6,315,03/25/1996,Auburn,G,LAC,IND,1,Dignity Health Sports Park,"Carson, CA",,Grass,Sunny,77.0,52,10,SW
8041,2019090807,20190908073209,home,81.71,36.67,3.0,2.61,0.28,273.21,346.93,2506352,Thomas Davis,58,2019,29,4,02:00:00,IND,1,10,LAC,24,16,2558123,SHOTGUN,"1 RB, 1 TE, 3 WR",5,"4 DL, 2 LB, 5 DB",right,2019-09-08T22:42:29.000Z,2019-09-08T22:42:27.000Z,6-1,235,03/22/1983,Georgia,OLB,LAC,IND,1,Dignity Health Sports Park,"Carson, CA",,Grass,Sunny,77.0,52,10,SW
8042,2019090807,20190908073209,home,85.91,8.13,2.92,2.99,0.29,318.49,65.44,2532861,Casey Hayward,26,2019,29,4,02:00:00,IND,1,10,LAC,24,16,2558123,SHOTGUN,"1 RB, 1 TE, 3 WR",5,"4 DL, 2 LB, 5 DB",right,2019-09-08T22:42:29.000Z,2019-09-08T22:42:27.000Z,5-11,192,09/09/1989,Vanderbilt,CB,LAC,IND,1,Dignity Health Sports Park,"Carson, CA",,Grass,Sunny,77.0,52,10,SW
8043,2019090807,20190908073209,home,80.0,33.96,2.48,0.44,0.25,265.53,293.09,2532870,Melvin Ingram,54,2019,29,4,02:00:00,IND,1,10,LAC,24,16,2558123,SHOTGUN,"1 RB, 1 TE, 3 WR",5,"4 DL, 2 LB, 5 DB",right,2019-09-08T22:42:29.000Z,2019-09-08T22:42:27.000Z,6-2,247,04/26/1989,South Carolina,DE,LAC,IND,1,Dignity Health Sports Park,"Carson, CA",,Grass,Sunny,77.0,52,10,SW
8044,2019090807,20190908073209,home,80.07,31.17,2.99,1.53,0.29,261.3,315.54,2540003,Damion Square,71,2019,29,4,02:00:00,IND,1,10,LAC,24,16,2558123,SHOTGUN,"1 RB, 1 TE, 3 WR",5,"4 DL, 2 LB, 5 DB",right,2019-09-08T22:42:29.000Z,2019-09-08T22:42:27.000Z,6-2,293,02/06/1989,Alabama,NT,LAC,IND,1,Dignity Health Sports Park,"Carson, CA",,Grass,Sunny,77.0,52,10,SW
8045,2019090807,20190908073209,home,88.04,29.83,2.4,2.28,0.23,260.54,19.91,2550842,Adrian Phillips,31,2019,29,4,02:00:00,IND,1,10,LAC,24,16,2558123,SHOTGUN,"1 RB, 1 TE, 3 WR",5,"4 DL, 2 LB, 5 DB",right,2019-09-08T22:42:29.000Z,2019-09-08T22:42:27.000Z,5-11,210,03/28/1992,Texas,SS,LAC,IND,1,Dignity Health Sports Park,"Carson, CA",,Grass,Sunny,77.0,52,10,SW
8046,2019090807,20190908073209,home,79.67,22.65,3.55,1.98,0.35,271.78,274.34,2555249,Joey Bosa,97,2019,29,4,02:00:00,IND,1,10,LAC,24,16,2558123,SHOTGUN,"1 RB, 1 TE, 3 WR",5,"4 DL, 2 LB, 5 DB",right,2019-09-08T22:42:29.000Z,2019-09-08T22:42:27.000Z,6-5,280,07/11/1995,Ohio State,DE,LAC,IND,1,Dignity Health Sports Park,"Carson, CA",,Grass,Sunny,77.0,52,10,SW
8047,2019090807,20190908073209,home,85.29,17.26,1.77,2.34,0.17,272.15,126.9,2557927,Desmond King,20,2019,29,4,02:00:00,IND,1,10,LAC,24,16,2558123,SHOTGUN,"1 RB, 1 TE, 3 WR",5,"4 DL, 2 LB, 5 DB",right,2019-09-08T22:42:29.000Z,2019-09-08T22:42:27.000Z,5-10,201,12/14/1994,Iowa,CB,LAC,IND,1,Dignity Health Sports Park,"Carson, CA",,Grass,Sunny,77.0,52,10,SW
8048,2019090807,20190908073209,home,97.29,23.08,2.06,4.19,0.18,276.81,68.32,2558182,Rayshawn Jenkins,23,2019,29,4,02:00:00,IND,1,10,LAC,24,16,2558123,SHOTGUN,"1 RB, 1 TE, 3 WR",5,"4 DL, 2 LB, 5 DB",right,2019-09-08T22:42:29.000Z,2019-09-08T22:42:27.000Z,6-2,220,01/25/1994,Miami,SS,LAC,IND,1,Dignity Health Sports Park,"Carson, CA",,Grass,Sunny,77.0,52,10,SW
8049,2019090807,20190908073209,home,83.45,42.47,2.61,2.98,0.27,254.18,91.58,2560719,Brandon Facyson,28,2019,29,4,02:00:00,IND,1,10,LAC,24,16,2558123,SHOTGUN,"1 RB, 1 TE, 3 WR",5,"4 DL, 2 LB, 5 DB",right,2019-09-08T22:42:29.000Z,2019-09-08T22:42:27.000Z,6-2,197,09/08/1994,Virginia Tech,CB,LAC,IND,1,Dignity Health Sports Park,"Carson, CA",,Grass,Sunny,77.0,52,10,SW
8050,2019090807,20190908073209,home,80.49,27.95,1.68,1.24,0.17,270.94,336.57,2560769,Justin Jones,93,2019,29,4,02:00:00,IND,1,10,LAC,24,16,2558123,SHOTGUN,"1 RB, 1 TE, 3 WR",5,"4 DL, 2 LB, 5 DB",right,2019-09-08T22:42:29.000Z,2019-09-08T22:42:27.000Z,6-3,309,08/28/1996,North Carolina State,DT,LAC,IND,1,Dignity Health Sports Park,"Carson, CA",,Grass,Sunny,77.0,52,10,SW
8051,2019090807,20190908073209,home,86.39,25.28,0.66,0.56,0.06,273.4,19.64,2560928,Kyzir White,44,2019,29,4,02:00:00,IND,1,10,LAC,24,16,2558123,SHOTGUN,"1 RB, 1 TE, 3 WR",5,"4 DL, 2 LB, 5 DB",right,2019-09-08T22:42:29.000Z,2019-09-08T22:42:27.000Z,6-2,216,03/24/1996,West Virginia,LB,LAC,IND,1,Dignity Health Sports Park,"Carson, CA",,Grass,Sunny,77.0,52,10,SW
