,GameId,PlayId,Team,X,Y,S,A,Dis,Orientation,Dir,NflId,DisplayName,JerseyNumber,Season,YardLine,Quarter,GameClock,PossessionTeam,Down,Distance,FieldPosition,HomeScoreBeforePlay,VisitorScoreBeforePlay,NflIdRusher,OffenseFormation,OffensePersonnel,DefendersInTheBox,DefensePersonnel,PlayDirection,TimeHandoff,TimeSnap,PlayerHeight,PlayerWeight,PlayerBirthDate,PlayerCollegeName,Position,HomeTeamAbbr,VisitorTeamAbbr,Week,Stadium,Location,StadiumType,Turf,GameWeather,Temperature,Humidity,WindSpeed,WindDirection
11088,2019090811,20190908110661,away,101.17,25.24,2.81,1.26,0.29,264.16,229.74,2495746,Joe Staley,74,2019,9,1,07:32:00,SF,1,10,SF,0,3,2552453,I_FORM,"2 RB, 1 TE, 2 WR",7,"4 DL, 3 LB, 4 DB",left,2019-09-08T20:50:44.000Z,2019-09-08T20:50:43.000Z,6-5,295,08/30/1984,Central Michigan,T,TB,SF,1,Raymond James Stadium,"Tampa, FL",Outdoor,Natural Grass,Cloudy,93.0,52,9,SW
11089,2019090811,20190908110661,away,101.89,29.93,1.06,1.59,0.1,198.63,158.09,2508140,Mike Person,68,2019,9,1,07:32:00,SF,1,10,SF,0,3,2552453,I_FORM,"2 RB, 1 TE, 2 WR",7,"4 DL, 3 LB, 4 DB",left,2019-09-08T20:50:44.000Z,2019-09-08T20:50:43.000Z,6-4,299,06/17/1988,Montana State,C,TB,SF,1,Raymond James Stadium,"Tampa, FL",Outdoor,Natural Grass,Cloudy,93.0,52,9,SW
11090,2019090811,20190908110661,away,101.27,40.15,3.21,2.45,0.31,171.61,303.36,2539964,Marquise Goodwin,11,2019,9,1,07:32:00,SF,1,10,SF,0,3,2552453,I_FORM,"2 RB, 1 TE, 2 WR",7,"4 DL, 3 LB, 4 DB",left,2019-09-08T20:50:44.000Z,2019-09-08T20:50:43.000Z,5-9,179,11/19/1990,Texas,WR,TB,SF,1,Raymond James Stadium,"Tampa, FL",Outdoor,Natural Grass,Cloudy,93.0,52,9,SW
11091,2019090811,20190908110661,away,104.3,34.22,1.24,3.1,0.13,269.09,288.05,2540230,Kyle Juszczyk,44,2019,9,1,07:32:00,SF,1,10,SF,0,3,2552453,I_FORM,"2 RB, 1 TE, 2 WR",7,"4 DL, 3 LB, 4 DB",left,2019-09-08T20:50:44.000Z,2019-09-08T20:50:43.000Z,6-1,240,04/23/1991,Harvard,RB,TB,SF,1,Raymond James Stadium,"Tampa, FL",Outdoor,Natural Grass,Cloudy,93.0,52,9,SW
11092,2019090811,20190908110661,away,102.7,28.45,2.73,1.44,0.27,256.32,121.51,2543705,Weston Richburg,58,2019,9,1,07:32:00,SF,1,10,SF,0,3,2552453,I_FORM,"2 RB, 1 TE, 2 WR",7,"4 DL, 3 LB, 4 DB",left,2019-09-08T20:50:44.000Z,2019-09-08T20:50:43.000Z,6-4,290,07/09/1991,Colorado State,C,TB,SF,1,Raymond James Stadium,"Tampa, FL",Outdoor,Natural Grass,Cloudy,93.0,52,9,SW
11093,2019090811,20190908110661,away,105.37,30.69,3.31,3.77,0.33,87.1,101.04,2543801,Jimmy Garoppolo,10,2019,9,1,07:32:00,SF,1,10,SF,0,3,2552453,I_FORM,"2 RB, 1 TE, 2 WR",7,"4 DL, 3 LB, 4 DB",left,2019-09-08T20:50:44.000Z,2019-09-08T20:50:43.000Z,6-2,225,11/02/1991,Eastern Illinois,QB,TB,SF,1,Raymond James Stadium,"Tampa, FL",Outdoor,Natural Grass,Cloudy,93.0,52,9,SW
11094,2019090811,20190908110661,away,102.01,28.25,0.87,1.41,0.09,251.19,63.53,2552345,Laken Tomlinson,75,2019,9,1,07:32:00,SF,1,10,SF,0,3,2552453,I_FORM,"2 RB, 1 TE, 2 WR",7,"4 DL, 3 LB, 4 DB",left,2019-09-08T20:50:44.000Z,2019-09-08T20:50:43.000Z,6-3,312,02/09/1992,Duke,G,TB,SF,1,Raymond James Stadium,"Tampa, FL",Outdoor,Natural Grass,Cloudy,93.0,52,9,SW
11095,2019090811,20190908110661,away,107.91,32.67,5.74,3.06,0.56,299.82,337.36,2552453,Tevin Coleman,26,2019,9,1,07:32:00,SF,1,10,SF,0,3,2552453,I_FORM,"2 RB, 1 TE, 2 WR",7,"4 DL, 3 LB, 4 DB",left,2019-09-08T20:50:44.000Z,2019-09-08T20:50:43.000Z,6-1,210,04/16/1993,Indiana,RB,TB,SF,1,Raymond James Stadium,"Tampa, FL",Outdoor,Natural Grass,Cloudy,93.0,52,9,SW
11096,2019090811,20190908110661,away,102.51,36.28,2.51,1.4,0.25,176.15,7.75,2558266,George Kittle,85,2019,9,1,07:32:00,SF,1,10,SF,0,3,2552453,I_FORM,"2 RB, 1 TE, 2 WR",7,"4 DL, 3 LB, 4 DB",left,2019-09-08T20:50:44.000Z,2019-09-08T20:50:43.000Z,6-4,250,10/09/1993,Iowa,TE,TB,SF,1,Raymond James Stadium,"Tampa, FL",Outdoor,Natural Grass,Cloudy,93.0,52,9,SW
11097,2019090811,20190908110661,away,100.43,33.43,2.49,1.21,0.25,299.39,296.43,2560805,Mike McGlinchey,69,2019,9,1,07:32:00,SF,1,10,SF,0,3,2552453,I_FORM,"2 RB, 1 TE, 2 WR",7,"4 DL, 3 LB, 4 DB",left,2019-09-08T20:50:44.000Z,2019-09-08T20:50:43.000Z,6-8,315,01/12/1995,Notre Dame,OT,TB,SF,1,Raymond James Stadium,"Tampa, FL",Outdoor,Natural Grass,Cloudy,93.0,52,9,SW
11098,2019090811,20190908110661,away,99.73,21.63,5.28,2.7,0.52,259.61,280.93,2562721,Deebo Samuel,19,2019,9,1,07:32:00,SF,1,10,SF,0,3,2552453,I_FORM,"2 RB, 1 TE, 2 WR",7,"4 DL, 3 LB, 4 DB",left,2019-09-08T20:50:44.000Z,2019-09-08T20:50:43.000Z,6-0,214,01/15/1996,South Carolina,WR,TB,SF,1,Raymond James Stadium,"Tampa, FL",Outdoor,Natural Grass,Cloudy,93.0,52,9,SW
11099,2019090811,20190908110661,home,84.71,33.66,3.28,1.8,0.34,80.0,290.4,494307,Darian Stewart,24,2019,9,1,07:32:00,SF,1,10,SF,0,3,2552453,I_FORM,"2 RB, 1 TE, 2 WR",7,"4 DL, 3 LB, 4 DB",left,2019-09-08T20:50:44.000Z,2019-09-08T20:50:43.000Z,5-11,214,08/04/1988,South Carolina,FS,TB,SF,1,Raymond James Stadium,"Tampa, FL",Outdoor,Natural Grass,Cloudy,93.0,52,9,SW
11100,2019090811,20190908110661,home,102.26,29.1,2.22,1.82,0.23,71.56,127.88,496861,Ndamukong Suh,93,2019,9,1,07:32:00,SF,1,10,SF,0,3,2552453,I_FORM,"2 RB, 1 TE, 2 WR",7,"4 DL, 3 LB, 4 DB",left,2019-09-08T20:50:44.000Z,2019-09-08T20:50:43.000Z,6-4,313,01/06/1987,Nebraska,DT,TB,SF,1,Raymond James Stadium,"Tampa, FL",Outdoor,Natural Grass,Cloudy,93.0,52,9,SW
11101,2019090811,20190908110661,home,97.09,35.42,3.92,2.37,0.38,60.74,14.88,2532828,Lavonte David,54,2019,9,1,07:32:00,SF,1,10,SF,0,3,2552453,I_FORM,"2 RB, 1 TE, 2 WR",7,"4 DL, 3 LB, 4 DB",left,2019-09-08T20:50:44.000Z,2019-09-08T20:50:43.000Z,6-1,233,01/23/1990,Nebraska,OLB,TB,SF,1,Raymond James Stadium,"Tampa, FL",Outdoor,Natural Grass,Cloudy,93.0,52,9,SW
11102,2019090811,20190908110661,home,101.3,29.31,2.52,1.14,0.28,80.92,17.72,2540176,William Gholston,92,2019,9,1,07:32:00,SF,1,10,SF,0,3,2552453,I_FORM,"2 RB, 1 TE, 2 WR",7,"4 DL, 3 LB, 4 DB",left,2019-09-08T20:50:44.000Z,2019-09-08T20:50:43.000Z,6-6,281,07/31/1991,Michigan State,DE,TB,SF,1,Raymond James Stadium,"Tampa, FL",Outdoor,Natural Grass,Cloudy,93.0,52,9,SW
11103,2019090811,20190908110661,home,102.96,33.97,3.53,0.46,0.36,138.01,103.6,2550541,Shaquil Barrett,58,2019,9,1,07:32:00,SF,1,10,SF,0,3,2552453,I_FORM,"2 RB, 1 TE, 2 WR",7,"4 DL, 3 LB, 4 DB",left,2019-09-08T20:50:44.000Z,2019-09-08T20:50:43.000Z,6-2,250,11/17/1992,Colorado State,OLB,TB,SF,1,Raymond James Stadium,"Tampa, FL",Outdoor,Natural Grass,Cloudy,93.0,52,9,SW
11104,2019090811,20190908110661,home,100.34,23.71,0.49,0.34,0.04,107.07,180.17,2555270,Carl Nassib,94,2019,9,1,07:32:00,SF,1,10,SF,0,3,2552453,I_FORM,"2 RB, 1 TE, 2 WR",7,"4 DL, 3 LB, 4 DB",left,2019-09-08T20:50:44.000Z,2019-09-08T20:50:43.000Z,6-7,275,04/12/1993,Penn State,DE,TB,SF,1,Raymond James Stadium,"Tampa, FL",Outdoor,Natural Grass,Cloudy,93.0,52,9,SW
11105,2019090811,20190908110661,home,92.26,19.76,2.79,2.56,0.27,356.03,295.53,2555299,Vernon Hargreaves III,28,2019,9,1,07:32:00,SF,1,10,SF,0,3,2552453,I_FORM,"2 RB, 1 TE, 2 WR",7,"4 DL, 3 LB, 4 DB",left,2019-09-08T20:50:44.000Z,2019-09-08T20:50:43.000Z,5-10,204,06/03/1995,Florida,CB,TB,SF,1,Raymond James Stadium,"Tampa, FL",Outdoor,Natural Grass,Cloudy,93.0,52,9,SW
11106,2019090811,20190908110661,home,103.0,28.06,2.28,1.95,0.23,64.28,104.99,2560909,Vita Vea,50,2019,9,1,07:32:00,SF,1,10,SF,0,3,2552453,I_FORM,"2 RB, 1 TE, 2 WR",7,"4 DL, 3 LB, 4 DB",left,2019-09-08T20:50:44.000Z,2019-09-08T20:50:43.000Z,6-4,347,02/05/1995,Washington,DT,TB,SF,1,Raymond James Stadium,"Tampa, FL",Outdoor,Natural Grass,Cloudy,93.0,52,9,SW
11107,2019090811,20190908110661,home,102.1,37.09,2.62,2.82,0.26,127.36,46.92,2560930,Jordan Whitehead,31,2019,9,1,07:32:00,SF,1,10,SF,0,3,2552453,I_FORM,"2 RB, 1 TE, 2 WR",7,"4 DL, 3 LB, 4 DB",left,2019-09-08T20:50:44.000Z,2019-09-08T20:50:43.000Z,5-10,198,03/18/1997,Pittsburgh,DB,TB,SF,1,Raymond James Stadium,"Tampa, FL",Outdoor,Natural Grass,Cloudy,93.0,52,9,SW
11108,2019090811,20190908110661,home,96.75,41.33,2.83,1.66,0.27,104.56,100.94,2561039,Carlton Davis,33,2019,9,1,07:32:00,SF,1,10,SF,0,3,2552453,I_FORM,"2 RB, 1 TE, 2 WR",7,"4 DL, 3 LB, 4 DB",left,2019-09-08T20:50:44.000Z,2019-09-08T20:50:43.000Z,6-1,206,12/31/1996,Auburn,CB,TB,SF,1,Raymond James Stadium,"Tampa, FL",Outdoor,Natural Grass,Cloudy,93.0,52,9,SW
11109,2019090811,20190908110661,home,98.57,31.65,2.92,2.41,0.28,103.88,11.25,2562781,Devin White,45,2019,9,1,07:32:00,SF,1,10,SF,0,3,2552453,I_FORM,"2 RB, 1 TE, 2 WR",7,"4 DL, 3 LB, 4 DB",left,2019-09-08T20:50:44.000Z,2019-09-08T20:50:43.000Z,6-0,237,02/17/1998,Louisiana State,LB,TB,SF,1,Raymond James Stadium,"Tampa, FL",Outdoor,Natural Grass,Cloudy,93.0,52,9,SW
