,GameId,PlayId,Team,X,Y,S,A,Dis,Orientation,Dir,NflId,DisplayName,JerseyNumber,Season,YardLine,Quarter,GameClock,PossessionTeam,Down,Distance,FieldPosition,HomeScoreBeforePlay,VisitorScoreBeforePlay,NflIdRusher,OffenseFormation,OffensePersonnel,DefendersInTheBox,DefensePersonnel,PlayDirection,TimeHandoff,TimeSnap,PlayerHeight,PlayerWeight,PlayerBirthDate,PlayerCollegeName,Position,HomeTeamAbbr,VisitorTeamAbbr,Week,Stadium,Location,StadiumType,Turf,GameWeather,Temperature,Humidity,WindSpeed,WindDirection
52404,2019092905,20190929052771,away,68.91,26.87,2.37,2.11,0.24,53.94,155.18,2495171,Rodney Hudson,61,2019,41,3,07:49:00,OAK,1,10,IND,10,21,2555464,SHOTGUN,"1 RB, 2 TE, 2 WR",5,"4 DL, 3 LB, 4 DB",right,2019-09-29T19:03:22.000Z,2019-09-29T19:03:21.000Z,6-2,315,07/12/1989,Florida State,C,IND,OAK,4,Lucas Oil Stadium,"Indianapolis, Ind.",Retr. Roof-Closed,Artificial,Cloudy,77.0,72,10,NNE
52405,2019092905,20190929052771,away,68.7,28.6,2.61,2.19,0.26,153.54,165.84,2506420,Richie Incognito,64,2019,41,3,07:49:00,OAK,1,10,IND,10,21,2555464,SHOTGUN,"1 RB, 2 TE, 2 WR",5,"4 DL, 3 LB, 4 DB",right,2019-09-29T19:03:22.000Z,2019-09-29T19:03:21.000Z,6-3,325,07/05/1983,Nebraska,G,IND,OAK,4,Lucas Oil Stadium,"Indianapolis, Ind.",Retr. Roof-Closed,Artificial,Cloudy,77.0,72,10,NNE
52406,2019092905,20190929052771,away,67.96,25.33,3.62,1.32,0.36,167.18,198.49,2540247,Jordan Devey,65,2019,41,3,07:49:00,OAK,1,10,IND,10,21,2555464,SHOTGUN,"1 RB, 2 TE, 2 WR",5,"4 DL, 3 LB, 4 DB",right,2019-09-29T19:03:22.000Z,2019-09-29T19:03:21.000Z,6-6,320,01/11/1988,Memphis,T,IND,OAK,4,Lucas Oil Stadium,"Indianapolis, Ind.",Retr. Roof-Closed,Artificial,Cloudy,77.0,72,10,NNE
52407,2019092905,20190929052771,away,64.01,30.01,0.69,0.21,0.07,82.37,283.88,2543499,Derek Carr,4,2019,41,3,07:49:00,OAK,1,10,IND,10,21,2555464,SHOTGUN,"1 RB, 2 TE, 2 WR",5,"4 DL, 3 LB, 4 DB",right,2019-09-29T19:03:22.000Z,2019-09-29T19:03:21.000Z,6-3,210,03/28/1991,Fresno State,QB,IND,OAK,4,Lucas Oil Stadium,"Indianapolis, Ind.",Retr. Roof-Closed,Artificial,Cloudy,77.0,72,10,NNE
52408,2019092905,20190929052771,away,70.33,36.55,4.97,3.12,0.48,119.07,110.63,2552408,Darren Waller,83,2019,41,3,07:49:00,OAK,1,10,IND,10,21,2555464,SHOTGUN,"1 RB, 2 TE, 2 WR",5,"4 DL, 3 LB, 4 DB",right,2019-09-29T19:03:22.000Z,2019-09-29T19:03:21.000Z,6-6,255,09/13/1992,Georgia Tech,TE,IND,OAK,4,Lucas Oil Stadium,"Indianapolis, Ind.",Retr. Roof-Closed,Artificial,Cloudy,77.0,72,10,NNE
52409,2019092905,20190929052771,away,70.67,45.72,3.73,2.15,0.36,93.6,87.99,2553913,Tyrell Williams,16,2019,41,3,07:49:00,OAK,1,10,IND,10,21,2555464,SHOTGUN,"1 RB, 2 TE, 2 WR",5,"4 DL, 3 LB, 4 DB",right,2019-09-29T19:03:22.000Z,2019-09-29T19:03:21.000Z,6-4,205,02/12/1992,Western Oregon,WR,IND,OAK,4,Lucas Oil Stadium,"Indianapolis, Ind.",Retr. Roof-Closed,Artificial,Cloudy,77.0,72,10,NNE
52410,2019092905,20190929052771,away,69.39,9.23,4.68,3.8,0.45,95.96,99.45,2555413,Trevor Davis,11,2019,41,3,07:49:00,OAK,1,10,IND,10,21,2555464,SHOTGUN,"1 RB, 2 TE, 2 WR",5,"4 DL, 3 LB, 4 DB",right,2019-09-29T19:03:22.000Z,2019-09-29T19:03:21.000Z,6-1,188,07/04/1993,California,WR,IND,OAK,4,Lucas Oil Stadium,"Indianapolis, Ind.",Retr. Roof-Closed,Artificial,Cloudy,77.0,72,10,NNE
52411,2019092905,20190929052771,away,64.76,30.06,4.51,2.77,0.44,153.76,170.82,2555464,DeAndre Washington,33,2019,41,3,07:49:00,OAK,1,10,IND,10,21,2555464,SHOTGUN,"1 RB, 2 TE, 2 WR",5,"4 DL, 3 LB, 4 DB",right,2019-09-29T19:03:22.000Z,2019-09-29T19:03:21.000Z,5-8,210,02/22/1993,Texas Tech,RB,IND,OAK,4,Lucas Oil Stadium,"Indianapolis, Ind.",Retr. Roof-Closed,Artificial,Cloudy,77.0,72,10,NNE
52412,2019092905,20190929052771,away,68.8,24.51,1.8,1.11,0.19,167.21,159.18,2558145,David Sharpe,72,2019,41,3,07:49:00,OAK,1,10,IND,10,21,2555464,SHOTGUN,"1 RB, 2 TE, 2 WR",5,"4 DL, 3 LB, 4 DB",right,2019-09-29T19:03:22.000Z,2019-09-29T19:03:21.000Z,6-6,330,10/21/1995,Florida,T,IND,OAK,4,Lucas Oil Stadium,"Indianapolis, Ind.",Retr. Roof-Closed,Artificial,Cloudy,77.0,72,10,NNE
52413,2019092905,20190929052771,away,67.25,33.37,2.05,1.77,0.2,7.85,282.14,2560811,Kolton Miller,74,2019,41,3,07:49:00,OAK,1,10,IND,10,21,2555464,SHOTGUN,"1 RB, 2 TE, 2 WR",5,"4 DL, 3 LB, 4 DB",right,2019-09-29T19:03:22.000Z,2019-09-29T19:03:21.000Z,6-8,325,10/09/1995,UCLA,T,IND,OAK,4,Lucas Oil Stadium,"Indianapolis, Ind.",Retr. Roof-Closed,Artificial,Cloudy,77.0,72,10,NNE
52414,2019092905,20190929052771,away,70.66,19.91,4.24,1.28,0.42,116.0,103.5,2562317,Foster Moreau,87,2019,41,3,07:49:00,OAK,1,10,IND,10,21,2555464,SHOTGUN,"1 RB, 2 TE, 2 WR",5,"4 DL, 3 LB, 4 DB",right,2019-09-29T19:03:22.000Z,2019-09-29T19:03:21.000Z,6-4,250,05/06/1997,Louisiana State,TE,IND,OAK,4,Lucas Oil Stadium,"Indianapolis, Ind.",Retr. Roof-Closed,Artificial,Cloudy,77.0,72,10,NNE
52415,2019092905,20190929052771,home,69.37,23.69,1.34,1.53,0.13,350.95,242.47,2495228,Jabaal Sheard,93,2019,41,3,07:49:00,OAK,1,10,IND,10,21,2555464,SHOTGUN,"1 RB, 2 TE, 2 WR",5,"4 DL, 3 LB, 4 DB",right,2019-09-29T19:03:22.000Z,2019-09-29T19:03:21.000Z,6-3,268,05/10/1989,Pittsburgh,DE,IND,OAK,4,Lucas Oil Stadium,"Indianapolis, Ind.",Retr. Roof-Closed,Artificial,Cloudy,77.0,72,10,NNE
52416,2019092905,20190929052771,home,68.08,24.68,4.27,0.77,0.43,269.12,219.25,2539310,Margus Hunt,92,2019,41,3,07:49:00,OAK,1,10,IND,10,21,2555464,SHOTGUN,"1 RB, 2 TE, 2 WR",5,"4 DL, 3 LB, 4 DB",right,2019-09-29T19:03:22.000Z,2019-09-29T19:03:21.000Z,6-8,295,07/14/1987,Southern Methodist,DT,IND,OAK,4,Lucas Oil Stadium,"Indianapolis, Ind.",Retr. Roof-Closed,Artificial,Cloudy,77.0,72,10,NNE
52417,2019092905,20190929052771,home,80.63,37.83,2.1,3.53,0.2,261.23,260.18,2552386,Clayton Geathers,26,2019,41,3,07:49:00,OAK,1,10,IND,10,21,2555464,SHOTGUN,"1 RB, 2 TE, 2 WR",5,"4 DL, 3 LB, 4 DB",right,2019-09-29T19:03:22.000Z,2019-09-29T19:03:21.000Z,6-2,216,06/01/1992,Central Florida,FS,IND,OAK,4,Lucas Oil Stadium,"Indianapolis, Ind.",Retr. Roof-Closed,Artificial,Cloudy,77.0,72,10,NNE
52418,2019092905,20190929052771,home,68.41,27.83,3.13,2.12,0.32,230.21,209.95,2555248,Jihad Ward,51,2019,41,3,07:49:00,OAK,1,10,IND,10,21,2555464,SHOTGUN,"1 RB, 2 TE, 2 WR",5,"4 DL, 3 LB, 4 DB",right,2019-09-29T19:03:22.000Z,2019-09-29T19:03:21.000Z,6-5,287,05/11/1994,Illinois,DT,IND,OAK,4,Lucas Oil Stadium,"Indianapolis, Ind.",Retr. Roof-Closed,Artificial,Cloudy,77.0,72,10,NNE
52419,2019092905,20190929052771,home,75.28,19.39,1.13,0.63,0.11,301.95,136.14,2558851,Anthony Walker,50,2019,41,3,07:49:00,OAK,1,10,IND,10,21,2555464,SHOTGUN,"1 RB, 2 TE, 2 WR",5,"4 DL, 3 LB, 4 DB",right,2019-09-29T19:03:22.000Z,2019-09-29T19:03:21.000Z,6-1,230,08/08/1995,Northwestern,ILB,IND,OAK,4,Lucas Oil Stadium,"Indianapolis, Ind.",Retr. Roof-Closed,Artificial,Cloudy,77.0,72,10,NNE
52420,2019092905,20190929052771,home,72.23,9.57,2.04,3.22,0.19,231.73,96.6,2558976,Kenny Moore,23,2019,41,3,07:49:00,OAK,1,10,IND,10,21,2555464,SHOTGUN,"1 RB, 2 TE, 2 WR",5,"4 DL, 3 LB, 4 DB",right,2019-09-29T19:03:22.000Z,2019-09-29T19:03:21.000Z,5-9,190,08/23/1995,Valdosta State,CB,IND,OAK,4,Lucas Oil Stadium,"Indianapolis, Ind.",Retr. Roof-Closed,Artificial,Cloudy,77.0,72,10,NNE
52421,2019092905,20190929052771,home,67.38,34.4,3.22,1.43,0.32,208.01,256.25,2562229,Ben Banogu,52,2019,41,3,07:49:00,OAK,1,10,IND,10,21,2555464,SHOTGUN,"1 RB, 2 TE, 2 WR",5,"4 DL, 3 LB, 4 DB",right,2019-09-29T19:03:22.000Z,2019-09-29T19:03:21.000Z,6-3,252,01/19/1996,Texas Christian,DE,IND,OAK,4,Lucas Oil Stadium,"Indianapolis, Ind.",Retr. Roof-Closed,Artificial,Cloudy,77.0,72,10,NNE
52422,2019092905,20190929052771,home,70.74,28.03,3.05,1.91,0.3,251.03,233.37,2562416,Bobby Okereke,58,2019,41,3,07:49:00,OAK,1,10,IND,10,21,2555464,SHOTGUN,"1 RB, 2 TE, 2 WR",5,"4 DL, 3 LB, 4 DB",right,2019-09-29T19:03:22.000Z,2019-09-29T19:03:21.000Z,6-1,234,07/29/1996,Stanford,LB,IND,OAK,4,Lucas Oil Stadium,"Indianapolis, Ind.",Retr. Roof-Closed,Artificial,Cloudy,77.0,72,10,NNE
52423,2019092905,20190929052771,home,83.61,20.63,4.08,2.16,0.4,339.48,39.3,2562602,Khari Willis,37,2019,41,3,07:49:00,OAK,1,10,IND,10,21,2555464,SHOTGUN,"1 RB, 2 TE, 2 WR",5,"4 DL, 3 LB, 4 DB",right,2019-09-29T19:03:22.000Z,2019-09-29T19:03:21.000Z,5-11,215,05/07/1996,Michigan State,DB,IND,OAK,4,Lucas Oil Stadium,"Indianapolis, Ind.",Retr. Roof-Closed,Artificial,Cloudy,77.0,72,10,NNE
52424,2019092905,20190929052771,home,72.58,45.21,2.22,2.64,0.21,309.98,89.19,2562614,Rock Ya-Sin,34,2019,41,3,07:49:00,OAK,1,10,IND,10,21,2555464,SHOTGUN,"1 RB, 2 TE, 2 WR",5,"4 DL, 3 LB, 4 DB",right,2019-09-29T19:03:22.000Z,2019-09-29T19:03:21.000Z,6-0,190,05/23/1996,Temple,DB,IND,OAK,4,Lucas Oil Stadium,"Indianapolis, Ind.",Retr. Roof-Closed,Artificial,Cloudy,77.0,72,10,NNE
52425,2019092905,20190929052771,home,70.76,34.03,5.74,2.57,0.56,238.42,211.73,2562955,E.J. Speed,45,2019,41,3,07:49:00,OAK,1,10,IND,10,21,2555464,SHOTGUN,"1 RB, 2 TE, 2 WR",5,"4 DL, 3 LB, 4 DB",right,2019-09-29T19:03:22.000Z,2019-09-29T19:03:21.000Z,6-3,230,06/01/1995,Tarleton State,LB,IND,OAK,4,Lucas Oil Stadium,"Indianapolis, Ind.",Retr. Roof-Closed,Artificial,Cloudy,77.0,72,10,NNE
