,GameId,PlayId,Team,X,Y,S,A,Dis,Orientation,Dir,NflId,DisplayName,JerseyNumber,Season,YardLine,Quarter,GameClock,PossessionTeam,Down,Distance,FieldPosition,HomeScoreBeforePlay,VisitorScoreBeforePlay,NflIdRusher,OffenseFormation,OffensePersonnel,DefendersInTheBox,DefensePersonnel,PlayDirection,TimeHandoff,TimeSnap,PlayerHeight,PlayerWeight,PlayerBirthDate,PlayerCollegeName,Position,HomeTeamAbbr,VisitorTeamAbbr,Week,Stadium,Location,StadiumType,Turf,GameWeather,Temperature,Humidity,WindSpeed,WindDirection
72864,2019100611,20191006111516,away,37.62,31.14,3.06,1.23,0.3,225.96,208.74,496988,Bryan Bulaga,75,2019,27,2,06:15:00,GB,1,10,DAL,0,14,2558116,WILDCAT,"1 RB, 1 TE, 3 WR",6,"4 DL, 2 LB, 5 DB",left,2019-10-06T21:27:13.000Z,2019-10-06T21:27:12.000Z,6-5,314,03/21/1989,Iowa,OT,DAL,GB,5,AT&T Stadium,"Arlington, Texas",Indoor,Artificial,,,0,,
72865,2019100611,20191006111516,away,37.94,32.89,3.32,2.64,0.31,219.85,193.46,497236,Jimmy Graham,80,2019,27,2,06:15:00,GB,1,10,DAL,0,14,2558116,WILDCAT,"1 RB, 1 TE, 3 WR",6,"4 DL, 2 LB, 5 DB",left,2019-10-06T21:27:13.000Z,2019-10-06T21:27:12.000Z,6-7,265,11/24/1986,Miami,TE,DAL,GB,5,AT&T Stadium,"Arlington, Texas",Indoor,Artificial,,,0,,
72866,2019100611,20191006111516,away,42.42,29.93,2.4,2.12,0.23,300.02,59.06,2506363,Aaron Rodgers,12,2019,27,2,06:15:00,GB,1,10,DAL,0,14,2558116,WILDCAT,"1 RB, 1 TE, 3 WR",6,"4 DL, 2 LB, 5 DB",left,2019-10-06T21:27:13.000Z,2019-10-06T21:27:12.000Z,6-2,225,12/02/1983,California,QB,DAL,GB,5,AT&T Stadium,"Arlington, Texas",Indoor,Artificial,,,0,,
72867,2019100611,20191006111516,away,38.54,24.9,1.9,0.59,0.19,183.54,164.0,2540183,David Bakhtiari,69,2019,27,2,06:15:00,GB,1,10,DAL,0,14,2558116,WILDCAT,"1 RB, 1 TE, 3 WR",6,"4 DL, 2 LB, 5 DB",left,2019-10-06T21:27:13.000Z,2019-10-06T21:27:12.000Z,6-4,310,09/30/1991,Colorado,T,DAL,GB,5,AT&T Stadium,"Arlington, Texas",Indoor,Artificial,,,0,,
72868,2019100611,20191006111516,away,37.55,30.31,2.58,2.72,0.25,256.78,200.0,2543740,Billy Turner,77,2019,27,2,06:15:00,GB,1,10,DAL,0,14,2558116,WILDCAT,"1 RB, 1 TE, 3 WR",6,"4 DL, 2 LB, 5 DB",left,2019-10-06T21:27:13.000Z,2019-10-06T21:27:12.000Z,6-5,310,10/17/1991,North Dakota State,OG,DAL,GB,5,AT&T Stadium,"Arlington, Texas",Indoor,Artificial,,,0,,
72869,2019100611,20191006111516,away,37.48,16.89,3.31,3.75,0.33,243.97,243.63,2553548,Jake Kumerow,16,2019,27,2,06:15:00,GB,1,10,DAL,0,14,2558116,WILDCAT,"1 RB, 1 TE, 3 WR",6,"4 DL, 2 LB, 5 DB",left,2019-10-06T21:27:13.000Z,2019-10-06T21:27:12.000Z,6-4,209,02/17/1992,Wisconsin-Whitewater,WR,DAL,GB,5,AT&T Stadium,"Arlington, Texas",Indoor,Artificial,,,0,,
72870,2019100611,20191006111516,away,38.85,20.41,3.3,6.06,0.31,239.4,170.8,2556460,Geronimo Allison,81,2019,27,2,06:15:00,GB,1,10,DAL,0,14,2558116,WILDCAT,"1 RB, 1 TE, 3 WR",6,"4 DL, 2 LB, 5 DB",left,2019-10-06T21:27:13.000Z,2019-10-06T21:27:12.000Z,6-3,202,01/18/1994,Illinois,WR,DAL,GB,5,AT&T Stadium,"Arlington, Texas",Indoor,Artificial,,,0,,
72871,2019100611,20191006111516,away,38.04,28.1,2.59,0.17,0.27,241.98,156.11,2557031,Lucas Patrick,62,2019,27,2,06:15:00,GB,1,10,DAL,0,14,2558116,WILDCAT,"1 RB, 1 TE, 3 WR",6,"4 DL, 2 LB, 5 DB",left,2019-10-06T21:27:13.000Z,2019-10-06T21:27:12.000Z,6-3,313,07/30/1993,Duke,G,DAL,GB,5,AT&T Stadium,"Arlington, Texas",Indoor,Artificial,,,0,,
72872,2019100611,20191006111516,away,41.51,30.85,2.27,2.65,0.21,224.48,207.31,2558116,Aaron Jones,33,2019,27,2,06:15:00,GB,1,10,DAL,0,14,2558116,WILDCAT,"1 RB, 1 TE, 3 WR",6,"4 DL, 2 LB, 5 DB",left,2019-10-06T21:27:13.000Z,2019-10-06T21:27:12.000Z,5-9,208,12/02/1994,Texas-El Paso,RB,DAL,GB,5,AT&T Stadium,"Arlington, Texas",Indoor,Artificial,,,0,,
72873,2019100611,20191006111516,away,36.77,10.77,3.25,4.05,0.32,260.73,261.3,2560907,Marquez Valdes-Scantling,83,2019,27,2,06:15:00,GB,1,10,DAL,0,14,2558116,WILDCAT,"1 RB, 1 TE, 3 WR",6,"4 DL, 2 LB, 5 DB",left,2019-10-06T21:27:13.000Z,2019-10-06T21:27:12.000Z,6-4,207,10/10/1994,South Florida,WR,DAL,GB,5,AT&T Stadium,"Arlington, Texas",Indoor,Artificial,,,0,,
72874,2019100611,20191006111516,away,38.34,26.49,2.8,1.43,0.28,178.85,180.0,2562671,Elgton Jenkins,74,2019,27,2,06:15:00,GB,1,10,DAL,0,14,2558116,WILDCAT,"1 RB, 1 TE, 3 WR",6,"4 DL, 2 LB, 5 DB",left,2019-10-06T21:27:13.000Z,2019-10-06T21:27:12.000Z,6-5,310,12/26/1995,Mississippi State,G,DAL,GB,5,AT&T Stadium,"Arlington, Texas",Indoor,Artificial,,,0,,
72875,2019100611,20191006111516,home,37.95,23.64,3.29,0.56,0.33,41.64,97.17,2495485,Robert Quinn,58,2019,27,2,06:15:00,GB,1,10,DAL,0,14,2558116,WILDCAT,"1 RB, 1 TE, 3 WR",6,"4 DL, 2 LB, 5 DB",left,2019-10-06T21:27:13.000Z,2019-10-06T21:27:12.000Z,6-4,257,05/18/1990,North Carolina,DE,DAL,GB,5,AT&T Stadium,"Arlington, Texas",Indoor,Artificial,,,0,,
72876,2019100611,20191006111516,home,32.34,31.29,0.76,3.52,0.06,76.56,122.83,2541832,Jeff Heath,38,2019,27,2,06:15:00,GB,1,10,DAL,0,14,2558116,WILDCAT,"1 RB, 1 TE, 3 WR",6,"4 DL, 2 LB, 5 DB",left,2019-10-06T21:27:13.000Z,2019-10-06T21:27:12.000Z,6-1,212,05/14/1991,Saginaw Valley State,SS,DAL,GB,5,AT&T Stadium,"Arlington, Texas",Indoor,Artificial,,,0,,
72877,2019100611,20191006111516,home,36.86,32.9,2.72,1.3,0.27,113.84,163.36,2543490,Demarcus Lawrence,90,2019,27,2,06:15:00,GB,1,10,DAL,0,14,2558116,WILDCAT,"1 RB, 1 TE, 3 WR",6,"4 DL, 2 LB, 5 DB",left,2019-10-06T21:27:13.000Z,2019-10-06T21:27:12.000Z,6-3,265,04/28/1992,Boise State,DE,DAL,GB,5,AT&T Stadium,"Arlington, Texas",Indoor,Artificial,,,0,,
72878,2019100611,20191006111516,home,33.83,10.8,2.66,3.68,0.25,358.4,252.26,2552568,Byron Jones,31,2019,27,2,06:15:00,GB,1,10,DAL,0,14,2558116,WILDCAT,"1 RB, 1 TE, 3 WR",6,"4 DL, 2 LB, 5 DB",left,2019-10-06T21:27:13.000Z,2019-10-06T21:27:12.000Z,6-1,205,09/26/1992,Connecticut,CB,DAL,GB,5,AT&T Stadium,"Arlington, Texas",Indoor,Artificial,,,0,,
72879,2019100611,20191006111516,home,30.56,21.43,1.49,0.82,0.14,79.6,172.8,2555310,Jaylon Smith,54,2019,27,2,06:15:00,GB,1,10,DAL,0,14,2558116,WILDCAT,"1 RB, 1 TE, 3 WR",6,"4 DL, 2 LB, 5 DB",left,2019-10-06T21:27:13.000Z,2019-10-06T21:27:12.000Z,6-2,245,06/14/1995,Notre Dame,MLB,DAL,GB,5,AT&T Stadium,"Arlington, Texas",Indoor,Artificial,,,0,,
72880,2019100611,20191006111516,home,36.74,30.24,3.08,0.71,0.34,133.67,160.48,2555400,Maliek Collins,96,2019,27,2,06:15:00,GB,1,10,DAL,0,14,2558116,WILDCAT,"1 RB, 1 TE, 3 WR",6,"4 DL, 2 LB, 5 DB",left,2019-10-06T21:27:13.000Z,2019-10-06T21:27:12.000Z,6-2,308,04/08/1995,Nebraska,DT,DAL,GB,5,AT&T Stadium,"Arlington, Texas",Indoor,Artificial,,,0,,
72881,2019100611,20191006111516,home,32.04,17.31,1.26,3.74,0.1,103.27,182.25,2555531,Anthony Brown,30,2019,27,2,06:15:00,GB,1,10,DAL,0,14,2558116,WILDCAT,"1 RB, 1 TE, 3 WR",6,"4 DL, 2 LB, 5 DB",left,2019-10-06T21:27:13.000Z,2019-10-06T21:27:12.000Z,5-11,196,12/15/1993,Purdue,CB,DAL,GB,5,AT&T Stadium,"Arlington, Texas",Indoor,Artificial,,,0,,
72882,2019100611,20191006111516,home,33.88,37.18,0.68,1.7,0.06,105.31,246.97,2557840,Chidobe Awuzie,24,2019,27,2,06:15:00,GB,1,10,DAL,0,14,2558116,WILDCAT,"1 RB, 1 TE, 3 WR",6,"4 DL, 2 LB, 5 DB",left,2019-10-06T21:27:13.000Z,2019-10-06T21:27:12.000Z,6-0,202,05/24/1995,Colorado,CB,DAL,GB,5,AT&T Stadium,"Arlington, Texas",Indoor,Artificial,,,0,,
72883,2019100611,20191006111516,home,20.9,25.73,1.94,1.06,0.19,92.87,264.04,2558159,Xavier Woods,25,2019,27,2,06:15:00,GB,1,10,DAL,0,14,2558116,WILDCAT,"1 RB, 1 TE, 3 WR",6,"4 DL, 2 LB, 5 DB",left,2019-10-06T21:27:13.000Z,2019-10-06T21:27:12.000Z,5-11,202,07/26/1995,Louisiana Tech,FS,DAL,GB,5,AT&T Stadium,"Arlington, Texas",Indoor,Artificial,,,0,,
72884,2019100611,20191006111516,home,32.02,25.99,2.1,2.54,0.21,110.83,169.33,2560908,Leighton Vander Esch,55,2019,27,2,06:15:00,GB,1,10,DAL,0,14,2558116,WILDCAT,"1 RB, 1 TE, 3 WR",6,"4 DL, 2 LB, 5 DB",left,2019-10-06T21:27:13.000Z,2019-10-06T21:27:12.000Z,6-4,256,02/08/1996,Boise State,LB,DAL,GB,5,AT&T Stadium,"Arlington, Texas",Indoor,Artificial,,,0,,
72885,2019100611,20191006111516,home,37.29,27.98,2.27,1.53,0.23,66.23,145.66,2562663,Trysten Hill,97,2019,27,2,06:15:00,GB,1,10,DAL,0,14,2558116,WILDCAT,"1 RB, 1 TE, 3 WR",6,"4 DL, 2 LB, 5 DB",left,2019-10-06T21:27:13.000Z,2019-10-06T21:27:12.000Z,6-3,308,03/25/1998,Central Florida,DT,DAL,GB,5,AT&T Stadium,"Arlington, Texas",Indoor,Artificial,,,0,,
