,GameId,PlayId,Team,X,Y,S,A,Dis,Orientation,Dir,NflId,DisplayName,JerseyNumber,Season,YardLine,Quarter,GameClock,PossessionTeam,Down,Distance,FieldPosition,HomeScoreBeforePlay,VisitorScoreBeforePlay,NflIdRusher,OffenseFormation,OffensePersonnel,DefendersInTheBox,DefensePersonnel,PlayDirection,TimeHandoff,TimeSnap,PlayerHeight,PlayerWeight,PlayerBirthDate,PlayerCollegeName,Position,HomeTeamAbbr,VisitorTeamAbbr,Week,Stadium,Location,StadiumType,Turf,GameWeather,Temperature,Humidity,WindSpeed,WindDirection
40986,2019092209,20190922092555,away,29.07,32.45,3.12,0.58,0.3,89.75,15.94,2495232,Nate Solder,76,2019,20,3,12:11:00,NYG,1,10,NYG,28,18,2555295,SINGLEBACK,"1 RB, 1 TE, 3 WR",6,"2 DL, 4 LB, 5 DB",right,2019-09-22T22:07:19.000Z,2019-09-22T22:07:19.000Z,6-9,325,04/12/1988,Colorado,T,TB,NYG,3,Raymond James Stadium,"Tampa, FL",Outdoor,Natural Grass,Cloudy,88.0,46,11,E
40987,2019092209,20190922092555,away,29.29,25.94,0.43,1.05,0.05,83.37,92.24,2532980,Kevin Zeitler,70,2019,20,3,12:11:00,NYG,1,10,NYG,28,18,2555295,SINGLEBACK,"1 RB, 1 TE, 3 WR",6,"2 DL, 4 LB, 5 DB",right,2019-09-22T22:07:19.000Z,2019-09-22T22:07:19.000Z,6-4,315,03/08/1990,Wisconsin,G,TB,NYG,3,Raymond James Stadium,"Tampa, FL",Outdoor,Natural Grass,Cloudy,88.0,46,11,E
40988,2019092209,20190922092555,away,30.48,24.17,3.3,2.86,0.34,95.88,104.51,2535607,Mike Remmers,74,2019,20,3,12:11:00,NYG,1,10,NYG,28,18,2555295,SINGLEBACK,"1 RB, 1 TE, 3 WR",6,"2 DL, 4 LB, 5 DB",right,2019-09-22T22:07:19.000Z,2019-09-22T22:07:19.000Z,6-5,310,04/11/1989,Oregon State,T,TB,NYG,3,Raymond James Stadium,"Tampa, FL",Outdoor,Natural Grass,Cloudy,88.0,46,11,E
40989,2019092209,20190922092555,away,28.84,19.95,4.38,4.01,0.42,97.76,133.07,2541944,Russell Shepard,81,2019,20,3,12:11:00,NYG,1,10,NYG,28,18,2555295,SINGLEBACK,"1 RB, 1 TE, 3 WR",6,"2 DL, 4 LB, 5 DB",right,2019-09-22T22:07:19.000Z,2019-09-22T22:07:19.000Z,6-0,195,09/17/1990,LSU,WR,TB,NYG,3,Raymond James Stadium,"Tampa, FL",Outdoor,Natural Grass,Cloudy,88.0,46,11,E
40990,2019092209,20190922092555,away,28.32,27.96,1.52,0.73,0.16,103.38,281.91,2543708,Jon Halapio,75,2019,20,3,12:11:00,NYG,1,10,NYG,28,18,2555295,SINGLEBACK,"1 RB, 1 TE, 3 WR",6,"2 DL, 4 LB, 5 DB",right,2019-09-22T22:07:19.000Z,2019-09-22T22:07:19.000Z,6-4,315,06/23/1991,Florida,C,TB,NYG,3,Raymond James Stadium,"Tampa, FL",Outdoor,Natural Grass,Cloudy,88.0,46,11,E
40991,2019092209,20190922092555,away,30.63,36.96,3.65,3.58,0.34,60.01,102.98,2550198,Bennie Fowler,18,2019,20,3,12:11:00,NYG,1,10,NYG,28,18,2555295,SINGLEBACK,"1 RB, 1 TE, 3 WR",6,"2 DL, 4 LB, 5 DB",right,2019-09-22T22:07:19.000Z,2019-09-22T22:07:19.000Z,6-1,218,06/10/1991,Michigan State,WR,TB,NYG,3,Raymond James Stadium,"Tampa, FL",Outdoor,Natural Grass,Cloudy,88.0,46,11,E
40992,2019092209,20190922092555,away,26.72,26.54,7.97,1.5,0.79,149.91,182.49,2555295,Sterling Shepard,87,2019,20,3,12:11:00,NYG,1,10,NYG,28,18,2555295,SINGLEBACK,"1 RB, 1 TE, 3 WR",6,"2 DL, 4 LB, 5 DB",right,2019-09-22T22:07:19.000Z,2019-09-22T22:07:19.000Z,5-10,201,02/10/1993,Oklahoma,WR,TB,NYG,3,Raymond James Stadium,"Tampa, FL",Outdoor,Natural Grass,Cloudy,88.0,46,11,E
40993,2019092209,20190922092555,away,29.06,20.9,3.48,2.97,0.33,120.09,150.02,2557858,Evan Engram,88,2019,20,3,12:11:00,NYG,1,10,NYG,28,18,2555295,SINGLEBACK,"1 RB, 1 TE, 3 WR",6,"2 DL, 4 LB, 5 DB",right,2019-09-22T22:07:19.000Z,2019-09-22T22:07:19.000Z,6-3,240,09/02/1994,Mississippi,TE,TB,NYG,3,Raymond James Stadium,"Tampa, FL",Outdoor,Natural Grass,Cloudy,88.0,46,11,E
40994,2019092209,20190922092555,away,24.28,28.49,3.09,0.91,0.33,140.45,53.18,2557952,Wayne Gallman,22,2019,20,3,12:11:00,NYG,1,10,NYG,28,18,2555295,SINGLEBACK,"1 RB, 1 TE, 3 WR",6,"2 DL, 4 LB, 5 DB",right,2019-09-22T22:07:19.000Z,2019-09-22T22:07:19.000Z,6-0,210,10/01/1994,Clemson,RB,TB,NYG,3,Raymond James Stadium,"Tampa, FL",Outdoor,Natural Grass,Cloudy,88.0,46,11,E
40995,2019092209,20190922092555,away,28.69,29.23,1.22,1.78,0.13,93.29,309.58,2560737,Will Hernandez,71,2019,20,3,12:11:00,NYG,1,10,NYG,28,18,2555295,SINGLEBACK,"1 RB, 1 TE, 3 WR",6,"2 DL, 4 LB, 5 DB",right,2019-09-22T22:07:19.000Z,2019-09-22T22:07:19.000Z,6-3,327,09/02/1995,Texas-El Paso,G,TB,NYG,3,Raymond James Stadium,"Tampa, FL",Outdoor,Natural Grass,Cloudy,88.0,46,11,E
40996,2019092209,20190922092555,away,27.12,27.57,3.0,2.85,0.28,332.25,287.73,2562299,Daniel Jones,8,2019,20,3,12:11:00,NYG,1,10,NYG,28,18,2555295,SINGLEBACK,"1 RB, 1 TE, 3 WR",6,"2 DL, 4 LB, 5 DB",right,2019-09-22T22:07:19.000Z,2019-09-22T22:07:19.000Z,6-5,220,05/27/1997,Duke,QB,TB,NYG,3,Raymond James Stadium,"Tampa, FL",Outdoor,Natural Grass,Cloudy,88.0,46,11,E
40997,2019092209,20190922092555,home,30.04,25.78,0.3,1.48,0.05,295.69,199.51,496861,Ndamukong Suh,93,2019,20,3,12:11:00,NYG,1,10,NYG,28,18,2555295,SINGLEBACK,"1 RB, 1 TE, 3 WR",6,"2 DL, 4 LB, 5 DB",right,2019-09-22T22:07:19.000Z,2019-09-22T22:07:19.000Z,6-4,313,01/06/1987,Nebraska,DT,TB,NYG,3,Raymond James Stadium,"Tampa, FL",Outdoor,Natural Grass,Cloudy,88.0,46,11,E
40998,2019092209,20190922092555,home,32.69,26.94,2.56,1.54,0.22,244.54,301.12,2532828,Lavonte David,54,2019,20,3,12:11:00,NYG,1,10,NYG,28,18,2555295,SINGLEBACK,"1 RB, 1 TE, 3 WR",6,"2 DL, 4 LB, 5 DB",right,2019-09-22T22:07:19.000Z,2019-09-22T22:07:19.000Z,6-1,233,01/23/1990,Nebraska,OLB,TB,NYG,3,Raymond James Stadium,"Tampa, FL",Outdoor,Natural Grass,Cloudy,88.0,46,11,E
40999,2019092209,20190922092555,home,33.15,30.97,1.35,1.58,0.14,261.66,311.1,2540159,Kevin Minter,51,2019,20,3,12:11:00,NYG,1,10,NYG,28,18,2555295,SINGLEBACK,"1 RB, 1 TE, 3 WR",6,"2 DL, 4 LB, 5 DB",right,2019-09-22T22:07:19.000Z,2019-09-22T22:07:19.000Z,6-0,246,12/03/1990,Louisiana State,MLB,TB,NYG,3,Raymond James Stadium,"Tampa, FL",Outdoor,Natural Grass,Cloudy,88.0,46,11,E
41000,2019092209,20190922092555,home,47.18,26.95,2.53,0.22,0.25,265.69,120.09,2540185,Mike Edwards,34,2019,20,3,12:11:00,NYG,1,10,NYG,28,18,2555295,SINGLEBACK,"1 RB, 1 TE, 3 WR",6,"2 DL, 4 LB, 5 DB",right,2019-09-22T22:07:19.000Z,2019-09-22T22:07:19.000Z,5-10,200,05/18/1996,Kentucky,FS,TB,NYG,3,Raymond James Stadium,"Tampa, FL",Outdoor,Natural Grass,Cloudy,88.0,46,11,E
41001,2019092209,20190922092555,home,29.04,31.86,2.31,0.43,0.22,253.33,242.47,2550541,Shaquil Barrett,58,2019,20,3,12:11:00,NYG,1,10,NYG,28,18,2555295,SINGLEBACK,"1 RB, 1 TE, 3 WR",6,"2 DL, 4 LB, 5 DB",right,2019-09-22T22:07:19.000Z,2019-09-22T22:07:19.000Z,6-2,250,11/17/1992,Colorado State,OLB,TB,NYG,3,Raymond James Stadium,"Tampa, FL",Outdoor,Natural Grass,Cloudy,88.0,46,11,E
41002,2019092209,20190922092555,home,29.52,23.66,2.78,1.94,0.27,261.96,290.29,2555270,Carl Nassib,94,2019,20,3,12:11:00,NYG,1,10,NYG,28,18,2555295,SINGLEBACK,"1 RB, 1 TE, 3 WR",6,"2 DL, 4 LB, 5 DB",right,2019-09-22T22:07:19.000Z,2019-09-22T22:07:19.000Z,6-7,275,04/12/1993,Penn State,DE,TB,NYG,3,Raymond James Stadium,"Tampa, FL",Outdoor,Natural Grass,Cloudy,88.0,46,11,E
41003,2019092209,20190922092555,home,35.08,39.23,2.63,1.86,0.25,186.41,109.53,2555299,Vernon Hargreaves III,28,2019,20,3,12:11:00,NYG,1,10,NYG,28,18,2555295,SINGLEBACK,"1 RB, 1 TE, 3 WR",6,"2 DL, 4 LB, 5 DB",right,2019-09-22T22:07:19.000Z,2019-09-22T22:07:19.000Z,5-10,204,06/03/1995,Florida,CB,TB,NYG,3,Raymond James Stadium,"Tampa, FL",Outdoor,Natural Grass,Cloudy,88.0,46,11,E
41004,2019092209,20190922092555,home,34.88,28.3,7.12,1.51,0.71,181.92,170.46,2560884,M.J. Stewart,36,2019,20,3,12:11:00,NYG,1,10,NYG,28,18,2555295,SINGLEBACK,"1 RB, 1 TE, 3 WR",6,"2 DL, 4 LB, 5 DB",right,2019-09-22T22:07:19.000Z,2019-09-22T22:07:19.000Z,5-11,205,09/16/1995,North Carolina,CB,TB,NYG,3,Raymond James Stadium,"Tampa, FL",Outdoor,Natural Grass,Cloudy,88.0,46,11,E
41005,2019092209,20190922092555,home,28.79,28.45,1.7,1.19,0.18,239.44,285.37,2560909,Vita Vea,50,2019,20,3,12:11:00,NYG,1,10,NYG,28,18,2555295,SINGLEBACK,"1 RB, 1 TE, 3 WR",6,"2 DL, 4 LB, 5 DB",right,2019-09-22T22:07:19.000Z,2019-09-22T22:07:19.000Z,6-4,347,02/05/1995,Washington,DT,TB,NYG,3,Raymond James Stadium,"Tampa, FL",Outdoor,Natural Grass,Cloudy,88.0,46,11,E
41006,2019092209,20190922092555,home,31.78,21.29,2.07,1.96,0.2,246.61,136.08,2560930,Jordan Whitehead,31,2019,20,3,12:11:00,NYG,1,10,NYG,28,18,2555295,SINGLEBACK,"1 RB, 1 TE, 3 WR",6,"2 DL, 4 LB, 5 DB",right,2019-09-22T22:07:19.000Z,2019-09-22T22:07:19.000Z,5-10,198,03/18/1997,Pittsburgh,DB,TB,NYG,3,Raymond James Stadium,"Tampa, FL",Outdoor,Natural Grass,Cloudy,88.0,46,11,E
41007,2019092209,20190922092555,home,34.44,18.89,1.69,3.15,0.15,274.3,150.16,2561039,Carlton Davis,33,2019,20,3,12:11:00,NYG,1,10,NYG,28,18,2555295,SINGLEBACK,"1 RB, 1 TE, 3 WR",6,"2 DL, 4 LB, 5 DB",right,2019-09-22T22:07:19.000Z,2019-09-22T22:07:19.000Z,6-1,206,12/31/1996,Auburn,CB,TB,NYG,3,Raymond James Stadium,"Tampa, FL",Outdoor,Natural Grass,Cloudy,88.0,46,11,E
