,GameId,PlayId,Team,X,Y,S,A,Dis,Orientation,Dir,NflId,DisplayName,JerseyNumber,Season,YardLine,Quarter,GameClock,PossessionTeam,Down,Distance,FieldPosition,HomeScoreBeforePlay,VisitorScoreBeforePlay,NflIdRusher,OffenseFormation,OffensePersonnel,DefendersInTheBox,DefensePersonnel,PlayDirection,TimeHandoff,TimeSnap,PlayerHeight,PlayerWeight,PlayerBirthDate,PlayerCollegeName,Position,HomeTeamAbbr,VisitorTeamAbbr,Week,Stadium,Location,StadiumType,Turf,GameWeather,Temperature,Humidity,WindSpeed,WindDirection
22,2019090500,20190905000195,away,59.1,17.9,1.91,2.97,0.17,65.25,300.05,2506789,Tramon Williams,38,2019,48,1,12:33:00,CHI,1,10,CHI,0,0,2553439,SHOTGUN,"1 RB, 1 TE, 3 WR",7,"3 DL, 3 LB, 5 DB",left,2019-09-06T00:27:47.000Z,2019-09-06T00:27:46.000Z,5-11,192,03/16/1983,Louisiana Tech,CB,CHI,GB,1,Soldier Field,Chicago,Outdoor,Natural Grass,Clear,65.0,69,10,E
23,2019090500,20190905000195,away,62.35,17.61,2.66,2.92,0.26,63.81,38.88,2552276,Preston Smith,91,2019,48,1,12:33:00,CHI,1,10,CHI,0,0,2553439,SHOTGUN,"1 RB, 1 TE, 3 WR",7,"3 DL, 3 LB, 5 DB",left,2019-09-06T00:27:47.000Z,2019-09-06T00:27:46.000Z,6-5,265,11/17/1992,Mississippi State,OLB,CHI,GB,1,Soldier Field,Chicago,Outdoor,Natural Grass,Clear,65.0,69,10,E
24,2019090500,20190905000195,away,63.13,29.13,2.53,1.32,0.26,112.71,97.32,2552279,Za'Darius Smith,55,2019,48,1,12:33:00,CHI,1,10,CHI,0,0,2553439,SHOTGUN,"1 RB, 1 TE, 3 WR",7,"3 DL, 3 LB, 5 DB",left,2019-09-06T00:27:47.000Z,2019-09-06T00:27:46.000Z,6-4,272,09/08/1992,Kentucky,OLB,CHI,GB,1,Soldier Field,Chicago,Outdoor,Natural Grass,Clear,65.0,69,10,E
25,2019090500,20190905000195,away,56.78,17.8,3.28,3.57,0.31,110.89,176.69,2552385,Adrian Amos,31,2019,48,1,12:33:00,CHI,1,10,CHI,0,0,2553439,SHOTGUN,"1 RB, 1 TE, 3 WR",7,"3 DL, 3 LB, 5 DB",left,2019-09-06T00:27:47.000Z,2019-09-06T00:27:46.000Z,6-0,214,04/29/1993,Penn State,FS,CHI,GB,1,Soldier Field,Chicago,Outdoor,Natural Grass,Clear,65.0,69,10,E
26,2019090500,20190905000195,away,58.14,25.21,1.43,0.21,0.14,93.3,84.21,2555161,Blake Martinez,50,2019,48,1,12:33:00,CHI,1,10,CHI,0,0,2553439,SHOTGUN,"1 RB, 1 TE, 3 WR",7,"3 DL, 3 LB, 5 DB",left,2019-09-06T00:27:47.000Z,2019-09-06T00:27:46.000Z,6-2,237,01/09/1994,Stanford,ILB,CHI,GB,1,Soldier Field,Chicago,Outdoor,Natural Grass,Clear,65.0,69,10,E
27,2019090500,20190905000195,away,61.02,22.39,1.56,1.75,0.16,73.35,332.92,2555274,Dean Lowry,94,2019,48,1,12:33:00,CHI,1,10,CHI,0,0,2553439,SHOTGUN,"1 RB, 1 TE, 3 WR",7,"3 DL, 3 LB, 5 DB",left,2019-09-06T00:27:47.000Z,2019-09-06T00:27:46.000Z,6-6,296,06/09/1994,Northwestern,DE,CHI,GB,1,Soldier Field,Chicago,Outdoor,Natural Grass,Clear,65.0,69,10,E
28,2019090500,20190905000195,away,61.21,24.93,1.18,0.61,0.12,130.7,343.47,2555282,Kenny Clark,97,2019,48,1,12:33:00,CHI,1,10,CHI,0,0,2553439,SHOTGUN,"1 RB, 1 TE, 3 WR",7,"3 DL, 3 LB, 5 DB",left,2019-09-06T00:27:47.000Z,2019-09-06T00:27:46.000Z,6-3,314,10/04/1995,UCLA,NT,CHI,GB,1,Soldier Field,Chicago,Outdoor,Natural Grass,Clear,65.0,69,10,E
29,2019090500,20190905000195,away,62.76,27.04,1.69,0.99,0.17,151.53,82.22,2557876,Montravius Adams,90,2019,48,1,12:33:00,CHI,1,10,CHI,0,0,2553439,SHOTGUN,"1 RB, 1 TE, 3 WR",7,"3 DL, 3 LB, 5 DB",left,2019-09-06T00:27:47.000Z,2019-09-06T00:27:46.000Z,6-4,304,07/24/1995,Auburn,DT,CHI,GB,1,Soldier Field,Chicago,Outdoor,Natural Grass,Clear,65.0,69,10,E
30,2019090500,20190905000195,away,60.42,40.42,2.71,7.69,0.24,70.67,310.15,2560952,Jaire Alexander,23,2019,48,1,12:33:00,CHI,1,10,CHI,0,0,2553439,SHOTGUN,"1 RB, 1 TE, 3 WR",7,"3 DL, 3 LB, 5 DB",left,2019-09-06T00:27:47.000Z,2019-09-06T00:27:46.000Z,5-10,196,02/09/1997,Louisville,CB,CHI,GB,1,Soldier Field,Chicago,Outdoor,Natural Grass,Clear,65.0,69,10,E
31,2019090500,20190905000195,away,55.83,34.63,2.15,1.37,0.21,137.12,242.64,2560982,Tony Brown,28,2019,48,1,12:33:00,CHI,1,10,CHI,0,0,2553439,SHOTGUN,"1 RB, 1 TE, 3 WR",7,"3 DL, 3 LB, 5 DB",left,2019-09-06T00:27:47.000Z,2019-09-06T00:27:46.000Z,6-0,198,07/13/1995,Alabama,DB,CHI,GB,1,Soldier Field,Chicago,Outdoor,Natural Grass,Clear,65.0,69,10,E
32,2019090500,20190905000195,away,44.18,27.17,1.86,0.86,0.18,90.22,255.18,2562724,Darnell Savage,26,2019,48,1,12:33:00,CHI,1,10,CHI,0,0,2553439,SHOTGUN,"1 RB, 1 TE, 3 WR",7,"3 DL, 3 LB, 5 DB",left,2019-09-06T00:27:47.000Z,2019-09-06T00:27:46.000Z,5-11,200,07/30/1997,Maryland,DB,CHI,GB,1,Soldier Field,Chicago,Outdoor,Natural Grass,Clear,65.0,69,10,E
33,2019090500,20190905000195,home,63.63,28.02,1.52,0.83,0.15,297.32,42.38,2533543,Bobby Massie,70,2019,48,1,12:33:00,CHI,1,10,CHI,0,0,2553439,SHOTGUN,"1 RB, 1 TE, 3 WR",7,"3 DL, 3 LB, 5 DB",left,2019-09-06T00:27:47.000Z,2019-09-06T00:27:46.000Z,6-6,325,08/01/1989,Mississippi,T,CHI,GB,1,Soldier Field,Chicago,Outdoor,Natural Grass,Clear,65.0,69,10,E
34,2019090500,20190905000195,home,62.36,26.45,1.12,3.02,0.11,21.17,21.71,2539933,Kyle Long,75,2019,48,1,12:33:00,CHI,1,10,CHI,0,0,2553439,SHOTGUN,"1 RB, 1 TE, 3 WR",7,"3 DL, 3 LB, 5 DB",left,2019-09-06T00:27:47.000Z,2019-09-06T00:27:46.000Z,6-6,332,12/05/1988,Oregon,OG,CHI,GB,1,Soldier Field,Chicago,Outdoor,Natural Grass,Clear,65.0,69,10,E
35,2019090500,20190905000195,home,60.62,18.63,4.03,3.23,0.39,102.83,281.81,2543509,Allen Robinson,12,2019,48,1,12:33:00,CHI,1,10,CHI,0,0,2553439,SHOTGUN,"1 RB, 1 TE, 3 WR",7,"3 DL, 3 LB, 5 DB",left,2019-09-06T00:27:47.000Z,2019-09-06T00:27:46.000Z,6-2,220,08/24/1993,Penn State,WR,CHI,GB,1,Soldier Field,Chicago,Outdoor,Natural Grass,Clear,65.0,69,10,E
36,2019090500,20190905000195,home,61.94,22.03,1.89,0.72,0.2,109.69,320.12,2550169,Charles Leno Jr.,72,2019,48,1,12:33:00,CHI,1,10,CHI,0,0,2553439,SHOTGUN,"1 RB, 1 TE, 3 WR",7,"3 DL, 3 LB, 5 DB",left,2019-09-06T00:27:47.000Z,2019-09-06T00:27:46.000Z,6-3,305,10/09/1991,Boise State,T,CHI,GB,1,Soldier Field,Chicago,Outdoor,Natural Grass,Clear,65.0,69,10,E
37,2019090500,20190905000195,home,61.81,40.86,4.17,3.34,0.4,279.16,321.17,2550617,Taylor Gabriel,18,2019,48,1,12:33:00,CHI,1,10,CHI,0,0,2553439,SHOTGUN,"1 RB, 1 TE, 3 WR",7,"3 DL, 3 LB, 5 DB",left,2019-09-06T00:27:47.000Z,2019-09-06T00:27:46.000Z,5-7,167,02/17/1991,Abilene Christian,WR,CHI,GB,1,Soldier Field,Chicago,Outdoor,Natural Grass,Clear,65.0,69,10,E
38,2019090500,20190905000195,home,66.17,22.95,3.96,3.03,0.39,279.41,306.15,2553439,Mike Davis,25,2019,48,1,12:33:00,CHI,1,10,CHI,0,0,2553439,SHOTGUN,"1 RB, 1 TE, 3 WR",7,"3 DL, 3 LB, 5 DB",left,2019-09-06T00:27:47.000Z,2019-09-06T00:27:46.000Z,5-9,221,02/19/1993,South Carolina,RB,CHI,GB,1,Soldier Field,Chicago,Outdoor,Natural Grass,Clear,65.0,69,10,E
39,2019090500,20190905000195,home,61.8,22.83,1.96,0.5,0.21,231.98,305.16,2555132,Cody Whitehair,65,2019,48,1,12:33:00,CHI,1,10,CHI,0,0,2553439,SHOTGUN,"1 RB, 1 TE, 3 WR",7,"3 DL, 3 LB, 5 DB",left,2019-09-06T00:27:47.000Z,2019-09-06T00:27:46.000Z,6-3,309,07/11/1992,Kansas State,OG,CHI,GB,1,Soldier Field,Chicago,Outdoor,Natural Grass,Clear,65.0,69,10,E
40,2019090500,20190905000195,home,66.77,23.5,0.89,2.12,0.08,229.24,215.43,2558008,Mitchell Trubisky,10,2019,48,1,12:33:00,CHI,1,10,CHI,0,0,2553439,SHOTGUN,"1 RB, 1 TE, 3 WR",7,"3 DL, 3 LB, 5 DB",left,2019-09-06T00:27:47.000Z,2019-09-06T00:27:46.000Z,6-2,215,08/20/1994,North Carolina,QB,CHI,GB,1,Soldier Field,Chicago,Outdoor,Natural Grass,Clear,65.0,69,10,E
41,2019090500,20190905000195,home,64.03,16.94,4.52,2.84,0.44,179.41,188.14,2558144,Adam Shaheen,87,2019,48,1,12:33:00,CHI,1,10,CHI,0,0,2553439,SHOTGUN,"1 RB, 1 TE, 3 WR",7,"3 DL, 3 LB, 5 DB",left,2019-09-06T00:27:47.000Z,2019-09-06T00:27:46.000Z,6-6,257,10/24/1994,Ashland,TE,CHI,GB,1,Soldier Field,Chicago,Outdoor,Natural Grass,Clear,65.0,69,10,E
42,2019090500,20190905000195,home,61.03,32.6,4.88,2.76,0.47,246.25,266.36,2560810,Anthony Miller,17,2019,48,1,12:33:00,CHI,1,10,CHI,0,0,2553439,SHOTGUN,"1 RB, 1 TE, 3 WR",7,"3 DL, 3 LB, 5 DB",left,2019-09-06T00:27:47.000Z,2019-09-06T00:27:46.000Z,5-11,199,10/09/1994,Memphis,WR,CHI,GB,1,Soldier Field,Chicago,Outdoor,Natural Grass,Clear,65.0,69,10,E
43,2019090500,20190905000195,home,61.94,24.33,1.34,0.4,0.14,292.64,304.84,2561035,James Daniels,68,2019,48,1,12:33:00,CHI,1,10,CHI,0,0,2553439,SHOTGUN,"1 RB, 1 TE, 3 WR",7,"3 DL, 3 LB, 5 DB",left,2019-09-06T00:27:47.000Z,2019-09-06T00:27:46.000Z,6-3,305,09/13/1997,Iowa,C,CHI,GB,1,Soldier Field,Chicago,Outdoor,Natural Grass,Clear,65.0,69,10,E
