,GameId,PlayId,Team,X,Y,S,A,Dis,Orientation,Dir,NflId,DisplayName,JerseyNumber,Season,YardLine,Quarter,GameClock,PossessionTeam,Down,Distance,FieldPosition,HomeScoreBeforePlay,VisitorScoreBeforePlay,NflIdRusher,OffenseFormation,OffensePersonnel,DefendersInTheBox,DefensePersonnel,PlayDirection,TimeHandoff,TimeSnap,PlayerHeight,PlayerWeight,PlayerBirthDate,PlayerCollegeName,Position,HomeTeamAbbr,VisitorTeamAbbr,Week,Stadium,Location,StadiumType,Turf,GameWeather,Temperature,Humidity,WindSpeed,WindDirection
74514,2019100700,20191007000508,away,39.07,16.5,4.19,1.74,0.42,332.09,32.33,2543637,Terrance Mitchell,39,2019,26,1,10:23:00,SF,1,10,SF,7,0,2553728,I_FORM,"2 RB, 2 TE, 1 WR",8,"4 DL, 3 LB, 4 DB",right,2019-10-08T00:38:03.000Z,2019-10-08T00:38:01.000Z,5-11,190,05/17/1992,Oregon,CB,SF,CLE,5,Levis Stadium,"Santa Clara, CA",Outdoor,Natural Grass,Clear,87.0,36,8,NW
74515,2019100700,20191007000508,away,34.49,17.92,2.45,0.95,0.25,1.53,272.87,2543692,Chris Smith,50,2019,26,1,10:23:00,SF,1,10,SF,7,0,2553728,I_FORM,"2 RB, 2 TE, 1 WR",8,"4 DL, 3 LB, 4 DB",right,2019-10-08T00:38:03.000Z,2019-10-08T00:38:01.000Z,6-1,266,02/11/1992,Arkansas,DE,SF,CLE,5,Levis Stadium,"Santa Clara, CA",Outdoor,Natural Grass,Clear,87.0,36,8,NW
74516,2019100700,20191007000508,away,37.33,27.92,3.05,1.74,0.31,226.79,231.07,2550164,T.J. Carrie,38,2019,26,1,10:23:00,SF,1,10,SF,7,0,2553728,I_FORM,"2 RB, 2 TE, 1 WR",8,"4 DL, 3 LB, 4 DB",right,2019-10-08T00:38:03.000Z,2019-10-08T00:38:01.000Z,6-0,204,07/28/1990,Ohio,CB,SF,CLE,5,Levis Stadium,"Santa Clara, CA",Outdoor,Natural Grass,Clear,87.0,36,8,NW
74517,2019100700,20191007000508,away,38.04,26.25,2.71,2.23,0.26,251.62,328.88,2550565,Adarius Taylor,57,2019,26,1,10:23:00,SF,1,10,SF,7,0,2553728,I_FORM,"2 RB, 2 TE, 1 WR",8,"4 DL, 3 LB, 4 DB",right,2019-10-08T00:38:03.000Z,2019-10-08T00:38:01.000Z,6-0,230,09/21/1990,Florida Atlantic,MLB,SF,CLE,5,Levis Stadium,"Santa Clara, CA",Outdoor,Natural Grass,Clear,87.0,36,8,NW
74518,2019100700,20191007000508,away,53.59,23.22,0.95,1.81,0.09,285.51,5.35,2552389,Damarious Randall,23,2019,26,1,10:23:00,SF,1,10,SF,7,0,2553728,I_FORM,"2 RB, 2 TE, 1 WR",8,"4 DL, 3 LB, 4 DB",right,2019-10-08T00:38:03.000Z,2019-10-08T00:38:01.000Z,5-11,196,08/29/1992,Arizona State,CB,SF,CLE,5,Levis Stadium,"Santa Clara, CA",Outdoor,Natural Grass,Clear,87.0,36,8,NW
74519,2019100700,20191007000508,away,37.9,19.39,2.67,2.43,0.26,311.12,5.73,2552697,Jermaine Whitehead,35,2019,26,1,10:23:00,SF,1,10,SF,7,0,2553728,I_FORM,"2 RB, 2 TE, 1 WR",8,"4 DL, 3 LB, 4 DB",right,2019-10-08T00:38:03.000Z,2019-10-08T00:38:01.000Z,5-11,195,03/12/1993,Auburn,FS,SF,CLE,5,Levis Stadium,"Santa Clara, CA",Outdoor,Natural Grass,Clear,87.0,36,8,NW
74520,2019100700,20191007000508,away,36.2,22.39,1.95,2.45,0.2,288.69,289.38,2555166,Joe Schobert,53,2019,26,1,10:23:00,SF,1,10,SF,7,0,2553728,I_FORM,"2 RB, 2 TE, 1 WR",8,"4 DL, 3 LB, 4 DB",right,2019-10-08T00:38:03.000Z,2019-10-08T00:38:01.000Z,6-1,245,11/06/1993,Wisconsin,MLB,SF,CLE,5,Levis Stadium,"Santa Clara, CA",Outdoor,Natural Grass,Clear,87.0,36,8,NW
74521,2019100700,20191007000508,away,35.49,22.98,0.7,1.44,0.08,222.45,316.41,2557836,Larry Ogunjobi,65,2019,26,1,10:23:00,SF,1,10,SF,7,0,2553728,I_FORM,"2 RB, 2 TE, 1 WR",8,"4 DL, 3 LB, 4 DB",right,2019-10-08T00:38:03.000Z,2019-10-08T00:38:01.000Z,6-3,305,06/03/1994,North Carolina-Charlotte,DT,SF,CLE,5,Levis Stadium,"Santa Clara, CA",Outdoor,Natural Grass,Clear,87.0,36,8,NW
74522,2019100700,20191007000508,away,34.74,26.86,3.81,1.48,0.39,252.58,223.58,2557965,Myles Garrett,95,2019,26,1,10:23:00,SF,1,10,SF,7,0,2553728,I_FORM,"2 RB, 2 TE, 1 WR",8,"4 DL, 3 LB, 4 DB",right,2019-10-08T00:38:03.000Z,2019-10-08T00:38:01.000Z,6-4,272,12/29/1995,Texas A&M,DE,SF,CLE,5,Levis Stadium,"Santa Clara, CA",Outdoor,Natural Grass,Clear,87.0,36,8,NW
74523,2019100700,20191007000508,away,36.71,23.9,2.58,1.32,0.26,218.63,171.14,2559079,Devaroe Lawrence,99,2019,26,1,10:23:00,SF,1,10,SF,7,0,2553728,I_FORM,"2 RB, 2 TE, 1 WR",8,"4 DL, 3 LB, 4 DB",right,2019-10-08T00:38:03.000Z,2019-10-08T00:38:01.000Z,6-2,294,10/13/1992,Auburn,DT,SF,CLE,5,Levis Stadium,"Santa Clara, CA",Outdoor,Natural Grass,Clear,87.0,36,8,NW
74524,2019100700,20191007000508,away,36.5,20.11,2.19,2.1,0.22,292.72,276.65,2562605,Mack Wilson,51,2019,26,1,10:23:00,SF,1,10,SF,7,0,2553728,I_FORM,"2 RB, 2 TE, 1 WR",8,"4 DL, 3 LB, 4 DB",right,2019-10-08T00:38:03.000Z,2019-10-08T00:38:01.000Z,6-1,240,02/14/1998,Alabama,LB,SF,CLE,5,Levis Stadium,"Santa Clara, CA",Outdoor,Natural Grass,Clear,87.0,36,8,NW
74525,2019100700,20191007000508,home,34.37,25.33,1.76,2.82,0.17,358.34,342.89,2508140,Mike Person,68,2019,26,1,10:23:00,SF,1,10,SF,7,0,2553728,I_FORM,"2 RB, 2 TE, 1 WR",8,"4 DL, 3 LB, 4 DB",right,2019-10-08T00:38:03.000Z,2019-10-08T00:38:01.000Z,6-4,299,06/17/1988,Montana State,C,SF,CLE,5,Levis Stadium,"Santa Clara, CA",Outdoor,Natural Grass,Clear,87.0,36,8,NW
74526,2019100700,20191007000508,home,36.6,18.07,5.31,2.45,0.52,23.72,32.99,2539964,Marquise Goodwin,11,2019,26,1,10:23:00,SF,1,10,SF,7,0,2553728,I_FORM,"2 RB, 2 TE, 1 WR",8,"4 DL, 3 LB, 4 DB",right,2019-10-08T00:38:03.000Z,2019-10-08T00:38:01.000Z,5-9,179,11/19/1990,Texas,WR,SF,CLE,5,Levis Stadium,"Santa Clara, CA",Outdoor,Natural Grass,Clear,87.0,36,8,NW
74527,2019100700,20191007000508,home,37.16,26.08,1.78,4.48,0.19,79.17,102.87,2540203,Levine Toilolo,83,2019,26,1,10:23:00,SF,1,10,SF,7,0,2553728,I_FORM,"2 RB, 2 TE, 1 WR",8,"4 DL, 3 LB, 4 DB",right,2019-10-08T00:38:03.000Z,2019-10-08T00:38:01.000Z,6-8,268,07/30/1991,Stanford,TE,SF,CLE,5,Levis Stadium,"Santa Clara, CA",Outdoor,Natural Grass,Clear,87.0,36,8,NW
74528,2019100700,20191007000508,home,34.12,23.41,4.16,4.02,0.4,66.8,45.65,2540230,Kyle Juszczyk,44,2019,26,1,10:23:00,SF,1,10,SF,7,0,2553728,I_FORM,"2 RB, 2 TE, 1 WR",8,"4 DL, 3 LB, 4 DB",right,2019-10-08T00:38:03.000Z,2019-10-08T00:38:01.000Z,6-1,240,04/23/1991,Harvard,RB,SF,CLE,5,Levis Stadium,"Santa Clara, CA",Outdoor,Natural Grass,Clear,87.0,36,8,NW
74529,2019100700,20191007000508,home,34.92,23.19,0.57,0.58,0.05,130.37,262.81,2543705,Weston Richburg,58,2019,26,1,10:23:00,SF,1,10,SF,7,0,2553728,I_FORM,"2 RB, 2 TE, 1 WR",8,"4 DL, 3 LB, 4 DB",right,2019-10-08T00:38:03.000Z,2019-10-08T00:38:01.000Z,6-4,290,07/09/1991,Colorado State,C,SF,CLE,5,Levis Stadium,"Santa Clara, CA",Outdoor,Natural Grass,Clear,87.0,36,8,NW
74530,2019100700,20191007000508,home,30.75,22.61,4.62,1.64,0.46,262.43,246.01,2543801,Jimmy Garoppolo,10,2019,26,1,10:23:00,SF,1,10,SF,7,0,2553728,I_FORM,"2 RB, 2 TE, 1 WR",8,"4 DL, 3 LB, 4 DB",right,2019-10-08T00:38:03.000Z,2019-10-08T00:38:01.000Z,6-2,225,11/02/1991,Eastern Illinois,QB,SF,CLE,5,Levis Stadium,"Santa Clara, CA",Outdoor,Natural Grass,Clear,87.0,36,8,NW
74531,2019100700,20191007000508,home,36.34,22.99,2.57,1.27,0.25,32.19,164.54,2552345,Laken Tomlinson,75,2019,26,1,10:23:00,SF,1,10,SF,7,0,2553728,I_FORM,"2 RB, 2 TE, 1 WR",8,"4 DL, 3 LB, 4 DB",right,2019-10-08T00:38:03.000Z,2019-10-08T00:38:01.000Z,6-3,312,02/09/1992,Duke,G,SF,CLE,5,Levis Stadium,"Santa Clara, CA",Outdoor,Natural Grass,Clear,87.0,36,8,NW
74532,2019100700,20191007000508,home,30.51,23.57,5.01,3.97,0.49,121.96,78.66,2553728,Raheem Mostert,31,2019,26,1,10:23:00,SF,1,10,SF,7,0,2553728,I_FORM,"2 RB, 2 TE, 1 WR",8,"4 DL, 3 LB, 4 DB",right,2019-10-08T00:38:03.000Z,2019-10-08T00:38:01.000Z,5-10,197,04/09/1992,Purdue,RB,SF,CLE,5,Levis Stadium,"Santa Clara, CA",Outdoor,Natural Grass,Clear,87.0,36,8,NW
74533,2019100700,20191007000508,home,34.5,18.78,1.19,2.11,0.11,159.44,253.21,2558266,George Kittle,85,2019,26,1,10:23:00,SF,1,10,SF,7,0,2553728,I_FORM,"2 RB, 2 TE, 1 WR",8,"4 DL, 3 LB, 4 DB",right,2019-10-08T00:38:03.000Z,2019-10-08T00:38:01.000Z,6-4,250,10/09/1993,Iowa,TE,SF,CLE,5,Levis Stadium,"Santa Clara, CA",Outdoor,Natural Grass,Clear,87.0,36,8,NW
74534,2019100700,20191007000508,home,35.66,20.91,0.24,1.83,0.02,111.79,274.17,2560805,Mike McGlinchey,69,2019,26,1,10:23:00,SF,1,10,SF,7,0,2553728,I_FORM,"2 RB, 2 TE, 1 WR",8,"4 DL, 3 LB, 4 DB",right,2019-10-08T00:38:03.000Z,2019-10-08T00:38:01.000Z,6-8,315,01/12/1995,Notre Dame,OT,SF,CLE,5,Levis Stadium,"Santa Clara, CA",Outdoor,Natural Grass,Clear,87.0,36,8,NW
74535,2019100700,20191007000508,home,36.3,24.32,1.78,0.79,0.19,119.26,147.45,2562927,Justin Skule,67,2019,26,1,10:23:00,SF,1,10,SF,7,0,2553728,I_FORM,"2 RB, 2 TE, 1 WR",8,"4 DL, 3 LB, 4 DB",right,2019-10-08T00:38:03.000Z,2019-10-08T00:38:01.000Z,6-6,318,11/23/1996,Vanderbilt,T,SF,CLE,5,Levis Stadium,"Santa Clara, CA",Outdoor,Natural Grass,Clear,87.0,36,8,NW
