,GameId,PlayId,Team,X,Y,S,A,Dis,Orientation,Dir,NflId,DisplayName,JerseyNumber,Season,YardLine,Quarter,GameClock,PossessionTeam,Down,Distance,FieldPosition,HomeScoreBeforePlay,VisitorScoreBeforePlay,NflIdRusher,OffenseFormation,OffensePersonnel,DefendersInTheBox,DefensePersonnel,PlayDirection,TimeHandoff,TimeSnap,PlayerHeight,PlayerWeight,PlayerBirthDate,PlayerCollegeName,Position,HomeTeamAbbr,VisitorTeamAbbr,Week,Stadium,Location,StadiumType,Turf,GameWeather,Temperature,Humidity,WindSpeed,WindDirection
46288,2019092600,20190926001838,away,92.13,24.09,1.0,0.76,0.1,48.38,207.95,2495298,Jason Kelce,62,2019,17,2,01:53:00,PHI,1,10,GB,13,14,2555418,SHOTGUN,"1 RB, 1 TE, 3 WR",6,"2 DL, 3 LB, 6 DB",right,2019-09-27T01:48:13.000Z,2019-09-27T01:48:12.000Z,6-3,295,11/05/1987,Cincinnati,C,GB,PHI,4,Lambeau Field,"Green Bay, WI",Outdoor,SISGrass,Cloudy,60.0,62,3,S
46289,2019092600,20190926001838,away,91.91,27.63,1.22,2.39,0.11,66.43,80.72,2505827,Jason Peters,71,2019,17,2,01:53:00,PHI,1,10,GB,13,14,2555418,SHOTGUN,"1 RB, 1 TE, 3 WR",6,"2 DL, 3 LB, 6 DB",right,2019-09-27T01:48:13.000Z,2019-09-27T01:48:12.000Z,6-4,328,01/22/1982,Arkansas,OT,GB,PHI,4,Lambeau Field,"Green Bay, WI",Outdoor,SISGrass,Cloudy,60.0,62,3,S
46290,2019092600,20190926001838,away,93.66,45.2,3.26,2.72,0.31,69.31,57.43,2533039,Alshon Jeffery,17,2019,17,2,01:53:00,PHI,1,10,GB,13,14,2555418,SHOTGUN,"1 RB, 1 TE, 3 WR",6,"2 DL, 3 LB, 6 DB",right,2019-09-27T01:48:13.000Z,2019-09-27T01:48:12.000Z,6-3,218,02/14/1990,South Carolina,WR,GB,PHI,4,Lambeau Field,"Green Bay, WI",Outdoor,SISGrass,Cloudy,60.0,62,3,S
46291,2019092600,20190926001838,away,93.45,23.47,2.8,0.39,0.29,66.61,62.08,2534434,Brandon Brooks,79,2019,17,2,01:53:00,PHI,1,10,GB,13,14,2555418,SHOTGUN,"1 RB, 1 TE, 3 WR",6,"2 DL, 3 LB, 6 DB",right,2019-09-27T01:48:13.000Z,2019-09-27T01:48:12.000Z,6-5,335,08/19/1989,"Miami, O.",G,GB,PHI,4,Lambeau Field,"Green Bay, WI",Outdoor,SISGrass,Cloudy,60.0,62,3,S
46292,2019092600,20190926001838,away,91.77,22.24,1.4,1.16,0.14,116.77,352.38,2539286,Lane Johnson,65,2019,17,2,01:53:00,PHI,1,10,GB,13,14,2555418,SHOTGUN,"1 RB, 1 TE, 3 WR",6,"2 DL, 3 LB, 6 DB",right,2019-09-27T01:48:13.000Z,2019-09-27T01:48:12.000Z,6-6,317,05/08/1990,Oklahoma,T,GB,PHI,4,Lambeau Field,"Green Bay, WI",Outdoor,SISGrass,Cloudy,60.0,62,3,S
46293,2019092600,20190926001838,away,92.88,35.75,4.95,5.23,0.47,82.91,97.08,2552600,Nelson Agholor,13,2019,17,2,01:53:00,PHI,1,10,GB,13,14,2555418,SHOTGUN,"1 RB, 1 TE, 3 WR",6,"2 DL, 3 LB, 6 DB",right,2019-09-27T01:48:13.000Z,2019-09-27T01:48:12.000Z,6-0,198,05/24/1993,Southern California,WR,GB,PHI,4,Lambeau Field,"Green Bay, WI",Outdoor,SISGrass,Cloudy,60.0,62,3,S
46294,2019092600,20190926001838,away,87.43,23.67,1.78,2.18,0.17,175.51,265.08,2555259,Carson Wentz,11,2019,17,2,01:53:00,PHI,1,10,GB,13,14,2555418,SHOTGUN,"1 RB, 1 TE, 3 WR",6,"2 DL, 3 LB, 6 DB",right,2019-09-27T01:48:13.000Z,2019-09-27T01:48:12.000Z,6-5,237,12/30/1992,North Dakota State,QB,GB,PHI,4,Lambeau Field,"Green Bay, WI",Outdoor,SISGrass,Cloudy,60.0,62,3,S
46295,2019092600,20190926001838,away,87.63,22.55,1.74,2.53,0.17,81.37,61.2,2555418,Jordan Howard,24,2019,17,2,01:53:00,PHI,1,10,GB,13,14,2555418,SHOTGUN,"1 RB, 1 TE, 3 WR",6,"2 DL, 3 LB, 6 DB",right,2019-09-27T01:48:13.000Z,2019-09-27T01:48:12.000Z,6-0,224,11/02/1994,Indiana,RB,GB,PHI,4,Lambeau Field,"Green Bay, WI",Outdoor,SISGrass,Cloudy,60.0,62,3,S
46296,2019092600,20190926001838,away,91.15,22.93,3.41,0.54,0.35,110.13,188.8,2555495,Isaac Seumalo,73,2019,17,2,01:53:00,PHI,1,10,GB,13,14,2555418,SHOTGUN,"1 RB, 1 TE, 3 WR",6,"2 DL, 3 LB, 6 DB",right,2019-09-27T01:48:13.000Z,2019-09-27T01:48:12.000Z,6-4,303,10/29/1993,Oregon State,G,GB,PHI,4,Lambeau Field,"Green Bay, WI",Outdoor,SISGrass,Cloudy,60.0,62,3,S
46297,2019092600,20190926001838,away,91.9,19.22,2.67,0.41,0.26,81.04,37.56,2558262,Mack Hollins,16,2019,17,2,01:53:00,PHI,1,10,GB,13,14,2555418,SHOTGUN,"1 RB, 1 TE, 3 WR",6,"2 DL, 3 LB, 6 DB",right,2019-09-27T01:48:13.000Z,2019-09-27T01:48:12.000Z,6-4,221,09/16/1993,North Carolina,WR,GB,PHI,4,Lambeau Field,"Green Bay, WI",Outdoor,SISGrass,Cloudy,60.0,62,3,S
46298,2019092600,20190926001838,away,92.8,20.72,1.79,0.67,0.18,76.55,31.57,2560995,Dallas Goedert,88,2019,17,2,01:53:00,PHI,1,10,GB,13,14,2555418,SHOTGUN,"1 RB, 1 TE, 3 WR",6,"2 DL, 3 LB, 6 DB",right,2019-09-27T01:48:13.000Z,2019-09-27T01:48:12.000Z,6-5,256,01/03/1995,South Dakota State,TE,GB,PHI,4,Lambeau Field,"Green Bay, WI",Outdoor,SISGrass,Cloudy,60.0,62,3,S
46299,2019092600,20190926001838,home,95.53,36.83,1.88,2.8,0.18,225.94,95.36,2506789,Tramon Williams,38,2019,17,2,01:53:00,PHI,1,10,GB,13,14,2555418,SHOTGUN,"1 RB, 1 TE, 3 WR",6,"2 DL, 3 LB, 6 DB",right,2019-09-27T01:48:13.000Z,2019-09-27T01:48:12.000Z,5-11,192,03/16/1983,Louisiana Tech,CB,GB,PHI,4,Lambeau Field,"Green Bay, WI",Outdoor,SISGrass,Cloudy,60.0,62,3,S
46300,2019092600,20190926001838,home,93.83,20.62,1.26,2.42,0.14,308.41,359.75,2552276,Preston Smith,91,2019,17,2,01:53:00,PHI,1,10,GB,13,14,2555418,SHOTGUN,"1 RB, 1 TE, 3 WR",6,"2 DL, 3 LB, 6 DB",right,2019-09-27T01:48:13.000Z,2019-09-27T01:48:12.000Z,6-5,265,11/17/1992,Mississippi State,OLB,GB,PHI,4,Lambeau Field,"Green Bay, WI",Outdoor,SISGrass,Cloudy,60.0,62,3,S
46301,2019092600,20190926001838,home,92.89,28.03,2.4,3.04,0.23,190.09,191.32,2552279,Za'Darius Smith,55,2019,17,2,01:53:00,PHI,1,10,GB,13,14,2555418,SHOTGUN,"1 RB, 1 TE, 3 WR",6,"2 DL, 3 LB, 6 DB",right,2019-09-27T01:48:13.000Z,2019-09-27T01:48:12.000Z,6-4,272,09/08/1992,Kentucky,OLB,GB,PHI,4,Lambeau Field,"Green Bay, WI",Outdoor,SISGrass,Cloudy,60.0,62,3,S
46302,2019092600,20190926001838,home,96.33,21.41,1.61,0.98,0.16,283.49,268.28,2552385,Adrian Amos,31,2019,17,2,01:53:00,PHI,1,10,GB,13,14,2555418,SHOTGUN,"1 RB, 1 TE, 3 WR",6,"2 DL, 3 LB, 6 DB",right,2019-09-27T01:48:13.000Z,2019-09-27T01:48:12.000Z,6-0,214,04/29/1993,Penn State,FS,GB,PHI,4,Lambeau Field,"Green Bay, WI",Outdoor,SISGrass,Cloudy,60.0,62,3,S
46303,2019092600,20190926001838,home,96.32,25.13,1.62,3.1,0.15,243.64,238.96,2555161,Blake Martinez,50,2019,17,2,01:53:00,PHI,1,10,GB,13,14,2555418,SHOTGUN,"1 RB, 1 TE, 3 WR",6,"2 DL, 3 LB, 6 DB",right,2019-09-27T01:48:13.000Z,2019-09-27T01:48:12.000Z,6-2,237,01/09/1994,Stanford,ILB,GB,PHI,4,Lambeau Field,"Green Bay, WI",Outdoor,SISGrass,Cloudy,60.0,62,3,S
46304,2019092600,20190926001838,home,92.62,21.86,1.36,1.11,0.14,306.98,296.98,2555274,Dean Lowry,94,2019,17,2,01:53:00,PHI,1,10,GB,13,14,2555418,SHOTGUN,"1 RB, 1 TE, 3 WR",6,"2 DL, 3 LB, 6 DB",right,2019-09-27T01:48:13.000Z,2019-09-27T01:48:12.000Z,6-6,296,06/09/1994,Northwestern,DE,GB,PHI,4,Lambeau Field,"Green Bay, WI",Outdoor,SISGrass,Cloudy,60.0,62,3,S
46305,2019092600,20190926001838,home,92.9,24.39,1.31,1.95,0.13,233.07,251.94,2555282,Kenny Clark,97,2019,17,2,01:53:00,PHI,1,10,GB,13,14,2555418,SHOTGUN,"1 RB, 1 TE, 3 WR",6,"2 DL, 3 LB, 6 DB",right,2019-09-27T01:48:13.000Z,2019-09-27T01:48:12.000Z,6-3,314,10/04/1995,UCLA,NT,GB,PHI,4,Lambeau Field,"Green Bay, WI",Outdoor,SISGrass,Cloudy,60.0,62,3,S
46306,2019092600,20190926001838,home,95.64,19.29,2.42,1.15,0.25,248.37,309.83,2555545,Will Redmond,25,2019,17,2,01:53:00,PHI,1,10,GB,13,14,2555418,SHOTGUN,"1 RB, 1 TE, 3 WR",6,"2 DL, 3 LB, 6 DB",right,2019-09-27T01:48:13.000Z,2019-09-27T01:48:12.000Z,5-11,186,12/28/1993,Mississippi State,CB,GB,PHI,4,Lambeau Field,"Green Bay, WI",Outdoor,SISGrass,Cloudy,60.0,62,3,S
46307,2019092600,20190926001838,home,95.15,44.33,2.2,3.6,0.22,307.07,78.26,2557996,Kevin King,20,2019,17,2,01:53:00,PHI,1,10,GB,13,14,2555418,SHOTGUN,"1 RB, 1 TE, 3 WR",6,"2 DL, 3 LB, 6 DB",right,2019-09-27T01:48:13.000Z,2019-09-27T01:48:12.000Z,6-3,200,05/05/1995,Washington,CB,GB,PHI,4,Lambeau Field,"Green Bay, WI",Outdoor,SISGrass,Cloudy,60.0,62,3,S
46308,2019092600,20190926001838,home,98.88,15.7,0.62,4.07,0.05,296.86,289.63,2560952,Jaire Alexander,23,2019,17,2,01:53:00,PHI,1,10,GB,13,14,2555418,SHOTGUN,"1 RB, 1 TE, 3 WR",6,"2 DL, 3 LB, 6 DB",right,2019-09-27T01:48:13.000Z,2019-09-27T01:48:12.000Z,5-10,196,02/09/1997,Louisville,CB,GB,PHI,4,Lambeau Field,"Green Bay, WI",Outdoor,SISGrass,Cloudy,60.0,62,3,S
46309,2019092600,20190926001838,home,105.73,25.37,0.34,0.78,0.03,268.18,287.68,2562724,Darnell Savage,26,2019,17,2,01:53:00,PHI,1,10,GB,13,14,2555418,SHOTGUN,"1 RB, 1 TE, 3 WR",6,"2 DL, 3 LB, 6 DB",right,2019-09-27T01:48:13.000Z,2019-09-27T01:48:12.000Z,5-11,200,07/30/1997,Maryland,DB,GB,PHI,4,Lambeau Field,"Green Bay, WI",Outdoor,SISGrass,Cloudy,60.0,62,3,S
