,GameId,PlayId,Team,X,Y,S,A,Dis,Orientation,Dir,NflId,DisplayName,JerseyNumber,Season,YardLine,Quarter,GameClock,PossessionTeam,Down,Distance,FieldPosition,HomeScoreBeforePlay,VisitorScoreBeforePlay,NflIdRusher,OffenseFormation,OffensePersonnel,DefendersInTheBox,DefensePersonnel,PlayDirection,TimeHandoff,TimeSnap,PlayerHeight,PlayerWeight,PlayerBirthDate,PlayerCollegeName,Position,HomeTeamAbbr,VisitorTeamAbbr,Week,Stadium,Location,StadiumType,Turf,GameWeather,Temperature,Humidity,WindSpeed,WindDirection
48510,2019092901,20190929012890,away,47.29,45.02,1.78,3.43,0.16,125.74,268.41,2543637,Terrance Mitchell,39,2019,48,4,14:19:00,BLT,1,10,CLV,10,24,2495466,PISTOL,"1 RB, 2 TE, 2 WR",7,"4 DL, 2 LB, 5 DB",left,2019-09-29T19:18:48.000Z,2019-09-29T19:18:47.000Z,5-11,190,05/17/1992,Oregon,CB,BAL,CLE,4,M&T Stadium,"Baltimore, Md.",Outdoor,Natural Grass,Partly Cloudy,83.0,57,8,NE
48511,2019092901,20190929012890,away,48.29,11.02,2.54,1.31,0.25,54.51,284.31,2550164,T.J. Carrie,38,2019,48,4,14:19:00,BLT,1,10,CLV,10,24,2495466,PISTOL,"1 RB, 2 TE, 2 WR",7,"4 DL, 2 LB, 5 DB",left,2019-09-29T19:18:48.000Z,2019-09-29T19:18:47.000Z,6-0,204,07/28/1990,Ohio,CB,BAL,CLE,4,M&T Stadium,"Baltimore, Md.",Outdoor,Natural Grass,Partly Cloudy,83.0,57,8,NE
48512,2019092901,20190929012890,away,40.09,28.55,1.44,2.51,0.13,128.12,239.01,2552389,Damarious Randall,23,2019,48,4,14:19:00,BLT,1,10,CLV,10,24,2495466,PISTOL,"1 RB, 2 TE, 2 WR",7,"4 DL, 2 LB, 5 DB",left,2019-09-29T19:18:48.000Z,2019-09-29T19:18:47.000Z,5-11,196,08/29/1992,Arizona State,CB,BAL,CLE,4,M&T Stadium,"Baltimore, Md.",Outdoor,Natural Grass,Partly Cloudy,83.0,57,8,NE
48513,2019092901,20190929012890,away,55.02,33.01,0.91,0.81,0.09,121.25,158.77,2552697,Jermaine Whitehead,35,2019,48,4,14:19:00,BLT,1,10,CLV,10,24,2495466,PISTOL,"1 RB, 2 TE, 2 WR",7,"4 DL, 2 LB, 5 DB",left,2019-09-29T19:18:48.000Z,2019-09-29T19:18:47.000Z,5-11,195,03/12/1993,Auburn,FS,BAL,CLE,4,M&T Stadium,"Baltimore, Md.",Outdoor,Natural Grass,Partly Cloudy,83.0,57,8,NE
48514,2019092901,20190929012890,away,56.1,27.22,3.71,2.32,0.35,50.08,101.13,2555166,Joe Schobert,53,2019,48,4,14:19:00,BLT,1,10,CLV,10,24,2495466,PISTOL,"1 RB, 2 TE, 2 WR",7,"4 DL, 2 LB, 5 DB",left,2019-09-29T19:18:48.000Z,2019-09-29T19:18:47.000Z,6-1,245,11/06/1993,Wisconsin,MLB,BAL,CLE,4,M&T Stadium,"Baltimore, Md.",Outdoor,Natural Grass,Partly Cloudy,83.0,57,8,NE
48515,2019092901,20190929012890,away,55.73,19.66,2.77,2.09,0.27,100.6,193.03,2555173,Eric Murray,22,2019,48,4,14:19:00,BLT,1,10,CLV,10,24,2495466,PISTOL,"1 RB, 2 TE, 2 WR",7,"4 DL, 2 LB, 5 DB",left,2019-09-29T19:18:48.000Z,2019-09-29T19:18:47.000Z,5-11,199,01/07/1994,Minnesota,FS,BAL,CLE,4,M&T Stadium,"Baltimore, Md.",Outdoor,Natural Grass,Partly Cloudy,83.0,57,8,NE
48516,2019092901,20190929012890,away,58.92,34.13,1.28,1.68,0.12,153.28,56.19,2557965,Myles Garrett,95,2019,48,4,14:19:00,BLT,1,10,CLV,10,24,2495466,PISTOL,"1 RB, 2 TE, 2 WR",7,"4 DL, 2 LB, 5 DB",left,2019-09-29T19:18:48.000Z,2019-09-29T19:18:47.000Z,6-4,272,12/29/1995,Texas A&M,DE,BAL,CLE,4,M&T Stadium,"Baltimore, Md.",Outdoor,Natural Grass,Partly Cloudy,83.0,57,8,NE
48517,2019092901,20190929012890,away,59.3,30.61,2.33,0.83,0.24,38.42,123.12,2559079,Devaroe Lawrence,99,2019,48,4,14:19:00,BLT,1,10,CLV,10,24,2495466,PISTOL,"1 RB, 2 TE, 2 WR",7,"4 DL, 2 LB, 5 DB",left,2019-09-29T19:18:48.000Z,2019-09-29T19:18:47.000Z,6-2,294,10/13/1992,Auburn,DT,BAL,CLE,4,M&T Stadium,"Baltimore, Md.",Outdoor,Natural Grass,Partly Cloudy,83.0,57,8,NE
48518,2019092901,20190929012890,away,58.35,27.46,1.89,1.83,0.19,46.22,31.47,2560893,Chad Thomas,92,2019,48,4,14:19:00,BLT,1,10,CLV,10,24,2495466,PISTOL,"1 RB, 2 TE, 2 WR",7,"4 DL, 2 LB, 5 DB",left,2019-09-29T19:18:48.000Z,2019-09-29T19:18:47.000Z,6-5,278,10/12/1995,Miami,DE,BAL,CLE,4,M&T Stadium,"Baltimore, Md.",Outdoor,Natural Grass,Partly Cloudy,83.0,57,8,NE
48519,2019092901,20190929012890,away,56.96,30.14,1.51,0.82,0.16,46.25,297.49,2561458,Daniel Ekuale,96,2019,48,4,14:19:00,BLT,1,10,CLV,10,24,2495466,PISTOL,"1 RB, 2 TE, 2 WR",7,"4 DL, 2 LB, 5 DB",left,2019-09-29T19:18:48.000Z,2019-09-29T19:18:47.000Z,6-3,300,01/13/1994,Washington State,DT,BAL,CLE,4,M&T Stadium,"Baltimore, Md.",Outdoor,Natural Grass,Partly Cloudy,83.0,57,8,NE
48520,2019092901,20190929012890,away,56.82,29.39,3.01,4.01,0.31,55.92,94.07,2562605,Mack Wilson,51,2019,48,4,14:19:00,BLT,1,10,CLV,10,24,2495466,PISTOL,"1 RB, 2 TE, 2 WR",7,"4 DL, 2 LB, 5 DB",left,2019-09-29T19:18:48.000Z,2019-09-29T19:18:47.000Z,6-1,240,02/14/1998,Alabama,LB,BAL,CLE,4,M&T Stadium,"Baltimore, Md.",Outdoor,Natural Grass,Partly Cloudy,83.0,57,8,NE
48521,2019092901,20190929012890,home,62.75,29.6,4.32,1.88,0.42,258.3,266.6,2495466,Mark Ingram,21,2019,48,4,14:19:00,BLT,1,10,CLV,10,24,2495466,PISTOL,"1 RB, 2 TE, 2 WR",7,"4 DL, 2 LB, 5 DB",left,2019-09-29T19:18:48.000Z,2019-09-29T19:18:47.000Z,5-9,215,12/21/1989,Alabama,RB,BAL,CLE,4,M&T Stadium,"Baltimore, Md.",Outdoor,Natural Grass,Partly Cloudy,83.0,57,8,NE
48522,2019092901,20190929012890,home,58.94,31.35,0.72,1.35,0.08,216.22,184.02,2507188,Marshal Yanda,73,2019,48,4,14:19:00,BLT,1,10,CLV,10,24,2495466,PISTOL,"1 RB, 2 TE, 2 WR",7,"4 DL, 2 LB, 5 DB",left,2019-09-29T19:18:48.000Z,2019-09-29T19:18:47.000Z,6-3,305,09/15/1984,Iowa,G,BAL,CLE,4,M&T Stadium,"Baltimore, Md.",Outdoor,Natural Grass,Partly Cloudy,83.0,57,8,NE
48523,2019092901,20190929012890,home,56.36,10.43,5.14,1.98,0.51,278.08,281.82,2550597,Seth Roberts,11,2019,48,4,14:19:00,BLT,1,10,CLV,10,24,2495466,PISTOL,"1 RB, 2 TE, 2 WR",7,"4 DL, 2 LB, 5 DB",left,2019-09-29T19:18:48.000Z,2019-09-29T19:18:47.000Z,6-2,195,02/22/1991,West Alabama,WR,BAL,CLE,4,M&T Stadium,"Baltimore, Md.",Outdoor,Natural Grass,Partly Cloudy,83.0,57,8,NE
48524,2019092901,20190929012890,home,60.89,28.16,4.86,1.67,0.48,224.19,191.93,2552402,Nick Boyle,86,2019,48,4,14:19:00,BLT,1,10,CLV,10,24,2495466,PISTOL,"1 RB, 2 TE, 2 WR",7,"4 DL, 2 LB, 5 DB",left,2019-09-29T19:18:48.000Z,2019-09-29T19:18:47.000Z,6-4,270,02/17/1993,Delaware,TE,BAL,CLE,4,M&T Stadium,"Baltimore, Md.",Outdoor,Natural Grass,Partly Cloudy,83.0,57,8,NE
48525,2019092901,20190929012890,home,57.75,28.38,1.85,2.06,0.18,328.22,326.99,2555204,Ronnie Stanley,79,2019,48,4,14:19:00,BLT,1,10,CLV,10,24,2495466,PISTOL,"1 RB, 2 TE, 2 WR",7,"4 DL, 2 LB, 5 DB",left,2019-09-29T19:18:48.000Z,2019-09-29T19:18:47.000Z,6-6,315,03/18/1994,Notre Dame,T,BAL,CLE,4,M&T Stadium,"Baltimore, Md.",Outdoor,Natural Grass,Partly Cloudy,83.0,57,8,NE
48526,2019092901,20190929012890,home,57.71,30.48,1.63,0.34,0.16,266.84,290.3,2556683,Matt Skura,68,2019,48,4,14:19:00,BLT,1,10,CLV,10,24,2495466,PISTOL,"1 RB, 2 TE, 2 WR",7,"4 DL, 2 LB, 5 DB",left,2019-09-29T19:18:48.000Z,2019-09-29T19:18:47.000Z,6-3,313,02/17/1993,Duke,C,BAL,CLE,4,M&T Stadium,"Baltimore, Md.",Outdoor,Natural Grass,Partly Cloudy,83.0,57,8,NE
48527,2019092901,20190929012890,home,57.67,29.86,2.1,0.85,0.21,321.74,296.43,2559827,Bradley Bozeman,77,2019,48,4,14:19:00,BLT,1,10,CLV,10,24,2495466,PISTOL,"1 RB, 2 TE, 2 WR",7,"4 DL, 2 LB, 5 DB",left,2019-09-29T19:18:48.000Z,2019-09-29T19:18:47.000Z,6-3,317,11/24/1994,Alabama,C,BAL,CLE,4,M&T Stadium,"Baltimore, Md.",Outdoor,Natural Grass,Partly Cloudy,83.0,57,8,NE
48528,2019092901,20190929012890,home,62.98,30.06,0.84,2.66,0.08,209.72,213.3,2560757,Lamar Jackson,8,2019,48,4,14:19:00,BLT,1,10,CLV,10,24,2495466,PISTOL,"1 RB, 2 TE, 2 WR",7,"4 DL, 2 LB, 5 DB",left,2019-09-29T19:18:48.000Z,2019-09-29T19:18:47.000Z,6-2,212,01/07/1997,Louisville,QB,BAL,CLE,4,M&T Stadium,"Baltimore, Md.",Outdoor,Natural Grass,Partly Cloudy,83.0,57,8,NE
48529,2019092901,20190929012890,home,57.44,20.0,4.09,2.77,0.4,263.87,226.42,2560957,Mark Andrews,89,2019,48,4,14:19:00,BLT,1,10,CLV,10,24,2495466,PISTOL,"1 RB, 2 TE, 2 WR",7,"4 DL, 2 LB, 5 DB",left,2019-09-29T19:18:48.000Z,2019-09-29T19:18:47.000Z,6-4,255,09/06/1995,Oklahoma,TE,BAL,CLE,4,M&T Stadium,"Baltimore, Md.",Outdoor,Natural Grass,Partly Cloudy,83.0,57,8,NE
48530,2019092901,20190929012890,home,59.33,33.24,0.91,0.37,0.09,331.26,335.78,2560981,Orlando Brown,78,2019,48,4,14:19:00,BLT,1,10,CLV,10,24,2495466,PISTOL,"1 RB, 2 TE, 2 WR",7,"4 DL, 2 LB, 5 DB",left,2019-09-29T19:18:48.000Z,2019-09-29T19:18:47.000Z,6-8,345,05/02/1996,Oklahoma,T,BAL,CLE,4,M&T Stadium,"Baltimore, Md.",Outdoor,Natural Grass,Partly Cloudy,83.0,57,8,NE
48531,2019092901,20190929012890,home,56.79,44.5,4.23,2.88,0.41,253.41,269.34,2562379,Marquise Brown,15,2019,48,4,14:19:00,BLT,1,10,CLV,10,24,2495466,PISTOL,"1 RB, 2 TE, 2 WR",7,"4 DL, 2 LB, 5 DB",left,2019-09-29T19:18:48.000Z,2019-09-29T19:18:47.000Z,5-9,170,06/04/1997,Oklahoma,WR,BAL,CLE,4,M&T Stadium,"Baltimore, Md.",Outdoor,Natural Grass,Partly Cloudy,83.0,57,8,NE
