,GameId,PlayId,Team,X,Y,S,A,Dis,Orientation,Dir,NflId,DisplayName,JerseyNumber,Season,YardLine,Quarter,GameClock,PossessionTeam,Down,Distance,FieldPosition,HomeScoreBeforePlay,VisitorScoreBeforePlay,NflIdRusher,OffenseFormation,OffensePersonnel,DefendersInTheBox,DefensePersonnel,PlayDirection,TimeHandoff,TimeSnap,PlayerHeight,PlayerWeight,PlayerBirthDate,PlayerCollegeName,Position,HomeTeamAbbr,VisitorTeamAbbr,Week,Stadium,Location,StadiumType,Turf,GameWeather,Temperature,Humidity,WindSpeed,WindDirection
54384,2019092907,20190929072286,away,74.79,35.21,0.97,2.35,0.1,133.67,44.99,2495190,Ryan Kerrigan,91,2019,36,3,12:37:00,NYG,1,10,NYG,17,3,2557952,I_FORM,"2 RB, 1 TE, 2 WR",8,"3 DL, 4 LB, 4 DB",left,2019-09-29T18:43:58.000Z,2019-09-29T18:43:56.000Z,6-4,265,08/16/1988,Purdue,OLB,NYG,WAS,4,MetLife Stadium,"East Rutherford, NJ",,UBU Speed Series-S5-M,Fair,77.0,42,11,NNE
54385,2019092907,20190929072286,away,69.43,44.17,4.92,1.2,0.49,215.45,279.38,2532920,Josh Norman,24,2019,36,3,12:37:00,NYG,1,10,NYG,17,3,2557952,I_FORM,"2 RB, 1 TE, 2 WR",8,"3 DL, 4 LB, 4 DB",left,2019-09-29T18:43:58.000Z,2019-09-29T18:43:56.000Z,6-0,200,12/15/1987,Coastal Carolina,CB,NYG,WAS,4,MetLife Stadium,"East Rutherford, NJ",,UBU Speed Series-S5-M,Fair,77.0,42,11,NNE
54386,2019092907,20190929072286,away,72.51,28.35,2.09,3.13,0.2,101.37,16.9,2539978,Jon Bostic,53,2019,36,3,12:37:00,NYG,1,10,NYG,17,3,2557952,I_FORM,"2 RB, 1 TE, 2 WR",8,"3 DL, 4 LB, 4 DB",left,2019-09-29T18:43:58.000Z,2019-09-29T18:43:56.000Z,6-1,245,05/05/1991,Florida,ILB,NYG,WAS,4,MetLife Stadium,"East Rutherford, NJ",,UBU Speed Series-S5-M,Fair,77.0,42,11,NNE
54387,2019092907,20190929072286,away,73.73,27.1,4.06,0.47,0.41,99.32,41.89,2552454,Landon Collins,20,2019,36,3,12:37:00,NYG,1,10,NYG,17,3,2557952,I_FORM,"2 RB, 1 TE, 2 WR",8,"3 DL, 4 LB, 4 DB",left,2019-09-29T18:43:58.000Z,2019-09-29T18:43:56.000Z,6-0,218,01/10/1994,Alabama,SS,NYG,WAS,4,MetLife Stadium,"East Rutherford, NJ",,UBU Speed Series-S5-M,Fair,77.0,42,11,NNE
54388,2019092907,20190929072286,away,69.6,23.58,3.64,1.64,0.36,47.13,31.44,2553796,Quinton Dunbar,23,2019,36,3,12:37:00,NYG,1,10,NYG,17,3,2557952,I_FORM,"2 RB, 1 TE, 2 WR",8,"3 DL, 4 LB, 4 DB",left,2019-09-29T18:43:58.000Z,2019-09-29T18:43:56.000Z,6-2,202,07/22/1992,Florida,CB,NYG,WAS,4,MetLife Stadium,"East Rutherford, NJ",,UBU Speed Series-S5-M,Fair,77.0,42,11,NNE
54389,2019092907,20190929072286,away,73.63,32.81,1.2,0.87,0.12,97.03,2.7,2555240,Matthew Ioannidis,98,2019,36,3,12:37:00,NYG,1,10,NYG,17,3,2557952,I_FORM,"2 RB, 1 TE, 2 WR",8,"3 DL, 4 LB, 4 DB",left,2019-09-29T18:43:58.000Z,2019-09-29T18:43:56.000Z,6-3,310,01/11/1994,Temple,DE,NYG,WAS,4,MetLife Stadium,"East Rutherford, NJ",,UBU Speed Series-S5-M,Fair,77.0,42,11,NNE
54390,2019092907,20190929072286,away,73.47,28.41,2.0,1.25,0.21,92.55,354.71,2557844,Jonathan Allen,93,2019,36,3,12:37:00,NYG,1,10,NYG,17,3,2557952,I_FORM,"2 RB, 1 TE, 2 WR",8,"3 DL, 4 LB, 4 DB",left,2019-09-29T18:43:58.000Z,2019-09-29T18:43:56.000Z,6-3,300,01/16/1995,Alabama,DE,NYG,WAS,4,MetLife Stadium,"East Rutherford, NJ",,UBU Speed Series-S5-M,Fair,77.0,42,11,NNE
54391,2019092907,20190929072286,away,74.42,26.72,2.9,1.61,0.28,67.34,17.6,2557853,Ryan Anderson,52,2019,36,3,12:37:00,NYG,1,10,NYG,17,3,2557952,I_FORM,"2 RB, 1 TE, 2 WR",8,"3 DL, 4 LB, 4 DB",left,2019-09-29T18:43:58.000Z,2019-09-29T18:43:56.000Z,6-2,253,08/12/1994,Alabama,OLB,NYG,WAS,4,MetLife Stadium,"East Rutherford, NJ",,UBU Speed Series-S5-M,Fair,77.0,42,11,NNE
54392,2019092907,20190929072286,away,52.73,28.86,1.97,1.01,0.19,93.11,300.55,2558133,Montae Nicholson,35,2019,36,3,12:37:00,NYG,1,10,NYG,17,3,2557952,I_FORM,"2 RB, 1 TE, 2 WR",8,"3 DL, 4 LB, 4 DB",left,2019-09-29T18:43:58.000Z,2019-09-29T18:43:56.000Z,6-2,212,12/04/1995,Michigan State,FS,NYG,WAS,4,MetLife Stadium,"East Rutherford, NJ",,UBU Speed Series-S5-M,Fair,77.0,42,11,NNE
54393,2019092907,20190929072286,away,73.12,30.84,1.55,0.87,0.15,74.22,333.18,2560834,Daron Payne,94,2019,36,3,12:37:00,NYG,1,10,NYG,17,3,2557952,I_FORM,"2 RB, 1 TE, 2 WR",8,"3 DL, 4 LB, 4 DB",left,2019-09-29T18:43:58.000Z,2019-09-29T18:43:56.000Z,6-3,320,05/27/1997,Alabama,NT,NYG,WAS,4,MetLife Stadium,"East Rutherford, NJ",,UBU Speed Series-S5-M,Fair,77.0,42,11,NNE
54394,2019092907,20190929072286,away,72.69,31.59,3.87,0.45,0.37,96.59,62.29,2561003,Shaun Dion Hamilton,51,2019,36,3,12:37:00,NYG,1,10,NYG,17,3,2557952,I_FORM,"2 RB, 1 TE, 2 WR",8,"3 DL, 4 LB, 4 DB",left,2019-09-29T18:43:58.000Z,2019-09-29T18:43:56.000Z,6-0,235,09/11/1995,Alabama,LB,NYG,WAS,4,MetLife Stadium,"East Rutherford, NJ",,UBU Speed Series-S5-M,Fair,77.0,42,11,NNE
54395,2019092907,20190929072286,home,74.2,28.46,2.14,0.96,0.22,288.21,333.08,2495232,Nate Solder,76,2019,36,3,12:37:00,NYG,1,10,NYG,17,3,2557952,I_FORM,"2 RB, 1 TE, 2 WR",8,"3 DL, 4 LB, 4 DB",left,2019-09-29T18:43:58.000Z,2019-09-29T18:43:56.000Z,6-9,325,04/12/1988,Colorado,T,NYG,WAS,4,MetLife Stadium,"East Rutherford, NJ",,UBU Speed Series-S5-M,Fair,77.0,42,11,NNE
54396,2019092907,20190929072286,home,75.18,26.79,3.27,1.75,0.32,258.64,11.21,2532835,Rhett Ellison,85,2019,36,3,12:37:00,NYG,1,10,NYG,17,3,2557952,I_FORM,"2 RB, 1 TE, 2 WR",8,"3 DL, 4 LB, 4 DB",left,2019-09-29T18:43:58.000Z,2019-09-29T18:43:56.000Z,6-5,255,10/03/1988,Southern California,TE,NYG,WAS,4,MetLife Stadium,"East Rutherford, NJ",,UBU Speed Series-S5-M,Fair,77.0,42,11,NNE
54397,2019092907,20190929072286,home,74.56,32.86,1.27,0.95,0.13,288.46,351.19,2532980,Kevin Zeitler,70,2019,36,3,12:37:00,NYG,1,10,NYG,17,3,2557952,I_FORM,"2 RB, 1 TE, 2 WR",8,"3 DL, 4 LB, 4 DB",left,2019-09-29T18:43:58.000Z,2019-09-29T18:43:56.000Z,6-4,315,03/08/1990,Wisconsin,G,NYG,WAS,4,MetLife Stadium,"East Rutherford, NJ",,UBU Speed Series-S5-M,Fair,77.0,42,11,NNE
54398,2019092907,20190929072286,home,75.29,34.82,0.75,0.88,0.09,317.24,21.6,2535607,Mike Remmers,74,2019,36,3,12:37:00,NYG,1,10,NYG,17,3,2557952,I_FORM,"2 RB, 1 TE, 2 WR",8,"3 DL, 4 LB, 4 DB",left,2019-09-29T18:43:58.000Z,2019-09-29T18:43:56.000Z,6-5,310,04/11/1989,Oregon State,T,NYG,WAS,4,MetLife Stadium,"East Rutherford, NJ",,UBU Speed Series-S5-M,Fair,77.0,42,11,NNE
54399,2019092907,20190929072286,home,74.08,31.05,1.94,0.49,0.2,321.33,350.4,2543708,Jon Halapio,75,2019,36,3,12:37:00,NYG,1,10,NYG,17,3,2557952,I_FORM,"2 RB, 1 TE, 2 WR",8,"3 DL, 4 LB, 4 DB",left,2019-09-29T18:43:58.000Z,2019-09-29T18:43:56.000Z,6-4,315,06/23/1991,Florida,C,NYG,WAS,4,MetLife Stadium,"East Rutherford, NJ",,UBU Speed Series-S5-M,Fair,77.0,42,11,NNE
54400,2019092907,20190929072286,home,76.03,25.91,4.91,1.89,0.48,319.68,359.06,2550198,Bennie Fowler,18,2019,36,3,12:37:00,NYG,1,10,NYG,17,3,2557952,I_FORM,"2 RB, 1 TE, 2 WR",8,"3 DL, 4 LB, 4 DB",left,2019-09-29T18:43:58.000Z,2019-09-29T18:43:56.000Z,6-1,218,06/10/1991,Michigan State,WR,NYG,WAS,4,MetLife Stadium,"East Rutherford, NJ",,UBU Speed Series-S5-M,Fair,77.0,42,11,NNE
54401,2019092907,20190929072286,home,72.43,43.32,4.33,2.55,0.43,272.13,265.04,2555295,Sterling Shepard,87,2019,36,3,12:37:00,NYG,1,10,NYG,17,3,2557952,I_FORM,"2 RB, 1 TE, 2 WR",8,"3 DL, 4 LB, 4 DB",left,2019-09-29T18:43:58.000Z,2019-09-29T18:43:56.000Z,5-10,201,02/10/1993,Oklahoma,WR,NYG,WAS,4,MetLife Stadium,"East Rutherford, NJ",,UBU Speed Series-S5-M,Fair,77.0,42,11,NNE
54402,2019092907,20190929072286,home,74.68,27.77,4.27,0.76,0.39,300.85,294.09,2556762,Elijhaa Penny,39,2019,36,3,12:37:00,NYG,1,10,NYG,17,3,2557952,I_FORM,"2 RB, 1 TE, 2 WR",8,"3 DL, 4 LB, 4 DB",left,2019-09-29T18:43:58.000Z,2019-09-29T18:43:56.000Z,6-1,234,08/17/1993,Idaho,RB,NYG,WAS,4,MetLife Stadium,"East Rutherford, NJ",,UBU Speed Series-S5-M,Fair,77.0,42,11,NNE
54403,2019092907,20190929072286,home,79.26,31.3,3.72,4.13,0.35,282.25,284.35,2557952,Wayne Gallman,22,2019,36,3,12:37:00,NYG,1,10,NYG,17,3,2557952,I_FORM,"2 RB, 1 TE, 2 WR",8,"3 DL, 4 LB, 4 DB",left,2019-09-29T18:43:58.000Z,2019-09-29T18:43:56.000Z,6-0,210,10/01/1994,Clemson,RB,NYG,WAS,4,MetLife Stadium,"East Rutherford, NJ",,UBU Speed Series-S5-M,Fair,77.0,42,11,NNE
54404,2019092907,20190929072286,home,73.74,30.37,1.96,1.67,0.2,333.99,336.48,2560737,Will Hernandez,71,2019,36,3,12:37:00,NYG,1,10,NYG,17,3,2557952,I_FORM,"2 RB, 1 TE, 2 WR",8,"3 DL, 4 LB, 4 DB",left,2019-09-29T18:43:58.000Z,2019-09-29T18:43:56.000Z,6-3,327,09/02/1995,Texas-El Paso,G,NYG,WAS,4,MetLife Stadium,"East Rutherford, NJ",,UBU Speed Series-S5-M,Fair,77.0,42,11,NNE
54405,2019092907,20190929072286,home,78.35,30.44,4.09,0.94,0.4,47.96,74.28,2562299,Daniel Jones,8,2019,36,3,12:37:00,NYG,1,10,NYG,17,3,2557952,I_FORM,"2 RB, 1 TE, 2 WR",8,"3 DL, 4 LB, 4 DB",left,2019-09-29T18:43:58.000Z,2019-09-29T18:43:56.000Z,6-5,220,05/27/1997,Duke,QB,NYG,WAS,4,MetLife Stadium,"East Rutherford, NJ",,UBU Speed Series-S5-M,Fair,77.0,42,11,NNE
