,GameId,PlayId,Team,X,Y,S,A,Dis,Orientation,Dir,NflId,DisplayName,JerseyNumber,Season,YardLine,Quarter,GameClock,PossessionTeam,Down,Distance,FieldPosition,HomeScoreBeforePlay,VisitorScoreBeforePlay,NflIdRusher,OffenseFormation,OffensePersonnel,DefendersInTheBox,DefensePersonnel,PlayDirection,TimeHandoff,TimeSnap,PlayerHeight,PlayerWeight,PlayerBirthDate,PlayerCollegeName,Position,HomeTeamAbbr,VisitorTeamAbbr,Week,Stadium,Location,StadiumType,Turf,GameWeather,Temperature,Humidity,WindSpeed,WindDirection
74602,2019100700,20191007000783,away,88.64,29.32,1.19,1.69,0.14,200.29,293.86,2540292,JC Tretter,64,2019,22,1,06:19:00,CLV,1,10,CLV,14,0,2561021,JUMBO,"1 RB, 1 TE, 3 WR",7,"4 DL, 2 LB, 5 DB",left,2019-10-08T00:48:24.000Z,2019-10-08T00:48:23.000Z,6-4,307,02/12/1991,Cornell,T,SF,CLE,5,Levis Stadium,"Santa Clara, CA",Outdoor,Natural Grass,Clear,87.0,36,8,NW
74603,2019100700,20191007000783,away,88.84,30.75,0.53,1.97,0.05,267.91,55.27,2541312,Eric Kush,72,2019,22,1,06:19:00,CLV,1,10,CLV,14,0,2561021,JUMBO,"1 RB, 1 TE, 3 WR",7,"4 DL, 2 LB, 5 DB",left,2019-10-08T00:48:24.000Z,2019-10-08T00:48:23.000Z,6-4,317,09/09/1989,"California, Pa.",OG,SF,CLE,5,Levis Stadium,"Santa Clara, CA",Outdoor,Natural Grass,Clear,87.0,36,8,NW
74604,2019100700,20191007000783,away,87.32,32.28,2.12,1.71,0.27,291.59,282.04,2541716,Chris Hubbard,74,2019,22,1,06:19:00,CLV,1,10,CLV,14,0,2561021,JUMBO,"1 RB, 1 TE, 3 WR",7,"4 DL, 2 LB, 5 DB",left,2019-10-08T00:48:24.000Z,2019-10-08T00:48:23.000Z,6-4,295,04/23/1991,Alabama-Birmingham,G,SF,CLE,5,Levis Stadium,"Santa Clara, CA",Outdoor,Natural Grass,Clear,87.0,36,8,NW
74605,2019100700,20191007000783,away,89.59,25.19,1.05,0.51,0.1,255.69,149.01,2543458,Greg Robinson,78,2019,22,1,06:19:00,CLV,1,10,CLV,14,0,2561021,JUMBO,"1 RB, 1 TE, 3 WR",7,"4 DL, 2 LB, 5 DB",left,2019-10-08T00:48:24.000Z,2019-10-08T00:48:23.000Z,6-5,332,10/21/1992,Auburn,OT,SF,CLE,5,Levis Stadium,"Santa Clara, CA",Outdoor,Natural Grass,Clear,87.0,36,8,NW
74606,2019100700,20191007000783,away,90.81,29.07,5.73,2.13,0.57,289.2,355.08,2543488,Jarvis Landry,80,2019,22,1,06:19:00,CLV,1,10,CLV,14,0,2561021,JUMBO,"1 RB, 1 TE, 3 WR",7,"4 DL, 2 LB, 5 DB",left,2019-10-08T00:48:24.000Z,2019-10-08T00:48:23.000Z,5-11,196,11/28/1992,Louisiana State,WR,SF,CLE,5,Levis Stadium,"Santa Clara, CA",Outdoor,Natural Grass,Clear,87.0,36,8,NW
74607,2019100700,20191007000783,away,92.28,34.06,6.63,2.97,0.67,334.89,352.81,2543496,Odell Beckham,13,2019,22,1,06:19:00,CLV,1,10,CLV,14,0,2561021,JUMBO,"1 RB, 1 TE, 3 WR",7,"4 DL, 2 LB, 5 DB",left,2019-10-08T00:48:24.000Z,2019-10-08T00:48:23.000Z,5-11,198,11/05/1992,Louisiana State,WR,SF,CLE,5,Levis Stadium,"Santa Clara, CA",Outdoor,Natural Grass,Clear,87.0,36,8,NW
74608,2019100700,20191007000783,away,89.75,29.18,0.82,0.65,0.09,219.65,8.01,2543737,Joel Bitonio,75,2019,22,1,06:19:00,CLV,1,10,CLV,14,0,2561021,JUMBO,"1 RB, 1 TE, 3 WR",7,"4 DL, 2 LB, 5 DB",left,2019-10-08T00:48:24.000Z,2019-10-08T00:48:23.000Z,6-4,320,10/11/1991,Nevada,G,SF,CLE,5,Levis Stadium,"Santa Clara, CA",Outdoor,Natural Grass,Clear,87.0,36,8,NW
74609,2019100700,20191007000783,away,90.46,35.39,1.42,0.53,0.14,290.79,75.87,2559018,Pharaoh Brown,86,2019,22,1,06:19:00,CLV,1,10,CLV,14,0,2561021,JUMBO,"1 RB, 1 TE, 3 WR",7,"4 DL, 2 LB, 5 DB",left,2019-10-08T00:48:24.000Z,2019-10-08T00:48:23.000Z,6-6,258,05/04/1994,Oregon,TE,SF,CLE,5,Levis Stadium,"Santa Clara, CA",Outdoor,Natural Grass,Clear,87.0,36,8,NW
74610,2019100700,20191007000783,away,93.49,28.62,4.05,0.23,0.4,15.03,110.79,2560800,Baker Mayfield,6,2019,22,1,06:19:00,CLV,1,10,CLV,14,0,2561021,JUMBO,"1 RB, 1 TE, 3 WR",7,"4 DL, 2 LB, 5 DB",left,2019-10-08T00:48:24.000Z,2019-10-08T00:48:23.000Z,6-1,215,04/14/1995,Oklahoma,QB,SF,CLE,5,Levis Stadium,"Santa Clara, CA",Outdoor,Natural Grass,Clear,87.0,36,8,NW
74611,2019100700,20191007000783,away,86.73,23.38,1.88,1.78,0.19,294.47,281.0,2560988,Antonio Callaway,11,2019,22,1,06:19:00,CLV,1,10,CLV,14,0,2561021,JUMBO,"1 RB, 1 TE, 3 WR",7,"4 DL, 2 LB, 5 DB",left,2019-10-08T00:48:24.000Z,2019-10-08T00:48:23.000Z,5-11,200,01/09/1997,Florida,WR,SF,CLE,5,Levis Stadium,"Santa Clara, CA",Outdoor,Natural Grass,Clear,87.0,36,8,NW
74612,2019100700,20191007000783,away,94.31,29.31,2.68,2.65,0.28,268.37,280.43,2561021,Nick Chubb,24,2019,22,1,06:19:00,CLV,1,10,CLV,14,0,2561021,JUMBO,"1 RB, 1 TE, 3 WR",7,"4 DL, 2 LB, 5 DB",left,2019-10-08T00:48:24.000Z,2019-10-08T00:48:23.000Z,5-11,225,12/27/1995,Georgia,RB,SF,CLE,5,Levis Stadium,"Santa Clara, CA",Outdoor,Natural Grass,Clear,87.0,36,8,NW
74613,2019100700,20191007000783,home,85.69,38.35,2.86,0.9,0.29,157.25,332.03,2495507,Richard Sherman,25,2019,22,1,06:19:00,CLV,1,10,CLV,14,0,2561021,JUMBO,"1 RB, 1 TE, 3 WR",7,"4 DL, 2 LB, 5 DB",left,2019-10-08T00:48:24.000Z,2019-10-08T00:48:23.000Z,6-3,195,03/30/1988,Stanford,CB,SF,CLE,5,Levis Stadium,"Santa Clara, CA",Outdoor,Natural Grass,Clear,87.0,36,8,NW
74614,2019100700,20191007000783,home,78.54,24.9,3.22,1.11,0.32,89.0,288.56,2543741,Jimmie Ward,20,2019,22,1,06:19:00,CLV,1,10,CLV,14,0,2561021,JUMBO,"1 RB, 1 TE, 3 WR",7,"4 DL, 2 LB, 5 DB",left,2019-10-08T00:48:24.000Z,2019-10-08T00:48:23.000Z,5-11,193,07/18/1991,Northern Illinois,FS,SF,CLE,5,Levis Stadium,"Santa Clara, CA",Outdoor,Natural Grass,Clear,87.0,36,8,NW
74615,2019100700,20191007000783,home,85.83,24.37,0.22,0.69,0.02,74.83,71.7,2550654,K'Waun Williams,24,2019,22,1,06:19:00,CLV,1,10,CLV,14,0,2561021,JUMBO,"1 RB, 1 TE, 3 WR",7,"4 DL, 2 LB, 5 DB",left,2019-10-08T00:48:24.000Z,2019-10-08T00:48:23.000Z,5-9,183,07/12/1991,Pittsburgh,CB,SF,CLE,5,Levis Stadium,"Santa Clara, CA",Outdoor,Natural Grass,Clear,87.0,36,8,NW
74616,2019100700,20191007000783,home,82.41,33.48,4.61,2.17,0.47,75.07,51.44,2552391,Jaquiski Tartt,29,2019,22,1,06:19:00,CLV,1,10,CLV,14,0,2561021,JUMBO,"1 RB, 1 TE, 3 WR",7,"4 DL, 2 LB, 5 DB",left,2019-10-08T00:48:24.000Z,2019-10-08T00:48:23.000Z,6-1,215,02/12/1992,Samford,FS,SF,CLE,5,Levis Stadium,"Santa Clara, CA",Outdoor,Natural Grass,Clear,87.0,36,8,NW
74617,2019100700,20191007000783,home,89.74,35.96,1.87,1.18,0.18,57.13,94.33,2552493,Arik Armstead,91,2019,22,1,06:19:00,CLV,1,10,CLV,14,0,2561021,JUMBO,"1 RB, 1 TE, 3 WR",7,"4 DL, 2 LB, 5 DB",left,2019-10-08T00:48:24.000Z,2019-10-08T00:48:23.000Z,6-7,292,11/15/1993,Oregon,DE,SF,CLE,5,Levis Stadium,"Santa Clara, CA",Outdoor,Natural Grass,Clear,87.0,36,8,NW
74618,2019100700,20191007000783,home,84.3,31.01,1.73,2.2,0.16,85.19,55.36,2552592,Kwon Alexander,56,2019,22,1,06:19:00,CLV,1,10,CLV,14,0,2561021,JUMBO,"1 RB, 1 TE, 3 WR",7,"4 DL, 2 LB, 5 DB",left,2019-10-08T00:48:24.000Z,2019-10-08T00:48:23.000Z,6-1,227,08/03/1994,Louisiana State,MLB,SF,CLE,5,Levis Stadium,"Santa Clara, CA",Outdoor,Natural Grass,Clear,87.0,36,8,NW
74619,2019100700,20191007000783,home,88.45,31.25,0.95,1.37,0.1,104.58,43.74,2555241,Sheldon Day,96,2019,22,1,06:19:00,CLV,1,10,CLV,14,0,2561021,JUMBO,"1 RB, 1 TE, 3 WR",7,"4 DL, 2 LB, 5 DB",left,2019-10-08T00:48:24.000Z,2019-10-08T00:48:23.000Z,6-1,294,07/01/1994,Notre Dame,DT,SF,CLE,5,Levis Stadium,"Santa Clara, CA",Outdoor,Natural Grass,Clear,87.0,36,8,NW
74620,2019100700,20191007000783,home,89.37,28.65,0.59,1.91,0.07,41.32,347.22,2558265,D.J. Jones,93,2019,22,1,06:19:00,CLV,1,10,CLV,14,0,2561021,JUMBO,"1 RB, 1 TE, 3 WR",7,"4 DL, 2 LB, 5 DB",left,2019-10-08T00:48:24.000Z,2019-10-08T00:48:23.000Z,6-0,321,01/19/1995,Mississippi,DT,SF,CLE,5,Levis Stadium,"Santa Clara, CA",Outdoor,Natural Grass,Clear,87.0,36,8,NW
74621,2019100700,20191007000783,home,84.73,27.68,2.03,2.67,0.2,72.46,46.49,2560917,Fred Warner,54,2019,22,1,06:19:00,CLV,1,10,CLV,14,0,2561021,JUMBO,"1 RB, 1 TE, 3 WR",7,"4 DL, 2 LB, 5 DB",left,2019-10-08T00:48:24.000Z,2019-10-08T00:48:23.000Z,6-3,236,11/19/1996,Brigham Young,LB,SF,CLE,5,Levis Stadium,"Santa Clara, CA",Outdoor,Natural Grass,Clear,87.0,36,8,NW
74622,2019100700,20191007000783,home,80.66,19.33,0.36,0.35,0.04,51.76,276.97,2561072,Emmanuel Moseley,41,2019,22,1,06:19:00,CLV,1,10,CLV,14,0,2561021,JUMBO,"1 RB, 1 TE, 3 WR",7,"4 DL, 2 LB, 5 DB",left,2019-10-08T00:48:24.000Z,2019-10-08T00:48:23.000Z,5-11,184,03/25/1996,Tennessee,DB,SF,CLE,5,Levis Stadium,"Santa Clara, CA",Outdoor,Natural Grass,Clear,87.0,36,8,NW
74623,2019100700,20191007000783,home,89.39,24.6,1.15,1.61,0.13,65.17,139.29,2562629,Nick Bosa,97,2019,22,1,06:19:00,CLV,1,10,CLV,14,0,2561021,JUMBO,"1 RB, 1 TE, 3 WR",7,"4 DL, 2 LB, 5 DB",left,2019-10-08T00:48:24.000Z,2019-10-08T00:48:23.000Z,6-4,266,10/23/1997,Ohio State,DE,SF,CLE,5,Levis Stadium,"Santa Clara, CA",Outdoor,Natural Grass,Clear,87.0,36,8,NW
