,GameId,PlayId,Team,X,Y,S,A,Dis,Orientation,Dir,NflId,DisplayName,JerseyNumber,Season,YardLine,Quarter,GameClock,PossessionTeam,Down,Distance,FieldPosition,HomeScoreBeforePlay,VisitorScoreBeforePlay,NflIdRusher,OffenseFormation,OffensePersonnel,DefendersInTheBox,DefensePersonnel,PlayDirection,TimeHandoff,TimeSnap,PlayerHeight,PlayerWeight,PlayerBirthDate,PlayerCollegeName,Position,HomeTeamAbbr,VisitorTeamAbbr,Week,Stadium,Location,StadiumType,Turf,GameWeather,Temperature,Humidity,WindSpeed,WindDirection
74624,2019100700,20191007000804,away,85.23,25.63,3.37,2.05,0.34,202.78,185.12,2540292,JC Tretter,64,2019,26,1,05:41:00,CLV,2,6,CLV,14,0,2561021,SINGLEBACK,"1 RB, 2 TE, 2 WR",8,"4 DL, 3 LB, 4 DB",left,2019-10-08T00:49:02.000Z,2019-10-08T00:49:01.000Z,6-4,307,02/12/1991,Cornell,T,SF,CLE,5,Levis Stadium,"Santa Clara, CA",Outdoor,Natural Grass,Clear,87.0,36,8,NW
74625,2019100700,20191007000804,away,85.8,23.12,2.02,0.33,0.2,200.63,183.2,2541187,Demetrius Harris,88,2019,26,1,05:41:00,CLV,2,6,CLV,14,0,2561021,SINGLEBACK,"1 RB, 2 TE, 2 WR",8,"4 DL, 3 LB, 4 DB",left,2019-10-08T00:49:02.000Z,2019-10-08T00:49:01.000Z,6-7,230,07/29/1991,Wisconsin-Milwaukee,TE,SF,CLE,5,Levis Stadium,"Santa Clara, CA",Outdoor,Natural Grass,Clear,87.0,36,8,NW
74626,2019100700,20191007000804,away,84.98,27.86,2.98,1.97,0.31,321.5,178.11,2541312,Eric Kush,72,2019,26,1,05:41:00,CLV,2,6,CLV,14,0,2561021,SINGLEBACK,"1 RB, 2 TE, 2 WR",8,"4 DL, 3 LB, 4 DB",left,2019-10-08T00:49:02.000Z,2019-10-08T00:49:01.000Z,6-4,317,09/09/1989,"California, Pa.",OG,SF,CLE,5,Levis Stadium,"Santa Clara, CA",Outdoor,Natural Grass,Clear,87.0,36,8,NW
74627,2019100700,20191007000804,away,84.43,30.39,2.22,1.61,0.23,284.32,209.41,2541716,Chris Hubbard,74,2019,26,1,05:41:00,CLV,2,6,CLV,14,0,2561021,SINGLEBACK,"1 RB, 2 TE, 2 WR",8,"4 DL, 3 LB, 4 DB",left,2019-10-08T00:49:02.000Z,2019-10-08T00:49:01.000Z,6-4,295,04/23/1991,Alabama-Birmingham,G,SF,CLE,5,Levis Stadium,"Santa Clara, CA",Outdoor,Natural Grass,Clear,87.0,36,8,NW
74628,2019100700,20191007000804,away,84.34,23.5,4.45,1.31,0.44,263.09,208.52,2543458,Greg Robinson,78,2019,26,1,05:41:00,CLV,2,6,CLV,14,0,2561021,SINGLEBACK,"1 RB, 2 TE, 2 WR",8,"4 DL, 3 LB, 4 DB",left,2019-10-08T00:49:02.000Z,2019-10-08T00:49:01.000Z,6-5,332,10/21/1992,Auburn,OT,SF,CLE,5,Levis Stadium,"Santa Clara, CA",Outdoor,Natural Grass,Clear,87.0,36,8,NW
74629,2019100700,20191007000804,away,83.73,18.76,3.45,1.6,0.34,305.95,249.64,2543488,Jarvis Landry,80,2019,26,1,05:41:00,CLV,2,6,CLV,14,0,2561021,SINGLEBACK,"1 RB, 2 TE, 2 WR",8,"4 DL, 3 LB, 4 DB",left,2019-10-08T00:49:02.000Z,2019-10-08T00:49:01.000Z,5-11,196,11/28/1992,Louisiana State,WR,SF,CLE,5,Levis Stadium,"Santa Clara, CA",Outdoor,Natural Grass,Clear,87.0,36,8,NW
74630,2019100700,20191007000804,away,81.75,43.65,5.39,1.5,0.53,272.33,264.85,2543496,Odell Beckham,13,2019,26,1,05:41:00,CLV,2,6,CLV,14,0,2561021,SINGLEBACK,"1 RB, 2 TE, 2 WR",8,"4 DL, 3 LB, 4 DB",left,2019-10-08T00:49:02.000Z,2019-10-08T00:49:01.000Z,5-11,198,11/05/1992,Louisiana State,WR,SF,CLE,5,Levis Stadium,"Santa Clara, CA",Outdoor,Natural Grass,Clear,87.0,36,8,NW
74631,2019100700,20191007000804,away,86.16,24.9,3.5,0.68,0.36,227.57,170.09,2543737,Joel Bitonio,75,2019,26,1,05:41:00,CLV,2,6,CLV,14,0,2561021,SINGLEBACK,"1 RB, 2 TE, 2 WR",8,"4 DL, 3 LB, 4 DB",left,2019-10-08T00:49:02.000Z,2019-10-08T00:49:01.000Z,6-4,320,10/11/1991,Nevada,G,SF,CLE,5,Levis Stadium,"Santa Clara, CA",Outdoor,Natural Grass,Clear,87.0,36,8,NW
74632,2019100700,20191007000804,away,86.23,21.92,3.4,0.94,0.33,281.82,184.01,2559018,Pharaoh Brown,86,2019,26,1,05:41:00,CLV,2,6,CLV,14,0,2561021,SINGLEBACK,"1 RB, 2 TE, 2 WR",8,"4 DL, 3 LB, 4 DB",left,2019-10-08T00:49:02.000Z,2019-10-08T00:49:01.000Z,6-6,258,05/04/1994,Oregon,TE,SF,CLE,5,Levis Stadium,"Santa Clara, CA",Outdoor,Natural Grass,Clear,87.0,36,8,NW
74633,2019100700,20191007000804,away,89.58,27.82,5.04,1.61,0.5,71.48,114.38,2560800,Baker Mayfield,6,2019,26,1,05:41:00,CLV,2,6,CLV,14,0,2561021,SINGLEBACK,"1 RB, 2 TE, 2 WR",8,"4 DL, 3 LB, 4 DB",left,2019-10-08T00:49:02.000Z,2019-10-08T00:49:01.000Z,6-1,215,04/14/1995,Oklahoma,QB,SF,CLE,5,Levis Stadium,"Santa Clara, CA",Outdoor,Natural Grass,Clear,87.0,36,8,NW
74634,2019100700,20191007000804,away,89.56,26.72,5.47,1.96,0.54,228.95,212.9,2561021,Nick Chubb,24,2019,26,1,05:41:00,CLV,2,6,CLV,14,0,2561021,SINGLEBACK,"1 RB, 2 TE, 2 WR",8,"4 DL, 3 LB, 4 DB",left,2019-10-08T00:49:02.000Z,2019-10-08T00:49:01.000Z,5-11,225,12/27/1995,Georgia,RB,SF,CLE,5,Levis Stadium,"Santa Clara, CA",Outdoor,Natural Grass,Clear,87.0,36,8,NW
74635,2019100700,20191007000804,home,79.1,44.42,5.22,1.98,0.51,262.47,267.38,2495507,Richard Sherman,25,2019,26,1,05:41:00,CLV,2,6,CLV,14,0,2561021,SINGLEBACK,"1 RB, 2 TE, 2 WR",8,"4 DL, 3 LB, 4 DB",left,2019-10-08T00:49:02.000Z,2019-10-08T00:49:01.000Z,6-3,195,03/30/1988,Stanford,CB,SF,CLE,5,Levis Stadium,"Santa Clara, CA",Outdoor,Natural Grass,Clear,87.0,36,8,NW
74636,2019100700,20191007000804,home,85.34,32.33,4.08,1.37,0.41,111.89,110.96,2543741,Jimmie Ward,20,2019,26,1,05:41:00,CLV,2,6,CLV,14,0,2561021,SINGLEBACK,"1 RB, 2 TE, 2 WR",8,"4 DL, 3 LB, 4 DB",left,2019-10-08T00:49:02.000Z,2019-10-08T00:49:01.000Z,5-11,193,07/18/1991,Northern Illinois,FS,SF,CLE,5,Levis Stadium,"Santa Clara, CA",Outdoor,Natural Grass,Clear,87.0,36,8,NW
74637,2019100700,20191007000804,home,70.1,25.31,0.65,0.58,0.06,101.36,291.46,2552391,Jaquiski Tartt,29,2019,26,1,05:41:00,CLV,2,6,CLV,14,0,2561021,SINGLEBACK,"1 RB, 2 TE, 2 WR",8,"4 DL, 3 LB, 4 DB",left,2019-10-08T00:49:02.000Z,2019-10-08T00:49:01.000Z,6-1,215,02/12/1992,Samford,FS,SF,CLE,5,Levis Stadium,"Santa Clara, CA",Outdoor,Natural Grass,Clear,87.0,36,8,NW
74638,2019100700,20191007000804,home,85.92,31.66,4.96,1.54,0.51,48.06,160.84,2552493,Arik Armstead,91,2019,26,1,05:41:00,CLV,2,6,CLV,14,0,2561021,SINGLEBACK,"1 RB, 2 TE, 2 WR",8,"4 DL, 3 LB, 4 DB",left,2019-10-08T00:49:02.000Z,2019-10-08T00:49:01.000Z,6-7,292,11/15/1993,Oregon,DE,SF,CLE,5,Levis Stadium,"Santa Clara, CA",Outdoor,Natural Grass,Clear,87.0,36,8,NW
74639,2019100700,20191007000804,home,81.94,20.56,3.69,2.25,0.36,85.0,141.31,2552592,Kwon Alexander,56,2019,26,1,05:41:00,CLV,2,6,CLV,14,0,2561021,SINGLEBACK,"1 RB, 2 TE, 2 WR",8,"4 DL, 3 LB, 4 DB",left,2019-10-08T00:49:02.000Z,2019-10-08T00:49:01.000Z,6-1,227,08/03/1994,Louisiana State,MLB,SF,CLE,5,Levis Stadium,"Santa Clara, CA",Outdoor,Natural Grass,Clear,87.0,36,8,NW
74640,2019100700,20191007000804,home,85.4,24.72,3.38,1.27,0.37,89.76,171.05,2555241,Sheldon Day,96,2019,26,1,05:41:00,CLV,2,6,CLV,14,0,2561021,SINGLEBACK,"1 RB, 2 TE, 2 WR",8,"4 DL, 3 LB, 4 DB",left,2019-10-08T00:49:02.000Z,2019-10-08T00:49:01.000Z,6-1,294,07/01/1994,Notre Dame,DT,SF,CLE,5,Levis Stadium,"Santa Clara, CA",Outdoor,Natural Grass,Clear,87.0,36,8,NW
74641,2019100700,20191007000804,home,85.53,28.42,3.82,1.38,0.38,260.96,153.03,2558265,D.J. Jones,93,2019,26,1,05:41:00,CLV,2,6,CLV,14,0,2561021,SINGLEBACK,"1 RB, 2 TE, 2 WR",8,"4 DL, 3 LB, 4 DB",left,2019-10-08T00:49:02.000Z,2019-10-08T00:49:01.000Z,6-0,321,01/19/1995,Mississippi,DT,SF,CLE,5,Levis Stadium,"Santa Clara, CA",Outdoor,Natural Grass,Clear,87.0,36,8,NW
74642,2019100700,20191007000804,home,82.03,23.63,4.64,2.63,0.45,94.23,154.03,2560917,Fred Warner,54,2019,26,1,05:41:00,CLV,2,6,CLV,14,0,2561021,SINGLEBACK,"1 RB, 2 TE, 2 WR",8,"4 DL, 3 LB, 4 DB",left,2019-10-08T00:49:02.000Z,2019-10-08T00:49:01.000Z,6-3,236,11/19/1996,Brigham Young,LB,SF,CLE,5,Levis Stadium,"Santa Clara, CA",Outdoor,Natural Grass,Clear,87.0,36,8,NW
74643,2019100700,20191007000804,home,76.57,17.8,1.14,0.46,0.11,96.91,255.31,2561072,Emmanuel Moseley,41,2019,26,1,05:41:00,CLV,2,6,CLV,14,0,2561021,SINGLEBACK,"1 RB, 2 TE, 2 WR",8,"4 DL, 3 LB, 4 DB",left,2019-10-08T00:49:02.000Z,2019-10-08T00:49:01.000Z,5-11,184,03/25/1996,Tennessee,DB,SF,CLE,5,Levis Stadium,"Santa Clara, CA",Outdoor,Natural Grass,Clear,87.0,36,8,NW
74644,2019100700,20191007000804,home,80.93,27.02,3.52,2.14,0.35,123.64,152.74,2562428,Dre Greenlaw,57,2019,26,1,05:41:00,CLV,2,6,CLV,14,0,2561021,SINGLEBACK,"1 RB, 2 TE, 2 WR",8,"4 DL, 3 LB, 4 DB",left,2019-10-08T00:49:02.000Z,2019-10-08T00:49:01.000Z,6-0,225,05/25/1997,Arkansas,LB,SF,CLE,5,Levis Stadium,"Santa Clara, CA",Outdoor,Natural Grass,Clear,87.0,36,8,NW
74645,2019100700,20191007000804,home,85.64,22.09,2.34,1.09,0.25,323.96,156.23,2562629,Nick Bosa,97,2019,26,1,05:41:00,CLV,2,6,CLV,14,0,2561021,SINGLEBACK,"1 RB, 2 TE, 2 WR",8,"4 DL, 3 LB, 4 DB",left,2019-10-08T00:49:02.000Z,2019-10-08T00:49:01.000Z,6-4,266,10/23/1997,Ohio State,DE,SF,CLE,5,Levis Stadium,"Santa Clara, CA",Outdoor,Natural Grass,Clear,87.0,36,8,NW
