,GameId,PlayId,Team,X,Y,S,A,Dis,Orientation,Dir,NflId,DisplayName,JerseyNumber,Season,YardLine,Quarter,GameClock,PossessionTeam,Down,Distance,FieldPosition,HomeScoreBeforePlay,VisitorScoreBeforePlay,NflIdRusher,OffenseFormation,OffensePersonnel,DefendersInTheBox,DefensePersonnel,PlayDirection,TimeHandoff,TimeSnap,PlayerHeight,PlayerWeight,PlayerBirthDate,PlayerCollegeName,Position,HomeTeamAbbr,VisitorTeamAbbr,Week,Stadium,Location,StadiumType,Turf,GameWeather,Temperature,Humidity,WindSpeed,WindDirection
53658,2019092906,20190929063315,away,60.69,30.75,0.72,1.01,0.07,143.76,299.77,2495187,Lance Kendricks,87,2019,48,4,10:28:00,LAC,1,10,MIA,10,27,2559169,SINGLEBACK,"1 RB, 1 TE, 3 WR",6,"3 DL, 3 LB, 5 DB",right,2019-09-29T19:34:34.000Z,2019-09-29T19:34:32.000Z,6-3,250,01/30/1988,Wisconsin,TE,MIA,LAC,4,Hard Rock Stadium,"Miami Gardens, FL",Outdoor,Natural Grass,Mostly Cloudy,88.0,53,15,ENE
53659,2019092906,20190929063315,away,61.2,24.92,1.45,0.04,0.15,188.89,328.44,2495216,Mike Pouncey,53,2019,48,4,10:28:00,LAC,1,10,MIA,10,27,2559169,SINGLEBACK,"1 RB, 1 TE, 3 WR",6,"3 DL, 3 LB, 5 DB",right,2019-09-29T19:34:34.000Z,2019-09-29T19:34:32.000Z,6-5,298,07/24/1989,Florida,C,MIA,LAC,4,Hard Rock Stadium,"Miami Gardens, FL",Outdoor,Natural Grass,Mostly Cloudy,88.0,53,15,ENE
53660,2019092906,20190929063315,away,57.01,22.92,3.72,0.33,0.37,295.05,248.98,2506121,Philip Rivers,17,2019,48,4,10:28:00,LAC,1,10,MIA,10,27,2559169,SINGLEBACK,"1 RB, 1 TE, 3 WR",6,"3 DL, 3 LB, 5 DB",right,2019-09-29T19:34:34.000Z,2019-09-29T19:34:32.000Z,6-5,228,12/08/1981,North Carolina State,QB,MIA,LAC,4,Hard Rock Stadium,"Miami Gardens, FL",Outdoor,Natural Grass,Mostly Cloudy,88.0,53,15,ENE
53661,2019092906,20190929063315,away,62.98,31.61,2.99,0.69,0.3,125.64,131.77,2540154,Keenan Allen,13,2019,48,4,10:28:00,LAC,1,10,MIA,10,27,2559169,SINGLEBACK,"1 RB, 1 TE, 3 WR",6,"3 DL, 3 LB, 5 DB",right,2019-09-29T19:34:34.000Z,2019-09-29T19:34:32.000Z,6-2,211,04/27/1992,California,WR,MIA,LAC,4,Hard Rock Stadium,"Miami Gardens, FL",Outdoor,Natural Grass,Mostly Cloudy,88.0,53,15,ENE
53662,2019092906,20190929063315,away,60.59,21.96,0.94,1.1,0.09,124.02,324.59,2543732,Michael Schofield,75,2019,48,4,10:28:00,LAC,1,10,MIA,10,27,2559169,SINGLEBACK,"1 RB, 1 TE, 3 WR",6,"3 DL, 3 LB, 5 DB",right,2019-09-29T19:34:34.000Z,2019-09-29T19:34:32.000Z,6-6,301,11/15/1990,Michigan,G,MIA,LAC,4,Hard Rock Stadium,"Miami Gardens, FL",Outdoor,Natural Grass,Mostly Cloudy,88.0,53,15,ENE
53663,2019092906,20190929063315,away,63.12,12.77,4.71,1.15,0.47,63.9,142.71,2552654,Geremy Davis,11,2019,48,4,10:28:00,LAC,1,10,MIA,10,27,2559169,SINGLEBACK,"1 RB, 1 TE, 3 WR",6,"3 DL, 3 LB, 5 DB",right,2019-09-29T19:34:34.000Z,2019-09-29T19:34:32.000Z,6-3,211,01/10/1992,Connecticut,WR,MIA,LAC,4,Hard Rock Stadium,"Miami Gardens, FL",Outdoor,Natural Grass,Mostly Cloudy,88.0,53,15,ENE
53664,2019092906,20190929063315,away,61.57,26.07,0.74,1.58,0.07,129.29,340.23,2557890,Forrest Lamp,77,2019,48,4,10:28:00,LAC,1,10,MIA,10,27,2559169,SINGLEBACK,"1 RB, 1 TE, 3 WR",6,"3 DL, 3 LB, 5 DB",right,2019-09-29T19:34:34.000Z,2019-09-29T19:34:32.000Z,6-4,309,02/20/1994,Western Kentucky,OG,MIA,LAC,4,Hard Rock Stadium,"Miami Gardens, FL",Outdoor,Natural Grass,Mostly Cloudy,88.0,53,15,ENE
53665,2019092906,20190929063315,away,60.71,19.2,0.63,1.32,0.07,206.87,170.92,2558026,Sam Tevi,69,2019,48,4,10:28:00,LAC,1,10,MIA,10,27,2559169,SINGLEBACK,"1 RB, 1 TE, 3 WR",6,"3 DL, 3 LB, 5 DB",right,2019-09-29T19:34:34.000Z,2019-09-29T19:34:32.000Z,6-5,315,11/15/1994,Utah,T,MIA,LAC,4,Hard Rock Stadium,"Miami Gardens, FL",Outdoor,Natural Grass,Mostly Cloudy,88.0,53,15,ENE
53666,2019092906,20190929063315,away,56.11,23.73,3.35,4.4,0.32,107.33,53.88,2559169,Austin Ekeler,30,2019,48,4,10:28:00,LAC,1,10,MIA,10,27,2559169,SINGLEBACK,"1 RB, 1 TE, 3 WR",6,"3 DL, 3 LB, 5 DB",right,2019-09-29T19:34:34.000Z,2019-09-29T19:34:32.000Z,5-10,200,05/17/1995,"Western State, Colo.",RB,MIA,LAC,4,Hard Rock Stadium,"Miami Gardens, FL",Outdoor,Natural Grass,Mostly Cloudy,88.0,53,15,ENE
53667,2019092906,20190929063315,away,59.57,24.06,5.8,1.43,0.58,9.82,6.22,2559227,Andre Patton,16,2019,48,4,10:28:00,LAC,1,10,MIA,10,27,2559169,SINGLEBACK,"1 RB, 1 TE, 3 WR",6,"3 DL, 3 LB, 5 DB",right,2019-09-29T19:34:34.000Z,2019-09-29T19:34:32.000Z,6-2,200,05/28/1994,Rutgers,WR,MIA,LAC,4,Hard Rock Stadium,"Miami Gardens, FL",Outdoor,Natural Grass,Mostly Cloudy,88.0,53,15,ENE
53668,2019092906,20190929063315,away,62.85,26.99,1.19,1.32,0.12,165.64,76.41,2561544,Trent Scott,78,2019,48,4,10:28:00,LAC,1,10,MIA,10,27,2559169,SINGLEBACK,"1 RB, 1 TE, 3 WR",6,"3 DL, 3 LB, 5 DB",right,2019-09-29T19:34:34.000Z,2019-09-29T19:34:32.000Z,6-5,320,01/25/1994,Grambling,T,MIA,LAC,4,Hard Rock Stadium,"Miami Gardens, FL",Outdoor,Natural Grass,Mostly Cloudy,88.0,53,15,ENE
53669,2019092906,20190929063315,home,64.95,31.14,0.85,1.76,0.07,243.43,333.26,496739,Reshad Jones,20,2019,48,4,10:28:00,LAC,1,10,MIA,10,27,2559169,SINGLEBACK,"1 RB, 1 TE, 3 WR",6,"3 DL, 3 LB, 5 DB",right,2019-09-29T19:34:34.000Z,2019-09-29T19:34:32.000Z,6-1,215,02/25/1988,Georgia,SS,MIA,LAC,4,Hard Rock Stadium,"Miami Gardens, FL",Outdoor,Natural Grass,Mostly Cloudy,88.0,53,15,ENE
53670,2019092906,20190929063315,home,66.49,34.23,1.42,1.31,0.14,201.97,189.67,2552255,Eric Rowe,21,2019,48,4,10:28:00,LAC,1,10,MIA,10,27,2559169,SINGLEBACK,"1 RB, 1 TE, 3 WR",6,"3 DL, 3 LB, 5 DB",right,2019-09-29T19:34:34.000Z,2019-09-29T19:34:32.000Z,6-1,205,10/03/1992,Utah,CB,MIA,LAC,4,Hard Rock Stadium,"Miami Gardens, FL",Outdoor,Natural Grass,Mostly Cloudy,88.0,53,15,ENE
53671,2019092906,20190929063315,home,63.96,13.27,4.01,1.71,0.39,262.57,150.89,2555539,Xavien Howard,25,2019,48,4,10:28:00,LAC,1,10,MIA,10,27,2559169,SINGLEBACK,"1 RB, 1 TE, 3 WR",6,"3 DL, 3 LB, 5 DB",right,2019-09-29T19:34:34.000Z,2019-09-29T19:34:32.000Z,6-1,200,07/04/1993,Baylor,CB,MIA,LAC,4,Hard Rock Stadium,"Miami Gardens, FL",Outdoor,Natural Grass,Mostly Cloudy,88.0,53,15,ENE
53672,2019092906,20190929063315,home,60.89,18.46,0.25,2.73,0.02,296.96,342.94,2558001,Charles Harris,90,2019,48,4,10:28:00,LAC,1,10,MIA,10,27,2559169,SINGLEBACK,"1 RB, 1 TE, 3 WR",6,"3 DL, 3 LB, 5 DB",right,2019-09-29T19:34:34.000Z,2019-09-29T19:34:32.000Z,6-3,250,03/06/1995,Missouri,DE,MIA,LAC,4,Hard Rock Stadium,"Miami Gardens, FL",Outdoor,Natural Grass,Mostly Cloudy,88.0,53,15,ENE
53673,2019092906,20190929063315,home,61.58,24.17,1.52,2.0,0.16,295.92,333.82,2558012,Davon Godchaux,56,2019,48,4,10:28:00,LAC,1,10,MIA,10,27,2559169,SINGLEBACK,"1 RB, 1 TE, 3 WR",6,"3 DL, 3 LB, 5 DB",right,2019-09-29T19:34:34.000Z,2019-09-29T19:34:32.000Z,6-3,311,11/11/1994,Louisiana State,DT,MIA,LAC,4,Hard Rock Stadium,"Miami Gardens, FL",Outdoor,Natural Grass,Mostly Cloudy,88.0,53,15,ENE
53674,2019092906,20190929063315,home,61.93,25.59,0.88,2.0,0.09,259.73,247.63,2558031,Avery Moss,93,2019,48,4,10:28:00,LAC,1,10,MIA,10,27,2559169,SINGLEBACK,"1 RB, 1 TE, 3 WR",6,"3 DL, 3 LB, 5 DB",right,2019-09-29T19:34:34.000Z,2019-09-29T19:34:32.000Z,6-3,271,09/16/1994,Youngstown State,OLB,MIA,LAC,4,Hard Rock Stadium,"Miami Gardens, FL",Outdoor,Natural Grass,Mostly Cloudy,88.0,53,15,ENE
53675,2019092906,20190929063315,home,61.24,30.27,0.94,2.94,0.1,255.9,245.62,2558070,Raekwon McMillan,52,2019,48,4,10:28:00,LAC,1,10,MIA,10,27,2559169,SINGLEBACK,"1 RB, 1 TE, 3 WR",6,"3 DL, 3 LB, 5 DB",right,2019-09-29T19:34:34.000Z,2019-09-29T19:34:32.000Z,6-2,242,11/17/1995,Ohio State,LB,MIA,LAC,4,Hard Rock Stadium,"Miami Gardens, FL",Outdoor,Natural Grass,Mostly Cloudy,88.0,53,15,ENE
53676,2019092906,20190929063315,home,64.57,24.54,3.19,1.23,0.31,305.49,322.53,2560966,Jerome Baker,55,2019,48,4,10:28:00,LAC,1,10,MIA,10,27,2559169,SINGLEBACK,"1 RB, 1 TE, 3 WR",6,"3 DL, 3 LB, 5 DB",right,2019-09-29T19:34:34.000Z,2019-09-29T19:34:32.000Z,6-2,225,12/25/1996,Ohio State,LB,MIA,LAC,4,Hard Rock Stadium,"Miami Gardens, FL",Outdoor,Natural Grass,Mostly Cloudy,88.0,53,15,ENE
53677,2019092906,20190929063315,home,74.07,25.67,2.41,2.09,0.23,292.56,231.43,2561256,Steven Parker,26,2019,48,4,10:28:00,LAC,1,10,MIA,10,27,2559169,SINGLEBACK,"1 RB, 1 TE, 3 WR",6,"3 DL, 3 LB, 5 DB",right,2019-09-29T19:34:34.000Z,2019-09-29T19:34:32.000Z,6-1,210,12/14/1995,Oklahoma,DB,MIA,LAC,4,Hard Rock Stadium,"Miami Gardens, FL",Outdoor,Natural Grass,Mostly Cloudy,88.0,53,15,ENE
53678,2019092906,20190929063315,home,64.94,21.81,4.44,2.4,0.43,328.43,1.42,2562776,Ken Webster,31,2019,48,4,10:28:00,LAC,1,10,MIA,10,27,2559169,SINGLEBACK,"1 RB, 1 TE, 3 WR",6,"3 DL, 3 LB, 5 DB",right,2019-09-29T19:34:34.000Z,2019-09-29T19:34:32.000Z,5-11,202,06/19/1996,Mississippi,DB,MIA,LAC,4,Hard Rock Stadium,"Miami Gardens, FL",Outdoor,Natural Grass,Mostly Cloudy,88.0,53,15,ENE
53679,2019092906,20190929063315,home,61.01,21.25,0.73,2.0,0.08,128.01,284.18,2562782,Christian Wilkins,94,2019,48,4,10:28:00,LAC,1,10,MIA,10,27,2559169,SINGLEBACK,"1 RB, 1 TE, 3 WR",6,"3 DL, 3 LB, 5 DB",right,2019-09-29T19:34:34.000Z,2019-09-29T19:34:32.000Z,6-4,315,12/20/1995,Clemson,DT,MIA,LAC,4,Hard Rock Stadium,"Miami Gardens, FL",Outdoor,Natural Grass,Mostly Cloudy,88.0,53,15,ENE
