,GameId,PlayId,Team,X,Y,S,A,Dis,Orientation,Dir,NflId,DisplayName,JerseyNumber,Season,YardLine,Quarter,GameClock,PossessionTeam,Down,Distance,FieldPosition,HomeScoreBeforePlay,VisitorScoreBeforePlay,NflIdRusher,OffenseFormation,OffensePersonnel,DefendersInTheBox,DefensePersonnel,PlayDirection,TimeHandoff,TimeSnap,PlayerHeight,PlayerWeight,PlayerBirthDate,PlayerCollegeName,Position,HomeTeamAbbr,VisitorTeamAbbr,Week,Stadium,Location,StadiumType,Turf,GameWeather,Temperature,Humidity,WindSpeed,WindDirection
59664,2019093000,20190930000058,away,89.31,23.81,2.98,1.61,0.31,275.58,332.55,71465,Andre Smith,71,2019,21,1,14:55:00,CIN,1,10,CIN,0,0,2557976,SINGLEBACK,"1 RB, 1 TE, 3 WR",6,"2 DL, 4 LB, 5 DB",left,2019-10-01T00:16:21.000Z,2019-10-01T00:16:20.000Z,6-4,330,01/25/1987,Alabama,T,PIT,CIN,4,Heinz Field,Pittsburgh,Outdoor,Grass,Clear,76.0,72,1,From S
59665,2019093000,20190930000058,away,94.17,25.6,4.01,2.49,0.4,78.8,77.55,2495143,Andy Dalton,14,2019,21,1,14:55:00,CIN,1,10,CIN,0,0,2557976,SINGLEBACK,"1 RB, 1 TE, 3 WR",6,"2 DL, 4 LB, 5 DB",left,2019-10-01T00:16:21.000Z,2019-10-01T00:16:20.000Z,6-2,220,10/29/1987,Texas Christian,QB,PIT,CIN,4,Heinz Field,Pittsburgh,Outdoor,Grass,Clear,76.0,72,1,From S
59666,2019093000,20190930000058,away,89.52,26.67,2.32,0.74,0.23,322.67,338.89,2550208,Trey Hopkins,66,2019,21,1,14:55:00,CIN,1,10,CIN,0,0,2557976,SINGLEBACK,"1 RB, 1 TE, 3 WR",6,"2 DL, 4 LB, 5 DB",left,2019-10-01T00:16:21.000Z,2019-10-01T00:16:20.000Z,6-3,316,07/06/1992,Texas,G,PIT,CIN,4,Heinz Field,Pittsburgh,Outdoor,Grass,Clear,76.0,72,1,From S
59667,2019093000,20190930000058,away,89.76,28.23,2.16,1.3,0.21,271.39,330.03,2552335,Bobby Hart,68,2019,21,1,14:55:00,CIN,1,10,CIN,0,0,2557976,SINGLEBACK,"1 RB, 1 TE, 3 WR",6,"2 DL, 4 LB, 5 DB",left,2019-10-01T00:16:21.000Z,2019-10-01T00:16:20.000Z,6-5,310,08/21/1994,Florida State,OT,PIT,CIN,4,Heinz Field,Pittsburgh,Outdoor,Grass,Clear,76.0,72,1,From S
59668,2019093000,20190930000058,away,88.94,21.19,4.28,2.29,0.42,274.65,320.94,2552559,C.J. Uzomah,87,2019,21,1,14:55:00,CIN,1,10,CIN,0,0,2557976,SINGLEBACK,"1 RB, 1 TE, 3 WR",6,"2 DL, 4 LB, 5 DB",left,2019-10-01T00:16:21.000Z,2019-10-01T00:16:20.000Z,6-6,260,01/14/1993,Auburn,TE,PIT,CIN,4,Heinz Field,Pittsburgh,Outdoor,Grass,Clear,76.0,72,1,From S
59669,2019093000,20190930000058,away,89.56,27.34,2.55,0.71,0.25,301.93,329.66,2553436,John Miller,67,2019,21,1,14:55:00,CIN,1,10,CIN,0,0,2557976,SINGLEBACK,"1 RB, 1 TE, 3 WR",6,"2 DL, 4 LB, 5 DB",left,2019-10-01T00:16:21.000Z,2019-10-01T00:16:20.000Z,6-3,315,08/12/1993,Louisville,G,PIT,CIN,4,Heinz Field,Pittsburgh,Outdoor,Grass,Clear,76.0,72,1,From S
59670,2019093000,20190930000058,away,87.66,34.58,4.3,0.34,0.43,271.7,252.29,2555466,Tyler Boyd,83,2019,21,1,14:55:00,CIN,1,10,CIN,0,0,2557976,SINGLEBACK,"1 RB, 1 TE, 3 WR",6,"2 DL, 4 LB, 5 DB",left,2019-10-01T00:16:21.000Z,2019-10-01T00:16:20.000Z,6-2,203,11/15/1994,Pittsburgh,WR,PIT,CIN,4,Heinz Field,Pittsburgh,Outdoor,Grass,Clear,76.0,72,1,From S
59671,2019093000,20190930000058,away,94.3,26.6,5.69,2.37,0.56,316.27,319.68,2557976,Joe Mixon,28,2019,21,1,14:55:00,CIN,1,10,CIN,0,0,2557976,SINGLEBACK,"1 RB, 1 TE, 3 WR",6,"2 DL, 4 LB, 5 DB",left,2019-10-01T00:16:21.000Z,2019-10-01T00:16:20.000Z,6-1,220,07/24/1996,Oklahoma,HB,PIT,CIN,4,Heinz Field,Pittsburgh,Outdoor,Grass,Clear,76.0,72,1,From S
59672,2019093000,20190930000058,away,86.94,43.02,5.36,2.35,0.52,286.27,269.54,2558010,John Ross,11,2019,21,1,14:55:00,CIN,1,10,CIN,0,0,2557976,SINGLEBACK,"1 RB, 1 TE, 3 WR",6,"2 DL, 4 LB, 5 DB",left,2019-10-01T00:16:21.000Z,2019-10-01T00:16:20.000Z,5-11,194,11/27/1995,Washington,WR,PIT,CIN,4,Heinz Field,Pittsburgh,Outdoor,Grass,Clear,76.0,72,1,From S
59673,2019093000,20190930000058,away,87.01,8.76,5.05,1.5,0.5,279.45,285.49,2560890,Auden Tate,19,2019,21,1,14:55:00,CIN,1,10,CIN,0,0,2557976,SINGLEBACK,"1 RB, 1 TE, 3 WR",6,"2 DL, 4 LB, 5 DB",left,2019-10-01T00:16:21.000Z,2019-10-01T00:16:20.000Z,6-5,228,02/03/1997,Florida State,WR,PIT,CIN,4,Heinz Field,Pittsburgh,Outdoor,Grass,Clear,76.0,72,1,From S
59674,2019093000,20190930000058,away,88.98,24.43,3.41,1.96,0.33,281.25,346.11,2562679,Mike Jordan,60,2019,21,1,14:55:00,CIN,1,10,CIN,0,0,2557976,SINGLEBACK,"1 RB, 1 TE, 3 WR",6,"2 DL, 4 LB, 5 DB",left,2019-10-01T00:16:21.000Z,2019-10-01T00:16:20.000Z,6-6,315,01/25/1998,Ohio State,OG,PIT,CIN,4,Heinz Field,Pittsburgh,Outdoor,Grass,Clear,76.0,72,1,From S
59675,2019093000,20190930000058,home,82.15,43.49,3.31,0.4,0.33,186.82,279.23,496733,Joe Haden,23,2019,21,1,14:55:00,CIN,1,10,CIN,0,0,2557976,SINGLEBACK,"1 RB, 1 TE, 3 WR",6,"2 DL, 4 LB, 5 DB",left,2019-10-01T00:16:21.000Z,2019-10-01T00:16:20.000Z,5-11,195,04/14/1989,Florida,CB,PIT,CIN,4,Heinz Field,Pittsburgh,Outdoor,Grass,Clear,76.0,72,1,From S
59676,2019093000,20190930000058,home,88.36,23.96,2.65,0.17,0.26,82.15,346.53,2508109,Cameron Heyward,97,2019,21,1,14:55:00,CIN,1,10,CIN,0,0,2557976,SINGLEBACK,"1 RB, 1 TE, 3 WR",6,"2 DL, 4 LB, 5 DB",left,2019-10-01T00:16:21.000Z,2019-10-01T00:16:20.000Z,6-5,295,05/06/1989,Ohio State,DT,PIT,CIN,4,Heinz Field,Pittsburgh,Outdoor,Grass,Clear,76.0,72,1,From S
59677,2019093000,20190930000058,home,86.77,28.51,3.42,1.56,0.34,72.24,29.16,2532789,Mark Barron,26,2019,21,1,14:55:00,CIN,1,10,CIN,0,0,2557976,SINGLEBACK,"1 RB, 1 TE, 3 WR",6,"2 DL, 4 LB, 5 DB",left,2019-10-01T00:16:21.000Z,2019-10-01T00:16:20.000Z,6-2,230,10/27/1989,Alabama,ILB,PIT,CIN,4,Heinz Field,Pittsburgh,Outdoor,Grass,Clear,76.0,72,1,From S
59678,2019093000,20190930000058,home,89.08,27.03,2.12,1.17,0.21,90.0,337.91,2543483,Stephon Tuitt,91,2019,21,1,14:55:00,CIN,1,10,CIN,0,0,2557976,SINGLEBACK,"1 RB, 1 TE, 3 WR",6,"2 DL, 4 LB, 5 DB",left,2019-10-01T00:16:21.000Z,2019-10-01T00:16:20.000Z,6-6,303,05/23/1993,Notre Dame,DE,PIT,CIN,4,Heinz Field,Pittsburgh,Outdoor,Grass,Clear,76.0,72,1,From S
59679,2019093000,20190930000058,home,80.94,8.57,1.88,4.93,0.17,65.11,300.62,2552265,Steven Nelson,22,2019,21,1,14:55:00,CIN,1,10,CIN,0,0,2557976,SINGLEBACK,"1 RB, 1 TE, 3 WR",6,"2 DL, 4 LB, 5 DB",left,2019-10-01T00:16:21.000Z,2019-10-01T00:16:20.000Z,5-11,194,01/22/1993,Oregon State,CB,PIT,CIN,4,Heinz Field,Pittsburgh,Outdoor,Grass,Clear,76.0,72,1,From S
59680,2019093000,20190930000058,home,90.39,20.18,4.44,3.31,0.43,7.72,10.13,2552289,Bud Dupree,48,2019,21,1,14:55:00,CIN,1,10,CIN,0,0,2557976,SINGLEBACK,"1 RB, 1 TE, 3 WR",6,"2 DL, 4 LB, 5 DB",left,2019-10-01T00:16:21.000Z,2019-10-01T00:16:20.000Z,6-4,269,02/12/1993,Kentucky,OLB,PIT,CIN,4,Heinz Field,Pittsburgh,Outdoor,Grass,Clear,76.0,72,1,From S
59681,2019093000,20190930000058,home,86.67,21.5,4.07,2.3,0.4,71.41,2.25,2556559,Mike Hilton,28,2019,21,1,14:55:00,CIN,1,10,CIN,0,0,2557976,SINGLEBACK,"1 RB, 1 TE, 3 WR",6,"2 DL, 4 LB, 5 DB",left,2019-10-01T00:16:21.000Z,2019-10-01T00:16:20.000Z,5-9,184,03/09/1994,Mississippi,CB,PIT,CIN,4,Heinz Field,Pittsburgh,Outdoor,Grass,Clear,76.0,72,1,From S
59682,2019093000,20190930000058,home,89.11,27.72,2.15,4.85,0.18,91.37,332.45,2558064,T.J. Watt,90,2019,21,1,14:55:00,CIN,1,10,CIN,0,0,2557976,SINGLEBACK,"1 RB, 1 TE, 3 WR",6,"2 DL, 4 LB, 5 DB",left,2019-10-01T00:16:21.000Z,2019-10-01T00:16:20.000Z,6-4,252,10/11/1994,Wisconsin,OLB,PIT,CIN,4,Heinz Field,Pittsburgh,Outdoor,Grass,Clear,76.0,72,1,From S
59683,2019093000,20190930000058,home,84.93,34.23,1.09,1.56,0.11,96.16,261.59,2560712,Terrell Edmunds,34,2019,21,1,14:55:00,CIN,1,10,CIN,0,0,2557976,SINGLEBACK,"1 RB, 1 TE, 3 WR",6,"2 DL, 4 LB, 5 DB",left,2019-10-01T00:16:21.000Z,2019-10-01T00:16:20.000Z,6-1,217,01/20/1997,Virginia Tech,S,PIT,CIN,4,Heinz Field,Pittsburgh,Outdoor,Grass,Clear,76.0,72,1,From S
59684,2019093000,20190930000058,home,75.32,25.99,1.95,1.3,0.19,87.98,7.74,2560725,Minkah Fitzpatrick,39,2019,21,1,14:55:00,CIN,1,10,CIN,0,0,2557976,SINGLEBACK,"1 RB, 1 TE, 3 WR",6,"2 DL, 4 LB, 5 DB",left,2019-10-01T00:16:21.000Z,2019-10-01T00:16:20.000Z,6-1,207,11/17/1996,Alabama,S,PIT,CIN,4,Heinz Field,Pittsburgh,Outdoor,Grass,Clear,76.0,72,1,From S
59685,2019093000,20190930000058,home,86.96,25.68,4.43,1.95,0.44,46.87,16.4,2562243,Devin Bush,55,2019,21,1,14:55:00,CIN,1,10,CIN,0,0,2557976,SINGLEBACK,"1 RB, 1 TE, 3 WR",6,"2 DL, 4 LB, 5 DB",left,2019-10-01T00:16:21.000Z,2019-10-01T00:16:20.000Z,5-11,233,07/18/1998,Michigan,LB,PIT,CIN,4,Heinz Field,Pittsburgh,Outdoor,Grass,Clear,76.0,72,1,From S
