,GameId,PlayId,Team,X,Y,S,A,Dis,Orientation,Dir,NflId,DisplayName,JerseyNumber,Season,YardLine,Quarter,GameClock,PossessionTeam,Down,Distance,FieldPosition,HomeScoreBeforePlay,VisitorScoreBeforePlay,NflIdRusher,OffenseFormation,OffensePersonnel,DefendersInTheBox,DefensePersonnel,PlayDirection,TimeHandoff,TimeSnap,PlayerHeight,PlayerWeight,PlayerBirthDate,PlayerCollegeName,Position,HomeTeamAbbr,VisitorTeamAbbr,Week,Stadium,Location,StadiumType,Turf,GameWeather,Temperature,Humidity,WindSpeed,WindDirection
32098,2019092200,20190922004055,away,37.8,23.73,4.27,0.57,0.44,340.22,346.79,71465,Andre Smith,71,2019,27,4,06:25:00,CIN,1,10,BUF,14,14,2540156,SHOTGUN,"1 RB, 1 TE, 3 WR",6,"4 DL, 2 LB, 5 DB",left,2019-09-22T19:54:22.000Z,2019-09-22T19:54:21.000Z,6-4,330,01/25/1987,Alabama,T,BUF,CIN,3,New Era Field,Orchard Park NY,Outdoors,A-Turf Titan,Mostly sunny,83.0,53,13,WSW
32099,2019092200,20190922004055,away,41.57,23.74,0.97,2.6,0.12,253.08,167.31,2495143,Andy Dalton,14,2019,27,4,06:25:00,CIN,1,10,BUF,14,14,2540156,SHOTGUN,"1 RB, 1 TE, 3 WR",6,"4 DL, 2 LB, 5 DB",left,2019-09-22T19:54:22.000Z,2019-09-22T19:54:21.000Z,6-2,220,10/29/1987,Texas Christian,QB,BUF,CIN,3,New Era Field,Orchard Park NY,Outdoors,A-Turf Titan,Mostly sunny,83.0,53,13,WSW
32100,2019092200,20190922004055,away,42.24,24.94,5.6,3.28,0.55,331.07,2.75,2540156,Giovani Bernard,25,2019,27,4,06:25:00,CIN,1,10,BUF,14,14,2540156,SHOTGUN,"1 RB, 1 TE, 3 WR",6,"4 DL, 2 LB, 5 DB",left,2019-09-22T19:54:22.000Z,2019-09-22T19:54:21.000Z,5-9,205,11/22/1991,North Carolina,HB,BUF,CIN,3,New Era Field,Orchard Park NY,Outdoors,A-Turf Titan,Mostly sunny,83.0,53,13,WSW
32101,2019092200,20190922004055,away,39.44,27.43,4.33,1.44,0.45,312.83,14.36,2550208,Trey Hopkins,66,2019,27,4,06:25:00,CIN,1,10,BUF,14,14,2540156,SHOTGUN,"1 RB, 1 TE, 3 WR",6,"4 DL, 2 LB, 5 DB",left,2019-09-22T19:54:22.000Z,2019-09-22T19:54:21.000Z,6-3,316,07/06/1992,Texas,G,BUF,CIN,3,New Era Field,Orchard Park NY,Outdoors,A-Turf Titan,Mostly sunny,83.0,53,13,WSW
32102,2019092200,20190922004055,away,38.57,26.58,1.59,0.93,0.16,265.1,90.38,2552335,Bobby Hart,68,2019,27,4,06:25:00,CIN,1,10,BUF,14,14,2540156,SHOTGUN,"1 RB, 1 TE, 3 WR",6,"4 DL, 2 LB, 5 DB",left,2019-09-22T19:54:22.000Z,2019-09-22T19:54:21.000Z,6-5,310,08/21/1994,Florida State,OT,BUF,CIN,3,New Era Field,Orchard Park NY,Outdoors,A-Turf Titan,Mostly sunny,83.0,53,13,WSW
32103,2019092200,20190922004055,away,39.21,29.28,4.53,1.76,0.45,325.45,6.61,2553436,John Miller,67,2019,27,4,06:25:00,CIN,1,10,BUF,14,14,2540156,SHOTGUN,"1 RB, 1 TE, 3 WR",6,"4 DL, 2 LB, 5 DB",left,2019-09-22T19:54:22.000Z,2019-09-22T19:54:21.000Z,6-3,315,08/12/1993,Louisville,G,BUF,CIN,3,New Era Field,Orchard Park NY,Outdoors,A-Turf Titan,Mostly sunny,83.0,53,13,WSW
32104,2019092200,20190922004055,away,36.64,29.51,1.62,2.78,0.16,264.18,191.05,2556519,Alex Erickson,12,2019,27,4,06:25:00,CIN,1,10,BUF,14,14,2540156,SHOTGUN,"1 RB, 1 TE, 3 WR",6,"4 DL, 2 LB, 5 DB",left,2019-09-22T19:54:22.000Z,2019-09-22T19:54:21.000Z,6-0,195,11/06/1992,Wisconsin,WR,BUF,CIN,3,New Era Field,Orchard Park NY,Outdoors,A-Turf Titan,Mostly sunny,83.0,53,13,WSW
32105,2019092200,20190922004055,away,35.86,11.08,3.66,1.57,0.36,281.49,291.01,2558010,John Ross,11,2019,27,4,06:25:00,CIN,1,10,BUF,14,14,2540156,SHOTGUN,"1 RB, 1 TE, 3 WR",6,"4 DL, 2 LB, 5 DB",left,2019-09-22T19:54:22.000Z,2019-09-22T19:54:21.000Z,5-11,194,11/27/1995,Washington,WR,BUF,CIN,3,New Era Field,Orchard Park NY,Outdoors,A-Turf Titan,Mostly sunny,83.0,53,13,WSW
32106,2019092200,20190922004055,away,37.31,25.8,3.88,0.75,0.39,287.5,351.22,2560843,Billy Price,53,2019,27,4,06:25:00,CIN,1,10,BUF,14,14,2540156,SHOTGUN,"1 RB, 1 TE, 3 WR",6,"4 DL, 2 LB, 5 DB",left,2019-09-22T19:54:22.000Z,2019-09-22T19:54:21.000Z,6-4,312,10/11/1994,Ohio State,C,BUF,CIN,3,New Era Field,Orchard Park NY,Outdoors,A-Turf Titan,Mostly sunny,83.0,53,13,WSW
32107,2019092200,20190922004055,away,37.05,32.55,3.26,0.97,0.3,230.14,274.86,2560890,Auden Tate,19,2019,27,4,06:25:00,CIN,1,10,BUF,14,14,2540156,SHOTGUN,"1 RB, 1 TE, 3 WR",6,"4 DL, 2 LB, 5 DB",left,2019-09-22T19:54:22.000Z,2019-09-22T19:54:21.000Z,6-5,228,02/03/1997,Florida State,WR,BUF,CIN,3,New Era Field,Orchard Park NY,Outdoors,A-Turf Titan,Mostly sunny,83.0,53,13,WSW
32108,2019092200,20190922004055,away,39.05,27.91,1.54,1.58,0.15,173.33,132.2,2562720,Drew Sample,89,2019,27,4,06:25:00,CIN,1,10,BUF,14,14,2540156,SHOTGUN,"1 RB, 1 TE, 3 WR",6,"4 DL, 2 LB, 5 DB",left,2019-09-22T19:54:22.000Z,2019-09-22T19:54:21.000Z,6-5,259,04/16/1996,Washington,TE,BUF,CIN,3,New Era Field,Orchard Park NY,Outdoors,A-Turf Titan,Mostly sunny,83.0,53,13,WSW
32109,2019092200,20190922004055,home,30.37,18.8,2.69,3.05,0.25,95.75,49.77,2539240,Micah Hyde,23,2019,27,4,06:25:00,CIN,1,10,BUF,14,14,2540156,SHOTGUN,"1 RB, 1 TE, 3 WR",6,"4 DL, 2 LB, 5 DB",left,2019-09-22T19:54:22.000Z,2019-09-22T19:54:21.000Z,6-0,197,12/31/1990,Iowa,SS,BUF,CIN,3,New Era Field,Orchard Park NY,Outdoors,A-Turf Titan,Mostly sunny,83.0,53,13,WSW
32110,2019092200,20190922004055,home,21.54,29.6,1.92,2.23,0.18,86.81,345.96,2539290,Jordan Poyer,21,2019,27,4,06:25:00,CIN,1,10,BUF,14,14,2540156,SHOTGUN,"1 RB, 1 TE, 3 WR",6,"4 DL, 2 LB, 5 DB",left,2019-09-22T19:54:22.000Z,2019-09-22T19:54:21.000Z,6-0,191,04/25/1991,Oregon State,FS,BUF,CIN,3,New Era Field,Orchard Park NY,Outdoors,A-Turf Titan,Mostly sunny,83.0,53,13,WSW
32111,2019092200,20190922004055,home,37.43,21.23,2.65,0.65,0.28,64.23,21.62,2555252,Shaq Lawson,90,2019,27,4,06:25:00,CIN,1,10,BUF,14,14,2540156,SHOTGUN,"1 RB, 1 TE, 3 WR",6,"4 DL, 2 LB, 5 DB",left,2019-09-22T19:54:22.000Z,2019-09-22T19:54:21.000Z,6-3,267,06/17/1994,Clemson,DE,BUF,CIN,3,New Era Field,Orchard Park NY,Outdoors,A-Turf Titan,Mostly sunny,83.0,53,13,WSW
32112,2019092200,20190922004055,home,31.22,34.94,1.69,3.16,0.16,95.26,13.68,2557867,Tre'Davious White,27,2019,27,4,06:25:00,CIN,1,10,BUF,14,14,2540156,SHOTGUN,"1 RB, 1 TE, 3 WR",6,"4 DL, 2 LB, 5 DB",left,2019-09-22T19:54:22.000Z,2019-09-22T19:54:21.000Z,5-11,192,01/16/1995,Louisiana State,CB,BUF,CIN,3,New Era Field,Orchard Park NY,Outdoors,A-Turf Titan,Mostly sunny,83.0,53,13,WSW
32113,2019092200,20190922004055,home,34.49,25.51,4.32,2.18,0.42,61.95,21.02,2557969,Matt Milano,58,2019,27,4,06:25:00,CIN,1,10,BUF,14,14,2540156,SHOTGUN,"1 RB, 1 TE, 3 WR",6,"4 DL, 2 LB, 5 DB",left,2019-09-22T19:54:22.000Z,2019-09-22T19:54:21.000Z,6-0,223,07/28/1994,Boston College,OLB,BUF,CIN,3,New Era Field,Orchard Park NY,Outdoors,A-Turf Titan,Mostly sunny,83.0,53,13,WSW
32114,2019092200,20190922004055,home,34.24,28.62,4.29,2.55,0.42,57.06,14.89,2560713,Tremaine Edmunds,49,2019,27,4,06:25:00,CIN,1,10,BUF,14,14,2540156,SHOTGUN,"1 RB, 1 TE, 3 WR",6,"4 DL, 2 LB, 5 DB",left,2019-09-22T19:54:22.000Z,2019-09-22T19:54:21.000Z,6-5,250,05/02/1998,Virginia Tech,LB,BUF,CIN,3,New Era Field,Orchard Park NY,Outdoors,A-Turf Titan,Mostly sunny,83.0,53,13,WSW
32115,2019092200,20190922004055,home,35.65,29.48,2.04,0.46,0.2,78.15,148.74,2560818,Siran Neal,33,2019,27,4,06:25:00,CIN,1,10,BUF,14,14,2540156,SHOTGUN,"1 RB, 1 TE, 3 WR",6,"4 DL, 2 LB, 5 DB",left,2019-09-22T19:54:22.000Z,2019-09-22T19:54:21.000Z,6-0,205,08/04/1994,Jacksonville State,DB,BUF,CIN,3,New Era Field,Orchard Park NY,Outdoors,A-Turf Titan,Mostly sunny,83.0,53,13,WSW
32116,2019092200,20190922004055,home,36.8,25.62,3.51,1.04,0.36,65.26,356.14,2560840,Harrison Phillips,99,2019,27,4,06:25:00,CIN,1,10,BUF,14,14,2540156,SHOTGUN,"1 RB, 1 TE, 3 WR",6,"4 DL, 2 LB, 5 DB",left,2019-09-22T19:54:22.000Z,2019-09-22T19:54:21.000Z,6-3,307,01/25/1996,Stanford,DT,BUF,CIN,3,New Era Field,Orchard Park NY,Outdoors,A-Turf Titan,Mostly sunny,83.0,53,13,WSW
32117,2019092200,20190922004055,home,27.94,9.95,1.67,2.06,0.17,99.41,313.9,2560914,Levi Wallace,39,2019,27,4,06:25:00,CIN,1,10,BUF,14,14,2540156,SHOTGUN,"1 RB, 1 TE, 3 WR",6,"4 DL, 2 LB, 5 DB",left,2019-09-22T19:54:22.000Z,2019-09-22T19:54:21.000Z,6-0,179,06/12/1995,Alabama,CB,BUF,CIN,3,New Era Field,Orchard Park NY,Outdoors,A-Turf Titan,Mostly sunny,83.0,53,13,WSW
32118,2019092200,20190922004055,home,38.03,26.47,1.64,0.75,0.17,93.98,85.73,2562322,Ed Oliver,91,2019,27,4,06:25:00,CIN,1,10,BUF,14,14,2540156,SHOTGUN,"1 RB, 1 TE, 3 WR",6,"4 DL, 2 LB, 5 DB",left,2019-09-22T19:54:22.000Z,2019-09-22T19:54:21.000Z,6-1,287,12/12/1997,Houston,DT,BUF,CIN,3,New Era Field,Orchard Park NY,Outdoors,A-Turf Titan,Mostly sunny,83.0,53,13,WSW
32119,2019092200,20190922004055,home,38.75,27.12,2.86,1.22,0.29,110.53,113.05,2562672,Darryl Johnson,92,2019,27,4,06:25:00,CIN,1,10,BUF,14,14,2540156,SHOTGUN,"1 RB, 1 TE, 3 WR",6,"4 DL, 2 LB, 5 DB",left,2019-09-22T19:54:22.000Z,2019-09-22T19:54:21.000Z,6-6,253,04/04/1997,North Carolina A&T,DE,BUF,CIN,3,New Era Field,Orchard Park NY,Outdoors,A-Turf Titan,Mostly sunny,83.0,53,13,WSW
