,GameId,PlayId,Team,X,Y,S,A,Dis,Orientation,Dir,NflId,DisplayName,JerseyNumber,Season,YardLine,Quarter,GameClock,PossessionTeam,Down,Distance,FieldPosition,HomeScoreBeforePlay,VisitorScoreBeforePlay,NflIdRusher,OffenseFormation,OffensePersonnel,DefendersInTheBox,DefensePersonnel,PlayDirection,TimeHandoff,TimeSnap,PlayerHeight,PlayerWeight,PlayerBirthDate,PlayerCollegeName,Position,HomeTeamAbbr,VisitorTeamAbbr,Week,Stadium,Location,StadiumType,Turf,GameWeather,Temperature,Humidity,WindSpeed,WindDirection
26510,2019091510,20190915104012,away,16.73,24.55,3.72,3.15,0.36,112.46,130.47,79607,LeSean McCoy,25,2019,11,4,06:25:00,KC,1,10,KC,10,28,79607,SHOTGUN,"1 RB, 2 TE, 2 WR",6,"4 DL, 2 LB, 5 DB",right,2019-09-15T23:05:30.000Z,2019-09-15T23:05:28.000Z,5-11,210,07/12/1988,Pittsburgh,RB,OAK,KC,2,Oakland-Alameda County Coliseum,"Oakland, CA",Outdoor,Natural Grass,Sunny,70.0,61,13,WSW
26511,2019091510,20190915104012,away,20.22,20.11,1.11,0.28,0.11,87.11,145.16,2532945,Mitchell Schwartz,71,2019,11,4,06:25:00,KC,1,10,KC,10,28,79607,SHOTGUN,"1 RB, 2 TE, 2 WR",6,"4 DL, 2 LB, 5 DB",right,2019-09-15T23:05:30.000Z,2019-09-15T23:05:28.000Z,6-5,320,06/08/1989,California,T,OAK,KC,2,Oakland-Alameda County Coliseum,"Oakland, CA",Outdoor,Natural Grass,Sunny,70.0,61,13,WSW
26512,2019091510,20190915104012,away,19.8,26.41,1.84,0.5,0.19,79.62,173.47,2540258,Travis Kelce,87,2019,11,4,06:25:00,KC,1,10,KC,10,28,79607,SHOTGUN,"1 RB, 2 TE, 2 WR",6,"4 DL, 2 LB, 5 DB",right,2019-09-15T23:05:30.000Z,2019-09-15T23:05:28.000Z,6-5,260,10/05/1989,Cincinnati,TE,OAK,KC,2,Oakland-Alameda County Coliseum,"Oakland, CA",Outdoor,Natural Grass,Sunny,70.0,61,13,WSW
26513,2019091510,20190915104012,away,21.82,41.46,4.82,3.22,0.47,75.63,52.85,2543457,Sammy Watkins,14,2019,11,4,06:25:00,KC,1,10,KC,10,28,79607,SHOTGUN,"1 RB, 2 TE, 2 WR",6,"4 DL, 2 LB, 5 DB",right,2019-09-15T23:05:30.000Z,2019-09-15T23:05:28.000Z,6-1,211,06/14/1993,Clemson,WR,OAK,KC,2,Oakland-Alameda County Coliseum,"Oakland, CA",Outdoor,Natural Grass,Sunny,70.0,61,13,WSW
26514,2019091510,20190915104012,away,19.98,21.07,1.19,1.08,0.12,108.03,155.8,2543816,Laurent Duvernay-Tardif,76,2019,11,4,06:25:00,KC,1,10,KC,10,28,79607,SHOTGUN,"1 RB, 2 TE, 2 WR",6,"4 DL, 2 LB, 5 DB",right,2019-09-15T23:05:30.000Z,2019-09-15T23:05:28.000Z,6-5,321,02/11/1991,McGill,G,OAK,KC,2,Oakland-Alameda County Coliseum,"Oakland, CA",Outdoor,Natural Grass,Sunny,70.0,61,13,WSW
26515,2019091510,20190915104012,away,21.42,25.54,2.86,0.7,0.29,87.9,132.71,2552240,Cameron Erving,75,2019,11,4,06:25:00,KC,1,10,KC,10,28,79607,SHOTGUN,"1 RB, 2 TE, 2 WR",6,"4 DL, 2 LB, 5 DB",right,2019-09-15T23:05:30.000Z,2019-09-15T23:05:28.000Z,6-5,313,08/23/1992,Florida State,G,OAK,KC,2,Oakland-Alameda County Coliseum,"Oakland, CA",Outdoor,Natural Grass,Sunny,70.0,61,13,WSW
26516,2019091510,20190915104012,away,19.07,18.14,1.14,2.35,0.11,124.43,276.26,2552478,Blake Bell,81,2019,11,4,06:25:00,KC,1,10,KC,10,28,79607,SHOTGUN,"1 RB, 2 TE, 2 WR",6,"4 DL, 2 LB, 5 DB",right,2019-09-15T23:05:30.000Z,2019-09-15T23:05:28.000Z,6-6,252,08/07/1991,Oklahoma,TE,OAK,KC,2,Oakland-Alameda County Coliseum,"Oakland, CA",Outdoor,Natural Grass,Sunny,70.0,61,13,WSW
26517,2019091510,20190915104012,away,21.3,22.81,1.95,1.15,0.21,99.12,148.74,2553452,Austin Reiter,62,2019,11,4,06:25:00,KC,1,10,KC,10,28,79607,SHOTGUN,"1 RB, 2 TE, 2 WR",6,"4 DL, 2 LB, 5 DB",right,2019-09-15T23:05:30.000Z,2019-09-15T23:05:28.000Z,6-3,300,11/27/1991,South Florida,C,OAK,KC,2,Oakland-Alameda County Coliseum,"Oakland, CA",Outdoor,Natural Grass,Sunny,70.0,61,13,WSW
26518,2019091510,20190915104012,away,22.8,35.34,4.47,2.28,0.44,66.38,63.62,2555478,Demarcus Robinson,11,2019,11,4,06:25:00,KC,1,10,KC,10,28,79607,SHOTGUN,"1 RB, 2 TE, 2 WR",6,"4 DL, 2 LB, 5 DB",right,2019-09-15T23:05:30.000Z,2019-09-15T23:05:28.000Z,6-1,203,09/21/1994,Florida,WR,OAK,KC,2,Oakland-Alameda County Coliseum,"Oakland, CA",Outdoor,Natural Grass,Sunny,70.0,61,13,WSW
26519,2019091510,20190915104012,away,16.27,24.34,1.01,1.46,0.09,47.57,330.65,2558125,Patrick Mahomes,15,2019,11,4,06:25:00,KC,1,10,KC,10,28,79607,SHOTGUN,"1 RB, 2 TE, 2 WR",6,"4 DL, 2 LB, 5 DB",right,2019-09-15T23:05:30.000Z,2019-09-15T23:05:28.000Z,6-3,230,09/17/1995,Texas Tech,QB,OAK,KC,2,Oakland-Alameda County Coliseum,"Oakland, CA",Outdoor,Natural Grass,Sunny,70.0,61,13,WSW
26520,2019091510,20190915104012,away,21.2,23.33,2.03,0.97,0.21,117.34,142.3,2559354,Andrew Wylie,77,2019,11,4,06:25:00,KC,1,10,KC,10,28,79607,SHOTGUN,"1 RB, 2 TE, 2 WR",6,"4 DL, 2 LB, 5 DB",right,2019-09-15T23:05:30.000Z,2019-09-15T23:05:28.000Z,6-6,309,08/19/1994,Eastern Michigan,OT,OAK,KC,2,Oakland-Alameda County Coliseum,"Oakland, CA",Outdoor,Natural Grass,Sunny,70.0,61,13,WSW
26521,2019091510,20190915104012,home,23.63,21.83,2.89,0.86,0.28,273.22,220.53,2532986,Tahir Whitehead,59,2019,11,4,06:25:00,KC,1,10,KC,10,28,79607,SHOTGUN,"1 RB, 2 TE, 2 WR",6,"4 DL, 2 LB, 5 DB",right,2019-09-15T23:05:30.000Z,2019-09-15T23:05:28.000Z,6-1,241,04/02/1990,Temple,OLB,OAK,KC,2,Oakland-Alameda County Coliseum,"Oakland, CA",Outdoor,Natural Grass,Sunny,70.0,61,13,WSW
26522,2019091510,20190915104012,home,25.32,26.32,1.88,1.31,0.18,257.43,212.39,2533058,Vontaze Burfict,55,2019,11,4,06:25:00,KC,1,10,KC,10,28,79607,SHOTGUN,"1 RB, 2 TE, 2 WR",6,"4 DL, 2 LB, 5 DB",right,2019-09-15T23:05:30.000Z,2019-09-15T23:05:28.000Z,6-1,255,09/24/1990,Arizona State,OLB,OAK,KC,2,Oakland-Alameda County Coliseum,"Oakland, CA",Outdoor,Natural Grass,Sunny,70.0,61,13,WSW
26523,2019091510,20190915104012,home,21.79,23.24,1.67,0.7,0.17,252.47,158.91,2540147,Johnathan Hankins,90,2019,11,4,06:25:00,KC,1,10,KC,10,28,79607,SHOTGUN,"1 RB, 2 TE, 2 WR",6,"4 DL, 2 LB, 5 DB",right,2019-09-15T23:05:30.000Z,2019-09-15T23:05:28.000Z,6-3,340,03/30/1992,Ohio State,DT,OAK,KC,2,Oakland-Alameda County Coliseum,"Oakland, CA",Outdoor,Natural Grass,Sunny,70.0,61,13,WSW
26524,2019091510,20190915104012,home,24.46,33.89,1.21,1.27,0.11,265.45,44.08,2543492,Lamarcus Joyner,29,2019,11,4,06:25:00,KC,1,10,KC,10,28,79607,SHOTGUN,"1 RB, 2 TE, 2 WR",6,"4 DL, 2 LB, 5 DB",right,2019-09-15T23:05:30.000Z,2019-09-15T23:05:28.000Z,5-8,185,11/27/1990,Florida State,FS,OAK,KC,2,Oakland-Alameda County Coliseum,"Oakland, CA",Outdoor,Natural Grass,Sunny,70.0,61,13,WSW
26525,2019091510,20190915104012,home,19.6,17.48,1.23,2.7,0.12,294.83,298.29,2550437,Josh Mauro,97,2019,11,4,06:25:00,KC,1,10,KC,10,28,79607,SHOTGUN,"1 RB, 2 TE, 2 WR",6,"4 DL, 2 LB, 5 DB",right,2019-09-15T23:05:30.000Z,2019-09-15T23:05:28.000Z,6-6,290,02/17/1991,Stanford,DE,OAK,KC,2,Oakland-Alameda County Coliseum,"Oakland, CA",Outdoor,Natural Grass,Sunny,70.0,61,13,WSW
26526,2019091510,20190915104012,home,29.92,19.08,1.15,2.58,0.11,279.02,252.11,2555342,Karl Joseph,42,2019,11,4,06:25:00,KC,1,10,KC,10,28,79607,SHOTGUN,"1 RB, 2 TE, 2 WR",6,"4 DL, 2 LB, 5 DB",right,2019-09-15T23:05:30.000Z,2019-09-15T23:05:28.000Z,5-10,200,09/08/1993,West Virginia,SS,OAK,KC,2,Oakland-Alameda County Coliseum,"Oakland, CA",Outdoor,Natural Grass,Sunny,70.0,61,13,WSW
26527,2019091510,20190915104012,home,23.49,15.89,0.94,0.69,0.1,286.94,242.63,2555394,Daryl Worley,20,2019,11,4,06:25:00,KC,1,10,KC,10,28,79607,SHOTGUN,"1 RB, 2 TE, 2 WR",6,"4 DL, 2 LB, 5 DB",right,2019-09-15T23:05:30.000Z,2019-09-15T23:05:28.000Z,6-1,215,02/22/1995,West Virginia,CB,OAK,KC,2,Oakland-Alameda County Coliseum,"Oakland, CA",Outdoor,Natural Grass,Sunny,70.0,61,13,WSW
26528,2019091510,20190915104012,home,33.98,34.2,1.73,1.22,0.16,260.29,47.97,2555568,Erik Harris,25,2019,11,4,06:25:00,KC,1,10,KC,10,28,79607,SHOTGUN,"1 RB, 2 TE, 2 WR",6,"4 DL, 2 LB, 5 DB",right,2019-09-15T23:05:30.000Z,2019-09-15T23:05:28.000Z,6-2,220,04/02/1990,"California, Pa.",SS,OAK,KC,2,Oakland-Alameda County Coliseum,"Oakland, CA",Outdoor,Natural Grass,Sunny,70.0,61,13,WSW
26529,2019091510,20190915104012,home,23.09,41.04,3.67,3.17,0.35,306.06,58.34,2558062,Gareon Conley,21,2019,11,4,06:25:00,KC,1,10,KC,10,28,79607,SHOTGUN,"1 RB, 2 TE, 2 WR",6,"4 DL, 2 LB, 5 DB",right,2019-09-15T23:05:30.000Z,2019-09-15T23:05:28.000Z,6-0,190,06/29/1995,Ohio State,CB,OAK,KC,2,Oakland-Alameda County Coliseum,"Oakland, CA",Outdoor,Natural Grass,Sunny,70.0,61,13,WSW
26530,2019091510,20190915104012,home,20.69,20.66,1.12,1.4,0.11,290.67,166.84,2560748,Maurice Hurst,73,2019,11,4,06:25:00,KC,1,10,KC,10,28,79607,SHOTGUN,"1 RB, 2 TE, 2 WR",6,"4 DL, 2 LB, 5 DB",right,2019-09-15T23:05:30.000Z,2019-09-15T23:05:28.000Z,6-1,291,05/09/1995,Michigan,DT,OAK,KC,2,Oakland-Alameda County Coliseum,"Oakland, CA",Outdoor,Natural Grass,Sunny,70.0,61,13,WSW
26531,2019091510,20190915104012,home,20.4,26.98,2.22,1.52,0.23,251.5,198.28,2562263,Clelin Ferrell,96,2019,11,4,06:25:00,KC,1,10,KC,10,28,79607,SHOTGUN,"1 RB, 2 TE, 2 WR",6,"4 DL, 2 LB, 5 DB",right,2019-09-15T23:05:30.000Z,2019-09-15T23:05:28.000Z,6-4,265,05/17/1997,Clemson,DL,OAK,KC,2,Oakland-Alameda County Coliseum,"Oakland, CA",Outdoor,Natural Grass,Sunny,70.0,61,13,WSW
