,GameId,PlayId,Team,X,Y,S,A,Dis,Orientation,Dir,NflId,DisplayName,JerseyNumber,Season,YardLine,Quarter,GameClock,PossessionTeam,Down,Distance,FieldPosition,HomeScoreBeforePlay,VisitorScoreBeforePlay,NflIdRusher,OffenseFormation,OffensePersonnel,DefendersInTheBox,DefensePersonnel,PlayDirection,TimeHandoff,TimeSnap,PlayerHeight,PlayerWeight,PlayerBirthDate,PlayerCollegeName,Position,HomeTeamAbbr,VisitorTeamAbbr,Week,Stadium,Location,StadiumType,Turf,GameWeather,Temperature,Humidity,WindSpeed,WindDirection
53592,2019092906,20190929063020,away,77.04,25.06,1.84,2.46,0.17,233.39,299.16,2495187,Lance Kendricks,87,2019,31,4,14:21:00,LAC,1,10,MIA,10,20,2559169,SHOTGUN,"2 RB, 2 TE, 1 WR",8,"3 DL, 4 LB, 4 DB",right,2019-09-29T19:17:55.000Z,2019-09-29T19:17:54.000Z,6-3,250,01/30/1988,Wisconsin,TE,MIA,LAC,4,Hard Rock Stadium,"Miami Gardens, FL",Outdoor,Natural Grass,Mostly Cloudy,88.0,53,15,ENE
53593,2019092906,20190929063020,away,78.21,32.45,2.54,2.19,0.25,333.22,17.97,2495216,Mike Pouncey,53,2019,31,4,14:21:00,LAC,1,10,MIA,10,20,2559169,SHOTGUN,"2 RB, 2 TE, 1 WR",8,"3 DL, 4 LB, 4 DB",right,2019-09-29T19:17:55.000Z,2019-09-29T19:17:54.000Z,6-5,298,07/24/1989,Florida,C,MIA,LAC,4,Hard Rock Stadium,"Miami Gardens, FL",Outdoor,Natural Grass,Mostly Cloudy,88.0,53,15,ENE
53594,2019092906,20190929063020,away,73.74,29.83,0.93,0.16,0.09,338.16,324.86,2506121,Philip Rivers,17,2019,31,4,14:21:00,LAC,1,10,MIA,10,20,2559169,SHOTGUN,"2 RB, 2 TE, 1 WR",8,"3 DL, 4 LB, 4 DB",right,2019-09-29T19:17:55.000Z,2019-09-29T19:17:54.000Z,6-5,228,12/08/1981,North Carolina State,QB,MIA,LAC,4,Hard Rock Stadium,"Miami Gardens, FL",Outdoor,Natural Grass,Mostly Cloudy,88.0,53,15,ENE
53595,2019092906,20190929063020,away,80.35,44.36,4.81,2.19,0.47,124.48,59.44,2530700,Dontrelle Inman,15,2019,31,4,14:21:00,LAC,1,10,MIA,10,20,2559169,SHOTGUN,"2 RB, 2 TE, 1 WR",8,"3 DL, 4 LB, 4 DB",right,2019-09-29T19:17:55.000Z,2019-09-29T19:17:54.000Z,6-3,205,01/31/1989,Virginia,WR,MIA,LAC,4,Hard Rock Stadium,"Miami Gardens, FL",Outdoor,Natural Grass,Mostly Cloudy,88.0,53,15,ENE
53596,2019092906,20190929063020,away,80.17,30.24,3.62,0.37,0.37,102.21,43.51,2543732,Michael Schofield,75,2019,31,4,14:21:00,LAC,1,10,MIA,10,20,2559169,SHOTGUN,"2 RB, 2 TE, 1 WR",8,"3 DL, 4 LB, 4 DB",right,2019-09-29T19:17:55.000Z,2019-09-29T19:17:54.000Z,6-6,301,11/15/1990,Michigan,G,MIA,LAC,4,Hard Rock Stadium,"Miami Gardens, FL",Outdoor,Natural Grass,Mostly Cloudy,88.0,53,15,ENE
53597,2019092906,20190929063020,away,76.27,29.79,5.5,1.77,0.54,41.13,30.87,2555220,Derek Watt,34,2019,31,4,14:21:00,LAC,1,10,MIA,10,20,2559169,SHOTGUN,"2 RB, 2 TE, 1 WR",8,"3 DL, 4 LB, 4 DB",right,2019-09-29T19:17:55.000Z,2019-09-29T19:17:54.000Z,6-2,234,11/07/1992,Wisconsin,FB,MIA,LAC,4,Hard Rock Stadium,"Miami Gardens, FL",Outdoor,Natural Grass,Mostly Cloudy,88.0,53,15,ENE
53598,2019092906,20190929063020,away,79.06,31.32,1.28,1.36,0.14,180.84,2.64,2557873,Dan Feeney,66,2019,31,4,14:21:00,LAC,1,10,MIA,10,20,2559169,SHOTGUN,"2 RB, 2 TE, 1 WR",8,"3 DL, 4 LB, 4 DB",right,2019-09-29T19:17:55.000Z,2019-09-29T19:17:54.000Z,6-4,310,05/29/1994,Indiana,G,MIA,LAC,4,Hard Rock Stadium,"Miami Gardens, FL",Outdoor,Natural Grass,Mostly Cloudy,88.0,53,15,ENE
53599,2019092906,20190929063020,away,78.1,29.31,2.38,1.16,0.25,55.79,15.23,2558026,Sam Tevi,69,2019,31,4,14:21:00,LAC,1,10,MIA,10,20,2559169,SHOTGUN,"2 RB, 2 TE, 1 WR",8,"3 DL, 4 LB, 4 DB",right,2019-09-29T19:17:55.000Z,2019-09-29T19:17:54.000Z,6-5,315,11/15/1994,Utah,T,MIA,LAC,4,Hard Rock Stadium,"Miami Gardens, FL",Outdoor,Natural Grass,Mostly Cloudy,88.0,53,15,ENE
53600,2019092906,20190929063020,away,79.72,36.93,3.73,1.26,0.37,92.04,73.19,2559161,Sean Culkin,80,2019,31,4,14:21:00,LAC,1,10,MIA,10,20,2559169,SHOTGUN,"2 RB, 2 TE, 1 WR",8,"3 DL, 4 LB, 4 DB",right,2019-09-29T19:17:55.000Z,2019-09-29T19:17:54.000Z,6-5,255,06/11/1993,Missouri,TE,MIA,LAC,4,Hard Rock Stadium,"Miami Gardens, FL",Outdoor,Natural Grass,Mostly Cloudy,88.0,53,15,ENE
53601,2019092906,20190929063020,away,73.89,31.0,0.92,3.82,0.08,73.14,70.94,2559169,Austin Ekeler,30,2019,31,4,14:21:00,LAC,1,10,MIA,10,20,2559169,SHOTGUN,"2 RB, 2 TE, 1 WR",8,"3 DL, 4 LB, 4 DB",right,2019-09-29T19:17:55.000Z,2019-09-29T19:17:54.000Z,5-10,200,05/17/1995,"Western State, Colo.",RB,MIA,LAC,4,Hard Rock Stadium,"Miami Gardens, FL",Outdoor,Natural Grass,Mostly Cloudy,88.0,53,15,ENE
53602,2019092906,20190929063020,away,79.2,31.9,0.8,2.0,0.08,103.2,51.64,2561544,Trent Scott,78,2019,31,4,14:21:00,LAC,1,10,MIA,10,20,2559169,SHOTGUN,"2 RB, 2 TE, 1 WR",8,"3 DL, 4 LB, 4 DB",right,2019-09-29T19:17:55.000Z,2019-09-29T19:17:54.000Z,6-5,320,01/25/1994,Grambling,T,MIA,LAC,4,Hard Rock Stadium,"Miami Gardens, FL",Outdoor,Natural Grass,Mostly Cloudy,88.0,53,15,ENE
53603,2019092906,20190929063020,home,79.55,25.37,4.46,3.68,0.43,274.55,325.38,496739,Reshad Jones,20,2019,31,4,14:21:00,LAC,1,10,MIA,10,20,2559169,SHOTGUN,"2 RB, 2 TE, 1 WR",8,"3 DL, 4 LB, 4 DB",right,2019-09-29T19:17:55.000Z,2019-09-29T19:17:54.000Z,6-1,215,02/25/1988,Georgia,SS,MIA,LAC,4,Hard Rock Stadium,"Miami Gardens, FL",Outdoor,Natural Grass,Mostly Cloudy,88.0,53,15,ENE
53604,2019092906,20190929063020,home,79.26,30.56,1.24,1.21,0.12,297.18,340.96,2539231,John Jenkins,95,2019,31,4,14:21:00,LAC,1,10,MIA,10,20,2559169,SHOTGUN,"2 RB, 2 TE, 1 WR",8,"3 DL, 4 LB, 4 DB",right,2019-09-29T19:17:55.000Z,2019-09-29T19:17:54.000Z,6-3,327,07/11/1989,Georgia,NT,MIA,LAC,4,Hard Rock Stadium,"Miami Gardens, FL",Outdoor,Natural Grass,Mostly Cloudy,88.0,53,15,ENE
53605,2019092906,20190929063020,home,82.11,36.71,0.8,0.35,0.08,263.0,10.18,2552255,Eric Rowe,21,2019,31,4,14:21:00,LAC,1,10,MIA,10,20,2559169,SHOTGUN,"2 RB, 2 TE, 1 WR",8,"3 DL, 4 LB, 4 DB",right,2019-09-29T19:17:55.000Z,2019-09-29T19:17:54.000Z,6-1,205,10/03/1992,Utah,CB,MIA,LAC,4,Hard Rock Stadium,"Miami Gardens, FL",Outdoor,Natural Grass,Mostly Cloudy,88.0,53,15,ENE
53606,2019092906,20190929063020,home,82.12,43.34,3.64,2.47,0.35,334.64,54.02,2555539,Xavien Howard,25,2019,31,4,14:21:00,LAC,1,10,MIA,10,20,2559169,SHOTGUN,"2 RB, 2 TE, 1 WR",8,"3 DL, 4 LB, 4 DB",right,2019-09-29T19:17:55.000Z,2019-09-29T19:17:54.000Z,6-1,200,07/04/1993,Baylor,CB,MIA,LAC,4,Hard Rock Stadium,"Miami Gardens, FL",Outdoor,Natural Grass,Mostly Cloudy,88.0,53,15,ENE
53607,2019092906,20190929063020,home,76.74,24.28,3.67,1.57,0.39,305.67,301.84,2557882,Taco Charlton,96,2019,31,4,14:21:00,LAC,1,10,MIA,10,20,2559169,SHOTGUN,"2 RB, 2 TE, 1 WR",8,"3 DL, 4 LB, 4 DB",right,2019-09-29T19:17:55.000Z,2019-09-29T19:17:54.000Z,6-6,270,11/07/1994,Michigan,DE,MIA,LAC,4,Hard Rock Stadium,"Miami Gardens, FL",Outdoor,Natural Grass,Mostly Cloudy,88.0,53,15,ENE
53608,2019092906,20190929063020,home,79.89,31.76,1.14,2.33,0.1,234.62,25.3,2558031,Avery Moss,93,2019,31,4,14:21:00,LAC,1,10,MIA,10,20,2559169,SHOTGUN,"2 RB, 2 TE, 1 WR",8,"3 DL, 4 LB, 4 DB",right,2019-09-29T19:17:55.000Z,2019-09-29T19:17:54.000Z,6-3,271,09/16/1994,Youngstown State,OLB,MIA,LAC,4,Hard Rock Stadium,"Miami Gardens, FL",Outdoor,Natural Grass,Mostly Cloudy,88.0,53,15,ENE
53609,2019092906,20190929063020,home,83.1,28.77,4.19,1.94,0.41,291.69,337.41,2558070,Raekwon McMillan,52,2019,31,4,14:21:00,LAC,1,10,MIA,10,20,2559169,SHOTGUN,"2 RB, 2 TE, 1 WR",8,"3 DL, 4 LB, 4 DB",right,2019-09-29T19:17:55.000Z,2019-09-29T19:17:54.000Z,6-2,242,11/17/1995,Ohio State,LB,MIA,LAC,4,Hard Rock Stadium,"Miami Gardens, FL",Outdoor,Natural Grass,Mostly Cloudy,88.0,53,15,ENE
53610,2019092906,20190929063020,home,81.85,32.46,4.17,1.35,0.41,326.94,299.0,2560966,Jerome Baker,55,2019,31,4,14:21:00,LAC,1,10,MIA,10,20,2559169,SHOTGUN,"2 RB, 2 TE, 1 WR",8,"3 DL, 4 LB, 4 DB",right,2019-09-29T19:17:55.000Z,2019-09-29T19:17:54.000Z,6-2,225,12/25/1996,Ohio State,LB,MIA,LAC,4,Hard Rock Stadium,"Miami Gardens, FL",Outdoor,Natural Grass,Mostly Cloudy,88.0,53,15,ENE
53611,2019092906,20190929063020,home,96.32,29.42,2.43,1.22,0.25,263.25,84.24,2561256,Steven Parker,26,2019,31,4,14:21:00,LAC,1,10,MIA,10,20,2559169,SHOTGUN,"2 RB, 2 TE, 1 WR",8,"3 DL, 4 LB, 4 DB",right,2019-09-29T19:17:55.000Z,2019-09-29T19:17:54.000Z,6-1,210,12/14/1995,Oklahoma,DB,MIA,LAC,4,Hard Rock Stadium,"Miami Gardens, FL",Outdoor,Natural Grass,Mostly Cloudy,88.0,53,15,ENE
53612,2019092906,20190929063020,home,78.47,33.82,2.63,2.65,0.27,229.46,234.43,2562038,Sam Eguavoen,49,2019,31,4,14:21:00,LAC,1,10,MIA,10,20,2559169,SHOTGUN,"2 RB, 2 TE, 1 WR",8,"3 DL, 4 LB, 4 DB",right,2019-09-29T19:17:55.000Z,2019-09-29T19:17:54.000Z,6-0,236,02/22/1993,Texas Tech,LB,MIA,LAC,4,Hard Rock Stadium,"Miami Gardens, FL",Outdoor,Natural Grass,Mostly Cloudy,88.0,53,15,ENE
53613,2019092906,20190929063020,home,78.84,28.92,2.02,1.34,0.21,148.15,0.53,2562782,Christian Wilkins,94,2019,31,4,14:21:00,LAC,1,10,MIA,10,20,2559169,SHOTGUN,"2 RB, 2 TE, 1 WR",8,"3 DL, 4 LB, 4 DB",right,2019-09-29T19:17:55.000Z,2019-09-29T19:17:54.000Z,6-4,315,12/20/1995,Clemson,DT,MIA,LAC,4,Hard Rock Stadium,"Miami Gardens, FL",Outdoor,Natural Grass,Mostly Cloudy,88.0,53,15,ENE
