,GameId,PlayId,Team,X,Y,S,A,Dis,Orientation,Dir,NflId,DisplayName,JerseyNumber,Season,YardLine,Quarter,GameClock,PossessionTeam,Down,Distance,FieldPosition,HomeScoreBeforePlay,VisitorScoreBeforePlay,NflIdRusher,OffenseFormation,OffensePersonnel,DefendersInTheBox,DefensePersonnel,PlayDirection,TimeHandoff,TimeSnap,PlayerHeight,PlayerWeight,PlayerBirthDate,PlayerCollegeName,Position,HomeTeamAbbr,VisitorTeamAbbr,Week,Stadium,Location,StadiumType,Turf,GameWeather,Temperature,Humidity,WindSpeed,WindDirection
31372,2019092200,20190922000998,away,33.12,29.47,2.22,0.35,0.24,358.94,355.81,71465,Andre Smith,71,2019,25,1,02:49:00,CIN,1,10,CIN,8,0,2557976,SINGLEBACK,"1 RB, 1 TE, 3 WR",7,"4 DL, 2 LB, 5 DB",right,2019-09-22T17:39:13.000Z,2019-09-22T17:39:11.000Z,6-4,330,01/25/1987,Alabama,T,BUF,CIN,3,New Era Field,Orchard Park NY,Outdoors,A-Turf Titan,Mostly sunny,83.0,53,13,WSW
31373,2019092200,20190922000998,away,29.81,25.86,4.41,1.23,0.44,276.86,294.71,2495143,Andy Dalton,14,2019,25,1,02:49:00,CIN,1,10,CIN,8,0,2557976,SINGLEBACK,"1 RB, 1 TE, 3 WR",7,"4 DL, 2 LB, 5 DB",right,2019-09-22T17:39:13.000Z,2019-09-22T17:39:11.000Z,6-2,220,10/29/1987,Texas Christian,QB,BUF,CIN,3,New Era Field,Orchard Park NY,Outdoors,A-Turf Titan,Mostly sunny,83.0,53,13,WSW
31374,2019092200,20190922000998,away,34.16,27.06,2.83,0.62,0.32,96.22,1.39,2550208,Trey Hopkins,66,2019,25,1,02:49:00,CIN,1,10,CIN,8,0,2557976,SINGLEBACK,"1 RB, 1 TE, 3 WR",7,"4 DL, 2 LB, 5 DB",right,2019-09-22T17:39:13.000Z,2019-09-22T17:39:11.000Z,6-3,316,07/06/1992,Texas,G,BUF,CIN,3,New Era Field,Orchard Park NY,Outdoors,A-Turf Titan,Mostly sunny,83.0,53,13,WSW
31375,2019092200,20190922000998,away,33.87,24.26,3.78,0.38,0.38,58.71,16.07,2552335,Bobby Hart,68,2019,25,1,02:49:00,CIN,1,10,CIN,8,0,2557976,SINGLEBACK,"1 RB, 1 TE, 3 WR",7,"4 DL, 2 LB, 5 DB",right,2019-09-22T17:39:13.000Z,2019-09-22T17:39:11.000Z,6-5,310,08/21/1994,Florida State,OT,BUF,CIN,3,New Era Field,Orchard Park NY,Outdoors,A-Turf Titan,Mostly sunny,83.0,53,13,WSW
31376,2019092200,20190922000998,away,33.15,22.45,3.64,2.79,0.35,111.27,358.45,2552559,C.J. Uzomah,87,2019,25,1,02:49:00,CIN,1,10,CIN,8,0,2557976,SINGLEBACK,"1 RB, 1 TE, 3 WR",7,"4 DL, 2 LB, 5 DB",right,2019-09-22T17:39:13.000Z,2019-09-22T17:39:11.000Z,6-6,260,01/14/1993,Auburn,TE,BUF,CIN,3,New Era Field,Orchard Park NY,Outdoors,A-Turf Titan,Mostly sunny,83.0,53,13,WSW
31377,2019092200,20190922000998,away,34.89,25.69,3.61,1.85,0.38,8.02,8.83,2553436,John Miller,67,2019,25,1,02:49:00,CIN,1,10,CIN,8,0,2557976,SINGLEBACK,"1 RB, 1 TE, 3 WR",7,"4 DL, 2 LB, 5 DB",right,2019-09-22T17:39:13.000Z,2019-09-22T17:39:11.000Z,6-3,315,08/12/1993,Louisville,G,BUF,CIN,3,New Era Field,Orchard Park NY,Outdoors,A-Turf Titan,Mostly sunny,83.0,53,13,WSW
31378,2019092200,20190922000998,away,30.85,17.4,7.91,2.43,0.8,162.53,180.47,2555466,Tyler Boyd,83,2019,25,1,02:49:00,CIN,1,10,CIN,8,0,2557976,SINGLEBACK,"1 RB, 1 TE, 3 WR",7,"4 DL, 2 LB, 5 DB",right,2019-09-22T17:39:13.000Z,2019-09-22T17:39:11.000Z,6-2,203,11/15/1994,Pittsburgh,WR,BUF,CIN,3,New Era Field,Orchard Park NY,Outdoors,A-Turf Titan,Mostly sunny,83.0,53,13,WSW
31379,2019092200,20190922000998,away,28.92,26.5,4.48,3.24,0.44,74.56,47.96,2557976,Joe Mixon,28,2019,25,1,02:49:00,CIN,1,10,CIN,8,0,2557976,SINGLEBACK,"1 RB, 1 TE, 3 WR",7,"4 DL, 2 LB, 5 DB",right,2019-09-22T17:39:13.000Z,2019-09-22T17:39:11.000Z,6-1,220,07/24/1996,Oklahoma,HB,BUF,CIN,3,New Era Field,Orchard Park NY,Outdoors,A-Turf Titan,Mostly sunny,83.0,53,13,WSW
31380,2019092200,20190922000998,away,35.75,34.41,4.39,3.87,0.42,120.34,81.55,2558010,John Ross,11,2019,25,1,02:49:00,CIN,1,10,CIN,8,0,2557976,SINGLEBACK,"1 RB, 1 TE, 3 WR",7,"4 DL, 2 LB, 5 DB",right,2019-09-22T17:39:13.000Z,2019-09-22T17:39:11.000Z,5-11,194,11/27/1995,Washington,WR,BUF,CIN,3,New Era Field,Orchard Park NY,Outdoors,A-Turf Titan,Mostly sunny,83.0,53,13,WSW
31381,2019092200,20190922000998,away,34.24,28.2,3.26,1.94,0.33,335.42,351.65,2560843,Billy Price,53,2019,25,1,02:49:00,CIN,1,10,CIN,8,0,2557976,SINGLEBACK,"1 RB, 1 TE, 3 WR",7,"4 DL, 2 LB, 5 DB",right,2019-09-22T17:39:13.000Z,2019-09-22T17:39:11.000Z,6-4,312,10/11/1994,Ohio State,C,BUF,CIN,3,New Era Field,Orchard Park NY,Outdoors,A-Turf Titan,Mostly sunny,83.0,53,13,WSW
31382,2019092200,20190922000998,away,36.24,15.5,4.03,2.48,0.39,99.21,62.94,2560890,Auden Tate,19,2019,25,1,02:49:00,CIN,1,10,CIN,8,0,2557976,SINGLEBACK,"1 RB, 1 TE, 3 WR",7,"4 DL, 2 LB, 5 DB",right,2019-09-22T17:39:13.000Z,2019-09-22T17:39:11.000Z,6-5,228,02/03/1997,Florida State,WR,BUF,CIN,3,New Era Field,Orchard Park NY,Outdoors,A-Turf Titan,Mostly sunny,83.0,53,13,WSW
31383,2019092200,20190922000998,home,58.68,26.0,0.36,0.41,0.04,267.37,54.71,2539240,Micah Hyde,23,2019,25,1,02:49:00,CIN,1,10,CIN,8,0,2557976,SINGLEBACK,"1 RB, 1 TE, 3 WR",7,"4 DL, 2 LB, 5 DB",right,2019-09-22T17:39:13.000Z,2019-09-22T17:39:11.000Z,6-0,197,12/31/1990,Iowa,SS,BUF,CIN,3,New Era Field,Orchard Park NY,Outdoors,A-Turf Titan,Mostly sunny,83.0,53,13,WSW
31384,2019092200,20190922000998,home,35.44,11.16,3.68,1.98,0.38,283.77,183.81,2539290,Jordan Poyer,21,2019,25,1,02:49:00,CIN,1,10,CIN,8,0,2557976,SINGLEBACK,"1 RB, 1 TE, 3 WR",7,"4 DL, 2 LB, 5 DB",right,2019-09-22T17:39:13.000Z,2019-09-22T17:39:11.000Z,6-0,191,04/25/1991,Oregon State,FS,BUF,CIN,3,New Era Field,Orchard Park NY,Outdoors,A-Turf Titan,Mostly sunny,83.0,53,13,WSW
31385,2019092200,20190922000998,home,34.81,24.27,3.16,0.75,0.34,326.14,3.59,2552492,Jordan Phillips,97,2019,25,1,02:49:00,CIN,1,10,CIN,8,0,2557976,SINGLEBACK,"1 RB, 1 TE, 3 WR",7,"4 DL, 2 LB, 5 DB",right,2019-09-22T17:39:13.000Z,2019-09-22T17:39:11.000Z,6-6,341,09/21/1992,Oklahoma,DT,BUF,CIN,3,New Era Field,Orchard Park NY,Outdoors,A-Turf Titan,Mostly sunny,83.0,53,13,WSW
31386,2019092200,20190922000998,home,33.27,30.2,2.65,0.41,0.27,204.73,313.96,2555252,Shaq Lawson,90,2019,25,1,02:49:00,CIN,1,10,CIN,8,0,2557976,SINGLEBACK,"1 RB, 1 TE, 3 WR",7,"4 DL, 2 LB, 5 DB",right,2019-09-22T17:39:13.000Z,2019-09-22T17:39:11.000Z,6-3,267,06/17/1994,Clemson,DE,BUF,CIN,3,New Era Field,Orchard Park NY,Outdoors,A-Turf Titan,Mostly sunny,83.0,53,13,WSW
31387,2019092200,20190922000998,home,43.81,12.87,1.51,1.72,0.15,323.33,79.31,2557867,Tre'Davious White,27,2019,25,1,02:49:00,CIN,1,10,CIN,8,0,2557976,SINGLEBACK,"1 RB, 1 TE, 3 WR",7,"4 DL, 2 LB, 5 DB",right,2019-09-22T17:39:13.000Z,2019-09-22T17:39:11.000Z,5-11,192,01/16/1995,Louisiana State,CB,BUF,CIN,3,New Era Field,Orchard Park NY,Outdoors,A-Turf Titan,Mostly sunny,83.0,53,13,WSW
31388,2019092200,20190922000998,home,36.02,21.33,3.32,4.01,0.37,284.07,326.77,2557969,Matt Milano,58,2019,25,1,02:49:00,CIN,1,10,CIN,8,0,2557976,SINGLEBACK,"1 RB, 1 TE, 3 WR",7,"4 DL, 2 LB, 5 DB",right,2019-09-22T17:39:13.000Z,2019-09-22T17:39:11.000Z,6-0,223,07/28/1994,Boston College,OLB,BUF,CIN,3,New Era Field,Orchard Park NY,Outdoors,A-Turf Titan,Mostly sunny,83.0,53,13,WSW
31389,2019092200,20190922000998,home,35.29,26.24,3.99,1.7,0.4,297.93,324.37,2560713,Tremaine Edmunds,49,2019,25,1,02:49:00,CIN,1,10,CIN,8,0,2557976,SINGLEBACK,"1 RB, 1 TE, 3 WR",7,"4 DL, 2 LB, 5 DB",right,2019-09-22T17:39:13.000Z,2019-09-22T17:39:11.000Z,6-5,250,05/02/1998,Virginia Tech,LB,BUF,CIN,3,New Era Field,Orchard Park NY,Outdoors,A-Turf Titan,Mostly sunny,83.0,53,13,WSW
31390,2019092200,20190922000998,home,34.64,29.23,3.76,3.48,0.37,262.47,292.57,2560818,Siran Neal,33,2019,25,1,02:49:00,CIN,1,10,CIN,8,0,2557976,SINGLEBACK,"1 RB, 1 TE, 3 WR",7,"4 DL, 2 LB, 5 DB",right,2019-09-22T17:39:13.000Z,2019-09-22T17:39:11.000Z,6-0,205,08/04/1994,Jacksonville State,DB,BUF,CIN,3,New Era Field,Orchard Park NY,Outdoors,A-Turf Titan,Mostly sunny,83.0,53,13,WSW
31391,2019092200,20190922000998,home,35.06,27.2,2.74,0.4,0.29,278.3,5.08,2560840,Harrison Phillips,99,2019,25,1,02:49:00,CIN,1,10,CIN,8,0,2557976,SINGLEBACK,"1 RB, 1 TE, 3 WR",7,"4 DL, 2 LB, 5 DB",right,2019-09-22T17:39:13.000Z,2019-09-22T17:39:11.000Z,6-3,307,01/25/1996,Stanford,DT,BUF,CIN,3,New Era Field,Orchard Park NY,Outdoors,A-Turf Titan,Mostly sunny,83.0,53,13,WSW
31392,2019092200,20190922000998,home,44.9,37.7,3.17,2.02,0.3,254.14,79.68,2560914,Levi Wallace,39,2019,25,1,02:49:00,CIN,1,10,CIN,8,0,2557976,SINGLEBACK,"1 RB, 1 TE, 3 WR",7,"4 DL, 2 LB, 5 DB",right,2019-09-22T17:39:13.000Z,2019-09-22T17:39:11.000Z,6-0,179,06/12/1995,Alabama,CB,BUF,CIN,3,New Era Field,Orchard Park NY,Outdoors,A-Turf Titan,Mostly sunny,83.0,53,13,WSW
31393,2019092200,20190922000998,home,33.76,22.18,2.94,1.01,0.32,273.21,329.43,2562672,Darryl Johnson,92,2019,25,1,02:49:00,CIN,1,10,CIN,8,0,2557976,SINGLEBACK,"1 RB, 1 TE, 3 WR",7,"4 DL, 2 LB, 5 DB",right,2019-09-22T17:39:13.000Z,2019-09-22T17:39:11.000Z,6-6,253,04/04/1997,North Carolina A&T,DE,BUF,CIN,3,New Era Field,Orchard Park NY,Outdoors,A-Turf Titan,Mostly sunny,83.0,53,13,WSW
