,GameId,PlayId,Team,X,Y,S,A,Dis,Orientation,Dir,NflId,DisplayName,JerseyNumber,Season,YardLine,Quarter,GameClock,PossessionTeam,Down,Distance,FieldPosition,HomeScoreBeforePlay,VisitorScoreBeforePlay,NflIdRusher,OffenseFormation,OffensePersonnel,DefendersInTheBox,DefensePersonnel,PlayDirection,TimeHandoff,TimeSnap,PlayerHeight,PlayerWeight,PlayerBirthDate,PlayerCollegeName,Position,HomeTeamAbbr,VisitorTeamAbbr,Week,Stadium,Location,StadiumType,Turf,GameWeather,Temperature,Humidity,WindSpeed,WindDirection
66132,2019100604,20191006041867,away,74.34,23.08,4.29,0.5,0.43,95.64,26.33,2495438,Kyle Rudolph,82,2019,35,2,01:46:00,MIN,1,10,NYG,7,15,2552374,SINGLEBACK,"1 RB, 1 TE, 3 WR",6,"2 DL, 3 LB, 6 DB",right,2019-10-06T18:18:10.000Z,2019-10-06T18:18:09.000Z,6-6,265,11/09/1989,Notre Dame,TE,NYG,MIN,5,MetLife Stadium,"East Rutherford, NJ",,UBU Speed Series-S5-M,Cloudy,66.0,73,10,South
66133,2019100604,20191006041867,away,70.08,26.4,5.13,2.51,0.52,254.13,298.97,2532820,Kirk Cousins,8,2019,35,2,01:46:00,MIN,1,10,NYG,7,15,2552374,SINGLEBACK,"1 RB, 1 TE, 3 WR",6,"2 DL, 3 LB, 6 DB",right,2019-10-06T18:18:10.000Z,2019-10-06T18:18:09.000Z,6-3,202,08/19/1988,Michigan State,QB,NYG,MIN,5,MetLife Stadium,"East Rutherford, NJ",,UBU Speed Series-S5-M,Cloudy,66.0,73,10,South
66134,2019100604,20191006041867,away,73.1,30.71,2.81,0.69,0.29,304.97,341.38,2533042,Riley Reiff,71,2019,35,2,01:46:00,MIN,1,10,NYG,7,15,2552374,SINGLEBACK,"1 RB, 1 TE, 3 WR",6,"2 DL, 3 LB, 6 DB",right,2019-10-06T18:18:10.000Z,2019-10-06T18:18:09.000Z,6-6,305,12/01/1988,Iowa,T,NYG,MIN,5,MetLife Stadium,"East Rutherford, NJ",,UBU Speed Series-S5-M,Cloudy,66.0,73,10,South
66135,2019100604,20191006041867,away,76.17,24.63,3.72,1.27,0.38,93.45,48.56,2541142,Josh Kline,64,2019,35,2,01:46:00,MIN,1,10,NYG,7,15,2552374,SINGLEBACK,"1 RB, 1 TE, 3 WR",6,"2 DL, 3 LB, 6 DB",right,2019-10-06T18:18:10.000Z,2019-10-06T18:18:09.000Z,6-3,300,12/29/1989,Kent State,G,NYG,MIN,5,MetLife Stadium,"East Rutherford, NJ",,UBU Speed Series-S5-M,Cloudy,66.0,73,10,South
66136,2019100604,20191006041867,away,76.89,34.85,5.19,1.26,0.52,99.58,60.2,2541785,Adam Thielen,19,2019,35,2,01:46:00,MIN,1,10,NYG,7,15,2552374,SINGLEBACK,"1 RB, 1 TE, 3 WR",6,"2 DL, 3 LB, 6 DB",right,2019-10-06T18:18:10.000Z,2019-10-06T18:18:09.000Z,6-2,200,08/22/1990,Minn. State-Mankato,WR,NYG,MIN,5,MetLife Stadium,"East Rutherford, NJ",,UBU Speed Series-S5-M,Cloudy,66.0,73,10,South
66137,2019100604,20191006041867,away,71.13,27.89,6.64,1.3,0.66,67.99,41.17,2552374,Ameer Abdullah,31,2019,35,2,01:46:00,MIN,1,10,NYG,7,15,2552374,SINGLEBACK,"1 RB, 1 TE, 3 WR",6,"2 DL, 3 LB, 6 DB",right,2019-10-06T18:18:10.000Z,2019-10-06T18:18:09.000Z,5-9,203,06/13/1993,Nebraska,RB,NYG,MIN,5,MetLife Stadium,"East Rutherford, NJ",,UBU Speed Series-S5-M,Cloudy,66.0,73,10,South
66138,2019100604,20191006041867,away,76.92,43.29,4.39,3.62,0.43,69.58,36.64,2552608,Stefon Diggs,14,2019,35,2,01:46:00,MIN,1,10,NYG,7,15,2552374,SINGLEBACK,"1 RB, 1 TE, 3 WR",6,"2 DL, 3 LB, 6 DB",right,2019-10-06T18:18:10.000Z,2019-10-06T18:18:09.000Z,6-0,191,11/29/1993,Maryland,WR,NYG,MIN,5,MetLife Stadium,"East Rutherford, NJ",,UBU Speed Series-S5-M,Cloudy,66.0,73,10,South
66139,2019100604,20191006041867,away,76.54,29.51,4.76,0.3,0.49,76.3,30.44,2558848,Pat Elflein,65,2019,35,2,01:46:00,MIN,1,10,NYG,7,15,2552374,SINGLEBACK,"1 RB, 1 TE, 3 WR",6,"2 DL, 3 LB, 6 DB",right,2019-10-06T18:18:10.000Z,2019-10-06T18:18:09.000Z,6-3,303,07/06/1994,Ohio State,G,NYG,MIN,5,MetLife Stadium,"East Rutherford, NJ",,UBU Speed Series-S5-M,Cloudy,66.0,73,10,South
66140,2019100604,20191006041867,away,72.77,25.38,4.52,1.66,0.46,63.5,358.1,2560831,Brian O'Neill,75,2019,35,2,01:46:00,MIN,1,10,NYG,7,15,2552374,SINGLEBACK,"1 RB, 1 TE, 3 WR",6,"2 DL, 3 LB, 6 DB",right,2019-10-06T18:18:10.000Z,2019-10-06T18:18:09.000Z,6-7,297,09/15/1995,Pittsburgh,T,NYG,MIN,5,MetLife Stadium,"East Rutherford, NJ",,UBU Speed Series-S5-M,Cloudy,66.0,73,10,South
66141,2019100604,20191006041867,away,76.87,20.62,5.03,0.97,0.5,58.91,36.24,2562465,Bisi Johnson,81,2019,35,2,01:46:00,MIN,1,10,NYG,7,15,2552374,SINGLEBACK,"1 RB, 1 TE, 3 WR",6,"2 DL, 3 LB, 6 DB",right,2019-10-06T18:18:10.000Z,2019-10-06T18:18:09.000Z,6-0,203,03/17/1997,Colorado State,WR,NYG,MIN,5,MetLife Stadium,"East Rutherford, NJ",,UBU Speed Series-S5-M,Cloudy,66.0,73,10,South
66142,2019100604,20191006041867,away,74.32,27.36,3.21,0.68,0.33,276.26,340.02,2562632,Garrett Bradbury,56,2019,35,2,01:46:00,MIN,1,10,NYG,7,15,2552374,SINGLEBACK,"1 RB, 1 TE, 3 WR",6,"2 DL, 3 LB, 6 DB",right,2019-10-06T18:18:10.000Z,2019-10-06T18:18:09.000Z,6-3,305,06/20/1995,North Carolina State,C,NYG,MIN,5,MetLife Stadium,"East Rutherford, NJ",,UBU Speed Series-S5-M,Cloudy,66.0,73,10,South
66143,2019100604,20191006041867,home,91.13,34.28,2.36,1.1,0.24,306.4,45.5,2495807,Antoine Bethea,41,2019,35,2,01:46:00,MIN,1,10,NYG,7,15,2552374,SINGLEBACK,"1 RB, 1 TE, 3 WR",6,"2 DL, 3 LB, 6 DB",right,2019-10-06T18:18:10.000Z,2019-10-06T18:18:09.000Z,5-11,206,07/27/1984,Howard,FS,NYG,MIN,5,MetLife Stadium,"East Rutherford, NJ",,UBU Speed Series-S5-M,Cloudy,66.0,73,10,South
66144,2019100604,20191006041867,home,83.32,15.01,2.71,1.3,0.27,333.47,71.23,2532875,Janoris Jenkins,20,2019,35,2,01:46:00,MIN,1,10,NYG,7,15,2552374,SINGLEBACK,"1 RB, 1 TE, 3 WR",6,"2 DL, 3 LB, 6 DB",right,2019-10-06T18:18:10.000Z,2019-10-06T18:18:09.000Z,5-10,190,10/29/1988,North Alabama,CB,NYG,MIN,5,MetLife Stadium,"East Rutherford, NJ",,UBU Speed Series-S5-M,Cloudy,66.0,73,10,South
66145,2019100604,20191006041867,home,85.72,21.71,5.25,3.23,0.51,276.89,2.89,2535687,Michael Thomas,31,2019,35,2,01:46:00,MIN,1,10,NYG,7,15,2552374,SINGLEBACK,"1 RB, 1 TE, 3 WR",6,"2 DL, 3 LB, 6 DB",right,2019-10-06T18:18:10.000Z,2019-10-06T18:18:09.000Z,5-10,195,03/17/1990,Stanford,SS,NYG,MIN,5,MetLife Stadium,"East Rutherford, NJ",,UBU Speed Series-S5-M,Cloudy,66.0,73,10,South
66146,2019100604,20191006041867,home,75.12,22.57,4.09,2.41,0.41,311.96,5.61,2552273,Markus Golden,44,2019,35,2,01:46:00,MIN,1,10,NYG,7,15,2552374,SINGLEBACK,"1 RB, 1 TE, 3 WR",6,"2 DL, 3 LB, 6 DB",right,2019-10-06T18:18:10.000Z,2019-10-06T18:18:09.000Z,6-3,260,03/13/1991,Missouri,OLB,NYG,MIN,5,MetLife Stadium,"East Rutherford, NJ",,UBU Speed Series-S5-M,Cloudy,66.0,73,10,South
66147,2019100604,20191006041867,home,79.01,29.53,4.8,1.01,0.48,302.65,353.13,2553441,David Mayo,55,2019,35,2,01:46:00,MIN,1,10,NYG,7,15,2552374,SINGLEBACK,"1 RB, 1 TE, 3 WR",6,"2 DL, 3 LB, 6 DB",right,2019-10-06T18:18:10.000Z,2019-10-06T18:18:09.000Z,6-2,245,08/08/1993,Texas State,MLB,NYG,MIN,5,MetLife Stadium,"East Rutherford, NJ",,UBU Speed Series-S5-M,Cloudy,66.0,73,10,South
66148,2019100604,20191006041867,home,73.41,25.24,4.49,2.48,0.45,357.88,0.46,2553583,Olsen Pierre,72,2019,35,2,01:46:00,MIN,1,10,NYG,7,15,2552374,SINGLEBACK,"1 RB, 1 TE, 3 WR",6,"2 DL, 3 LB, 6 DB",right,2019-10-06T18:18:10.000Z,2019-10-06T18:18:09.000Z,6-4,293,08/27/1991,Miami,DT,NYG,MIN,5,MetLife Stadium,"East Rutherford, NJ",,UBU Speed Series-S5-M,Cloudy,66.0,73,10,South
66149,2019100604,20191006041867,home,78.36,20.97,3.32,3.49,0.31,315.26,9.41,2557980,Jabrill Peppers,21,2019,35,2,01:46:00,MIN,1,10,NYG,7,15,2552374,SINGLEBACK,"1 RB, 1 TE, 3 WR",6,"2 DL, 3 LB, 6 DB",right,2019-10-06T18:18:10.000Z,2019-10-06T18:18:09.000Z,5-11,213,10/04/1995,Michigan,FS,NYG,MIN,5,MetLife Stadium,"East Rutherford, NJ",,UBU Speed Series-S5-M,Cloudy,66.0,73,10,South
66150,2019100604,20191006041867,home,78.68,33.41,3.53,2.1,0.34,328.64,52.05,2561001,Grant Haley,34,2019,35,2,01:46:00,MIN,1,10,NYG,7,15,2552374,SINGLEBACK,"1 RB, 1 TE, 3 WR",6,"2 DL, 3 LB, 6 DB",right,2019-10-06T18:18:10.000Z,2019-10-06T18:18:09.000Z,5-9,190,01/06/1996,Penn State,CB,NYG,MIN,5,MetLife Stadium,"East Rutherford, NJ",,UBU Speed Series-S5-M,Cloudy,66.0,73,10,South
66151,2019100604,20191006041867,home,78.63,43.32,2.98,2.44,0.29,271.61,29.21,2562227,Deandre Baker,27,2019,35,2,01:46:00,MIN,1,10,NYG,7,15,2552374,SINGLEBACK,"1 RB, 1 TE, 3 WR",6,"2 DL, 3 LB, 6 DB",right,2019-10-06T18:18:10.000Z,2019-10-06T18:18:09.000Z,5-11,180,09/04/1997,Georgia,CB,NYG,MIN,5,MetLife Stadium,"East Rutherford, NJ",,UBU Speed Series-S5-M,Cloudy,66.0,73,10,South
66152,2019100604,20191006041867,home,73.72,26.64,3.53,0.47,0.36,319.52,339.92,2562301,Dexter Lawrence,97,2019,35,2,01:46:00,MIN,1,10,NYG,7,15,2552374,SINGLEBACK,"1 RB, 1 TE, 3 WR",6,"2 DL, 3 LB, 6 DB",right,2019-10-06T18:18:10.000Z,2019-10-06T18:18:09.000Z,6-4,342,11/12/1997,Clemson,DT,NYG,MIN,5,MetLife Stadium,"East Rutherford, NJ",,UBU Speed Series-S5-M,Cloudy,66.0,73,10,South
66153,2019100604,20191006041867,home,72.61,31.45,3.61,2.68,0.37,218.83,322.46,2562613,Oshane Ximines,53,2019,35,2,01:46:00,MIN,1,10,NYG,7,15,2552374,SINGLEBACK,"1 RB, 1 TE, 3 WR",6,"2 DL, 3 LB, 6 DB",right,2019-10-06T18:18:10.000Z,2019-10-06T18:18:09.000Z,6-4,250,12/07/1996,Old Dominion,LB,NYG,MIN,5,MetLife Stadium,"East Rutherford, NJ",,UBU Speed Series-S5-M,Cloudy,66.0,73,10,South
