,GameId,PlayId,Team,X,Y,S,A,Dis,Orientation,Dir,NflId,DisplayName,JerseyNumber,Season,YardLine,Quarter,GameClock,PossessionTeam,Down,Distance,FieldPosition,HomeScoreBeforePlay,VisitorScoreBeforePlay,NflIdRusher,OffenseFormation,OffensePersonnel,DefendersInTheBox,DefensePersonnel,PlayDirection,TimeHandoff,TimeSnap,PlayerHeight,PlayerWeight,PlayerBirthDate,PlayerCollegeName,Position,HomeTeamAbbr,VisitorTeamAbbr,Week,Stadium,Location,StadiumType,Turf,GameWeather,Temperature,Humidity,WindSpeed,WindDirection
13178,2019090900,20190909001222,away,93.93,28.92,3.61,1.3,0.36,327.63,329.77,2495488,J.J. Watt,99,2019,15,2,10:17:00,NO,1,10,HST,0,7,2558019,I_FORM,"2 RB, 1 TE, 2 WR",7,"3 DL, 4 LB, 4 DB",right,2019-09-10T00:00:55.000Z,2019-09-10T00:00:54.000Z,6-5,288,03/22/1989,Wisconsin,DE,NO,HOU,1,Mercedes-Benz Superdome,"New Orleans, La.",Indoors,UBU-Speed Series-S5-M,Partly Cloudy,91.0,59,9,SE
13179,2019090900,20190909001222,away,101.06,11.32,1.29,1.26,0.13,268.76,31.31,2495872,Johnathan Joseph,24,2019,15,2,10:17:00,NO,1,10,HST,0,7,2558019,I_FORM,"2 RB, 1 TE, 2 WR",7,"3 DL, 4 LB, 4 DB",right,2019-09-10T00:00:55.000Z,2019-09-10T00:00:54.000Z,5-11,185,04/16/1984,South Carolina,CB,NO,HOU,1,Mercedes-Benz Superdome,"New Orleans, La.",Indoors,UBU-Speed Series-S5-M,Partly Cloudy,91.0,59,9,SE
13180,2019090900,20190909001222,away,98.69,26.11,4.43,3.85,0.43,311.65,322.8,2532848,Tashaun Gipson,39,2019,15,2,10:17:00,NO,1,10,HST,0,7,2558019,I_FORM,"2 RB, 1 TE, 2 WR",7,"3 DL, 4 LB, 4 DB",right,2019-09-10T00:00:55.000Z,2019-09-10T00:00:54.000Z,6-1,212,08/07/1990,Wyoming,FS,NO,HOU,1,Mercedes-Benz Superdome,"New Orleans, La.",Indoors,UBU-Speed Series-S5-M,Partly Cloudy,91.0,59,9,SE
13181,2019090900,20190909001222,away,94.2,36.76,3.25,1.81,0.32,239.2,308.55,2533049,Whitney Mercilus,59,2019,15,2,10:17:00,NO,1,10,HST,0,7,2558019,I_FORM,"2 RB, 1 TE, 2 WR",7,"3 DL, 4 LB, 4 DB",right,2019-09-10T00:00:55.000Z,2019-09-10T00:00:54.000Z,6-4,258,07/21/1990,Illinois,OLB,NO,HOU,1,Mercedes-Benz Superdome,"New Orleans, La.",Indoors,UBU-Speed Series-S5-M,Partly Cloudy,91.0,59,9,SE
13182,2019090900,20190909001222,away,103.45,38.12,2.43,1.26,0.24,267.0,161.3,2543505,Bradley Roby,21,2019,15,2,10:17:00,NO,1,10,HST,0,7,2558019,I_FORM,"2 RB, 1 TE, 2 WR",7,"3 DL, 4 LB, 4 DB",right,2019-09-10T00:00:55.000Z,2019-09-10T00:00:54.000Z,5-11,194,05/01/1992,Ohio State,CB,NO,HOU,1,Mercedes-Benz Superdome,"New Orleans, La.",Indoors,UBU-Speed Series-S5-M,Partly Cloudy,91.0,59,9,SE
13183,2019090900,20190909001222,away,95.48,33.1,3.77,0.8,0.4,310.56,2.22,2550559,Brandon Dunn,92,2019,15,2,10:17:00,NO,1,10,HST,0,7,2558019,I_FORM,"2 RB, 1 TE, 2 WR",7,"3 DL, 4 LB, 4 DB",right,2019-09-10T00:00:55.000Z,2019-09-10T00:00:54.000Z,6-2,310,09/05/1992,Louisville,DT,NO,HOU,1,Mercedes-Benz Superdome,"New Orleans, La.",Indoors,UBU-Speed Series-S5-M,Partly Cloudy,91.0,59,9,SE
13184,2019090900,20190909001222,away,99.12,29.92,4.34,1.83,0.42,302.67,344.43,2552490,Benardrick McKinney,55,2019,15,2,10:17:00,NO,1,10,HST,0,7,2558019,I_FORM,"2 RB, 1 TE, 2 WR",7,"3 DL, 4 LB, 4 DB",right,2019-09-10T00:00:55.000Z,2019-09-10T00:00:54.000Z,6-4,257,11/19/1992,Mississippi State,ILB,NO,HOU,1,Mercedes-Benz Superdome,"New Orleans, La.",Indoors,UBU-Speed Series-S5-M,Partly Cloudy,91.0,59,9,SE
13185,2019090900,20190909001222,away,94.9,34.81,3.68,1.4,0.36,286.4,347.31,2555388,D.J. Reader,98,2019,15,2,10:17:00,NO,1,10,HST,0,7,2558019,I_FORM,"2 RB, 1 TE, 2 WR",7,"3 DL, 4 LB, 4 DB",right,2019-09-10T00:00:55.000Z,2019-09-10T00:00:54.000Z,6-3,347,07/01/1994,Clemson,DT,NO,HOU,1,Mercedes-Benz Superdome,"New Orleans, La.",Indoors,UBU-Speed Series-S5-M,Partly Cloudy,91.0,59,9,SE
13186,2019090900,20190909001222,away,94.5,26.37,4.25,2.22,0.42,302.53,345.52,2556673,Brennan Scarlett,57,2019,15,2,10:17:00,NO,1,10,HST,0,7,2558019,I_FORM,"2 RB, 1 TE, 2 WR",7,"3 DL, 4 LB, 4 DB",right,2019-09-10T00:00:55.000Z,2019-09-10T00:00:54.000Z,6-4,263,07/31/1993,Stanford,OLB,NO,HOU,1,Mercedes-Benz Superdome,"New Orleans, La.",Indoors,UBU-Speed Series-S5-M,Partly Cloudy,91.0,59,9,SE
13187,2019090900,20190909001222,away,97.65,33.86,3.78,0.49,0.38,294.05,318.57,2559152,Dylan Cole,51,2019,15,2,10:17:00,NO,1,10,HST,0,7,2558019,I_FORM,"2 RB, 1 TE, 2 WR",7,"3 DL, 4 LB, 4 DB",right,2019-09-10T00:00:55.000Z,2019-09-10T00:00:54.000Z,6-0,237,05/19/1994,Missouri State,ILB,NO,HOU,1,Mercedes-Benz Superdome,"New Orleans, La.",Indoors,UBU-Speed Series-S5-M,Partly Cloudy,91.0,59,9,SE
13188,2019090900,20190909001222,away,107.77,30.1,4.73,1.58,0.48,238.29,124.06,2560851,Justin Reid,20,2019,15,2,10:17:00,NO,1,10,HST,0,7,2558019,I_FORM,"2 RB, 1 TE, 2 WR",7,"3 DL, 4 LB, 4 DB",right,2019-09-10T00:00:55.000Z,2019-09-10T00:00:54.000Z,6-1,204,02/15/1997,Stanford,SS,NO,HOU,1,Mercedes-Benz Superdome,"New Orleans, La.",Indoors,UBU-Speed Series-S5-M,Partly Cloudy,91.0,59,9,SE
13189,2019090900,20190909001222,home,90.55,31.19,4.09,2.19,0.41,270.79,284.95,2504775,Drew Brees,9,2019,15,2,10:17:00,NO,1,10,HST,0,7,2558019,I_FORM,"2 RB, 1 TE, 2 WR",7,"3 DL, 4 LB, 4 DB",right,2019-09-10T00:00:55.000Z,2019-09-10T00:00:54.000Z,6-0,209,01/15/1979,Purdue,QB,NO,HOU,1,Mercedes-Benz Superdome,"New Orleans, La.",Indoors,UBU-Speed Series-S5-M,Partly Cloudy,91.0,59,9,SE
13190,2019090900,20190909001222,home,93.34,10.09,1.73,2.72,0.17,44.67,78.8,2507166,Ted Ginn,19,2019,15,2,10:17:00,NO,1,10,HST,0,7,2558019,I_FORM,"2 RB, 1 TE, 2 WR",7,"3 DL, 4 LB, 4 DB",right,2019-09-10T00:00:55.000Z,2019-09-10T00:00:54.000Z,5-11,180,04/12/1985,Ohio State,WR,NO,HOU,1,Mercedes-Benz Superdome,"New Orleans, La.",Indoors,UBU-Speed Series-S5-M,Partly Cloudy,91.0,59,9,SE
13191,2019090900,20190909001222,home,94.39,31.93,4.14,1.42,0.42,38.83,23.2,2539248,Larry Warford,67,2019,15,2,10:17:00,NO,1,10,HST,0,7,2558019,I_FORM,"2 RB, 1 TE, 2 WR",7,"3 DL, 4 LB, 4 DB",right,2019-09-10T00:00:55.000Z,2019-09-10T00:00:54.000Z,6-3,317,06/18/1991,Kentucky,G,NO,HOU,1,Mercedes-Benz Superdome,"New Orleans, La.",Indoors,UBU-Speed Series-S5-M,Partly Cloudy,91.0,59,9,SE
13192,2019090900,20190909001222,home,92.97,33.89,4.04,1.48,0.4,59.19,62.24,2539303,Zach Line,42,2019,15,2,10:17:00,NO,1,10,HST,0,7,2558019,I_FORM,"2 RB, 1 TE, 2 WR",7,"3 DL, 4 LB, 4 DB",right,2019-09-10T00:00:55.000Z,2019-09-10T00:00:54.000Z,6-1,233,04/26/1990,Southern Methodist,FB,NO,HOU,1,Mercedes-Benz Superdome,"New Orleans, La.",Indoors,UBU-Speed Series-S5-M,Partly Cloudy,91.0,59,9,SE
13193,2019090900,20190909001222,home,93.37,35.85,2.31,0.82,0.24,39.05,342.18,2540228,Terron Armstead,72,2019,15,2,10:17:00,NO,1,10,HST,0,7,2558019,I_FORM,"2 RB, 1 TE, 2 WR",7,"3 DL, 4 LB, 4 DB",right,2019-09-10T00:00:55.000Z,2019-09-10T00:00:54.000Z,6-5,304,07/23/1991,Arkansas-Pine Bluff,T,NO,HOU,1,Mercedes-Benz Superdome,"New Orleans, La.",Indoors,UBU-Speed Series-S5-M,Partly Cloudy,91.0,59,9,SE
13194,2019090900,20190909001222,home,93.6,28.31,3.83,0.42,0.38,43.67,358.26,2541834,Josh Hill,89,2019,15,2,10:17:00,NO,1,10,HST,0,7,2558019,I_FORM,"2 RB, 1 TE, 2 WR",7,"3 DL, 4 LB, 4 DB",right,2019-09-10T00:00:55.000Z,2019-09-10T00:00:54.000Z,6-5,250,05/21/1990,Idaho State,TE,NO,HOU,1,Mercedes-Benz Superdome,"New Orleans, La.",Indoors,UBU-Speed Series-S5-M,Partly Cloudy,91.0,59,9,SE
13195,2019090900,20190909001222,home,94.01,34.35,2.76,0.64,0.29,59.27,350.37,2552455,Andrus Peat,75,2019,15,2,10:17:00,NO,1,10,HST,0,7,2558019,I_FORM,"2 RB, 1 TE, 2 WR",7,"3 DL, 4 LB, 4 DB",right,2019-09-10T00:00:55.000Z,2019-09-10T00:00:54.000Z,6-7,316,11/04/1993,Stanford,T,NO,HOU,1,Mercedes-Benz Superdome,"New Orleans, La.",Indoors,UBU-Speed Series-S5-M,Partly Cloudy,91.0,59,9,SE
13196,2019090900,20190909001222,home,96.56,37.56,4.76,2.77,0.46,116.06,117.61,2556370,Michael Thomas,13,2019,15,2,10:17:00,NO,1,10,HST,0,7,2558019,I_FORM,"2 RB, 1 TE, 2 WR",7,"3 DL, 4 LB, 4 DB",right,2019-09-10T00:00:55.000Z,2019-09-10T00:00:54.000Z,6-3,212,03/03/1993,Ohio State,WR,NO,HOU,1,Mercedes-Benz Superdome,"New Orleans, La.",Indoors,UBU-Speed Series-S5-M,Partly Cloudy,91.0,59,9,SE
13197,2019090900,20190909001222,home,94.49,29.4,2.43,1.81,0.25,116.19,14.19,2557959,Ryan Ramczyk,71,2019,15,2,10:17:00,NO,1,10,HST,0,7,2558019,I_FORM,"2 RB, 1 TE, 2 WR",7,"3 DL, 4 LB, 4 DB",right,2019-09-10T00:00:55.000Z,2019-09-10T00:00:54.000Z,6-6,314,04/22/1994,Wisconsin,T,NO,HOU,1,Mercedes-Benz Superdome,"New Orleans, La.",Indoors,UBU-Speed Series-S5-M,Partly Cloudy,91.0,59,9,SE
13198,2019090900,20190909001222,home,89.9,32.02,5.36,2.6,0.52,70.0,51.63,2558019,Alvin Kamara,41,2019,15,2,10:17:00,NO,1,10,HST,0,7,2558019,I_FORM,"2 RB, 1 TE, 2 WR",7,"3 DL, 4 LB, 4 DB",right,2019-09-10T00:00:55.000Z,2019-09-10T00:00:54.000Z,5-10,215,07/25/1995,Tennessee,RB,NO,HOU,1,Mercedes-Benz Superdome,"New Orleans, La.",Indoors,UBU-Speed Series-S5-M,Partly Cloudy,91.0,59,9,SE
13199,2019090900,20190909001222,home,94.86,32.95,3.69,0.42,0.38,65.82,9.88,2562683,Erik McCoy,78,2019,15,2,10:17:00,NO,1,10,HST,0,7,2558019,I_FORM,"2 RB, 1 TE, 2 WR",7,"3 DL, 4 LB, 4 DB",right,2019-09-10T00:00:55.000Z,2019-09-10T00:00:54.000Z,6-4,315,08/27/1997,Texas A&M,C,NO,HOU,1,Mercedes-Benz Superdome,"New Orleans, La.",Indoors,UBU-Speed Series-S5-M,Partly Cloudy,91.0,59,9,SE
