,GameId,PlayId,Team,X,Y,S,A,Dis,Orientation,Dir,NflId,DisplayName,JerseyNumber,Season,YardLine,Quarter,GameClock,PossessionTeam,Down,Distance,FieldPosition,HomeScoreBeforePlay,VisitorScoreBeforePlay,NflIdRusher,OffenseFormation,OffensePersonnel,DefendersInTheBox,DefensePersonnel,PlayDirection,TimeHandoff,TimeSnap,PlayerHeight,PlayerWeight,PlayerBirthDate,PlayerCollegeName,Position,HomeTeamAbbr,VisitorTeamAbbr,Week,Stadium,Location,StadiumType,Turf,GameWeather,Temperature,Humidity,WindSpeed,WindDirection
4796,2019090804,20190908041221,away,89.44,25.37,2.35,1.18,0.25,157.05,167.4,2495116,Allen Bailey,93,2019,21,2,10:21:00,MIN,1,10,MIN,14,0,2557991,SINGLEBACK,"1 RB, 2 TE, 2 WR",7,"4 DL, 3 LB, 4 DB",left,2019-09-08T17:58:12.000Z,2019-09-08T17:58:10.000Z,6-3,288,03/25/1989,Miami,DE,MIN,ATL,1,U.S. Bank Stadium,"Minneapolis, MN",Indoors,Field Turf,N/A (Indoors),,0,,
4797,2019090804,20190908041221,away,81.98,8.51,5.31,2.65,0.52,295.55,255.55,2539334,Desmond Trufant,21,2019,21,2,10:21:00,MIN,1,10,MIN,14,0,2557991,SINGLEBACK,"1 RB, 2 TE, 2 WR",7,"4 DL, 3 LB, 4 DB",left,2019-09-08T17:58:12.000Z,2019-09-08T17:58:10.000Z,6-0,190,09/10/1990,Washington,CB,MIN,ATL,1,U.S. Bank Stadium,"Minneapolis, MN",Indoors,Field Turf,N/A (Indoors),,0,,
4798,2019090804,20190908041221,away,77.44,16.38,2.51,2.36,0.24,75.36,237.91,2543850,Ricardo Allen,37,2019,21,2,10:21:00,MIN,1,10,MIN,14,0,2557991,SINGLEBACK,"1 RB, 2 TE, 2 WR",7,"4 DL, 3 LB, 4 DB",left,2019-09-08T17:58:12.000Z,2019-09-08T17:58:10.000Z,5-9,186,12/18/1991,Purdue,SS,MIN,ATL,1,U.S. Bank Stadium,"Minneapolis, MN",Indoors,Field Turf,N/A (Indoors),,0,,
4799,2019090804,20190908041221,away,89.97,21.15,2.62,2.57,0.26,52.33,171.1,2552301,Vic Beasley,44,2019,21,2,10:21:00,MIN,1,10,MIN,14,0,2557991,SINGLEBACK,"1 RB, 2 TE, 2 WR",7,"4 DL, 3 LB, 4 DB",left,2019-09-08T17:58:12.000Z,2019-09-08T17:58:10.000Z,6-3,246,07/08/1992,Clemson,OLB,MIN,ATL,1,U.S. Bank Stadium,"Minneapolis, MN",Indoors,Field Turf,N/A (Indoors),,0,,
4800,2019090804,20190908041221,away,87.71,28.38,3.87,0.88,0.41,139.71,200.69,2552327,Grady Jarrett,97,2019,21,2,10:21:00,MIN,1,10,MIN,14,0,2557991,SINGLEBACK,"1 RB, 2 TE, 2 WR",7,"4 DL, 3 LB, 4 DB",left,2019-09-08T17:58:12.000Z,2019-09-08T17:58:10.000Z,6-0,305,04/28/1993,Clemson,DT,MIN,ATL,1,U.S. Bank Stadium,"Minneapolis, MN",Indoors,Field Turf,N/A (Indoors),,0,,
4801,2019090804,20190908041221,away,88.83,26.26,3.33,0.57,0.35,87.3,172.72,2552329,Tyeler Davison,96,2019,21,2,10:21:00,MIN,1,10,MIN,14,0,2557991,SINGLEBACK,"1 RB, 2 TE, 2 WR",7,"4 DL, 3 LB, 4 DB",left,2019-09-08T17:58:12.000Z,2019-09-08T17:58:10.000Z,6-2,309,09/03/1992,Fresno State,DT,MIN,ATL,1,U.S. Bank Stadium,"Minneapolis, MN",Indoors,Field Turf,N/A (Indoors),,0,,
4802,2019090804,20190908041221,away,86.06,28.37,5.57,2.27,0.54,131.23,173.91,2555255,De'Vondre Campbell,59,2019,21,2,10:21:00,MIN,1,10,MIN,14,0,2557991,SINGLEBACK,"1 RB, 2 TE, 2 WR",7,"4 DL, 3 LB, 4 DB",left,2019-09-08T17:58:12.000Z,2019-09-08T17:58:10.000Z,6-3,232,07/01/1993,Minnesota,OLB,MIN,ATL,1,U.S. Bank Stadium,"Minneapolis, MN",Indoors,Field Turf,N/A (Indoors),,0,,
4803,2019090804,20190908041221,away,72.51,27.72,2.22,1.13,0.21,86.99,245.43,2555543,Keanu Neal,22,2019,21,2,10:21:00,MIN,1,10,MIN,14,0,2557991,SINGLEBACK,"1 RB, 2 TE, 2 WR",7,"4 DL, 3 LB, 4 DB",left,2019-09-08T17:58:12.000Z,2019-09-08T17:58:10.000Z,6-0,211,07/26/1995,Florida,FS,MIN,ATL,1,U.S. Bank Stadium,"Minneapolis, MN",Indoors,Field Turf,N/A (Indoors),,0,,
4804,2019090804,20190908041221,away,88.81,30.38,3.99,1.62,0.4,152.35,185.51,2557872,Takkarist McKinley,98,2019,21,2,10:21:00,MIN,1,10,MIN,14,0,2557991,SINGLEBACK,"1 RB, 2 TE, 2 WR",7,"4 DL, 3 LB, 4 DB",left,2019-09-08T17:58:12.000Z,2019-09-08T17:58:10.000Z,6-2,265,11/02/1995,UCLA,DE,MIN,ATL,1,U.S. Bank Stadium,"Minneapolis, MN",Indoors,Field Turf,N/A (Indoors),,0,,
4805,2019090804,20190908041221,away,88.04,33.57,4.22,2.07,0.41,143.87,184.78,2560830,Isaiah Oliver,26,2019,21,2,10:21:00,MIN,1,10,MIN,14,0,2557991,SINGLEBACK,"1 RB, 2 TE, 2 WR",7,"4 DL, 3 LB, 4 DB",left,2019-09-08T17:58:12.000Z,2019-09-08T17:58:10.000Z,6-0,210,09/30/1996,Colorado,CB,MIN,ATL,1,U.S. Bank Stadium,"Minneapolis, MN",Indoors,Field Turf,N/A (Indoors),,0,,
4806,2019090804,20190908041221,away,86.89,22.61,3.78,1.25,0.38,64.27,134.97,2561132,Foye Oluokun,54,2019,21,2,10:21:00,MIN,1,10,MIN,14,0,2557991,SINGLEBACK,"1 RB, 2 TE, 2 WR",7,"4 DL, 3 LB, 4 DB",left,2019-09-08T17:58:12.000Z,2019-09-08T17:58:10.000Z,6-2,215,08/02/1995,Yale,LB,MIN,ATL,1,U.S. Bank Stadium,"Minneapolis, MN",Indoors,Field Turf,N/A (Indoors),,0,,
4807,2019090804,20190908041221,home,90.56,21.8,3.02,0.61,0.3,213.19,179.2,2495438,Kyle Rudolph,82,2019,21,2,10:21:00,MIN,1,10,MIN,14,0,2557991,SINGLEBACK,"1 RB, 2 TE, 2 WR",7,"4 DL, 3 LB, 4 DB",left,2019-09-08T17:58:12.000Z,2019-09-08T17:58:10.000Z,6-6,265,11/09/1989,Notre Dame,TE,MIN,ATL,1,U.S. Bank Stadium,"Minneapolis, MN",Indoors,Field Turf,N/A (Indoors),,0,,
4808,2019090804,20190908041221,home,93.26,27.3,4.08,1.56,0.41,96.92,121.11,2532820,Kirk Cousins,8,2019,21,2,10:21:00,MIN,1,10,MIN,14,0,2557991,SINGLEBACK,"1 RB, 2 TE, 2 WR",7,"4 DL, 3 LB, 4 DB",left,2019-09-08T17:58:12.000Z,2019-09-08T17:58:10.000Z,6-3,202,08/19/1988,Michigan State,QB,MIN,ATL,1,U.S. Bank Stadium,"Minneapolis, MN",Indoors,Field Turf,N/A (Indoors),,0,,
4809,2019090804,20190908041221,home,88.74,23.8,3.63,1.12,0.36,240.92,190.67,2533042,Riley Reiff,71,2019,21,2,10:21:00,MIN,1,10,MIN,14,0,2557991,SINGLEBACK,"1 RB, 2 TE, 2 WR",7,"4 DL, 3 LB, 4 DB",left,2019-09-08T17:58:12.000Z,2019-09-08T17:58:10.000Z,6-6,305,12/01/1988,Iowa,T,MIN,ATL,1,U.S. Bank Stadium,"Minneapolis, MN",Indoors,Field Turf,N/A (Indoors),,0,,
4810,2019090804,20190908041221,home,88.24,27.67,4.53,0.96,0.45,253.09,208.45,2541142,Josh Kline,64,2019,21,2,10:21:00,MIN,1,10,MIN,14,0,2557991,SINGLEBACK,"1 RB, 2 TE, 2 WR",7,"4 DL, 3 LB, 4 DB",left,2019-09-08T17:58:12.000Z,2019-09-08T17:58:10.000Z,6-3,300,12/29/1989,Kent State,G,MIN,ATL,1,U.S. Bank Stadium,"Minneapolis, MN",Indoors,Field Turf,N/A (Indoors),,0,,
4811,2019090804,20190908041221,home,85.87,9.55,6.23,2.01,0.61,272.64,260.83,2541785,Adam Thielen,19,2019,21,2,10:21:00,MIN,1,10,MIN,14,0,2557991,SINGLEBACK,"1 RB, 2 TE, 2 WR",7,"4 DL, 3 LB, 4 DB",left,2019-09-08T17:58:12.000Z,2019-09-08T17:58:10.000Z,6-2,200,08/22/1990,Minn. State-Mankato,WR,MIN,ATL,1,U.S. Bank Stadium,"Minneapolis, MN",Indoors,Field Turf,N/A (Indoors),,0,,
4812,2019090804,20190908041221,home,94.15,26.52,5.63,2.51,0.55,232.61,215.18,2557991,Dalvin Cook,33,2019,21,2,10:21:00,MIN,1,10,MIN,14,0,2557991,SINGLEBACK,"1 RB, 2 TE, 2 WR",7,"4 DL, 3 LB, 4 DB",left,2019-09-08T17:58:12.000Z,2019-09-08T17:58:10.000Z,5-10,210,08/10/1995,Florida State,RB,MIN,ATL,1,U.S. Bank Stadium,"Minneapolis, MN",Indoors,Field Turf,N/A (Indoors),,0,,
4813,2019090804,20190908041221,home,89.59,24.82,2.58,1.79,0.27,314.83,196.01,2558848,Pat Elflein,65,2019,21,2,10:21:00,MIN,1,10,MIN,14,0,2557991,SINGLEBACK,"1 RB, 2 TE, 2 WR",7,"4 DL, 3 LB, 4 DB",left,2019-09-08T17:58:12.000Z,2019-09-08T17:58:10.000Z,6-3,303,07/06/1994,Ohio State,G,MIN,ATL,1,U.S. Bank Stadium,"Minneapolis, MN",Indoors,Field Turf,N/A (Indoors),,0,,
4814,2019090804,20190908041221,home,89.13,28.33,4.77,2.15,0.49,267.77,214.69,2560831,Brian O'Neill,75,2019,21,2,10:21:00,MIN,1,10,MIN,14,0,2557991,SINGLEBACK,"1 RB, 2 TE, 2 WR",7,"4 DL, 3 LB, 4 DB",left,2019-09-08T17:58:12.000Z,2019-09-08T17:58:10.000Z,6-7,297,09/15/1995,Pittsburgh,T,MIN,ATL,1,U.S. Bank Stadium,"Minneapolis, MN",Indoors,Field Turf,N/A (Indoors),,0,,
4815,2019090804,20190908041221,home,86.91,17.64,6.21,2.86,0.61,239.96,249.53,2561482,Chad Beebe,12,2019,21,2,10:21:00,MIN,1,10,MIN,14,0,2557991,SINGLEBACK,"1 RB, 2 TE, 2 WR",7,"4 DL, 3 LB, 4 DB",left,2019-09-08T17:58:12.000Z,2019-09-08T17:58:10.000Z,5-10,183,06/01/1994,Northern Illinois,WR,MIN,ATL,1,U.S. Bank Stadium,"Minneapolis, MN",Indoors,Field Turf,N/A (Indoors),,0,,
4816,2019090804,20190908041221,home,89.68,26.16,3.23,0.95,0.33,265.99,171.51,2562632,Garrett Bradbury,56,2019,21,2,10:21:00,MIN,1,10,MIN,14,0,2557991,SINGLEBACK,"1 RB, 2 TE, 2 WR",7,"4 DL, 3 LB, 4 DB",left,2019-09-08T17:58:12.000Z,2019-09-08T17:58:10.000Z,6-3,305,06/20/1995,North Carolina State,C,MIN,ATL,1,U.S. Bank Stadium,"Minneapolis, MN",Indoors,Field Turf,N/A (Indoors),,0,,
4817,2019090804,20190908041221,home,89.2,30.19,4.73,0.97,0.47,204.97,205.92,2562738,Irv Smith,84,2019,21,2,10:21:00,MIN,1,10,MIN,14,0,2557991,SINGLEBACK,"1 RB, 2 TE, 2 WR",7,"4 DL, 3 LB, 4 DB",left,2019-09-08T17:58:12.000Z,2019-09-08T17:58:10.000Z,6-2,240,08/09/1998,Alabama,TE,MIN,ATL,1,U.S. Bank Stadium,"Minneapolis, MN",Indoors,Field Turf,N/A (Indoors),,0,,
