,GameId,PlayId,Team,X,Y,S,A,Dis,Orientation,Dir,NflId,DisplayName,JerseyNumber,Season,YardLine,Quarter,GameClock,PossessionTeam,Down,Distance,FieldPosition,HomeScoreBeforePlay,VisitorScoreBeforePlay,NflIdRusher,OffenseFormation,OffensePersonnel,DefendersInTheBox,DefensePersonnel,PlayDirection,TimeHandoff,TimeSnap,PlayerHeight,PlayerWeight,PlayerBirthDate,PlayerCollegeName,Position,HomeTeamAbbr,VisitorTeamAbbr,Week,Stadium,Location,StadiumType,Turf,GameWeather,Temperature,Humidity,WindSpeed,WindDirection
36388,2019092204,20190922044000,away,20.74,18.45,1.32,1.84,0.13,75.96,258.77,4365,Brandon Carr,24,2019,18,4,04:55:00,KC,1,10,BLT,30,22,2562832,SHOTGUN,"1 RB, 2 TE, 2 WR",7,"2 DL, 4 LB, 5 DB",left,2019-09-22T19:57:45.000Z,2019-09-22T19:57:44.000Z,6-0,210,05/19/1986,Grand Valley State,CB,KC,BAL,3,Arrowhead Stadium,"Kansas City, MO",Outdoor,Natural Grass,,71.0,87,3,West
36389,2019092204,20190922044000,away,29.65,24.06,0.55,4.11,0.05,54.75,218.27,2495201,Pernell McPhee,90,2019,18,4,04:55:00,KC,1,10,BLT,30,22,2562832,SHOTGUN,"1 RB, 2 TE, 2 WR",7,"2 DL, 4 LB, 5 DB",left,2019-09-22T19:57:45.000Z,2019-09-22T19:57:44.000Z,6-3,265,12/17/1988,Mississippi State,OLB,KC,BAL,3,Arrowhead Stadium,"Kansas City, MO",Outdoor,Natural Grass,,71.0,87,3,West
36390,2019092204,20190922044000,away,20.34,27.74,1.96,1.21,0.19,70.14,64.59,2508080,Earl Thomas,29,2019,18,4,04:55:00,KC,1,10,BLT,30,22,2562832,SHOTGUN,"1 RB, 2 TE, 2 WR",7,"2 DL, 4 LB, 5 DB",left,2019-09-22T19:57:45.000Z,2019-09-22T19:57:44.000Z,5-10,202,05/07/1989,Texas,FS,KC,BAL,3,Arrowhead Stadium,"Kansas City, MO",Outdoor,Natural Grass,,71.0,87,3,West
36391,2019092204,20190922044000,away,22.3,37.29,4.93,4.01,0.47,16.3,353.14,2540164,Tony Jefferson,23,2019,18,4,04:55:00,KC,1,10,BLT,30,22,2562832,SHOTGUN,"1 RB, 2 TE, 2 WR",7,"2 DL, 4 LB, 5 DB",left,2019-09-22T19:57:45.000Z,2019-09-22T19:57:44.000Z,5-11,211,01/27/1992,Oklahoma,SS,KC,BAL,3,Arrowhead Stadium,"Kansas City, MO",Outdoor,Natural Grass,,71.0,87,3,West
36392,2019092204,20190922044000,away,26.35,29.62,2.29,1.59,0.23,102.69,238.23,2541302,Brandon Williams,98,2019,18,4,04:55:00,KC,1,10,BLT,30,22,2562832,SHOTGUN,"1 RB, 2 TE, 2 WR",7,"2 DL, 4 LB, 5 DB",left,2019-09-22T19:57:45.000Z,2019-09-22T19:57:44.000Z,6-1,336,02/21/1989,Missouri Southern,DT,KC,BAL,3,Arrowhead Stadium,"Kansas City, MO",Outdoor,Natural Grass,,71.0,87,3,West
36393,2019092204,20190922044000,away,28.46,32.92,1.82,2.2,0.2,147.71,145.8,2555505,Matt Judon,99,2019,18,4,04:55:00,KC,1,10,BLT,30,22,2562832,SHOTGUN,"1 RB, 2 TE, 2 WR",7,"2 DL, 4 LB, 5 DB",left,2019-09-22T19:57:45.000Z,2019-09-22T19:57:44.000Z,6-3,261,08/15/1992,Grand Valley State,OLB,KC,BAL,3,Arrowhead Stadium,"Kansas City, MO",Outdoor,Natural Grass,,71.0,87,3,West
36394,2019092204,20190922044000,away,24.25,31.17,1.76,0.79,0.17,104.57,134.61,2556642,Patrick Onwuasor,48,2019,18,4,04:55:00,KC,1,10,BLT,30,22,2562832,SHOTGUN,"1 RB, 2 TE, 2 WR",7,"2 DL, 4 LB, 5 DB",left,2019-09-22T19:57:45.000Z,2019-09-22T19:57:44.000Z,6-0,227,08/22/1992,Portland State,ILB,KC,BAL,3,Arrowhead Stadium,"Kansas City, MO",Outdoor,Natural Grass,,71.0,87,3,West
36395,2019092204,20190922044000,away,28.04,27.73,0.8,2.79,0.08,73.21,52.68,2556650,Michael Pierce,97,2019,18,4,04:55:00,KC,1,10,BLT,30,22,2562832,SHOTGUN,"1 RB, 2 TE, 2 WR",7,"2 DL, 4 LB, 5 DB",left,2019-09-22T19:57:45.000Z,2019-09-22T19:57:44.000Z,6-0,340,11/06/1992,Samford,DT,KC,BAL,3,Arrowhead Stadium,"Kansas City, MO",Outdoor,Natural Grass,,71.0,87,3,West
36396,2019092204,20190922044000,away,25.37,15.09,5.14,2.57,0.5,161.7,212.47,2558067,Marlon Humphrey,44,2019,18,4,04:55:00,KC,1,10,BLT,30,22,2562832,SHOTGUN,"1 RB, 2 TE, 2 WR",7,"2 DL, 4 LB, 5 DB",left,2019-09-22T19:57:45.000Z,2019-09-22T19:57:44.000Z,6-0,197,07/08/1996,Alabama,CB,KC,BAL,3,Arrowhead Stadium,"Kansas City, MO",Outdoor,Natural Grass,,71.0,87,3,West
36397,2019092204,20190922044000,away,24.62,39.75,4.65,1.73,0.46,93.79,308.19,2558248,Chuck Clark,36,2019,18,4,04:55:00,KC,1,10,BLT,30,22,2562832,SHOTGUN,"1 RB, 2 TE, 2 WR",7,"2 DL, 4 LB, 5 DB",left,2019-09-22T19:57:45.000Z,2019-09-22T19:57:44.000Z,6-0,205,04/19/1995,Virginia Tech,FS,KC,BAL,3,Arrowhead Stadium,"Kansas City, MO",Outdoor,Natural Grass,,71.0,87,3,West
36398,2019092204,20190922044000,away,27.76,26.38,0.65,3.7,0.05,75.43,288.53,2560947,Kenny Young,40,2019,18,4,04:55:00,KC,1,10,BLT,30,22,2562832,SHOTGUN,"1 RB, 2 TE, 2 WR",7,"2 DL, 4 LB, 5 DB",left,2019-09-22T19:57:45.000Z,2019-09-22T19:57:44.000Z,6-1,235,11/15/1994,UCLA,LB,KC,BAL,3,Arrowhead Stadium,"Kansas City, MO",Outdoor,Natural Grass,,71.0,87,3,West
36399,2019092204,20190922044000,home,26.92,29.98,2.29,1.28,0.24,242.75,232.06,2532945,Mitchell Schwartz,71,2019,18,4,04:55:00,KC,1,10,BLT,30,22,2562832,SHOTGUN,"1 RB, 2 TE, 2 WR",7,"2 DL, 4 LB, 5 DB",left,2019-09-22T19:57:45.000Z,2019-09-22T19:57:44.000Z,6-5,320,06/08/1989,California,T,KC,BAL,3,Arrowhead Stadium,"Kansas City, MO",Outdoor,Natural Grass,,71.0,87,3,West
36400,2019092204,20190922044000,home,25.21,39.52,4.53,0.82,0.46,307.16,305.51,2540258,Travis Kelce,87,2019,18,4,04:55:00,KC,1,10,BLT,30,22,2562832,SHOTGUN,"1 RB, 2 TE, 2 WR",7,"2 DL, 4 LB, 5 DB",left,2019-09-22T19:57:45.000Z,2019-09-22T19:57:44.000Z,6-5,260,10/05/1989,Cincinnati,TE,KC,BAL,3,Arrowhead Stadium,"Kansas City, MO",Outdoor,Natural Grass,,71.0,87,3,West
36401,2019092204,20190922044000,home,26.37,14.46,6.59,1.85,0.65,254.91,221.49,2543457,Sammy Watkins,14,2019,18,4,04:55:00,KC,1,10,BLT,30,22,2562832,SHOTGUN,"1 RB, 2 TE, 2 WR",7,"2 DL, 4 LB, 5 DB",left,2019-09-22T19:57:45.000Z,2019-09-22T19:57:44.000Z,6-1,211,06/14/1993,Clemson,WR,KC,BAL,3,Arrowhead Stadium,"Kansas City, MO",Outdoor,Natural Grass,,71.0,87,3,West
36402,2019092204,20190922044000,home,27.2,29.4,2.05,0.72,0.21,280.61,231.16,2543816,Laurent Duvernay-Tardif,76,2019,18,4,04:55:00,KC,1,10,BLT,30,22,2562832,SHOTGUN,"1 RB, 2 TE, 2 WR",7,"2 DL, 4 LB, 5 DB",left,2019-09-22T19:57:45.000Z,2019-09-22T19:57:44.000Z,6-5,321,02/11/1991,McGill,G,KC,BAL,3,Arrowhead Stadium,"Kansas City, MO",Outdoor,Natural Grass,,71.0,87,3,West
36403,2019092204,20190922044000,home,29.98,24.66,1.38,0.91,0.15,170.87,143.62,2552240,Cameron Erving,75,2019,18,4,04:55:00,KC,1,10,BLT,30,22,2562832,SHOTGUN,"1 RB, 2 TE, 2 WR",7,"2 DL, 4 LB, 5 DB",left,2019-09-22T19:57:45.000Z,2019-09-22T19:57:44.000Z,6-5,313,08/23/1992,Florida State,G,KC,BAL,3,Arrowhead Stadium,"Kansas City, MO",Outdoor,Natural Grass,,71.0,87,3,West
36404,2019092204,20190922044000,home,28.08,39.03,6.16,1.09,0.61,41.83,341.7,2552478,Blake Bell,81,2019,18,4,04:55:00,KC,1,10,BLT,30,22,2562832,SHOTGUN,"1 RB, 2 TE, 2 WR",7,"2 DL, 4 LB, 5 DB",left,2019-09-22T19:57:45.000Z,2019-09-22T19:57:44.000Z,6-6,252,08/07/1991,Oklahoma,TE,KC,BAL,3,Arrowhead Stadium,"Kansas City, MO",Outdoor,Natural Grass,,71.0,87,3,West
36405,2019092204,20190922044000,home,29.16,27.2,1.65,2.26,0.17,334.37,135.5,2553452,Austin Reiter,62,2019,18,4,04:55:00,KC,1,10,BLT,30,22,2562832,SHOTGUN,"1 RB, 2 TE, 2 WR",7,"2 DL, 4 LB, 5 DB",left,2019-09-22T19:57:45.000Z,2019-09-22T19:57:44.000Z,6-3,300,11/27/1991,South Florida,C,KC,BAL,3,Arrowhead Stadium,"Kansas City, MO",Outdoor,Natural Grass,,71.0,87,3,West
36406,2019092204,20190922044000,home,23.72,19.85,3.81,3.48,0.39,261.36,267.43,2555478,Demarcus Robinson,11,2019,18,4,04:55:00,KC,1,10,BLT,30,22,2562832,SHOTGUN,"1 RB, 2 TE, 2 WR",7,"2 DL, 4 LB, 5 DB",left,2019-09-22T19:57:45.000Z,2019-09-22T19:57:44.000Z,6-1,203,09/21/1994,Florida,WR,KC,BAL,3,Arrowhead Stadium,"Kansas City, MO",Outdoor,Natural Grass,,71.0,87,3,West
36407,2019092204,20190922044000,home,31.4,30.05,1.75,2.67,0.16,317.03,320.71,2558125,Patrick Mahomes,15,2019,18,4,04:55:00,KC,1,10,BLT,30,22,2562832,SHOTGUN,"1 RB, 2 TE, 2 WR",7,"2 DL, 4 LB, 5 DB",left,2019-09-22T19:57:45.000Z,2019-09-22T19:57:44.000Z,6-3,230,09/17/1995,Texas Tech,QB,KC,BAL,3,Arrowhead Stadium,"Kansas City, MO",Outdoor,Natural Grass,,71.0,87,3,West
36408,2019092204,20190922044000,home,28.27,26.55,1.09,2.39,0.11,275.42,213.16,2559354,Andrew Wylie,77,2019,18,4,04:55:00,KC,1,10,BLT,30,22,2562832,SHOTGUN,"1 RB, 2 TE, 2 WR",7,"2 DL, 4 LB, 5 DB",left,2019-09-22T19:57:45.000Z,2019-09-22T19:57:44.000Z,6-6,309,08/19/1994,Eastern Michigan,OT,KC,BAL,3,Arrowhead Stadium,"Kansas City, MO",Outdoor,Natural Grass,,71.0,87,3,West
36409,2019092204,20190922044000,home,30.82,29.99,4.23,2.44,0.42,252.16,246.01,2562832,Darwin Thompson,34,2019,18,4,04:55:00,KC,1,10,BLT,30,22,2562832,SHOTGUN,"1 RB, 2 TE, 2 WR",7,"2 DL, 4 LB, 5 DB",left,2019-09-22T19:57:45.000Z,2019-09-22T19:57:44.000Z,5-8,200,02/12/1997,Utah State,RB,KC,BAL,3,Arrowhead Stadium,"Kansas City, MO",Outdoor,Natural Grass,,71.0,87,3,West
