,GameId,PlayId,Team,X,Y,S,A,Dis,Orientation,Dir,NflId,DisplayName,JerseyNumber,Season,YardLine,Quarter,GameClock,PossessionTeam,Down,Distance,FieldPosition,HomeScoreBeforePlay,VisitorScoreBeforePlay,NflIdRusher,OffenseFormation,OffensePersonnel,DefendersInTheBox,DefensePersonnel,PlayDirection,TimeHandoff,TimeSnap,PlayerHeight,PlayerWeight,PlayerBirthDate,PlayerCollegeName,Position,HomeTeamAbbr,VisitorTeamAbbr,Week,Stadium,Location,StadiumType,Turf,GameWeather,Temperature,Humidity,WindSpeed,WindDirection
44,2019090500,20190905000403,away,20.47,17.68,2.98,1.05,0.3,160.89,190.24,496988,Bryan Bulaga,75,2019,12,1,09:33:00,GB,2,10,GB,0,0,2558116,SINGLEBACK,"1 RB, 1 TE, 3 WR",6,"2 DL, 4 LB, 5 DB",right,2019-09-06T00:35:35.000Z,2019-09-06T00:35:34.000Z,6-5,314,03/21/1989,Iowa,OT,CHI,GB,1,Soldier Field,Chicago,Outdoor,Natural Grass,Clear,65.0,69,10,E
45,2019090500,20190905000403,away,20.11,21.36,3.95,2.11,0.39,52.91,29.51,497236,Jimmy Graham,80,2019,12,1,09:33:00,GB,2,10,GB,0,0,2558116,SINGLEBACK,"1 RB, 1 TE, 3 WR",6,"2 DL, 4 LB, 5 DB",right,2019-09-06T00:35:35.000Z,2019-09-06T00:35:34.000Z,6-7,265,11/24/1986,Miami,TE,CHI,GB,1,Soldier Field,Chicago,Outdoor,Natural Grass,Clear,65.0,69,10,E
46,2019090500,20190905000403,away,17.54,21.95,4.36,3.3,0.44,266.58,251.96,2506363,Aaron Rodgers,12,2019,12,1,09:33:00,GB,2,10,GB,0,0,2558116,SINGLEBACK,"1 RB, 1 TE, 3 WR",6,"2 DL, 4 LB, 5 DB",right,2019-09-06T00:35:35.000Z,2019-09-06T00:35:34.000Z,6-2,225,12/02/1983,California,QB,CHI,GB,1,Soldier Field,Chicago,Outdoor,Natural Grass,Clear,65.0,69,10,E
47,2019090500,20190905000403,away,21.64,23.44,4.17,1.58,0.42,114.06,173.22,2540183,David Bakhtiari,69,2019,12,1,09:33:00,GB,2,10,GB,0,0,2558116,SINGLEBACK,"1 RB, 1 TE, 3 WR",6,"2 DL, 4 LB, 5 DB",right,2019-09-06T00:35:35.000Z,2019-09-06T00:35:34.000Z,6-4,310,09/30/1991,Colorado,T,CHI,GB,1,Soldier Field,Chicago,Outdoor,Natural Grass,Clear,65.0,69,10,E
48,2019090500,20190905000403,away,22.56,21.99,4.33,0.85,0.45,108.36,150.22,2541898,Lane Taylor,65,2019,12,1,09:33:00,GB,2,10,GB,0,0,2558116,SINGLEBACK,"1 RB, 1 TE, 3 WR",6,"2 DL, 4 LB, 5 DB",right,2019-09-06T00:35:35.000Z,2019-09-06T00:35:34.000Z,6-3,324,11/22/1989,Oklahoma State,G,CHI,GB,1,Soldier Field,Chicago,Outdoor,Natural Grass,Clear,65.0,69,10,E
49,2019090500,20190905000403,away,23.73,16.88,5.05,1.57,0.5,89.36,68.26,2543495,Davante Adams,17,2019,12,1,09:33:00,GB,2,10,GB,0,0,2558116,SINGLEBACK,"1 RB, 1 TE, 3 WR",6,"2 DL, 4 LB, 5 DB",right,2019-09-06T00:35:35.000Z,2019-09-06T00:35:34.000Z,6-1,215,12/24/1992,Fresno State,WR,CHI,GB,1,Soldier Field,Chicago,Outdoor,Natural Grass,Clear,65.0,69,10,E
50,2019090500,20190905000403,away,21.48,20.31,3.65,0.88,0.38,120.16,170.67,2543631,Corey Linsley,63,2019,12,1,09:33:00,GB,2,10,GB,0,0,2558116,SINGLEBACK,"1 RB, 1 TE, 3 WR",6,"2 DL, 4 LB, 5 DB",right,2019-09-06T00:35:35.000Z,2019-09-06T00:35:34.000Z,6-3,301,07/27/1991,Ohio State,C,CHI,GB,1,Soldier Field,Chicago,Outdoor,Natural Grass,Clear,65.0,69,10,E
51,2019090500,20190905000403,away,22.03,19.68,4.06,1.32,0.4,101.77,156.05,2543740,Billy Turner,77,2019,12,1,09:33:00,GB,2,10,GB,0,0,2558116,SINGLEBACK,"1 RB, 1 TE, 3 WR",6,"2 DL, 4 LB, 5 DB",right,2019-09-06T00:35:35.000Z,2019-09-06T00:35:34.000Z,6-5,310,10/17/1991,North Dakota State,OG,CHI,GB,1,Soldier Field,Chicago,Outdoor,Natural Grass,Clear,65.0,69,10,E
52,2019090500,20190905000403,away,22.88,27.84,4.79,1.58,0.47,105.9,125.24,2556460,Geronimo Allison,81,2019,12,1,09:33:00,GB,2,10,GB,0,0,2558116,SINGLEBACK,"1 RB, 1 TE, 3 WR",6,"2 DL, 4 LB, 5 DB",right,2019-09-06T00:35:35.000Z,2019-09-06T00:35:34.000Z,6-3,202,01/18/1994,Illinois,WR,CHI,GB,1,Soldier Field,Chicago,Outdoor,Natural Grass,Clear,65.0,69,10,E
53,2019090500,20190905000403,away,16.89,21.36,5.68,3.5,0.56,110.44,126.36,2558116,Aaron Jones,33,2019,12,1,09:33:00,GB,2,10,GB,0,0,2558116,SINGLEBACK,"1 RB, 1 TE, 3 WR",6,"2 DL, 4 LB, 5 DB",right,2019-09-06T00:35:35.000Z,2019-09-06T00:35:34.000Z,5-9,208,12/02/1994,Texas-El Paso,RB,CHI,GB,1,Soldier Field,Chicago,Outdoor,Natural Grass,Clear,65.0,69,10,E
54,2019090500,20190905000403,away,23.38,32.6,5.17,3.36,0.5,99.8,127.48,2560907,Marquez Valdes-Scantling,83,2019,12,1,09:33:00,GB,2,10,GB,0,0,2558116,SINGLEBACK,"1 RB, 1 TE, 3 WR",6,"2 DL, 4 LB, 5 DB",right,2019-09-06T00:35:35.000Z,2019-09-06T00:35:34.000Z,6-4,207,10/10/1994,South Florida,WR,CHI,GB,1,Soldier Field,Chicago,Outdoor,Natural Grass,Clear,65.0,69,10,E
55,2019090500,20190905000403,home,24.69,33.87,4.57,3.56,0.44,180.98,128.29,2495108,Prince Amukamara,20,2019,12,1,09:33:00,GB,2,10,GB,0,0,2558116,SINGLEBACK,"1 RB, 1 TE, 3 WR",6,"2 DL, 4 LB, 5 DB",right,2019-09-06T00:35:35.000Z,2019-09-06T00:35:34.000Z,6-0,204,06/06/1989,Nebraska,CB,CHI,GB,1,Soldier Field,Chicago,Outdoor,Natural Grass,Clear,65.0,69,10,E
56,2019090500,20190905000403,home,24.65,27.98,4.24,3.08,0.41,240.0,179.58,2495343,Buster Skrine,24,2019,12,1,09:33:00,GB,2,10,GB,0,0,2558116,SINGLEBACK,"1 RB, 1 TE, 3 WR",6,"2 DL, 4 LB, 5 DB",right,2019-09-06T00:35:35.000Z,2019-09-06T00:35:34.000Z,5-9,185,04/26/1989,Chattanooga,CB,CHI,GB,1,Soldier Field,Chicago,Outdoor,Natural Grass,Clear,65.0,69,10,E
57,2019090500,20190905000403,home,24.82,22.84,1.93,0.47,0.19,257.86,214.16,2532961,Danny Trevathan,59,2019,12,1,09:33:00,GB,2,10,GB,0,0,2558116,SINGLEBACK,"1 RB, 1 TE, 3 WR",6,"2 DL, 4 LB, 5 DB",right,2019-09-06T00:35:35.000Z,2019-09-06T00:35:34.000Z,6-0,239,03/24/1990,Kentucky,ILB,CHI,GB,1,Soldier Field,Chicago,Outdoor,Natural Grass,Clear,65.0,69,10,E
58,2019090500,20190905000403,home,22.51,20.33,3.35,0.89,0.35,234.93,170.65,2533433,Akiem Hicks,96,2019,12,1,09:33:00,GB,2,10,GB,0,0,2558116,SINGLEBACK,"1 RB, 1 TE, 3 WR",6,"2 DL, 4 LB, 5 DB",right,2019-09-06T00:35:35.000Z,2019-09-06T00:35:34.000Z,6-4,352,11/16/1989,"Regina, Can.",DT,CHI,GB,1,Soldier Field,Chicago,Outdoor,Natural Grass,Clear,65.0,69,10,E
59,2019090500,20190905000403,home,21.6,25.85,4.63,3.28,0.46,203.54,179.35,2543463,Khalil Mack,52,2019,12,1,09:33:00,GB,2,10,GB,0,0,2558116,SINGLEBACK,"1 RB, 1 TE, 3 WR",6,"2 DL, 4 LB, 5 DB",right,2019-09-06T00:35:35.000Z,2019-09-06T00:35:34.000Z,6-3,269,02/22/1991,Buffalo,OLB,CHI,GB,1,Soldier Field,Chicago,Outdoor,Natural Grass,Clear,65.0,69,10,E
60,2019090500,20190905000403,home,36.37,20.52,3.01,3.08,0.31,271.01,241.61,2543470,Ha Ha Clinton-Dix,21,2019,12,1,09:33:00,GB,2,10,GB,0,0,2558116,SINGLEBACK,"1 RB, 1 TE, 3 WR",6,"2 DL, 4 LB, 5 DB",right,2019-09-06T00:35:35.000Z,2019-09-06T00:35:34.000Z,6-1,211,12/21/1992,Alabama,FS,CHI,GB,1,Soldier Field,Chicago,Outdoor,Natural Grass,Clear,65.0,69,10,E
61,2019090500,20190905000403,home,32.23,12.63,3.14,2.33,0.32,298.71,66.79,2543681,Kyle Fuller,23,2019,12,1,09:33:00,GB,2,10,GB,0,0,2558116,SINGLEBACK,"1 RB, 1 TE, 3 WR",6,"2 DL, 4 LB, 5 DB",right,2019-09-06T00:35:35.000Z,2019-09-06T00:35:34.000Z,5-11,194,02/16/1992,Virginia Tech,CB,CHI,GB,1,Soldier Field,Chicago,Outdoor,Natural Grass,Clear,65.0,69,10,E
62,2019090500,20190905000403,home,22.11,23.0,4.87,1.88,0.48,187.48,190.41,2552489,Eddie Goldman,91,2019,12,1,09:33:00,GB,2,10,GB,0,0,2558116,SINGLEBACK,"1 RB, 1 TE, 3 WR",6,"2 DL, 4 LB, 5 DB",right,2019-09-06T00:35:35.000Z,2019-09-06T00:35:34.000Z,6-3,320,01/06/1994,Florida State,NT,CHI,GB,1,Soldier Field,Chicago,Outdoor,Natural Grass,Clear,65.0,69,10,E
63,2019090500,20190905000403,home,20.73,16.66,2.76,2.36,0.28,313.42,212.21,2555285,Leonard Floyd,94,2019,12,1,09:33:00,GB,2,10,GB,0,0,2558116,SINGLEBACK,"1 RB, 1 TE, 3 WR",6,"2 DL, 4 LB, 5 DB",right,2019-09-06T00:35:35.000Z,2019-09-06T00:35:34.000Z,6-5,240,09/08/1992,Georgia,OLB,CHI,GB,1,Soldier Field,Chicago,Outdoor,Natural Grass,Clear,65.0,69,10,E
64,2019090500,20190905000403,home,31.99,28.89,1.27,0.57,0.12,265.21,150.36,2558176,Eddie Jackson,39,2019,12,1,09:33:00,GB,2,10,GB,0,0,2558116,SINGLEBACK,"1 RB, 1 TE, 3 WR",6,"2 DL, 4 LB, 5 DB",right,2019-09-06T00:35:35.000Z,2019-09-06T00:35:34.000Z,6-0,202,12/10/1993,Alabama,FS,CHI,GB,1,Soldier Field,Chicago,Outdoor,Natural Grass,Clear,65.0,69,10,E
65,2019090500,20190905000403,home,24.54,19.0,3.17,1.87,0.31,270.71,200.04,2560877,Roquan Smith,58,2019,12,1,09:33:00,GB,2,10,GB,0,0,2558116,SINGLEBACK,"1 RB, 1 TE, 3 WR",6,"2 DL, 4 LB, 5 DB",right,2019-09-06T00:35:35.000Z,2019-09-06T00:35:34.000Z,6-0,230,04/08/1997,Georgia,LB,CHI,GB,1,Soldier Field,Chicago,Outdoor,Natural Grass,Clear,65.0,69,10,E
