,GameId,PlayId,Team,X,Y,S,A,Dis,Orientation,Dir,NflId,DisplayName,JerseyNumber,Season,YardLine,Quarter,GameClock,PossessionTeam,Down,Distance,FieldPosition,HomeScoreBeforePlay,VisitorScoreBeforePlay,NflIdRusher,OffenseFormation,OffensePersonnel,DefendersInTheBox,DefensePersonnel,PlayDirection,TimeHandoff,TimeSnap,PlayerHeight,PlayerWeight,PlayerBirthDate,PlayerCollegeName,Position,HomeTeamAbbr,VisitorTeamAbbr,Week,Stadium,Location,StadiumType,Turf,GameWeather,Temperature,Humidity,WindSpeed,WindDirection
19690,2019091503,20190915033813,away,88.59,31.95,4.46,1.81,0.44,72.63,42.4,2495438,Kyle Rudolph,82,2019,22,4,05:59:00,MIN,1,10,GB,21,16,2562682,SINGLEBACK,"1 RB, 2 TE, 2 WR",7,"3 DL, 4 LB, 4 DB",right,2019-09-15T19:58:46.000Z,2019-09-15T19:58:45.000Z,6-6,265,11/09/1989,Notre Dame,TE,GB,MIN,2,Lambeau Field,"Green Bay, WI",Outdoor,SISGrass,Cloudy,72.0,75,5,South
19691,2019091503,20190915033813,away,83.58,25.62,4.57,1.74,0.45,289.84,292.53,2532820,Kirk Cousins,8,2019,22,4,05:59:00,MIN,1,10,GB,21,16,2562682,SINGLEBACK,"1 RB, 2 TE, 2 WR",7,"3 DL, 4 LB, 4 DB",right,2019-09-15T19:58:46.000Z,2019-09-15T19:58:45.000Z,6-3,202,08/19/1988,Michigan State,QB,GB,MIN,2,Lambeau Field,"Green Bay, WI",Outdoor,SISGrass,Cloudy,72.0,75,5,South
19692,2019091503,20190915033813,away,87.4,29.8,2.64,0.92,0.27,18.28,355.3,2533042,Riley Reiff,71,2019,22,4,05:59:00,MIN,1,10,GB,21,16,2562682,SINGLEBACK,"1 RB, 2 TE, 2 WR",7,"3 DL, 4 LB, 4 DB",right,2019-09-15T19:58:46.000Z,2019-09-15T19:58:45.000Z,6-6,305,12/01/1988,Iowa,T,GB,MIN,2,Lambeau Field,"Green Bay, WI",Outdoor,SISGrass,Cloudy,72.0,75,5,South
19693,2019091503,20190915033813,away,87.86,26.72,4.69,1.23,0.49,61.01,17.86,2541142,Josh Kline,64,2019,22,4,05:59:00,MIN,1,10,GB,21,16,2562682,SINGLEBACK,"1 RB, 2 TE, 2 WR",7,"3 DL, 4 LB, 4 DB",right,2019-09-15T19:58:46.000Z,2019-09-15T19:58:45.000Z,6-3,300,12/29/1989,Kent State,G,GB,MIN,2,Lambeau Field,"Green Bay, WI",Outdoor,SISGrass,Cloudy,72.0,75,5,South
19694,2019091503,20190915033813,away,85.88,24.0,5.17,2.0,0.51,188.3,173.95,2541785,Adam Thielen,19,2019,22,4,05:59:00,MIN,1,10,GB,21,16,2562682,SINGLEBACK,"1 RB, 2 TE, 2 WR",7,"3 DL, 4 LB, 4 DB",right,2019-09-15T19:58:46.000Z,2019-09-15T19:58:45.000Z,6-2,200,08/22/1990,Minn. State-Mankato,WR,GB,MIN,2,Lambeau Field,"Green Bay, WI",Outdoor,SISGrass,Cloudy,72.0,75,5,South
19695,2019091503,20190915033813,away,86.51,28.67,3.57,0.26,0.37,66.87,344.61,2543805,Dakota Dozier,78,2019,22,4,05:59:00,MIN,1,10,GB,21,16,2562682,SINGLEBACK,"1 RB, 2 TE, 2 WR",7,"3 DL, 4 LB, 4 DB",right,2019-09-15T19:58:46.000Z,2019-09-15T19:58:45.000Z,6-4,313,04/30/1991,Furman,G,GB,MIN,2,Lambeau Field,"Green Bay, WI",Outdoor,SISGrass,Cloudy,72.0,75,5,South
19696,2019091503,20190915033813,away,89.28,11.61,3.74,1.61,0.37,94.63,53.86,2552608,Stefon Diggs,14,2019,22,4,05:59:00,MIN,1,10,GB,21,16,2562682,SINGLEBACK,"1 RB, 2 TE, 2 WR",7,"3 DL, 4 LB, 4 DB",right,2019-09-15T19:58:46.000Z,2019-09-15T19:58:45.000Z,6-0,191,11/29/1993,Maryland,WR,GB,MIN,2,Lambeau Field,"Green Bay, WI",Outdoor,SISGrass,Cloudy,72.0,75,5,South
19697,2019091503,20190915033813,away,87.49,25.37,4.68,0.56,0.5,87.84,12.03,2560831,Brian O'Neill,75,2019,22,4,05:59:00,MIN,1,10,GB,21,16,2562682,SINGLEBACK,"1 RB, 2 TE, 2 WR",7,"3 DL, 4 LB, 4 DB",right,2019-09-15T19:58:46.000Z,2019-09-15T19:58:45.000Z,6-7,297,09/15/1995,Pittsburgh,T,GB,MIN,2,Lambeau Field,"Green Bay, WI",Outdoor,SISGrass,Cloudy,72.0,75,5,South
19698,2019091503,20190915033813,away,88.67,27.63,3.83,0.56,0.41,53.8,18.24,2562632,Garrett Bradbury,56,2019,22,4,05:59:00,MIN,1,10,GB,21,16,2562682,SINGLEBACK,"1 RB, 2 TE, 2 WR",7,"3 DL, 4 LB, 4 DB",right,2019-09-15T19:58:46.000Z,2019-09-15T19:58:45.000Z,6-3,305,06/20/1995,North Carolina State,C,GB,MIN,2,Lambeau Field,"Green Bay, WI",Outdoor,SISGrass,Cloudy,72.0,75,5,South
19699,2019091503,20190915033813,away,81.48,27.73,5.77,2.31,0.57,67.51,10.6,2562682,Alexander Mattison,25,2019,22,4,05:59:00,MIN,1,10,GB,21,16,2562682,SINGLEBACK,"1 RB, 2 TE, 2 WR",7,"3 DL, 4 LB, 4 DB",right,2019-09-15T19:58:46.000Z,2019-09-15T19:58:45.000Z,5-11,220,06/19/1998,Boise State,RB,GB,MIN,2,Lambeau Field,"Green Bay, WI",Outdoor,SISGrass,Cloudy,72.0,75,5,South
19700,2019091503,20190915033813,away,86.98,30.52,3.25,2.4,0.32,111.35,16.5,2562738,Irv Smith,84,2019,22,4,05:59:00,MIN,1,10,GB,21,16,2562682,SINGLEBACK,"1 RB, 2 TE, 2 WR",7,"3 DL, 4 LB, 4 DB",right,2019-09-15T19:58:46.000Z,2019-09-15T19:58:45.000Z,6-2,240,08/09/1998,Alabama,TE,GB,MIN,2,Lambeau Field,"Green Bay, WI",Outdoor,SISGrass,Cloudy,72.0,75,5,South
19701,2019091503,20190915033813,home,87.83,30.28,2.14,3.39,0.2,201.3,343.9,2552276,Preston Smith,91,2019,22,4,05:59:00,MIN,1,10,GB,21,16,2562682,SINGLEBACK,"1 RB, 2 TE, 2 WR",7,"3 DL, 4 LB, 4 DB",right,2019-09-15T19:58:46.000Z,2019-09-15T19:58:45.000Z,6-5,265,11/17/1992,Mississippi State,OLB,GB,MIN,2,Lambeau Field,"Green Bay, WI",Outdoor,SISGrass,Cloudy,72.0,75,5,South
19702,2019091503,20190915033813,home,103.35,22.1,2.37,1.88,0.23,267.26,72.31,2552385,Adrian Amos,31,2019,22,4,05:59:00,MIN,1,10,GB,21,16,2562682,SINGLEBACK,"1 RB, 2 TE, 2 WR",7,"3 DL, 4 LB, 4 DB",right,2019-09-15T19:58:46.000Z,2019-09-15T19:58:45.000Z,6-0,214,04/29/1993,Penn State,FS,GB,MIN,2,Lambeau Field,"Green Bay, WI",Outdoor,SISGrass,Cloudy,72.0,75,5,South
19703,2019091503,20190915033813,home,91.57,26.47,4.1,1.85,0.41,286.72,337.62,2555161,Blake Martinez,50,2019,22,4,05:59:00,MIN,1,10,GB,21,16,2562682,SINGLEBACK,"1 RB, 2 TE, 2 WR",7,"3 DL, 4 LB, 4 DB",right,2019-09-15T19:58:46.000Z,2019-09-15T19:58:45.000Z,6-2,237,01/09/1994,Stanford,ILB,GB,MIN,2,Lambeau Field,"Green Bay, WI",Outdoor,SISGrass,Cloudy,72.0,75,5,South
19704,2019091503,20190915033813,home,87.12,28.53,3.18,1.98,0.32,319.42,344.02,2555274,Dean Lowry,94,2019,22,4,05:59:00,MIN,1,10,GB,21,16,2562682,SINGLEBACK,"1 RB, 2 TE, 2 WR",7,"3 DL, 4 LB, 4 DB",right,2019-09-15T19:58:46.000Z,2019-09-15T19:58:45.000Z,6-6,296,06/09/1994,Northwestern,DE,GB,MIN,2,Lambeau Field,"Green Bay, WI",Outdoor,SISGrass,Cloudy,72.0,75,5,South
19705,2019091503,20190915033813,home,88.96,27.01,3.96,1.4,0.39,329.01,14.96,2555282,Kenny Clark,97,2019,22,4,05:59:00,MIN,1,10,GB,21,16,2562682,SINGLEBACK,"1 RB, 2 TE, 2 WR",7,"3 DL, 4 LB, 4 DB",right,2019-09-15T19:58:46.000Z,2019-09-15T19:58:45.000Z,6-3,314,10/04/1995,UCLA,NT,GB,MIN,2,Lambeau Field,"Green Bay, WI",Outdoor,SISGrass,Cloudy,72.0,75,5,South
19706,2019091503,20190915033813,home,86.83,22.01,3.86,1.97,0.39,317.02,328.39,2555340,Kyler Fackrell,51,2019,22,4,05:59:00,MIN,1,10,GB,21,16,2562682,SINGLEBACK,"1 RB, 2 TE, 2 WR",7,"3 DL, 4 LB, 4 DB",right,2019-09-15T19:58:46.000Z,2019-09-15T19:58:45.000Z,6-5,245,11/25/1991,Utah State,OLB,GB,MIN,2,Lambeau Field,"Green Bay, WI",Outdoor,SISGrass,Cloudy,72.0,75,5,South
19707,2019091503,20190915033813,home,92.64,31.9,3.34,3.52,0.32,305.2,3.05,2555522,B.J. Goodson,93,2019,22,4,05:59:00,MIN,1,10,GB,21,16,2562682,SINGLEBACK,"1 RB, 2 TE, 2 WR",7,"3 DL, 4 LB, 4 DB",right,2019-09-15T19:58:46.000Z,2019-09-15T19:58:45.000Z,6-1,242,05/29/1993,Clemson,ILB,GB,MIN,2,Lambeau Field,"Green Bay, WI",Outdoor,SISGrass,Cloudy,72.0,75,5,South
19708,2019091503,20190915033813,home,93.71,24.51,5.37,2.77,0.53,207.89,186.29,2557996,Kevin King,20,2019,22,4,05:59:00,MIN,1,10,GB,21,16,2562682,SINGLEBACK,"1 RB, 2 TE, 2 WR",7,"3 DL, 4 LB, 4 DB",right,2019-09-15T19:58:46.000Z,2019-09-15T19:58:45.000Z,6-3,200,05/05/1995,Washington,CB,GB,MIN,2,Lambeau Field,"Green Bay, WI",Outdoor,SISGrass,Cloudy,72.0,75,5,South
19709,2019091503,20190915033813,home,90.9,10.56,4.48,3.24,0.43,315.53,68.78,2560952,Jaire Alexander,23,2019,22,4,05:59:00,MIN,1,10,GB,21,16,2562682,SINGLEBACK,"1 RB, 2 TE, 2 WR",7,"3 DL, 4 LB, 4 DB",right,2019-09-15T19:58:46.000Z,2019-09-15T19:58:45.000Z,5-10,196,02/09/1997,Louisville,CB,GB,MIN,2,Lambeau Field,"Green Bay, WI",Outdoor,SISGrass,Cloudy,72.0,75,5,South
19710,2019091503,20190915033813,home,88.39,25.39,4.68,1.54,0.48,286.11,4.02,2561227,Tyler Lancaster,95,2019,22,4,05:59:00,MIN,1,10,GB,21,16,2562682,SINGLEBACK,"1 RB, 2 TE, 2 WR",7,"3 DL, 4 LB, 4 DB",right,2019-09-15T19:58:46.000Z,2019-09-15T19:58:45.000Z,6-3,315,11/04/1994,Northwestern,DT,GB,MIN,2,Lambeau Field,"Green Bay, WI",Outdoor,SISGrass,Cloudy,72.0,75,5,South
19711,2019091503,20190915033813,home,93.97,30.41,0.93,2.02,0.1,264.07,3.85,2562724,Darnell Savage,26,2019,22,4,05:59:00,MIN,1,10,GB,21,16,2562682,SINGLEBACK,"1 RB, 2 TE, 2 WR",7,"3 DL, 4 LB, 4 DB",right,2019-09-15T19:58:46.000Z,2019-09-15T19:58:45.000Z,5-11,200,07/30/1997,Maryland,DB,GB,MIN,2,Lambeau Field,"Green Bay, WI",Outdoor,SISGrass,Cloudy,72.0,75,5,South
