,GameId,PlayId,Team,X,Y,S,A,Dis,Orientation,Dir,NflId,DisplayName,JerseyNumber,Season,YardLine,Quarter,GameClock,PossessionTeam,Down,Distance,FieldPosition,HomeScoreBeforePlay,VisitorScoreBeforePlay,NflIdRusher,OffenseFormation,OffensePersonnel,DefendersInTheBox,DefensePersonnel,PlayDirection,TimeHandoff,TimeSnap,PlayerHeight,PlayerWeight,PlayerBirthDate,PlayerCollegeName,Position,HomeTeamAbbr,VisitorTeamAbbr,Week,Stadium,Location,StadiumType,Turf,GameWeather,Temperature,Humidity,WindSpeed,WindDirection
20548,2019091504,20190915042678,away,35.94,23.92,2.82,0.78,0.28,288.53,342.54,2495478,Marcell Dareus,99,2019,26,4,15:00:00,HST,1,10,HST,6,3,2552461,PISTOL,"1 RB, 1 TE, 3 WR",7,"3 DL, 3 LB, 5 DB",right,2019-09-15T19:05:35.000Z,2019-09-15T19:05:34.000Z,6-3,331,03/13/1990,Alabama,DT,HOU,JAX,2,NRG Stadium,"Houston, TX",Retractable Roof,Artifical,Sunny,89.0,52,10mph,North East
20549,2019091504,20190915042678,away,36.09,26.54,3.38,2.38,0.33,302.03,331.46,2539230,Abry Jones,95,2019,26,4,15:00:00,HST,1,10,HST,6,3,2552461,PISTOL,"1 RB, 1 TE, 3 WR",7,"3 DL, 3 LB, 5 DB",right,2019-09-15T19:05:35.000Z,2019-09-15T19:05:34.000Z,6-4,318,09/08/1991,Georgia,NT,HOU,JAX,2,NRG Stadium,"Houston, TX",Retractable Roof,Artifical,Sunny,89.0,52,10mph,North East
20550,2019091504,20190915042678,away,41.37,26.36,7.02,2.59,0.7,172.94,163.69,2539237,D.J. Hayden,25,2019,26,4,15:00:00,HST,1,10,HST,6,3,2552461,PISTOL,"1 RB, 1 TE, 3 WR",7,"3 DL, 3 LB, 5 DB",right,2019-09-15T19:05:35.000Z,2019-09-15T19:05:34.000Z,5-11,190,06/27/1990,Houston,CB,HOU,JAX,2,NRG Stadium,"Houston, TX",Retractable Roof,Artifical,Sunny,89.0,52,10mph,North East
20551,2019091504,20190915042678,away,37.45,12.08,2.39,2.67,0.23,269.22,121.03,2555280,Jalen Ramsey,20,2019,26,4,15:00:00,HST,1,10,HST,6,3,2552461,PISTOL,"1 RB, 1 TE, 3 WR",7,"3 DL, 3 LB, 5 DB",right,2019-09-15T19:05:35.000Z,2019-09-15T19:05:34.000Z,6-1,208,10/24/1994,Florida State,CB,HOU,JAX,2,NRG Stadium,"Houston, TX",Retractable Roof,Artifical,Sunny,89.0,52,10mph,North East
20552,2019091504,20190915042678,away,39.98,25.09,1.3,1.78,0.12,269.26,260.81,2555329,Myles Jack,44,2019,26,4,15:00:00,HST,1,10,HST,6,3,2552461,PISTOL,"1 RB, 1 TE, 3 WR",7,"3 DL, 3 LB, 5 DB",right,2019-09-15T19:05:35.000Z,2019-09-15T19:05:34.000Z,6-1,244,09/03/1995,UCLA,OLB,HOU,JAX,2,NRG Stadium,"Houston, TX",Retractable Roof,Artifical,Sunny,89.0,52,10mph,North East
20553,2019091504,20190915042678,away,38.12,28.85,3.29,3.41,0.31,284.65,303.48,2556711,Jarrod Wilson,26,2019,26,4,15:00:00,HST,1,10,HST,6,3,2552461,PISTOL,"1 RB, 1 TE, 3 WR",7,"3 DL, 3 LB, 5 DB",right,2019-09-15T19:05:35.000Z,2019-09-15T19:05:34.000Z,6-2,210,02/09/1994,Michigan,SS,HOU,JAX,2,NRG Stadium,"Houston, TX",Retractable Roof,Artifical,Sunny,89.0,52,10mph,North East
20554,2019091504,20190915042678,away,36.1,29.45,2.78,1.76,0.28,261.32,342.26,2557839,Dawuane Smoot,94,2019,26,4,15:00:00,HST,1,10,HST,6,3,2552461,PISTOL,"1 RB, 1 TE, 3 WR",7,"3 DL, 3 LB, 5 DB",right,2019-09-15T19:05:35.000Z,2019-09-15T19:05:34.000Z,6-3,264,03/02/1995,Illinois,DE,HOU,JAX,2,NRG Stadium,"Houston, TX",Retractable Roof,Artifical,Sunny,89.0,52,10mph,North East
20555,2019091504,20190915042678,away,52.3,25.54,2.37,1.13,0.23,269.0,88.89,2561008,Ronnie Harrison,36,2019,26,4,15:00:00,HST,1,10,HST,6,3,2552461,PISTOL,"1 RB, 1 TE, 3 WR",7,"3 DL, 3 LB, 5 DB",right,2019-09-15T19:05:35.000Z,2019-09-15T19:05:34.000Z,6-3,214,04/18/1997,Alabama,DB,HOU,JAX,2,NRG Stadium,"Houston, TX",Retractable Roof,Artifical,Sunny,89.0,52,10mph,North East
20556,2019091504,20190915042678,away,43.42,34.85,1.95,1.7,0.18,282.59,41.55,2561340,Tre Herndon,37,2019,26,4,15:00:00,HST,1,10,HST,6,3,2552461,PISTOL,"1 RB, 1 TE, 3 WR",7,"3 DL, 3 LB, 5 DB",right,2019-09-15T19:05:35.000Z,2019-09-15T19:05:34.000Z,5-11,185,03/05/1996,Vanderbilt,CB,HOU,JAX,2,NRG Stadium,"Houston, TX",Retractable Roof,Artifical,Sunny,89.0,52,10mph,North East
20557,2019091504,20190915042678,away,35.43,20.82,2.86,0.26,0.29,295.56,323.66,2562619,Josh Allen,41,2019,26,4,15:00:00,HST,1,10,HST,6,3,2552461,PISTOL,"1 RB, 1 TE, 3 WR",7,"3 DL, 3 LB, 5 DB",right,2019-09-15T19:05:35.000Z,2019-09-15T19:05:34.000Z,6-5,262,07/13/1997,Kentucky,LB,HOU,JAX,2,NRG Stadium,"Houston, TX",Retractable Roof,Artifical,Sunny,89.0,52,10mph,North East
20558,2019091504,20190915042678,away,39.87,22.37,1.69,3.04,0.16,285.72,297.04,2562954,Quincy Williams,56,2019,26,4,15:00:00,HST,1,10,HST,6,3,2552461,PISTOL,"1 RB, 1 TE, 3 WR",7,"3 DL, 3 LB, 5 DB",right,2019-09-15T19:05:35.000Z,2019-09-15T19:05:34.000Z,5-11,226,08/28/1996,Murray State,LB,HOU,JAX,2,NRG Stadium,"Houston, TX",Retractable Roof,Artifical,Sunny,89.0,52,10mph,North East
20559,2019091504,20190915042678,home,36.0,11.62,2.45,1.96,0.24,81.45,135.49,2540165,DeAndre Hopkins,10,2019,26,4,15:00:00,HST,1,10,HST,6,3,2552461,PISTOL,"1 RB, 1 TE, 3 WR",7,"3 DL, 3 LB, 5 DB",right,2019-09-15T19:05:35.000Z,2019-09-15T19:05:34.000Z,6-1,212,06/06/1992,Clemson,WR,HOU,JAX,2,NRG Stadium,"Houston, TX",Retractable Roof,Artifical,Sunny,89.0,52,10mph,North East
20560,2019091504,20190915042678,home,35.39,24.55,3.27,0.44,0.34,73.46,13.55,2543862,Zach Fulton,73,2019,26,4,15:00:00,HST,1,10,HST,6,3,2552461,PISTOL,"1 RB, 1 TE, 3 WR",7,"3 DL, 3 LB, 5 DB",right,2019-09-15T19:05:35.000Z,2019-09-15T19:05:34.000Z,6-5,321,09/23/1991,Tennessee,G,HOU,JAX,2,NRG Stadium,"Houston, TX",Retractable Roof,Artifical,Sunny,89.0,52,10mph,North East
20561,2019091504,20190915042678,home,29.44,25.0,4.15,4.03,0.39,64.59,43.62,2552461,Duke Johnson,25,2019,26,4,15:00:00,HST,1,10,HST,6,3,2552461,PISTOL,"1 RB, 1 TE, 3 WR",7,"3 DL, 3 LB, 5 DB",right,2019-09-15T19:05:35.000Z,2019-09-15T19:05:34.000Z,5-9,210,09/23/1993,Miami,RB,HOU,JAX,2,NRG Stadium,"Houston, TX",Retractable Roof,Artifical,Sunny,89.0,52,10mph,North East
20562,2019091504,20190915042678,home,35.3,26.08,3.06,0.61,0.31,35.71,358.49,2555189,Nick Martin,66,2019,26,4,15:00:00,HST,1,10,HST,6,3,2552461,PISTOL,"1 RB, 1 TE, 3 WR",7,"3 DL, 3 LB, 5 DB",right,2019-09-15T19:05:35.000Z,2019-09-15T19:05:34.000Z,6-4,300,04/29/1993,Notre Dame,C,HOU,JAX,2,NRG Stadium,"Houston, TX",Retractable Roof,Artifical,Sunny,89.0,52,10mph,North East
20563,2019091504,20190915042678,home,34.93,29.54,3.45,0.46,0.35,91.99,0.85,2555201,Laremy Tunsil,78,2019,26,4,15:00:00,HST,1,10,HST,6,3,2552461,PISTOL,"1 RB, 1 TE, 3 WR",7,"3 DL, 3 LB, 5 DB",right,2019-09-15T19:05:35.000Z,2019-09-15T19:05:34.000Z,6-5,313,08/02/1994,Mississippi,T,HOU,JAX,2,NRG Stadium,"Houston, TX",Retractable Roof,Artifical,Sunny,89.0,52,10mph,North East
20564,2019091504,20190915042678,home,37.46,33.73,4.71,2.89,0.46,76.47,63.42,2555346,Will Fuller,15,2019,26,4,15:00:00,HST,1,10,HST,6,3,2552461,PISTOL,"1 RB, 1 TE, 3 WR",7,"3 DL, 3 LB, 5 DB",right,2019-09-15T19:05:35.000Z,2019-09-15T19:05:34.000Z,6-0,184,04/16/1994,Notre Dame,WR,HOU,JAX,2,NRG Stadium,"Houston, TX",Retractable Roof,Artifical,Sunny,89.0,52,10mph,North East
20565,2019091504,20190915042678,home,30.5,24.31,2.4,3.03,0.23,33.28,304.29,2558063,Deshaun Watson,4,2019,26,4,15:00:00,HST,1,10,HST,6,3,2552461,PISTOL,"1 RB, 1 TE, 3 WR",7,"3 DL, 3 LB, 5 DB",right,2019-09-15T19:05:35.000Z,2019-09-15T19:05:34.000Z,6-2,221,09/14/1995,Clemson,QB,HOU,JAX,2,NRG Stadium,"Houston, TX",Retractable Roof,Artifical,Sunny,89.0,52,10mph,North East
20566,2019091504,20190915042678,home,34.95,23.29,4.04,0.79,0.4,71.54,3.71,2558114,Roderick Johnson,63,2019,26,4,15:00:00,HST,1,10,HST,6,3,2552461,PISTOL,"1 RB, 1 TE, 3 WR",7,"3 DL, 3 LB, 5 DB",right,2019-09-15T19:05:35.000Z,2019-09-15T19:05:34.000Z,6-6,306,11/28/1995,Florida State,OT,HOU,JAX,2,NRG Stadium,"Houston, TX",Retractable Roof,Artifical,Sunny,89.0,52,10mph,North East
20567,2019091504,20190915042678,home,34.11,25.04,4.52,1.66,0.44,130.09,161.16,2560951,Jordan Akins,88,2019,26,4,15:00:00,HST,1,10,HST,6,3,2552461,PISTOL,"1 RB, 1 TE, 3 WR",7,"3 DL, 3 LB, 5 DB",right,2019-09-15T19:05:35.000Z,2019-09-15T19:05:34.000Z,6-4,243,04/19/1992,Central Florida,TE,HOU,JAX,2,NRG Stadium,"Houston, TX",Retractable Roof,Artifical,Sunny,89.0,52,10mph,North East
20568,2019091504,20190915042678,home,31.96,22.03,6.61,2.09,0.67,166.78,188.63,2561029,Keke Coutee,16,2019,26,4,15:00:00,HST,1,10,HST,6,3,2552461,PISTOL,"1 RB, 1 TE, 3 WR",7,"3 DL, 3 LB, 5 DB",right,2019-09-15T19:05:35.000Z,2019-09-15T19:05:34.000Z,5-11,180,01/14/1997,Texas Tech,WR,HOU,JAX,2,NRG Stadium,"Houston, TX",Retractable Roof,Artifical,Sunny,89.0,52,10mph,North East
20569,2019091504,20190915042678,home,35.44,27.33,3.54,1.58,0.36,81.22,22.26,2562286,Tytus Howard,71,2019,26,4,15:00:00,HST,1,10,HST,6,3,2552461,PISTOL,"1 RB, 1 TE, 3 WR",7,"3 DL, 3 LB, 5 DB",right,2019-09-15T19:05:35.000Z,2019-09-15T19:05:34.000Z,6-5,322,05/23/1996,Alabama State,T,HOU,JAX,2,NRG Stadium,"Houston, TX",Retractable Roof,Artifical,Sunny,89.0,52,10mph,North East
