,GameId,PlayId,Team,X,Y,S,A,Dis,Orientation,Dir,NflId,DisplayName,JerseyNumber,Season,YardLine,Quarter,GameClock,PossessionTeam,Down,Distance,FieldPosition,HomeScoreBeforePlay,VisitorScoreBeforePlay,NflIdRusher,OffenseFormation,OffensePersonnel,DefendersInTheBox,DefensePersonnel,PlayDirection,TimeHandoff,TimeSnap,PlayerHeight,PlayerWeight,PlayerBirthDate,PlayerCollegeName,Position,HomeTeamAbbr,VisitorTeamAbbr,Week,Stadium,Location,StadiumType,Turf,GameWeather,Temperature,Humidity,WindSpeed,WindDirection
25652,2019091509,20190915093444,away,14.62,21.71,2.6,1.2,0.26,272.73,301.88,2495435,Tyron Smith,77,2019,5,4,06:27:00,DAL,1,5,WAS,14,24,2555224,SINGLEBACK,"1 RB, 1 TE, 3 WR",8,"2 DL, 4 LB, 5 DB",left,2019-09-15T19:31:17.000Z,2019-09-15T19:31:16.000Z,6-5,320,12/12/1990,Southern California,T,WAS,DAL,2,FedExField,"Landover, MD",Outdoor,Grass,Sunny,80.0,46,7,WNW
25653,2019091509,20190915093444,away,15.09,30.0,1.7,1.73,0.17,313.92,237.66,2495448,Randall Cobb,18,2019,5,4,06:27:00,DAL,1,5,WAS,14,24,2555224,SINGLEBACK,"1 RB, 1 TE, 3 WR",8,"2 DL, 4 LB, 5 DB",left,2019-09-15T19:31:17.000Z,2019-09-15T19:31:16.000Z,5-10,192,08/22/1990,Kentucky,WR,WAS,DAL,2,FedExField,"Landover, MD",Outdoor,Grass,Sunny,80.0,46,7,WNW
25654,2019091509,20190915093444,away,15.72,25.09,1.8,0.29,0.18,58.24,7.43,2540161,Travis Frederick,72,2019,5,4,06:27:00,DAL,1,5,WAS,14,24,2555224,SINGLEBACK,"1 RB, 1 TE, 3 WR",8,"2 DL, 4 LB, 5 DB",left,2019-09-15T19:31:17.000Z,2019-09-15T19:31:16.000Z,6-4,320,03/18/1991,Wisconsin,C,WAS,DAL,2,FedExField,"Landover, MD",Outdoor,Grass,Sunny,80.0,46,7,WNW
25655,2019091509,20190915093444,away,17.46,26.34,2.77,0.8,0.29,268.24,60.04,2543480,Zack Martin,70,2019,5,4,06:27:00,DAL,1,5,WAS,14,24,2555224,SINGLEBACK,"1 RB, 1 TE, 3 WR",8,"2 DL, 4 LB, 5 DB",left,2019-09-15T19:31:17.000Z,2019-09-15T19:31:16.000Z,6-4,315,11/20/1990,Notre Dame,G,WAS,DAL,2,FedExField,"Landover, MD",Outdoor,Grass,Sunny,80.0,46,7,WNW
25656,2019091509,20190915093444,away,19.44,16.82,6.75,1.91,0.68,241.37,175.23,2552487,Amari Cooper,19,2019,5,4,06:27:00,DAL,1,5,WAS,14,24,2555224,SINGLEBACK,"1 RB, 1 TE, 3 WR",8,"2 DL, 4 LB, 5 DB",left,2019-09-15T19:31:17.000Z,2019-09-15T19:31:16.000Z,6-1,211,06/17/1994,Alabama,WR,WAS,DAL,2,FedExField,"Landover, MD",Outdoor,Grass,Sunny,80.0,46,7,WNW
25657,2019091509,20190915093444,away,14.27,7.53,4.19,2.53,0.41,282.94,222.71,2553434,Devin Smith,15,2019,5,4,06:27:00,DAL,1,5,WAS,14,24,2555224,SINGLEBACK,"1 RB, 1 TE, 3 WR",8,"2 DL, 4 LB, 5 DB",left,2019-09-15T19:31:17.000Z,2019-09-15T19:31:16.000Z,6-1,199,03/03/1992,Ohio State,WR,WAS,DAL,2,FedExField,"Landover, MD",Outdoor,Grass,Sunny,80.0,46,7,WNW
25658,2019091509,20190915093444,away,16.05,26.86,0.27,0.67,0.03,278.39,214.18,2553505,La'el Collins,71,2019,5,4,06:27:00,DAL,1,5,WAS,14,24,2555224,SINGLEBACK,"1 RB, 1 TE, 3 WR",8,"2 DL, 4 LB, 5 DB",left,2019-09-15T19:31:17.000Z,2019-09-15T19:31:16.000Z,6-4,320,07/26/1993,Louisiana State,T,WAS,DAL,2,FedExField,"Landover, MD",Outdoor,Grass,Sunny,80.0,46,7,WNW
25659,2019091509,20190915093444,away,19.92,24.51,4.23,3.1,0.41,255.35,280.83,2555224,Ezekiel Elliott,21,2019,5,4,06:27:00,DAL,1,5,WAS,14,24,2555224,SINGLEBACK,"1 RB, 1 TE, 3 WR",8,"2 DL, 4 LB, 5 DB",left,2019-09-15T19:31:17.000Z,2019-09-15T19:31:16.000Z,6-0,228,07/22/1995,Ohio State,RB,WAS,DAL,2,FedExField,"Landover, MD",Outdoor,Grass,Sunny,80.0,46,7,WNW
25660,2019091509,20190915093444,away,19.62,23.77,4.4,2.12,0.43,77.59,95.27,2555260,Dak Prescott,4,2019,5,4,06:27:00,DAL,1,5,WAS,14,24,2555224,SINGLEBACK,"1 RB, 1 TE, 3 WR",8,"2 DL, 4 LB, 5 DB",left,2019-09-15T19:31:17.000Z,2019-09-15T19:31:16.000Z,6-2,238,07/29/1993,Mississippi State,QB,WAS,DAL,2,FedExField,"Landover, MD",Outdoor,Grass,Sunny,80.0,46,7,WNW
25661,2019091509,20190915093444,away,17.57,25.31,4.28,1.34,0.42,204.89,181.88,2559193,Blake Jarwin,89,2019,5,4,06:27:00,DAL,1,5,WAS,14,24,2555224,SINGLEBACK,"1 RB, 1 TE, 3 WR",8,"2 DL, 4 LB, 5 DB",left,2019-09-15T19:31:17.000Z,2019-09-15T19:31:16.000Z,6-5,260,07/16/1994,Oklahoma State,TE,WAS,DAL,2,FedExField,"Landover, MD",Outdoor,Grass,Sunny,80.0,46,7,WNW
25662,2019091509,20190915093444,away,14.69,24.55,2.9,1.61,0.3,320.47,325.18,2560934,Connor Williams,52,2019,5,4,06:27:00,DAL,1,5,WAS,14,24,2555224,SINGLEBACK,"1 RB, 1 TE, 3 WR",8,"2 DL, 4 LB, 5 DB",left,2019-09-15T19:31:17.000Z,2019-09-15T19:31:16.000Z,6-5,298,05/12/1997,Texas,G,WAS,DAL,2,FedExField,"Landover, MD",Outdoor,Grass,Sunny,80.0,46,7,WNW
25663,2019091509,20190915093444,home,14.99,27.17,1.78,1.81,0.19,96.87,164.55,2495190,Ryan Kerrigan,91,2019,5,4,06:27:00,DAL,1,5,WAS,14,24,2555224,SINGLEBACK,"1 RB, 1 TE, 3 WR",8,"2 DL, 4 LB, 5 DB",left,2019-09-15T19:31:17.000Z,2019-09-15T19:31:16.000Z,6-4,265,08/16/1988,Purdue,OLB,WAS,DAL,2,FedExField,"Landover, MD",Outdoor,Grass,Sunny,80.0,46,7,WNW
25664,2019091509,20190915093444,home,14.21,30.65,1.45,0.66,0.14,130.37,191.43,2532920,Josh Norman,24,2019,5,4,06:27:00,DAL,1,5,WAS,14,24,2555224,SINGLEBACK,"1 RB, 1 TE, 3 WR",8,"2 DL, 4 LB, 5 DB",left,2019-09-15T19:31:17.000Z,2019-09-15T19:31:16.000Z,6-0,200,12/15/1987,Coastal Carolina,CB,WAS,DAL,2,FedExField,"Landover, MD",Outdoor,Grass,Sunny,80.0,46,7,WNW
25665,2019091509,20190915093444,home,13.04,22.39,1.82,1.16,0.19,90.28,156.25,2539978,Jon Bostic,53,2019,5,4,06:27:00,DAL,1,5,WAS,14,24,2555224,SINGLEBACK,"1 RB, 1 TE, 3 WR",8,"2 DL, 4 LB, 5 DB",left,2019-09-15T19:31:17.000Z,2019-09-15T19:31:16.000Z,6-1,245,05/05/1991,Florida,ILB,WAS,DAL,2,FedExField,"Landover, MD",Outdoor,Grass,Sunny,80.0,46,7,WNW
25666,2019091509,20190915093444,home,10.94,28.73,2.36,2.35,0.22,100.47,140.89,2552454,Landon Collins,20,2019,5,4,06:27:00,DAL,1,5,WAS,14,24,2555224,SINGLEBACK,"1 RB, 1 TE, 3 WR",8,"2 DL, 4 LB, 5 DB",left,2019-09-15T19:31:17.000Z,2019-09-15T19:31:16.000Z,6-0,218,01/10/1994,Alabama,SS,WAS,DAL,2,FedExField,"Landover, MD",Outdoor,Grass,Sunny,80.0,46,7,WNW
25667,2019091509,20190915093444,home,15.33,21.6,4.41,0.46,0.44,55.47,19.83,2557853,Ryan Anderson,52,2019,5,4,06:27:00,DAL,1,5,WAS,14,24,2555224,SINGLEBACK,"1 RB, 1 TE, 3 WR",8,"2 DL, 4 LB, 5 DB",left,2019-09-15T19:31:17.000Z,2019-09-15T19:31:16.000Z,6-2,253,08/12/1994,Alabama,OLB,WAS,DAL,2,FedExField,"Landover, MD",Outdoor,Grass,Sunny,80.0,46,7,WNW
25668,2019091509,20190915093444,home,17.78,20.16,5.62,3.34,0.57,65.15,45.88,2558133,Montae Nicholson,35,2019,5,4,06:27:00,DAL,1,5,WAS,14,24,2555224,SINGLEBACK,"1 RB, 1 TE, 3 WR",8,"2 DL, 4 LB, 5 DB",left,2019-09-15T19:31:17.000Z,2019-09-15T19:31:16.000Z,6-2,212,12/04/1995,Michigan State,FS,WAS,DAL,2,FedExField,"Landover, MD",Outdoor,Grass,Sunny,80.0,46,7,WNW
25669,2019091509,20190915093444,home,15.11,25.42,2.41,1.8,0.23,71.54,18.2,2560834,Daron Payne,94,2019,5,4,06:27:00,DAL,1,5,WAS,14,24,2555224,SINGLEBACK,"1 RB, 1 TE, 3 WR",8,"2 DL, 4 LB, 5 DB",left,2019-09-15T19:31:17.000Z,2019-09-15T19:31:16.000Z,6-3,320,05/27/1997,Alabama,NT,WAS,DAL,2,FedExField,"Landover, MD",Outdoor,Grass,Sunny,80.0,46,7,WNW
25670,2019091509,20190915093444,home,17.03,26.3,3.07,0.49,0.3,41.97,88.75,2560871,Tim Settle,97,2019,5,4,06:27:00,DAL,1,5,WAS,14,24,2555224,SINGLEBACK,"1 RB, 1 TE, 3 WR",8,"2 DL, 4 LB, 5 DB",left,2019-09-15T19:31:17.000Z,2019-09-15T19:31:16.000Z,6-3,308,07/11/1997,Virginia Tech,NT,WAS,DAL,2,FedExField,"Landover, MD",Outdoor,Grass,Sunny,80.0,46,7,WNW
25671,2019091509,20190915093444,home,13.3,8.39,3.15,3.13,0.3,119.7,220.7,2561144,Simeon Thomas,38,2019,5,4,06:27:00,DAL,1,5,WAS,14,24,2555224,SINGLEBACK,"1 RB, 1 TE, 3 WR",8,"2 DL, 4 LB, 5 DB",left,2019-09-15T19:31:17.000Z,2019-09-15T19:31:16.000Z,6-3,197,09/22/1993,Louisiana-Lafayette,DB,WAS,DAL,2,FedExField,"Landover, MD",Outdoor,Grass,Sunny,80.0,46,7,WNW
25672,2019091509,20190915093444,home,11.57,19.19,6.95,2.61,0.7,118.33,171.47,2562858,Jimmy Moreland,32,2019,5,4,06:27:00,DAL,1,5,WAS,14,24,2555224,SINGLEBACK,"1 RB, 1 TE, 3 WR",8,"2 DL, 4 LB, 5 DB",left,2019-09-15T19:31:17.000Z,2019-09-15T19:31:16.000Z,5-11,182,08/26/1995,James Madison,DB,WAS,DAL,2,FedExField,"Landover, MD",Outdoor,Grass,Sunny,80.0,46,7,WNW
25673,2019091509,20190915093444,home,16.72,28.51,4.58,5.4,0.46,136.33,122.85,2562872,Cole Holcomb,55,2019,5,4,06:27:00,DAL,1,5,WAS,14,24,2555224,SINGLEBACK,"1 RB, 1 TE, 3 WR",8,"2 DL, 4 LB, 5 DB",left,2019-09-15T19:31:17.000Z,2019-09-15T19:31:16.000Z,6-1,240,07/30/1996,North Carolina,LB,WAS,DAL,2,FedExField,"Landover, MD",Outdoor,Grass,Sunny,80.0,46,7,WNW
