,GameId,PlayId,Team,X,Y,S,A,Dis,Orientation,Dir,NflId,DisplayName,JerseyNumber,Season,YardLine,Quarter,GameClock,PossessionTeam,Down,Distance,FieldPosition,HomeScoreBeforePlay,VisitorScoreBeforePlay,NflIdRusher,OffenseFormation,OffensePersonnel,DefendersInTheBox,DefensePersonnel,PlayDirection,TimeHandoff,TimeSnap,PlayerHeight,PlayerWeight,PlayerBirthDate,PlayerCollegeName,Position,HomeTeamAbbr,VisitorTeamAbbr,Week,Stadium,Location,StadiumType,Turf,GameWeather,Temperature,Humidity,WindSpeed,WindDirection
16676,2019091501,20190915011310,away,61.23,33.69,1.12,1.27,0.11,130.12,4.96,2495746,Joe Staley,74,2019,49,2,11:26:00,SF,3,1,CIN,7,14,2558918,SINGLEBACK,"2 RB, 2 TE, 1 WR",8,"5 DL, 2 LB, 4 DB",right,2019-09-15T17:52:49.000Z,2019-09-15T17:52:47.000Z,6-5,295,08/30/1984,Central Michigan,T,CIN,SF,2,Paul Brown Stadium,"Cincinnati, OH",Outdoor,Twenty Four/Seven Turf,Mostly Sunny,81.0,45,5,E
16677,2019091501,20190915011310,away,61.13,31.5,2.63,0.6,0.28,42.31,13.0,2508140,Mike Person,68,2019,49,2,11:26:00,SF,3,1,CIN,7,14,2558918,SINGLEBACK,"2 RB, 2 TE, 1 WR",8,"5 DL, 2 LB, 4 DB",right,2019-09-15T17:52:49.000Z,2019-09-15T17:52:47.000Z,6-4,299,06/17/1988,Montana State,C,CIN,SF,2,Paul Brown Stadium,"Cincinnati, OH",Outdoor,Twenty Four/Seven Turf,Mostly Sunny,81.0,45,5,E
16678,2019091501,20190915011310,away,59.09,11.1,0.33,1.84,0.04,73.1,94.28,2539964,Marquise Goodwin,11,2019,49,2,11:26:00,SF,3,1,CIN,7,14,2558918,SINGLEBACK,"2 RB, 2 TE, 1 WR",8,"5 DL, 2 LB, 4 DB",right,2019-09-15T17:52:49.000Z,2019-09-15T17:52:47.000Z,5-9,179,11/19/1990,Texas,WR,CIN,SF,2,Paul Brown Stadium,"Cincinnati, OH",Outdoor,Twenty Four/Seven Turf,Mostly Sunny,81.0,45,5,E
16679,2019091501,20190915011310,away,60.95,29.24,3.99,0.43,0.4,354.63,9.98,2540203,Levine Toilolo,83,2019,49,2,11:26:00,SF,3,1,CIN,7,14,2558918,SINGLEBACK,"2 RB, 2 TE, 1 WR",8,"5 DL, 2 LB, 4 DB",right,2019-09-15T17:52:49.000Z,2019-09-15T17:52:47.000Z,6-8,268,07/30/1991,Stanford,TE,CIN,SF,2,Paul Brown Stadium,"Cincinnati, OH",Outdoor,Twenty Four/Seven Turf,Mostly Sunny,81.0,45,5,E
16680,2019091501,20190915011310,away,60.25,27.45,4.73,1.83,0.46,42.34,8.75,2540230,Kyle Juszczyk,44,2019,49,2,11:26:00,SF,3,1,CIN,7,14,2558918,SINGLEBACK,"2 RB, 2 TE, 1 WR",8,"5 DL, 2 LB, 4 DB",right,2019-09-15T17:52:49.000Z,2019-09-15T17:52:47.000Z,6-1,240,04/23/1991,Harvard,RB,CIN,SF,2,Paul Brown Stadium,"Cincinnati, OH",Outdoor,Twenty Four/Seven Turf,Mostly Sunny,81.0,45,5,E
16681,2019091501,20190915011310,away,59.81,32.35,2.7,0.42,0.27,75.11,318.86,2543705,Weston Richburg,58,2019,49,2,11:26:00,SF,3,1,CIN,7,14,2558918,SINGLEBACK,"2 RB, 2 TE, 1 WR",8,"5 DL, 2 LB, 4 DB",right,2019-09-15T17:52:49.000Z,2019-09-15T17:52:47.000Z,6-4,290,07/09/1991,Colorado State,C,CIN,SF,2,Paul Brown Stadium,"Cincinnati, OH",Outdoor,Twenty Four/Seven Turf,Mostly Sunny,81.0,45,5,E
16682,2019091501,20190915011310,away,57.38,31.05,3.71,1.91,0.37,314.3,280.65,2543801,Jimmy Garoppolo,10,2019,49,2,11:26:00,SF,3,1,CIN,7,14,2558918,SINGLEBACK,"2 RB, 2 TE, 1 WR",8,"5 DL, 2 LB, 4 DB",right,2019-09-15T17:52:49.000Z,2019-09-15T17:52:47.000Z,6-2,225,11/02/1991,Eastern Illinois,QB,CIN,SF,2,Paul Brown Stadium,"Cincinnati, OH",Outdoor,Twenty Four/Seven Turf,Mostly Sunny,81.0,45,5,E
16683,2019091501,20190915011310,away,61.19,32.87,1.22,1.03,0.14,61.64,13.22,2552345,Laken Tomlinson,75,2019,49,2,11:26:00,SF,3,1,CIN,7,14,2558918,SINGLEBACK,"2 RB, 2 TE, 1 WR",8,"5 DL, 2 LB, 4 DB",right,2019-09-15T17:52:49.000Z,2019-09-15T17:52:47.000Z,6-3,312,02/09/1992,Duke,G,CIN,SF,2,Paul Brown Stadium,"Cincinnati, OH",Outdoor,Twenty Four/Seven Turf,Mostly Sunny,81.0,45,5,E
16684,2019091501,20190915011310,away,61.71,34.42,1.53,1.75,0.15,81.96,80.43,2558266,George Kittle,85,2019,49,2,11:26:00,SF,3,1,CIN,7,14,2558918,SINGLEBACK,"2 RB, 2 TE, 1 WR",8,"5 DL, 2 LB, 4 DB",right,2019-09-15T17:52:49.000Z,2019-09-15T17:52:47.000Z,6-4,250,10/09/1993,Iowa,TE,CIN,SF,2,Paul Brown Stadium,"Cincinnati, OH",Outdoor,Twenty Four/Seven Turf,Mostly Sunny,81.0,45,5,E
16685,2019091501,20190915011310,away,56.38,32.23,4.94,1.65,0.49,70.22,52.04,2558918,Matt Breida,22,2019,49,2,11:26:00,SF,3,1,CIN,7,14,2558918,SINGLEBACK,"2 RB, 2 TE, 1 WR",8,"5 DL, 2 LB, 4 DB",right,2019-09-15T17:52:49.000Z,2019-09-15T17:52:47.000Z,5-11,190,02/28/1995,Georgia Southern,RB,CIN,SF,2,Paul Brown Stadium,"Cincinnati, OH",Outdoor,Twenty Four/Seven Turf,Mostly Sunny,81.0,45,5,E
16686,2019091501,20190915011310,away,60.73,30.16,3.55,1.57,0.35,42.78,351.07,2560805,Mike McGlinchey,69,2019,49,2,11:26:00,SF,3,1,CIN,7,14,2558918,SINGLEBACK,"2 RB, 2 TE, 1 WR",8,"5 DL, 2 LB, 4 DB",right,2019-09-15T17:52:49.000Z,2019-09-15T17:52:47.000Z,6-8,315,01/12/1995,Notre Dame,OT,CIN,SF,2,Paul Brown Stadium,"Cincinnati, OH",Outdoor,Twenty Four/Seven Turf,Mostly Sunny,81.0,45,5,E
16687,2019091501,20190915011310,home,60.51,32.23,2.53,1.56,0.26,287.2,325.46,496762,Geno Atkins,97,2019,49,2,11:26:00,SF,3,1,CIN,7,14,2558918,SINGLEBACK,"2 RB, 2 TE, 1 WR",8,"5 DL, 2 LB, 4 DB",right,2019-09-15T17:52:49.000Z,2019-09-15T17:52:47.000Z,6-1,300,03/28/1988,Georgia,DT,CIN,SF,2,Paul Brown Stadium,"Cincinnati, OH",Outdoor,Twenty Four/Seven Turf,Mostly Sunny,81.0,45,5,E
16688,2019091501,20190915011310,home,61.76,33.38,0.87,0.61,0.1,273.39,343.08,496780,Carlos Dunlap,96,2019,49,2,11:26:00,SF,3,1,CIN,7,14,2558918,SINGLEBACK,"2 RB, 2 TE, 1 WR",8,"5 DL, 2 LB, 4 DB",right,2019-09-15T17:52:49.000Z,2019-09-15T17:52:47.000Z,6-6,285,02/28/1989,Florida,DE,CIN,SF,2,Paul Brown Stadium,"Cincinnati, OH",Outdoor,Twenty Four/Seven Turf,Mostly Sunny,81.0,45,5,E
16689,2019091501,20190915011310,home,62.17,11.19,0.68,1.54,0.06,269.3,58.07,2533060,Dre Kirkpatrick,27,2019,49,2,11:26:00,SF,3,1,CIN,7,14,2558918,SINGLEBACK,"2 RB, 2 TE, 1 WR",8,"5 DL, 2 LB, 4 DB",right,2019-09-15T17:52:49.000Z,2019-09-15T17:52:47.000Z,6-2,190,10/26/1989,Alabama,CB,CIN,SF,2,Paul Brown Stadium,"Cincinnati, OH",Outdoor,Twenty Four/Seven Turf,Mostly Sunny,81.0,45,5,E
16690,2019091501,20190915011310,home,64.89,36.76,0.6,2.23,0.06,258.6,315.96,2539233,Shawn Williams,36,2019,49,2,11:26:00,SF,3,1,CIN,7,14,2558918,SINGLEBACK,"2 RB, 2 TE, 1 WR",8,"5 DL, 2 LB, 4 DB",right,2019-09-15T17:52:49.000Z,2019-09-15T17:52:47.000Z,6-0,210,05/13/1991,Georgia,SS,CIN,SF,2,Paul Brown Stadium,"Cincinnati, OH",Outdoor,Twenty Four/Seven Turf,Mostly Sunny,81.0,45,5,E
16691,2019091501,20190915011310,home,63.36,33.7,2.99,0.89,0.3,266.9,328.58,2543814,Preston Brown,52,2019,49,2,11:26:00,SF,3,1,CIN,7,14,2558918,SINGLEBACK,"2 RB, 2 TE, 1 WR",8,"5 DL, 2 LB, 4 DB",right,2019-09-15T17:52:49.000Z,2019-09-15T17:52:47.000Z,6-1,251,10/27/1992,Louisville,MLB,CIN,SF,2,Paul Brown Stadium,"Cincinnati, OH",Outdoor,Twenty Four/Seven Turf,Mostly Sunny,81.0,45,5,E
16692,2019091501,20190915011310,home,61.59,31.91,2.93,0.17,0.29,232.73,357.19,2555267,Andrew Billings,99,2019,49,2,11:26:00,SF,3,1,CIN,7,14,2558918,SINGLEBACK,"2 RB, 2 TE, 1 WR",8,"5 DL, 2 LB, 4 DB",right,2019-09-15T17:52:49.000Z,2019-09-15T17:52:47.000Z,6-1,328,03/06/1995,Baylor,DT,CIN,SF,2,Paul Brown Stadium,"Cincinnati, OH",Outdoor,Twenty Four/Seven Turf,Mostly Sunny,81.0,45,5,E
16693,2019091501,20190915011310,home,63.63,30.23,3.83,0.81,0.38,266.39,343.28,2555528,Nick Vigil,59,2019,49,2,11:26:00,SF,3,1,CIN,7,14,2558918,SINGLEBACK,"2 RB, 2 TE, 1 WR",8,"5 DL, 2 LB, 4 DB",right,2019-09-15T17:52:49.000Z,2019-09-15T17:52:47.000Z,6-2,235,08/20/1993,Utah State,OLB,CIN,SF,2,Paul Brown Stadium,"Cincinnati, OH",Outdoor,Twenty Four/Seven Turf,Mostly Sunny,81.0,45,5,E
16694,2019091501,20190915011310,home,63.84,23.47,2.5,1.6,0.24,304.48,337.07,2556367,William Jackson,22,2019,49,2,11:26:00,SF,3,1,CIN,7,14,2558918,SINGLEBACK,"2 RB, 2 TE, 1 WR",8,"5 DL, 2 LB, 4 DB",right,2019-09-15T17:52:49.000Z,2019-09-15T17:52:47.000Z,6-0,196,10/27/1992,Houston,CB,CIN,SF,2,Paul Brown Stadium,"Cincinnati, OH",Outdoor,Twenty Four/Seven Turf,Mostly Sunny,81.0,45,5,E
16695,2019091501,20190915011310,home,61.2,28.71,2.74,0.86,0.29,1.22,343.25,2557901,Carl Lawson,58,2019,49,2,11:26:00,SF,3,1,CIN,7,14,2558918,SINGLEBACK,"2 RB, 2 TE, 1 WR",8,"5 DL, 2 LB, 4 DB",right,2019-09-15T17:52:49.000Z,2019-09-15T17:52:47.000Z,6-2,265,06/29/1995,Auburn,DE,CIN,SF,2,Paul Brown Stadium,"Cincinnati, OH",Outdoor,Twenty Four/Seven Turf,Mostly Sunny,81.0,45,5,E
16696,2019091501,20190915011310,home,61.23,30.43,3.65,0.79,0.36,316.11,345.83,2559003,Josh Tupou,91,2019,49,2,11:26:00,SF,3,1,CIN,7,14,2558918,SINGLEBACK,"2 RB, 2 TE, 1 WR",8,"5 DL, 2 LB, 4 DB",right,2019-09-15T17:52:49.000Z,2019-09-15T17:52:47.000Z,6-3,345,05/02/1994,Colorado,DT,CIN,SF,2,Paul Brown Stadium,"Cincinnati, OH",Outdoor,Twenty Four/Seven Turf,Mostly Sunny,81.0,45,5,E
16697,2019091501,20190915011310,home,76.48,27.39,2.24,0.53,0.22,267.52,68.54,2560970,Jessie Bates,30,2019,49,2,11:26:00,SF,3,1,CIN,7,14,2558918,SINGLEBACK,"2 RB, 2 TE, 1 WR",8,"5 DL, 2 LB, 4 DB",right,2019-09-15T17:52:49.000Z,2019-09-15T17:52:47.000Z,6-1,200,02/26/1997,Wake Forest,S,CIN,SF,2,Paul Brown Stadium,"Cincinnati, OH",Outdoor,Twenty Four/Seven Turf,Mostly Sunny,81.0,45,5,E
