,GameId,PlayId,Team,X,Y,S,A,Dis,Orientation,Dir,NflId,DisplayName,JerseyNumber,Season,YardLine,Quarter,GameClock,PossessionTeam,Down,Distance,FieldPosition,HomeScoreBeforePlay,VisitorScoreBeforePlay,NflIdRusher,OffenseFormation,OffensePersonnel,DefendersInTheBox,DefensePersonnel,PlayDirection,TimeHandoff,TimeSnap,PlayerHeight,PlayerWeight,PlayerBirthDate,PlayerCollegeName,Position,HomeTeamAbbr,VisitorTeamAbbr,Week,Stadium,Location,StadiumType,Turf,GameWeather,Temperature,Humidity,WindSpeed,WindDirection
26444,2019091510,20190915103528,away,79.46,26.79,2.4,1.31,0.24,114.25,137.52,2540180,Tyrann Mathieu,32,2019,22,4,14:04:00,OAK,1,10,OAK,10,28,2562377,SINGLEBACK,"1 RB, 1 TE, 3 WR",6,"4 DL, 2 LB, 5 DB",left,2019-09-15T22:48:57.000Z,2019-09-15T22:48:55.000Z,5-9,190,05/13/1992,Louisiana State,FS,OAK,KC,2,Oakland-Alameda County Coliseum,"Oakland, CA",Outdoor,Natural Grass,Sunny,70.0,61,13,WSW
26445,2019091510,20190915103528,away,81.19,10.5,1.7,0.62,0.17,28.36,239.21,2543571,Bashaud Breeland,21,2019,22,4,14:04:00,OAK,1,10,OAK,10,28,2562377,SINGLEBACK,"1 RB, 1 TE, 3 WR",6,"4 DL, 2 LB, 5 DB",left,2019-09-15T22:48:57.000Z,2019-09-15T22:48:55.000Z,5-11,195,01/30/1992,Clemson,CB,OAK,KC,2,Oakland-Alameda County Coliseum,"Oakland, CA",Outdoor,Natural Grass,Sunny,70.0,61,13,WSW
26446,2019091510,20190915103528,away,83.69,18.96,4.13,1.2,0.41,120.15,179.83,2543592,Anthony Hitchens,53,2019,22,4,14:04:00,OAK,1,10,OAK,10,28,2562377,SINGLEBACK,"1 RB, 1 TE, 3 WR",6,"4 DL, 2 LB, 5 DB",left,2019-09-15T22:48:57.000Z,2019-09-15T22:48:55.000Z,6-0,235,06/10/1992,Iowa,MLB,OAK,KC,2,Oakland-Alameda County Coliseum,"Oakland, CA",Outdoor,Natural Grass,Sunny,70.0,61,13,WSW
26447,2019091510,20190915103528,away,84.26,22.54,4.63,1.78,0.46,118.67,166.01,2552686,Damien Wilson,54,2019,22,4,14:04:00,OAK,1,10,OAK,10,28,2562377,SINGLEBACK,"1 RB, 1 TE, 3 WR",6,"4 DL, 2 LB, 5 DB",left,2019-09-15T22:48:57.000Z,2019-09-15T22:48:55.000Z,6-0,243,05/28/1993,Minnesota,OLB,OAK,KC,2,Oakland-Alameda County Coliseum,"Oakland, CA",Outdoor,Natural Grass,Sunny,70.0,61,13,WSW
26448,2019091510,20190915103528,away,88.07,20.42,2.64,1.59,0.27,78.11,171.76,2553764,Xavier Williams,98,2019,22,4,14:04:00,OAK,1,10,OAK,10,28,2562377,SINGLEBACK,"1 RB, 1 TE, 3 WR",6,"4 DL, 2 LB, 5 DB",left,2019-09-15T22:48:57.000Z,2019-09-15T22:48:55.000Z,6-2,309,01/18/1992,Northern Iowa,DT,OAK,KC,2,Oakland-Alameda County Coliseum,"Oakland, CA",Outdoor,Natural Grass,Sunny,70.0,61,13,WSW
26449,2019091510,20190915103528,away,88.28,24.72,3.95,1.34,0.41,106.09,166.41,2555278,Emmanuel Ogbah,90,2019,22,4,14:04:00,OAK,1,10,OAK,10,28,2562377,SINGLEBACK,"1 RB, 1 TE, 3 WR",6,"4 DL, 2 LB, 5 DB",left,2019-09-15T22:48:57.000Z,2019-09-15T22:48:55.000Z,6-4,275,11/06/1993,Oklahoma State,DE,OAK,KC,2,Oakland-Alameda County Coliseum,"Oakland, CA",Outdoor,Natural Grass,Sunny,70.0,61,13,WSW
26450,2019091510,20190915103528,away,77.09,18.37,4.63,0.38,0.46,159.8,272.18,2555349,Kendall Fuller,29,2019,22,4,14:04:00,OAK,1,10,OAK,10,28,2562377,SINGLEBACK,"1 RB, 1 TE, 3 WR",6,"4 DL, 2 LB, 5 DB",left,2019-09-15T22:48:57.000Z,2019-09-15T22:48:55.000Z,5-11,198,02/13/1995,Virginia Tech,CB,OAK,KC,2,Oakland-Alameda County Coliseum,"Oakland, CA",Outdoor,Natural Grass,Sunny,70.0,61,13,WSW
26451,2019091510,20190915103528,away,87.37,22.64,3.42,0.97,0.36,113.28,189.86,2558080,Joey Ivie,93,2019,22,4,14:04:00,OAK,1,10,OAK,10,28,2562377,SINGLEBACK,"1 RB, 1 TE, 3 WR",6,"4 DL, 2 LB, 5 DB",left,2019-09-15T22:48:57.000Z,2019-09-15T22:48:55.000Z,6-3,301,01/22/1995,Florida,DT,OAK,KC,2,Oakland-Alameda County Coliseum,"Oakland, CA",Outdoor,Natural Grass,Sunny,70.0,61,13,WSW
26452,2019091510,20190915103528,away,88.29,17.72,2.13,1.28,0.23,71.44,162.25,2558185,Tanoh Kpassagnon,92,2019,22,4,14:04:00,OAK,1,10,OAK,10,28,2562377,SINGLEBACK,"1 RB, 1 TE, 3 WR",6,"4 DL, 2 LB, 5 DB",left,2019-09-15T22:48:57.000Z,2019-09-15T22:48:55.000Z,6-7,289,06/14/1994,Villanova,DE,OAK,KC,2,Oakland-Alameda County Coliseum,"Oakland, CA",Outdoor,Natural Grass,Sunny,70.0,61,13,WSW
26453,2019091510,20190915103528,away,84.68,34.87,1.53,0.89,0.15,166.36,327.9,2561417,Charvarius Ward,35,2019,22,4,14:04:00,OAK,1,10,OAK,10,28,2562377,SINGLEBACK,"1 RB, 1 TE, 3 WR",6,"4 DL, 2 LB, 5 DB",left,2019-09-15T22:48:57.000Z,2019-09-15T22:48:55.000Z,6-1,195,05/16/1996,Middle Tennessee,DB,OAK,KC,2,Oakland-Alameda County Coliseum,"Oakland, CA",Outdoor,Natural Grass,Sunny,70.0,61,13,WSW
26454,2019091510,20190915103528,away,73.85,20.64,2.58,0.91,0.25,54.61,338.94,2562761,Juan Thornhill,22,2019,22,4,14:04:00,OAK,1,10,OAK,10,28,2562377,SINGLEBACK,"1 RB, 1 TE, 3 WR",6,"4 DL, 2 LB, 5 DB",left,2019-09-15T22:48:57.000Z,2019-09-15T22:48:55.000Z,6-0,205,10/19/1995,Virginia,DB,OAK,KC,2,Oakland-Alameda County Coliseum,"Oakland, CA",Outdoor,Natural Grass,Sunny,70.0,61,13,WSW
26455,2019091510,20190915103528,home,88.86,20.58,2.82,1.15,0.29,272.71,171.92,2495171,Rodney Hudson,61,2019,22,4,14:04:00,OAK,1,10,OAK,10,28,2562377,SINGLEBACK,"1 RB, 1 TE, 3 WR",6,"4 DL, 2 LB, 5 DB",left,2019-09-15T22:48:57.000Z,2019-09-15T22:48:55.000Z,6-2,315,07/12/1989,Florida State,C,OAK,KC,2,Oakland-Alameda County Coliseum,"Oakland, CA",Outdoor,Natural Grass,Sunny,70.0,61,13,WSW
26456,2019091510,20190915103528,home,87.06,18.69,3.66,1.05,0.37,248.89,212.98,2540247,Jordan Devey,65,2019,22,4,14:04:00,OAK,1,10,OAK,10,28,2562377,SINGLEBACK,"1 RB, 1 TE, 3 WR",6,"4 DL, 2 LB, 5 DB",left,2019-09-15T22:48:57.000Z,2019-09-15T22:48:55.000Z,6-6,320,01/11/1988,Memphis,T,OAK,KC,2,Oakland-Alameda County Coliseum,"Oakland, CA",Outdoor,Natural Grass,Sunny,70.0,61,13,WSW
26457,2019091510,20190915103528,home,92.38,21.91,4.39,1.26,0.43,98.61,111.07,2543499,Derek Carr,4,2019,22,4,14:04:00,OAK,1,10,OAK,10,28,2562377,SINGLEBACK,"1 RB, 1 TE, 3 WR",6,"4 DL, 2 LB, 5 DB",left,2019-09-15T22:48:57.000Z,2019-09-15T22:48:55.000Z,6-3,210,03/28/1991,Fresno State,QB,OAK,KC,2,Oakland-Alameda County Coliseum,"Oakland, CA",Outdoor,Natural Grass,Sunny,70.0,61,13,WSW
26458,2019091510,20190915103528,home,87.33,32.3,4.04,0.52,0.4,295.69,318.83,2543759,Ryan Grant,19,2019,22,4,14:04:00,OAK,1,10,OAK,10,28,2562377,SINGLEBACK,"1 RB, 1 TE, 3 WR",6,"4 DL, 2 LB, 5 DB",left,2019-09-15T22:48:57.000Z,2019-09-15T22:48:55.000Z,6-0,195,12/19/1990,Tulane,WR,OAK,KC,2,Oakland-Alameda County Coliseum,"Oakland, CA",Outdoor,Natural Grass,Sunny,70.0,61,13,WSW
26459,2019091510,20190915103528,home,89.41,24.43,4.54,1.07,0.45,213.4,195.51,2552408,Darren Waller,83,2019,22,4,14:04:00,OAK,1,10,OAK,10,28,2562377,SINGLEBACK,"1 RB, 1 TE, 3 WR",6,"4 DL, 2 LB, 5 DB",left,2019-09-15T22:48:57.000Z,2019-09-15T22:48:55.000Z,6-6,255,09/13/1992,Georgia Tech,TE,OAK,KC,2,Oakland-Alameda County Coliseum,"Oakland, CA",Outdoor,Natural Grass,Sunny,70.0,61,13,WSW
26460,2019091510,20190915103528,home,87.76,22.02,3.84,0.93,0.38,261.96,196.69,2553460,Denzelle Good,71,2019,22,4,14:04:00,OAK,1,10,OAK,10,28,2562377,SINGLEBACK,"1 RB, 1 TE, 3 WR",6,"4 DL, 2 LB, 5 DB",left,2019-09-15T22:48:57.000Z,2019-09-15T22:48:55.000Z,6-5,340,03/08/1991,Mars Hill,OT,OAK,KC,2,Oakland-Alameda County Coliseum,"Oakland, CA",Outdoor,Natural Grass,Sunny,70.0,61,13,WSW
26461,2019091510,20190915103528,home,84.92,17.05,4.79,1.91,0.47,270.73,271.76,2553913,Tyrell Williams,16,2019,22,4,14:04:00,OAK,1,10,OAK,10,28,2562377,SINGLEBACK,"1 RB, 1 TE, 3 WR",6,"4 DL, 2 LB, 5 DB",left,2019-09-15T22:48:57.000Z,2019-09-15T22:48:55.000Z,6-4,205,02/12/1992,Western Oregon,WR,OAK,KC,2,Oakland-Alameda County Coliseum,"Oakland, CA",Outdoor,Natural Grass,Sunny,70.0,61,13,WSW
26462,2019091510,20190915103528,home,88.83,18.23,2.04,0.42,0.22,266.52,173.98,2560811,Kolton Miller,74,2019,22,4,14:04:00,OAK,1,10,OAK,10,28,2562377,SINGLEBACK,"1 RB, 1 TE, 3 WR",6,"4 DL, 2 LB, 5 DB",left,2019-09-15T22:48:57.000Z,2019-09-15T22:48:55.000Z,6-8,325,10/09/1995,UCLA,T,OAK,KC,2,Oakland-Alameda County Coliseum,"Oakland, CA",Outdoor,Natural Grass,Sunny,70.0,61,13,WSW
26463,2019091510,20190915103528,home,88.18,22.71,4.04,0.88,0.42,252.37,196.2,2560832,Brandon Parker,75,2019,22,4,14:04:00,OAK,1,10,OAK,10,28,2562377,SINGLEBACK,"1 RB, 1 TE, 3 WR",6,"4 DL, 2 LB, 5 DB",left,2019-09-15T22:48:57.000Z,2019-09-15T22:48:55.000Z,6-8,320,10/21/1995,North Carolina A&T,T,OAK,KC,2,Oakland-Alameda County Coliseum,"Oakland, CA",Outdoor,Natural Grass,Sunny,70.0,61,13,WSW
26464,2019091510,20190915103528,home,92.44,20.93,5.26,2.16,0.51,218.03,218.16,2562377,Josh Jacobs,28,2019,22,4,14:04:00,OAK,1,10,OAK,10,28,2562377,SINGLEBACK,"1 RB, 1 TE, 3 WR",6,"4 DL, 2 LB, 5 DB",left,2019-09-15T22:48:57.000Z,2019-09-15T22:48:55.000Z,5-10,220,02/11/1998,Alabama,RB,OAK,KC,2,Oakland-Alameda County Coliseum,"Oakland, CA",Outdoor,Natural Grass,Sunny,70.0,61,13,WSW
26465,2019091510,20190915103528,home,86.88,15.43,4.52,2.16,0.44,258.25,259.9,2562712,Hunter Renfrow,13,2019,22,4,14:04:00,OAK,1,10,OAK,10,28,2562377,SINGLEBACK,"1 RB, 1 TE, 3 WR",6,"4 DL, 2 LB, 5 DB",left,2019-09-15T22:48:57.000Z,2019-09-15T22:48:55.000Z,5-10,185,12/21/1995,Clemson,WR,OAK,KC,2,Oakland-Alameda County Coliseum,"Oakland, CA",Outdoor,Natural Grass,Sunny,70.0,61,13,WSW
