,GameId,PlayId,Team,X,Y,S,A,Dis,Orientation,Dir,NflId,DisplayName,JerseyNumber,Season,YardLine,Quarter,GameClock,PossessionTeam,Down,Distance,FieldPosition,HomeScoreBeforePlay,VisitorScoreBeforePlay,NflIdRusher,OffenseFormation,OffensePersonnel,DefendersInTheBox,DefensePersonnel,PlayDirection,TimeHandoff,TimeSnap,PlayerHeight,PlayerWeight,PlayerBirthDate,PlayerCollegeName,Position,HomeTeamAbbr,VisitorTeamAbbr,Week,Stadium,Location,StadiumType,Turf,GameWeather,Temperature,Humidity,WindSpeed,WindDirection
24002,2019091508,20190915081167,away,46.85,35.59,3.14,0.71,0.33,61.68,347.58,2495137,Anthony Castonzo,74,2019,39,2,11:40:00,IND,1,20,IND,7,7,2560742,SHOTGUN,"1 RB, 1 TE, 3 WR",6,"2 DL, 4 LB, 5 DB",right,2019-09-15T17:51:58.000Z,2019-09-15T17:51:56.000Z,6-7,307,08/09/1988,Boston College,T,TEN,IND,2,Nissan Stadium,"Nashville, TN",Outdoors,Grass,Sunny,93.0,45,1,NE
24003,2019091508,20190915081167,away,48.36,18.7,4.05,1.28,0.4,85.27,141.35,2540232,Jack Doyle,84,2019,39,2,11:40:00,IND,1,20,IND,7,7,2560742,SHOTGUN,"1 RB, 1 TE, 3 WR",6,"2 DL, 4 LB, 5 DB",right,2019-09-15T17:51:58.000Z,2019-09-15T17:51:56.000Z,6-6,262,05/05/1990,Western Kentucky,TE,TEN,IND,2,Nissan Stadium,"Nashville, TN",Outdoors,Grass,Sunny,93.0,45,1,NE
24004,2019091508,20190915081167,away,47.57,29.25,2.25,1.03,0.25,108.19,349.52,2552467,Mark Glowinski,64,2019,39,2,11:40:00,IND,1,20,IND,7,7,2560742,SHOTGUN,"1 RB, 1 TE, 3 WR",6,"2 DL, 4 LB, 5 DB",right,2019-09-15T17:51:58.000Z,2019-09-15T17:51:56.000Z,6-4,310,05/03/1992,West Virginia,G,TEN,IND,2,Nissan Stadium,"Nashville, TN",Outdoors,Grass,Sunny,93.0,45,1,NE
24005,2019091508,20190915081167,away,47.88,32.68,3.0,1.17,0.31,168.25,9.03,2555191,Ryan Kelly,78,2019,39,2,11:40:00,IND,1,20,IND,7,7,2560742,SHOTGUN,"1 RB, 1 TE, 3 WR",6,"2 DL, 4 LB, 5 DB",right,2019-09-15T17:51:58.000Z,2019-09-15T17:51:56.000Z,6-4,309,05/30/1993,Alabama,C,TEN,IND,2,Nissan Stadium,"Nashville, TN",Outdoors,Grass,Sunny,93.0,45,1,NE
24006,2019091508,20190915081167,away,43.85,30.43,1.12,0.32,0.1,144.61,341.51,2555261,Jacoby Brissett,7,2019,39,2,11:40:00,IND,1,20,IND,7,7,2560742,SHOTGUN,"1 RB, 1 TE, 3 WR",6,"2 DL, 4 LB, 5 DB",right,2019-09-15T17:51:58.000Z,2019-09-15T17:51:56.000Z,6-4,235,12/11/1992,North Carolina State,QB,TEN,IND,2,Nissan Stadium,"Nashville, TN",Outdoors,Grass,Sunny,93.0,45,1,NE
24007,2019091508,20190915081167,away,48.99,17.56,2.92,1.74,0.29,70.9,148.11,2558877,Zach Pascal,14,2019,39,2,11:40:00,IND,1,20,IND,7,7,2560742,SHOTGUN,"1 RB, 1 TE, 3 WR",6,"2 DL, 4 LB, 5 DB",right,2019-09-15T17:51:58.000Z,2019-09-15T17:51:56.000Z,6-2,214,12/18/1994,Old Dominion,WR,TEN,IND,2,Nissan Stadium,"Nashville, TN",Outdoors,Grass,Sunny,93.0,45,1,NE
24008,2019091508,20190915081167,away,44.63,29.94,5.37,2.69,0.53,22.02,359.92,2560742,Nyheim Hines,21,2019,39,2,11:40:00,IND,1,20,IND,7,7,2560742,SHOTGUN,"1 RB, 1 TE, 3 WR",6,"2 DL, 4 LB, 5 DB",right,2019-09-15T17:51:58.000Z,2019-09-15T17:51:56.000Z,5-9,198,11/12/1996,North Carolina State,RB,TEN,IND,2,Nissan Stadium,"Nashville, TN",Outdoors,Grass,Sunny,93.0,45,1,NE
24009,2019091508,20190915081167,away,49.22,33.09,2.78,1.25,0.28,142.58,41.82,2560820,Quenton Nelson,56,2019,39,2,11:40:00,IND,1,20,IND,7,7,2560742,SHOTGUN,"1 RB, 1 TE, 3 WR",6,"2 DL, 4 LB, 5 DB",right,2019-09-15T17:51:58.000Z,2019-09-15T17:51:56.000Z,6-5,330,03/19/1996,Notre Dame,G,TEN,IND,2,Nissan Stadium,"Nashville, TN",Outdoors,Grass,Sunny,93.0,45,1,NE
24010,2019091508,20190915081167,away,46.13,25.74,1.24,1.67,0.13,125.57,282.39,2560876,Braden Smith,72,2019,39,2,11:40:00,IND,1,20,IND,7,7,2560742,SHOTGUN,"1 RB, 1 TE, 3 WR",6,"2 DL, 4 LB, 5 DB",right,2019-09-15T17:51:58.000Z,2019-09-15T17:51:56.000Z,6-6,315,03/25/1996,Auburn,G,TEN,IND,2,Nissan Stadium,"Nashville, TN",Outdoors,Grass,Sunny,93.0,45,1,NE
24011,2019091508,20190915081167,away,49.12,39.53,2.39,1.08,0.24,77.08,59.37,2560987,Deon Cain,11,2019,39,2,11:40:00,IND,1,20,IND,7,7,2560742,SHOTGUN,"1 RB, 1 TE, 3 WR",6,"2 DL, 4 LB, 5 DB",right,2019-09-15T17:51:58.000Z,2019-09-15T17:51:56.000Z,6-2,202,08/09/1996,Clemson,WR,TEN,IND,2,Nissan Stadium,"Nashville, TN",Outdoors,Grass,Sunny,93.0,45,1,NE
24012,2019091508,20190915081167,away,45.84,17.11,1.41,0.85,0.14,353.88,249.92,2562495,Parris Campbell,15,2019,39,2,11:40:00,IND,1,20,IND,7,7,2560742,SHOTGUN,"1 RB, 1 TE, 3 WR",6,"2 DL, 4 LB, 5 DB",right,2019-09-15T17:51:58.000Z,2019-09-15T17:51:56.000Z,6-0,205,07/16/1997,Ohio State,WR,TEN,IND,2,Nissan Stadium,"Nashville, TN",Outdoors,Grass,Sunny,93.0,45,1,NE
24013,2019091508,20190915081167,home,65.73,30.3,1.7,1.53,0.16,264.52,30.57,2539320,Kenny Vaccaro,24,2019,39,2,11:40:00,IND,1,20,IND,7,7,2560742,SHOTGUN,"1 RB, 1 TE, 3 WR",6,"2 DL, 4 LB, 5 DB",right,2019-09-15T17:51:58.000Z,2019-09-15T17:51:56.000Z,6-0,214,02/15/1991,Texas,SS,TEN,IND,2,Nissan Stadium,"Nashville, TN",Outdoors,Grass,Sunny,93.0,45,1,NE
24014,2019091508,20190915081167,home,50.06,17.82,1.24,2.28,0.12,216.94,168.1,2540162,Logan Ryan,26,2019,39,2,11:40:00,IND,1,20,IND,7,7,2560742,SHOTGUN,"1 RB, 1 TE, 3 WR",6,"2 DL, 4 LB, 5 DB",right,2019-09-15T17:51:58.000Z,2019-09-15T17:51:56.000Z,5-11,195,02/09/1991,Rutgers,CB,TEN,IND,2,Nissan Stadium,"Nashville, TN",Outdoors,Grass,Sunny,93.0,45,1,NE
24015,2019091508,20190915081167,home,50.48,39.42,2.29,3.02,0.21,281.25,45.55,2550613,Malcolm Butler,21,2019,39,2,11:40:00,IND,1,20,IND,7,7,2560742,SHOTGUN,"1 RB, 1 TE, 3 WR",6,"2 DL, 4 LB, 5 DB",right,2019-09-15T17:51:58.000Z,2019-09-15T17:51:56.000Z,5-11,190,03/02/1990,West Alabama,CB,TEN,IND,2,Nissan Stadium,"Nashville, TN",Outdoors,Grass,Sunny,93.0,45,1,NE
24016,2019091508,20190915081167,home,53.6,18.38,3.02,1.43,0.3,263.62,186.69,2555158,Kevin Byard,31,2019,39,2,11:40:00,IND,1,20,IND,7,7,2560742,SHOTGUN,"1 RB, 1 TE, 3 WR",6,"2 DL, 4 LB, 5 DB",right,2019-09-15T17:51:58.000Z,2019-09-15T17:51:56.000Z,5-11,212,08/17/1993,Middle Tennessee,FS,TEN,IND,2,Nissan Stadium,"Nashville, TN",Outdoors,Grass,Sunny,93.0,45,1,NE
24017,2019091508,20190915081167,home,47.71,24.52,2.84,3.35,0.28,224.65,308.77,2555339,Kamalei Correa,44,2019,39,2,11:40:00,IND,1,20,IND,7,7,2560742,SHOTGUN,"1 RB, 1 TE, 3 WR",6,"2 DL, 4 LB, 5 DB",right,2019-09-15T17:51:58.000Z,2019-09-15T17:51:56.000Z,6-3,241,04/27/1994,Boise State,ILB,TEN,IND,2,Nissan Stadium,"Nashville, TN",Outdoors,Grass,Sunny,93.0,45,1,NE
24018,2019091508,20190915081167,home,48.54,28.9,2.84,2.68,0.28,263.25,350.71,2556368,Austin Johnson,94,2019,39,2,11:40:00,IND,1,20,IND,7,7,2560742,SHOTGUN,"1 RB, 1 TE, 3 WR",6,"2 DL, 4 LB, 5 DB",right,2019-09-15T17:51:58.000Z,2019-09-15T17:51:56.000Z,6-4,314,05/08/1994,Penn State,NT,TEN,IND,2,Nissan Stadium,"Nashville, TN",Outdoors,Grass,Sunny,93.0,45,1,NE
24019,2019091508,20190915081167,home,52.74,26.5,3.69,3.54,0.35,329.8,346.88,2558005,Jayon Brown,55,2019,39,2,11:40:00,IND,1,20,IND,7,7,2560742,SHOTGUN,"1 RB, 1 TE, 3 WR",6,"2 DL, 4 LB, 5 DB",right,2019-09-15T17:51:58.000Z,2019-09-15T17:51:56.000Z,6-0,226,02/26/1995,UCLA,ILB,TEN,IND,2,Nissan Stadium,"Nashville, TN",Outdoors,Grass,Sunny,93.0,45,1,NE
24020,2019091508,20190915081167,home,54.9,16.13,1.11,0.79,0.11,329.97,201.46,2558065,Adoree' Jackson,25,2019,39,2,11:40:00,IND,1,20,IND,7,7,2560742,SHOTGUN,"1 RB, 1 TE, 3 WR",6,"2 DL, 4 LB, 5 DB",right,2019-09-15T17:51:58.000Z,2019-09-15T17:51:56.000Z,5-11,185,09/18/1995,Southern California,CB,TEN,IND,2,Nissan Stadium,"Nashville, TN",Outdoors,Grass,Sunny,93.0,45,1,NE
24021,2019091508,20190915081167,home,52.94,32.0,4.23,2.33,0.41,280.96,341.96,2560718,Rashaan Evans,54,2019,39,2,11:40:00,IND,1,20,IND,7,7,2560742,SHOTGUN,"1 RB, 1 TE, 3 WR",6,"2 DL, 4 LB, 5 DB",right,2019-09-15T17:51:58.000Z,2019-09-15T17:51:56.000Z,6-2,234,11/08/1995,Alabama,LB,TEN,IND,2,Nissan Stadium,"Nashville, TN",Outdoors,Grass,Sunny,93.0,45,1,NE
24022,2019091508,20190915081167,home,47.66,36.21,2.49,2.11,0.25,222.95,320.15,2560784,Harold Landry,58,2019,39,2,11:40:00,IND,1,20,IND,7,7,2560742,SHOTGUN,"1 RB, 1 TE, 3 WR",6,"2 DL, 4 LB, 5 DB",right,2019-09-15T17:51:58.000Z,2019-09-15T17:51:56.000Z,6-2,250,06/05/1996,Boston College,OLB,TEN,IND,2,Nissan Stadium,"Nashville, TN",Outdoors,Grass,Sunny,93.0,45,1,NE
24023,2019091508,20190915081167,home,48.49,32.15,2.93,1.1,0.31,315.58,328.58,2563245,Isaiah Mack,97,2019,39,2,11:40:00,IND,1,20,IND,7,7,2560742,SHOTGUN,"1 RB, 1 TE, 3 WR",6,"2 DL, 4 LB, 5 DB",right,2019-09-15T17:51:58.000Z,2019-09-15T17:51:56.000Z,6-1,299,03/19/1996,Chattanooga,DT,TEN,IND,2,Nissan Stadium,"Nashville, TN",Outdoors,Grass,Sunny,93.0,45,1,NE
