,GameId,PlayId,Team,X,Y,S,A,Dis,Orientation,Dir,NflId,DisplayName,JerseyNumber,Season,YardLine,Quarter,GameClock,PossessionTeam,Down,Distance,FieldPosition,HomeScoreBeforePlay,VisitorScoreBeforePlay,NflIdRusher,OffenseFormation,OffensePersonnel,DefendersInTheBox,DefensePersonnel,PlayDirection,TimeHandoff,TimeSnap,PlayerHeight,PlayerWeight,PlayerBirthDate,PlayerCollegeName,Position,HomeTeamAbbr,VisitorTeamAbbr,Week,Stadium,Location,StadiumType,Turf,GameWeather,Temperature,Humidity,WindSpeed,WindDirection
17776,2019091502,20190915020610,away,72.27,29.61,4.28,2.4,0.42,239.61,221.77,2506352,Thomas Davis,58,2019,40,1,05:02:00,DET,2,3,LAC,0,7,2560765,I_FORM,"2 RB, 1 TE, 2 WR",7,"4 DL, 3 LB, 4 DB",right,2019-09-15T17:24:39.000Z,2019-09-15T17:24:38.000Z,6-1,235,03/22/1983,Georgia,OLB,DET,LAC,2,Ford Field,Detroit,Indoors,Field Turf,Controlled Climate,68.0,70,,
17777,2019091502,20190915020610,away,77.35,20.01,1.67,0.64,0.17,317.82,3.24,2532861,Casey Hayward,26,2019,40,1,05:02:00,DET,2,3,LAC,0,7,2560765,I_FORM,"2 RB, 1 TE, 2 WR",7,"4 DL, 3 LB, 4 DB",right,2019-09-15T17:24:39.000Z,2019-09-15T17:24:38.000Z,5-11,192,09/09/1989,Vanderbilt,CB,DET,LAC,2,Ford Field,Detroit,Indoors,Field Turf,Controlled Climate,68.0,70,,
17778,2019091502,20190915020610,away,71.7,34.0,2.47,0.94,0.25,219.52,151.34,2532870,Melvin Ingram,54,2019,40,1,05:02:00,DET,2,3,LAC,0,7,2560765,I_FORM,"2 RB, 1 TE, 2 WR",7,"4 DL, 3 LB, 4 DB",right,2019-09-15T17:24:39.000Z,2019-09-15T17:24:38.000Z,6-2,247,04/26/1989,South Carolina,DE,DET,LAC,2,Ford Field,Detroit,Indoors,Field Turf,Controlled Climate,68.0,70,,
17779,2019091502,20190915020610,away,69.64,27.58,0.31,2.9,0.03,269.68,122.46,2540003,Damion Square,71,2019,40,1,05:02:00,DET,2,3,LAC,0,7,2560765,I_FORM,"2 RB, 1 TE, 2 WR",7,"4 DL, 3 LB, 4 DB",right,2019-09-15T17:24:39.000Z,2019-09-15T17:24:38.000Z,6-2,293,02/06/1989,Alabama,NT,DET,LAC,2,Ford Field,Detroit,Indoors,Field Turf,Controlled Climate,68.0,70,,
17780,2019091502,20190915020610,away,76.23,27.68,1.85,3.11,0.18,273.96,290.17,2550842,Adrian Phillips,31,2019,40,1,05:02:00,DET,2,3,LAC,0,7,2560765,I_FORM,"2 RB, 1 TE, 2 WR",7,"4 DL, 3 LB, 4 DB",right,2019-09-15T17:24:39.000Z,2019-09-15T17:24:38.000Z,5-11,210,03/28/1992,Texas,SS,DET,LAC,2,Ford Field,Detroit,Indoors,Field Turf,Controlled Climate,68.0,70,,
17781,2019091502,20190915020610,away,68.25,26.48,2.57,1.58,0.26,281.23,310.95,2557860,Isaac Rochell,98,2019,40,1,05:02:00,DET,2,3,LAC,0,7,2560765,I_FORM,"2 RB, 1 TE, 2 WR",7,"4 DL, 3 LB, 4 DB",right,2019-09-15T17:24:39.000Z,2019-09-15T17:24:38.000Z,6-4,280,04/22/1995,Notre Dame,DE,DET,LAC,2,Ford Field,Detroit,Indoors,Field Turf,Controlled Climate,68.0,70,,
17782,2019091502,20190915020610,away,87.14,28.53,2.0,0.37,0.2,270.25,90.78,2558182,Rayshawn Jenkins,23,2019,40,1,05:02:00,DET,2,3,LAC,0,7,2560765,I_FORM,"2 RB, 1 TE, 2 WR",7,"4 DL, 3 LB, 4 DB",right,2019-09-15T17:24:39.000Z,2019-09-15T17:24:38.000Z,6-2,220,01/25/1994,Miami,SS,DET,LAC,2,Ford Field,Detroit,Indoors,Field Turf,Controlled Climate,68.0,70,,
17783,2019091502,20190915020610,away,77.95,38.01,0.8,0.79,0.08,247.5,75.03,2560719,Brandon Facyson,28,2019,40,1,05:02:00,DET,2,3,LAC,0,7,2560765,I_FORM,"2 RB, 1 TE, 2 WR",7,"4 DL, 3 LB, 4 DB",right,2019-09-15T17:24:39.000Z,2019-09-15T17:24:38.000Z,6-2,197,09/08/1994,Virginia Tech,CB,DET,LAC,2,Ford Field,Detroit,Indoors,Field Turf,Controlled Climate,68.0,70,,
17784,2019091502,20190915020610,away,71.38,24.29,0.69,1.23,0.07,297.0,299.06,2560826,Uchenna Nwosu,42,2019,40,1,05:02:00,DET,2,3,LAC,0,7,2560765,I_FORM,"2 RB, 1 TE, 2 WR",7,"4 DL, 3 LB, 4 DB",right,2019-09-15T17:24:39.000Z,2019-09-15T17:24:38.000Z,6-2,251,12/28/1996,Southern California,LB,DET,LAC,2,Ford Field,Detroit,Indoors,Field Turf,Controlled Climate,68.0,70,,
17785,2019091502,20190915020610,away,69.13,29.69,4.76,2.38,0.48,250.45,276.74,2560928,Kyzir White,44,2019,40,1,05:02:00,DET,2,3,LAC,0,7,2560765,I_FORM,"2 RB, 1 TE, 2 WR",7,"4 DL, 3 LB, 4 DB",right,2019-09-15T17:24:39.000Z,2019-09-15T17:24:38.000Z,6-2,216,03/24/1996,West Virginia,LB,DET,LAC,2,Ford Field,Detroit,Indoors,Field Turf,Controlled Climate,68.0,70,,
17786,2019091502,20190915020610,away,67.64,33.53,3.89,1.94,0.4,217.42,274.26,2562763,Jerry Tillery,99,2019,40,1,05:02:00,DET,2,3,LAC,0,7,2560765,I_FORM,"2 RB, 1 TE, 2 WR",7,"4 DL, 3 LB, 4 DB",right,2019-09-15T17:24:39.000Z,2019-09-15T17:24:38.000Z,6-6,295,10/08/1996,Notre Dame,DT,DET,LAC,2,Ford Field,Detroit,Indoors,Field Turf,Controlled Climate,68.0,70,,
17787,2019091502,20190915020610,home,65.31,30.27,4.36,1.64,0.43,257.36,268.37,79860,Matthew Stafford,9,2019,40,1,05:02:00,DET,2,3,LAC,0,7,2560765,I_FORM,"2 RB, 1 TE, 2 WR",7,"4 DL, 3 LB, 4 DB",right,2019-09-15T17:24:39.000Z,2019-09-15T17:24:38.000Z,6-3,220,02/07/1988,Georgia,QB,DET,LAC,2,Ford Field,Detroit,Indoors,Field Turf,Controlled Climate,68.0,70,,
17788,2019091502,20190915020610,home,71.76,22.82,4.04,2.51,0.4,36.54,43.72,2532884,Marvin Jones,11,2019,40,1,05:02:00,DET,2,3,LAC,0,7,2560765,I_FORM,"2 RB, 1 TE, 2 WR",7,"4 DL, 3 LB, 4 DB",right,2019-09-15T17:24:39.000Z,2019-09-15T17:24:38.000Z,6-2,198,03/12/1990,California,WR,DET,LAC,2,Ford Field,Detroit,Indoors,Field Turf,Controlled Climate,68.0,70,,
17789,2019091502,20190915020610,home,69.28,27.37,0.69,0.79,0.07,28.26,41.17,2539340,Rick Wagner,71,2019,40,1,05:02:00,DET,2,3,LAC,0,7,2560765,I_FORM,"2 RB, 1 TE, 2 WR",7,"4 DL, 3 LB, 4 DB",right,2019-09-15T17:24:39.000Z,2019-09-15T17:24:38.000Z,6-6,315,10/21/1989,Wisconsin,T,DET,LAC,2,Ford Field,Detroit,Indoors,Field Turf,Controlled Climate,68.0,70,,
17790,2019091502,20190915020610,home,67.71,26.03,1.57,0.83,0.16,62.64,307.75,2552633,Jesse James,83,2019,40,1,05:02:00,DET,2,3,LAC,0,7,2560765,I_FORM,"2 RB, 1 TE, 2 WR",7,"4 DL, 3 LB, 4 DB",right,2019-09-15T17:24:39.000Z,2019-09-15T17:24:38.000Z,6-7,250,06/04/1994,Penn State,TE,DET,LAC,2,Ford Field,Detroit,Indoors,Field Turf,Controlled Climate,68.0,70,,
17791,2019091502,20190915020610,home,68.03,29.15,2.97,2.7,0.3,88.46,209.0,2555136,Joe Dahl,66,2019,40,1,05:02:00,DET,2,3,LAC,0,7,2560765,I_FORM,"2 RB, 1 TE, 2 WR",7,"4 DL, 3 LB, 4 DB",right,2019-09-15T17:24:39.000Z,2019-09-15T17:24:38.000Z,6-4,310,04/09/1993,Washington State,G,DET,LAC,2,Ford Field,Detroit,Indoors,Field Turf,Controlled Climate,68.0,70,,
17792,2019091502,20190915020610,home,69.1,28.16,0.32,0.41,0.03,123.17,147.87,2555182,Graham Glasgow,60,2019,40,1,05:02:00,DET,2,3,LAC,0,7,2560765,I_FORM,"2 RB, 1 TE, 2 WR",7,"4 DL, 3 LB, 4 DB",right,2019-09-15T17:24:39.000Z,2019-09-15T17:24:38.000Z,6-6,310,08/19/1992,Michigan,C,DET,LAC,2,Ford Field,Detroit,Indoors,Field Turf,Controlled Climate,68.0,70,,
17793,2019091502,20190915020610,home,71.47,36.71,3.31,1.43,0.32,255.11,79.9,2558052,Kenny Golladay,19,2019,40,1,05:02:00,DET,2,3,LAC,0,7,2560765,I_FORM,"2 RB, 1 TE, 2 WR",7,"4 DL, 3 LB, 4 DB",right,2019-09-15T17:24:39.000Z,2019-09-15T17:24:38.000Z,6-4,213,11/03/1993,Northern Illinois,WR,DET,LAC,2,Ford Field,Detroit,Indoors,Field Turf,Controlled Climate,68.0,70,,
17794,2019091502,20190915020610,home,64.07,29.48,3.31,2.46,0.32,87.25,115.11,2560765,Kerryon Johnson,33,2019,40,1,05:02:00,DET,2,3,LAC,0,7,2560765,I_FORM,"2 RB, 1 TE, 2 WR",7,"4 DL, 3 LB, 4 DB",right,2019-09-15T17:24:39.000Z,2019-09-15T17:24:38.000Z,5-11,212,06/30/1997,Auburn,RB,DET,LAC,2,Ford Field,Detroit,Indoors,Field Turf,Controlled Climate,68.0,70,,
17795,2019091502,20190915020610,home,66.76,26.86,3.34,2.42,0.34,105.86,174.59,2560972,Nick Bawden,46,2019,40,1,05:02:00,DET,2,3,LAC,0,7,2560765,I_FORM,"2 RB, 1 TE, 2 WR",7,"4 DL, 3 LB, 4 DB",right,2019-09-15T17:24:39.000Z,2019-09-15T17:24:38.000Z,6-2,245,06/22/1996,San Diego State,RB,DET,LAC,2,Ford Field,Detroit,Indoors,Field Turf,Controlled Climate,68.0,70,,
17796,2019091502,20190915020610,home,68.03,32.68,1.88,1.85,0.19,343.66,271.02,2561032,Tyrell Crosby,65,2019,40,1,05:02:00,DET,2,3,LAC,0,7,2560765,I_FORM,"2 RB, 1 TE, 2 WR",7,"4 DL, 3 LB, 4 DB",right,2019-09-15T17:24:39.000Z,2019-09-15T17:24:38.000Z,6-4,310,09/05/1995,Oregon,T,DET,LAC,2,Ford Field,Detroit,Indoors,Field Turf,Controlled Climate,68.0,70,,
17797,2019091502,20190915020610,home,70.14,32.24,1.91,2.61,0.2,43.23,46.86,2561142,Frank Ragnow,77,2019,40,1,05:02:00,DET,2,3,LAC,0,7,2560765,I_FORM,"2 RB, 1 TE, 2 WR",7,"4 DL, 3 LB, 4 DB",right,2019-09-15T17:24:39.000Z,2019-09-15T17:24:38.000Z,6-5,311,05/17/1996,Arkansas,C,DET,LAC,2,Ford Field,Detroit,Indoors,Field Turf,Controlled Climate,68.0,70,,
