,GameId,PlayId,Team,X,Y,S,A,Dis,Orientation,Dir,NflId,DisplayName,JerseyNumber,Season,YardLine,Quarter,GameClock,PossessionTeam,Down,Distance,FieldPosition,HomeScoreBeforePlay,VisitorScoreBeforePlay,NflIdRusher,OffenseFormation,OffensePersonnel,DefendersInTheBox,DefensePersonnel,PlayDirection,TimeHandoff,TimeSnap,PlayerHeight,PlayerWeight,PlayerBirthDate,PlayerCollegeName,Position,HomeTeamAbbr,VisitorTeamAbbr,Week,Stadium,Location,StadiumType,Turf,GameWeather,Temperature,Humidity,WindSpeed,WindDirection
6446,2019090806,20190908060888,away,74.81,28.35,4.74,2.06,0.48,120.35,107.58,2495190,Ryan Kerrigan,91,2019,39,2,15:00:00,PHI,2,7,PHI,0,10,2506467,SHOTGUN,"1 RB, 2 TE, 2 WR",8,"3 DL, 4 LB, 4 DB",left,2019-09-08T17:45:06.000Z,2019-09-08T17:45:05.000Z,6-4,265,08/16/1988,Purdue,OLB,PHI,WAS,1,Lincoln Financial Field,"Philadelphia, Pa.",Outdoor,Grass,Sunny,79.0,49,4,W
6447,2019090806,20190908060888,away,61.7,44.64,3.8,1.12,0.38,170.76,259.03,2532920,Josh Norman,24,2019,39,2,15:00:00,PHI,2,7,PHI,0,10,2506467,SHOTGUN,"1 RB, 2 TE, 2 WR",8,"3 DL, 4 LB, 4 DB",left,2019-09-08T17:45:06.000Z,2019-09-08T17:45:05.000Z,6-0,200,12/15/1987,Coastal Carolina,CB,PHI,WAS,1,Lincoln Financial Field,"Philadelphia, Pa.",Outdoor,Grass,Sunny,79.0,49,4,W
6448,2019090806,20190908060888,away,67.98,18.81,3.46,3.19,0.33,139.7,179.13,2539978,Jon Bostic,53,2019,39,2,15:00:00,PHI,2,7,PHI,0,10,2506467,SHOTGUN,"1 RB, 2 TE, 2 WR",8,"3 DL, 4 LB, 4 DB",left,2019-09-08T17:45:06.000Z,2019-09-08T17:45:05.000Z,6-1,245,05/05/1991,Florida,ILB,PHI,WAS,1,Lincoln Financial Field,"Philadelphia, Pa.",Outdoor,Grass,Sunny,79.0,49,4,W
6449,2019090806,20190908060888,away,64.36,16.67,1.53,4.45,0.14,76.55,202.69,2552454,Landon Collins,20,2019,39,2,15:00:00,PHI,2,7,PHI,0,10,2506467,SHOTGUN,"1 RB, 2 TE, 2 WR",8,"3 DL, 4 LB, 4 DB",left,2019-09-08T17:45:06.000Z,2019-09-08T17:45:05.000Z,6-0,218,01/10/1994,Alabama,SS,PHI,WAS,1,Lincoln Financial Field,"Philadelphia, Pa.",Outdoor,Grass,Sunny,79.0,49,4,W
6450,2019090806,20190908060888,away,64.24,31.82,3.64,4.26,0.34,71.26,214.67,2553796,Quinton Dunbar,23,2019,39,2,15:00:00,PHI,2,7,PHI,0,10,2506467,SHOTGUN,"1 RB, 2 TE, 2 WR",8,"3 DL, 4 LB, 4 DB",left,2019-09-08T17:45:06.000Z,2019-09-08T17:45:05.000Z,6-2,202,07/22/1992,Florida,CB,PHI,WAS,1,Lincoln Financial Field,"Philadelphia, Pa.",Outdoor,Grass,Sunny,79.0,49,4,W
6451,2019090806,20190908060888,away,72.05,26.14,1.02,1.56,0.11,112.05,126.0,2555240,Matthew Ioannidis,98,2019,39,2,15:00:00,PHI,2,7,PHI,0,10,2506467,SHOTGUN,"1 RB, 2 TE, 2 WR",8,"3 DL, 4 LB, 4 DB",left,2019-09-08T17:45:06.000Z,2019-09-08T17:45:05.000Z,6-3,310,01/11/1994,Temple,DE,PHI,WAS,1,Lincoln Financial Field,"Philadelphia, Pa.",Outdoor,Grass,Sunny,79.0,49,4,W
6452,2019090806,20190908060888,away,50.88,25.78,2.15,0.9,0.21,100.69,257.03,2558133,Montae Nicholson,35,2019,39,2,15:00:00,PHI,2,7,PHI,0,10,2506467,SHOTGUN,"1 RB, 2 TE, 2 WR",8,"3 DL, 4 LB, 4 DB",left,2019-09-08T17:45:06.000Z,2019-09-08T17:45:05.000Z,6-2,212,12/04/1995,Michigan State,FS,PHI,WAS,1,Lincoln Financial Field,"Philadelphia, Pa.",Outdoor,Grass,Sunny,79.0,49,4,W
6453,2019090806,20190908060888,away,70.39,19.45,1.95,2.01,0.18,95.42,186.4,2560834,Daron Payne,94,2019,39,2,15:00:00,PHI,2,7,PHI,0,10,2506467,SHOTGUN,"1 RB, 2 TE, 2 WR",8,"3 DL, 4 LB, 4 DB",left,2019-09-08T17:45:06.000Z,2019-09-08T17:45:05.000Z,6-3,320,05/27/1997,Alabama,NT,PHI,WAS,1,Lincoln Financial Field,"Philadelphia, Pa.",Outdoor,Grass,Sunny,79.0,49,4,W
6454,2019090806,20190908060888,away,71.19,22.16,2.28,0.53,0.22,75.56,139.47,2560871,Tim Settle,97,2019,39,2,15:00:00,PHI,2,7,PHI,0,10,2506467,SHOTGUN,"1 RB, 2 TE, 2 WR",8,"3 DL, 4 LB, 4 DB",left,2019-09-08T17:45:06.000Z,2019-09-08T17:45:05.000Z,6-3,308,07/11/1997,Virginia Tech,NT,PHI,WAS,1,Lincoln Financial Field,"Philadelphia, Pa.",Outdoor,Grass,Sunny,79.0,49,4,W
6455,2019090806,20190908060888,away,70.94,16.22,3.12,3.04,0.3,82.78,171.73,2562749,Montez Sweat,90,2019,39,2,15:00:00,PHI,2,7,PHI,0,10,2506467,SHOTGUN,"1 RB, 2 TE, 2 WR",8,"3 DL, 4 LB, 4 DB",left,2019-09-08T17:45:06.000Z,2019-09-08T17:45:05.000Z,6-6,262,09/04/1996,Mississippi State,LB,PHI,WAS,1,Lincoln Financial Field,"Philadelphia, Pa.",Outdoor,Grass,Sunny,79.0,49,4,W
6456,2019090806,20190908060888,away,67.43,24.41,2.24,3.27,0.21,97.3,163.48,2562872,Cole Holcomb,55,2019,39,2,15:00:00,PHI,2,7,PHI,0,10,2506467,SHOTGUN,"1 RB, 2 TE, 2 WR",8,"3 DL, 4 LB, 4 DB",left,2019-09-08T17:45:06.000Z,2019-09-08T17:45:05.000Z,6-1,240,07/30/1996,North Carolina,LB,PHI,WAS,1,Lincoln Financial Field,"Philadelphia, Pa.",Outdoor,Grass,Sunny,79.0,49,4,W
6457,2019090806,20190908060888,home,73.47,20.68,4.83,3.62,0.47,207.04,168.12,2495298,Jason Kelce,62,2019,39,2,15:00:00,PHI,2,7,PHI,0,10,2506467,SHOTGUN,"1 RB, 2 TE, 2 WR",8,"3 DL, 4 LB, 4 DB",left,2019-09-08T17:45:06.000Z,2019-09-08T17:45:05.000Z,6-3,295,11/05/1987,Cincinnati,C,PHI,WAS,1,Lincoln Financial Field,"Philadelphia, Pa.",Outdoor,Grass,Sunny,79.0,49,4,W
6458,2019090806,20190908060888,home,73.25,17.31,4.76,2.9,0.46,229.34,182.46,2505827,Jason Peters,71,2019,39,2,15:00:00,PHI,2,7,PHI,0,10,2506467,SHOTGUN,"1 RB, 2 TE, 2 WR",8,"3 DL, 4 LB, 4 DB",left,2019-09-08T17:45:06.000Z,2019-09-08T17:45:05.000Z,6-4,328,01/22/1982,Arkansas,OT,PHI,WAS,1,Lincoln Financial Field,"Philadelphia, Pa.",Outdoor,Grass,Sunny,79.0,49,4,W
6459,2019090806,20190908060888,home,75.85,23.27,5.14,2.28,0.5,205.34,183.03,2506467,Darren Sproles,43,2019,39,2,15:00:00,PHI,2,7,PHI,0,10,2506467,SHOTGUN,"1 RB, 2 TE, 2 WR",8,"3 DL, 4 LB, 4 DB",left,2019-09-08T17:45:06.000Z,2019-09-08T17:45:05.000Z,5-6,190,06/20/1983,Kansas State,RB,PHI,WAS,1,Lincoln Financial Field,"Philadelphia, Pa.",Outdoor,Grass,Sunny,79.0,49,4,W
6460,2019090806,20190908060888,home,67.84,44.38,4.56,1.86,0.46,226.37,256.73,2533039,Alshon Jeffery,17,2019,39,2,15:00:00,PHI,2,7,PHI,0,10,2506467,SHOTGUN,"1 RB, 2 TE, 2 WR",8,"3 DL, 4 LB, 4 DB",left,2019-09-08T17:45:06.000Z,2019-09-08T17:45:05.000Z,6-3,218,02/14/1990,South Carolina,WR,PHI,WAS,1,Lincoln Financial Field,"Philadelphia, Pa.",Outdoor,Grass,Sunny,79.0,49,4,W
6461,2019090806,20190908060888,home,72.76,25.58,0.93,0.92,0.09,302.97,116.47,2534434,Brandon Brooks,79,2019,39,2,15:00:00,PHI,2,7,PHI,0,10,2506467,SHOTGUN,"1 RB, 2 TE, 2 WR",8,"3 DL, 4 LB, 4 DB",left,2019-09-08T17:45:06.000Z,2019-09-08T17:45:05.000Z,6-5,335,08/19/1989,"Miami, O.",G,PHI,WAS,1,Lincoln Financial Field,"Philadelphia, Pa.",Outdoor,Grass,Sunny,79.0,49,4,W
6462,2019090806,20190908060888,home,75.43,27.6,3.0,2.07,0.32,315.06,91.52,2539286,Lane Johnson,65,2019,39,2,15:00:00,PHI,2,7,PHI,0,10,2506467,SHOTGUN,"1 RB, 2 TE, 2 WR",8,"3 DL, 4 LB, 4 DB",left,2019-09-08T17:45:06.000Z,2019-09-08T17:45:05.000Z,6-6,317,05/08/1990,Oklahoma,T,PHI,WAS,1,Lincoln Financial Field,"Philadelphia, Pa.",Outdoor,Grass,Sunny,79.0,49,4,W
6463,2019090806,20190908060888,home,69.66,18.36,3.2,3.62,0.32,303.59,246.93,2540158,Zach Ertz,86,2019,39,2,15:00:00,PHI,2,7,PHI,0,10,2506467,SHOTGUN,"1 RB, 2 TE, 2 WR",8,"3 DL, 4 LB, 4 DB",left,2019-09-08T17:45:06.000Z,2019-09-08T17:45:05.000Z,6-5,250,11/10/1990,Stanford,TE,PHI,WAS,1,Lincoln Financial Field,"Philadelphia, Pa.",Outdoor,Grass,Sunny,79.0,49,4,W
6464,2019090806,20190908060888,home,69.16,33.14,5.56,3.16,0.54,238.76,236.94,2552600,Nelson Agholor,13,2019,39,2,15:00:00,PHI,2,7,PHI,0,10,2506467,SHOTGUN,"1 RB, 2 TE, 2 WR",8,"3 DL, 4 LB, 4 DB",left,2019-09-08T17:45:06.000Z,2019-09-08T17:45:05.000Z,6-0,198,05/24/1993,Southern California,WR,PHI,WAS,1,Lincoln Financial Field,"Philadelphia, Pa.",Outdoor,Grass,Sunny,79.0,49,4,W
6465,2019090806,20190908060888,home,76.63,23.51,0.6,1.34,0.05,296.7,113.19,2555259,Carson Wentz,11,2019,39,2,15:00:00,PHI,2,7,PHI,0,10,2506467,SHOTGUN,"1 RB, 2 TE, 2 WR",8,"3 DL, 4 LB, 4 DB",left,2019-09-08T17:45:06.000Z,2019-09-08T17:45:05.000Z,6-5,237,12/30/1992,North Dakota State,QB,PHI,WAS,1,Lincoln Financial Field,"Philadelphia, Pa.",Outdoor,Grass,Sunny,79.0,49,4,W
6466,2019090806,20190908060888,home,72.22,22.62,1.26,2.62,0.13,252.1,119.1,2555495,Isaac Seumalo,73,2019,39,2,15:00:00,PHI,2,7,PHI,0,10,2506467,SHOTGUN,"1 RB, 2 TE, 2 WR",8,"3 DL, 4 LB, 4 DB",left,2019-09-08T17:45:06.000Z,2019-09-08T17:45:05.000Z,6-4,303,10/29/1993,Oregon State,G,PHI,WAS,1,Lincoln Financial Field,"Philadelphia, Pa.",Outdoor,Grass,Sunny,79.0,49,4,W
6467,2019090806,20190908060888,home,70.92,18.75,2.12,1.79,0.22,276.57,192.01,2560995,Dallas Goedert,88,2019,39,2,15:00:00,PHI,2,7,PHI,0,10,2506467,SHOTGUN,"1 RB, 2 TE, 2 WR",8,"3 DL, 4 LB, 4 DB",left,2019-09-08T17:45:06.000Z,2019-09-08T17:45:05.000Z,6-5,256,01/03/1995,South Dakota State,TE,PHI,WAS,1,Lincoln Financial Field,"Philadelphia, Pa.",Outdoor,Grass,Sunny,79.0,49,4,W
