,GameId,PlayId,Team,X,Y,S,A,Dis,Orientation,Dir,NflId,DisplayName,JerseyNumber,Season,YardLine,Quarter,GameClock,PossessionTeam,Down,Distance,FieldPosition,HomeScoreBeforePlay,VisitorScoreBeforePlay,NflIdRusher,OffenseFormation,OffensePersonnel,DefendersInTheBox,DefensePersonnel,PlayDirection,TimeHandoff,TimeSnap,PlayerHeight,PlayerWeight,PlayerBirthDate,PlayerCollegeName,Position,HomeTeamAbbr,VisitorTeamAbbr,Week,Stadium,Location,StadiumType,Turf,GameWeather,Temperature,Humidity,WindSpeed,WindDirection
17094,2019091501,20190915013026,away,36.92,22.88,2.93,1.43,0.3,335.19,323.57,2495746,Joe Staley,74,2019,28,3,06:09:00,SF,1,10,CIN,10,31,2558918,I_FORM,"2 RB, 2 TE, 1 WR",8,"5 DL, 2 LB, 4 DB",left,2019-09-15T19:03:40.000Z,2019-09-15T19:03:39.000Z,6-5,295,08/30/1984,Central Michigan,T,CIN,SF,2,Paul Brown Stadium,"Cincinnati, OH",Outdoor,Twenty Four/Seven Turf,Mostly Sunny,81.0,45,5,E
17095,2019091501,20190915013026,away,38.62,22.43,2.95,1.63,0.3,212.7,197.22,2508140,Mike Person,68,2019,28,3,06:09:00,SF,1,10,CIN,10,31,2558918,I_FORM,"2 RB, 2 TE, 1 WR",8,"5 DL, 2 LB, 4 DB",left,2019-09-15T19:03:40.000Z,2019-09-15T19:03:39.000Z,6-4,299,06/17/1988,Montana State,C,CIN,SF,2,Paul Brown Stadium,"Cincinnati, OH",Outdoor,Twenty Four/Seven Turf,Mostly Sunny,81.0,45,5,E
17096,2019091501,20190915013026,away,38.34,25.58,2.84,1.15,0.29,237.85,181.04,2540203,Levine Toilolo,83,2019,28,3,06:09:00,SF,1,10,CIN,10,31,2558918,I_FORM,"2 RB, 2 TE, 1 WR",8,"5 DL, 2 LB, 4 DB",left,2019-09-15T19:03:40.000Z,2019-09-15T19:03:39.000Z,6-8,268,07/30/1991,Stanford,TE,CIN,SF,2,Paul Brown Stadium,"Cincinnati, OH",Outdoor,Twenty Four/Seven Turf,Mostly Sunny,81.0,45,5,E
17097,2019091501,20190915013026,away,41.12,24.92,2.4,5.29,0.23,266.34,242.48,2540230,Kyle Juszczyk,44,2019,28,3,06:09:00,SF,1,10,CIN,10,31,2558918,I_FORM,"2 RB, 2 TE, 1 WR",8,"5 DL, 2 LB, 4 DB",left,2019-09-15T19:03:40.000Z,2019-09-15T19:03:39.000Z,6-1,240,04/23/1991,Harvard,RB,CIN,SF,2,Paul Brown Stadium,"Cincinnati, OH",Outdoor,Twenty Four/Seven Turf,Mostly Sunny,81.0,45,5,E
17098,2019091501,20190915013026,away,38.58,23.62,1.24,1.07,0.12,260.38,146.81,2543705,Weston Richburg,58,2019,28,3,06:09:00,SF,1,10,CIN,10,31,2558918,I_FORM,"2 RB, 2 TE, 1 WR",8,"5 DL, 2 LB, 4 DB",left,2019-09-15T19:03:40.000Z,2019-09-15T19:03:39.000Z,6-4,290,07/09/1991,Colorado State,C,CIN,SF,2,Paul Brown Stadium,"Cincinnati, OH",Outdoor,Twenty Four/Seven Turf,Mostly Sunny,81.0,45,5,E
17099,2019091501,20190915013026,away,42.1,24.39,4.41,1.91,0.43,78.42,70.85,2543801,Jimmy Garoppolo,10,2019,28,3,06:09:00,SF,1,10,CIN,10,31,2558918,I_FORM,"2 RB, 2 TE, 1 WR",8,"5 DL, 2 LB, 4 DB",left,2019-09-15T19:03:40.000Z,2019-09-15T19:03:39.000Z,6-2,225,11/02/1991,Eastern Illinois,QB,CIN,SF,2,Paul Brown Stadium,"Cincinnati, OH",Outdoor,Twenty Four/Seven Turf,Mostly Sunny,81.0,45,5,E
17100,2019091501,20190915013026,away,37.37,23.12,1.69,0.75,0.18,306.98,319.65,2552345,Laken Tomlinson,75,2019,28,3,06:09:00,SF,1,10,CIN,10,31,2558918,I_FORM,"2 RB, 2 TE, 1 WR",8,"5 DL, 2 LB, 4 DB",left,2019-09-15T19:03:40.000Z,2019-09-15T19:03:39.000Z,6-3,312,02/09/1992,Duke,G,CIN,SF,2,Paul Brown Stadium,"Cincinnati, OH",Outdoor,Twenty Four/Seven Turf,Mostly Sunny,81.0,45,5,E
17101,2019091501,20190915013026,away,38.43,17.48,2.57,1.16,0.25,220.92,202.47,2558266,George Kittle,85,2019,28,3,06:09:00,SF,1,10,CIN,10,31,2558918,I_FORM,"2 RB, 2 TE, 1 WR",8,"5 DL, 2 LB, 4 DB",left,2019-09-15T19:03:40.000Z,2019-09-15T19:03:39.000Z,6-4,250,10/09/1993,Iowa,TE,CIN,SF,2,Paul Brown Stadium,"Cincinnati, OH",Outdoor,Twenty Four/Seven Turf,Mostly Sunny,81.0,45,5,E
17102,2019091501,20190915013026,away,43.65,23.92,3.55,3.19,0.35,267.84,255.83,2558918,Matt Breida,22,2019,28,3,06:09:00,SF,1,10,CIN,10,31,2558918,I_FORM,"2 RB, 2 TE, 1 WR",8,"5 DL, 2 LB, 4 DB",left,2019-09-15T19:03:40.000Z,2019-09-15T19:03:39.000Z,5-11,190,02/28/1995,Georgia Southern,RB,CIN,SF,2,Paul Brown Stadium,"Cincinnati, OH",Outdoor,Twenty Four/Seven Turf,Mostly Sunny,81.0,45,5,E
17103,2019091501,20190915013026,away,38.88,24.4,2.65,2.5,0.26,337.43,164.18,2560805,Mike McGlinchey,69,2019,28,3,06:09:00,SF,1,10,CIN,10,31,2558918,I_FORM,"2 RB, 2 TE, 1 WR",8,"5 DL, 2 LB, 4 DB",left,2019-09-15T19:03:40.000Z,2019-09-15T19:03:39.000Z,6-8,315,01/12/1995,Notre Dame,OT,CIN,SF,2,Paul Brown Stadium,"Cincinnati, OH",Outdoor,Twenty Four/Seven Turf,Mostly Sunny,81.0,45,5,E
17104,2019091501,20190915013026,away,36.32,14.32,4.97,2.7,0.48,247.18,257.72,2560836,Dante Pettis,18,2019,28,3,06:09:00,SF,1,10,CIN,10,31,2558918,I_FORM,"2 RB, 2 TE, 1 WR",8,"5 DL, 2 LB, 4 DB",left,2019-09-15T19:03:40.000Z,2019-09-15T19:03:39.000Z,6-1,195,10/23/1995,Washington,WR,CIN,SF,2,Paul Brown Stadium,"Cincinnati, OH",Outdoor,Twenty Four/Seven Turf,Mostly Sunny,81.0,45,5,E
17105,2019091501,20190915013026,home,37.77,20.41,1.64,0.78,0.15,95.27,36.22,496780,Carlos Dunlap,96,2019,28,3,06:09:00,SF,1,10,CIN,10,31,2558918,I_FORM,"2 RB, 2 TE, 1 WR",8,"5 DL, 2 LB, 4 DB",left,2019-09-15T19:03:40.000Z,2019-09-15T19:03:39.000Z,6-6,285,02/28/1989,Florida,DE,CIN,SF,2,Paul Brown Stadium,"Cincinnati, OH",Outdoor,Twenty Four/Seven Turf,Mostly Sunny,81.0,45,5,E
17106,2019091501,20190915013026,home,21.47,24.54,1.88,1.21,0.19,81.82,273.58,2533060,Dre Kirkpatrick,27,2019,28,3,06:09:00,SF,1,10,CIN,10,31,2558918,I_FORM,"2 RB, 2 TE, 1 WR",8,"5 DL, 2 LB, 4 DB",left,2019-09-15T19:03:40.000Z,2019-09-15T19:03:39.000Z,6-2,190,10/26/1989,Alabama,CB,CIN,SF,2,Paul Brown Stadium,"Cincinnati, OH",Outdoor,Twenty Four/Seven Turf,Mostly Sunny,81.0,45,5,E
17107,2019091501,20190915013026,home,35.87,30.05,1.58,1.37,0.15,104.75,119.14,2539233,Shawn Williams,36,2019,28,3,06:09:00,SF,1,10,CIN,10,31,2558918,I_FORM,"2 RB, 2 TE, 1 WR",8,"5 DL, 2 LB, 4 DB",left,2019-09-15T19:03:40.000Z,2019-09-15T19:03:39.000Z,6-0,210,05/13/1991,Georgia,SS,CIN,SF,2,Paul Brown Stadium,"Cincinnati, OH",Outdoor,Twenty Four/Seven Turf,Mostly Sunny,81.0,45,5,E
17108,2019091501,20190915013026,home,34.43,27.23,1.95,2.26,0.19,94.86,47.21,2543814,Preston Brown,52,2019,28,3,06:09:00,SF,1,10,CIN,10,31,2558918,I_FORM,"2 RB, 2 TE, 1 WR",8,"5 DL, 2 LB, 4 DB",left,2019-09-15T19:03:40.000Z,2019-09-15T19:03:39.000Z,6-1,251,10/27/1992,Louisville,MLB,CIN,SF,2,Paul Brown Stadium,"Cincinnati, OH",Outdoor,Twenty Four/Seven Turf,Mostly Sunny,81.0,45,5,E
17109,2019091501,20190915013026,home,37.88,23.82,1.11,0.68,0.12,102.18,149.29,2555267,Andrew Billings,99,2019,28,3,06:09:00,SF,1,10,CIN,10,31,2558918,I_FORM,"2 RB, 2 TE, 1 WR",8,"5 DL, 2 LB, 4 DB",left,2019-09-15T19:03:40.000Z,2019-09-15T19:03:39.000Z,6-1,328,03/06/1995,Baylor,DT,CIN,SF,2,Paul Brown Stadium,"Cincinnati, OH",Outdoor,Twenty Four/Seven Turf,Mostly Sunny,81.0,45,5,E
17110,2019091501,20190915013026,home,35.51,22.72,1.19,2.97,0.13,73.36,77.56,2555528,Nick Vigil,59,2019,28,3,06:09:00,SF,1,10,CIN,10,31,2558918,I_FORM,"2 RB, 2 TE, 1 WR",8,"5 DL, 2 LB, 4 DB",left,2019-09-15T19:03:40.000Z,2019-09-15T19:03:39.000Z,6-2,235,08/20/1993,Utah State,OLB,CIN,SF,2,Paul Brown Stadium,"Cincinnati, OH",Outdoor,Twenty Four/Seven Turf,Mostly Sunny,81.0,45,5,E
17111,2019091501,20190915013026,home,31.28,12.86,2.74,0.47,0.27,65.47,249.84,2556367,William Jackson,22,2019,28,3,06:09:00,SF,1,10,CIN,10,31,2558918,I_FORM,"2 RB, 2 TE, 1 WR",8,"5 DL, 2 LB, 4 DB",left,2019-09-15T19:03:40.000Z,2019-09-15T19:03:39.000Z,6-0,196,10/27/1992,Houston,CB,CIN,SF,2,Paul Brown Stadium,"Cincinnati, OH",Outdoor,Twenty Four/Seven Turf,Mostly Sunny,81.0,45,5,E
17112,2019091501,20190915013026,home,38.28,24.51,1.67,1.79,0.18,88.27,151.31,2557851,Ryan Glasgow,98,2019,28,3,06:09:00,SF,1,10,CIN,10,31,2558918,I_FORM,"2 RB, 2 TE, 1 WR",8,"5 DL, 2 LB, 4 DB",left,2019-09-15T19:03:40.000Z,2019-09-15T19:03:39.000Z,6-3,302,09/30/1993,Michigan,DT,CIN,SF,2,Paul Brown Stadium,"Cincinnati, OH",Outdoor,Twenty Four/Seven Turf,Mostly Sunny,81.0,45,5,E
17113,2019091501,20190915013026,home,36.56,23.52,2.3,0.29,0.23,91.7,336.18,2559003,Josh Tupou,91,2019,28,3,06:09:00,SF,1,10,CIN,10,31,2558918,I_FORM,"2 RB, 2 TE, 1 WR",8,"5 DL, 2 LB, 4 DB",left,2019-09-15T19:03:40.000Z,2019-09-15T19:03:39.000Z,6-3,345,05/02/1994,Colorado,DT,CIN,SF,2,Paul Brown Stadium,"Cincinnati, OH",Outdoor,Twenty Four/Seven Turf,Mostly Sunny,81.0,45,5,E
17114,2019091501,20190915013026,home,37.94,26.21,2.07,0.98,0.21,156.1,150.25,2560745,Sam Hubbard,94,2019,28,3,06:09:00,SF,1,10,CIN,10,31,2558918,I_FORM,"2 RB, 2 TE, 1 WR",8,"5 DL, 2 LB, 4 DB",left,2019-09-15T19:03:40.000Z,2019-09-15T19:03:39.000Z,6-5,265,06/29/1995,Ohio State,DE,CIN,SF,2,Paul Brown Stadium,"Cincinnati, OH",Outdoor,Twenty Four/Seven Turf,Mostly Sunny,81.0,45,5,E
17115,2019091501,20190915013026,home,37.8,16.92,2.33,2.25,0.23,49.36,145.15,2560970,Jessie Bates,30,2019,28,3,06:09:00,SF,1,10,CIN,10,31,2558918,I_FORM,"2 RB, 2 TE, 1 WR",8,"5 DL, 2 LB, 4 DB",left,2019-09-15T19:03:40.000Z,2019-09-15T19:03:39.000Z,6-1,200,02/26/1997,Wake Forest,S,CIN,SF,2,Paul Brown Stadium,"Cincinnati, OH",Outdoor,Twenty Four/Seven Turf,Mostly Sunny,81.0,45,5,E
