,GameId,PlayId,Team,X,Y,S,A,Dis,Orientation,Dir,NflId,DisplayName,JerseyNumber,Season,YardLine,Quarter,GameClock,PossessionTeam,Down,Distance,FieldPosition,HomeScoreBeforePlay,VisitorScoreBeforePlay,NflIdRusher,OffenseFormation,OffensePersonnel,DefendersInTheBox,DefensePersonnel,PlayDirection,TimeHandoff,TimeSnap,PlayerHeight,PlayerWeight,PlayerBirthDate,PlayerCollegeName,Position,HomeTeamAbbr,VisitorTeamAbbr,Week,Stadium,Location,StadiumType,Turf,GameWeather,Temperature,Humidity,WindSpeed,WindDirection
16016,2019091500,20190915002334,away,94.42,28.61,1.84,2.57,0.23,223.84,154.44,71461,A.Q. Shipley,53,2019,17,3,12:48:00,ARZ,1,10,ARZ,17,6,2553435,SHOTGUN,"1 RB, 1 TE, 3 WR",6,"2 DL, 4 LB, 5 DB",left,2019-09-15T18:51:41.000Z,2019-09-15T18:51:40.000Z,6-1,307,05/22/1986,Penn State,C,BAL,ARI,2,M&T Stadium,"Baltimore, Maryland",Outdoor,Natural Grass,Sunny,82.0,60,8,NNW
16017,2019091500,20190915002334,away,93.32,19.06,2.69,3.59,0.26,0.07,285.72,2506106,Larry Fitzgerald,11,2019,17,3,12:48:00,ARZ,1,10,ARZ,17,6,2553435,SHOTGUN,"1 RB, 1 TE, 3 WR",6,"2 DL, 4 LB, 5 DB",left,2019-09-15T18:51:41.000Z,2019-09-15T18:51:40.000Z,6-3,218,08/31/1983,Pittsburgh,WR,BAL,ARI,2,M&T Stadium,"Baltimore, Maryland",Outdoor,Natural Grass,Sunny,82.0,60,8,NNW
16018,2019091500,20190915002334,away,93.71,29.45,2.77,0.58,0.31,166.65,197.99,2533342,J.R. Sweezy,64,2019,17,3,12:48:00,ARZ,1,10,ARZ,17,6,2553435,SHOTGUN,"1 RB, 1 TE, 3 WR",6,"2 DL, 4 LB, 5 DB",left,2019-09-15T18:51:41.000Z,2019-09-15T18:51:40.000Z,6-5,310,04/08/1989,North Carolina State,G,BAL,ARI,2,M&T Stadium,"Baltimore, Maryland",Outdoor,Natural Grass,Sunny,82.0,60,8,NNW
16019,2019091500,20190915002334,away,94.15,27.13,1.38,0.25,0.17,108.72,185.67,2540195,Justin Pugh,67,2019,17,3,12:48:00,ARZ,1,10,ARZ,17,6,2553435,SHOTGUN,"1 RB, 1 TE, 3 WR",6,"2 DL, 4 LB, 5 DB",left,2019-09-15T18:51:41.000Z,2019-09-15T18:51:40.000Z,6-5,311,08/15/1990,Syracuse,G,BAL,ARI,2,M&T Stadium,"Baltimore, Maryland",Outdoor,Natural Grass,Sunny,82.0,60,8,NNW
16020,2019091500,20190915002334,away,95.57,33.37,2.14,0.03,0.2,324.67,287.17,2552468,Maxx Williams,87,2019,17,3,12:48:00,ARZ,1,10,ARZ,17,6,2553435,SHOTGUN,"1 RB, 1 TE, 3 WR",6,"2 DL, 4 LB, 5 DB",left,2019-09-15T18:51:41.000Z,2019-09-15T18:51:40.000Z,6-4,252,04/12/1994,Minnesota,TE,BAL,ARI,2,M&T Stadium,"Baltimore, Maryland",Outdoor,Natural Grass,Sunny,82.0,60,8,NNW
16021,2019091500,20190915002334,away,94.71,25.94,2.85,3.42,0.27,339.21,185.06,2552626,D.J. Humphries,74,2019,17,3,12:48:00,ARZ,1,10,ARZ,17,6,2553435,SHOTGUN,"1 RB, 1 TE, 3 WR",6,"2 DL, 4 LB, 5 DB",left,2019-09-15T18:51:41.000Z,2019-09-15T18:51:40.000Z,6-5,307,12/28/1993,Florida,OT,BAL,ARI,2,M&T Stadium,"Baltimore, Maryland",Outdoor,Natural Grass,Sunny,82.0,60,8,NNW
16022,2019091500,20190915002334,away,98.17,30.59,3.59,2.65,0.35,243.05,221.44,2553435,David Johnson,31,2019,17,3,12:48:00,ARZ,1,10,ARZ,17,6,2553435,SHOTGUN,"1 RB, 1 TE, 3 WR",6,"2 DL, 4 LB, 5 DB",left,2019-09-15T18:51:41.000Z,2019-09-15T18:51:40.000Z,6-1,224,12/16/1991,Northern Iowa,RB,BAL,ARI,2,M&T Stadium,"Baltimore, Maryland",Outdoor,Natural Grass,Sunny,82.0,60,8,NNW
16023,2019091500,20190915002334,away,93.87,16.88,3.49,4.49,0.35,30.78,251.29,2553499,Damiere Byrd,14,2019,17,3,12:48:00,ARZ,1,10,ARZ,17,6,2553435,SHOTGUN,"1 RB, 1 TE, 3 WR",6,"2 DL, 4 LB, 5 DB",left,2019-09-15T18:51:41.000Z,2019-09-15T18:51:40.000Z,5-9,180,01/27/1993,South Carolina,WR,BAL,ARI,2,M&T Stadium,"Baltimore, Maryland",Outdoor,Natural Grass,Sunny,82.0,60,8,NNW
16024,2019091500,20190915002334,away,93.75,31.42,2.56,1.09,0.25,176.13,196.42,2556628,Justin Murray,71,2019,17,3,12:48:00,ARZ,1,10,ARZ,17,6,2553435,SHOTGUN,"1 RB, 1 TE, 3 WR",6,"2 DL, 4 LB, 5 DB",left,2019-09-15T18:51:41.000Z,2019-09-15T18:51:40.000Z,6-5,315,04/19/1993,Cincinnati,OT,BAL,ARI,2,M&T Stadium,"Baltimore, Maryland",Outdoor,Natural Grass,Sunny,82.0,60,8,NNW
16025,2019091500,20190915002334,away,92.59,43.26,3.33,3.03,0.33,277.41,223.28,2560781,Christian Kirk,13,2019,17,3,12:48:00,ARZ,1,10,ARZ,17,6,2553435,SHOTGUN,"1 RB, 1 TE, 3 WR",6,"2 DL, 4 LB, 5 DB",left,2019-09-15T18:51:41.000Z,2019-09-15T18:51:40.000Z,5-11,200,11/18/1996,Texas A&M,WR,BAL,ARI,2,M&T Stadium,"Baltimore, Maryland",Outdoor,Natural Grass,Sunny,82.0,60,8,NNW
16026,2019091500,20190915002334,away,98.34,29.98,0.39,1.21,0.05,253.84,29.1,2562382,Kyler Murray,1,2019,17,3,12:48:00,ARZ,1,10,ARZ,17,6,2553435,SHOTGUN,"1 RB, 1 TE, 3 WR",6,"2 DL, 4 LB, 5 DB",left,2019-09-15T18:51:41.000Z,2019-09-15T18:51:40.000Z,5-10,207,08/07/1997,Oklahoma,QB,BAL,ARI,2,M&T Stadium,"Baltimore, Maryland",Outdoor,Natural Grass,Sunny,82.0,60,8,NNW
16027,2019091500,20190915002334,home,88.69,19.0,1.52,1.26,0.15,98.9,281.71,4365,Brandon Carr,24,2019,17,3,12:48:00,ARZ,1,10,ARZ,17,6,2553435,SHOTGUN,"1 RB, 1 TE, 3 WR",6,"2 DL, 4 LB, 5 DB",left,2019-09-15T18:51:41.000Z,2019-09-15T18:51:40.000Z,6-0,210,05/19/1986,Grand Valley State,CB,BAL,ARI,2,M&T Stadium,"Baltimore, Maryland",Outdoor,Natural Grass,Sunny,82.0,60,8,NNW
16028,2019091500,20190915002334,home,92.5,31.08,2.72,0.45,0.26,309.51,181.19,2495201,Pernell McPhee,90,2019,17,3,12:48:00,ARZ,1,10,ARZ,17,6,2553435,SHOTGUN,"1 RB, 1 TE, 3 WR",6,"2 DL, 4 LB, 5 DB",left,2019-09-15T18:51:41.000Z,2019-09-15T18:51:40.000Z,6-3,265,12/17/1988,Mississippi State,OLB,BAL,ARI,2,M&T Stadium,"Baltimore, Maryland",Outdoor,Natural Grass,Sunny,82.0,60,8,NNW
16029,2019091500,20190915002334,home,82.87,22.95,1.73,3.07,0.18,308.21,288.92,2508080,Earl Thomas,29,2019,17,3,12:48:00,ARZ,1,10,ARZ,17,6,2553435,SHOTGUN,"1 RB, 1 TE, 3 WR",6,"2 DL, 4 LB, 5 DB",left,2019-09-15T18:51:41.000Z,2019-09-15T18:51:40.000Z,5-10,202,05/07/1989,Texas,FS,BAL,ARI,2,M&T Stadium,"Baltimore, Maryland",Outdoor,Natural Grass,Sunny,82.0,60,8,NNW
16030,2019091500,20190915002334,home,85.95,32.39,3.42,1.9,0.34,107.19,96.37,2540164,Tony Jefferson,23,2019,17,3,12:48:00,ARZ,1,10,ARZ,17,6,2553435,SHOTGUN,"1 RB, 1 TE, 3 WR",6,"2 DL, 4 LB, 5 DB",left,2019-09-15T18:51:41.000Z,2019-09-15T18:51:40.000Z,5-11,211,01/27/1992,Oklahoma,SS,BAL,ARI,2,M&T Stadium,"Baltimore, Maryland",Outdoor,Natural Grass,Sunny,82.0,60,8,NNW
16031,2019091500,20190915002334,home,93.25,26.78,1.56,0.25,0.19,261.27,157.84,2541302,Brandon Williams,98,2019,17,3,12:48:00,ARZ,1,10,ARZ,17,6,2553435,SHOTGUN,"1 RB, 1 TE, 3 WR",6,"2 DL, 4 LB, 5 DB",left,2019-09-15T18:51:41.000Z,2019-09-15T18:51:40.000Z,6-1,336,02/21/1989,Missouri Southern,DT,BAL,ARI,2,M&T Stadium,"Baltimore, Maryland",Outdoor,Natural Grass,Sunny,82.0,60,8,NNW
16032,2019091500,20190915002334,home,93.11,24.25,0.9,1.19,0.09,316.62,79.59,2555505,Matt Judon,99,2019,17,3,12:48:00,ARZ,1,10,ARZ,17,6,2553435,SHOTGUN,"1 RB, 1 TE, 3 WR",6,"2 DL, 4 LB, 5 DB",left,2019-09-15T18:51:41.000Z,2019-09-15T18:51:40.000Z,6-3,261,08/15/1992,Grand Valley State,OLB,BAL,ARI,2,M&T Stadium,"Baltimore, Maryland",Outdoor,Natural Grass,Sunny,82.0,60,8,NNW
16033,2019091500,20190915002334,home,88.03,27.3,1.47,2.34,0.14,259.57,99.25,2556642,Patrick Onwuasor,48,2019,17,3,12:48:00,ARZ,1,10,ARZ,17,6,2553435,SHOTGUN,"1 RB, 1 TE, 3 WR",6,"2 DL, 4 LB, 5 DB",left,2019-09-15T18:51:41.000Z,2019-09-15T18:51:40.000Z,6-0,227,08/22/1992,Portland State,ILB,BAL,ARI,2,M&T Stadium,"Baltimore, Maryland",Outdoor,Natural Grass,Sunny,82.0,60,8,NNW
16034,2019091500,20190915002334,home,93.42,28.66,2.16,0.42,0.24,205.5,132.8,2556650,Michael Pierce,97,2019,17,3,12:48:00,ARZ,1,10,ARZ,17,6,2553435,SHOTGUN,"1 RB, 1 TE, 3 WR",6,"2 DL, 4 LB, 5 DB",left,2019-09-15T18:51:41.000Z,2019-09-15T18:51:40.000Z,6-0,340,11/06/1992,Samford,DT,BAL,ARI,2,M&T Stadium,"Baltimore, Maryland",Outdoor,Natural Grass,Sunny,82.0,60,8,NNW
16035,2019091500,20190915002334,home,91.57,43.44,1.87,2.8,0.19,192.82,222.86,2558067,Marlon Humphrey,44,2019,17,3,12:48:00,ARZ,1,10,ARZ,17,6,2553435,SHOTGUN,"1 RB, 1 TE, 3 WR",6,"2 DL, 4 LB, 5 DB",left,2019-09-15T18:51:41.000Z,2019-09-15T18:51:40.000Z,6-0,197,07/08/1996,Alabama,CB,BAL,ARI,2,M&T Stadium,"Baltimore, Maryland",Outdoor,Natural Grass,Sunny,82.0,60,8,NNW
16036,2019091500,20190915002334,home,93.37,34.45,2.11,0.39,0.2,146.16,117.04,2560947,Kenny Young,40,2019,17,3,12:48:00,ARZ,1,10,ARZ,17,6,2553435,SHOTGUN,"1 RB, 1 TE, 3 WR",6,"2 DL, 4 LB, 5 DB",left,2019-09-15T18:51:41.000Z,2019-09-15T18:51:40.000Z,6-1,235,11/15/1994,UCLA,LB,BAL,ARI,2,M&T Stadium,"Baltimore, Maryland",Outdoor,Natural Grass,Sunny,82.0,60,8,NNW
16037,2019091500,20190915002334,home,86.95,15.59,2.73,5.49,0.25,313.76,232.24,2560963,Anthony Averett,34,2019,17,3,12:48:00,ARZ,1,10,ARZ,17,6,2553435,SHOTGUN,"1 RB, 1 TE, 3 WR",6,"2 DL, 4 LB, 5 DB",left,2019-09-15T18:51:41.000Z,2019-09-15T18:51:40.000Z,5-11,178,11/30/1994,Alabama,CB,BAL,ARI,2,M&T Stadium,"Baltimore, Maryland",Outdoor,Natural Grass,Sunny,82.0,60,8,NNW
