,GameId,PlayId,Team,X,Y,S,A,Dis,Orientation,Dir,NflId,DisplayName,JerseyNumber,Season,YardLine,Quarter,GameClock,PossessionTeam,Down,Distance,FieldPosition,HomeScoreBeforePlay,VisitorScoreBeforePlay,NflIdRusher,OffenseFormation,OffensePersonnel,DefendersInTheBox,DefensePersonnel,PlayDirection,TimeHandoff,TimeSnap,PlayerHeight,PlayerWeight,PlayerBirthDate,PlayerCollegeName,Position,HomeTeamAbbr,VisitorTeamAbbr,Week,Stadium,Location,StadiumType,Turf,GameWeather,Temperature,Humidity,WindSpeed,WindDirection
56738,2019092910,20190929100120,away,73.74,17.88,1.24,1.99,0.13,58.89,154.95,496790,Everson Griffen,97,2019,37,1,13:02:00,CHI,1,10,CHI,0,0,2558250,SHOTGUN,"1 RB, 1 TE, 3 WR",6,"4 DL, 2 LB, 5 DB",left,2019-09-29T20:28:58.000Z,2019-09-29T20:28:56.000Z,6-3,273,12/22/1987,Southern California,DE,CHI,MIN,4,Soldier Field,"Chicago, IL",Outdoor,Natural Grass,Cloudy,67.0,89,8,East
56739,2019092910,20190929100120,away,71.77,22.39,2.11,0.69,0.22,84.83,180.82,496802,Linval Joseph,98,2019,37,1,13:02:00,CHI,1,10,CHI,0,0,2558250,SHOTGUN,"1 RB, 1 TE, 3 WR",6,"4 DL, 2 LB, 5 DB",left,2019-09-29T20:28:58.000Z,2019-09-29T20:28:56.000Z,6-4,329,10/10/1988,East Carolina,DT,CHI,MIN,4,Soldier Field,"Chicago, IL",Outdoor,Natural Grass,Cloudy,67.0,89,8,East
56740,2019092910,20190929100120,away,60.92,22.0,1.88,2.29,0.19,83.28,117.1,2532948,Harrison Smith,22,2019,37,1,13:02:00,CHI,1,10,CHI,0,0,2558250,SHOTGUN,"1 RB, 1 TE, 3 WR",6,"4 DL, 2 LB, 5 DB",left,2019-09-29T20:28:58.000Z,2019-09-29T20:28:56.000Z,6-2,214,02/02/1989,Notre Dame,FS,CHI,MIN,4,Soldier Field,"Chicago, IL",Outdoor,Natural Grass,Cloudy,67.0,89,8,East
56741,2019092910,20190929100120,away,64.36,14.07,3.39,1.69,0.34,91.86,242.42,2540155,Xavier Rhodes,29,2019,37,1,13:02:00,CHI,1,10,CHI,0,0,2558250,SHOTGUN,"1 RB, 1 TE, 3 WR",6,"4 DL, 2 LB, 5 DB",left,2019-09-29T20:28:58.000Z,2019-09-29T20:28:56.000Z,6-1,218,06/19/1990,Florida State,CB,CHI,MIN,4,Soldier Field,"Chicago, IL",Outdoor,Natural Grass,Cloudy,67.0,89,8,East
56742,2019092910,20190929100120,away,71.81,20.81,3.46,0.87,0.34,134.34,100.37,2543459,Anthony Barr,55,2019,37,1,13:02:00,CHI,1,10,CHI,0,0,2558250,SHOTGUN,"1 RB, 1 TE, 3 WR",6,"4 DL, 2 LB, 5 DB",left,2019-09-29T20:28:58.000Z,2019-09-29T20:28:56.000Z,6-5,255,03/18/1992,UCLA,OLB,CHI,MIN,4,Soldier Field,"Chicago, IL",Outdoor,Natural Grass,Cloudy,67.0,89,8,East
56743,2019092910,20190929100120,away,72.31,19.78,2.15,1.31,0.22,81.73,191.78,2543706,Shamar Stephen,93,2019,37,1,13:02:00,CHI,1,10,CHI,0,0,2558250,SHOTGUN,"1 RB, 1 TE, 3 WR",6,"4 DL, 2 LB, 5 DB",left,2019-09-29T20:28:58.000Z,2019-09-29T20:28:56.000Z,6-5,310,02/25/1991,Connecticut,NT,CHI,MIN,4,Soldier Field,"Chicago, IL",Outdoor,Natural Grass,Cloudy,67.0,89,8,East
56744,2019092910,20190929100120,away,69.59,29.05,1.55,2.96,0.14,122.88,178.15,2552312,Eric Kendricks,54,2019,37,1,13:02:00,CHI,1,10,CHI,0,0,2558250,SHOTGUN,"1 RB, 1 TE, 3 WR",6,"4 DL, 2 LB, 5 DB",left,2019-09-29T20:28:58.000Z,2019-09-29T20:28:56.000Z,6-0,232,02/29/1992,UCLA,MLB,CHI,MIN,4,Soldier Field,"Chicago, IL",Outdoor,Natural Grass,Cloudy,67.0,89,8,East
56745,2019092910,20190929100120,away,64.09,43.11,2.03,0.72,0.2,73.53,282.83,2552448,Trae Waynes,26,2019,37,1,13:02:00,CHI,1,10,CHI,0,0,2558250,SHOTGUN,"1 RB, 1 TE, 3 WR",6,"4 DL, 2 LB, 5 DB",left,2019-09-29T20:28:58.000Z,2019-09-29T20:28:56.000Z,6-0,190,07/25/1992,Michigan State,CB,CHI,MIN,4,Soldier Field,"Chicago, IL",Outdoor,Natural Grass,Cloudy,67.0,89,8,East
56746,2019092910,20190929100120,away,71.9,25.05,2.58,0.84,0.26,100.87,192.17,2552603,Danielle Hunter,99,2019,37,1,13:02:00,CHI,1,10,CHI,0,0,2558250,SHOTGUN,"1 RB, 1 TE, 3 WR",6,"4 DL, 2 LB, 5 DB",left,2019-09-29T20:28:58.000Z,2019-09-29T20:28:56.000Z,6-5,252,10/29/1994,Louisiana State,DE,CHI,MIN,4,Soldier Field,"Chicago, IL",Outdoor,Natural Grass,Cloudy,67.0,89,8,East
56747,2019092910,20190929100120,away,60.68,37.26,1.88,1.36,0.18,96.93,334.11,2553655,Anthony Harris,41,2019,37,1,13:02:00,CHI,1,10,CHI,0,0,2558250,SHOTGUN,"1 RB, 1 TE, 3 WR",6,"4 DL, 2 LB, 5 DB",left,2019-09-29T20:28:58.000Z,2019-09-29T20:28:56.000Z,6-1,202,10/09/1991,Virginia,FS,CHI,MIN,4,Soldier Field,"Chicago, IL",Outdoor,Natural Grass,Cloudy,67.0,89,8,East
56748,2019092910,20190929100120,away,70.3,38.67,3.89,2.53,0.37,101.04,21.95,2555177,Mackensie Alexander,20,2019,37,1,13:02:00,CHI,1,10,CHI,0,0,2558250,SHOTGUN,"1 RB, 1 TE, 3 WR",6,"4 DL, 2 LB, 5 DB",left,2019-09-29T20:28:58.000Z,2019-09-29T20:28:56.000Z,5-10,192,11/12/1993,Clemson,CB,CHI,MIN,4,Soldier Field,"Chicago, IL",Outdoor,Natural Grass,Cloudy,67.0,89,8,East
56749,2019092910,20190929100120,home,72.04,22.98,2.89,1.17,0.3,205.48,215.49,497026,Ted Larsen,62,2019,37,1,13:02:00,CHI,1,10,CHI,0,0,2558250,SHOTGUN,"1 RB, 1 TE, 3 WR",6,"4 DL, 2 LB, 5 DB",left,2019-09-29T20:28:58.000Z,2019-09-29T20:28:56.000Z,6-3,323,06/13/1987,North Carolina State,C,CHI,MIN,4,Soldier Field,"Chicago, IL",Outdoor,Natural Grass,Cloudy,67.0,89,8,East
56750,2019092910,20190929100120,home,72.81,24.98,2.71,1.25,0.28,266.61,207.45,2533543,Bobby Massie,70,2019,37,1,13:02:00,CHI,1,10,CHI,0,0,2558250,SHOTGUN,"1 RB, 1 TE, 3 WR",6,"4 DL, 2 LB, 5 DB",left,2019-09-29T20:28:58.000Z,2019-09-29T20:28:56.000Z,6-6,325,08/01/1989,Mississippi,T,CHI,MIN,4,Soldier Field,"Chicago, IL",Outdoor,Natural Grass,Cloudy,67.0,89,8,East
56751,2019092910,20190929100120,home,72.88,38.64,2.41,1.94,0.23,106.5,344.48,2543509,Allen Robinson,12,2019,37,1,13:02:00,CHI,1,10,CHI,0,0,2558250,SHOTGUN,"1 RB, 1 TE, 3 WR",6,"4 DL, 2 LB, 5 DB",left,2019-09-29T20:28:58.000Z,2019-09-29T20:28:56.000Z,6-2,220,08/24/1993,Penn State,WR,CHI,MIN,4,Soldier Field,"Chicago, IL",Outdoor,Natural Grass,Cloudy,67.0,89,8,East
56752,2019092910,20190929100120,home,74.11,18.76,1.42,1.17,0.15,21.97,196.12,2550169,Charles Leno Jr.,72,2019,37,1,13:02:00,CHI,1,10,CHI,0,0,2558250,SHOTGUN,"1 RB, 1 TE, 3 WR",6,"4 DL, 2 LB, 5 DB",left,2019-09-29T20:28:58.000Z,2019-09-29T20:28:56.000Z,6-3,305,10/09/1991,Boise State,T,CHI,MIN,4,Soldier Field,"Chicago, IL",Outdoor,Natural Grass,Cloudy,67.0,89,8,East
56753,2019092910,20190929100120,home,70.46,14.07,5.5,2.5,0.54,234.86,244.84,2550284,Trey Burton,80,2019,37,1,13:02:00,CHI,1,10,CHI,0,0,2558250,SHOTGUN,"1 RB, 1 TE, 3 WR",6,"4 DL, 2 LB, 5 DB",left,2019-09-29T20:28:58.000Z,2019-09-29T20:28:56.000Z,6-2,238,10/29/1991,Florida,TE,CHI,MIN,4,Soldier Field,"Chicago, IL",Outdoor,Natural Grass,Cloudy,67.0,89,8,East
56754,2019092910,20190929100120,home,73.15,19.75,2.02,1.36,0.21,218.97,194.27,2555132,Cody Whitehair,65,2019,37,1,13:02:00,CHI,1,10,CHI,0,0,2558250,SHOTGUN,"1 RB, 1 TE, 3 WR",6,"4 DL, 2 LB, 5 DB",left,2019-09-29T20:28:58.000Z,2019-09-29T20:28:56.000Z,6-3,309,07/11/1992,Kansas State,OG,CHI,MIN,4,Soldier Field,"Chicago, IL",Outdoor,Natural Grass,Cloudy,67.0,89,8,East
56755,2019092910,20190929100120,home,76.85,23.59,1.47,1.58,0.15,330.37,283.95,2558008,Mitchell Trubisky,10,2019,37,1,13:02:00,CHI,1,10,CHI,0,0,2558250,SHOTGUN,"1 RB, 1 TE, 3 WR",6,"4 DL, 2 LB, 5 DB",left,2019-09-29T20:28:58.000Z,2019-09-29T20:28:56.000Z,6-2,215,08/20/1994,North Carolina,QB,CHI,MIN,4,Soldier Field,"Chicago, IL",Outdoor,Natural Grass,Cloudy,67.0,89,8,East
56756,2019092910,20190929100120,home,76.68,24.21,3.93,3.1,0.38,262.67,243.1,2558250,Tarik Cohen,29,2019,37,1,13:02:00,CHI,1,10,CHI,0,0,2558250,SHOTGUN,"1 RB, 1 TE, 3 WR",6,"4 DL, 2 LB, 5 DB",left,2019-09-29T20:28:58.000Z,2019-09-29T20:28:56.000Z,5-6,191,07/26/1995,North Carolina A&T,RB,CHI,MIN,4,Soldier Field,"Chicago, IL",Outdoor,Natural Grass,Cloudy,67.0,89,8,East
56757,2019092910,20190929100120,home,75.98,37.36,4.77,0.88,0.47,271.99,11.68,2560810,Anthony Miller,17,2019,37,1,13:02:00,CHI,1,10,CHI,0,0,2558250,SHOTGUN,"1 RB, 1 TE, 3 WR",6,"4 DL, 2 LB, 5 DB",left,2019-09-29T20:28:58.000Z,2019-09-29T20:28:56.000Z,5-11,199,10/09/1994,Memphis,WR,CHI,MIN,4,Soldier Field,"Chicago, IL",Outdoor,Natural Grass,Cloudy,67.0,89,8,East
56758,2019092910,20190929100120,home,72.53,44.24,3.39,0.57,0.33,269.65,297.11,2560939,Javon Wims,83,2019,37,1,13:02:00,CHI,1,10,CHI,0,0,2558250,SHOTGUN,"1 RB, 1 TE, 3 WR",6,"4 DL, 2 LB, 5 DB",left,2019-09-29T20:28:58.000Z,2019-09-29T20:28:56.000Z,6-2,221,09/11/1994,Georgia,WR,CHI,MIN,4,Soldier Field,"Chicago, IL",Outdoor,Natural Grass,Cloudy,67.0,89,8,East
56759,2019092910,20190929100120,home,73.22,22.05,2.5,1.73,0.25,244.55,175.47,2561035,James Daniels,68,2019,37,1,13:02:00,CHI,1,10,CHI,0,0,2558250,SHOTGUN,"1 RB, 1 TE, 3 WR",6,"4 DL, 2 LB, 5 DB",left,2019-09-29T20:28:58.000Z,2019-09-29T20:28:56.000Z,6-3,305,09/13/1997,Iowa,C,CHI,MIN,4,Soldier Field,"Chicago, IL",Outdoor,Natural Grass,Cloudy,67.0,89,8,East
