,GameId,PlayId,Team,X,Y,S,A,Dis,Orientation,Dir,NflId,DisplayName,JerseyNumber,Season,YardLine,Quarter,GameClock,PossessionTeam,Down,Distance,FieldPosition,HomeScoreBeforePlay,VisitorScoreBeforePlay,NflIdRusher,OffenseFormation,OffensePersonnel,DefendersInTheBox,DefensePersonnel,PlayDirection,TimeHandoff,TimeSnap,PlayerHeight,PlayerWeight,PlayerBirthDate,PlayerCollegeName,Position,HomeTeamAbbr,VisitorTeamAbbr,Week,Stadium,Location,StadiumType,Turf,GameWeather,Temperature,Humidity,WindSpeed,WindDirection
21164,2019091505,20190915050872,away,38.35,31.0,2.1,3.91,0.22,98.03,12.03,238498,Julian Edelman,11,2019,29,2,12:38:00,NE,1,10,NE,0,7,2560809,I_FORM,"2 RB, 1 TE, 2 WR",7,"4 DL, 3 LB, 4 DB",right,2019-09-15T17:38:23.000Z,2019-09-15T17:38:22.000Z,5-10,200,05/22/1986,Kent State,WR,MIA,NE,2,Hard Rock Stadium,"Miami Gardens, FL",Outdoor,Natural Grass,Mostly Cloudy,87.0,67,4,S
21165,2019091505,20190915050872,away,37.09,31.1,5.22,1.28,0.54,19.13,356.41,497030,Marshall Newhouse,72,2019,29,2,12:38:00,NE,1,10,NE,0,7,2560809,I_FORM,"2 RB, 1 TE, 2 WR",7,"4 DL, 3 LB, 4 DB",right,2019-09-15T17:38:23.000Z,2019-09-15T17:38:22.000Z,6-4,328,09/29/1988,Texas Christian,T,MIA,NE,2,Hard Rock Stadium,"Miami Gardens, FL",Outdoor,Natural Grass,Mostly Cloudy,87.0,67,4,S
21166,2019091505,20190915050872,away,34.77,25.03,3.15,1.49,0.32,287.48,279.79,2504211,Tom Brady,12,2019,29,2,12:38:00,NE,1,10,NE,0,7,2560809,I_FORM,"2 RB, 1 TE, 2 WR",7,"4 DL, 3 LB, 4 DB",right,2019-09-15T17:38:23.000Z,2019-09-15T17:38:22.000Z,6-4,225,08/03/1977,Michigan,QB,MIA,NE,2,Hard Rock Stadium,"Miami Gardens, FL",Outdoor,Natural Grass,Mostly Cloudy,87.0,67,4,S
21167,2019091505,20190915050872,away,35.04,28.28,5.66,1.41,0.56,36.27,10.61,2508101,James Develin,46,2019,29,2,12:38:00,NE,1,10,NE,0,7,2560809,I_FORM,"2 RB, 1 TE, 2 WR",7,"4 DL, 3 LB, 4 DB",right,2019-09-15T17:38:23.000Z,2019-09-15T17:38:22.000Z,6-3,255,07/23/1988,Brown,FB,MIA,NE,2,Hard Rock Stadium,"Miami Gardens, FL",Outdoor,Natural Grass,Mostly Cloudy,87.0,67,4,S
21168,2019091505,20190915050872,away,40.43,31.84,2.47,2.86,0.25,98.66,85.03,2537931,Josh Gordon,10,2019,29,2,12:38:00,NE,1,10,NE,0,7,2560809,I_FORM,"2 RB, 1 TE, 2 WR",7,"4 DL, 3 LB, 4 DB",right,2019-09-15T17:38:23.000Z,2019-09-15T17:38:22.000Z,6-3,225,04/13/1991,Baylor,WR,MIA,NE,2,Hard Rock Stadium,"Miami Gardens, FL",Outdoor,Natural Grass,Mostly Cloudy,87.0,67,4,S
21169,2019091505,20190915050872,away,37.65,26.39,4.51,0.6,0.48,56.04,354.2,2552563,Shaq Mason,69,2019,29,2,12:38:00,NE,1,10,NE,0,7,2560809,I_FORM,"2 RB, 1 TE, 2 WR",7,"4 DL, 3 LB, 4 DB",right,2019-09-15T17:38:23.000Z,2019-09-15T17:38:22.000Z,6-1,310,08/28/1993,Georgia Tech,G,MIA,NE,2,Hard Rock Stadium,"Miami Gardens, FL",Outdoor,Natural Grass,Mostly Cloudy,87.0,67,4,S
21170,2019091505,20190915050872,away,40.23,21.48,5.15,1.78,0.51,66.34,43.55,2553667,Matt LaCosse,83,2019,29,2,12:38:00,NE,1,10,NE,0,7,2560809,I_FORM,"2 RB, 1 TE, 2 WR",7,"4 DL, 3 LB, 4 DB",right,2019-09-15T17:38:23.000Z,2019-09-15T17:38:22.000Z,6-6,255,09/21/1992,Illinois,TE,MIA,NE,2,Hard Rock Stadium,"Miami Gardens, FL",Outdoor,Natural Grass,Mostly Cloudy,87.0,67,4,S
21171,2019091505,20190915050872,away,40.16,27.31,4.3,1.86,0.45,51.47,38.06,2555145,Ted Karras,75,2019,29,2,12:38:00,NE,1,10,NE,0,7,2560809,I_FORM,"2 RB, 1 TE, 2 WR",7,"4 DL, 3 LB, 4 DB",right,2019-09-15T17:38:23.000Z,2019-09-15T17:38:22.000Z,6-4,305,03/15/1993,Illinois,C,MIA,NE,2,Hard Rock Stadium,"Miami Gardens, FL",Outdoor,Natural Grass,Mostly Cloudy,87.0,67,4,S
21172,2019091505,20190915050872,away,38.6,28.84,3.59,0.46,0.38,90.93,10.08,2555281,Joe Thuney,62,2019,29,2,12:38:00,NE,1,10,NE,0,7,2560809,I_FORM,"2 RB, 1 TE, 2 WR",7,"4 DL, 3 LB, 4 DB",right,2019-09-15T17:38:23.000Z,2019-09-15T17:38:22.000Z,6-5,308,11/18/1992,North Carolina State,G,MIA,NE,2,Hard Rock Stadium,"Miami Gardens, FL",Outdoor,Natural Grass,Mostly Cloudy,87.0,67,4,S
21173,2019091505,20190915050872,away,32.6,27.88,6.0,2.77,0.58,68.88,18.59,2560809,Sony Michel,26,2019,29,2,12:38:00,NE,1,10,NE,0,7,2560809,I_FORM,"2 RB, 1 TE, 2 WR",7,"4 DL, 3 LB, 4 DB",right,2019-09-15T17:38:23.000Z,2019-09-15T17:38:22.000Z,5-11,215,02/17/1995,Georgia,RB,MIA,NE,2,Hard Rock Stadium,"Miami Gardens, FL",Outdoor,Natural Grass,Mostly Cloudy,87.0,67,4,S
21174,2019091505,20190915050872,away,38.32,24.57,4.34,1.1,0.43,55.4,16.52,2561058,Korey Cunningham,74,2019,29,2,12:38:00,NE,1,10,NE,0,7,2560809,I_FORM,"2 RB, 1 TE, 2 WR",7,"4 DL, 3 LB, 4 DB",right,2019-09-15T17:38:23.000Z,2019-09-15T17:38:22.000Z,6-6,305,05/17/1995,Cincinnati,T,MIA,NE,2,Hard Rock Stadium,"Miami Gardens, FL",Outdoor,Natural Grass,Mostly Cloudy,87.0,67,4,S
21175,2019091505,20190915050872,home,39.2,28.26,3.54,2.43,0.36,319.92,7.37,2539224,Tank Carradine,92,2019,29,2,12:38:00,NE,1,10,NE,0,7,2560809,I_FORM,"2 RB, 1 TE, 2 WR",7,"4 DL, 3 LB, 4 DB",right,2019-09-15T17:38:23.000Z,2019-09-15T17:38:22.000Z,6-4,270,02/18/1990,Florida State,DE,MIA,NE,2,Hard Rock Stadium,"Miami Gardens, FL",Outdoor,Natural Grass,Mostly Cloudy,87.0,67,4,S
21176,2019091505,20190915050872,home,38.39,24.99,4.29,1.22,0.42,302.22,342.18,2539231,John Jenkins,95,2019,29,2,12:38:00,NE,1,10,NE,0,7,2560809,I_FORM,"2 RB, 1 TE, 2 WR",7,"4 DL, 3 LB, 4 DB",right,2019-09-15T17:38:23.000Z,2019-09-15T17:38:22.000Z,6-3,327,07/11/1989,Georgia,NT,MIA,NE,2,Hard Rock Stadium,"Miami Gardens, FL",Outdoor,Natural Grass,Mostly Cloudy,87.0,67,4,S
21177,2019091505,20190915050872,home,51.15,35.86,3.49,4.61,0.32,277.64,308.92,2552434,Bobby McCain,28,2019,29,2,12:38:00,NE,1,10,NE,0,7,2560809,I_FORM,"2 RB, 1 TE, 2 WR",7,"4 DL, 3 LB, 4 DB",right,2019-09-15T17:38:23.000Z,2019-09-15T17:38:22.000Z,5-11,192,08/18/1993,Memphis,CB,MIA,NE,2,Hard Rock Stadium,"Miami Gardens, FL",Outdoor,Natural Grass,Mostly Cloudy,87.0,67,4,S
21178,2019091505,20190915050872,home,40.17,34.49,3.59,5.72,0.33,253.75,285.15,2555539,Xavien Howard,25,2019,29,2,12:38:00,NE,1,10,NE,0,7,2560809,I_FORM,"2 RB, 1 TE, 2 WR",7,"4 DL, 3 LB, 4 DB",right,2019-09-15T17:38:23.000Z,2019-09-15T17:38:22.000Z,6-1,200,07/04/1993,Baylor,CB,MIA,NE,2,Hard Rock Stadium,"Miami Gardens, FL",Outdoor,Natural Grass,Mostly Cloudy,87.0,67,4,S
21179,2019091505,20190915050872,home,39.89,19.28,3.72,1.96,0.38,339.38,16.71,2558001,Charles Harris,90,2019,29,2,12:38:00,NE,1,10,NE,0,7,2560809,I_FORM,"2 RB, 1 TE, 2 WR",7,"4 DL, 3 LB, 4 DB",right,2019-09-15T17:38:23.000Z,2019-09-15T17:38:22.000Z,6-3,250,03/06/1995,Missouri,DE,MIA,NE,2,Hard Rock Stadium,"Miami Gardens, FL",Outdoor,Natural Grass,Mostly Cloudy,87.0,67,4,S
21180,2019091505,20190915050872,home,38.77,26.74,4.0,1.75,0.41,296.29,348.01,2558012,Davon Godchaux,56,2019,29,2,12:38:00,NE,1,10,NE,0,7,2560809,I_FORM,"2 RB, 1 TE, 2 WR",7,"4 DL, 3 LB, 4 DB",right,2019-09-15T17:38:23.000Z,2019-09-15T17:38:22.000Z,6-3,311,11/11/1994,Louisiana State,DT,MIA,NE,2,Hard Rock Stadium,"Miami Gardens, FL",Outdoor,Natural Grass,Mostly Cloudy,87.0,67,4,S
21181,2019091505,20190915050872,home,38.41,31.32,3.54,0.96,0.35,235.73,327.0,2558070,Raekwon McMillan,52,2019,29,2,12:38:00,NE,1,10,NE,0,7,2560809,I_FORM,"2 RB, 1 TE, 2 WR",7,"4 DL, 3 LB, 4 DB",right,2019-09-15T17:38:23.000Z,2019-09-15T17:38:22.000Z,6-2,242,11/17/1995,Ohio State,LB,MIA,NE,2,Hard Rock Stadium,"Miami Gardens, FL",Outdoor,Natural Grass,Mostly Cloudy,87.0,67,4,S
21182,2019091505,20190915050872,home,54.45,17.77,2.63,1.93,0.26,77.35,81.2,2560725,Minkah Fitzpatrick,29,2019,29,2,12:38:00,NE,1,10,NE,0,7,2560809,I_FORM,"2 RB, 1 TE, 2 WR",7,"4 DL, 3 LB, 4 DB",right,2019-09-15T17:38:23.000Z,2019-09-15T17:38:22.000Z,6-1,207,11/17/1996,Alabama,S,MIA,NE,2,Hard Rock Stadium,"Miami Gardens, FL",Outdoor,Natural Grass,Mostly Cloudy,87.0,67,4,S
21183,2019091505,20190915050872,home,41.91,26.14,5.43,3.05,0.53,299.52,352.47,2560966,Jerome Baker,55,2019,29,2,12:38:00,NE,1,10,NE,0,7,2560809,I_FORM,"2 RB, 1 TE, 2 WR",7,"4 DL, 3 LB, 4 DB",right,2019-09-15T17:38:23.000Z,2019-09-15T17:38:22.000Z,6-2,225,12/25/1996,Ohio State,LB,MIA,NE,2,Hard Rock Stadium,"Miami Gardens, FL",Outdoor,Natural Grass,Mostly Cloudy,87.0,67,4,S
21184,2019091505,20190915050872,home,42.15,30.39,3.45,2.26,0.34,311.44,319.21,2562038,Sam Eguavoen,49,2019,29,2,12:38:00,NE,1,10,NE,0,7,2560809,I_FORM,"2 RB, 1 TE, 2 WR",7,"4 DL, 3 LB, 4 DB",right,2019-09-15T17:38:23.000Z,2019-09-15T17:38:22.000Z,6-0,236,02/22/1993,Texas Tech,LB,MIA,NE,2,Hard Rock Stadium,"Miami Gardens, FL",Outdoor,Natural Grass,Mostly Cloudy,87.0,67,4,S
21185,2019091505,20190915050872,home,44.18,17.17,3.4,3.56,0.32,319.02,11.83,2562776,Ken Webster,31,2019,29,2,12:38:00,NE,1,10,NE,0,7,2560809,I_FORM,"2 RB, 1 TE, 2 WR",7,"4 DL, 3 LB, 4 DB",right,2019-09-15T17:38:23.000Z,2019-09-15T17:38:22.000Z,5-11,202,06/19/1996,Mississippi,DB,MIA,NE,2,Hard Rock Stadium,"Miami Gardens, FL",Outdoor,Natural Grass,Mostly Cloudy,87.0,67,4,S
