,GameId,PlayId,Team,X,Y,S,A,Dis,Orientation,Dir,NflId,DisplayName,JerseyNumber,Season,YardLine,Quarter,GameClock,PossessionTeam,Down,Distance,FieldPosition,HomeScoreBeforePlay,VisitorScoreBeforePlay,NflIdRusher,OffenseFormation,OffensePersonnel,DefendersInTheBox,DefensePersonnel,PlayDirection,TimeHandoff,TimeSnap,PlayerHeight,PlayerWeight,PlayerBirthDate,PlayerCollegeName,Position,HomeTeamAbbr,VisitorTeamAbbr,Week,Stadium,Location,StadiumType,Turf,GameWeather,Temperature,Humidity,WindSpeed,WindDirection
46200,2019092600,20190926001409,away,53.27,21.87,2.71,0.4,0.28,60.6,223.91,2495298,Jason Kelce,62,2019,46,2,07:46:00,PHI,2,4,PHI,13,7,2562722,SHOTGUN,"1 RB, 2 TE, 2 WR",6,"3 DL, 3 LB, 5 DB",right,2019-09-27T01:29:30.000Z,2019-09-27T01:29:29.000Z,6-3,295,11/05/1987,Cincinnati,C,GB,PHI,4,Lambeau Field,"Green Bay, WI",Outdoor,SISGrass,Cloudy,60.0,62,3,S
46201,2019092600,20190926001409,away,54.27,23.96,4.23,0.56,0.42,132.25,180.22,2505827,Jason Peters,71,2019,46,2,07:46:00,PHI,2,4,PHI,13,7,2562722,SHOTGUN,"1 RB, 2 TE, 2 WR",6,"3 DL, 3 LB, 5 DB",right,2019-09-27T01:29:30.000Z,2019-09-27T01:29:29.000Z,6-4,328,01/22/1982,Arkansas,OT,GB,PHI,4,Lambeau Field,"Green Bay, WI",Outdoor,SISGrass,Cloudy,60.0,62,3,S
46202,2019092600,20190926001409,away,57.18,45.78,3.32,0.43,0.33,86.68,52.98,2533039,Alshon Jeffery,17,2019,46,2,07:46:00,PHI,2,4,PHI,13,7,2562722,SHOTGUN,"1 RB, 2 TE, 2 WR",6,"3 DL, 3 LB, 5 DB",right,2019-09-27T01:29:30.000Z,2019-09-27T01:29:29.000Z,6-3,218,02/14/1990,South Carolina,WR,GB,PHI,4,Lambeau Field,"Green Bay, WI",Outdoor,SISGrass,Cloudy,60.0,62,3,S
46203,2019092600,20190926001409,away,54.06,19.41,3.51,1.42,0.37,158.78,189.85,2534434,Brandon Brooks,79,2019,46,2,07:46:00,PHI,2,4,PHI,13,7,2562722,SHOTGUN,"1 RB, 2 TE, 2 WR",6,"3 DL, 3 LB, 5 DB",right,2019-09-27T01:29:30.000Z,2019-09-27T01:29:29.000Z,6-5,335,08/19/1989,"Miami, O.",G,GB,PHI,4,Lambeau Field,"Green Bay, WI",Outdoor,SISGrass,Cloudy,60.0,62,3,S
46204,2019092600,20190926001409,away,54.27,17.9,3.4,1.12,0.36,109.9,174.87,2539286,Lane Johnson,65,2019,46,2,07:46:00,PHI,2,4,PHI,13,7,2562722,SHOTGUN,"1 RB, 2 TE, 2 WR",6,"3 DL, 3 LB, 5 DB",right,2019-09-27T01:29:30.000Z,2019-09-27T01:29:29.000Z,6-6,317,05/08/1990,Oklahoma,T,GB,PHI,4,Lambeau Field,"Green Bay, WI",Outdoor,SISGrass,Cloudy,60.0,62,3,S
46205,2019092600,20190926001409,away,56.23,7.55,3.84,3.24,0.38,80.74,124.19,2540158,Zach Ertz,86,2019,46,2,07:46:00,PHI,2,4,PHI,13,7,2562722,SHOTGUN,"1 RB, 2 TE, 2 WR",6,"3 DL, 3 LB, 5 DB",right,2019-09-27T01:29:30.000Z,2019-09-27T01:29:29.000Z,6-5,250,11/10/1990,Stanford,TE,GB,PHI,4,Lambeau Field,"Green Bay, WI",Outdoor,SISGrass,Cloudy,60.0,62,3,S
46206,2019092600,20190926001409,away,56.95,35.15,4.24,3.61,0.42,145.88,118.22,2552600,Nelson Agholor,13,2019,46,2,07:46:00,PHI,2,4,PHI,13,7,2562722,SHOTGUN,"1 RB, 2 TE, 2 WR",6,"3 DL, 3 LB, 5 DB",right,2019-09-27T01:29:30.000Z,2019-09-27T01:29:29.000Z,6-0,198,05/24/1993,Southern California,WR,GB,PHI,4,Lambeau Field,"Green Bay, WI",Outdoor,SISGrass,Cloudy,60.0,62,3,S
46207,2019092600,20190926001409,away,50.12,24.29,1.19,3.45,0.11,79.42,14.19,2555259,Carson Wentz,11,2019,46,2,07:46:00,PHI,2,4,PHI,13,7,2562722,SHOTGUN,"1 RB, 2 TE, 2 WR",6,"3 DL, 3 LB, 5 DB",right,2019-09-27T01:29:30.000Z,2019-09-27T01:29:29.000Z,6-5,237,12/30/1992,North Dakota State,QB,GB,PHI,4,Lambeau Field,"Green Bay, WI",Outdoor,SISGrass,Cloudy,60.0,62,3,S
46208,2019092600,20190926001409,away,56.26,22.37,4.58,0.7,0.48,68.84,150.89,2555495,Isaac Seumalo,73,2019,46,2,07:46:00,PHI,2,4,PHI,13,7,2562722,SHOTGUN,"1 RB, 2 TE, 2 WR",6,"3 DL, 3 LB, 5 DB",right,2019-09-27T01:29:30.000Z,2019-09-27T01:29:29.000Z,6-4,303,10/29/1993,Oregon State,G,GB,PHI,4,Lambeau Field,"Green Bay, WI",Outdoor,SISGrass,Cloudy,60.0,62,3,S
46209,2019092600,20190926001409,away,54.13,16.75,2.76,1.5,0.28,160.22,192.88,2560995,Dallas Goedert,88,2019,46,2,07:46:00,PHI,2,4,PHI,13,7,2562722,SHOTGUN,"1 RB, 2 TE, 2 WR",6,"3 DL, 3 LB, 5 DB",right,2019-09-27T01:29:30.000Z,2019-09-27T01:29:29.000Z,6-5,256,01/03/1995,South Dakota State,TE,GB,PHI,4,Lambeau Field,"Green Bay, WI",Outdoor,SISGrass,Cloudy,60.0,62,3,S
46210,2019092600,20190926001409,away,50.4,23.48,5.13,1.78,0.5,156.8,176.0,2562722,Miles Sanders,26,2019,46,2,07:46:00,PHI,2,4,PHI,13,7,2562722,SHOTGUN,"1 RB, 2 TE, 2 WR",6,"3 DL, 3 LB, 5 DB",right,2019-09-27T01:29:30.000Z,2019-09-27T01:29:29.000Z,5-11,211,05/01/1997,Penn State,RB,GB,PHI,4,Lambeau Field,"Green Bay, WI",Outdoor,SISGrass,Cloudy,60.0,62,3,S
46211,2019092600,20190926001409,home,72.47,23.52,3.11,1.59,0.31,245.06,160.17,2552385,Adrian Amos,31,2019,46,2,07:46:00,PHI,2,4,PHI,13,7,2562722,SHOTGUN,"1 RB, 2 TE, 2 WR",6,"3 DL, 3 LB, 5 DB",right,2019-09-27T01:29:30.000Z,2019-09-27T01:29:29.000Z,6-0,214,04/29/1993,Penn State,FS,GB,PHI,4,Lambeau Field,"Green Bay, WI",Outdoor,SISGrass,Cloudy,60.0,62,3,S
46212,2019092600,20190926001409,home,58.88,23.58,4.08,2.36,0.4,234.61,187.8,2555161,Blake Martinez,50,2019,46,2,07:46:00,PHI,2,4,PHI,13,7,2562722,SHOTGUN,"1 RB, 2 TE, 2 WR",6,"3 DL, 3 LB, 5 DB",right,2019-09-27T01:29:30.000Z,2019-09-27T01:29:29.000Z,6-2,237,01/09/1994,Stanford,ILB,GB,PHI,4,Lambeau Field,"Green Bay, WI",Outdoor,SISGrass,Cloudy,60.0,62,3,S
46213,2019092600,20190926001409,home,54.19,21.91,2.89,1.57,0.28,291.56,222.06,2555282,Kenny Clark,97,2019,46,2,07:46:00,PHI,2,4,PHI,13,7,2562722,SHOTGUN,"1 RB, 2 TE, 2 WR",6,"3 DL, 3 LB, 5 DB",right,2019-09-27T01:29:30.000Z,2019-09-27T01:29:29.000Z,6-3,314,10/04/1995,UCLA,NT,GB,PHI,4,Lambeau Field,"Green Bay, WI",Outdoor,SISGrass,Cloudy,60.0,62,3,S
46214,2019092600,20190926001409,home,54.22,16.09,2.36,1.54,0.24,357.94,221.93,2555340,Kyler Fackrell,51,2019,46,2,07:46:00,PHI,2,4,PHI,13,7,2562722,SHOTGUN,"1 RB, 2 TE, 2 WR",6,"3 DL, 3 LB, 5 DB",right,2019-09-27T01:29:30.000Z,2019-09-27T01:29:29.000Z,6-5,245,11/25/1991,Utah State,OLB,GB,PHI,4,Lambeau Field,"Green Bay, WI",Outdoor,SISGrass,Cloudy,60.0,62,3,S
46215,2019092600,20190926001409,home,60.3,15.99,4.19,0.97,0.41,269.38,193.97,2555545,Will Redmond,25,2019,46,2,07:46:00,PHI,2,4,PHI,13,7,2562722,SHOTGUN,"1 RB, 2 TE, 2 WR",6,"3 DL, 3 LB, 5 DB",right,2019-09-27T01:29:30.000Z,2019-09-27T01:29:29.000Z,5-11,186,12/28/1993,Mississippi State,CB,GB,PHI,4,Lambeau Field,"Green Bay, WI",Outdoor,SISGrass,Cloudy,60.0,62,3,S
46216,2019092600,20190926001409,home,58.14,44.66,2.92,2.7,0.28,293.64,65.95,2557996,Kevin King,20,2019,46,2,07:46:00,PHI,2,4,PHI,13,7,2562722,SHOTGUN,"1 RB, 2 TE, 2 WR",6,"3 DL, 3 LB, 5 DB",right,2019-09-27T01:29:30.000Z,2019-09-27T01:29:29.000Z,6-3,200,05/05/1995,Washington,CB,GB,PHI,4,Lambeau Field,"Green Bay, WI",Outdoor,SISGrass,Cloudy,60.0,62,3,S
46217,2019092600,20190926001409,home,54.37,18.76,2.73,1.38,0.3,227.83,214.8,2558920,Fadol Brown,98,2019,46,2,07:46:00,PHI,2,4,PHI,13,7,2562722,SHOTGUN,"1 RB, 2 TE, 2 WR",6,"3 DL, 3 LB, 5 DB",right,2019-09-27T01:29:30.000Z,2019-09-27T01:29:29.000Z,6-4,282,04/15/1993,Mississippi,DE,GB,PHI,4,Lambeau Field,"Green Bay, WI",Outdoor,SISGrass,Cloudy,60.0,62,3,S
46218,2019092600,20190926001409,home,60.14,36.54,2.5,2.85,0.24,202.53,142.46,2560952,Jaire Alexander,23,2019,46,2,07:46:00,PHI,2,4,PHI,13,7,2562722,SHOTGUN,"1 RB, 2 TE, 2 WR",6,"3 DL, 3 LB, 5 DB",right,2019-09-27T01:29:30.000Z,2019-09-27T01:29:29.000Z,5-10,196,02/09/1997,Louisville,CB,GB,PHI,4,Lambeau Field,"Green Bay, WI",Outdoor,SISGrass,Cloudy,60.0,62,3,S
46219,2019092600,20190926001409,home,55.35,23.66,3.79,1.34,0.38,263.21,195.72,2561227,Tyler Lancaster,95,2019,46,2,07:46:00,PHI,2,4,PHI,13,7,2562722,SHOTGUN,"1 RB, 2 TE, 2 WR",6,"3 DL, 3 LB, 5 DB",right,2019-09-27T01:29:30.000Z,2019-09-27T01:29:29.000Z,6-3,315,11/04/1994,Northwestern,DT,GB,PHI,4,Lambeau Field,"Green Bay, WI",Outdoor,SISGrass,Cloudy,60.0,62,3,S
46220,2019092600,20190926001409,home,54.64,27.6,4.4,3.53,0.43,210.89,198.52,2562376,Rashan Gary,52,2019,46,2,07:46:00,PHI,2,4,PHI,13,7,2562722,SHOTGUN,"1 RB, 2 TE, 2 WR",6,"3 DL, 3 LB, 5 DB",right,2019-09-27T01:29:30.000Z,2019-09-27T01:29:29.000Z,6-5,277,12/03/1997,Michigan,LB,GB,PHI,4,Lambeau Field,"Green Bay, WI",Outdoor,SISGrass,Cloudy,60.0,62,3,S
46221,2019092600,20190926001409,home,57.36,7.94,3.06,2.77,0.3,255.42,125.54,2562724,Darnell Savage,26,2019,46,2,07:46:00,PHI,2,4,PHI,13,7,2562722,SHOTGUN,"1 RB, 2 TE, 2 WR",6,"3 DL, 3 LB, 5 DB",right,2019-09-27T01:29:30.000Z,2019-09-27T01:29:29.000Z,5-11,200,07/30/1997,Maryland,DB,GB,PHI,4,Lambeau Field,"Green Bay, WI",Outdoor,SISGrass,Cloudy,60.0,62,3,S
