,GameId,PlayId,Team,X,Y,S,A,Dis,Orientation,Dir,NflId,DisplayName,JerseyNumber,Season,YardLine,Quarter,GameClock,PossessionTeam,Down,Distance,FieldPosition,HomeScoreBeforePlay,VisitorScoreBeforePlay,NflIdRusher,OffenseFormation,OffensePersonnel,DefendersInTheBox,DefensePersonnel,PlayDirection,TimeHandoff,TimeSnap,PlayerHeight,PlayerWeight,PlayerBirthDate,PlayerCollegeName,Position,HomeTeamAbbr,VisitorTeamAbbr,Week,Stadium,Location,StadiumType,Turf,GameWeather,Temperature,Humidity,WindSpeed,WindDirection
49390,2019092902,20190929023085,away,56.62,15.77,2.25,2.66,0.21,280.98,276.15,238498,Julian Edelman,11,2019,46,3,06:54:00,NE,1,10,BUF,10,13,2560809,SHOTGUN,"1 RB, 1 TE, 3 WR",7,"4 DL, 2 LB, 5 DB",left,2019-09-29T19:12:47.000Z,2019-09-29T19:12:46.000Z,5-10,200,05/22/1986,Kent State,WR,BUF,NE,4,New Era Field,Orchard Park NY,Outdoors,A-Turf Titan,Mostly cloudy,58.0,71,10,E
49391,2019092902,20190929023085,away,56.89,21.55,1.45,1.51,0.16,354.17,17.36,497030,Marshall Newhouse,72,2019,46,3,06:54:00,NE,1,10,BUF,10,13,2560809,SHOTGUN,"1 RB, 1 TE, 3 WR",7,"4 DL, 2 LB, 5 DB",left,2019-09-29T19:12:47.000Z,2019-09-29T19:12:46.000Z,6-4,328,09/29/1988,Texas Christian,T,BUF,NE,4,New Era Field,Orchard Park NY,Outdoors,A-Turf Titan,Mostly cloudy,58.0,71,10,E
49392,2019092902,20190929023085,away,56.58,25.79,2.27,0.62,0.25,213.34,205.82,2495131,Marcus Cannon,61,2019,46,3,06:54:00,NE,1,10,BUF,10,13,2560809,SHOTGUN,"1 RB, 1 TE, 3 WR",7,"4 DL, 2 LB, 5 DB",left,2019-09-29T19:12:47.000Z,2019-09-29T19:12:46.000Z,6-6,335,05/06/1988,Texas Christian,T,BUF,NE,4,New Era Field,Orchard Park NY,Outdoors,A-Turf Titan,Mostly cloudy,58.0,71,10,E
49393,2019092902,20190929023085,away,60.72,23.55,1.43,3.75,0.13,281.98,81.82,2504211,Tom Brady,12,2019,46,3,06:54:00,NE,1,10,BUF,10,13,2560809,SHOTGUN,"1 RB, 1 TE, 3 WR",7,"4 DL, 2 LB, 5 DB",left,2019-09-29T19:12:47.000Z,2019-09-29T19:12:46.000Z,6-4,225,08/03/1977,Michigan,QB,BUF,NE,4,New Era Field,Orchard Park NY,Outdoors,A-Turf Titan,Mostly cloudy,58.0,71,10,E
49394,2019092902,20190929023085,away,54.72,43.61,3.49,1.31,0.33,212.73,252.98,2537931,Josh Gordon,10,2019,46,3,06:54:00,NE,1,10,BUF,10,13,2560809,SHOTGUN,"1 RB, 1 TE, 3 WR",7,"4 DL, 2 LB, 5 DB",left,2019-09-29T19:12:47.000Z,2019-09-29T19:12:46.000Z,6-3,225,04/13/1991,Baylor,WR,BUF,NE,4,New Era Field,Orchard Park NY,Outdoors,A-Turf Titan,Mostly cloudy,58.0,71,10,E
49395,2019092902,20190929023085,away,56.37,34.74,2.47,0.46,0.24,253.15,305.99,2552424,Phillip Dorsett,13,2019,46,3,06:54:00,NE,1,10,BUF,10,13,2560809,SHOTGUN,"1 RB, 1 TE, 3 WR",7,"4 DL, 2 LB, 5 DB",left,2019-09-29T19:12:47.000Z,2019-09-29T19:12:46.000Z,5-10,192,01/05/1993,Miami,WR,BUF,NE,4,New Era Field,Orchard Park NY,Outdoors,A-Turf Titan,Mostly cloudy,58.0,71,10,E
49396,2019092902,20190929023085,away,56.75,23.97,3.04,0.71,0.32,253.99,185.33,2552563,Shaq Mason,69,2019,46,3,06:54:00,NE,1,10,BUF,10,13,2560809,SHOTGUN,"1 RB, 1 TE, 3 WR",7,"4 DL, 2 LB, 5 DB",left,2019-09-29T19:12:47.000Z,2019-09-29T19:12:46.000Z,6-1,310,08/28/1993,Georgia Tech,G,BUF,NE,4,New Era Field,Orchard Park NY,Outdoors,A-Turf Titan,Mostly cloudy,58.0,71,10,E
49397,2019092902,20190929023085,away,56.32,22.56,0.91,1.45,0.09,356.68,182.37,2555145,Ted Karras,75,2019,46,3,06:54:00,NE,1,10,BUF,10,13,2560809,SHOTGUN,"1 RB, 1 TE, 3 WR",7,"4 DL, 2 LB, 5 DB",left,2019-09-29T19:12:47.000Z,2019-09-29T19:12:46.000Z,6-4,305,03/15/1993,Illinois,C,BUF,NE,4,New Era Field,Orchard Park NY,Outdoors,A-Turf Titan,Mostly cloudy,58.0,71,10,E
49398,2019092902,20190929023085,away,57.48,20.54,2.61,1.38,0.27,226.31,168.5,2555281,Joe Thuney,62,2019,46,3,06:54:00,NE,1,10,BUF,10,13,2560809,SHOTGUN,"1 RB, 1 TE, 3 WR",7,"4 DL, 2 LB, 5 DB",left,2019-09-29T19:12:47.000Z,2019-09-29T19:12:46.000Z,6-5,308,11/18/1992,North Carolina State,G,BUF,NE,4,New Era Field,Orchard Park NY,Outdoors,A-Turf Titan,Mostly cloudy,58.0,71,10,E
49399,2019092902,20190929023085,away,57.2,17.96,1.51,1.59,0.15,215.28,150.77,2560751,Ryan Izzo,85,2019,46,3,06:54:00,NE,1,10,BUF,10,13,2560809,SHOTGUN,"1 RB, 1 TE, 3 WR",7,"4 DL, 2 LB, 5 DB",left,2019-09-29T19:12:47.000Z,2019-09-29T19:12:46.000Z,6-5,255,12/21/1995,Florida State,TE,BUF,NE,4,New Era Field,Orchard Park NY,Outdoors,A-Turf Titan,Mostly cloudy,58.0,71,10,E
49400,2019092902,20190929023085,away,60.26,24.17,4.67,4.44,0.45,235.43,186.71,2560809,Sony Michel,26,2019,46,3,06:54:00,NE,1,10,BUF,10,13,2560809,SHOTGUN,"1 RB, 1 TE, 3 WR",7,"4 DL, 2 LB, 5 DB",left,2019-09-29T19:12:47.000Z,2019-09-29T19:12:46.000Z,5-11,215,02/17/1995,Georgia,RB,BUF,NE,4,New Era Field,Orchard Park NY,Outdoors,A-Turf Titan,Mostly cloudy,58.0,71,10,E
49401,2019092902,20190929023085,home,51.88,19.43,2.1,2.72,0.2,101.45,169.81,2539240,Micah Hyde,23,2019,46,3,06:54:00,NE,1,10,BUF,10,13,2560809,SHOTGUN,"1 RB, 1 TE, 3 WR",7,"4 DL, 2 LB, 5 DB",left,2019-09-29T19:12:47.000Z,2019-09-29T19:12:46.000Z,6-0,197,12/31/1990,Iowa,SS,BUF,NE,4,New Era Field,Orchard Park NY,Outdoors,A-Turf Titan,Mostly cloudy,58.0,71,10,E
49402,2019092902,20190929023085,home,37.97,27.2,1.44,2.8,0.14,81.78,217.38,2539290,Jordan Poyer,21,2019,46,3,06:54:00,NE,1,10,BUF,10,13,2560809,SHOTGUN,"1 RB, 1 TE, 3 WR",7,"4 DL, 2 LB, 5 DB",left,2019-09-29T19:12:47.000Z,2019-09-29T19:12:46.000Z,6-0,191,04/25/1991,Oregon State,FS,BUF,NE,4,New Era Field,Orchard Park NY,Outdoors,A-Turf Titan,Mostly cloudy,58.0,71,10,E
49403,2019092902,20190929023085,home,56.92,22.19,2.6,1.19,0.27,85.8,64.87,2552492,Jordan Phillips,97,2019,46,3,06:54:00,NE,1,10,BUF,10,13,2560809,SHOTGUN,"1 RB, 1 TE, 3 WR",7,"4 DL, 2 LB, 5 DB",left,2019-09-29T19:12:47.000Z,2019-09-29T19:12:46.000Z,6-6,341,09/21/1992,Oklahoma,DT,BUF,NE,4,New Era Field,Orchard Park NY,Outdoors,A-Turf Titan,Mostly cloudy,58.0,71,10,E
49404,2019092902,20190929023085,home,56.92,17.09,2.72,0.77,0.29,28.55,105.82,2555252,Shaq Lawson,90,2019,46,3,06:54:00,NE,1,10,BUF,10,13,2560809,SHOTGUN,"1 RB, 1 TE, 3 WR",7,"4 DL, 2 LB, 5 DB",left,2019-09-29T19:12:47.000Z,2019-09-29T19:12:46.000Z,6-3,267,06/17/1994,Clemson,DE,BUF,NE,4,New Era Field,Orchard Park NY,Outdoors,A-Turf Titan,Mostly cloudy,58.0,71,10,E
49405,2019092902,20190929023085,home,56.25,24.62,2.16,2.32,0.23,110.41,128.51,2556646,Kyle Peko,94,2019,46,3,06:54:00,NE,1,10,BUF,10,13,2560809,SHOTGUN,"1 RB, 1 TE, 3 WR",7,"4 DL, 2 LB, 5 DB",left,2019-09-29T19:12:47.000Z,2019-09-29T19:12:46.000Z,6-1,305,07/23/1993,Oregon State,DT,BUF,NE,4,New Era Field,Orchard Park NY,Outdoors,A-Turf Titan,Mostly cloudy,58.0,71,10,E
49406,2019092902,20190929023085,home,53.84,43.89,2.23,4.77,0.2,66.34,256.92,2557867,Tre'Davious White,27,2019,46,3,06:54:00,NE,1,10,BUF,10,13,2560809,SHOTGUN,"1 RB, 1 TE, 3 WR",7,"4 DL, 2 LB, 5 DB",left,2019-09-29T19:12:47.000Z,2019-09-29T19:12:46.000Z,5-11,192,01/16/1995,Louisiana State,CB,BUF,NE,4,New Era Field,Orchard Park NY,Outdoors,A-Turf Titan,Mostly cloudy,58.0,71,10,E
49407,2019092902,20190929023085,home,55.95,23.53,4.05,1.49,0.4,99.92,100.2,2557969,Matt Milano,58,2019,46,3,06:54:00,NE,1,10,BUF,10,13,2560809,SHOTGUN,"1 RB, 1 TE, 3 WR",7,"4 DL, 2 LB, 5 DB",left,2019-09-29T19:12:47.000Z,2019-09-29T19:12:46.000Z,6-0,223,07/28/1994,Boston College,OLB,BUF,NE,4,New Era Field,Orchard Park NY,Outdoors,A-Turf Titan,Mostly cloudy,58.0,71,10,E
49408,2019092902,20190929023085,home,53.6,24.07,4.83,2.92,0.47,106.6,153.1,2560713,Tremaine Edmunds,49,2019,46,3,06:54:00,NE,1,10,BUF,10,13,2560809,SHOTGUN,"1 RB, 1 TE, 3 WR",7,"4 DL, 2 LB, 5 DB",left,2019-09-29T19:12:47.000Z,2019-09-29T19:12:46.000Z,6-5,250,05/02/1998,Virginia Tech,LB,BUF,NE,4,New Era Field,Orchard Park NY,Outdoors,A-Turf Titan,Mostly cloudy,58.0,71,10,E
49409,2019092902,20190929023085,home,54.66,34.75,2.31,1.45,0.22,67.69,349.49,2560818,Siran Neal,33,2019,46,3,06:54:00,NE,1,10,BUF,10,13,2560809,SHOTGUN,"1 RB, 1 TE, 3 WR",7,"4 DL, 2 LB, 5 DB",left,2019-09-29T19:12:47.000Z,2019-09-29T19:12:46.000Z,6-0,205,08/04/1994,Jacksonville State,DB,BUF,NE,4,New Era Field,Orchard Park NY,Outdoors,A-Turf Titan,Mostly cloudy,58.0,71,10,E
49410,2019092902,20190929023085,home,48.99,13.78,1.34,2.14,0.12,74.17,309.25,2560914,Levi Wallace,39,2019,46,3,06:54:00,NE,1,10,BUF,10,13,2560809,SHOTGUN,"1 RB, 1 TE, 3 WR",7,"4 DL, 2 LB, 5 DB",left,2019-09-29T19:12:47.000Z,2019-09-29T19:12:46.000Z,6-0,179,06/12/1995,Alabama,CB,BUF,NE,4,New Era Field,Orchard Park NY,Outdoors,A-Turf Titan,Mostly cloudy,58.0,71,10,E
49411,2019092902,20190929023085,home,55.98,28.27,2.4,1.68,0.26,99.26,143.0,2562672,Darryl Johnson,92,2019,46,3,06:54:00,NE,1,10,BUF,10,13,2560809,SHOTGUN,"1 RB, 1 TE, 3 WR",7,"4 DL, 2 LB, 5 DB",left,2019-09-29T19:12:47.000Z,2019-09-29T19:12:46.000Z,6-6,253,04/04/1997,North Carolina A&T,DE,BUF,NE,4,New Era Field,Orchard Park NY,Outdoors,A-Turf Titan,Mostly cloudy,58.0,71,10,E
