,GameId,PlayId,Team,X,Y,S,A,Dis,Orientation,Dir,NflId,DisplayName,JerseyNumber,Season,YardLine,Quarter,GameClock,PossessionTeam,Down,Distance,FieldPosition,HomeScoreBeforePlay,VisitorScoreBeforePlay,NflIdRusher,OffenseFormation,OffensePersonnel,DefendersInTheBox,DefensePersonnel,PlayDirection,TimeHandoff,TimeSnap,PlayerHeight,PlayerWeight,PlayerBirthDate,PlayerCollegeName,Position,HomeTeamAbbr,VisitorTeamAbbr,Week,Stadium,Location,StadiumType,Turf,GameWeather,Temperature,Humidity,WindSpeed,WindDirection
14080,2019090901,20190909011121,away,32.19,16.95,1.73,3.16,0.16,273.83,1.36,496735,Kareem Jackson,22,2019,19,2,09:53:00,OAK,1,10,OAK,7,0,2562377,SHOTGUN,"1 RB, 1 TE, 3 WR",6,"3 DL, 3 LB, 5 DB",right,2019-09-10T03:06:17.000Z,2019-09-10T03:06:16.000Z,5-10,185,04/10/1988,Alabama,CB,OAK,DEN,1,Oakland-Alameda County Coliseum,"Oakland, CA",Outdoor,Natural Grass,Breezy,68.0,66,15,W
14081,2019090901,20190909011121,away,30.37,8.48,0.81,3.08,0.07,262.57,106.34,2530510,Chris Harris,25,2019,19,2,09:53:00,OAK,1,10,OAK,7,0,2562377,SHOTGUN,"1 RB, 1 TE, 3 WR",6,"3 DL, 3 LB, 5 DB",right,2019-09-10T03:06:17.000Z,2019-09-10T03:06:16.000Z,5-10,199,06/18/1989,Kansas,CB,OAK,DEN,1,Oakland-Alameda County Coliseum,"Oakland, CA",Outdoor,Natural Grass,Breezy,68.0,66,15,W
14082,2019090901,20190909011121,away,29.37,27.1,2.4,0.83,0.24,270.57,357.15,2533026,Derek Wolfe,95,2019,19,2,09:53:00,OAK,1,10,OAK,7,0,2562377,SHOTGUN,"1 RB, 1 TE, 3 WR",6,"3 DL, 3 LB, 5 DB",right,2019-09-10T03:06:17.000Z,2019-09-10T03:06:16.000Z,6-5,285,02/24/1990,Cincinnati,DE,OAK,DEN,1,Oakland-Alameda County Coliseum,"Oakland, CA",Outdoor,Natural Grass,Breezy,68.0,66,15,W
14083,2019090901,20190909011121,away,29.68,29.1,2.25,0.79,0.22,269.55,358.74,2549926,Shelby Harris,96,2019,19,2,09:53:00,OAK,1,10,OAK,7,0,2562377,SHOTGUN,"1 RB, 1 TE, 3 WR",6,"3 DL, 3 LB, 5 DB",right,2019-09-10T03:06:17.000Z,2019-09-10T03:06:16.000Z,6-2,290,08/11/1991,Illinois State,NT,OAK,DEN,1,Oakland-Alameda County Coliseum,"Oakland, CA",Outdoor,Natural Grass,Breezy,68.0,66,15,W
14084,2019090901,20190909011121,away,29.03,29.35,0.95,2.34,0.1,256.23,296.12,2555502,Adam Gotsis,99,2019,19,2,09:53:00,OAK,1,10,OAK,7,0,2562377,SHOTGUN,"1 RB, 1 TE, 3 WR",6,"3 DL, 3 LB, 5 DB",right,2019-09-10T03:06:17.000Z,2019-09-10T03:06:16.000Z,6-4,287,09/23/1992,Georgia Tech,DE,OAK,DEN,1,Oakland-Alameda County Coliseum,"Oakland, CA",Outdoor,Natural Grass,Breezy,68.0,66,15,W
14085,2019090901,20190909011121,away,44.16,22.13,1.96,1.23,0.19,255.11,147.49,2555550,Justin Simmons,31,2019,19,2,09:53:00,OAK,1,10,OAK,7,0,2562377,SHOTGUN,"1 RB, 1 TE, 3 WR",6,"3 DL, 3 LB, 5 DB",right,2019-09-10T03:06:17.000Z,2019-09-10T03:06:16.000Z,6-2,202,11/19/1993,Boston College,SS,OAK,DEN,1,Oakland-Alameda County Coliseum,"Oakland, CA",Outdoor,Natural Grass,Breezy,68.0,66,15,W
14086,2019090901,20190909011121,away,41.22,33.39,4.54,3.43,0.43,353.15,65.49,2556278,Will Parks,34,2019,19,2,09:53:00,OAK,1,10,OAK,7,0,2562377,SHOTGUN,"1 RB, 1 TE, 3 WR",6,"3 DL, 3 LB, 5 DB",right,2019-09-10T03:06:17.000Z,2019-09-10T03:06:16.000Z,6-1,194,07/29/1994,Arizona,FS,OAK,DEN,1,Oakland-Alameda County Coliseum,"Oakland, CA",Outdoor,Natural Grass,Breezy,68.0,66,15,W
14087,2019090901,20190909011121,away,32.73,28.29,3.27,2.32,0.31,273.44,341.88,2560763,Josey Jewell,47,2019,19,2,09:53:00,OAK,1,10,OAK,7,0,2562377,SHOTGUN,"1 RB, 1 TE, 3 WR",6,"3 DL, 3 LB, 5 DB",right,2019-09-10T03:06:17.000Z,2019-09-10T03:06:16.000Z,6-2,236,12/25/1994,Iowa,LB,OAK,DEN,1,Oakland-Alameda County Coliseum,"Oakland, CA",Outdoor,Natural Grass,Breezy,68.0,66,15,W
14088,2019090901,20190909011121,away,30.11,44.06,1.62,4.38,0.14,246.3,355.22,2560946,Isaac Yiadom,26,2019,19,2,09:53:00,OAK,1,10,OAK,7,0,2562377,SHOTGUN,"1 RB, 1 TE, 3 WR",6,"3 DL, 3 LB, 5 DB",right,2019-09-10T03:06:17.000Z,2019-09-10T03:06:16.000Z,6-1,190,02/20/1996,Boston College,DB,OAK,DEN,1,Oakland-Alameda County Coliseum,"Oakland, CA",Outdoor,Natural Grass,Breezy,68.0,66,15,W
14089,2019090901,20190909011121,away,28.96,33.25,1.06,1.35,0.1,90.0,309.93,2562285,Justin Hollins,52,2019,19,2,09:53:00,OAK,1,10,OAK,7,0,2562377,SHOTGUN,"1 RB, 1 TE, 3 WR",6,"3 DL, 3 LB, 5 DB",right,2019-09-10T03:06:17.000Z,2019-09-10T03:06:16.000Z,6-5,248,01/15/1996,Oregon,LB,OAK,DEN,1,Oakland-Alameda County Coliseum,"Oakland, CA",Outdoor,Natural Grass,Breezy,68.0,66,15,W
14090,2019090901,20190909011121,away,29.83,23.2,3.52,2.01,0.34,288.61,13.61,2562825,Malik Reed,59,2019,19,2,09:53:00,OAK,1,10,OAK,7,0,2562377,SHOTGUN,"1 RB, 1 TE, 3 WR",6,"3 DL, 3 LB, 5 DB",right,2019-09-10T03:06:17.000Z,2019-09-10T03:06:16.000Z,6-2,235,08/05/1996,Nevada,LB,OAK,DEN,1,Oakland-Alameda County Coliseum,"Oakland, CA",Outdoor,Natural Grass,Breezy,68.0,66,15,W
14091,2019090901,20190909011121,home,28.85,28.55,1.29,0.52,0.14,83.37,20.96,2495171,Rodney Hudson,61,2019,19,2,09:53:00,OAK,1,10,OAK,7,0,2562377,SHOTGUN,"1 RB, 1 TE, 3 WR",6,"3 DL, 3 LB, 5 DB",right,2019-09-10T03:06:17.000Z,2019-09-10T03:06:16.000Z,6-2,315,07/12/1989,Florida State,C,OAK,DEN,1,Oakland-Alameda County Coliseum,"Oakland, CA",Outdoor,Natural Grass,Breezy,68.0,66,15,W
14092,2019090901,20190909011121,home,28.9,29.97,1.36,0.74,0.14,122.57,38.25,2540247,Jordan Devey,65,2019,19,2,09:53:00,OAK,1,10,OAK,7,0,2562377,SHOTGUN,"1 RB, 1 TE, 3 WR",6,"3 DL, 3 LB, 5 DB",right,2019-09-10T03:06:17.000Z,2019-09-10T03:06:16.000Z,6-6,320,01/11/1988,Memphis,T,OAK,DEN,1,Oakland-Alameda County Coliseum,"Oakland, CA",Outdoor,Natural Grass,Breezy,68.0,66,15,W
14093,2019090901,20190909011121,home,24.34,27.91,0.3,0.47,0.03,95.06,234.17,2543499,Derek Carr,4,2019,19,2,09:53:00,OAK,1,10,OAK,7,0,2562377,SHOTGUN,"1 RB, 1 TE, 3 WR",6,"3 DL, 3 LB, 5 DB",right,2019-09-10T03:06:17.000Z,2019-09-10T03:06:16.000Z,6-3,210,03/28/1991,Fresno State,QB,OAK,DEN,1,Oakland-Alameda County Coliseum,"Oakland, CA",Outdoor,Natural Grass,Breezy,68.0,66,15,W
14094,2019090901,20190909011121,home,28.6,26.97,2.88,1.21,0.29,71.06,12.09,2552350,Trent Brown,77,2019,19,2,09:53:00,OAK,1,10,OAK,7,0,2562377,SHOTGUN,"1 RB, 1 TE, 3 WR",6,"3 DL, 3 LB, 5 DB",right,2019-09-10T03:06:17.000Z,2019-09-10T03:06:16.000Z,6-8,380,04/13/1993,Florida,T,OAK,DEN,1,Oakland-Alameda County Coliseum,"Oakland, CA",Outdoor,Natural Grass,Breezy,68.0,66,15,W
14095,2019090901,20190909011121,home,29.07,23.6,2.63,3.08,0.25,101.34,36.77,2552408,Darren Waller,83,2019,19,2,09:53:00,OAK,1,10,OAK,7,0,2562377,SHOTGUN,"1 RB, 1 TE, 3 WR",6,"3 DL, 3 LB, 5 DB",right,2019-09-10T03:06:17.000Z,2019-09-10T03:06:16.000Z,6-6,255,09/13/1992,Georgia Tech,TE,OAK,DEN,1,Oakland-Alameda County Coliseum,"Oakland, CA",Outdoor,Natural Grass,Breezy,68.0,66,15,W
14096,2019090901,20190909011121,home,28.86,44.21,2.74,3.71,0.26,63.94,31.6,2552656,J.J. Nelson,15,2019,19,2,09:53:00,OAK,1,10,OAK,7,0,2562377,SHOTGUN,"1 RB, 1 TE, 3 WR",6,"3 DL, 3 LB, 5 DB",right,2019-09-10T03:06:17.000Z,2019-09-10T03:06:16.000Z,5-10,160,04/24/1992,Alabama-Birmingham,WR,OAK,DEN,1,Oakland-Alameda County Coliseum,"Oakland, CA",Outdoor,Natural Grass,Breezy,68.0,66,15,W
14097,2019090901,20190909011121,home,28.41,28.03,2.39,0.83,0.24,51.15,16.82,2553460,Denzelle Good,71,2019,19,2,09:53:00,OAK,1,10,OAK,7,0,2562377,SHOTGUN,"1 RB, 1 TE, 3 WR",6,"3 DL, 3 LB, 5 DB",right,2019-09-10T03:06:17.000Z,2019-09-10T03:06:16.000Z,6-5,340,03/08/1991,Mars Hill,OT,OAK,DEN,1,Oakland-Alameda County Coliseum,"Oakland, CA",Outdoor,Natural Grass,Breezy,68.0,66,15,W
14098,2019090901,20190909011121,home,28.72,8.28,2.44,2.52,0.23,77.83,106.38,2553913,Tyrell Williams,16,2019,19,2,09:53:00,OAK,1,10,OAK,7,0,2562377,SHOTGUN,"1 RB, 1 TE, 3 WR",6,"3 DL, 3 LB, 5 DB",right,2019-09-10T03:06:17.000Z,2019-09-10T03:06:16.000Z,6-4,205,02/12/1992,Western Oregon,WR,OAK,DEN,1,Oakland-Alameda County Coliseum,"Oakland, CA",Outdoor,Natural Grass,Breezy,68.0,66,15,W
14099,2019090901,20190909011121,home,28.04,32.41,1.87,0.91,0.19,53.45,16.73,2560811,Kolton Miller,74,2019,19,2,09:53:00,OAK,1,10,OAK,7,0,2562377,SHOTGUN,"1 RB, 1 TE, 3 WR",6,"3 DL, 3 LB, 5 DB",right,2019-09-10T03:06:17.000Z,2019-09-10T03:06:16.000Z,6-8,325,10/09/1995,UCLA,T,OAK,DEN,1,Oakland-Alameda County Coliseum,"Oakland, CA",Outdoor,Natural Grass,Breezy,68.0,66,15,W
14100,2019090901,20190909011121,home,25.04,27.75,4.18,3.46,0.4,48.42,31.28,2562377,Josh Jacobs,28,2019,19,2,09:53:00,OAK,1,10,OAK,7,0,2562377,SHOTGUN,"1 RB, 1 TE, 3 WR",6,"3 DL, 3 LB, 5 DB",right,2019-09-10T03:06:17.000Z,2019-09-10T03:06:16.000Z,5-10,220,02/11/1998,Alabama,RB,OAK,DEN,1,Oakland-Alameda County Coliseum,"Oakland, CA",Outdoor,Natural Grass,Breezy,68.0,66,15,W
14101,2019090901,20190909011121,home,28.64,16.36,3.73,3.63,0.36,79.7,52.46,2562712,Hunter Renfrow,13,2019,19,2,09:53:00,OAK,1,10,OAK,7,0,2562377,SHOTGUN,"1 RB, 1 TE, 3 WR",6,"3 DL, 3 LB, 5 DB",right,2019-09-10T03:06:17.000Z,2019-09-10T03:06:16.000Z,5-10,185,12/21/1995,Clemson,WR,OAK,DEN,1,Oakland-Alameda County Coliseum,"Oakland, CA",Outdoor,Natural Grass,Breezy,68.0,66,15,W
