,GameId,PlayId,Team,X,Y,S,A,Dis,Orientation,Dir,NflId,DisplayName,JerseyNumber,Season,YardLine,Quarter,GameClock,PossessionTeam,Down,Distance,FieldPosition,HomeScoreBeforePlay,VisitorScoreBeforePlay,NflIdRusher,OffenseFormation,OffensePersonnel,DefendersInTheBox,DefensePersonnel,PlayDirection,TimeHandoff,TimeSnap,PlayerHeight,PlayerWeight,PlayerBirthDate,PlayerCollegeName,Position,HomeTeamAbbr,VisitorTeamAbbr,Week,Stadium,Location,StadiumType,Turf,GameWeather,Temperature,Humidity,WindSpeed,WindDirection
29788,2019091600,20190916001517,away,60.5,24.76,4.43,4.43,0.45,321.26,325.69,496727,Morgan Burnett,42,2019,47,2,07:14:00,NYJ,2,4,CLV,0,13,2540175,SHOTGUN,"1 RB, 1 TE, 3 WR",6,"3 DL, 3 LB, 5 DB",right,2019-09-17T01:19:41.000Z,2019-09-17T01:19:39.000Z,6-1,209,01/13/1989,Georgia Tech,SS,NYJ,CLE,2,MetLife Stadium,"East Rutherford, NJ",Outdoors,FieldTurf,Cloudy,72.0,69,3,N
29789,2019091600,20190916001517,away,63.1,31.78,0.9,2.79,0.09,215.32,213.79,2533534,Olivier Vernon,54,2019,47,2,07:14:00,NYJ,2,4,CLV,0,13,2540175,SHOTGUN,"1 RB, 1 TE, 3 WR",6,"3 DL, 3 LB, 5 DB",right,2019-09-17T01:19:41.000Z,2019-09-17T01:19:39.000Z,6-2,262,10/07/1990,Miami,OLB,NYJ,CLE,2,MetLife Stadium,"East Rutherford, NJ",Outdoors,FieldTurf,Cloudy,72.0,69,3,N
29790,2019091600,20190916001517,away,64.33,33.21,2.54,1.0,0.26,240.07,220.49,2543720,Christian Kirksey,58,2019,47,2,07:14:00,NYJ,2,4,CLV,0,13,2540175,SHOTGUN,"1 RB, 1 TE, 3 WR",6,"3 DL, 3 LB, 5 DB",right,2019-09-17T01:19:41.000Z,2019-09-17T01:19:39.000Z,6-2,235,08/31/1992,Iowa,OLB,NYJ,CLE,2,MetLife Stadium,"East Rutherford, NJ",Outdoors,FieldTurf,Cloudy,72.0,69,3,N
29791,2019091600,20190916001517,away,63.95,13.07,2.23,2.21,0.21,297.52,156.64,2552697,Jermaine Whitehead,35,2019,47,2,07:14:00,NYJ,2,4,CLV,0,13,2540175,SHOTGUN,"1 RB, 1 TE, 3 WR",6,"3 DL, 3 LB, 5 DB",right,2019-09-17T01:19:41.000Z,2019-09-17T01:19:39.000Z,5-11,195,03/12/1993,Auburn,FS,NYJ,CLE,2,MetLife Stadium,"East Rutherford, NJ",Outdoors,FieldTurf,Cloudy,72.0,69,3,N
29792,2019091600,20190916001517,away,65.11,27.52,2.88,1.12,0.29,258.29,222.92,2555166,Joe Schobert,53,2019,47,2,07:14:00,NYJ,2,4,CLV,0,13,2540175,SHOTGUN,"1 RB, 1 TE, 3 WR",6,"3 DL, 3 LB, 5 DB",right,2019-09-17T01:19:41.000Z,2019-09-17T01:19:39.000Z,6-1,245,11/06/1993,Wisconsin,MLB,NYJ,CLE,2,MetLife Stadium,"East Rutherford, NJ",Outdoors,FieldTurf,Cloudy,72.0,69,3,N
29793,2019091600,20190916001517,away,77.06,28.4,1.02,0.55,0.11,285.3,161.6,2555173,Eric Murray,22,2019,47,2,07:14:00,NYJ,2,4,CLV,0,13,2540175,SHOTGUN,"1 RB, 1 TE, 3 WR",6,"3 DL, 3 LB, 5 DB",right,2019-09-17T01:19:41.000Z,2019-09-17T01:19:39.000Z,5-11,199,01/07/1994,Minnesota,FS,NYJ,CLE,2,MetLife Stadium,"East Rutherford, NJ",Outdoors,FieldTurf,Cloudy,72.0,69,3,N
29794,2019091600,20190916001517,away,61.98,29.21,2.39,0.71,0.25,299.33,322.24,2557836,Larry Ogunjobi,65,2019,47,2,07:14:00,NYJ,2,4,CLV,0,13,2540175,SHOTGUN,"1 RB, 1 TE, 3 WR",6,"3 DL, 3 LB, 5 DB",right,2019-09-17T01:19:41.000Z,2019-09-17T01:19:39.000Z,6-3,305,06/03/1994,North Carolina-Charlotte,DT,NYJ,CLE,2,MetLife Stadium,"East Rutherford, NJ",Outdoors,FieldTurf,Cloudy,72.0,69,3,N
29795,2019091600,20190916001517,away,63.2,25.86,1.49,2.48,0.16,302.89,28.63,2557965,Myles Garrett,95,2019,47,2,07:14:00,NYJ,2,4,CLV,0,13,2540175,SHOTGUN,"1 RB, 1 TE, 3 WR",6,"3 DL, 3 LB, 5 DB",right,2019-09-17T01:19:41.000Z,2019-09-17T01:19:39.000Z,6-4,272,12/29/1995,Texas A&M,DE,NYJ,CLE,2,MetLife Stadium,"East Rutherford, NJ",Outdoors,FieldTurf,Cloudy,72.0,69,3,N
29796,2019091600,20190916001517,away,63.01,30.61,0.54,1.41,0.06,256.02,134.67,2559079,Devaroe Lawrence,99,2019,47,2,07:14:00,NYJ,2,4,CLV,0,13,2540175,SHOTGUN,"1 RB, 1 TE, 3 WR",6,"3 DL, 3 LB, 5 DB",right,2019-09-17T01:19:41.000Z,2019-09-17T01:19:39.000Z,6-2,294,10/13/1992,Auburn,DT,NYJ,CLE,2,MetLife Stadium,"East Rutherford, NJ",Outdoors,FieldTurf,Cloudy,72.0,69,3,N
29797,2019091600,20190916001517,away,65.61,12.15,1.27,1.21,0.12,296.94,193.55,2560916,Denzel Ward,21,2019,47,2,07:14:00,NYJ,2,4,CLV,0,13,2540175,SHOTGUN,"1 RB, 1 TE, 3 WR",6,"3 DL, 3 LB, 5 DB",right,2019-09-17T01:19:41.000Z,2019-09-17T01:19:39.000Z,5-11,191,04/28/1997,Ohio State,CB,NYJ,CLE,2,MetLife Stadium,"East Rutherford, NJ",Outdoors,FieldTurf,Cloudy,72.0,69,3,N
29798,2019091600,20190916001517,away,66.7,16.0,3.14,1.43,0.3,233.02,223.96,2562785,Greedy Williams,26,2019,47,2,07:14:00,NYJ,2,4,CLV,0,13,2540175,SHOTGUN,"1 RB, 1 TE, 3 WR",6,"3 DL, 3 LB, 5 DB",right,2019-09-17T01:19:41.000Z,2019-09-17T01:19:39.000Z,6-2,184,12/03/1997,Louisiana State,DB,NYJ,CLE,2,MetLife Stadium,"East Rutherford, NJ",Outdoors,FieldTurf,Cloudy,72.0,69,3,N
29799,2019091600,20190916001517,home,61.53,28.65,1.38,1.12,0.14,35.82,324.3,2495655,Ryan Kalil,55,2019,47,2,07:14:00,NYJ,2,4,CLV,0,13,2540175,SHOTGUN,"1 RB, 1 TE, 3 WR",6,"3 DL, 3 LB, 5 DB",right,2019-09-17T01:19:41.000Z,2019-09-17T01:19:39.000Z,6-2,300,03/29/1985,Southern California,C,NYJ,CLE,2,MetLife Stadium,"East Rutherford, NJ",Outdoors,FieldTurf,Cloudy,72.0,69,3,N
29800,2019091600,20190916001517,home,62.77,29.88,1.52,1.43,0.15,17.22,122.53,2532922,Kelechi Osemele,70,2019,47,2,07:14:00,NYJ,2,4,CLV,0,13,2540175,SHOTGUN,"1 RB, 1 TE, 3 WR",6,"3 DL, 3 LB, 5 DB",right,2019-09-17T01:19:41.000Z,2019-09-17T01:19:39.000Z,6-5,330,06/24/1989,Iowa State,G,NYJ,CLE,2,MetLife Stadium,"East Rutherford, NJ",Outdoors,FieldTurf,Cloudy,72.0,69,3,N
29801,2019091600,20190916001517,home,62.16,30.44,1.36,0.97,0.14,79.99,132.19,2533442,Kelvin Beachum,68,2019,47,2,07:14:00,NYJ,2,4,CLV,0,13,2540175,SHOTGUN,"1 RB, 1 TE, 3 WR",6,"3 DL, 3 LB, 5 DB",right,2019-09-17T01:19:41.000Z,2019-09-17T01:19:39.000Z,6-3,308,06/08/1989,Southern Methodist,T,NYJ,CLE,2,MetLife Stadium,"East Rutherford, NJ",Outdoors,FieldTurf,Cloudy,72.0,69,3,N
29802,2019091600,20190916001517,home,60.57,11.97,1.8,2.11,0.17,7.46,212.21,2535964,Josh Bellamy,15,2019,47,2,07:14:00,NYJ,2,4,CLV,0,13,2540175,SHOTGUN,"1 RB, 1 TE, 3 WR",6,"3 DL, 3 LB, 5 DB",right,2019-09-17T01:19:41.000Z,2019-09-17T01:19:39.000Z,6-0,208,05/18/1989,Louisville,WR,NYJ,CLE,2,MetLife Stadium,"East Rutherford, NJ",Outdoors,FieldTurf,Cloudy,72.0,69,3,N
29803,2019091600,20190916001517,home,62.9,26.9,1.17,0.73,0.12,108.46,107.26,2539247,Brian Winters,67,2019,47,2,07:14:00,NYJ,2,4,CLV,0,13,2540175,SHOTGUN,"1 RB, 1 TE, 3 WR",6,"3 DL, 3 LB, 5 DB",right,2019-09-17T01:19:41.000Z,2019-09-17T01:19:39.000Z,6-4,320,07/10/1991,Kent State,G,NYJ,CLE,2,MetLife Stadium,"East Rutherford, NJ",Outdoors,FieldTurf,Cloudy,72.0,69,3,N
29804,2019091600,20190916001517,home,58.77,29.25,3.97,3.05,0.39,123.92,132.78,2540175,Le'Veon Bell,26,2019,47,2,07:14:00,NYJ,2,4,CLV,0,13,2540175,SHOTGUN,"1 RB, 1 TE, 3 WR",6,"3 DL, 3 LB, 5 DB",right,2019-09-17T01:19:41.000Z,2019-09-17T01:19:39.000Z,6-1,225,02/18/1992,Michigan State,RB,NYJ,CLE,2,MetLife Stadium,"East Rutherford, NJ",Outdoors,FieldTurf,Cloudy,72.0,69,3,N
29805,2019091600,20190916001517,home,62.35,31.28,1.81,2.09,0.19,61.3,147.0,2541316,Ryan Griffin,84,2019,47,2,07:14:00,NYJ,2,4,CLV,0,13,2540175,SHOTGUN,"1 RB, 1 TE, 3 WR",6,"3 DL, 3 LB, 5 DB",right,2019-09-17T01:19:41.000Z,2019-09-17T01:19:39.000Z,6-6,255,01/11/1990,Connecticut,TE,NYJ,CLE,2,MetLife Stadium,"East Rutherford, NJ",Outdoors,FieldTurf,Cloudy,72.0,69,3,N
29806,2019091600,20190916001517,home,61.82,13.64,4.22,2.18,0.41,126.25,153.66,2552415,Jamison Crowder,82,2019,47,2,07:14:00,NYJ,2,4,CLV,0,13,2540175,SHOTGUN,"1 RB, 1 TE, 3 WR",6,"3 DL, 3 LB, 5 DB",right,2019-09-17T01:19:41.000Z,2019-09-17T01:19:39.000Z,5-9,177,06/17/1993,Duke,WR,NYJ,CLE,2,MetLife Stadium,"East Rutherford, NJ",Outdoors,FieldTurf,Cloudy,72.0,69,3,N
29807,2019091600,20190916001517,home,62.53,25.74,1.53,0.95,0.16,98.51,66.71,2555193,Brandon Shell,72,2019,47,2,07:14:00,NYJ,2,4,CLV,0,13,2540175,SHOTGUN,"1 RB, 1 TE, 3 WR",6,"3 DL, 3 LB, 5 DB",right,2019-09-17T01:19:41.000Z,2019-09-17T01:19:39.000Z,6-5,324,02/06/1992,South Carolina,T,NYJ,CLE,2,MetLife Stadium,"East Rutherford, NJ",Outdoors,FieldTurf,Cloudy,72.0,69,3,N
29808,2019091600,20190916001517,home,63.09,13.33,2.79,1.7,0.27,85.12,130.19,2556462,Robby Anderson,11,2019,47,2,07:14:00,NYJ,2,4,CLV,0,13,2540175,SHOTGUN,"1 RB, 1 TE, 3 WR",6,"3 DL, 3 LB, 5 DB",right,2019-09-17T01:19:41.000Z,2019-09-17T01:19:39.000Z,6-3,190,05/09/1993,Temple,WR,NYJ,CLE,2,MetLife Stadium,"East Rutherford, NJ",Outdoors,FieldTurf,Cloudy,72.0,69,3,N
29809,2019091600,20190916001517,home,57.75,28.82,1.06,1.44,0.1,56.08,326.92,2560720,Luke Falk,8,2019,47,2,07:14:00,NYJ,2,4,CLV,0,13,2540175,SHOTGUN,"1 RB, 1 TE, 3 WR",6,"3 DL, 3 LB, 5 DB",right,2019-09-17T01:19:41.000Z,2019-09-17T01:19:39.000Z,6-4,215,12/28/1994,Washington State,QB,NYJ,CLE,2,MetLife Stadium,"East Rutherford, NJ",Outdoors,FieldTurf,Cloudy,72.0,69,3,N
