,GameId,PlayId,Team,X,Y,S,A,Dis,Orientation,Dir,NflId,DisplayName,JerseyNumber,Season,YardLine,Quarter,GameClock,PossessionTeam,Down,Distance,FieldPosition,HomeScoreBeforePlay,VisitorScoreBeforePlay,NflIdRusher,OffenseFormation,OffensePersonnel,DefendersInTheBox,DefensePersonnel,PlayDirection,TimeHandoff,TimeSnap,PlayerHeight,PlayerWeight,PlayerBirthDate,PlayerCollegeName,Position,HomeTeamAbbr,VisitorTeamAbbr,Week,Stadium,Location,StadiumType,Turf,GameWeather,Temperature,Humidity,WindSpeed,WindDirection
34892,2019092203,20190922031038,away,59.5,29.37,3.69,1.04,0.39,278.54,336.91,2495116,Allen Bailey,93,2019,50,2,11:38:00,IND,2,12,,10,0,2560933,SHOTGUN,"1 RB, 1 TE, 3 WR",7,"3 DL, 3 LB, 5 DB",right,2019-09-22T17:48:46.000Z,2019-09-22T17:48:45.000Z,6-3,288,03/25/1989,Miami,DE,IND,ATL,3,Lucas Oil Stadium,"Indianapolis, Ind.",Retr. Roof-Closed,Artificial,Sunny,82.0,48,13,SSW
34893,2019092203,20190922031038,away,61.15,9.53,1.95,3.98,0.18,235.78,106.01,2539334,Desmond Trufant,21,2019,50,2,11:38:00,IND,2,12,,10,0,2560933,SHOTGUN,"1 RB, 1 TE, 3 WR",7,"3 DL, 3 LB, 5 DB",right,2019-09-22T17:48:46.000Z,2019-09-22T17:48:45.000Z,6-0,190,09/10/1990,Washington,CB,IND,ATL,3,Lucas Oil Stadium,"Indianapolis, Ind.",Retr. Roof-Closed,Artificial,Sunny,82.0,48,13,SSW
34894,2019092203,20190922031038,away,76.68,26.02,2.31,1.55,0.23,273.18,93.41,2543850,Ricardo Allen,37,2019,50,2,11:38:00,IND,2,12,,10,0,2560933,SHOTGUN,"1 RB, 1 TE, 3 WR",7,"3 DL, 3 LB, 5 DB",right,2019-09-22T17:48:46.000Z,2019-09-22T17:48:45.000Z,5-9,186,12/18/1991,Purdue,SS,IND,ATL,3,Lucas Oil Stadium,"Indianapolis, Ind.",Retr. Roof-Closed,Artificial,Sunny,82.0,48,13,SSW
34895,2019092203,20190922031038,away,59.92,27.76,4.27,2.33,0.42,290.07,4.29,2552301,Vic Beasley,44,2019,50,2,11:38:00,IND,2,12,,10,0,2560933,SHOTGUN,"1 RB, 1 TE, 3 WR",7,"3 DL, 3 LB, 5 DB",right,2019-09-22T17:48:46.000Z,2019-09-22T17:48:45.000Z,6-3,246,07/08/1992,Clemson,OLB,IND,ATL,3,Lucas Oil Stadium,"Indianapolis, Ind.",Retr. Roof-Closed,Artificial,Sunny,82.0,48,13,SSW
34896,2019092203,20190922031038,away,58.2,33.35,2.66,0.4,0.29,258.72,287.46,2552327,Grady Jarrett,97,2019,50,2,11:38:00,IND,2,12,,10,0,2560933,SHOTGUN,"1 RB, 1 TE, 3 WR",7,"3 DL, 3 LB, 5 DB",right,2019-09-22T17:48:46.000Z,2019-09-22T17:48:45.000Z,6-0,305,04/28/1993,Clemson,DT,IND,ATL,3,Lucas Oil Stadium,"Indianapolis, Ind.",Retr. Roof-Closed,Artificial,Sunny,82.0,48,13,SSW
34897,2019092203,20190922031038,away,60.13,31.39,2.73,2.09,0.27,264.34,347.96,2552329,Tyeler Davison,96,2019,50,2,11:38:00,IND,2,12,,10,0,2560933,SHOTGUN,"1 RB, 1 TE, 3 WR",7,"3 DL, 3 LB, 5 DB",right,2019-09-22T17:48:46.000Z,2019-09-22T17:48:45.000Z,6-2,309,09/03/1992,Fresno State,DT,IND,ATL,3,Lucas Oil Stadium,"Indianapolis, Ind.",Retr. Roof-Closed,Artificial,Sunny,82.0,48,13,SSW
34898,2019092203,20190922031038,away,64.72,31.39,4.81,3.13,0.47,288.1,340.24,2555162,Deion Jones,45,2019,50,2,11:38:00,IND,2,12,,10,0,2560933,SHOTGUN,"1 RB, 1 TE, 3 WR",7,"3 DL, 3 LB, 5 DB",right,2019-09-22T17:48:46.000Z,2019-09-22T17:48:45.000Z,6-1,227,11/04/1994,Louisiana State,MLB,IND,ATL,3,Lucas Oil Stadium,"Indianapolis, Ind.",Retr. Roof-Closed,Artificial,Sunny,82.0,48,13,SSW
34899,2019092203,20190922031038,away,58.48,36.02,2.29,3.75,0.22,213.81,307.4,2555255,De'Vondre Campbell,59,2019,50,2,11:38:00,IND,2,12,,10,0,2560933,SHOTGUN,"1 RB, 1 TE, 3 WR",7,"3 DL, 3 LB, 5 DB",right,2019-09-22T17:48:46.000Z,2019-09-22T17:48:45.000Z,6-3,232,07/01/1993,Minnesota,OLB,IND,ATL,3,Lucas Oil Stadium,"Indianapolis, Ind.",Retr. Roof-Closed,Artificial,Sunny,82.0,48,13,SSW
34900,2019092203,20190922031038,away,65.25,24.85,2.81,4.06,0.27,297.0,343.45,2555543,Keanu Neal,22,2019,50,2,11:38:00,IND,2,12,,10,0,2560933,SHOTGUN,"1 RB, 1 TE, 3 WR",7,"3 DL, 3 LB, 5 DB",right,2019-09-22T17:48:46.000Z,2019-09-22T17:48:45.000Z,6-0,211,07/26/1995,Florida,FS,IND,ATL,3,Lucas Oil Stadium,"Indianapolis, Ind.",Retr. Roof-Closed,Artificial,Sunny,82.0,48,13,SSW
34901,2019092203,20190922031038,away,62.3,16.59,2.28,2.63,0.22,285.3,91.69,2558184,Damontae Kazee,27,2019,50,2,11:38:00,IND,2,12,,10,0,2560933,SHOTGUN,"1 RB, 1 TE, 3 WR",7,"3 DL, 3 LB, 5 DB",right,2019-09-22T17:48:46.000Z,2019-09-22T17:48:45.000Z,5-11,190,06/05/1993,San Diego State,SS,IND,ATL,3,Lucas Oil Stadium,"Indianapolis, Ind.",Retr. Roof-Closed,Artificial,Sunny,82.0,48,13,SSW
34902,2019092203,20190922031038,away,62.27,42.66,4.86,4.85,0.46,329.48,36.51,2560830,Isaiah Oliver,26,2019,50,2,11:38:00,IND,2,12,,10,0,2560933,SHOTGUN,"1 RB, 1 TE, 3 WR",7,"3 DL, 3 LB, 5 DB",right,2019-09-22T17:48:46.000Z,2019-09-22T17:48:45.000Z,6-0,210,09/30/1996,Colorado,CB,IND,ATL,3,Lucas Oil Stadium,"Indianapolis, Ind.",Retr. Roof-Closed,Artificial,Sunny,82.0,48,13,SSW
34903,2019092203,20190922031038,home,57.66,35.81,3.04,1.5,0.31,89.33,343.63,2495137,Anthony Castonzo,74,2019,50,2,11:38:00,IND,2,12,,10,0,2560933,SHOTGUN,"1 RB, 1 TE, 3 WR",7,"3 DL, 3 LB, 5 DB",right,2019-09-22T17:48:46.000Z,2019-09-22T17:48:45.000Z,6-7,307,08/09/1988,Boston College,T,IND,ATL,3,Lucas Oil Stadium,"Indianapolis, Ind.",Retr. Roof-Closed,Artificial,Sunny,82.0,48,13,SSW
34904,2019092203,20190922031038,home,59.53,9.03,3.49,3.51,0.34,58.33,114.33,2532865,T.Y. Hilton,13,2019,50,2,11:38:00,IND,2,12,,10,0,2560933,SHOTGUN,"1 RB, 1 TE, 3 WR",7,"3 DL, 3 LB, 5 DB",right,2019-09-22T17:48:46.000Z,2019-09-22T17:48:45.000Z,5-10,183,11/14/1989,Florida International,WR,IND,ATL,3,Lucas Oil Stadium,"Indianapolis, Ind.",Retr. Roof-Closed,Artificial,Sunny,82.0,48,13,SSW
34905,2019092203,20190922031038,home,58.93,27.73,4.88,0.84,0.48,79.14,9.71,2540232,Jack Doyle,84,2019,50,2,11:38:00,IND,2,12,,10,0,2560933,SHOTGUN,"1 RB, 1 TE, 3 WR",7,"3 DL, 3 LB, 5 DB",right,2019-09-22T17:48:46.000Z,2019-09-22T17:48:45.000Z,6-6,262,05/05/1990,Western Kentucky,TE,IND,ATL,3,Lucas Oil Stadium,"Indianapolis, Ind.",Retr. Roof-Closed,Artificial,Sunny,82.0,48,13,SSW
34906,2019092203,20190922031038,home,59.09,31.18,4.27,0.22,0.43,61.6,7.2,2552467,Mark Glowinski,64,2019,50,2,11:38:00,IND,2,12,,10,0,2560933,SHOTGUN,"1 RB, 1 TE, 3 WR",7,"3 DL, 3 LB, 5 DB",right,2019-09-22T17:48:46.000Z,2019-09-22T17:48:45.000Z,6-4,310,05/03/1992,West Virginia,G,IND,ATL,3,Lucas Oil Stadium,"Indianapolis, Ind.",Retr. Roof-Closed,Artificial,Sunny,82.0,48,13,SSW
34907,2019092203,20190922031038,home,60.52,32.71,4.15,1.36,0.42,86.99,28.11,2555191,Ryan Kelly,78,2019,50,2,11:38:00,IND,2,12,,10,0,2560933,SHOTGUN,"1 RB, 1 TE, 3 WR",7,"3 DL, 3 LB, 5 DB",right,2019-09-22T17:48:46.000Z,2019-09-22T17:48:45.000Z,6-4,309,05/30/1993,Alabama,C,IND,ATL,3,Lucas Oil Stadium,"Indianapolis, Ind.",Retr. Roof-Closed,Artificial,Sunny,82.0,48,13,SSW
34908,2019092203,20190922031038,home,54.8,29.65,0.93,1.19,0.09,132.59,235.23,2555261,Jacoby Brissett,7,2019,50,2,11:38:00,IND,2,12,,10,0,2560933,SHOTGUN,"1 RB, 1 TE, 3 WR",7,"3 DL, 3 LB, 5 DB",right,2019-09-22T17:48:46.000Z,2019-09-22T17:48:45.000Z,6-4,235,12/11/1992,North Carolina State,QB,IND,ATL,3,Lucas Oil Stadium,"Indianapolis, Ind.",Retr. Roof-Closed,Artificial,Sunny,82.0,48,13,SSW
34909,2019092203,20190922031038,home,57.93,33.93,2.09,2.23,0.22,108.92,331.13,2560820,Quenton Nelson,56,2019,50,2,11:38:00,IND,2,12,,10,0,2560933,SHOTGUN,"1 RB, 1 TE, 3 WR",7,"3 DL, 3 LB, 5 DB",right,2019-09-22T17:48:46.000Z,2019-09-22T17:48:45.000Z,6-5,330,03/19/1996,Notre Dame,G,IND,ATL,3,Lucas Oil Stadium,"Indianapolis, Ind.",Retr. Roof-Closed,Artificial,Sunny,82.0,48,13,SSW
34910,2019092203,20190922031038,home,58.37,29.37,4.18,0.56,0.44,74.03,357.11,2560876,Braden Smith,72,2019,50,2,11:38:00,IND,2,12,,10,0,2560933,SHOTGUN,"1 RB, 1 TE, 3 WR",7,"3 DL, 3 LB, 5 DB",right,2019-09-22T17:48:46.000Z,2019-09-22T17:48:45.000Z,6-6,315,03/25/1996,Auburn,G,IND,ATL,3,Lucas Oil Stadium,"Indianapolis, Ind.",Retr. Roof-Closed,Artificial,Sunny,82.0,48,13,SSW
34911,2019092203,20190922031038,home,55.21,29.45,4.92,2.79,0.48,354.59,1.61,2560933,Jordan Wilkins,20,2019,50,2,11:38:00,IND,2,12,,10,0,2560933,SHOTGUN,"1 RB, 1 TE, 3 WR",7,"3 DL, 3 LB, 5 DB",right,2019-09-22T17:48:46.000Z,2019-09-22T17:48:45.000Z,6-1,217,07/18/1994,Mississippi,RB,IND,ATL,3,Lucas Oil Stadium,"Indianapolis, Ind.",Retr. Roof-Closed,Artificial,Sunny,82.0,48,13,SSW
34912,2019092203,20190922031038,home,61.0,43.71,5.6,3.42,0.54,35.85,40.46,2560987,Deon Cain,11,2019,50,2,11:38:00,IND,2,12,,10,0,2560933,SHOTGUN,"1 RB, 1 TE, 3 WR",7,"3 DL, 3 LB, 5 DB",right,2019-09-22T17:48:46.000Z,2019-09-22T17:48:45.000Z,6-2,202,08/09/1996,Clemson,WR,IND,ATL,3,Lucas Oil Stadium,"Indianapolis, Ind.",Retr. Roof-Closed,Artificial,Sunny,82.0,48,13,SSW
34913,2019092203,20190922031038,home,59.46,17.3,4.06,2.65,0.39,97.26,86.42,2562495,Parris Campbell,15,2019,50,2,11:38:00,IND,2,12,,10,0,2560933,SHOTGUN,"1 RB, 1 TE, 3 WR",7,"3 DL, 3 LB, 5 DB",right,2019-09-22T17:48:46.000Z,2019-09-22T17:48:45.000Z,6-0,205,07/16/1997,Ohio State,WR,IND,ATL,3,Lucas Oil Stadium,"Indianapolis, Ind.",Retr. Roof-Closed,Artificial,Sunny,82.0,48,13,SSW
