,GameId,PlayId,Team,X,Y,S,A,Dis,Orientation,Dir,NflId,DisplayName,JerseyNumber,Season,YardLine,Quarter,GameClock,PossessionTeam,Down,Distance,FieldPosition,HomeScoreBeforePlay,VisitorScoreBeforePlay,NflIdRusher,OffenseFormation,OffensePersonnel,DefendersInTheBox,DefensePersonnel,PlayDirection,TimeHandoff,TimeSnap,PlayerHeight,PlayerWeight,PlayerBirthDate,PlayerCollegeName,Position,HomeTeamAbbr,VisitorTeamAbbr,Week,Stadium,Location,StadiumType,Turf,GameWeather,Temperature,Humidity,WindSpeed,WindDirection
59598,2019092912,20190929123693,away,71.92,33.76,2.45,2.71,0.25,255.71,184.59,496937,Sean Lee,50,2019,39,4,02:49:00,NO,2,5,DAL,12,10,2558019,SINGLEBACK,"1 RB, 1 TE, 3 WR",7,"4 DL, 3 LB, 4 DB",right,2019-09-30T03:01:30.000Z,2019-09-30T03:01:28.000Z,6-2,245,07/22/1986,Penn State,ILB,NO,DAL,4,Mercedes-Benz Superdome,"New Orleans, La.",Indoors,UBU Speed Series-S5-M,Sunny,87.0,62,10,E
59599,2019092912,20190929123693,away,75.29,18.23,4.45,0.7,0.44,239.94,172.3,2541832,Jeff Heath,38,2019,39,4,02:49:00,NO,2,5,DAL,12,10,2558019,SINGLEBACK,"1 RB, 1 TE, 3 WR",7,"4 DL, 3 LB, 4 DB",right,2019-09-30T03:01:30.000Z,2019-09-30T03:01:28.000Z,6-1,212,05/14/1991,Saginaw Valley State,SS,NO,DAL,4,Mercedes-Benz Superdome,"New Orleans, La.",Indoors,UBU Speed Series-S5-M,Sunny,87.0,62,10,E
59600,2019092912,20190929123693,away,69.33,25.51,0.26,3.31,0.03,325.38,7.36,2543490,Demarcus Lawrence,90,2019,39,4,02:49:00,NO,2,5,DAL,12,10,2558019,SINGLEBACK,"1 RB, 1 TE, 3 WR",7,"4 DL, 3 LB, 4 DB",right,2019-09-30T03:01:30.000Z,2019-09-30T03:01:28.000Z,6-3,265,04/28/1992,Boise State,DE,NO,DAL,4,Mercedes-Benz Superdome,"New Orleans, La.",Indoors,UBU Speed Series-S5-M,Sunny,87.0,62,10,E
59601,2019092912,20190929123693,away,73.48,36.42,3.42,0.69,0.34,215.4,221.6,2552568,Byron Jones,31,2019,39,4,02:49:00,NO,2,5,DAL,12,10,2558019,SINGLEBACK,"1 RB, 1 TE, 3 WR",7,"4 DL, 3 LB, 4 DB",right,2019-09-30T03:01:30.000Z,2019-09-30T03:01:28.000Z,6-1,205,09/26/1992,Connecticut,CB,NO,DAL,4,Mercedes-Benz Superdome,"New Orleans, La.",Indoors,UBU Speed Series-S5-M,Sunny,87.0,62,10,E
59602,2019092912,20190929123693,away,71.13,27.69,2.06,2.05,0.21,274.06,209.02,2552602,Christian Covington,95,2019,39,4,02:49:00,NO,2,5,DAL,12,10,2558019,SINGLEBACK,"1 RB, 1 TE, 3 WR",7,"4 DL, 3 LB, 4 DB",right,2019-09-30T03:01:30.000Z,2019-09-30T03:01:28.000Z,6-2,305,10/16/1993,Rice,DE,NO,DAL,4,Mercedes-Benz Superdome,"New Orleans, La.",Indoors,UBU Speed Series-S5-M,Sunny,87.0,62,10,E
59603,2019092912,20190929123693,away,73.48,31.33,3.19,0.83,0.31,252.38,243.69,2555310,Jaylon Smith,54,2019,39,4,02:49:00,NO,2,5,DAL,12,10,2558019,SINGLEBACK,"1 RB, 1 TE, 3 WR",7,"4 DL, 3 LB, 4 DB",right,2019-09-30T03:01:30.000Z,2019-09-30T03:01:28.000Z,6-2,245,06/14/1995,Notre Dame,MLB,NO,DAL,4,Mercedes-Benz Superdome,"New Orleans, La.",Indoors,UBU Speed Series-S5-M,Sunny,87.0,62,10,E
59604,2019092912,20190929123693,away,75.91,11.86,4.81,1.87,0.47,14.07,98.17,2557840,Chidobe Awuzie,24,2019,39,4,02:49:00,NO,2,5,DAL,12,10,2558019,SINGLEBACK,"1 RB, 1 TE, 3 WR",7,"4 DL, 3 LB, 4 DB",right,2019-09-30T03:01:30.000Z,2019-09-30T03:01:28.000Z,6-0,202,05/24/1995,Colorado,CB,NO,DAL,4,Mercedes-Benz Superdome,"New Orleans, La.",Indoors,UBU Speed Series-S5-M,Sunny,87.0,62,10,E
59605,2019092912,20190929123693,away,86.51,27.86,2.21,0.84,0.22,250.88,114.92,2558159,Xavier Woods,25,2019,39,4,02:49:00,NO,2,5,DAL,12,10,2558019,SINGLEBACK,"1 RB, 1 TE, 3 WR",7,"4 DL, 3 LB, 4 DB",right,2019-09-30T03:01:30.000Z,2019-09-30T03:01:28.000Z,5-11,202,07/26/1995,Louisiana Tech,FS,NO,DAL,4,Mercedes-Benz Superdome,"New Orleans, La.",Indoors,UBU Speed Series-S5-M,Sunny,87.0,62,10,E
59606,2019092912,20190929123693,away,75.09,28.44,1.79,1.57,0.17,279.69,240.35,2560908,Leighton Vander Esch,55,2019,39,4,02:49:00,NO,2,5,DAL,12,10,2558019,SINGLEBACK,"1 RB, 1 TE, 3 WR",7,"4 DL, 3 LB, 4 DB",right,2019-09-30T03:01:30.000Z,2019-09-30T03:01:28.000Z,6-4,256,02/08/1996,Boise State,LB,NO,DAL,4,Mercedes-Benz Superdome,"New Orleans, La.",Indoors,UBU Speed Series-S5-M,Sunny,87.0,62,10,E
59607,2019092912,20190929123693,away,71.22,32.75,1.24,0.49,0.13,210.92,171.72,2562432,Joe Jackson,56,2019,39,4,02:49:00,NO,2,5,DAL,12,10,2558019,SINGLEBACK,"1 RB, 1 TE, 3 WR",7,"4 DL, 3 LB, 4 DB",right,2019-09-30T03:01:30.000Z,2019-09-30T03:01:28.000Z,6-4,275,12/20/1996,Miami,DE,NO,DAL,4,Mercedes-Benz Superdome,"New Orleans, La.",Indoors,UBU Speed Series-S5-M,Sunny,87.0,62,10,E
59608,2019092912,20190929123693,away,69.03,27.06,2.18,0.33,0.23,327.35,258.2,2562663,Trysten Hill,97,2019,39,4,02:49:00,NO,2,5,DAL,12,10,2558019,SINGLEBACK,"1 RB, 1 TE, 3 WR",7,"4 DL, 3 LB, 4 DB",right,2019-09-30T03:01:30.000Z,2019-09-30T03:01:28.000Z,6-3,308,03/25/1998,Central Florida,DT,NO,DAL,4,Mercedes-Benz Superdome,"New Orleans, La.",Indoors,UBU Speed Series-S5-M,Sunny,87.0,62,10,E
59609,2019092912,20190929123693,home,67.26,19.13,6.5,2.9,0.66,111.18,170.55,2507166,Ted Ginn,19,2019,39,4,02:49:00,NO,2,5,DAL,12,10,2558019,SINGLEBACK,"1 RB, 1 TE, 3 WR",7,"4 DL, 3 LB, 4 DB",right,2019-09-30T03:01:30.000Z,2019-09-30T03:01:28.000Z,5-11,180,04/12/1985,Ohio State,WR,NO,DAL,4,Mercedes-Benz Superdome,"New Orleans, La.",Indoors,UBU Speed Series-S5-M,Sunny,87.0,62,10,E
59610,2019092912,20190929123693,home,69.41,27.41,1.37,0.69,0.14,208.3,224.54,2539248,Larry Warford,67,2019,39,4,02:49:00,NO,2,5,DAL,12,10,2558019,SINGLEBACK,"1 RB, 1 TE, 3 WR",7,"4 DL, 3 LB, 4 DB",right,2019-09-30T03:01:30.000Z,2019-09-30T03:01:28.000Z,6-3,317,06/18/1991,Kentucky,G,NO,DAL,4,Mercedes-Benz Superdome,"New Orleans, La.",Indoors,UBU Speed Series-S5-M,Sunny,87.0,62,10,E
59611,2019092912,20190929123693,home,71.12,31.89,2.41,0.23,0.24,116.57,145.4,2540228,Terron Armstead,72,2019,39,4,02:49:00,NO,2,5,DAL,12,10,2558019,SINGLEBACK,"1 RB, 1 TE, 3 WR",7,"4 DL, 3 LB, 4 DB",right,2019-09-30T03:01:30.000Z,2019-09-30T03:01:28.000Z,6-5,304,07/23/1991,Arkansas-Pine Bluff,T,NO,DAL,4,Mercedes-Benz Superdome,"New Orleans, La.",Indoors,UBU Speed Series-S5-M,Sunny,87.0,62,10,E
59612,2019092912,20190929123693,home,70.63,32.53,1.64,2.46,0.17,81.42,154.05,2541834,Josh Hill,89,2019,39,4,02:49:00,NO,2,5,DAL,12,10,2558019,SINGLEBACK,"1 RB, 1 TE, 3 WR",7,"4 DL, 3 LB, 4 DB",right,2019-09-30T03:01:30.000Z,2019-09-30T03:01:28.000Z,6-5,250,05/21/1990,Idaho State,TE,NO,DAL,4,Mercedes-Benz Superdome,"New Orleans, La.",Indoors,UBU Speed Series-S5-M,Sunny,87.0,62,10,E
59613,2019092912,20190929123693,home,66.4,29.92,4.0,1.08,0.4,292.88,267.93,2543465,Teddy Bridgewater,5,2019,39,4,02:49:00,NO,2,5,DAL,12,10,2558019,SINGLEBACK,"1 RB, 1 TE, 3 WR",7,"4 DL, 3 LB, 4 DB",right,2019-09-30T03:01:30.000Z,2019-09-30T03:01:28.000Z,6-2,215,11/10/1992,Louisville,QB,NO,DAL,4,Mercedes-Benz Superdome,"New Orleans, La.",Indoors,UBU Speed Series-S5-M,Sunny,87.0,62,10,E
59614,2019092912,20190929123693,home,72.76,29.65,2.97,1.52,0.3,99.73,126.23,2552455,Andrus Peat,75,2019,39,4,02:49:00,NO,2,5,DAL,12,10,2558019,SINGLEBACK,"1 RB, 1 TE, 3 WR",7,"4 DL, 3 LB, 4 DB",right,2019-09-30T03:01:30.000Z,2019-09-30T03:01:28.000Z,6-7,316,11/04/1993,Stanford,T,NO,DAL,4,Mercedes-Benz Superdome,"New Orleans, La.",Indoors,UBU Speed Series-S5-M,Sunny,87.0,62,10,E
59615,2019092912,20190929123693,home,73.8,12.71,5.19,1.04,0.51,80.63,91.19,2556370,Michael Thomas,13,2019,39,4,02:49:00,NO,2,5,DAL,12,10,2558019,SINGLEBACK,"1 RB, 1 TE, 3 WR",7,"4 DL, 3 LB, 4 DB",right,2019-09-30T03:01:30.000Z,2019-09-30T03:01:28.000Z,6-3,212,03/03/1993,Ohio State,WR,NO,DAL,4,Mercedes-Benz Superdome,"New Orleans, La.",Indoors,UBU Speed Series-S5-M,Sunny,87.0,62,10,E
59616,2019092912,20190929123693,home,68.61,26.26,0.45,0.42,0.05,152.02,235.38,2557959,Ryan Ramczyk,71,2019,39,4,02:49:00,NO,2,5,DAL,12,10,2558019,SINGLEBACK,"1 RB, 1 TE, 3 WR",7,"4 DL, 3 LB, 4 DB",right,2019-09-30T03:01:30.000Z,2019-09-30T03:01:28.000Z,6-6,314,04/22/1994,Wisconsin,T,NO,DAL,4,Mercedes-Benz Superdome,"New Orleans, La.",Indoors,UBU Speed Series-S5-M,Sunny,87.0,62,10,E
59617,2019092912,20190929123693,home,66.48,30.75,4.92,2.28,0.48,88.77,82.07,2558019,Alvin Kamara,41,2019,39,4,02:49:00,NO,2,5,DAL,12,10,2558019,SINGLEBACK,"1 RB, 1 TE, 3 WR",7,"4 DL, 3 LB, 4 DB",right,2019-09-30T03:01:30.000Z,2019-09-30T03:01:28.000Z,5-10,215,07/25/1995,Tennessee,RB,NO,DAL,4,Mercedes-Benz Superdome,"New Orleans, La.",Indoors,UBU Speed Series-S5-M,Sunny,87.0,62,10,E
59618,2019092912,20190929123693,home,71.09,34.24,2.37,1.65,0.24,146.63,171.38,2558928,Austin Carr,80,2019,39,4,02:49:00,NO,2,5,DAL,12,10,2558019,SINGLEBACK,"1 RB, 1 TE, 3 WR",7,"4 DL, 3 LB, 4 DB",right,2019-09-30T03:01:30.000Z,2019-09-30T03:01:28.000Z,6-1,195,12/25/1993,Northwestern,WR,NO,DAL,4,Mercedes-Benz Superdome,"New Orleans, La.",Indoors,UBU Speed Series-S5-M,Sunny,87.0,62,10,E
59619,2019092912,20190929123693,home,71.04,28.4,1.93,0.81,0.19,198.43,183.66,2562683,Erik McCoy,78,2019,39,4,02:49:00,NO,2,5,DAL,12,10,2558019,SINGLEBACK,"1 RB, 1 TE, 3 WR",7,"4 DL, 3 LB, 4 DB",right,2019-09-30T03:01:30.000Z,2019-09-30T03:01:28.000Z,6-4,315,08/27/1997,Texas A&M,C,NO,DAL,4,Mercedes-Benz Superdome,"New Orleans, La.",Indoors,UBU Speed Series-S5-M,Sunny,87.0,62,10,E
