,GameId,PlayId,Team,X,Y,S,A,Dis,Orientation,Dir,NflId,DisplayName,JerseyNumber,Season,YardLine,Quarter,GameClock,PossessionTeam,Down,Distance,FieldPosition,HomeScoreBeforePlay,VisitorScoreBeforePlay,NflIdRusher,OffenseFormation,OffensePersonnel,DefendersInTheBox,DefensePersonnel,PlayDirection,TimeHandoff,TimeSnap,PlayerHeight,PlayerWeight,PlayerBirthDate,PlayerCollegeName,Position,HomeTeamAbbr,VisitorTeamAbbr,Week,Stadium,Location,StadiumType,Turf,GameWeather,Temperature,Humidity,WindSpeed,WindDirection
60654,2019100300,20191003000737,away,40.73,15.52,0.96,0.74,0.09,315.83,3.12,1302,Aqib Talib,21,2019,25,1,04:55:00,SEA,1,10,SEA,0,6,2558865,I_FORM,"1 RB, 2 TE, 2 WR",8,"3 DL, 4 LB, 4 DB",right,2019-10-04T00:52:48.000Z,2019-10-04T00:52:47.000Z,6-1,209,02/13/1986,Kansas,CB,SEA,LA,5,CenturyLink Field,Seattle,Outdoor,FieldTurf,Cloudy,57.0,56,7,SW
60655,2019100300,20191003000737,away,41.72,28.78,2.02,2.31,0.21,221.42,111.64,2495775,Eric Weddle,32,2019,25,1,04:55:00,SEA,1,10,SEA,0,6,2558865,I_FORM,"1 RB, 2 TE, 2 WR",8,"3 DL, 4 LB, 4 DB",right,2019-10-04T00:52:48.000Z,2019-10-04T00:52:47.000Z,5-11,195,01/04/1985,Utah,FS,SEA,LA,5,CenturyLink Field,Seattle,Outdoor,FieldTurf,Cloudy,57.0,56,7,SW
60656,2019100300,20191003000737,away,35.35,22.93,2.22,1.15,0.21,260.71,9.89,2533050,Michael Brockers,90,2019,25,1,04:55:00,SEA,1,10,SEA,0,6,2558865,I_FORM,"1 RB, 2 TE, 2 WR",8,"3 DL, 4 LB, 4 DB",right,2019-10-04T00:52:48.000Z,2019-10-04T00:52:47.000Z,6-5,305,12/21/1990,Louisiana State,DT,SEA,LA,5,CenturyLink Field,Seattle,Outdoor,FieldTurf,Cloudy,57.0,56,7,SW
60657,2019100300,20191003000737,away,33.28,26.7,0.83,1.65,0.09,228.05,292.26,2543485,Aaron Donald,99,2019,25,1,04:55:00,SEA,1,10,SEA,0,6,2558865,I_FORM,"1 RB, 2 TE, 2 WR",8,"3 DL, 4 LB, 4 DB",right,2019-10-04T00:52:48.000Z,2019-10-04T00:52:47.000Z,6-1,280,05/23/1991,Pittsburgh,DT,SEA,LA,5,CenturyLink Field,Seattle,Outdoor,FieldTurf,Cloudy,57.0,56,7,SW
60658,2019100300,20191003000737,away,42.24,40.43,4.28,2.72,0.43,157.74,102.58,2552488,Marcus Peters,22,2019,25,1,04:55:00,SEA,1,10,SEA,0,6,2558865,I_FORM,"1 RB, 2 TE, 2 WR",8,"3 DL, 4 LB, 4 DB",right,2019-10-04T00:52:48.000Z,2019-10-04T00:52:47.000Z,6-0,197,01/09/1993,Washington,CB,SEA,LA,5,CenturyLink Field,Seattle,Outdoor,FieldTurf,Cloudy,57.0,56,7,SW
60659,2019100300,20191003000737,away,33.36,28.32,1.38,3.42,0.14,184.86,166.79,2553431,Dante Fowler,56,2019,25,1,04:55:00,SEA,1,10,SEA,0,6,2558865,I_FORM,"1 RB, 2 TE, 2 WR",8,"3 DL, 4 LB, 4 DB",right,2019-10-04T00:52:48.000Z,2019-10-04T00:52:47.000Z,6-3,255,08/03/1994,Florida,OLB,SEA,LA,5,CenturyLink Field,Seattle,Outdoor,FieldTurf,Cloudy,57.0,56,7,SW
60660,2019100300,20191003000737,away,37.91,24.69,1.07,2.68,0.1,255.65,229.47,2556593,Cory Littleton,58,2019,25,1,04:55:00,SEA,1,10,SEA,0,6,2558865,I_FORM,"1 RB, 2 TE, 2 WR",8,"3 DL, 4 LB, 4 DB",right,2019-10-04T00:52:48.000Z,2019-10-04T00:52:47.000Z,6-3,228,11/18/1993,Washington,ILB,SEA,LA,5,CenturyLink Field,Seattle,Outdoor,FieldTurf,Cloudy,57.0,56,7,SW
60661,2019100300,20191003000737,away,41.67,19.52,3.79,1.25,0.38,263.72,254.6,2558183,John Johnson,43,2019,25,1,04:55:00,SEA,1,10,SEA,0,6,2558865,I_FORM,"1 RB, 2 TE, 2 WR",8,"3 DL, 4 LB, 4 DB",right,2019-10-04T00:52:48.000Z,2019-10-04T00:52:47.000Z,6-0,209,12/19/1995,Boston College,SS,SEA,LA,5,CenturyLink Field,Seattle,Outdoor,FieldTurf,Cloudy,57.0,56,7,SW
60662,2019100300,20191003000737,away,34.33,16.87,1.21,1.91,0.12,317.93,288.47,2558830,Samson Ebukam,50,2019,25,1,04:55:00,SEA,1,10,SEA,0,6,2558865,I_FORM,"1 RB, 2 TE, 2 WR",8,"3 DL, 4 LB, 4 DB",right,2019-10-04T00:52:48.000Z,2019-10-04T00:52:47.000Z,6-3,245,05/09/1995,Eastern Washington,OLB,SEA,LA,5,CenturyLink Field,Seattle,Outdoor,FieldTurf,Cloudy,57.0,56,7,SW
60663,2019100300,20191003000737,away,35.11,24.19,0.79,1.02,0.08,312.32,33.67,2561079,Sebastian Joseph-Day,69,2019,25,1,04:55:00,SEA,1,10,SEA,0,6,2558865,I_FORM,"1 RB, 2 TE, 2 WR",8,"3 DL, 4 LB, 4 DB",right,2019-10-04T00:52:48.000Z,2019-10-04T00:52:47.000Z,6-4,310,03/21/1995,Rutgers,DT,SEA,LA,5,CenturyLink Field,Seattle,Outdoor,FieldTurf,Cloudy,57.0,56,7,SW
60664,2019100300,20191003000737,away,36.59,21.22,2.25,1.52,0.22,312.96,298.58,2563313,Troy Reeder,51,2019,25,1,04:55:00,SEA,1,10,SEA,0,6,2558865,I_FORM,"1 RB, 2 TE, 2 WR",8,"3 DL, 4 LB, 4 DB",right,2019-10-04T00:52:48.000Z,2019-10-04T00:52:47.000Z,6-3,245,09/13/1994,Delaware,LB,SEA,LA,5,CenturyLink Field,Seattle,Outdoor,FieldTurf,Cloudy,57.0,56,7,SW
60665,2019100300,20191003000737,home,32.73,26.6,0.39,0.69,0.04,54.91,218.12,808,Duane Brown,76,2019,25,1,04:55:00,SEA,1,10,SEA,0,6,2558865,I_FORM,"1 RB, 2 TE, 2 WR",8,"3 DL, 4 LB, 4 DB",right,2019-10-04T00:52:48.000Z,2019-10-04T00:52:47.000Z,6-4,315,08/30/1985,Virginia Tech,T,SEA,LA,5,CenturyLink Field,Seattle,Outdoor,FieldTurf,Cloudy,57.0,56,7,SW
60666,2019100300,20191003000737,home,33.12,25.97,0.37,1.79,0.05,10.92,227.19,497016,Mike Iupati,70,2019,25,1,04:55:00,SEA,1,10,SEA,0,6,2558865,I_FORM,"1 RB, 2 TE, 2 WR",8,"3 DL, 4 LB, 4 DB",right,2019-10-04T00:52:48.000Z,2019-10-04T00:52:47.000Z,6-5,331,05/12/1987,Idaho,OG,SEA,LA,5,CenturyLink Field,Seattle,Outdoor,FieldTurf,Cloudy,57.0,56,7,SW
60667,2019100300,20191003000737,home,30.13,23.86,5.43,1.63,0.53,243.92,266.4,2532975,Russell Wilson,3,2019,25,1,04:55:00,SEA,1,10,SEA,0,6,2558865,I_FORM,"1 RB, 2 TE, 2 WR",8,"3 DL, 4 LB, 4 DB",right,2019-10-04T00:52:48.000Z,2019-10-04T00:52:47.000Z,5-11,215,11/29/1988,Wisconsin,QB,SEA,LA,5,CenturyLink Field,Seattle,Outdoor,FieldTurf,Cloudy,57.0,56,7,SW
60668,2019100300,20191003000737,home,34.01,17.36,0.43,2.5,0.04,152.79,294.72,2541199,Luke Willson,82,2019,25,1,04:55:00,SEA,1,10,SEA,0,6,2558865,I_FORM,"1 RB, 2 TE, 2 WR",8,"3 DL, 4 LB, 4 DB",right,2019-10-04T00:52:48.000Z,2019-10-04T00:52:47.000Z,6-5,254,01/15/1990,Rice,TE,SEA,LA,5,CenturyLink Field,Seattle,Outdoor,FieldTurf,Cloudy,57.0,56,7,SW
60669,2019100300,20191003000737,home,35.6,24.99,1.75,1.54,0.18,82.79,64.57,2550135,Justin Britt,68,2019,25,1,04:55:00,SEA,1,10,SEA,0,6,2558865,I_FORM,"1 RB, 2 TE, 2 WR",8,"3 DL, 4 LB, 4 DB",right,2019-10-04T00:52:48.000Z,2019-10-04T00:52:47.000Z,6-6,315,05/29/1991,Missouri,C,SEA,LA,5,CenturyLink Field,Seattle,Outdoor,FieldTurf,Cloudy,57.0,56,7,SW
60670,2019100300,20191003000737,home,36.69,39.05,4.46,1.7,0.44,151.36,108.71,2552430,Tyler Lockett,16,2019,25,1,04:55:00,SEA,1,10,SEA,0,6,2558865,I_FORM,"1 RB, 2 TE, 2 WR",8,"3 DL, 4 LB, 4 DB",right,2019-10-04T00:52:48.000Z,2019-10-04T00:52:47.000Z,5-10,182,09/28/1992,Kansas State,WR,SEA,LA,5,CenturyLink Field,Seattle,Outdoor,FieldTurf,Cloudy,57.0,56,7,SW
60671,2019100300,20191003000737,home,34.65,22.84,1.97,0.69,0.2,61.74,17.25,2555395,Germain Ifedi,65,2019,25,1,04:55:00,SEA,1,10,SEA,0,6,2558865,I_FORM,"1 RB, 2 TE, 2 WR",8,"3 DL, 4 LB, 4 DB",right,2019-10-04T00:52:48.000Z,2019-10-04T00:52:47.000Z,6-5,325,06/02/1994,Texas A&M,G,SEA,LA,5,CenturyLink Field,Seattle,Outdoor,FieldTurf,Cloudy,57.0,56,7,SW
60672,2019100300,20191003000737,home,29.3,23.03,4.51,2.2,0.44,111.15,107.46,2558865,Chris Carson,32,2019,25,1,04:55:00,SEA,1,10,SEA,0,6,2558865,I_FORM,"1 RB, 2 TE, 2 WR",8,"3 DL, 4 LB, 4 DB",right,2019-10-04T00:52:48.000Z,2019-10-04T00:52:47.000Z,5-11,222,09/16/1994,Oklahoma State,RB,SEA,LA,5,CenturyLink Field,Seattle,Outdoor,FieldTurf,Cloudy,57.0,56,7,SW
60673,2019100300,20191003000737,home,34.52,24.62,1.41,1.79,0.14,126.8,38.3,2560768,Jamarco Jones,73,2019,25,1,04:55:00,SEA,1,10,SEA,0,6,2558865,I_FORM,"1 RB, 2 TE, 2 WR",8,"3 DL, 4 LB, 4 DB",right,2019-10-04T00:52:48.000Z,2019-10-04T00:52:47.000Z,6-4,293,06/04/1996,Ohio State,T,SEA,LA,5,CenturyLink Field,Seattle,Outdoor,FieldTurf,Cloudy,57.0,56,7,SW
60674,2019100300,20191003000737,home,34.99,21.72,2.84,3.9,0.3,95.26,46.29,2561046,Will Dissly,88,2019,25,1,04:55:00,SEA,1,10,SEA,0,6,2558865,I_FORM,"1 RB, 2 TE, 2 WR",8,"3 DL, 4 LB, 4 DB",right,2019-10-04T00:52:48.000Z,2019-10-04T00:52:47.000Z,6-4,267,07/08/1996,Washington,TE,SEA,LA,5,CenturyLink Field,Seattle,Outdoor,FieldTurf,Cloudy,57.0,56,7,SW
60675,2019100300,20191003000737,home,34.33,19.88,4.0,1.87,0.39,110.77,101.92,2562685,D.K. Metcalf,14,2019,25,1,04:55:00,SEA,1,10,SEA,0,6,2558865,I_FORM,"1 RB, 2 TE, 2 WR",8,"3 DL, 4 LB, 4 DB",right,2019-10-04T00:52:48.000Z,2019-10-04T00:52:47.000Z,6-4,230,12/14/1997,Mississippi,WR,SEA,LA,5,CenturyLink Field,Seattle,Outdoor,FieldTurf,Cloudy,57.0,56,7,SW
