,GameId,PlayId,Team,X,Y,S,A,Dis,Orientation,Dir,NflId,DisplayName,JerseyNumber,Season,YardLine,Quarter,GameClock,PossessionTeam,Down,Distance,FieldPosition,HomeScoreBeforePlay,VisitorScoreBeforePlay,NflIdRusher,OffenseFormation,OffensePersonnel,DefendersInTheBox,DefensePersonnel,PlayDirection,TimeHandoff,TimeSnap,PlayerHeight,PlayerWeight,PlayerBirthDate,PlayerCollegeName,Position,HomeTeamAbbr,VisitorTeamAbbr,Week,Stadium,Location,StadiumType,Turf,GameWeather,Temperature,Humidity,WindSpeed,WindDirection
3146,2019090802,20190908022732,away,15.01,24.51,3.34,2.92,0.33,345.75,259.32,2539319,Alex Okafor,97,2019,9,3,01:03:00,JAX,3,23,JAX,13,30,2557973,SHOTGUN,"1 RB, 1 TE, 3 WR",5,"4 DL, 1 LB, 6 DB",right,2019-09-08T19:10:42.000Z,2019-09-08T19:10:41.000Z,6-4,260,02/08/1991,Texas,DE,JAX,KC,1,TIAA Bank Field,"Jacksonville, FL",Open,Grass,Clear,91.0,54,6mph,WSW
3147,2019090802,20190908022732,away,32.35,37.97,2.35,1.68,0.23,271.21,73.61,2540180,Tyrann Mathieu,32,2019,9,3,01:03:00,JAX,3,23,JAX,13,30,2557973,SHOTGUN,"1 RB, 1 TE, 3 WR",5,"4 DL, 1 LB, 6 DB",right,2019-09-08T19:10:42.000Z,2019-09-08T19:10:41.000Z,5-9,190,05/13/1992,Louisiana State,FS,JAX,KC,1,TIAA Bank Field,"Jacksonville, FL",Open,Grass,Clear,91.0,54,6mph,WSW
3148,2019090802,20190908022732,away,21.56,8.37,2.75,2.01,0.27,265.61,111.39,2543571,Bashaud Breeland,21,2019,9,3,01:03:00,JAX,3,23,JAX,13,30,2557973,SHOTGUN,"1 RB, 1 TE, 3 WR",5,"4 DL, 1 LB, 6 DB",right,2019-09-08T19:10:42.000Z,2019-09-08T19:10:41.000Z,5-11,195,01/30/1992,Clemson,CB,JAX,KC,1,TIAA Bank Field,"Jacksonville, FL",Open,Grass,Clear,91.0,54,6mph,WSW
3149,2019090802,20190908022732,away,25.33,29.17,1.12,3.5,0.11,274.95,180.59,2543592,Anthony Hitchens,53,2019,9,3,01:03:00,JAX,3,23,JAX,13,30,2557973,SHOTGUN,"1 RB, 1 TE, 3 WR",5,"4 DL, 1 LB, 6 DB",right,2019-09-08T19:10:42.000Z,2019-09-08T19:10:41.000Z,6-0,235,06/10/1992,Iowa,MLB,JAX,KC,1,TIAA Bank Field,"Jacksonville, FL",Open,Grass,Clear,91.0,54,6mph,WSW
3150,2019090802,20190908022732,away,22.24,35.52,2.63,3.71,0.24,261.98,106.92,2550257,Daniel Sorensen,49,2019,9,3,01:03:00,JAX,3,23,JAX,13,30,2557973,SHOTGUN,"1 RB, 1 TE, 3 WR",5,"4 DL, 1 LB, 6 DB",right,2019-09-08T19:10:42.000Z,2019-09-08T19:10:41.000Z,6-2,208,03/05/1990,Brigham Young,SS,JAX,KC,1,TIAA Bank Field,"Jacksonville, FL",Open,Grass,Clear,91.0,54,6mph,WSW
3151,2019090802,20190908022732,away,15.87,35.02,2.99,3.03,0.3,251.17,280.09,2552629,Frank Clark,55,2019,9,3,01:03:00,JAX,3,23,JAX,13,30,2557973,SHOTGUN,"1 RB, 1 TE, 3 WR",5,"4 DL, 1 LB, 6 DB",right,2019-09-08T19:10:42.000Z,2019-09-08T19:10:41.000Z,6-3,260,06/14/1993,Michigan,DE,JAX,KC,1,TIAA Bank Field,"Jacksonville, FL",Open,Grass,Clear,91.0,54,6mph,WSW
3152,2019090802,20190908022732,away,26.09,20.79,2.04,0.95,0.2,272.81,64.36,2555349,Kendall Fuller,29,2019,9,3,01:03:00,JAX,3,23,JAX,13,30,2557973,SHOTGUN,"1 RB, 1 TE, 3 WR",5,"4 DL, 1 LB, 6 DB",right,2019-09-08T19:10:42.000Z,2019-09-08T19:10:41.000Z,5-11,198,02/13/1995,Virginia Tech,CB,JAX,KC,1,TIAA Bank Field,"Jacksonville, FL",Open,Grass,Clear,91.0,54,6mph,WSW
3153,2019090802,20190908022732,away,15.57,27.03,2.92,2.37,0.28,333.8,281.69,2556369,Chris Jones,95,2019,9,3,01:03:00,JAX,3,23,JAX,13,30,2557973,SHOTGUN,"1 RB, 1 TE, 3 WR",5,"4 DL, 1 LB, 6 DB",right,2019-09-08T19:10:42.000Z,2019-09-08T19:10:41.000Z,6-6,308,07/03/1994,Mississippi State,DT,JAX,KC,1,TIAA Bank Field,"Jacksonville, FL",Open,Grass,Clear,91.0,54,6mph,WSW
3154,2019090802,20190908022732,away,17.66,31.37,2.06,1.81,0.21,295.76,319.17,2558185,Tanoh Kpassagnon,92,2019,9,3,01:03:00,JAX,3,23,JAX,13,30,2557973,SHOTGUN,"1 RB, 1 TE, 3 WR",5,"4 DL, 1 LB, 6 DB",right,2019-09-08T19:10:42.000Z,2019-09-08T19:10:41.000Z,6-7,289,06/14/1994,Villanova,DE,JAX,KC,1,TIAA Bank Field,"Jacksonville, FL",Open,Grass,Clear,91.0,54,6mph,WSW
3155,2019090802,20190908022732,away,20.98,46.28,3.15,2.64,0.31,293.63,44.9,2561417,Charvarius Ward,35,2019,9,3,01:03:00,JAX,3,23,JAX,13,30,2557973,SHOTGUN,"1 RB, 1 TE, 3 WR",5,"4 DL, 1 LB, 6 DB",right,2019-09-08T19:10:42.000Z,2019-09-08T19:10:41.000Z,6-1,195,05/16/1996,Middle Tennessee,DB,JAX,KC,1,TIAA Bank Field,"Jacksonville, FL",Open,Grass,Clear,91.0,54,6mph,WSW
3156,2019090802,20190908022732,away,34.9,18.8,3.63,1.13,0.36,253.65,91.52,2562761,Juan Thornhill,22,2019,9,3,01:03:00,JAX,3,23,JAX,13,30,2557973,SHOTGUN,"1 RB, 1 TE, 3 WR",5,"4 DL, 1 LB, 6 DB",right,2019-09-08T19:10:42.000Z,2019-09-08T19:10:41.000Z,6-0,205,10/19/1995,Virginia,DB,JAX,KC,1,TIAA Bank Field,"Jacksonville, FL",Open,Grass,Clear,91.0,54,6mph,WSW
3157,2019090802,20190908022732,home,17.17,30.86,2.11,0.23,0.22,97.59,323.52,2543729,Brandon Linder,65,2019,9,3,01:03:00,JAX,3,23,JAX,13,30,2557973,SHOTGUN,"1 RB, 1 TE, 3 WR",5,"4 DL, 1 LB, 6 DB",right,2019-09-08T19:10:42.000Z,2019-09-08T19:10:41.000Z,6-6,315,01/25/1992,Miami,C,JAX,KC,1,TIAA Bank Field,"Jacksonville, FL",Open,Grass,Clear,91.0,54,6mph,WSW
3158,2019090802,20190908022732,home,17.31,32.11,0.9,0.63,0.08,115.48,8.94,2550589,Andrew Norwell,68,2019,9,3,01:03:00,JAX,3,23,JAX,13,30,2557973,SHOTGUN,"1 RB, 1 TE, 3 WR",5,"4 DL, 1 LB, 6 DB",right,2019-09-08T19:10:42.000Z,2019-09-08T19:10:41.000Z,6-6,325,10/25/1991,Ohio State,G,JAX,KC,1,TIAA Bank Field,"Jacksonville, FL",Open,Grass,Clear,91.0,54,6mph,WSW
3159,2019090802,20190908022732,home,15.98,27.83,2.74,1.94,0.29,254.84,273.05,2552330,A.J. Cann,60,2019,9,3,01:03:00,JAX,3,23,JAX,13,30,2557973,SHOTGUN,"1 RB, 1 TE, 3 WR",5,"4 DL, 1 LB, 6 DB",right,2019-09-08T19:10:42.000Z,2019-09-08T19:10:41.000Z,6-3,325,10/23/1991,South Carolina,G,JAX,KC,1,TIAA Bank Field,"Jacksonville, FL",Open,Grass,Clear,91.0,54,6mph,WSW
3160,2019090802,20190908022732,home,19.62,8.67,3.41,2.64,0.32,82.33,110.53,2552652,Chris Conley,18,2019,9,3,01:03:00,JAX,3,23,JAX,13,30,2557973,SHOTGUN,"1 RB, 1 TE, 3 WR",5,"4 DL, 1 LB, 6 DB",right,2019-09-08T19:10:42.000Z,2019-09-08T19:10:41.000Z,6-3,205,10/25/1992,Georgia,WR,JAX,KC,1,TIAA Bank Field,"Jacksonville, FL",Open,Grass,Clear,91.0,54,6mph,WSW
3161,2019090802,20190908022732,home,21.36,35.33,4.25,0.81,0.44,94.47,109.81,2553318,James O'Shaughnessy,80,2019,9,3,01:03:00,JAX,3,23,JAX,13,30,2557973,SHOTGUN,"1 RB, 1 TE, 3 WR",5,"4 DL, 1 LB, 6 DB",right,2019-09-08T19:10:42.000Z,2019-09-08T19:10:41.000Z,6-4,245,01/14/1992,Illinois State,TE,JAX,KC,1,TIAA Bank Field,"Jacksonville, FL",Open,Grass,Clear,91.0,54,6mph,WSW
3162,2019090802,20190908022732,home,21.19,19.03,5.43,1.49,0.54,82.0,83.67,2557895,Dede Westbrook,12,2019,9,3,01:03:00,JAX,3,23,JAX,13,30,2557973,SHOTGUN,"1 RB, 1 TE, 3 WR",5,"4 DL, 1 LB, 6 DB",right,2019-09-08T19:10:42.000Z,2019-09-08T19:10:41.000Z,6-0,176,11/21/1993,Oklahoma,WR,JAX,KC,1,TIAA Bank Field,"Jacksonville, FL",Open,Grass,Clear,91.0,54,6mph,WSW
3163,2019090802,20190908022732,home,14.16,30.94,2.96,2.98,0.3,116.42,125.54,2557973,Leonard Fournette,27,2019,9,3,01:03:00,JAX,3,23,JAX,13,30,2557973,SHOTGUN,"1 RB, 1 TE, 3 WR",5,"4 DL, 1 LB, 6 DB",right,2019-09-08T19:10:42.000Z,2019-09-08T19:10:41.000Z,6-0,228,01/18/1995,Louisiana State,RB,JAX,KC,1,TIAA Bank Field,"Jacksonville, FL",Open,Grass,Clear,91.0,54,6mph,WSW
3164,2019090802,20190908022732,home,15.53,33.83,2.22,0.83,0.22,12.92,291.64,2560853,Will Richardson,76,2019,9,3,01:03:00,JAX,3,23,JAX,13,30,2557973,SHOTGUN,"1 RB, 1 TE, 3 WR",5,"4 DL, 1 LB, 6 DB",right,2019-09-08T19:10:42.000Z,2019-09-08T19:10:41.000Z,6-6,303,01/04/1996,North Carolina State,T,JAX,KC,1,TIAA Bank Field,"Jacksonville, FL",Open,Grass,Clear,91.0,54,6mph,WSW
3165,2019090802,20190908022732,home,19.8,46.47,4.93,3.57,0.47,83.5,49.19,2561018,D.J. Chark,17,2019,9,3,01:03:00,JAX,3,23,JAX,13,30,2557973,SHOTGUN,"1 RB, 1 TE, 3 WR",5,"4 DL, 1 LB, 6 DB",right,2019-09-08T19:10:42.000Z,2019-09-08T19:10:41.000Z,6-4,198,09/23/1996,Louisiana State,WR,JAX,KC,1,TIAA Bank Field,"Jacksonville, FL",Open,Grass,Clear,91.0,54,6mph,WSW
3166,2019090802,20190908022732,home,15.26,25.6,2.05,1.55,0.21,228.29,245.36,2562756,Jawaan Taylor,75,2019,9,3,01:03:00,JAX,3,23,JAX,13,30,2557973,SHOTGUN,"1 RB, 1 TE, 3 WR",5,"4 DL, 1 LB, 6 DB",right,2019-09-08T19:10:42.000Z,2019-09-08T19:10:41.000Z,6-5,312,11/25/1997,Florida,T,JAX,KC,1,TIAA Bank Field,"Jacksonville, FL",Open,Grass,Clear,91.0,54,6mph,WSW
3167,2019090802,20190908022732,home,13.47,30.03,1.08,1.99,0.09,71.71,271.85,2562796,Gardner Minshew,15,2019,9,3,01:03:00,JAX,3,23,JAX,13,30,2557973,SHOTGUN,"1 RB, 1 TE, 3 WR",5,"4 DL, 1 LB, 6 DB",right,2019-09-08T19:10:42.000Z,2019-09-08T19:10:41.000Z,6-1,225,05/16/1996,Washington State,QB,JAX,KC,1,TIAA Bank Field,"Jacksonville, FL",Open,Grass,Clear,91.0,54,6mph,WSW
