,GameId,PlayId,Team,X,Y,S,A,Dis,Orientation,Dir,NflId,DisplayName,JerseyNumber,Season,YardLine,Quarter,GameClock,PossessionTeam,Down,Distance,FieldPosition,HomeScoreBeforePlay,VisitorScoreBeforePlay,NflIdRusher,OffenseFormation,OffensePersonnel,DefendersInTheBox,DefensePersonnel,PlayDirection,TimeHandoff,TimeSnap,PlayerHeight,PlayerWeight,PlayerBirthDate,PlayerCollegeName,Position,HomeTeamAbbr,VisitorTeamAbbr,Week,Stadium,Location,StadiumType,Turf,GameWeather,Temperature,Humidity,WindSpeed,WindDirection
43340,2019092212,20190922122064,away,40.24,29.04,0.82,1.21,0.09,145.64,176.33,81821,Ramon Foster,73,2019,31,3,14:31:00,PIT,2,4,PIT,3,6,2557978,SHOTGUN,"1 RB, 1 TE, 3 WR",7,"4 DL, 2 LB, 5 DB",right,2019-09-22T21:56:55.000Z,2019-09-22T21:56:53.000Z,6-5,328,01/07/1986,Tennessee,G,SF,PIT,3,Levis Stadium,"Santa Clara, CSA",Outdoor,Natural grass,partly cloudy,79.0,36,3,NW
43341,2019092212,20190922122064,away,39.99,27.21,1.47,0.83,0.14,146.72,176.73,497042,Maurkice Pouncey,53,2019,31,3,14:31:00,PIT,2,4,PIT,3,6,2557978,SHOTGUN,"1 RB, 1 TE, 3 WR",7,"4 DL, 2 LB, 5 DB",right,2019-09-22T21:56:55.000Z,2019-09-22T21:56:53.000Z,6-4,304,07/24/1989,Florida,C,SF,PIT,3,Levis Stadium,"Santa Clara, CSA",Outdoor,Natural grass,partly cloudy,79.0,36,3,NW
43342,2019092212,20190922122064,away,38.77,30.92,3.75,1.5,0.38,51.96,0.45,2533043,David DeCastro,66,2019,31,3,14:31:00,PIT,2,4,PIT,3,6,2557978,SHOTGUN,"1 RB, 1 TE, 3 WR",7,"4 DL, 2 LB, 5 DB",right,2019-09-22T21:56:55.000Z,2019-09-22T21:56:53.000Z,6-5,316,01/11/1990,Stanford,G,SF,PIT,3,Levis Stadium,"Santa Clara, CSA",Outdoor,Natural grass,partly cloudy,79.0,36,3,NW
43343,2019092212,20190922122064,away,39.42,30.1,2.61,2.15,0.26,174.81,213.07,2550130,Alejandro Villanueva,78,2019,31,3,14:31:00,PIT,2,4,PIT,3,6,2557978,SHOTGUN,"1 RB, 1 TE, 3 WR",7,"4 DL, 2 LB, 5 DB",right,2019-09-22T21:56:55.000Z,2019-09-22T21:56:53.000Z,6-9,320,09/22/1988,Army,T,SF,PIT,3,Levis Stadium,"Santa Clara, CSA",Outdoor,Natural grass,partly cloudy,79.0,36,3,NW
43344,2019092212,20190922122064,away,39.47,31.93,1.73,1.37,0.17,108.2,187.98,2550521,Xavier Grimble,85,2019,31,3,14:31:00,PIT,2,4,PIT,3,6,2557978,SHOTGUN,"1 RB, 1 TE, 3 WR",7,"4 DL, 2 LB, 5 DB",right,2019-09-22T21:56:55.000Z,2019-09-22T21:56:53.000Z,6-4,261,09/22/1992,USC,TE,SF,PIT,3,Levis Stadium,"Santa Clara, CSA",Outdoor,Natural grass,partly cloudy,79.0,36,3,NW
43345,2019092212,20190922122064,away,38.49,27.79,2.35,0.35,0.24,126.91,307.68,2550561,Matt Feiler,71,2019,31,3,14:31:00,PIT,2,4,PIT,3,6,2557978,SHOTGUN,"1 RB, 1 TE, 3 WR",7,"4 DL, 2 LB, 5 DB",right,2019-09-22T21:56:55.000Z,2019-09-22T21:56:53.000Z,6-6,330,07/07/1992,Bloomsburg,T,SF,PIT,3,Levis Stadium,"Santa Clara, CSA",Outdoor,Natural grass,partly cloudy,79.0,36,3,NW
43346,2019092212,20190922122064,away,36.64,31.13,2.86,4.04,0.28,69.74,59.84,2557978,James Conner,30,2019,31,3,14:31:00,PIT,2,4,PIT,3,6,2557978,SHOTGUN,"1 RB, 1 TE, 3 WR",7,"4 DL, 2 LB, 5 DB",right,2019-09-22T21:56:55.000Z,2019-09-22T21:56:53.000Z,6-1,233,05/05/1995,Pittsburgh,RB,SF,PIT,3,Levis Stadium,"Santa Clara, CSA",Outdoor,Natural grass,partly cloudy,79.0,36,3,NW
43347,2019092212,20190922122064,away,41.9,19.21,5.22,3.5,0.5,97.51,43.89,2558149,JuJu Smith-Schuster,19,2019,31,3,14:31:00,PIT,2,4,PIT,3,6,2557978,SHOTGUN,"1 RB, 1 TE, 3 WR",7,"4 DL, 2 LB, 5 DB",right,2019-09-22T21:56:55.000Z,2019-09-22T21:56:53.000Z,6-1,215,11/22/1996,Southern California,WR,SF,PIT,3,Levis Stadium,"Santa Clara, CSA",Outdoor,Natural grass,partly cloudy,79.0,36,3,NW
43348,2019092212,20190922122064,away,35.47,29.84,1.57,2.23,0.15,38.46,298.82,2560860,Mason Rudolph,2,2019,31,3,14:31:00,PIT,2,4,PIT,3,6,2557978,SHOTGUN,"1 RB, 1 TE, 3 WR",7,"4 DL, 2 LB, 5 DB",right,2019-09-22T21:56:55.000Z,2019-09-22T21:56:53.000Z,6-5,235,07/17/1995,Oklahoma State,QB,SF,PIT,3,Levis Stadium,"Santa Clara, CSA",Outdoor,Natural grass,partly cloudy,79.0,36,3,NW
43349,2019092212,20190922122064,away,41.73,33.9,3.38,1.74,0.33,132.35,135.55,2560920,James Washington,13,2019,31,3,14:31:00,PIT,2,4,PIT,3,6,2557978,SHOTGUN,"1 RB, 1 TE, 3 WR",7,"4 DL, 2 LB, 5 DB",right,2019-09-22T21:56:55.000Z,2019-09-22T21:56:53.000Z,5-11,213,04/02/1996,Oklahoma State,WR,SF,PIT,3,Levis Stadium,"Santa Clara, CSA",Outdoor,Natural grass,partly cloudy,79.0,36,3,NW
43350,2019092212,20190922122064,away,42.75,11.74,4.65,1.41,0.46,93.26,71.27,2562674,Diontae Johnson,18,2019,31,3,14:31:00,PIT,2,4,PIT,3,6,2557978,SHOTGUN,"1 RB, 1 TE, 3 WR",7,"4 DL, 2 LB, 5 DB",right,2019-09-22T21:56:55.000Z,2019-09-22T21:56:53.000Z,5-10,181,07/05/1996,Toledo,WR,SF,PIT,3,Levis Stadium,"Santa Clara, CSA",Outdoor,Natural grass,partly cloudy,79.0,36,3,NW
43351,2019092212,20190922122064,home,46.81,10.81,4.17,2.08,0.41,28.41,72.17,2495507,Richard Sherman,25,2019,31,3,14:31:00,PIT,2,4,PIT,3,6,2557978,SHOTGUN,"1 RB, 1 TE, 3 WR",7,"4 DL, 2 LB, 5 DB",right,2019-09-22T21:56:55.000Z,2019-09-22T21:56:53.000Z,6-3,195,03/30/1988,Stanford,CB,SF,PIT,3,Levis Stadium,"Santa Clara, CSA",Outdoor,Natural grass,partly cloudy,79.0,36,3,NW
43352,2019092212,20190922122064,home,47.29,19.47,3.76,2.21,0.37,296.32,30.3,2550654,K'Waun Williams,24,2019,31,3,14:31:00,PIT,2,4,PIT,3,6,2557978,SHOTGUN,"1 RB, 1 TE, 3 WR",7,"4 DL, 2 LB, 5 DB",right,2019-09-22T21:56:55.000Z,2019-09-22T21:56:53.000Z,5-9,183,07/12/1991,Pittsburgh,CB,SF,PIT,3,Levis Stadium,"Santa Clara, CSA",Outdoor,Natural grass,partly cloudy,79.0,36,3,NW
43353,2019092212,20190922122064,home,43.08,32.22,2.3,2.84,0.22,276.35,254.32,2552391,Jaquiski Tartt,29,2019,31,3,14:31:00,PIT,2,4,PIT,3,6,2557978,SHOTGUN,"1 RB, 1 TE, 3 WR",7,"4 DL, 2 LB, 5 DB",right,2019-09-22T21:56:55.000Z,2019-09-22T21:56:53.000Z,6-1,215,02/12/1992,Samford,FS,SF,PIT,3,Levis Stadium,"Santa Clara, CSA",Outdoor,Natural grass,partly cloudy,79.0,36,3,NW
43354,2019092212,20190922122064,home,38.95,26.86,3.61,2.6,0.37,318.63,335.96,2552493,Arik Armstead,91,2019,31,3,14:31:00,PIT,2,4,PIT,3,6,2557978,SHOTGUN,"1 RB, 1 TE, 3 WR",7,"4 DL, 2 LB, 5 DB",right,2019-09-22T21:56:55.000Z,2019-09-22T21:56:53.000Z,6-7,292,11/15/1993,Oregon,DE,SF,PIT,3,Levis Stadium,"Santa Clara, CSA",Outdoor,Natural grass,partly cloudy,79.0,36,3,NW
43355,2019092212,20190922122064,home,39.39,29.29,3.72,1.34,0.41,174.18,225.47,2552592,Kwon Alexander,56,2019,31,3,14:31:00,PIT,2,4,PIT,3,6,2557978,SHOTGUN,"1 RB, 1 TE, 3 WR",7,"4 DL, 2 LB, 5 DB",right,2019-09-22T21:56:55.000Z,2019-09-22T21:56:53.000Z,6-1,227,08/03/1994,Louisiana State,MLB,SF,PIT,3,Levis Stadium,"Santa Clara, CSA",Outdoor,Natural grass,partly cloudy,79.0,36,3,NW
43356,2019092212,20190922122064,home,40.46,26.79,0.72,2.29,0.08,305.68,155.46,2555275,DeForest Buckner,99,2019,31,3,14:31:00,PIT,2,4,PIT,3,6,2557978,SHOTGUN,"1 RB, 1 TE, 3 WR",7,"4 DL, 2 LB, 5 DB",right,2019-09-22T21:56:55.000Z,2019-09-22T21:56:53.000Z,6-7,300,03/17/1994,Oregon,DE,SF,PIT,3,Levis Stadium,"Santa Clara, CSA",Outdoor,Natural grass,partly cloudy,79.0,36,3,NW
43357,2019092212,20190922122064,home,47.48,38.1,1.54,1.76,0.15,272.16,294.39,2558157,Ahkello Witherspoon,23,2019,31,3,14:31:00,PIT,2,4,PIT,3,6,2557978,SHOTGUN,"1 RB, 1 TE, 3 WR",7,"4 DL, 2 LB, 5 DB",right,2019-09-22T21:56:55.000Z,2019-09-22T21:56:53.000Z,6-3,195,03/21/1995,Colorado,CB,SF,PIT,3,Levis Stadium,"Santa Clara, CSA",Outdoor,Natural grass,partly cloudy,79.0,36,3,NW
43358,2019092212,20190922122064,home,40.57,28.18,1.4,2.19,0.13,286.89,218.75,2558265,D.J. Jones,93,2019,31,3,14:31:00,PIT,2,4,PIT,3,6,2557978,SHOTGUN,"1 RB, 1 TE, 3 WR",7,"4 DL, 2 LB, 5 DB",right,2019-09-22T21:56:55.000Z,2019-09-22T21:56:53.000Z,6-0,321,01/19/1995,Mississippi,DT,SF,PIT,3,Levis Stadium,"Santa Clara, CSA",Outdoor,Natural grass,partly cloudy,79.0,36,3,NW
43359,2019092212,20190922122064,home,44.08,29.67,1.59,3.31,0.16,276.87,278.82,2560917,Fred Warner,54,2019,31,3,14:31:00,PIT,2,4,PIT,3,6,2557978,SHOTGUN,"1 RB, 1 TE, 3 WR",7,"4 DL, 2 LB, 5 DB",right,2019-09-22T21:56:55.000Z,2019-09-22T21:56:53.000Z,6-3,236,11/19/1996,Brigham Young,LB,SF,PIT,3,Levis Stadium,"Santa Clara, CSA",Outdoor,Natural grass,partly cloudy,79.0,36,3,NW
43360,2019092212,20190922122064,home,56.41,24.02,2.01,1.59,0.2,279.44,79.77,2561117,Tarvarius Moore,33,2019,31,3,14:31:00,PIT,2,4,PIT,3,6,2557978,SHOTGUN,"1 RB, 1 TE, 3 WR",7,"4 DL, 2 LB, 5 DB",right,2019-09-22T21:56:55.000Z,2019-09-22T21:56:53.000Z,6-2,200,08/16/1996,Southern Mississippi,DB,SF,PIT,3,Levis Stadium,"Santa Clara, CSA",Outdoor,Natural grass,partly cloudy,79.0,36,3,NW
43361,2019092212,20190922122064,home,40.32,32.32,1.65,2.01,0.16,268.42,199.23,2562629,Nick Bosa,97,2019,31,3,14:31:00,PIT,2,4,PIT,3,6,2557978,SHOTGUN,"1 RB, 1 TE, 3 WR",7,"4 DL, 2 LB, 5 DB",right,2019-09-22T21:56:55.000Z,2019-09-22T21:56:53.000Z,6-4,266,10/23/1997,Ohio State,DE,SF,PIT,3,Levis Stadium,"Santa Clara, CSA",Outdoor,Natural grass,partly cloudy,79.0,36,3,NW
