,GameId,PlayId,Team,X,Y,S,A,Dis,Orientation,Dir,NflId,DisplayName,JerseyNumber,Season,YardLine,Quarter,GameClock,PossessionTeam,Down,Distance,FieldPosition,HomeScoreBeforePlay,VisitorScoreBeforePlay,NflIdRusher,OffenseFormation,OffensePersonnel,DefendersInTheBox,DefensePersonnel,PlayDirection,TimeHandoff,TimeSnap,PlayerHeight,PlayerWeight,PlayerBirthDate,PlayerCollegeName,Position,HomeTeamAbbr,VisitorTeamAbbr,Week,Stadium,Location,StadiumType,Turf,GameWeather,Temperature,Humidity,WindSpeed,WindDirection
41470,2019092210,20190922100277,away,22.8,28.84,3.84,0.66,0.4,64.12,84.33,2495488,J.J. Watt,99,2019,11,1,10:31:00,LAC,2,6,HST,0,0,2559169,SINGLEBACK,"1 RB, 2 TE, 2 WR",6,"3 DL, 4 LB, 4 DB",left,2019-09-22T20:32:56.000Z,2019-09-22T20:32:55.000Z,6-5,288,03/22/1989,Wisconsin,DE,LAC,HOU,3,Dignity Health Sports Park,"Carson, CA",,Grass,Partly Cloudy,87.0,37,4,S
41471,2019092210,20190922100277,away,14.8,42.79,1.68,1.17,0.17,92.28,240.31,2495872,Johnathan Joseph,24,2019,11,1,10:31:00,LAC,2,6,HST,0,0,2559169,SINGLEBACK,"1 RB, 2 TE, 2 WR",6,"3 DL, 4 LB, 4 DB",left,2019-09-22T20:32:56.000Z,2019-09-22T20:32:55.000Z,5-11,185,04/16/1984,South Carolina,CB,LAC,HOU,3,Dignity Health Sports Park,"Carson, CA",,Grass,Partly Cloudy,87.0,37,4,S
41472,2019092210,20190922100277,away,11.32,34.25,0.95,2.28,0.08,143.3,316.17,2532848,Tashaun Gipson,39,2019,11,1,10:31:00,LAC,2,6,HST,0,0,2559169,SINGLEBACK,"1 RB, 2 TE, 2 WR",6,"3 DL, 4 LB, 4 DB",left,2019-09-22T20:32:56.000Z,2019-09-22T20:32:55.000Z,6-1,212,08/07/1990,Wyoming,FS,LAC,HOU,3,Dignity Health Sports Park,"Carson, CA",,Grass,Partly Cloudy,87.0,37,4,S
41473,2019092210,20190922100277,away,20.37,19.18,2.1,1.38,0.21,56.5,336.51,2533049,Whitney Mercilus,59,2019,11,1,10:31:00,LAC,2,6,HST,0,0,2559169,SINGLEBACK,"1 RB, 2 TE, 2 WR",6,"3 DL, 4 LB, 4 DB",left,2019-09-22T20:32:56.000Z,2019-09-22T20:32:55.000Z,6-4,258,07/21/1990,Illinois,OLB,LAC,HOU,3,Dignity Health Sports Park,"Carson, CA",,Grass,Partly Cloudy,87.0,37,4,S
41474,2019092210,20190922100277,away,13.8,14.79,0.95,1.84,0.09,39.17,224.93,2543505,Bradley Roby,21,2019,11,1,10:31:00,LAC,2,6,HST,0,0,2559169,SINGLEBACK,"1 RB, 2 TE, 2 WR",6,"3 DL, 4 LB, 4 DB",left,2019-09-22T20:32:56.000Z,2019-09-22T20:32:55.000Z,5-11,194,05/01/1992,Ohio State,CB,LAC,HOU,3,Dignity Health Sports Park,"Carson, CA",,Grass,Partly Cloudy,87.0,37,4,S
41475,2019092210,20190922100277,away,17.63,23.04,2.43,1.37,0.23,81.07,123.17,2552490,Benardrick McKinney,55,2019,11,1,10:31:00,LAC,2,6,HST,0,0,2559169,SINGLEBACK,"1 RB, 2 TE, 2 WR",6,"3 DL, 4 LB, 4 DB",left,2019-09-22T20:32:56.000Z,2019-09-22T20:32:55.000Z,6-4,257,11/19/1992,Mississippi State,ILB,LAC,HOU,3,Dignity Health Sports Park,"Carson, CA",,Grass,Partly Cloudy,87.0,37,4,S
41476,2019092210,20190922100277,away,20.55,21.36,0.53,0.57,0.06,57.46,6.56,2552670,Angelo Blackson,97,2019,11,1,10:31:00,LAC,2,6,HST,0,0,2559169,SINGLEBACK,"1 RB, 2 TE, 2 WR",6,"3 DL, 4 LB, 4 DB",left,2019-09-22T20:32:56.000Z,2019-09-22T20:32:55.000Z,6-4,318,11/14/1992,Auburn,DE,LAC,HOU,3,Dignity Health Sports Park,"Carson, CA",,Grass,Partly Cloudy,87.0,37,4,S
41477,2019092210,20190922100277,away,20.57,23.75,1.25,0.57,0.12,93.12,120.34,2555388,D.J. Reader,98,2019,11,1,10:31:00,LAC,2,6,HST,0,0,2559169,SINGLEBACK,"1 RB, 2 TE, 2 WR",6,"3 DL, 4 LB, 4 DB",left,2019-09-22T20:32:56.000Z,2019-09-22T20:32:55.000Z,6-3,347,07/01/1994,Clemson,DT,LAC,HOU,3,Dignity Health Sports Park,"Carson, CA",,Grass,Partly Cloudy,87.0,37,4,S
41478,2019092210,20190922100277,away,19.41,29.72,2.5,2.45,0.24,114.12,178.88,2556673,Brennan Scarlett,57,2019,11,1,10:31:00,LAC,2,6,HST,0,0,2559169,SINGLEBACK,"1 RB, 2 TE, 2 WR",6,"3 DL, 4 LB, 4 DB",left,2019-09-22T20:32:56.000Z,2019-09-22T20:32:55.000Z,6-4,263,07/31/1993,Stanford,OLB,LAC,HOU,3,Dignity Health Sports Park,"Carson, CA",,Grass,Partly Cloudy,87.0,37,4,S
41479,2019092210,20190922100277,away,17.55,19.22,1.71,1.5,0.17,69.91,130.72,2558094,Zach Cunningham,41,2019,11,1,10:31:00,LAC,2,6,HST,0,0,2559169,SINGLEBACK,"1 RB, 2 TE, 2 WR",6,"3 DL, 4 LB, 4 DB",left,2019-09-22T20:32:56.000Z,2019-09-22T20:32:55.000Z,6-3,238,12/12/1994,Vanderbilt,ILB,LAC,HOU,3,Dignity Health Sports Park,"Carson, CA",,Grass,Partly Cloudy,87.0,37,4,S
41480,2019092210,20190922100277,away,12.54,20.9,2.42,2.16,0.23,81.03,64.19,2560851,Justin Reid,20,2019,11,1,10:31:00,LAC,2,6,HST,0,0,2559169,SINGLEBACK,"1 RB, 2 TE, 2 WR",6,"3 DL, 4 LB, 4 DB",left,2019-09-22T20:32:56.000Z,2019-09-22T20:32:55.000Z,6-1,204,02/15/1997,Stanford,SS,LAC,HOU,3,Dignity Health Sports Park,"Carson, CA",,Grass,Partly Cloudy,87.0,37,4,S
41481,2019092210,20190922100277,home,21.35,23.56,0.39,1.72,0.04,253.35,120.72,2495216,Mike Pouncey,53,2019,11,1,10:31:00,LAC,2,6,HST,0,0,2559169,SINGLEBACK,"1 RB, 2 TE, 2 WR",6,"3 DL, 4 LB, 4 DB",left,2019-09-22T20:32:56.000Z,2019-09-22T20:32:55.000Z,6-5,298,07/24/1989,Florida,C,LAC,HOU,3,Dignity Health Sports Park,"Carson, CA",,Grass,Partly Cloudy,87.0,37,4,S
41482,2019092210,20190922100277,home,21.4,19.31,1.96,0.91,0.2,261.52,303.1,2495288,Virgil Green,88,2019,11,1,10:31:00,LAC,2,6,HST,0,0,2559169,SINGLEBACK,"1 RB, 2 TE, 2 WR",6,"3 DL, 4 LB, 4 DB",left,2019-09-22T20:32:56.000Z,2019-09-22T20:32:55.000Z,6-5,255,08/03/1988,Nevada,TE,LAC,HOU,3,Dignity Health Sports Park,"Carson, CA",,Grass,Partly Cloudy,87.0,37,4,S
41483,2019092210,20190922100277,home,24.65,22.91,3.52,2.25,0.34,169.07,104.59,2506121,Philip Rivers,17,2019,11,1,10:31:00,LAC,2,6,HST,0,0,2559169,SINGLEBACK,"1 RB, 2 TE, 2 WR",6,"3 DL, 4 LB, 4 DB",left,2019-09-22T20:32:56.000Z,2019-09-22T20:32:55.000Z,6-5,228,12/08/1981,North Carolina State,QB,LAC,HOU,3,Dignity Health Sports Park,"Carson, CA",,Grass,Partly Cloudy,87.0,37,4,S
41484,2019092210,20190922100277,home,21.69,42.72,3.14,2.6,0.3,260.03,254.52,2540154,Keenan Allen,13,2019,11,1,10:31:00,LAC,2,6,HST,0,0,2559169,SINGLEBACK,"1 RB, 2 TE, 2 WR",6,"3 DL, 4 LB, 4 DB",left,2019-09-22T20:32:56.000Z,2019-09-22T20:32:55.000Z,6-2,211,04/27/1992,California,WR,LAC,HOU,3,Dignity Health Sports Park,"Carson, CA",,Grass,Partly Cloudy,87.0,37,4,S
41485,2019092210,20190922100277,home,20.72,24.31,2.27,1.59,0.24,212.89,247.96,2543732,Michael Schofield,75,2019,11,1,10:31:00,LAC,2,6,HST,0,0,2559169,SINGLEBACK,"1 RB, 2 TE, 2 WR",6,"3 DL, 4 LB, 4 DB",left,2019-09-22T20:32:56.000Z,2019-09-22T20:32:55.000Z,6-6,301,11/15/1990,Michigan,G,LAC,HOU,3,Dignity Health Sports Park,"Carson, CA",,Grass,Partly Cloudy,87.0,37,4,S
41486,2019092210,20190922100277,home,21.49,21.47,0.51,1.74,0.05,226.86,240.0,2557873,Dan Feeney,66,2019,11,1,10:31:00,LAC,2,6,HST,0,0,2559169,SINGLEBACK,"1 RB, 2 TE, 2 WR",6,"3 DL, 4 LB, 4 DB",left,2019-09-22T20:32:56.000Z,2019-09-22T20:32:55.000Z,6-4,310,05/29/1994,Indiana,G,LAC,HOU,3,Dignity Health Sports Park,"Carson, CA",,Grass,Partly Cloudy,87.0,37,4,S
41487,2019092210,20190922100277,home,23.03,27.56,1.98,1.69,0.2,40.12,36.82,2558026,Sam Tevi,69,2019,11,1,10:31:00,LAC,2,6,HST,0,0,2559169,SINGLEBACK,"1 RB, 2 TE, 2 WR",6,"3 DL, 4 LB, 4 DB",left,2019-09-22T20:32:56.000Z,2019-09-22T20:32:55.000Z,6-5,315,11/15/1994,Utah,T,LAC,HOU,3,Dignity Health Sports Park,"Carson, CA",,Grass,Partly Cloudy,87.0,37,4,S
41488,2019092210,20190922100277,home,20.09,33.54,4.02,2.62,0.39,262.64,262.57,2558846,Mike Williams,81,2019,11,1,10:31:00,LAC,2,6,HST,0,0,2559169,SINGLEBACK,"1 RB, 2 TE, 2 WR",6,"3 DL, 4 LB, 4 DB",left,2019-09-22T20:32:56.000Z,2019-09-22T20:32:55.000Z,6-4,218,10/04/1994,Clemson,WR,LAC,HOU,3,Dignity Health Sports Park,"Carson, CA",,Grass,Partly Cloudy,87.0,37,4,S
41489,2019092210,20190922100277,home,21.67,18.45,2.83,1.55,0.27,292.14,298.74,2559161,Sean Culkin,80,2019,11,1,10:31:00,LAC,2,6,HST,0,0,2559169,SINGLEBACK,"1 RB, 2 TE, 2 WR",6,"3 DL, 4 LB, 4 DB",left,2019-09-22T20:32:56.000Z,2019-09-22T20:32:55.000Z,6-5,255,06/11/1993,Missouri,TE,LAC,HOU,3,Dignity Health Sports Park,"Carson, CA",,Grass,Partly Cloudy,87.0,37,4,S
41490,2019092210,20190922100277,home,26.5,22.5,3.76,3.36,0.36,265.17,247.17,2559169,Austin Ekeler,30,2019,11,1,10:31:00,LAC,2,6,HST,0,0,2559169,SINGLEBACK,"1 RB, 2 TE, 2 WR",6,"3 DL, 4 LB, 4 DB",left,2019-09-22T20:32:56.000Z,2019-09-22T20:32:55.000Z,5-10,200,05/17/1995,"Western State, Colo.",RB,LAC,HOU,3,Dignity Health Sports Park,"Carson, CA",,Grass,Partly Cloudy,87.0,37,4,S
41491,2019092210,20190922100277,home,21.4,20.62,0.8,1.99,0.07,296.79,277.19,2561544,Trent Scott,78,2019,11,1,10:31:00,LAC,2,6,HST,0,0,2559169,SINGLEBACK,"1 RB, 2 TE, 2 WR",6,"3 DL, 4 LB, 4 DB",left,2019-09-22T20:32:56.000Z,2019-09-22T20:32:55.000Z,6-5,320,01/25/1994,Grambling,T,LAC,HOU,3,Dignity Health Sports Park,"Carson, CA",,Grass,Partly Cloudy,87.0,37,4,S
