,GameId,PlayId,Team,X,Y,S,A,Dis,Orientation,Dir,NflId,DisplayName,JerseyNumber,Season,YardLine,Quarter,GameClock,PossessionTeam,Down,Distance,FieldPosition,HomeScoreBeforePlay,VisitorScoreBeforePlay,NflIdRusher,OffenseFormation,OffensePersonnel,DefendersInTheBox,DefensePersonnel,PlayDirection,TimeHandoff,TimeSnap,PlayerHeight,PlayerWeight,PlayerBirthDate,PlayerCollegeName,Position,HomeTeamAbbr,VisitorTeamAbbr,Week,Stadium,Location,StadiumType,Turf,GameWeather,Temperature,Humidity,WindSpeed,WindDirection
11286,2019090811,20190908111325,away,29.15,32.97,2.47,1.12,0.25,69.41,14.63,2495746,Joe Staley,74,2019,20,2,09:48:00,SF,1,10,SF,0,3,2558918,I_FORM,"2 RB, 1 TE, 2 WR",8,"4 DL, 3 LB, 4 DB",right,2019-09-08T21:17:45.000Z,2019-09-08T21:17:43.000Z,6-5,295,08/30/1984,Central Michigan,T,TB,SF,1,Raymond James Stadium,"Tampa, FL",Outdoor,Natural Grass,Cloudy,93.0,52,9,SW
11287,2019090811,20190908111325,away,30.33,26.57,2.82,0.27,0.29,93.08,39.91,2508140,Mike Person,68,2019,20,2,09:48:00,SF,1,10,SF,0,3,2558918,I_FORM,"2 RB, 1 TE, 2 WR",8,"4 DL, 3 LB, 4 DB",right,2019-09-08T21:17:45.000Z,2019-09-08T21:17:43.000Z,6-4,299,06/17/1988,Montana State,C,TB,SF,1,Raymond James Stadium,"Tampa, FL",Outdoor,Natural Grass,Cloudy,93.0,52,9,SW
11288,2019090811,20190908111325,away,31.18,17.57,4.71,2.65,0.46,106.54,89.38,2539964,Marquise Goodwin,11,2019,20,2,09:48:00,SF,1,10,SF,0,3,2558918,I_FORM,"2 RB, 1 TE, 2 WR",8,"4 DL, 3 LB, 4 DB",right,2019-09-08T21:17:45.000Z,2019-09-08T21:17:43.000Z,5-9,179,11/19/1990,Texas,WR,TB,SF,1,Raymond James Stadium,"Tampa, FL",Outdoor,Natural Grass,Cloudy,93.0,52,9,SW
11289,2019090811,20190908111325,away,27.18,28.76,2.96,4.81,0.29,95.41,108.15,2540230,Kyle Juszczyk,44,2019,20,2,09:48:00,SF,1,10,SF,0,3,2558918,I_FORM,"2 RB, 1 TE, 2 WR",8,"4 DL, 3 LB, 4 DB",right,2019-09-08T21:17:45.000Z,2019-09-08T21:17:43.000Z,6-1,240,04/23/1991,Harvard,RB,TB,SF,1,Raymond James Stadium,"Tampa, FL",Outdoor,Natural Grass,Cloudy,93.0,52,9,SW
11290,2019090811,20190908111325,away,29.85,29.21,2.07,0.62,0.21,64.3,10.63,2543705,Weston Richburg,58,2019,20,2,09:48:00,SF,1,10,SF,0,3,2558918,I_FORM,"2 RB, 1 TE, 2 WR",8,"4 DL, 3 LB, 4 DB",right,2019-09-08T21:17:45.000Z,2019-09-08T21:17:43.000Z,6-4,290,07/09/1991,Colorado State,C,TB,SF,1,Raymond James Stadium,"Tampa, FL",Outdoor,Natural Grass,Cloudy,93.0,52,9,SW
11291,2019090811,20190908111325,away,25.11,28.07,4.3,0.46,0.43,333.71,293.14,2543801,Jimmy Garoppolo,10,2019,20,2,09:48:00,SF,1,10,SF,0,3,2558918,I_FORM,"2 RB, 1 TE, 2 WR",8,"4 DL, 3 LB, 4 DB",right,2019-09-08T21:17:45.000Z,2019-09-08T21:17:43.000Z,6-2,225,11/02/1991,Eastern Illinois,QB,TB,SF,1,Raymond James Stadium,"Tampa, FL",Outdoor,Natural Grass,Cloudy,93.0,52,9,SW
11292,2019090811,20190908111325,away,29.86,29.4,1.67,0.73,0.22,349.52,30.59,2552345,Laken Tomlinson,75,2019,20,2,09:48:00,SF,1,10,SF,0,3,2558918,I_FORM,"2 RB, 1 TE, 2 WR",8,"4 DL, 3 LB, 4 DB",right,2019-09-08T21:17:45.000Z,2019-09-08T21:17:43.000Z,6-3,312,02/09/1992,Duke,G,TB,SF,1,Raymond James Stadium,"Tampa, FL",Outdoor,Natural Grass,Cloudy,93.0,52,9,SW
11293,2019090811,20190908111325,away,29.05,24.86,3.57,1.67,0.35,294.62,358.84,2558266,George Kittle,85,2019,20,2,09:48:00,SF,1,10,SF,0,3,2558918,I_FORM,"2 RB, 1 TE, 2 WR",8,"4 DL, 3 LB, 4 DB",right,2019-09-08T21:17:45.000Z,2019-09-08T21:17:43.000Z,6-4,250,10/09/1993,Iowa,TE,TB,SF,1,Raymond James Stadium,"Tampa, FL",Outdoor,Natural Grass,Cloudy,93.0,52,9,SW
11294,2019090811,20190908111325,away,24.76,29.13,5.22,3.94,0.51,85.98,68.93,2558918,Matt Breida,22,2019,20,2,09:48:00,SF,1,10,SF,0,3,2558918,I_FORM,"2 RB, 1 TE, 2 WR",8,"4 DL, 3 LB, 4 DB",right,2019-09-08T21:17:45.000Z,2019-09-08T21:17:43.000Z,5-11,190,02/28/1995,Georgia Southern,RB,TB,SF,1,Raymond James Stadium,"Tampa, FL",Outdoor,Natural Grass,Cloudy,93.0,52,9,SW
11295,2019090811,20190908111325,away,29.85,25.0,1.11,1.11,0.11,143.63,64.78,2560805,Mike McGlinchey,69,2019,20,2,09:48:00,SF,1,10,SF,0,3,2558918,I_FORM,"2 RB, 1 TE, 2 WR",8,"4 DL, 3 LB, 4 DB",right,2019-09-08T21:17:45.000Z,2019-09-08T21:17:43.000Z,6-8,315,01/12/1995,Notre Dame,OT,TB,SF,1,Raymond James Stadium,"Tampa, FL",Outdoor,Natural Grass,Cloudy,93.0,52,9,SW
11296,2019090811,20190908111325,away,30.97,34.3,3.49,0.7,0.35,139.81,125.31,2562721,Deebo Samuel,19,2019,20,2,09:48:00,SF,1,10,SF,0,3,2558918,I_FORM,"2 RB, 1 TE, 2 WR",8,"4 DL, 3 LB, 4 DB",right,2019-09-08T21:17:45.000Z,2019-09-08T21:17:43.000Z,6-0,214,01/15/1996,South Carolina,WR,TB,SF,1,Raymond James Stadium,"Tampa, FL",Outdoor,Natural Grass,Cloudy,93.0,52,9,SW
11297,2019090811,20190908111325,home,32.96,32.62,1.91,1.49,0.19,228.63,336.95,494307,Darian Stewart,24,2019,20,2,09:48:00,SF,1,10,SF,0,3,2558918,I_FORM,"2 RB, 1 TE, 2 WR",8,"4 DL, 3 LB, 4 DB",right,2019-09-08T21:17:45.000Z,2019-09-08T21:17:43.000Z,5-11,214,08/04/1988,South Carolina,FS,TB,SF,1,Raymond James Stadium,"Tampa, FL",Outdoor,Natural Grass,Cloudy,93.0,52,9,SW
11298,2019090811,20190908111325,home,30.38,24.79,1.52,1.47,0.18,241.74,56.68,496861,Ndamukong Suh,93,2019,20,2,09:48:00,SF,1,10,SF,0,3,2558918,I_FORM,"2 RB, 1 TE, 2 WR",8,"4 DL, 3 LB, 4 DB",right,2019-09-08T21:17:45.000Z,2019-09-08T21:17:43.000Z,6-4,313,01/06/1987,Nebraska,DT,TB,SF,1,Raymond James Stadium,"Tampa, FL",Outdoor,Natural Grass,Cloudy,93.0,52,9,SW
11299,2019090811,20190908111325,home,33.06,29.53,3.47,1.72,0.35,225.54,330.43,2532828,Lavonte David,54,2019,20,2,09:48:00,SF,1,10,SF,0,3,2558918,I_FORM,"2 RB, 1 TE, 2 WR",8,"4 DL, 3 LB, 4 DB",right,2019-09-08T21:17:45.000Z,2019-09-08T21:17:43.000Z,6-1,233,01/23/1990,Nebraska,OLB,TB,SF,1,Raymond James Stadium,"Tampa, FL",Outdoor,Natural Grass,Cloudy,93.0,52,9,SW
11300,2019090811,20190908111325,home,28.85,25.41,3.38,1.14,0.35,291.78,342.68,2540176,William Gholston,92,2019,20,2,09:48:00,SF,1,10,SF,0,3,2558918,I_FORM,"2 RB, 1 TE, 2 WR",8,"4 DL, 3 LB, 4 DB",right,2019-09-08T21:17:45.000Z,2019-09-08T21:17:43.000Z,6-6,281,07/31/1991,Michigan State,DE,TB,SF,1,Raymond James Stadium,"Tampa, FL",Outdoor,Natural Grass,Cloudy,93.0,52,9,SW
11301,2019090811,20190908111325,home,29.39,33.51,1.53,2.22,0.15,174.65,347.84,2550541,Shaquil Barrett,58,2019,20,2,09:48:00,SF,1,10,SF,0,3,2558918,I_FORM,"2 RB, 1 TE, 2 WR",8,"4 DL, 3 LB, 4 DB",right,2019-09-08T21:17:45.000Z,2019-09-08T21:17:43.000Z,6-2,250,11/17/1992,Colorado State,OLB,TB,SF,1,Raymond James Stadium,"Tampa, FL",Outdoor,Natural Grass,Cloudy,93.0,52,9,SW
11302,2019090811,20190908111325,home,30.18,21.66,1.94,0.85,0.19,0.97,355.69,2555270,Carl Nassib,94,2019,20,2,09:48:00,SF,1,10,SF,0,3,2558918,I_FORM,"2 RB, 1 TE, 2 WR",8,"4 DL, 3 LB, 4 DB",right,2019-09-08T21:17:45.000Z,2019-09-08T21:17:43.000Z,6-7,275,04/12/1993,Penn State,DE,TB,SF,1,Raymond James Stadium,"Tampa, FL",Outdoor,Natural Grass,Cloudy,93.0,52,9,SW
11303,2019090811,20190908111325,home,35.56,37.39,1.26,3.33,0.14,188.19,111.36,2555299,Vernon Hargreaves III,28,2019,20,2,09:48:00,SF,1,10,SF,0,3,2558918,I_FORM,"2 RB, 1 TE, 2 WR",8,"4 DL, 3 LB, 4 DB",right,2019-09-08T21:17:45.000Z,2019-09-08T21:17:43.000Z,5-10,204,06/03/1995,Florida,CB,TB,SF,1,Raymond James Stadium,"Tampa, FL",Outdoor,Natural Grass,Cloudy,93.0,52,9,SW
11304,2019090811,20190908111325,home,30.33,29.74,1.69,1.22,0.17,261.83,7.09,2560909,Vita Vea,50,2019,20,2,09:48:00,SF,1,10,SF,0,3,2558918,I_FORM,"2 RB, 1 TE, 2 WR",8,"4 DL, 3 LB, 4 DB",right,2019-09-08T21:17:45.000Z,2019-09-08T21:17:43.000Z,6-4,347,02/05/1995,Washington,DT,TB,SF,1,Raymond James Stadium,"Tampa, FL",Outdoor,Natural Grass,Cloudy,93.0,52,9,SW
11305,2019090811,20190908111325,home,44.43,25.29,1.73,0.72,0.17,260.75,74.37,2560930,Jordan Whitehead,31,2019,20,2,09:48:00,SF,1,10,SF,0,3,2558918,I_FORM,"2 RB, 1 TE, 2 WR",8,"4 DL, 3 LB, 4 DB",right,2019-09-08T21:17:45.000Z,2019-09-08T21:17:43.000Z,5-10,198,03/18/1997,Pittsburgh,DB,TB,SF,1,Raymond James Stadium,"Tampa, FL",Outdoor,Natural Grass,Cloudy,93.0,52,9,SW
11306,2019090811,20190908111325,home,39.99,15.58,2.39,0.94,0.24,274.77,67.02,2561039,Carlton Davis,33,2019,20,2,09:48:00,SF,1,10,SF,0,3,2558918,I_FORM,"2 RB, 1 TE, 2 WR",8,"4 DL, 3 LB, 4 DB",right,2019-09-08T21:17:45.000Z,2019-09-08T21:17:43.000Z,6-1,206,12/31/1996,Auburn,CB,TB,SF,1,Raymond James Stadium,"Tampa, FL",Outdoor,Natural Grass,Cloudy,93.0,52,9,SW
11307,2019090811,20190908111325,home,32.24,27.18,3.02,0.74,0.32,242.87,323.99,2562781,Devin White,45,2019,20,2,09:48:00,SF,1,10,SF,0,3,2558918,I_FORM,"2 RB, 1 TE, 2 WR",8,"4 DL, 3 LB, 4 DB",right,2019-09-08T21:17:45.000Z,2019-09-08T21:17:43.000Z,6-0,237,02/17/1998,Louisiana State,LB,TB,SF,1,Raymond James Stadium,"Tampa, FL",Outdoor,Natural Grass,Cloudy,93.0,52,9,SW
