,GameId,PlayId,Team,X,Y,S,A,Dis,Orientation,Dir,NflId,DisplayName,JerseyNumber,Season,YardLine,Quarter,GameClock,PossessionTeam,Down,Distance,FieldPosition,HomeScoreBeforePlay,VisitorScoreBeforePlay,NflIdRusher,OffenseFormation,OffensePersonnel,DefendersInTheBox,DefensePersonnel,PlayDirection,TimeHandoff,TimeSnap,PlayerHeight,PlayerWeight,PlayerBirthDate,PlayerCollegeName,Position,HomeTeamAbbr,VisitorTeamAbbr,Week,Stadium,Location,StadiumType,Turf,GameWeather,Temperature,Humidity,WindSpeed,WindDirection
68838,2019100607,20191006070346,away,98.26,29.46,0.74,1.04,0.09,74.3,60.08,2507188,Marshal Yanda,73,2019,12,1,08:45:00,BLT,1,10,PIT,0,0,2561324,PISTOL,"1 RB, 2 TE, 2 WR",6,"2 DL, 4 LB, 5 DB",right,2019-10-06T17:11:15.000Z,2019-10-06T17:11:13.000Z,6-3,305,09/15/1984,Iowa,G,PIT,BAL,5,Heinz Field,Pittsburgh,Outdoors,Grass,Rain,70.0,74,7,From SW
68839,2019100607,20191006070346,away,97.03,26.52,3.69,2.18,0.36,73.71,84.46,2552402,Nick Boyle,86,2019,12,1,08:45:00,BLT,1,10,PIT,0,0,2561324,PISTOL,"1 RB, 2 TE, 2 WR",6,"2 DL, 4 LB, 5 DB",right,2019-10-06T17:11:15.000Z,2019-10-06T17:11:13.000Z,6-4,270,02/17/1993,Delaware,TE,PIT,BAL,5,Heinz Field,Pittsburgh,Outdoors,Grass,Rain,70.0,74,7,From SW
68840,2019100607,20191006070346,away,98.6,26.88,2.39,0.55,0.24,71.84,45.77,2555204,Ronnie Stanley,79,2019,12,1,08:45:00,BLT,1,10,PIT,0,0,2561324,PISTOL,"1 RB, 2 TE, 2 WR",6,"2 DL, 4 LB, 5 DB",right,2019-10-06T17:11:15.000Z,2019-10-06T17:11:13.000Z,6-6,315,03/18/1994,Notre Dame,T,PIT,BAL,5,Heinz Field,Pittsburgh,Outdoors,Grass,Rain,70.0,74,7,From SW
68841,2019100607,20191006070346,away,99.01,30.46,1.13,0.27,0.11,90.14,69.9,2556683,Matt Skura,68,2019,12,1,08:45:00,BLT,1,10,PIT,0,0,2561324,PISTOL,"1 RB, 2 TE, 2 WR",6,"2 DL, 4 LB, 5 DB",right,2019-10-06T17:11:15.000Z,2019-10-06T17:11:13.000Z,6-3,313,02/17/1993,Duke,C,PIT,BAL,5,Heinz Field,Pittsburgh,Outdoors,Grass,Rain,70.0,74,7,From SW
68842,2019100607,20191006070346,away,99.31,31.22,1.96,0.88,0.2,91.99,87.23,2559827,Bradley Bozeman,77,2019,12,1,08:45:00,BLT,1,10,PIT,0,0,2561324,PISTOL,"1 RB, 2 TE, 2 WR",6,"2 DL, 4 LB, 5 DB",right,2019-10-06T17:11:15.000Z,2019-10-06T17:11:13.000Z,6-3,317,11/24/1994,Alabama,C,PIT,BAL,5,Heinz Field,Pittsburgh,Outdoors,Grass,Rain,70.0,74,7,From SW
68843,2019100607,20191006070346,away,93.64,29.58,1.37,2.84,0.14,143.44,181.91,2560757,Lamar Jackson,8,2019,12,1,08:45:00,BLT,1,10,PIT,0,0,2561324,PISTOL,"1 RB, 2 TE, 2 WR",6,"2 DL, 4 LB, 5 DB",right,2019-10-06T17:11:15.000Z,2019-10-06T17:11:13.000Z,6-2,212,01/07/1997,Louisville,QB,PIT,BAL,5,Heinz Field,Pittsburgh,Outdoors,Grass,Rain,70.0,74,7,From SW
68844,2019100607,20191006070346,away,98.79,32.76,1.06,1.88,0.11,37.26,115.48,2560957,Mark Andrews,89,2019,12,1,08:45:00,BLT,1,10,PIT,0,0,2561324,PISTOL,"1 RB, 2 TE, 2 WR",6,"2 DL, 4 LB, 5 DB",right,2019-10-06T17:11:15.000Z,2019-10-06T17:11:13.000Z,6-4,255,09/06/1995,Oklahoma,TE,PIT,BAL,5,Heinz Field,Pittsburgh,Outdoors,Grass,Rain,70.0,74,7,From SW
68845,2019100607,20191006070346,away,98.77,28.18,3.3,1.43,0.34,26.72,65.65,2560981,Orlando Brown,78,2019,12,1,08:45:00,BLT,1,10,PIT,0,0,2561324,PISTOL,"1 RB, 2 TE, 2 WR",6,"2 DL, 4 LB, 5 DB",right,2019-10-06T17:11:15.000Z,2019-10-06T17:11:13.000Z,6-8,345,05/02/1996,Oklahoma,T,PIT,BAL,5,Heinz Field,Pittsburgh,Outdoors,Grass,Rain,70.0,74,7,From SW
68846,2019100607,20191006070346,away,93.73,28.96,4.91,3.36,0.47,99.7,105.54,2561324,Gus Edwards,35,2019,12,1,08:45:00,BLT,1,10,PIT,0,0,2561324,PISTOL,"1 RB, 2 TE, 2 WR",6,"2 DL, 4 LB, 5 DB",right,2019-10-06T17:11:15.000Z,2019-10-06T17:11:13.000Z,6-1,238,04/13/1995,Rutgers,RB,PIT,BAL,5,Heinz Field,Pittsburgh,Outdoors,Grass,Rain,70.0,74,7,From SW
68847,2019100607,20191006070346,away,100.43,13.91,5.79,1.3,0.57,87.23,90.2,2562379,Marquise Brown,15,2019,12,1,08:45:00,BLT,1,10,PIT,0,0,2561324,PISTOL,"1 RB, 2 TE, 2 WR",6,"2 DL, 4 LB, 5 DB",right,2019-10-06T17:11:15.000Z,2019-10-06T17:11:13.000Z,5-9,170,06/04/1997,Oklahoma,WR,PIT,BAL,5,Heinz Field,Pittsburgh,Outdoors,Grass,Rain,70.0,74,7,From SW
68848,2019100607,20191006070346,away,100.66,5.83,5.11,1.9,0.5,94.32,118.01,2562631,Miles Boykin,80,2019,12,1,08:45:00,BLT,1,10,PIT,0,0,2561324,PISTOL,"1 RB, 2 TE, 2 WR",6,"2 DL, 4 LB, 5 DB",right,2019-10-06T17:11:15.000Z,2019-10-06T17:11:13.000Z,6-4,220,10/12/1996,Notre Dame,WR,PIT,BAL,5,Heinz Field,Pittsburgh,Outdoors,Grass,Rain,70.0,74,7,From SW
68849,2019100607,20191006070346,home,101.27,6.61,3.81,2.65,0.37,209.59,121.11,496733,Joe Haden,23,2019,12,1,08:45:00,BLT,1,10,PIT,0,0,2561324,PISTOL,"1 RB, 2 TE, 2 WR",6,"2 DL, 4 LB, 5 DB",right,2019-10-06T17:11:15.000Z,2019-10-06T17:11:13.000Z,5-11,195,04/14/1989,Florida,CB,PIT,BAL,5,Heinz Field,Pittsburgh,Outdoors,Grass,Rain,70.0,74,7,From SW
68850,2019100607,20191006070346,home,99.79,30.59,1.3,1.42,0.13,240.29,91.81,496760,Tyson Alualu,94,2019,12,1,08:45:00,BLT,1,10,PIT,0,0,2561324,PISTOL,"1 RB, 2 TE, 2 WR",6,"2 DL, 4 LB, 5 DB",right,2019-10-06T17:11:15.000Z,2019-10-06T17:11:13.000Z,6-3,304,05/12/1987,California,DE,PIT,BAL,5,Heinz Field,Pittsburgh,Outdoors,Grass,Rain,70.0,74,7,From SW
68851,2019100607,20191006070346,home,101.66,30.22,1.46,3.1,0.13,246.38,220.13,2532789,Mark Barron,26,2019,12,1,08:45:00,BLT,1,10,PIT,0,0,2561324,PISTOL,"1 RB, 2 TE, 2 WR",6,"2 DL, 4 LB, 5 DB",right,2019-10-06T17:11:15.000Z,2019-10-06T17:11:13.000Z,6-2,230,10/27/1989,Alabama,ILB,PIT,BAL,5,Heinz Field,Pittsburgh,Outdoors,Grass,Rain,70.0,74,7,From SW
68852,2019100607,20191006070346,home,103.18,36.27,0.76,0.6,0.07,225.54,290.44,2552265,Steven Nelson,22,2019,12,1,08:45:00,BLT,1,10,PIT,0,0,2561324,PISTOL,"1 RB, 2 TE, 2 WR",6,"2 DL, 4 LB, 5 DB",right,2019-10-06T17:11:15.000Z,2019-10-06T17:11:13.000Z,5-11,194,01/22/1993,Oregon State,CB,PIT,BAL,5,Heinz Field,Pittsburgh,Outdoors,Grass,Rain,70.0,74,7,From SW
68853,2019100607,20191006070346,home,99.11,33.44,0.52,1.2,0.05,208.74,181.28,2552289,Bud Dupree,48,2019,12,1,08:45:00,BLT,1,10,PIT,0,0,2561324,PISTOL,"1 RB, 2 TE, 2 WR",6,"2 DL, 4 LB, 5 DB",right,2019-10-06T17:11:15.000Z,2019-10-06T17:11:13.000Z,6-4,269,02/12/1993,Kentucky,OLB,PIT,BAL,5,Heinz Field,Pittsburgh,Outdoors,Grass,Rain,70.0,74,7,From SW
68854,2019100607,20191006070346,home,98.72,29.76,0.53,3.12,0.06,259.4,48.57,2555239,Javon Hargrave,79,2019,12,1,08:45:00,BLT,1,10,PIT,0,0,2561324,PISTOL,"1 RB, 2 TE, 2 WR",6,"2 DL, 4 LB, 5 DB",right,2019-10-06T17:11:15.000Z,2019-10-06T17:11:13.000Z,6-2,305,02/07/1993,South Carolina State,NT,PIT,BAL,5,Heinz Field,Pittsburgh,Outdoors,Grass,Rain,70.0,74,7,From SW
68855,2019100607,20191006070346,home,98.58,25.62,4.54,3.54,0.47,336.11,353.94,2556559,Mike Hilton,28,2019,12,1,08:45:00,BLT,1,10,PIT,0,0,2561324,PISTOL,"1 RB, 2 TE, 2 WR",6,"2 DL, 4 LB, 5 DB",right,2019-10-06T17:11:15.000Z,2019-10-06T17:11:13.000Z,5-9,184,03/09/1994,Mississippi,CB,PIT,BAL,5,Heinz Field,Pittsburgh,Outdoors,Grass,Rain,70.0,74,7,From SW
68856,2019100607,20191006070346,home,97.28,25.09,2.8,2.71,0.27,316.83,336.43,2558064,T.J. Watt,90,2019,12,1,08:45:00,BLT,1,10,PIT,0,0,2561324,PISTOL,"1 RB, 2 TE, 2 WR",6,"2 DL, 4 LB, 5 DB",right,2019-10-06T17:11:15.000Z,2019-10-06T17:11:13.000Z,6-4,252,10/11/1994,Wisconsin,OLB,PIT,BAL,5,Heinz Field,Pittsburgh,Outdoors,Grass,Rain,70.0,74,7,From SW
68857,2019100607,20191006070346,home,107.77,32.62,2.35,0.24,0.24,250.77,115.32,2560712,Terrell Edmunds,34,2019,12,1,08:45:00,BLT,1,10,PIT,0,0,2561324,PISTOL,"1 RB, 2 TE, 2 WR",6,"2 DL, 4 LB, 5 DB",right,2019-10-06T17:11:15.000Z,2019-10-06T17:11:13.000Z,6-1,217,01/20/1997,Virginia Tech,S,PIT,BAL,5,Heinz Field,Pittsburgh,Outdoors,Grass,Rain,70.0,74,7,From SW
68858,2019100607,20191006070346,home,107.46,17.16,1.34,2.53,0.14,247.1,218.46,2560725,Minkah Fitzpatrick,39,2019,12,1,08:45:00,BLT,1,10,PIT,0,0,2561324,PISTOL,"1 RB, 2 TE, 2 WR",6,"2 DL, 4 LB, 5 DB",right,2019-10-06T17:11:15.000Z,2019-10-06T17:11:13.000Z,6-1,207,11/17/1996,Alabama,S,PIT,BAL,5,Heinz Field,Pittsburgh,Outdoors,Grass,Rain,70.0,74,7,From SW
68859,2019100607,20191006070346,home,100.2,27.25,1.48,1.35,0.12,262.61,309.7,2562243,Devin Bush,55,2019,12,1,08:45:00,BLT,1,10,PIT,0,0,2561324,PISTOL,"1 RB, 2 TE, 2 WR",6,"2 DL, 4 LB, 5 DB",right,2019-10-06T17:11:15.000Z,2019-10-06T17:11:13.000Z,5-11,233,07/18/1998,Michigan,LB,PIT,BAL,5,Heinz Field,Pittsburgh,Outdoors,Grass,Rain,70.0,74,7,From SW
