,GameId,PlayId,Team,X,Y,S,A,Dis,Orientation,Dir,NflId,DisplayName,JerseyNumber,Season,YardLine,Quarter,GameClock,PossessionTeam,Down,Distance,FieldPosition,HomeScoreBeforePlay,VisitorScoreBeforePlay,NflIdRusher,OffenseFormation,OffensePersonnel,DefendersInTheBox,DefensePersonnel,PlayDirection,TimeHandoff,TimeSnap,PlayerHeight,PlayerWeight,PlayerBirthDate,PlayerCollegeName,Position,HomeTeamAbbr,VisitorTeamAbbr,Week,Stadium,Location,StadiumType,Turf,GameWeather,Temperature,Humidity,WindSpeed,WindDirection
42614,2019092211,20190922112985,away,51.09,29.76,2.01,1.25,0.21,142.97,164.33,2495184,Cameron Jordan,94,2019,41,4,14:17:00,SEA,1,10,NO,7,27,2555417,SHOTGUN,"1 RB, 1 TE, 3 WR",6,"4 DL, 2 LB, 5 DB",left,2019-09-22T22:37:26.000Z,2019-09-22T22:37:25.000Z,6-4,287,07/10/1989,California,DE,SEA,NO,3,CenturyLink Field,"Seattle, WA",Outdoor,FieldTurf,Rain,63.0,85,SSE,8
42615,2019092211,20190922112985,away,46.33,20.33,1.07,0.82,0.11,72.53,141.1,2533008,Demario Davis,56,2019,41,4,14:17:00,SEA,1,10,NO,7,27,2555417,SHOTGUN,"1 RB, 1 TE, 3 WR",6,"4 DL, 2 LB, 5 DB",left,2019-09-22T22:37:26.000Z,2019-09-22T22:37:25.000Z,6-2,248,01/11/1989,Arkansas State,ILB,SEA,NO,3,CenturyLink Field,"Seattle, WA",Outdoor,FieldTurf,Rain,63.0,85,SSE,8
42616,2019092211,20190922112985,away,46.43,26.91,2.51,1.88,0.24,74.7,150.02,2539982,A.J. Klein,53,2019,41,4,14:17:00,SEA,1,10,NO,7,27,2555417,SHOTGUN,"1 RB, 1 TE, 3 WR",6,"4 DL, 2 LB, 5 DB",left,2019-09-22T22:37:26.000Z,2019-09-22T22:37:25.000Z,6-1,240,07/30/1991,Iowa State,OLB,SEA,NO,3,CenturyLink Field,"Seattle, WA",Outdoor,FieldTurf,Rain,63.0,85,SSE,8
42617,2019092211,20190922112985,away,47.03,32.04,1.35,2.5,0.13,98.04,117.34,2552484,P.J. Williams,26,2019,41,4,14:17:00,SEA,1,10,NO,7,27,2555417,SHOTGUN,"1 RB, 1 TE, 3 WR",6,"4 DL, 2 LB, 5 DB",left,2019-09-22T22:37:26.000Z,2019-09-22T22:37:25.000Z,6-0,196,06/01/1993,Florida State,CB,SEA,NO,3,CenturyLink Field,"Seattle, WA",Outdoor,FieldTurf,Rain,63.0,85,SSE,8
42618,2019092211,20190922112985,away,50.91,23.88,1.67,0.98,0.17,65.46,149.64,2553433,Mario Edwards,97,2019,41,4,14:17:00,SEA,1,10,NO,7,27,2555417,SHOTGUN,"1 RB, 1 TE, 3 WR",6,"4 DL, 2 LB, 5 DB",left,2019-09-22T22:37:26.000Z,2019-09-22T22:37:25.000Z,6-3,280,01/25/1994,Florida State,DE,SEA,NO,3,CenturyLink Field,"Seattle, WA",Outdoor,FieldTurf,Rain,63.0,85,SSE,8
42619,2019092211,20190922112985,away,45.85,44.73,1.48,0.17,0.15,175.84,279.04,2555277,Eli Apple,25,2019,41,4,14:17:00,SEA,1,10,NO,7,27,2555417,SHOTGUN,"1 RB, 1 TE, 3 WR",6,"4 DL, 2 LB, 5 DB",left,2019-09-22T22:37:26.000Z,2019-09-22T22:37:25.000Z,6-1,203,08/09/1995,Ohio State,CB,SEA,NO,3,CenturyLink Field,"Seattle, WA",Outdoor,FieldTurf,Rain,63.0,85,SSE,8
42620,2019092211,20190922112985,away,36.99,16.29,2.12,0.31,0.21,105.33,253.47,2555530,Vonn Bell,24,2019,41,4,14:17:00,SEA,1,10,NO,7,27,2555417,SHOTGUN,"1 RB, 1 TE, 3 WR",6,"4 DL, 2 LB, 5 DB",left,2019-09-22T22:37:26.000Z,2019-09-22T22:37:25.000Z,5-11,205,12/12/1994,Ohio State,FS,SEA,NO,3,CenturyLink Field,"Seattle, WA",Outdoor,FieldTurf,Rain,63.0,85,SSE,8
42621,2019092211,20190922112985,away,51.87,21.25,2.36,0.39,0.23,52.6,82.5,2557943,Trey Hendrickson,91,2019,41,4,14:17:00,SEA,1,10,NO,7,27,2555417,SHOTGUN,"1 RB, 1 TE, 3 WR",6,"4 DL, 2 LB, 5 DB",left,2019-09-22T22:37:26.000Z,2019-09-22T22:37:25.000Z,6-4,270,12/05/1994,Florida Atlantic,DE,SEA,NO,3,CenturyLink Field,"Seattle, WA",Outdoor,FieldTurf,Rain,63.0,85,SSE,8
42622,2019092211,20190922112985,away,45.84,7.99,0.57,1.23,0.05,13.07,283.99,2558061,Marshon Lattimore,23,2019,41,4,14:17:00,SEA,1,10,NO,7,27,2555417,SHOTGUN,"1 RB, 1 TE, 3 WR",6,"4 DL, 2 LB, 5 DB",left,2019-09-22T22:37:26.000Z,2019-09-22T22:37:25.000Z,6-0,192,05/20/1996,Ohio State,CB,SEA,NO,3,CenturyLink Field,"Seattle, WA",Outdoor,FieldTurf,Rain,63.0,85,SSE,8
42623,2019092211,20190922112985,away,35.16,31.63,0.9,1.43,0.09,120.71,213.0,2558847,Marcus Williams,43,2019,41,4,14:17:00,SEA,1,10,NO,7,27,2555417,SHOTGUN,"1 RB, 1 TE, 3 WR",6,"4 DL, 2 LB, 5 DB",left,2019-09-22T22:37:26.000Z,2019-09-22T22:37:25.000Z,6-1,195,09/08/1996,Utah,FS,SEA,NO,3,CenturyLink Field,"Seattle, WA",Outdoor,FieldTurf,Rain,63.0,85,SSE,8
42624,2019092211,20190922112985,away,50.17,26.65,1.47,0.67,0.15,78.83,181.99,2563242,Shy Tuttle,99,2019,41,4,14:17:00,SEA,1,10,NO,7,27,2555417,SHOTGUN,"1 RB, 1 TE, 3 WR",6,"4 DL, 2 LB, 5 DB",left,2019-09-22T22:37:26.000Z,2019-09-22T22:37:25.000Z,6-3,300,10/20/1995,Tennessee,DT,SEA,NO,3,CenturyLink Field,"Seattle, WA",Outdoor,FieldTurf,Rain,63.0,85,SSE,8
42625,2019092211,20190922112985,home,52.71,22.42,1.61,0.23,0.16,205.72,156.35,808,Duane Brown,76,2019,41,4,14:17:00,SEA,1,10,NO,7,27,2555417,SHOTGUN,"1 RB, 1 TE, 3 WR",6,"4 DL, 2 LB, 5 DB",left,2019-09-22T22:37:26.000Z,2019-09-22T22:37:25.000Z,6-4,315,08/30/1985,Virginia Tech,T,SEA,NO,3,CenturyLink Field,"Seattle, WA",Outdoor,FieldTurf,Rain,63.0,85,SSE,8
42626,2019092211,20190922112985,home,51.57,24.17,1.82,1.13,0.18,251.17,195.13,497016,Mike Iupati,70,2019,41,4,14:17:00,SEA,1,10,NO,7,27,2555417,SHOTGUN,"1 RB, 1 TE, 3 WR",6,"4 DL, 2 LB, 5 DB",left,2019-09-22T22:37:26.000Z,2019-09-22T22:37:25.000Z,6-5,331,05/12/1987,Idaho,OG,SEA,NO,3,CenturyLink Field,"Seattle, WA",Outdoor,FieldTurf,Rain,63.0,85,SSE,8
42627,2019092211,20190922112985,home,55.51,27.01,0.66,0.95,0.06,295.77,309.59,2532975,Russell Wilson,3,2019,41,4,14:17:00,SEA,1,10,NO,7,27,2555417,SHOTGUN,"1 RB, 1 TE, 3 WR",6,"4 DL, 2 LB, 5 DB",left,2019-09-22T22:37:26.000Z,2019-09-22T22:37:25.000Z,5-11,215,11/29/1988,Wisconsin,QB,SEA,NO,3,CenturyLink Field,"Seattle, WA",Outdoor,FieldTurf,Rain,63.0,85,SSE,8
42628,2019092211,20190922112985,home,51.12,26.78,2.33,0.41,0.23,254.41,209.34,2540166,D.J. Fluker,78,2019,41,4,14:17:00,SEA,1,10,NO,7,27,2555417,SHOTGUN,"1 RB, 1 TE, 3 WR",6,"4 DL, 2 LB, 5 DB",left,2019-09-22T22:37:26.000Z,2019-09-22T22:37:25.000Z,6-5,342,03/13/1991,Alabama,OG,SEA,NO,3,CenturyLink Field,"Seattle, WA",Outdoor,FieldTurf,Rain,63.0,85,SSE,8
42629,2019092211,20190922112985,home,51.86,43.48,2.9,3.35,0.27,301.42,285.97,2541966,Jaron Brown,18,2019,41,4,14:17:00,SEA,1,10,NO,7,27,2555417,SHOTGUN,"1 RB, 1 TE, 3 WR",6,"4 DL, 2 LB, 5 DB",left,2019-09-22T22:37:26.000Z,2019-09-22T22:37:25.000Z,6-3,205,01/08/1990,Clemson,WR,SEA,NO,3,CenturyLink Field,"Seattle, WA",Outdoor,FieldTurf,Rain,63.0,85,SSE,8
42630,2019092211,20190922112985,home,50.51,25.78,1.66,0.14,0.18,292.76,232.05,2550135,Justin Britt,68,2019,41,4,14:17:00,SEA,1,10,NO,7,27,2555417,SHOTGUN,"1 RB, 1 TE, 3 WR",6,"4 DL, 2 LB, 5 DB",left,2019-09-22T22:37:26.000Z,2019-09-22T22:37:25.000Z,6-6,315,05/29/1991,Missouri,C,SEA,NO,3,CenturyLink Field,"Seattle, WA",Outdoor,FieldTurf,Rain,63.0,85,SSE,8
42631,2019092211,20190922112985,home,53.18,12.72,2.79,3.0,0.27,297.83,173.14,2552430,Tyler Lockett,16,2019,41,4,14:17:00,SEA,1,10,NO,7,27,2555417,SHOTGUN,"1 RB, 1 TE, 3 WR",6,"4 DL, 2 LB, 5 DB",left,2019-09-22T22:37:26.000Z,2019-09-22T22:37:25.000Z,5-10,182,09/28/1992,Kansas State,WR,SEA,NO,3,CenturyLink Field,"Seattle, WA",Outdoor,FieldTurf,Rain,63.0,85,SSE,8
42632,2019092211,20190922112985,home,51.07,28.45,2.86,0.69,0.29,247.3,213.52,2555395,Germain Ifedi,65,2019,41,4,14:17:00,SEA,1,10,NO,7,27,2555417,SHOTGUN,"1 RB, 1 TE, 3 WR",6,"4 DL, 2 LB, 5 DB",left,2019-09-22T22:37:26.000Z,2019-09-22T22:37:25.000Z,6-5,325,06/02/1994,Texas A&M,G,SEA,NO,3,CenturyLink Field,"Seattle, WA",Outdoor,FieldTurf,Rain,63.0,85,SSE,8
42633,2019092211,20190922112985,home,54.97,27.49,3.72,2.6,0.36,240.23,209.28,2555417,C.J. Prosise,22,2019,41,4,14:17:00,SEA,1,10,NO,7,27,2555417,SHOTGUN,"1 RB, 1 TE, 3 WR",6,"4 DL, 2 LB, 5 DB",left,2019-09-22T22:37:26.000Z,2019-09-22T22:37:25.000Z,6-1,225,05/20/1994,Notre Dame,RB,SEA,NO,3,CenturyLink Field,"Seattle, WA",Outdoor,FieldTurf,Rain,63.0,85,SSE,8
42634,2019092211,20190922112985,home,51.81,29.85,2.49,0.32,0.25,256.63,181.96,2561046,Will Dissly,88,2019,41,4,14:17:00,SEA,1,10,NO,7,27,2555417,SHOTGUN,"1 RB, 1 TE, 3 WR",6,"4 DL, 2 LB, 5 DB",left,2019-09-22T22:37:26.000Z,2019-09-22T22:37:25.000Z,6-4,267,07/08/1996,Washington,TE,SEA,NO,3,CenturyLink Field,"Seattle, WA",Outdoor,FieldTurf,Rain,63.0,85,SSE,8
42635,2019092211,20190922112985,home,50.45,9.77,3.39,2.81,0.33,265.3,274.23,2562685,D.K. Metcalf,14,2019,41,4,14:17:00,SEA,1,10,NO,7,27,2555417,SHOTGUN,"1 RB, 1 TE, 3 WR",6,"4 DL, 2 LB, 5 DB",left,2019-09-22T22:37:26.000Z,2019-09-22T22:37:25.000Z,6-4,230,12/14/1997,Mississippi,WR,SEA,NO,3,CenturyLink Field,"Seattle, WA",Outdoor,FieldTurf,Rain,63.0,85,SSE,8
