,GameId,PlayId,Team,X,Y,S,A,Dis,Orientation,Dir,NflId,DisplayName,JerseyNumber,Season,YardLine,Quarter,GameClock,PossessionTeam,Down,Distance,FieldPosition,HomeScoreBeforePlay,VisitorScoreBeforePlay,NflIdRusher,OffenseFormation,OffensePersonnel,DefendersInTheBox,DefensePersonnel,PlayDirection,TimeHandoff,TimeSnap,PlayerHeight,PlayerWeight,PlayerBirthDate,PlayerCollegeName,Position,HomeTeamAbbr,VisitorTeamAbbr,Week,Stadium,Location,StadiumType,Turf,GameWeather,Temperature,Humidity,WindSpeed,WindDirection
21098,2019091505,20190915050790,away,101.27,24.25,3.13,2.06,0.3,101.44,104.66,71251,Patrick Chung,23,2019,8,2,14:48:00,MIA,1,10,MIA,0,7,2555230,SINGLEBACK,"1 RB, 3 TE, 1 WR",8,"3 DL, 3 LB, 5 DB",left,2019-09-15T17:33:17.000Z,2019-09-15T17:33:16.000Z,5-11,215,08/19/1987,Oregon,SS,MIA,NE,2,Hard Rock Stadium,"Miami Gardens, FL",Outdoor,Natural Grass,Mostly Cloudy,87.0,67,4,S
21099,2019091505,20190915050790,away,99.33,35.21,3.14,3.14,0.3,115.82,148.17,494287,Devin McCourty,32,2019,8,2,14:48:00,MIA,1,10,MIA,0,7,2555230,SINGLEBACK,"1 RB, 3 TE, 1 WR",8,"3 DL, 3 LB, 5 DB",left,2019-09-15T17:33:17.000Z,2019-09-15T17:33:16.000Z,5-10,195,08/13/1987,Rutgers,FS,MIA,NE,2,Hard Rock Stadium,"Miami Gardens, FL",Outdoor,Natural Grass,Mostly Cloudy,87.0,67,4,S
21100,2019091505,20190915050790,away,99.66,46.38,2.77,2.36,0.26,56.31,282.73,2533062,Stephon Gilmore,24,2019,8,2,14:48:00,MIA,1,10,MIA,0,7,2555230,SINGLEBACK,"1 RB, 3 TE, 1 WR",8,"3 DL, 3 LB, 5 DB",left,2019-09-15T17:33:17.000Z,2019-09-15T17:33:16.000Z,6-1,202,09/19/1990,South Carolina,CB,MIA,NE,2,Hard Rock Stadium,"Miami Gardens, FL",Outdoor,Natural Grass,Mostly Cloudy,87.0,67,4,S
21101,2019091505,20190915050790,away,103.48,22.54,2.73,0.96,0.28,43.38,121.79,2539280,John Simon,55,2019,8,2,14:48:00,MIA,1,10,MIA,0,7,2555230,SINGLEBACK,"1 RB, 3 TE, 1 WR",8,"3 DL, 3 LB, 5 DB",left,2019-09-15T17:33:17.000Z,2019-09-15T17:33:16.000Z,6-2,260,10/14/1990,Ohio State,DE,MIA,NE,2,Hard Rock Stadium,"Miami Gardens, FL",Outdoor,Natural Grass,Mostly Cloudy,87.0,67,4,S
21102,2019091505,20190915050790,away,100.69,27.28,1.75,2.23,0.18,98.87,149.49,2539311,Jamie Collins,58,2019,8,2,14:48:00,MIA,1,10,MIA,0,7,2555230,SINGLEBACK,"1 RB, 3 TE, 1 WR",8,"3 DL, 3 LB, 5 DB",left,2019-09-15T17:33:17.000Z,2019-09-15T17:33:16.000Z,6-3,255,10/20/1989,Southern Mississippi,OLB,MIA,NE,2,Hard Rock Stadium,"Miami Gardens, FL",Outdoor,Natural Grass,Mostly Cloudy,87.0,67,4,S
21103,2019091505,20190915050790,away,87.31,27.56,1.94,1.94,0.18,110.08,170.07,2541243,Duron Harmon,21,2019,8,2,14:48:00,MIA,1,10,MIA,0,7,2555230,SINGLEBACK,"1 RB, 3 TE, 1 WR",8,"3 DL, 3 LB, 5 DB",left,2019-09-15T17:33:17.000Z,2019-09-15T17:33:16.000Z,6-1,205,01/24/1991,Rutgers,FS,MIA,NE,2,Hard Rock Stadium,"Miami Gardens, FL",Outdoor,Natural Grass,Mostly Cloudy,87.0,67,4,S
21104,2019091505,20190915050790,away,102.4,30.89,4.81,0.22,0.48,162.32,167.81,2543699,Kyle Van Noy,53,2019,8,2,14:48:00,MIA,1,10,MIA,0,7,2555230,SINGLEBACK,"1 RB, 3 TE, 1 WR",8,"3 DL, 3 LB, 5 DB",left,2019-09-15T17:33:17.000Z,2019-09-15T17:33:16.000Z,6-3,250,03/26/1991,Brigham Young,OLB,MIA,NE,2,Hard Rock Stadium,"Miami Gardens, FL",Outdoor,Natural Grass,Mostly Cloudy,87.0,67,4,S
21105,2019091505,20190915050790,away,102.86,28.89,4.34,2.3,0.42,174.65,164.68,2552325,Danny Shelton,71,2019,8,2,14:48:00,MIA,1,10,MIA,0,7,2555230,SINGLEBACK,"1 RB, 3 TE, 1 WR",8,"3 DL, 3 LB, 5 DB",left,2019-09-15T17:33:17.000Z,2019-09-15T17:33:16.000Z,6-2,345,08/20/1993,Washington,DT,MIA,NE,2,Hard Rock Stadium,"Miami Gardens, FL",Outdoor,Natural Grass,Mostly Cloudy,87.0,67,4,S
21106,2019091505,20190915050790,away,97.32,20.3,1.69,0.93,0.17,77.51,234.03,2560754,J.C. Jackson,27,2019,8,2,14:48:00,MIA,1,10,MIA,0,7,2555230,SINGLEBACK,"1 RB, 3 TE, 1 WR",8,"3 DL, 3 LB, 5 DB",left,2019-09-15T17:33:17.000Z,2019-09-15T17:33:16.000Z,6-1,198,11/17/1995,Maryland,DB,MIA,NE,2,Hard Rock Stadium,"Miami Gardens, FL",Outdoor,Natural Grass,Mostly Cloudy,87.0,67,4,S
21107,2019091505,20190915050790,away,99.73,27.8,4.73,1.24,0.46,106.08,169.01,2561143,Ja'Whaun Bentley,51,2019,8,2,14:48:00,MIA,1,10,MIA,0,7,2555230,SINGLEBACK,"1 RB, 3 TE, 1 WR",8,"3 DL, 3 LB, 5 DB",left,2019-09-15T17:33:17.000Z,2019-09-15T17:33:16.000Z,6-2,255,08/24/1996,Purdue,LB,MIA,NE,2,Hard Rock Stadium,"Miami Gardens, FL",Outdoor,Natural Grass,Mostly Cloudy,87.0,67,4,S
21108,2019091505,20190915050790,away,102.15,26.95,0.9,0.91,0.09,113.47,184.93,2562392,Byron Cowart,99,2019,8,2,14:48:00,MIA,1,10,MIA,0,7,2555230,SINGLEBACK,"1 RB, 3 TE, 1 WR",8,"3 DL, 3 LB, 5 DB",left,2019-09-15T17:33:17.000Z,2019-09-15T17:33:16.000Z,6-3,300,05/20/1996,Maryland,DE,MIA,NE,2,Hard Rock Stadium,"Miami Gardens, FL",Outdoor,Natural Grass,Mostly Cloudy,87.0,67,4,S
21109,2019091505,20190915050790,home,103.44,29.46,4.39,1.49,0.43,185.87,175.28,1037880,J'Marcus Webb,61,2019,8,2,14:48:00,MIA,1,10,MIA,0,7,2555230,SINGLEBACK,"1 RB, 3 TE, 1 WR",8,"3 DL, 3 LB, 5 DB",left,2019-09-15T17:33:17.000Z,2019-09-15T17:33:16.000Z,6-7,320,08/08/1988,West Texas A&M,T,MIA,NE,2,Hard Rock Stadium,"Miami Gardens, FL",Outdoor,Natural Grass,Mostly Cloudy,87.0,67,4,S
21110,2019091505,20190915050790,home,100.81,27.99,2.09,1.09,0.21,224.99,225.82,2495299,Daniel Kilgore,67,2019,8,2,14:48:00,MIA,1,10,MIA,0,7,2555230,SINGLEBACK,"1 RB, 3 TE, 1 WR",8,"3 DL, 3 LB, 5 DB",left,2019-09-15T17:33:17.000Z,2019-09-15T17:33:16.000Z,6-3,291,12/18/1987,Appalachian State,C,MIA,NE,2,Hard Rock Stadium,"Miami Gardens, FL",Outdoor,Natural Grass,Mostly Cloudy,87.0,67,4,S
21111,2019091505,20190915050790,home,105.96,27.9,4.51,1.6,0.44,107.8,125.88,2506581,Ryan Fitzpatrick,14,2019,8,2,14:48:00,MIA,1,10,MIA,0,7,2555230,SINGLEBACK,"1 RB, 3 TE, 1 WR",8,"3 DL, 3 LB, 5 DB",left,2019-09-15T17:33:17.000Z,2019-09-15T17:33:16.000Z,6-2,228,11/24/1982,Harvard,QB,MIA,NE,2,Hard Rock Stadium,"Miami Gardens, FL",Outdoor,Natural Grass,Mostly Cloudy,87.0,67,4,S
21112,2019091505,20190915050790,home,102.18,46.89,4.4,3.56,0.41,239.58,279.27,2550353,Allen Hurns,17,2019,8,2,14:48:00,MIA,1,10,MIA,0,7,2555230,SINGLEBACK,"1 RB, 3 TE, 1 WR",8,"3 DL, 3 LB, 5 DB",left,2019-09-15T17:33:17.000Z,2019-09-15T17:33:16.000Z,6-3,195,11/12/1991,Miami,WR,MIA,NE,2,Hard Rock Stadium,"Miami Gardens, FL",Outdoor,Natural Grass,Mostly Cloudy,87.0,67,4,S
21113,2019091505,20190915050790,home,103.85,23.23,2.29,1.61,0.22,226.11,151.38,2552403,Nick O'Leary,83,2019,8,2,14:48:00,MIA,1,10,MIA,0,7,2555230,SINGLEBACK,"1 RB, 3 TE, 1 WR",8,"3 DL, 3 LB, 5 DB",left,2019-09-15T17:33:17.000Z,2019-09-15T17:33:16.000Z,6-3,252,08/31/1992,Florida State,TE,MIA,NE,2,Hard Rock Stadium,"Miami Gardens, FL",Outdoor,Natural Grass,Mostly Cloudy,87.0,67,4,S
21114,2019091505,20190915050790,home,101.49,26.26,1.71,0.66,0.18,311.35,259.53,2553705,Jesse Davis,77,2019,8,2,14:48:00,MIA,1,10,MIA,0,7,2555230,SINGLEBACK,"1 RB, 3 TE, 1 WR",8,"3 DL, 3 LB, 5 DB",left,2019-09-15T17:33:17.000Z,2019-09-15T17:33:16.000Z,6-6,325,09/15/1991,Idaho,G,MIA,NE,2,Hard Rock Stadium,"Miami Gardens, FL",Outdoor,Natural Grass,Mostly Cloudy,87.0,67,4,S
21115,2019091505,20190915050790,home,107.16,27.13,4.84,1.73,0.47,246.08,214.21,2555230,Kenyan Drake,32,2019,8,2,14:48:00,MIA,1,10,MIA,0,7,2555230,SINGLEBACK,"1 RB, 3 TE, 1 WR",8,"3 DL, 3 LB, 5 DB",left,2019-09-15T17:33:17.000Z,2019-09-15T17:33:16.000Z,6-1,211,01/26/1994,Alabama,RB,MIA,NE,2,Hard Rock Stadium,"Miami Gardens, FL",Outdoor,Natural Grass,Mostly Cloudy,87.0,67,4,S
21116,2019091505,20190915050790,home,101.76,28.07,3.36,1.26,0.34,88.59,206.84,2558181,Danny Isidora,65,2019,8,2,14:48:00,MIA,1,10,MIA,0,7,2555230,SINGLEBACK,"1 RB, 3 TE, 1 WR",8,"3 DL, 3 LB, 5 DB",left,2019-09-15T17:33:17.000Z,2019-09-15T17:33:16.000Z,6-3,306,06/05/1994,Miami (Fla.),G,MIA,NE,2,Hard Rock Stadium,"Miami Gardens, FL",Outdoor,Natural Grass,Mostly Cloudy,87.0,67,4,S
21117,2019091505,20190915050790,home,102.98,30.89,4.72,2.18,0.47,252.62,170.32,2560880,Durham Smythe,81,2019,8,2,14:48:00,MIA,1,10,MIA,0,7,2555230,SINGLEBACK,"1 RB, 3 TE, 1 WR",8,"3 DL, 3 LB, 5 DB",left,2019-09-15T17:33:17.000Z,2019-09-15T17:33:16.000Z,6-6,260,08/09/1995,Notre Dame,TE,MIA,NE,2,Hard Rock Stadium,"Miami Gardens, FL",Outdoor,Natural Grass,Mostly Cloudy,87.0,67,4,S
21118,2019091505,20190915050790,home,101.48,21.59,4.21,1.62,0.41,282.71,240.15,2560994,Mike Gesicki,88,2019,8,2,14:48:00,MIA,1,10,MIA,0,7,2555230,SINGLEBACK,"1 RB, 3 TE, 1 WR",8,"3 DL, 3 LB, 5 DB",left,2019-09-15T17:33:17.000Z,2019-09-15T17:33:16.000Z,6-6,252,10/03/1995,Penn State,TE,MIA,NE,2,Hard Rock Stadium,"Miami Gardens, FL",Outdoor,Natural Grass,Mostly Cloudy,87.0,67,4,S
21119,2019091505,20190915050790,home,102.74,26.44,1.68,0.22,0.17,3.45,201.18,2562255,Michael Deiter,63,2019,8,2,14:48:00,MIA,1,10,MIA,0,7,2555230,SINGLEBACK,"1 RB, 3 TE, 1 WR",8,"3 DL, 3 LB, 5 DB",left,2019-09-15T17:33:17.000Z,2019-09-15T17:33:16.000Z,6-6,310,09/03/1996,Wisconsin,OG,MIA,NE,2,Hard Rock Stadium,"Miami Gardens, FL",Outdoor,Natural Grass,Mostly Cloudy,87.0,67,4,S
