,GameId,PlayId,Team,X,Y,S,A,Dis,Orientation,Dir,NflId,DisplayName,JerseyNumber,Season,YardLine,Quarter,GameClock,PossessionTeam,Down,Distance,FieldPosition,HomeScoreBeforePlay,VisitorScoreBeforePlay,NflIdRusher,OffenseFormation,OffensePersonnel,DefendersInTheBox,DefensePersonnel,PlayDirection,TimeHandoff,TimeSnap,PlayerHeight,PlayerWeight,PlayerBirthDate,PlayerCollegeName,Position,HomeTeamAbbr,VisitorTeamAbbr,Week,Stadium,Location,StadiumType,Turf,GameWeather,Temperature,Humidity,WindSpeed,WindDirection
7062,2019090806,20190908063571,away,95.04,44.66,4.85,3.43,0.47,13.41,46.67,2532920,Josh Norman,24,2019,17,4,05:09:00,PHI,2,6,WAS,29,20,2506467,SHOTGUN,"1 RB, 1 TE, 3 WR",6,"2 DL, 4 LB, 5 DB",right,2019-09-08T19:53:36.000Z,2019-09-08T19:53:35.000Z,6-0,200,12/15/1987,Coastal Carolina,CB,PHI,WAS,1,Lincoln Financial Field,"Philadelphia, Pa.",Outdoor,Grass,Sunny,79.0,49,4,W
7063,2019090806,20190908063571,away,96.83,25.95,4.68,2.76,0.46,304.19,317.64,2552454,Landon Collins,20,2019,17,4,05:09:00,PHI,2,6,WAS,29,20,2506467,SHOTGUN,"1 RB, 1 TE, 3 WR",6,"2 DL, 4 LB, 5 DB",right,2019-09-08T19:53:36.000Z,2019-09-08T19:53:35.000Z,6-0,218,01/10/1994,Alabama,SS,PHI,WAS,1,Lincoln Financial Field,"Philadelphia, Pa.",Outdoor,Grass,Sunny,79.0,49,4,W
7064,2019090806,20190908063571,away,101.17,9.94,2.67,2.06,0.26,329.63,31.88,2553796,Quinton Dunbar,23,2019,17,4,05:09:00,PHI,2,6,WAS,29,20,2506467,SHOTGUN,"1 RB, 1 TE, 3 WR",6,"2 DL, 4 LB, 5 DB",right,2019-09-08T19:53:36.000Z,2019-09-08T19:53:35.000Z,6-2,202,07/22/1992,Florida,CB,PHI,WAS,1,Lincoln Financial Field,"Philadelphia, Pa.",Outdoor,Grass,Sunny,79.0,49,4,W
7065,2019090806,20190908063571,away,90.63,27.58,1.81,3.16,0.19,267.67,296.44,2555240,Matthew Ioannidis,98,2019,17,4,05:09:00,PHI,2,6,WAS,29,20,2506467,SHOTGUN,"1 RB, 1 TE, 3 WR",6,"2 DL, 4 LB, 5 DB",right,2019-09-08T19:53:36.000Z,2019-09-08T19:53:35.000Z,6-3,310,01/11/1994,Temple,DE,PHI,WAS,1,Lincoln Financial Field,"Philadelphia, Pa.",Outdoor,Grass,Sunny,79.0,49,4,W
7066,2019090806,20190908063571,away,89.11,35.28,4.77,1.65,0.48,256.72,265.45,2556614,Cassanova McKinzy,58,2019,17,4,05:09:00,PHI,2,6,WAS,29,20,2506467,SHOTGUN,"1 RB, 1 TE, 3 WR",6,"2 DL, 4 LB, 5 DB",right,2019-09-08T19:53:36.000Z,2019-09-08T19:53:35.000Z,6-3,252,11/17/1992,Auburn,LB,PHI,WAS,1,Lincoln Financial Field,"Philadelphia, Pa.",Outdoor,Grass,Sunny,79.0,49,4,W
7067,2019090806,20190908063571,away,91.1,24.83,2.52,3.39,0.25,325.1,331.88,2557853,Ryan Anderson,52,2019,17,4,05:09:00,PHI,2,6,WAS,29,20,2506467,SHOTGUN,"1 RB, 1 TE, 3 WR",6,"2 DL, 4 LB, 5 DB",right,2019-09-08T19:53:36.000Z,2019-09-08T19:53:35.000Z,6-2,253,08/12/1994,Alabama,OLB,PHI,WAS,1,Lincoln Financial Field,"Philadelphia, Pa.",Outdoor,Grass,Sunny,79.0,49,4,W
7068,2019090806,20190908063571,away,111.54,30.84,2.28,2.63,0.22,283.91,329.08,2558133,Montae Nicholson,35,2019,17,4,05:09:00,PHI,2,6,WAS,29,20,2506467,SHOTGUN,"1 RB, 1 TE, 3 WR",6,"2 DL, 4 LB, 5 DB",right,2019-09-08T19:53:36.000Z,2019-09-08T19:53:35.000Z,6-2,212,12/04/1995,Michigan State,FS,PHI,WAS,1,Lincoln Financial Field,"Philadelphia, Pa.",Outdoor,Grass,Sunny,79.0,49,4,W
7069,2019090806,20190908063571,away,93.18,33.19,2.67,0.91,0.27,257.05,346.56,2560871,Tim Settle,97,2019,17,4,05:09:00,PHI,2,6,WAS,29,20,2506467,SHOTGUN,"1 RB, 1 TE, 3 WR",6,"2 DL, 4 LB, 5 DB",right,2019-09-08T19:53:36.000Z,2019-09-08T19:53:35.000Z,6-3,308,07/11/1997,Virginia Tech,NT,PHI,WAS,1,Lincoln Financial Field,"Philadelphia, Pa.",Outdoor,Grass,Sunny,79.0,49,4,W
7070,2019090806,20190908063571,away,93.8,34.13,4.69,1.1,0.46,262.77,300.38,2561003,Shaun Dion Hamilton,51,2019,17,4,05:09:00,PHI,2,6,WAS,29,20,2506467,SHOTGUN,"1 RB, 1 TE, 3 WR",6,"2 DL, 4 LB, 5 DB",right,2019-09-08T19:53:36.000Z,2019-09-08T19:53:35.000Z,6-0,235,09/11/1995,Alabama,LB,PHI,WAS,1,Lincoln Financial Field,"Philadelphia, Pa.",Outdoor,Grass,Sunny,79.0,49,4,W
7071,2019090806,20190908063571,away,98.97,17.37,3.36,4.04,0.32,324.7,24.95,2562858,Jimmy Moreland,32,2019,17,4,05:09:00,PHI,2,6,WAS,29,20,2506467,SHOTGUN,"1 RB, 1 TE, 3 WR",6,"2 DL, 4 LB, 5 DB",right,2019-09-08T19:53:36.000Z,2019-09-08T19:53:35.000Z,5-11,182,08/26/1995,James Madison,DB,PHI,WAS,1,Lincoln Financial Field,"Philadelphia, Pa.",Outdoor,Grass,Sunny,79.0,49,4,W
7072,2019090806,20190908063571,away,92.2,30.12,2.11,5.04,0.24,297.25,306.79,2562872,Cole Holcomb,55,2019,17,4,05:09:00,PHI,2,6,WAS,29,20,2506467,SHOTGUN,"1 RB, 1 TE, 3 WR",6,"2 DL, 4 LB, 5 DB",right,2019-09-08T19:53:36.000Z,2019-09-08T19:53:35.000Z,6-1,240,07/30/1996,North Carolina,LB,PHI,WAS,1,Lincoln Financial Field,"Philadelphia, Pa.",Outdoor,Grass,Sunny,79.0,49,4,W
7073,2019090806,20190908063571,home,93.73,9.95,4.4,2.45,0.43,23.33,47.59,1581,DeSean Jackson,10,2019,17,4,05:09:00,PHI,2,6,WAS,29,20,2506467,SHOTGUN,"1 RB, 1 TE, 3 WR",6,"2 DL, 4 LB, 5 DB",right,2019-09-08T19:53:36.000Z,2019-09-08T19:53:35.000Z,5-10,175,12/01/1986,California,WR,PHI,WAS,1,Lincoln Financial Field,"Philadelphia, Pa.",Outdoor,Grass,Sunny,79.0,49,4,W
7074,2019090806,20190908063571,home,90.8,32.69,4.25,2.05,0.44,42.25,356.25,2495298,Jason Kelce,62,2019,17,4,05:09:00,PHI,2,6,WAS,29,20,2506467,SHOTGUN,"1 RB, 1 TE, 3 WR",6,"2 DL, 4 LB, 5 DB",right,2019-09-08T19:53:36.000Z,2019-09-08T19:53:35.000Z,6-3,295,11/05/1987,Cincinnati,C,PHI,WAS,1,Lincoln Financial Field,"Philadelphia, Pa.",Outdoor,Grass,Sunny,79.0,49,4,W
7075,2019090806,20190908063571,home,89.71,35.2,2.68,2.48,0.28,0.5,331.29,2505827,Jason Peters,71,2019,17,4,05:09:00,PHI,2,6,WAS,29,20,2506467,SHOTGUN,"1 RB, 1 TE, 3 WR",6,"2 DL, 4 LB, 5 DB",right,2019-09-08T19:53:36.000Z,2019-09-08T19:53:35.000Z,6-4,328,01/22/1982,Arkansas,OT,PHI,WAS,1,Lincoln Financial Field,"Philadelphia, Pa.",Outdoor,Grass,Sunny,79.0,49,4,W
7076,2019090806,20190908063571,home,87.84,32.73,1.45,1.62,0.14,64.96,27.6,2506467,Darren Sproles,43,2019,17,4,05:09:00,PHI,2,6,WAS,29,20,2506467,SHOTGUN,"1 RB, 1 TE, 3 WR",6,"2 DL, 4 LB, 5 DB",right,2019-09-08T19:53:36.000Z,2019-09-08T19:53:35.000Z,5-6,190,06/20/1983,Kansas State,RB,PHI,WAS,1,Lincoln Financial Field,"Philadelphia, Pa.",Outdoor,Grass,Sunny,79.0,49,4,W
7077,2019090806,20190908063571,home,94.07,45.57,5.44,3.19,0.53,52.63,42.03,2533039,Alshon Jeffery,17,2019,17,4,05:09:00,PHI,2,6,WAS,29,20,2506467,SHOTGUN,"1 RB, 1 TE, 3 WR",6,"2 DL, 4 LB, 5 DB",right,2019-09-08T19:53:36.000Z,2019-09-08T19:53:35.000Z,6-3,218,02/14/1990,South Carolina,WR,PHI,WAS,1,Lincoln Financial Field,"Philadelphia, Pa.",Outdoor,Grass,Sunny,79.0,49,4,W
7078,2019090806,20190908063571,home,90.42,28.39,2.06,0.78,0.2,134.46,286.37,2539286,Lane Johnson,65,2019,17,4,05:09:00,PHI,2,6,WAS,29,20,2506467,SHOTGUN,"1 RB, 1 TE, 3 WR",6,"2 DL, 4 LB, 5 DB",right,2019-09-08T19:53:36.000Z,2019-09-08T19:53:35.000Z,6-6,317,05/08/1990,Oklahoma,T,PHI,WAS,1,Lincoln Financial Field,"Philadelphia, Pa.",Outdoor,Grass,Sunny,79.0,49,4,W
7079,2019090806,20190908063571,home,92.49,20.93,5.9,2.3,0.58,39.49,27.2,2552600,Nelson Agholor,13,2019,17,4,05:09:00,PHI,2,6,WAS,29,20,2506467,SHOTGUN,"1 RB, 1 TE, 3 WR",6,"2 DL, 4 LB, 5 DB",right,2019-09-08T19:53:36.000Z,2019-09-08T19:53:35.000Z,6-0,198,05/24/1993,Southern California,WR,PHI,WAS,1,Lincoln Financial Field,"Philadelphia, Pa.",Outdoor,Grass,Sunny,79.0,49,4,W
7080,2019090806,20190908063571,home,91.83,30.87,1.52,1.88,0.16,123.81,358.18,2555196,Halapoulivaati Vaitai,72,2019,17,4,05:09:00,PHI,2,6,WAS,29,20,2506467,SHOTGUN,"1 RB, 1 TE, 3 WR",6,"2 DL, 4 LB, 5 DB",right,2019-09-08T19:53:36.000Z,2019-09-08T19:53:35.000Z,6-6,320,06/16/1993,Texas Christian,T,PHI,WAS,1,Lincoln Financial Field,"Philadelphia, Pa.",Outdoor,Grass,Sunny,79.0,49,4,W
7081,2019090806,20190908063571,home,87.08,31.48,2.74,3.2,0.27,43.6,297.49,2555259,Carson Wentz,11,2019,17,4,05:09:00,PHI,2,6,WAS,29,20,2506467,SHOTGUN,"1 RB, 1 TE, 3 WR",6,"2 DL, 4 LB, 5 DB",right,2019-09-08T19:53:36.000Z,2019-09-08T19:53:35.000Z,6-5,237,12/30/1992,North Dakota State,QB,PHI,WAS,1,Lincoln Financial Field,"Philadelphia, Pa.",Outdoor,Grass,Sunny,79.0,49,4,W
7082,2019090806,20190908063571,home,92.28,33.33,2.24,0.67,0.23,83.54,356.6,2555495,Isaac Seumalo,73,2019,17,4,05:09:00,PHI,2,6,WAS,29,20,2506467,SHOTGUN,"1 RB, 1 TE, 3 WR",6,"2 DL, 4 LB, 5 DB",right,2019-09-08T19:53:36.000Z,2019-09-08T19:53:35.000Z,6-4,303,10/29/1993,Oregon State,G,PHI,WAS,1,Lincoln Financial Field,"Philadelphia, Pa.",Outdoor,Grass,Sunny,79.0,49,4,W
7083,2019090806,20190908063571,home,90.09,26.49,0.81,2.4,0.08,118.21,29.34,2560995,Dallas Goedert,88,2019,17,4,05:09:00,PHI,2,6,WAS,29,20,2506467,SHOTGUN,"1 RB, 1 TE, 3 WR",6,"2 DL, 4 LB, 5 DB",right,2019-09-08T19:53:36.000Z,2019-09-08T19:53:35.000Z,6-5,256,01/03/1995,South Dakota State,TE,PHI,WAS,1,Lincoln Financial Field,"Philadelphia, Pa.",Outdoor,Grass,Sunny,79.0,49,4,W
