,GameId,PlayId,Team,X,Y,S,A,Dis,Orientation,Dir,NflId,DisplayName,JerseyNumber,Season,YardLine,Quarter,GameClock,PossessionTeam,Down,Distance,FieldPosition,HomeScoreBeforePlay,VisitorScoreBeforePlay,NflIdRusher,OffenseFormation,OffensePersonnel,DefendersInTheBox,DefensePersonnel,PlayDirection,TimeHandoff,TimeSnap,PlayerHeight,PlayerWeight,PlayerBirthDate,PlayerCollegeName,Position,HomeTeamAbbr,VisitorTeamAbbr,Week,Stadium,Location,StadiumType,Turf,GameWeather,Temperature,Humidity,WindSpeed,WindDirection
19228,2019091503,20190915031923,away,22.95,15.22,5.1,1.8,0.51,156.52,205.41,2495438,Kyle Rudolph,82,2019,13,2,01:08:00,MIN,1,13,GB,21,7,2557991,I_FORM,"2 RB, 1 TE, 2 WR",6,"3 DL, 3 LB, 5 DB",left,2019-09-15T18:27:21.000Z,2019-09-15T18:27:20.000Z,6-6,265,11/09/1989,Notre Dame,TE,GB,MIN,2,Lambeau Field,"Green Bay, WI",Outdoor,SISGrass,Cloudy,72.0,75,5,South
19229,2019091503,20190915031923,away,27.51,25.9,4.5,1.02,0.45,78.15,62.07,2532820,Kirk Cousins,8,2019,13,2,01:08:00,MIN,1,13,GB,21,7,2557991,I_FORM,"2 RB, 1 TE, 2 WR",6,"3 DL, 3 LB, 5 DB",left,2019-09-15T18:27:21.000Z,2019-09-15T18:27:20.000Z,6-3,202,08/19/1988,Michigan State,QB,GB,MIN,2,Lambeau Field,"Green Bay, WI",Outdoor,SISGrass,Cloudy,72.0,75,5,South
19230,2019091503,20190915031923,away,23.24,25.94,4.77,1.69,0.49,275.41,347.38,2533042,Riley Reiff,71,2019,13,2,01:08:00,MIN,1,13,GB,21,7,2557991,I_FORM,"2 RB, 1 TE, 2 WR",6,"3 DL, 3 LB, 5 DB",left,2019-09-15T18:27:21.000Z,2019-09-15T18:27:20.000Z,6-6,305,12/01/1988,Iowa,T,GB,MIN,2,Lambeau Field,"Green Bay, WI",Outdoor,SISGrass,Cloudy,72.0,75,5,South
19231,2019091503,20190915031923,away,24.16,28.7,2.65,1.62,0.28,295.49,7.56,2541142,Josh Kline,64,2019,13,2,01:08:00,MIN,1,13,GB,21,7,2557991,I_FORM,"2 RB, 1 TE, 2 WR",6,"3 DL, 3 LB, 5 DB",left,2019-09-15T18:27:21.000Z,2019-09-15T18:27:20.000Z,6-3,300,12/29/1989,Kent State,G,GB,MIN,2,Lambeau Field,"Green Bay, WI",Outdoor,SISGrass,Cloudy,72.0,75,5,South
19232,2019091503,20190915031923,away,24.42,25.52,4.19,2.87,0.43,281.7,202.42,2541785,Adam Thielen,19,2019,13,2,01:08:00,MIN,1,13,GB,21,7,2557991,I_FORM,"2 RB, 1 TE, 2 WR",6,"3 DL, 3 LB, 5 DB",left,2019-09-15T18:27:21.000Z,2019-09-15T18:27:20.000Z,6-2,200,08/22/1990,Minn. State-Mankato,WR,GB,MIN,2,Lambeau Field,"Green Bay, WI",Outdoor,SISGrass,Cloudy,72.0,75,5,South
19233,2019091503,20190915031923,away,23.43,26.69,4.72,2.72,0.49,296.67,358.01,2543805,Dakota Dozier,78,2019,13,2,01:08:00,MIN,1,13,GB,21,7,2557991,I_FORM,"2 RB, 1 TE, 2 WR",6,"3 DL, 3 LB, 5 DB",left,2019-09-15T18:27:21.000Z,2019-09-15T18:27:20.000Z,6-4,313,04/30/1991,Furman,G,GB,MIN,2,Lambeau Field,"Green Bay, WI",Outdoor,SISGrass,Cloudy,72.0,75,5,South
19234,2019091503,20190915031923,away,20.75,31.37,1.66,3.66,0.18,265.39,259.92,2552608,Stefon Diggs,14,2019,13,2,01:08:00,MIN,1,13,GB,21,7,2557991,I_FORM,"2 RB, 1 TE, 2 WR",6,"3 DL, 3 LB, 5 DB",left,2019-09-15T18:27:21.000Z,2019-09-15T18:27:20.000Z,6-0,191,11/29/1993,Maryland,WR,GB,MIN,2,Lambeau Field,"Green Bay, WI",Outdoor,SISGrass,Cloudy,72.0,75,5,South
19235,2019091503,20190915031923,away,25.7,29.6,5.14,1.59,0.51,307.45,337.21,2556803,C.J. Ham,30,2019,13,2,01:08:00,MIN,1,13,GB,21,7,2557991,I_FORM,"2 RB, 1 TE, 2 WR",6,"3 DL, 3 LB, 5 DB",left,2019-09-15T18:27:21.000Z,2019-09-15T18:27:20.000Z,5-11,235,07/22/1993,"Augustana, S.D.",FB,GB,MIN,2,Lambeau Field,"Green Bay, WI",Outdoor,SISGrass,Cloudy,72.0,75,5,South
19236,2019091503,20190915031923,away,28.02,26.94,5.43,2.14,0.53,329.13,330.18,2557991,Dalvin Cook,33,2019,13,2,01:08:00,MIN,1,13,GB,21,7,2557991,I_FORM,"2 RB, 1 TE, 2 WR",6,"3 DL, 3 LB, 5 DB",left,2019-09-15T18:27:21.000Z,2019-09-15T18:27:20.000Z,5-10,210,08/10/1995,Florida State,RB,GB,MIN,2,Lambeau Field,"Green Bay, WI",Outdoor,SISGrass,Cloudy,72.0,75,5,South
19237,2019091503,20190915031923,away,23.97,29.9,2.51,0.37,0.29,300.49,4.3,2560831,Brian O'Neill,75,2019,13,2,01:08:00,MIN,1,13,GB,21,7,2557991,I_FORM,"2 RB, 1 TE, 2 WR",6,"3 DL, 3 LB, 5 DB",left,2019-09-15T18:27:21.000Z,2019-09-15T18:27:20.000Z,6-7,297,09/15/1995,Pittsburgh,T,GB,MIN,2,Lambeau Field,"Green Bay, WI",Outdoor,SISGrass,Cloudy,72.0,75,5,South
19238,2019091503,20190915031923,away,23.34,27.96,4.0,1.4,0.41,259.67,2.52,2562632,Garrett Bradbury,56,2019,13,2,01:08:00,MIN,1,13,GB,21,7,2557991,I_FORM,"2 RB, 1 TE, 2 WR",6,"3 DL, 3 LB, 5 DB",left,2019-09-15T18:27:21.000Z,2019-09-15T18:27:20.000Z,6-3,305,06/20/1995,North Carolina State,C,GB,MIN,2,Lambeau Field,"Green Bay, WI",Outdoor,SISGrass,Cloudy,72.0,75,5,South
19239,2019091503,20190915031923,home,21.86,17.63,1.86,2.26,0.18,56.29,353.57,2552276,Preston Smith,91,2019,13,2,01:08:00,MIN,1,13,GB,21,7,2557991,I_FORM,"2 RB, 1 TE, 2 WR",6,"3 DL, 3 LB, 5 DB",left,2019-09-15T18:27:21.000Z,2019-09-15T18:27:20.000Z,6-5,265,11/17/1992,Mississippi State,OLB,GB,MIN,2,Lambeau Field,"Green Bay, WI",Outdoor,SISGrass,Cloudy,72.0,75,5,South
19240,2019091503,20190915031923,home,23.66,30.43,3.51,2.52,0.34,130.55,16.67,2552279,Za'Darius Smith,55,2019,13,2,01:08:00,MIN,1,13,GB,21,7,2557991,I_FORM,"2 RB, 1 TE, 2 WR",6,"3 DL, 3 LB, 5 DB",left,2019-09-15T18:27:21.000Z,2019-09-15T18:27:20.000Z,6-4,272,09/08/1992,Kentucky,OLB,GB,MIN,2,Lambeau Field,"Green Bay, WI",Outdoor,SISGrass,Cloudy,72.0,75,5,South
19241,2019091503,20190915031923,home,20.64,32.76,2.34,2.05,0.22,121.28,28.5,2552385,Adrian Amos,31,2019,13,2,01:08:00,MIN,1,13,GB,21,7,2557991,I_FORM,"2 RB, 1 TE, 2 WR",6,"3 DL, 3 LB, 5 DB",left,2019-09-15T18:27:21.000Z,2019-09-15T18:27:20.000Z,6-0,214,04/29/1993,Penn State,FS,GB,MIN,2,Lambeau Field,"Green Bay, WI",Outdoor,SISGrass,Cloudy,72.0,75,5,South
19242,2019091503,20190915031923,home,18.12,25.17,1.01,3.31,0.09,84.51,224.79,2555161,Blake Martinez,50,2019,13,2,01:08:00,MIN,1,13,GB,21,7,2557991,I_FORM,"2 RB, 1 TE, 2 WR",6,"3 DL, 3 LB, 5 DB",left,2019-09-15T18:27:21.000Z,2019-09-15T18:27:20.000Z,6-2,237,01/09/1994,Stanford,ILB,GB,MIN,2,Lambeau Field,"Green Bay, WI",Outdoor,SISGrass,Cloudy,72.0,75,5,South
19243,2019091503,20190915031923,home,23.46,29.05,3.51,1.11,0.36,109.79,14.56,2555274,Dean Lowry,94,2019,13,2,01:08:00,MIN,1,13,GB,21,7,2557991,I_FORM,"2 RB, 1 TE, 2 WR",6,"3 DL, 3 LB, 5 DB",left,2019-09-15T18:27:21.000Z,2019-09-15T18:27:20.000Z,6-6,296,06/09/1994,Northwestern,DE,GB,MIN,2,Lambeau Field,"Green Bay, WI",Outdoor,SISGrass,Cloudy,72.0,75,5,South
19244,2019091503,20190915031923,home,23.05,27.2,4.11,0.89,0.41,56.67,7.77,2555282,Kenny Clark,97,2019,13,2,01:08:00,MIN,1,13,GB,21,7,2557991,I_FORM,"2 RB, 1 TE, 2 WR",6,"3 DL, 3 LB, 5 DB",left,2019-09-15T18:27:21.000Z,2019-09-15T18:27:20.000Z,6-3,314,10/04/1995,UCLA,NT,GB,MIN,2,Lambeau Field,"Green Bay, WI",Outdoor,SISGrass,Cloudy,72.0,75,5,South
19245,2019091503,20190915031923,home,17.32,15.3,2.27,2.14,0.22,100.97,223.43,2557996,Kevin King,20,2019,13,2,01:08:00,MIN,1,13,GB,21,7,2557991,I_FORM,"2 RB, 1 TE, 2 WR",6,"3 DL, 3 LB, 5 DB",left,2019-09-15T18:27:21.000Z,2019-09-15T18:27:20.000Z,6-3,200,05/05/1995,Washington,CB,GB,MIN,2,Lambeau Field,"Green Bay, WI",Outdoor,SISGrass,Cloudy,72.0,75,5,South
19246,2019091503,20190915031923,home,17.26,35.16,1.91,0.99,0.19,95.05,271.95,2560952,Jaire Alexander,23,2019,13,2,01:08:00,MIN,1,13,GB,21,7,2557991,I_FORM,"2 RB, 1 TE, 2 WR",6,"3 DL, 3 LB, 5 DB",left,2019-09-15T18:27:21.000Z,2019-09-15T18:27:20.000Z,5-10,196,02/09/1997,Louisville,CB,GB,MIN,2,Lambeau Field,"Green Bay, WI",Outdoor,SISGrass,Cloudy,72.0,75,5,South
19247,2019091503,20190915031923,home,18.15,21.24,3.0,1.82,0.29,82.67,57.57,2561207,Raven Greene,24,2019,13,2,01:08:00,MIN,1,13,GB,21,7,2557991,I_FORM,"2 RB, 1 TE, 2 WR",6,"3 DL, 3 LB, 5 DB",left,2019-09-15T18:27:21.000Z,2019-09-15T18:27:20.000Z,5-11,197,02/02/1995,James Madison,FS,GB,MIN,2,Lambeau Field,"Green Bay, WI",Outdoor,SISGrass,Cloudy,72.0,75,5,South
19248,2019091503,20190915031923,home,22.39,26.08,3.91,2.09,0.41,71.17,351.91,2561227,Tyler Lancaster,95,2019,13,2,01:08:00,MIN,1,13,GB,21,7,2557991,I_FORM,"2 RB, 1 TE, 2 WR",6,"3 DL, 3 LB, 5 DB",left,2019-09-15T18:27:21.000Z,2019-09-15T18:27:20.000Z,6-3,315,11/04/1994,Northwestern,DT,GB,MIN,2,Lambeau Field,"Green Bay, WI",Outdoor,SISGrass,Cloudy,72.0,75,5,South
19249,2019091503,20190915031923,home,12.06,27.53,1.49,0.41,0.15,94.77,260.85,2562724,Darnell Savage,26,2019,13,2,01:08:00,MIN,1,13,GB,21,7,2557991,I_FORM,"2 RB, 1 TE, 2 WR",6,"3 DL, 3 LB, 5 DB",left,2019-09-15T18:27:21.000Z,2019-09-15T18:27:20.000Z,5-11,200,07/30/1997,Maryland,DB,GB,MIN,2,Lambeau Field,"Green Bay, WI",Outdoor,SISGrass,Cloudy,72.0,75,5,South
