,GameId,PlayId,Team,X,Y,S,A,Dis,Orientation,Dir,NflId,DisplayName,JerseyNumber,Season,YardLine,Quarter,GameClock,PossessionTeam,Down,Distance,FieldPosition,HomeScoreBeforePlay,VisitorScoreBeforePlay,NflIdRusher,OffenseFormation,OffensePersonnel,DefendersInTheBox,DefensePersonnel,PlayDirection,TimeHandoff,TimeSnap,PlayerHeight,PlayerWeight,PlayerBirthDate,PlayerCollegeName,Position,HomeTeamAbbr,VisitorTeamAbbr,Week,Stadium,Location,StadiumType,Turf,GameWeather,Temperature,Humidity,WindSpeed,WindDirection
55132,2019092908,20190929081057,away,86.84,19.15,2.08,0.56,0.22,236.38,175.97,808,Duane Brown,76,2019,25,2,13:49:00,SEA,1,10,SEA,3,10,2558865,SHOTGUN,"6 OL, 1 RB, 1 TE, 2 WR",8,"4 DL, 3 LB, 4 DB",left,2019-09-29T20:46:56.000Z,2019-09-29T20:46:55.000Z,6-4,315,08/30/1985,Virginia Tech,T,ARI,SEA,4,State Farm Stadium,"Glendale, AZ",Dome,Grass,N/A Indoors,,0,,
55133,2019092908,20190929081057,away,86.59,21.13,1.4,0.52,0.14,217.12,148.83,497016,Mike Iupati,70,2019,25,2,13:49:00,SEA,1,10,SEA,3,10,2558865,SHOTGUN,"6 OL, 1 RB, 1 TE, 2 WR",8,"4 DL, 3 LB, 4 DB",left,2019-09-29T20:46:56.000Z,2019-09-29T20:46:55.000Z,6-5,331,05/12/1987,Idaho,OG,ARI,SEA,4,State Farm Stadium,"Glendale, AZ",Dome,Grass,N/A Indoors,,0,,
55134,2019092908,20190929081057,away,90.11,23.62,0.3,0.84,0.03,281.94,275.07,2532975,Russell Wilson,3,2019,25,2,13:49:00,SEA,1,10,SEA,3,10,2558865,SHOTGUN,"6 OL, 1 RB, 1 TE, 2 WR",8,"4 DL, 3 LB, 4 DB",left,2019-09-29T20:46:56.000Z,2019-09-29T20:46:55.000Z,5-11,215,11/29/1988,Wisconsin,QB,ARI,SEA,4,State Farm Stadium,"Glendale, AZ",Dome,Grass,N/A Indoors,,0,,
55135,2019092908,20190929081057,away,86.02,23.69,1.8,0.5,0.18,222.21,186.91,2540166,D.J. Fluker,78,2019,25,2,13:49:00,SEA,1,10,SEA,3,10,2558865,SHOTGUN,"6 OL, 1 RB, 1 TE, 2 WR",8,"4 DL, 3 LB, 4 DB",left,2019-09-29T20:46:56.000Z,2019-09-29T20:46:55.000Z,6-5,342,03/13/1991,Alabama,OG,ARI,SEA,4,State Farm Stadium,"Glendale, AZ",Dome,Grass,N/A Indoors,,0,,
55136,2019092908,20190929081057,away,85.38,22.78,1.48,0.78,0.17,250.14,193.07,2550135,Justin Britt,68,2019,25,2,13:49:00,SEA,1,10,SEA,3,10,2558865,SHOTGUN,"6 OL, 1 RB, 1 TE, 2 WR",8,"4 DL, 3 LB, 4 DB",left,2019-09-29T20:46:56.000Z,2019-09-29T20:46:55.000Z,6-6,315,05/29/1991,Missouri,C,ARI,SEA,4,State Farm Stadium,"Glendale, AZ",Dome,Grass,N/A Indoors,,0,,
55137,2019092908,20190929081057,away,84.73,31.29,2.56,1.46,0.25,314.72,255.6,2552430,Tyler Lockett,16,2019,25,2,13:49:00,SEA,1,10,SEA,3,10,2558865,SHOTGUN,"6 OL, 1 RB, 1 TE, 2 WR",8,"4 DL, 3 LB, 4 DB",left,2019-09-29T20:46:56.000Z,2019-09-29T20:46:55.000Z,5-10,182,09/28/1992,Kansas State,WR,ARI,SEA,4,State Farm Stadium,"Glendale, AZ",Dome,Grass,N/A Indoors,,0,,
55138,2019092908,20190929081057,away,86.62,24.7,2.62,1.06,0.27,254.17,163.02,2555395,Germain Ifedi,65,2019,25,2,13:49:00,SEA,1,10,SEA,3,10,2558865,SHOTGUN,"6 OL, 1 RB, 1 TE, 2 WR",8,"4 DL, 3 LB, 4 DB",left,2019-09-29T20:46:56.000Z,2019-09-29T20:46:55.000Z,6-5,325,06/02/1994,Texas A&M,G,ARI,SEA,4,State Farm Stadium,"Glendale, AZ",Dome,Grass,N/A Indoors,,0,,
55139,2019092908,20190929081057,away,86.59,26.15,3.48,1.27,0.34,254.01,199.73,2556524,George Fant,74,2019,25,2,13:49:00,SEA,1,10,SEA,3,10,2558865,SHOTGUN,"6 OL, 1 RB, 1 TE, 2 WR",8,"4 DL, 3 LB, 4 DB",left,2019-09-29T20:46:56.000Z,2019-09-29T20:46:55.000Z,6-5,322,07/19/1992,Western Kentucky,OT,ARI,SEA,4,State Farm Stadium,"Glendale, AZ",Dome,Grass,N/A Indoors,,0,,
55140,2019092908,20190929081057,away,84.36,12.79,4.4,3.18,0.43,299.68,299.74,2558856,David Moore,83,2019,25,2,13:49:00,SEA,1,10,SEA,3,10,2558865,SHOTGUN,"6 OL, 1 RB, 1 TE, 2 WR",8,"4 DL, 3 LB, 4 DB",left,2019-09-29T20:46:56.000Z,2019-09-29T20:46:55.000Z,6-0,215,01/15/1995,East Central,WR,ARI,SEA,4,State Farm Stadium,"Glendale, AZ",Dome,Grass,N/A Indoors,,0,,
55141,2019092908,20190929081057,away,89.66,24.78,3.92,3.17,0.37,250.3,204.27,2558865,Chris Carson,32,2019,25,2,13:49:00,SEA,1,10,SEA,3,10,2558865,SHOTGUN,"6 OL, 1 RB, 1 TE, 2 WR",8,"4 DL, 3 LB, 4 DB",left,2019-09-29T20:46:56.000Z,2019-09-29T20:46:55.000Z,5-11,222,09/16/1994,Oklahoma State,RB,ARI,SEA,4,State Farm Stadium,"Glendale, AZ",Dome,Grass,N/A Indoors,,0,,
55142,2019092908,20190929081057,away,86.13,33.13,3.29,2.19,0.32,262.97,296.07,2561046,Will Dissly,88,2019,25,2,13:49:00,SEA,1,10,SEA,3,10,2558865,SHOTGUN,"6 OL, 1 RB, 1 TE, 2 WR",8,"4 DL, 3 LB, 4 DB",left,2019-09-29T20:46:56.000Z,2019-09-29T20:46:55.000Z,6-4,267,07/08/1996,Washington,TE,ARI,SEA,4,State Farm Stadium,"Glendale, AZ",Dome,Grass,N/A Indoors,,0,,
55143,2019092908,20190929081057,home,85.34,23.83,1.55,1.02,0.16,89.21,167.62,496841,Corey Peters,98,2019,25,2,13:49:00,SEA,1,10,SEA,3,10,2558865,SHOTGUN,"6 OL, 1 RB, 1 TE, 2 WR",8,"4 DL, 3 LB, 4 DB",left,2019-09-29T20:46:56.000Z,2019-09-29T20:46:55.000Z,6-3,335,06/08/1988,Kentucky,DT,ARI,SEA,4,State Farm Stadium,"Glendale, AZ",Dome,Grass,N/A Indoors,,0,,
55144,2019092908,20190929081057,home,84.12,31.88,1.2,1.72,0.11,108.57,292.48,2507917,Tramaine Brock,20,2019,25,2,13:49:00,SEA,1,10,SEA,3,10,2558865,SHOTGUN,"6 OL, 1 RB, 1 TE, 2 WR",8,"4 DL, 3 LB, 4 DB",left,2019-09-29T20:46:56.000Z,2019-09-29T20:46:55.000Z,6-0,188,08/20/1988,Belhaven,CB,ARI,SEA,4,State Farm Stadium,"Glendale, AZ",Dome,Grass,N/A Indoors,,0,,
55145,2019092908,20190929081057,home,85.8,28.29,2.92,1.08,0.29,98.52,140.57,2533538,Chandler Jones,55,2019,25,2,13:49:00,SEA,1,10,SEA,3,10,2558865,SHOTGUN,"6 OL, 1 RB, 1 TE, 2 WR",8,"4 DL, 3 LB, 4 DB",left,2019-09-29T20:46:56.000Z,2019-09-29T20:46:55.000Z,6-5,265,02/27/1990,Syracuse,OLB,ARI,SEA,4,State Farm Stadium,"Glendale, AZ",Dome,Grass,N/A Indoors,,0,,
55146,2019092908,20190929081057,home,67.6,31.52,1.57,0.19,0.16,101.35,295.06,2539943,D.J. Swearinger,36,2019,25,2,13:49:00,SEA,1,10,SEA,3,10,2558865,SHOTGUN,"6 OL, 1 RB, 1 TE, 2 WR",8,"4 DL, 3 LB, 4 DB",left,2019-09-29T20:46:56.000Z,2019-09-29T20:46:55.000Z,5-10,205,09/01/1991,South Carolina,FS,ARI,SEA,4,State Farm Stadium,"Glendale, AZ",Dome,Grass,N/A Indoors,,0,,
55147,2019092908,20190929081057,home,85.92,18.44,1.2,1.83,0.1,82.72,87.64,2543868,Cassius Marsh,54,2019,25,2,13:49:00,SEA,1,10,SEA,3,10,2558865,SHOTGUN,"6 OL, 1 RB, 1 TE, 2 WR",8,"4 DL, 3 LB, 4 DB",left,2019-09-29T20:46:56.000Z,2019-09-29T20:46:55.000Z,6-4,245,07/07/1992,UCLA,LB,ARI,SEA,4,State Farm Stadium,"Glendale, AZ",Dome,Grass,N/A Indoors,,0,,
55148,2019092908,20190929081057,home,85.08,26.09,3.21,1.93,0.31,104.69,147.67,2552315,Jordan Hicks,58,2019,25,2,13:49:00,SEA,1,10,SEA,3,10,2558865,SHOTGUN,"6 OL, 1 RB, 1 TE, 2 WR",8,"4 DL, 3 LB, 4 DB",left,2019-09-29T20:46:56.000Z,2019-09-29T20:46:55.000Z,6-1,236,06/27/1992,Texas,MLB,ARI,SEA,4,State Farm Stadium,"Glendale, AZ",Dome,Grass,N/A Indoors,,0,,
55149,2019092908,20190929081057,home,86.24,20.43,1.89,0.78,0.19,90.0,142.39,2553437,Rodney Gunter,95,2019,25,2,13:49:00,SEA,1,10,SEA,3,10,2558865,SHOTGUN,"6 OL, 1 RB, 1 TE, 2 WR",8,"4 DL, 3 LB, 4 DB",left,2019-09-29T20:46:56.000Z,2019-09-29T20:46:55.000Z,6-5,305,01/19/1992,Delaware State,DT,ARI,SEA,4,State Farm Stadium,"Glendale, AZ",Dome,Grass,N/A Indoors,,0,,
55150,2019092908,20190929081057,home,86.27,24.33,3.27,0.27,0.34,157.34,145.84,2555335,Jonathan Bullard,90,2019,25,2,13:49:00,SEA,1,10,SEA,3,10,2558865,SHOTGUN,"6 OL, 1 RB, 1 TE, 2 WR",8,"4 DL, 3 LB, 4 DB",left,2019-09-29T20:46:56.000Z,2019-09-29T20:46:55.000Z,6-3,296,10/22/1993,Florida,DE,ARI,SEA,4,State Farm Stadium,"Glendale, AZ",Dome,Grass,N/A Indoors,,0,,
55151,2019092908,20190929081057,home,83.95,22.21,3.36,1.26,0.33,66.9,119.49,2557887,Haason Reddick,43,2019,25,2,13:49:00,SEA,1,10,SEA,3,10,2558865,SHOTGUN,"6 OL, 1 RB, 1 TE, 2 WR",8,"4 DL, 3 LB, 4 DB",left,2019-09-29T20:46:56.000Z,2019-09-29T20:46:55.000Z,6-1,235,09/22/1994,Temple,ILB,ARI,SEA,4,State Farm Stadium,"Glendale, AZ",Dome,Grass,N/A Indoors,,0,,
55152,2019092908,20190929081057,home,78.39,18.37,1.43,2.54,0.14,82.84,209.44,2558009,Budda Baker,32,2019,25,2,13:49:00,SEA,1,10,SEA,3,10,2558865,SHOTGUN,"6 OL, 1 RB, 1 TE, 2 WR",8,"4 DL, 3 LB, 4 DB",left,2019-09-29T20:46:56.000Z,2019-09-29T20:46:55.000Z,5-10,195,01/10/1996,Washington,FS,ARI,SEA,4,State Farm Stadium,"Glendale, AZ",Dome,Grass,N/A Indoors,,0,,
55153,2019092908,20190929081057,home,77.9,11.02,2.69,4.04,0.25,84.49,277.32,2562318,Byron Murphy,33,2019,25,2,13:49:00,SEA,1,10,SEA,3,10,2558865,SHOTGUN,"6 OL, 1 RB, 1 TE, 2 WR",8,"4 DL, 3 LB, 4 DB",left,2019-09-29T20:46:56.000Z,2019-09-29T20:46:55.000Z,5-11,190,01/18/1998,Washington,DB,ARI,SEA,4,State Farm Stadium,"Glendale, AZ",Dome,Grass,N/A Indoors,,0,,
