,GameId,PlayId,Team,X,Y,S,A,Dis,Orientation,Dir,NflId,DisplayName,JerseyNumber,Season,YardLine,Quarter,GameClock,PossessionTeam,Down,Distance,FieldPosition,HomeScoreBeforePlay,VisitorScoreBeforePlay,NflIdRusher,OffenseFormation,OffensePersonnel,DefendersInTheBox,DefensePersonnel,PlayDirection,TimeHandoff,TimeSnap,PlayerHeight,PlayerWeight,PlayerBirthDate,PlayerCollegeName,Position,HomeTeamAbbr,VisitorTeamAbbr,Week,Stadium,Location,StadiumType,Turf,GameWeather,Temperature,Humidity,WindSpeed,WindDirection
22528,2019091506,20190915063437,away,34.22,30.72,3.98,0.81,0.4,241.19,165.96,2538176,Ty Nsekhe,77,2019,23,4,08:02:00,BUF,1,10,NYG,14,21,2562734,SINGLEBACK,"1 RB, 1 TE, 3 WR",6,"2 DL, 4 LB, 5 DB",left,2019-09-15T19:41:22.000Z,2019-09-15T19:41:21.000Z,6-8,330,10/27/1985,Texas State,T,NYG,BUF,2,MetLife Stadium,"East Rutherford, NJ",,UBU Speed Series-S5-M,Fair,79.0,48,5,NNW
22529,2019091506,20190915063437,away,33.52,29.5,2.3,0.84,0.24,206.19,177.96,2552343,Jon Feliciano,76,2019,23,4,08:02:00,BUF,1,10,NYG,14,21,2562734,SINGLEBACK,"1 RB, 1 TE, 3 WR",6,"2 DL, 4 LB, 5 DB",left,2019-09-15T19:41:22.000Z,2019-09-15T19:41:21.000Z,6-4,323,02/10/1992,Miami,G,NYG,BUF,2,MetLife Stadium,"East Rutherford, NJ",,UBU Speed Series-S5-M,Fair,79.0,48,5,NNW
22530,2019091506,20190915063437,away,32.01,27.47,3.28,0.96,0.32,195.22,219.46,2552668,Mitch Morse,60,2019,23,4,08:02:00,BUF,1,10,NYG,14,21,2562734,SINGLEBACK,"1 RB, 1 TE, 3 WR",6,"2 DL, 4 LB, 5 DB",left,2019-09-15T19:41:22.000Z,2019-09-15T19:41:21.000Z,6-6,305,04/21/1992,Missouri,C,NYG,BUF,2,MetLife Stadium,"East Rutherford, NJ",,UBU Speed Series-S5-M,Fair,79.0,48,5,NNW
22531,2019091506,20190915063437,away,34.28,25.77,3.81,1.51,0.39,241.1,169.67,2553824,Quinton Spain,67,2019,23,4,08:02:00,BUF,1,10,NYG,14,21,2562734,SINGLEBACK,"1 RB, 1 TE, 3 WR",6,"2 DL, 4 LB, 5 DB",left,2019-09-15T19:41:22.000Z,2019-09-15T19:41:21.000Z,6-4,330,08/07/1991,West Virginia,G,NYG,BUF,2,MetLife Stadium,"East Rutherford, NJ",,UBU Speed Series-S5-M,Fair,79.0,48,5,NNW
22532,2019091506,20190915063437,away,32.52,23.0,3.12,2.09,0.3,289.13,295.3,2557863,Zay Jones,11,2019,23,4,08:02:00,BUF,1,10,NYG,14,21,2562734,SINGLEBACK,"1 RB, 1 TE, 3 WR",6,"2 DL, 4 LB, 5 DB",left,2019-09-15T19:41:22.000Z,2019-09-15T19:41:21.000Z,6-2,200,03/30/1995,East Carolina,WR,NYG,BUF,2,MetLife Stadium,"East Rutherford, NJ",,UBU Speed Series-S5-M,Fair,79.0,48,5,NNW
22533,2019091506,20190915063437,away,34.6,24.27,3.94,1.87,0.4,91.5,163.82,2557875,Dion Dawkins,73,2019,23,4,08:02:00,BUF,1,10,NYG,14,21,2562734,SINGLEBACK,"1 RB, 1 TE, 3 WR",6,"2 DL, 4 LB, 5 DB",left,2019-09-15T19:41:22.000Z,2019-09-15T19:41:21.000Z,6-5,320,04/26/1994,Temple,T,NYG,BUF,2,MetLife Stadium,"East Rutherford, NJ",,UBU Speed Series-S5-M,Fair,79.0,48,5,NNW
22534,2019091506,20190915063437,away,36.34,32.58,8.1,1.82,0.82,2.66,4.38,2558129,Isaiah McKenzie,19,2019,23,4,08:02:00,BUF,1,10,NYG,14,21,2562734,SINGLEBACK,"1 RB, 1 TE, 3 WR",6,"2 DL, 4 LB, 5 DB",left,2019-09-15T19:41:22.000Z,2019-09-15T19:41:21.000Z,5-8,173,04/09/1995,Georgia,WR,NYG,BUF,2,MetLife Stadium,"East Rutherford, NJ",,UBU Speed Series-S5-M,Fair,79.0,48,5,NNW
22535,2019091506,20190915063437,away,32.97,43.34,3.16,3.72,0.32,276.61,295.46,2560729,Robert Foster,16,2019,23,4,08:02:00,BUF,1,10,NYG,14,21,2562734,SINGLEBACK,"1 RB, 1 TE, 3 WR",6,"2 DL, 4 LB, 5 DB",left,2019-09-15T19:41:22.000Z,2019-09-15T19:41:21.000Z,6-2,194,05/07/1994,Alabama,WR,NYG,BUF,2,MetLife Stadium,"East Rutherford, NJ",,UBU Speed Series-S5-M,Fair,79.0,48,5,NNW
22536,2019091506,20190915063437,away,35.47,29.3,2.7,1.25,0.26,79.46,105.54,2560955,Josh Allen,17,2019,23,4,08:02:00,BUF,1,10,NYG,14,21,2562734,SINGLEBACK,"1 RB, 1 TE, 3 WR",6,"2 DL, 4 LB, 5 DB",left,2019-09-15T19:41:22.000Z,2019-09-15T19:41:21.000Z,6-5,237,05/21/1996,Wyoming,QB,NYG,BUF,2,MetLife Stadium,"East Rutherford, NJ",,UBU Speed Series-S5-M,Fair,79.0,48,5,NNW
22537,2019091506,20190915063437,away,33.38,24.24,1.34,3.1,0.13,265.66,225.95,2562681,Dawson Knox,88,2019,23,4,08:02:00,BUF,1,10,NYG,14,21,2562734,SINGLEBACK,"1 RB, 1 TE, 3 WR",6,"2 DL, 4 LB, 5 DB",left,2019-09-15T19:41:22.000Z,2019-09-15T19:41:21.000Z,6-4,254,11/14/1996,Mississippi,TE,NYG,BUF,2,MetLife Stadium,"East Rutherford, NJ",,UBU Speed Series-S5-M,Fair,79.0,48,5,NNW
22538,2019091506,20190915063437,away,39.82,27.78,4.75,4.36,0.46,280.95,179.5,2562734,Devin Singletary,26,2019,23,4,08:02:00,BUF,1,10,NYG,14,21,2562734,SINGLEBACK,"1 RB, 1 TE, 3 WR",6,"2 DL, 4 LB, 5 DB",left,2019-09-15T19:41:22.000Z,2019-09-15T19:41:21.000Z,5-7,203,09/03/1997,Florida Atlantic,RB,NYG,BUF,2,MetLife Stadium,"East Rutherford, NJ",,UBU Speed Series-S5-M,Fair,79.0,48,5,NNW
22539,2019091506,20190915063437,home,16.3,28.99,0.05,0.05,0.01,98.58,318.31,2495807,Antoine Bethea,41,2019,23,4,08:02:00,BUF,1,10,NYG,14,21,2562734,SINGLEBACK,"1 RB, 1 TE, 3 WR",6,"2 DL, 4 LB, 5 DB",left,2019-09-15T19:41:22.000Z,2019-09-15T19:41:21.000Z,5-11,206,07/27/1984,Howard,FS,NYG,BUF,2,MetLife Stadium,"East Rutherford, NJ",,UBU Speed Series-S5-M,Fair,79.0,48,5,NNW
22540,2019091506,20190915063437,home,28.52,20.48,2.21,3.33,0.2,79.27,115.5,2532875,Janoris Jenkins,20,2019,23,4,08:02:00,BUF,1,10,NYG,14,21,2562734,SINGLEBACK,"1 RB, 1 TE, 3 WR",6,"2 DL, 4 LB, 5 DB",left,2019-09-15T19:41:22.000Z,2019-09-15T19:41:21.000Z,5-10,190,10/29/1988,North Alabama,CB,NYG,BUF,2,MetLife Stadium,"East Rutherford, NJ",,UBU Speed Series-S5-M,Fair,79.0,48,5,NNW
22541,2019091506,20190915063437,home,31.39,27.66,4.47,0.93,0.44,106.23,172.28,2540143,Alec Ogletree,47,2019,23,4,08:02:00,BUF,1,10,NYG,14,21,2562734,SINGLEBACK,"1 RB, 1 TE, 3 WR",6,"2 DL, 4 LB, 5 DB",left,2019-09-15T19:41:22.000Z,2019-09-15T19:41:21.000Z,6-3,235,09/25/1991,Georgia,LB,NYG,BUF,2,MetLife Stadium,"East Rutherford, NJ",,UBU Speed Series-S5-M,Fair,79.0,48,5,NNW
22542,2019091506,20190915063437,home,33.6,28.85,2.59,1.19,0.26,86.52,115.52,2557846,Dalvin Tomlinson,94,2019,23,4,08:02:00,BUF,1,10,NYG,14,21,2562734,SINGLEBACK,"1 RB, 1 TE, 3 WR",6,"2 DL, 4 LB, 5 DB",left,2019-09-15T19:41:22.000Z,2019-09-15T19:41:21.000Z,6-3,318,02/28/1994,Alabama,DT,NYG,BUF,2,MetLife Stadium,"East Rutherford, NJ",,UBU Speed Series-S5-M,Fair,79.0,48,5,NNW
22543,2019091506,20190915063437,home,25.52,25.53,0.54,1.31,0.05,103.82,109.56,2557980,Jabrill Peppers,21,2019,23,4,08:02:00,BUF,1,10,NYG,14,21,2562734,SINGLEBACK,"1 RB, 1 TE, 3 WR",6,"2 DL, 4 LB, 5 DB",left,2019-09-15T19:41:22.000Z,2019-09-15T19:41:21.000Z,5-11,213,10/04/1995,Michigan,FS,NYG,BUF,2,MetLife Stadium,"East Rutherford, NJ",,UBU Speed Series-S5-M,Fair,79.0,48,5,NNW
22544,2019091506,20190915063437,home,33.62,30.14,2.45,1.76,0.25,166.95,160.09,2560740,B.J. Hill,95,2019,23,4,08:02:00,BUF,1,10,NYG,14,21,2562734,SINGLEBACK,"1 RB, 1 TE, 3 WR",6,"2 DL, 4 LB, 5 DB",left,2019-09-15T19:41:22.000Z,2019-09-15T19:41:21.000Z,6-3,311,04/20/1995,North Carolina State,DT,NYG,BUF,2,MetLife Stadium,"East Rutherford, NJ",,UBU Speed Series-S5-M,Fair,79.0,48,5,NNW
22545,2019091506,20190915063437,home,28.43,29.53,6.74,2.53,0.68,32.93,346.73,2561001,Grant Haley,34,2019,23,4,08:02:00,BUF,1,10,NYG,14,21,2562734,SINGLEBACK,"1 RB, 1 TE, 3 WR",6,"2 DL, 4 LB, 5 DB",left,2019-09-15T19:41:22.000Z,2019-09-15T19:41:21.000Z,5-9,190,01/06/1996,Penn State,CB,NYG,BUF,2,MetLife Stadium,"East Rutherford, NJ",,UBU Speed Series-S5-M,Fair,79.0,48,5,NNW
22546,2019091506,20190915063437,home,32.48,24.43,1.84,2.82,0.17,104.86,163.29,2561015,Lorenzo Carter,59,2019,23,4,08:02:00,BUF,1,10,NYG,14,21,2562734,SINGLEBACK,"1 RB, 1 TE, 3 WR",6,"2 DL, 4 LB, 5 DB",left,2019-09-15T19:41:22.000Z,2019-09-15T19:41:21.000Z,6-5,250,12/10/1995,Georgia,OLB,NYG,BUF,2,MetLife Stadium,"East Rutherford, NJ",,UBU Speed Series-S5-M,Fair,79.0,48,5,NNW
22547,2019091506,20190915063437,home,31.42,43.33,1.96,2.34,0.2,84.54,296.85,2562227,Deandre Baker,27,2019,23,4,08:02:00,BUF,1,10,NYG,14,21,2562734,SINGLEBACK,"1 RB, 1 TE, 3 WR",6,"2 DL, 4 LB, 5 DB",left,2019-09-15T19:41:22.000Z,2019-09-15T19:41:21.000Z,5-11,180,09/04/1997,Georgia,CB,NYG,BUF,2,MetLife Stadium,"East Rutherford, NJ",,UBU Speed Series-S5-M,Fair,79.0,48,5,NNW
22548,2019091506,20190915063437,home,33.24,34.25,2.64,2.56,0.25,104.15,139.39,2562613,Oshane Ximines,53,2019,23,4,08:02:00,BUF,1,10,NYG,14,21,2562734,SINGLEBACK,"1 RB, 1 TE, 3 WR",6,"2 DL, 4 LB, 5 DB",left,2019-09-15T19:41:22.000Z,2019-09-15T19:41:21.000Z,6-4,250,12/07/1996,Old Dominion,LB,NYG,BUF,2,MetLife Stadium,"East Rutherford, NJ",,UBU Speed Series-S5-M,Fair,79.0,48,5,NNW
22549,2019091506,20190915063437,home,30.54,26.58,3.03,4.73,0.28,96.64,148.84,2562638,Ryan Connelly,57,2019,23,4,08:02:00,BUF,1,10,NYG,14,21,2562734,SINGLEBACK,"1 RB, 1 TE, 3 WR",6,"2 DL, 4 LB, 5 DB",left,2019-09-15T19:41:22.000Z,2019-09-15T19:41:21.000Z,6-2,236,10/03/1995,Wisconsin,LB,NYG,BUF,2,MetLife Stadium,"East Rutherford, NJ",,UBU Speed Series-S5-M,Fair,79.0,48,5,NNW
