,GameId,PlayId,Team,X,Y,S,A,Dis,Orientation,Dir,NflId,DisplayName,JerseyNumber,Season,YardLine,Quarter,GameClock,PossessionTeam,Down,Distance,FieldPosition,HomeScoreBeforePlay,VisitorScoreBeforePlay,NflIdRusher,OffenseFormation,OffensePersonnel,DefendersInTheBox,DefensePersonnel,PlayDirection,TimeHandoff,TimeSnap,PlayerHeight,PlayerWeight,PlayerBirthDate,PlayerCollegeName,Position,HomeTeamAbbr,VisitorTeamAbbr,Week,Stadium,Location,StadiumType,Turf,GameWeather,Temperature,Humidity,WindSpeed,WindDirection
58168,2019092911,20190929112498,away,61.38,30.44,0.51,1.17,0.06,240.02,149.73,2543729,Brandon Linder,65,2019,49,3,11:58:00,JAX,1,10,JAX,17,6,2557973,I_FORM,"1 RB, 2 TE, 2 WR",7,"3 DL, 4 LB, 4 DB",left,2019-09-29T22:16:57.000Z,2019-09-29T22:16:55.000Z,6-6,315,01/25/1992,Miami,C,DEN,JAX,4,Empower Field at Mile High,"Denver, CO",Outdoor,Grass,Sunny,87.0,11,14 Gusting to 24,Southwest
58169,2019092911,20190929112498,away,61.59,29.09,0.47,1.0,0.05,275.91,303.98,2550589,Andrew Norwell,68,2019,49,3,11:58:00,JAX,1,10,JAX,17,6,2557973,I_FORM,"1 RB, 2 TE, 2 WR",7,"3 DL, 4 LB, 4 DB",left,2019-09-29T22:16:57.000Z,2019-09-29T22:16:55.000Z,6-6,325,10/25/1991,Ohio State,G,DEN,JAX,4,Empower Field at Mile High,"Denver, CO",Outdoor,Grass,Sunny,87.0,11,14 Gusting to 24,Southwest
58170,2019092911,20190929112498,away,62.47,28.47,3.7,1.18,0.39,204.08,185.07,2552330,A.J. Cann,60,2019,49,3,11:58:00,JAX,1,10,JAX,17,6,2557973,I_FORM,"1 RB, 2 TE, 2 WR",7,"3 DL, 4 LB, 4 DB",left,2019-09-29T22:16:57.000Z,2019-09-29T22:16:55.000Z,6-3,325,10/23/1991,South Carolina,G,DEN,JAX,4,Empower Field at Mile High,"Denver, CO",Outdoor,Grass,Sunny,87.0,11,14 Gusting to 24,Southwest
58171,2019092911,20190929112498,away,59.18,43.56,4.86,3.05,0.47,215.35,223.48,2552652,Chris Conley,18,2019,49,3,11:58:00,JAX,1,10,JAX,17,6,2557973,I_FORM,"1 RB, 2 TE, 2 WR",7,"3 DL, 4 LB, 4 DB",left,2019-09-29T22:16:57.000Z,2019-09-29T22:16:55.000Z,6-3,205,10/25/1992,Georgia,WR,DEN,JAX,4,Empower Field at Mile High,"Denver, CO",Outdoor,Grass,Sunny,87.0,11,14 Gusting to 24,Southwest
58172,2019092911,20190929112498,away,61.07,26.48,1.72,0.97,0.17,337.4,325.91,2553454,Geoff Swaim,87,2019,49,3,11:58:00,JAX,1,10,JAX,17,6,2557973,I_FORM,"1 RB, 2 TE, 2 WR",7,"3 DL, 4 LB, 4 DB",left,2019-09-29T22:16:57.000Z,2019-09-29T22:16:55.000Z,6-4,260,09/16/1993,Texas,TE,DEN,JAX,4,Empower Field at Mile High,"Denver, CO",Outdoor,Grass,Sunny,87.0,11,14 Gusting to 24,Southwest
58173,2019092911,20190929112498,away,63.03,29.67,4.46,1.41,0.44,218.0,214.27,2556365,Seth DeValve,88,2019,49,3,11:58:00,JAX,1,10,JAX,17,6,2557973,I_FORM,"1 RB, 2 TE, 2 WR",7,"3 DL, 4 LB, 4 DB",left,2019-09-29T22:16:57.000Z,2019-09-29T22:16:55.000Z,6-3,245,01/29/1993,Princeton,TE,DEN,JAX,4,Empower Field at Mile High,"Denver, CO",Outdoor,Grass,Sunny,87.0,11,14 Gusting to 24,Southwest
58174,2019092911,20190929112498,away,66.8,30.0,3.46,3.86,0.33,252.54,249.29,2557973,Leonard Fournette,27,2019,49,3,11:58:00,JAX,1,10,JAX,17,6,2557973,I_FORM,"1 RB, 2 TE, 2 WR",7,"3 DL, 4 LB, 4 DB",left,2019-09-29T22:16:57.000Z,2019-09-29T22:16:55.000Z,6-0,228,01/18/1995,Louisiana State,RB,DEN,JAX,4,Empower Field at Mile High,"Denver, CO",Outdoor,Grass,Sunny,87.0,11,14 Gusting to 24,Southwest
58175,2019092911,20190929112498,away,60.76,28.12,2.26,1.61,0.23,316.55,295.2,2558004,Cam Robinson,74,2019,49,3,11:58:00,JAX,1,10,JAX,17,6,2557973,I_FORM,"1 RB, 2 TE, 2 WR",7,"3 DL, 4 LB, 4 DB",left,2019-09-29T22:16:57.000Z,2019-09-29T22:16:55.000Z,6-6,320,10/09/1995,Alabama,T,DEN,JAX,4,Empower Field at Mile High,"Denver, CO",Outdoor,Grass,Sunny,87.0,11,14 Gusting to 24,Southwest
58176,2019092911,20190929112498,away,60.68,21.22,4.4,2.43,0.43,310.76,302.81,2561018,D.J. Chark,17,2019,49,3,11:58:00,JAX,1,10,JAX,17,6,2557973,I_FORM,"1 RB, 2 TE, 2 WR",7,"3 DL, 4 LB, 4 DB",left,2019-09-29T22:16:57.000Z,2019-09-29T22:16:55.000Z,6-4,198,09/23/1996,Louisiana State,WR,DEN,JAX,4,Empower Field at Mile High,"Denver, CO",Outdoor,Grass,Sunny,87.0,11,14 Gusting to 24,Southwest
58177,2019092911,20190929112498,away,62.02,31.5,1.1,1.99,0.11,343.58,130.96,2562756,Jawaan Taylor,75,2019,49,3,11:58:00,JAX,1,10,JAX,17,6,2557973,I_FORM,"1 RB, 2 TE, 2 WR",7,"3 DL, 4 LB, 4 DB",left,2019-09-29T22:16:57.000Z,2019-09-29T22:16:55.000Z,6-5,312,11/25/1997,Florida,T,DEN,JAX,4,Empower Field at Mile High,"Denver, CO",Outdoor,Grass,Sunny,87.0,11,14 Gusting to 24,Southwest
58178,2019092911,20190929112498,away,65.74,30.66,4.9,0.6,0.48,117.66,72.35,2562796,Gardner Minshew,15,2019,49,3,11:58:00,JAX,1,10,JAX,17,6,2557973,I_FORM,"1 RB, 2 TE, 2 WR",7,"3 DL, 4 LB, 4 DB",left,2019-09-29T22:16:57.000Z,2019-09-29T22:16:55.000Z,6-1,225,05/16/1996,Washington State,QB,DEN,JAX,4,Empower Field at Mile High,"Denver, CO",Outdoor,Grass,Sunny,87.0,11,14 Gusting to 24,Southwest
58179,2019092911,20190929112498,home,52.25,44.21,1.16,2.56,0.11,135.87,214.05,2530510,Chris Harris,25,2019,49,3,11:58:00,JAX,1,10,JAX,17,6,2557973,I_FORM,"1 RB, 2 TE, 2 WR",7,"3 DL, 4 LB, 4 DB",left,2019-09-29T22:16:57.000Z,2019-09-29T22:16:55.000Z,5-10,199,06/18/1989,Kansas,CB,DEN,JAX,4,Empower Field at Mile High,"Denver, CO",Outdoor,Grass,Sunny,87.0,11,14 Gusting to 24,Southwest
58180,2019092911,20190929112498,home,60.26,30.66,0.24,0.51,0.03,84.37,155.35,2549926,Shelby Harris,96,2019,49,3,11:58:00,JAX,1,10,JAX,17,6,2557973,I_FORM,"1 RB, 2 TE, 2 WR",7,"3 DL, 4 LB, 4 DB",left,2019-09-29T22:16:57.000Z,2019-09-29T22:16:55.000Z,6-2,290,08/11/1991,Illinois State,NT,DEN,JAX,4,Empower Field at Mile High,"Denver, CO",Outdoor,Grass,Sunny,87.0,11,14 Gusting to 24,Southwest
58181,2019092911,20190929112498,home,61.0,25.36,2.02,0.66,0.2,40.52,41.11,2550167,Corey Nelson,56,2019,49,3,11:58:00,JAX,1,10,JAX,17,6,2557973,I_FORM,"1 RB, 2 TE, 2 WR",7,"3 DL, 4 LB, 4 DB",left,2019-09-29T22:16:57.000Z,2019-09-29T22:16:55.000Z,6-1,226,04/22/1992,Oklahoma,ILB,DEN,JAX,4,Empower Field at Mile High,"Denver, CO",Outdoor,Grass,Sunny,87.0,11,14 Gusting to 24,Southwest
58182,2019092911,20190929112498,home,58.77,26.95,2.42,1.2,0.25,78.7,130.93,2550930,Todd Davis,51,2019,49,3,11:58:00,JAX,1,10,JAX,17,6,2557973,I_FORM,"1 RB, 2 TE, 2 WR",7,"3 DL, 4 LB, 4 DB",left,2019-09-29T22:16:57.000Z,2019-09-29T22:16:55.000Z,6-1,230,05/17/1992,Sacramento State,ILB,DEN,JAX,4,Empower Field at Mile High,"Denver, CO",Outdoor,Grass,Sunny,87.0,11,14 Gusting to 24,Southwest
58183,2019092911,20190929112498,home,51.32,18.85,1.55,3.44,0.14,60.23,337.01,2553790,DeVante Bausby,41,2019,49,3,11:58:00,JAX,1,10,JAX,17,6,2557973,I_FORM,"1 RB, 2 TE, 2 WR",7,"3 DL, 4 LB, 4 DB",left,2019-09-29T22:16:57.000Z,2019-09-29T22:16:55.000Z,6-2,190,01/15/1993,Pittsburg State,CB,DEN,JAX,4,Empower Field at Mile High,"Denver, CO",Outdoor,Grass,Sunny,87.0,11,14 Gusting to 24,Southwest
58184,2019092911,20190929112498,home,52.45,35.63,2.27,4.5,0.21,88.68,122.36,2555550,Justin Simmons,31,2019,49,3,11:58:00,JAX,1,10,JAX,17,6,2557973,I_FORM,"1 RB, 2 TE, 2 WR",7,"3 DL, 4 LB, 4 DB",left,2019-09-29T22:16:57.000Z,2019-09-29T22:16:55.000Z,6-2,202,11/19/1993,Boston College,SS,DEN,JAX,4,Empower Field at Mile High,"Denver, CO",Outdoor,Grass,Sunny,87.0,11,14 Gusting to 24,Southwest
58185,2019092911,20190929112498,home,53.88,25.69,4.17,3.63,0.4,97.61,82.78,2556278,Will Parks,34,2019,49,3,11:58:00,JAX,1,10,JAX,17,6,2557973,I_FORM,"1 RB, 2 TE, 2 WR",7,"3 DL, 4 LB, 4 DB",left,2019-09-29T22:16:57.000Z,2019-09-29T22:16:55.000Z,6-1,194,07/29/1994,Arizona,FS,DEN,JAX,4,Empower Field at Mile High,"Denver, CO",Outdoor,Grass,Sunny,87.0,11,14 Gusting to 24,Southwest
58186,2019092911,20190929112498,home,60.85,29.4,0.29,1.75,0.03,118.7,290.41,2557894,DeMarcus Walker,57,2019,49,3,11:58:00,JAX,1,10,JAX,17,6,2557973,I_FORM,"1 RB, 2 TE, 2 WR",7,"3 DL, 4 LB, 4 DB",left,2019-09-29T22:16:57.000Z,2019-09-29T22:16:55.000Z,6-4,280,09/30/1994,Florida State,DE,DEN,JAX,4,Empower Field at Mile High,"Denver, CO",Outdoor,Grass,Sunny,87.0,11,14 Gusting to 24,Southwest
58187,2019092911,20190929112498,home,60.58,26.9,2.27,0.85,0.23,87.57,359.98,2561020,Bradley Chubb,55,2019,49,3,11:58:00,JAX,1,10,JAX,17,6,2557973,I_FORM,"1 RB, 2 TE, 2 WR",7,"3 DL, 4 LB, 4 DB",left,2019-09-29T22:16:57.000Z,2019-09-29T22:16:55.000Z,6-4,275,06/24/1996,North Carolina State,DE,DEN,JAX,4,Empower Field at Mile High,"Denver, CO",Outdoor,Grass,Sunny,87.0,11,14 Gusting to 24,Southwest
58188,2019092911,20190929112498,home,61.3,32.7,1.93,0.9,0.2,130.6,66.88,2562412,Dre'Mont Jones,93,2019,49,3,11:58:00,JAX,1,10,JAX,17,6,2557973,I_FORM,"1 RB, 2 TE, 2 WR",7,"3 DL, 4 LB, 4 DB",left,2019-09-29T22:16:57.000Z,2019-09-29T22:16:55.000Z,6-3,281,01/05/1997,Ohio State,DL,DEN,JAX,4,Empower Field at Mile High,"Denver, CO",Outdoor,Grass,Sunny,87.0,11,14 Gusting to 24,Southwest
58189,2019092911,20190929112498,home,60.36,35.31,1.3,1.82,0.13,131.52,176.13,2562825,Malik Reed,59,2019,49,3,11:58:00,JAX,1,10,JAX,17,6,2557973,I_FORM,"1 RB, 2 TE, 2 WR",7,"3 DL, 4 LB, 4 DB",left,2019-09-29T22:16:57.000Z,2019-09-29T22:16:55.000Z,6-2,235,08/05/1996,Nevada,LB,DEN,JAX,4,Empower Field at Mile High,"Denver, CO",Outdoor,Grass,Sunny,87.0,11,14 Gusting to 24,Southwest
