,GameId,PlayId,Team,X,Y,S,A,Dis,Orientation,Dir,NflId,DisplayName,JerseyNumber,Season,YardLine,Quarter,GameClock,PossessionTeam,Down,Distance,FieldPosition,HomeScoreBeforePlay,VisitorScoreBeforePlay,NflIdRusher,OffenseFormation,OffensePersonnel,DefendersInTheBox,DefensePersonnel,PlayDirection,TimeHandoff,TimeSnap,PlayerHeight,PlayerWeight,PlayerBirthDate,PlayerCollegeName,Position,HomeTeamAbbr,VisitorTeamAbbr,Week,Stadium,Location,StadiumType,Turf,GameWeather,Temperature,Humidity,WindSpeed,WindDirection
60368,2019093000,20190930003365,away,83.12,24.94,1.69,1.16,0.17,256.13,191.79,496762,Geno Atkins,97,2019,27,4,06:37:00,PIT,3,4,CIN,24,3,2557978,SHOTGUN,"1 RB, 1 TE, 3 WR",7,"4 DL, 2 LB, 5 DB",right,2019-10-01T02:54:09.000Z,2019-10-01T02:54:08.000Z,6-1,300,03/28/1988,Georgia,DT,PIT,CIN,4,Heinz Field,Pittsburgh,Outdoor,Grass,Clear,76.0,72,1,From S
60369,2019093000,20190930003365,away,82.57,27.83,0.9,2.08,0.1,241.39,188.02,496780,Carlos Dunlap,96,2019,27,4,06:37:00,PIT,3,4,CIN,24,3,2557978,SHOTGUN,"1 RB, 1 TE, 3 WR",7,"4 DL, 2 LB, 5 DB",right,2019-10-01T02:54:09.000Z,2019-10-01T02:54:08.000Z,6-6,285,02/28/1989,Florida,DE,PIT,CIN,4,Heinz Field,Pittsburgh,Outdoor,Grass,Clear,76.0,72,1,From S
60370,2019093000,20190930003365,away,86.12,8.97,4.57,3.95,0.44,159.32,98.13,2533060,Dre Kirkpatrick,27,2019,27,4,06:37:00,PIT,3,4,CIN,24,3,2557978,SHOTGUN,"1 RB, 1 TE, 3 WR",7,"4 DL, 2 LB, 5 DB",right,2019-10-01T02:54:09.000Z,2019-10-01T02:54:08.000Z,6-2,190,10/26/1989,Alabama,CB,PIT,CIN,4,Heinz Field,Pittsburgh,Outdoor,Grass,Clear,76.0,72,1,From S
60371,2019093000,20190930003365,away,85.51,28.46,3.26,3.07,0.31,225.64,211.94,2539233,Shawn Williams,36,2019,27,4,06:37:00,PIT,3,4,CIN,24,3,2557978,SHOTGUN,"1 RB, 1 TE, 3 WR",7,"4 DL, 2 LB, 5 DB",right,2019-10-01T02:54:09.000Z,2019-10-01T02:54:08.000Z,6-0,210,05/13/1991,Georgia,SS,PIT,CIN,4,Heinz Field,Pittsburgh,Outdoor,Grass,Clear,76.0,72,1,From S
60372,2019093000,20190930003365,away,85.27,35.38,1.81,1.77,0.17,247.18,86.27,2539338,B.W. Webb,23,2019,27,4,06:37:00,PIT,3,4,CIN,24,3,2557978,SHOTGUN,"1 RB, 1 TE, 3 WR",7,"4 DL, 2 LB, 5 DB",right,2019-10-01T02:54:09.000Z,2019-10-01T02:54:08.000Z,5-11,190,05/03/1990,William & Mary,CB,PIT,CIN,4,Heinz Field,Pittsburgh,Outdoor,Grass,Clear,76.0,72,1,From S
60373,2019093000,20190930003365,away,84.23,24.22,0.91,1.75,0.06,252.46,147.26,2543814,Preston Brown,52,2019,27,4,06:37:00,PIT,3,4,CIN,24,3,2557978,SHOTGUN,"1 RB, 1 TE, 3 WR",7,"4 DL, 2 LB, 5 DB",right,2019-10-01T02:54:09.000Z,2019-10-01T02:54:08.000Z,6-1,251,10/27/1992,Louisville,MLB,PIT,CIN,4,Heinz Field,Pittsburgh,Outdoor,Grass,Clear,76.0,72,1,From S
60374,2019093000,20190930003365,away,82.89,21.21,3.29,1.13,0.32,267.06,218.22,2555528,Nick Vigil,59,2019,27,4,06:37:00,PIT,3,4,CIN,24,3,2557978,SHOTGUN,"1 RB, 1 TE, 3 WR",7,"4 DL, 2 LB, 5 DB",right,2019-10-01T02:54:09.000Z,2019-10-01T02:54:08.000Z,6-2,235,08/20/1993,Utah State,OLB,PIT,CIN,4,Heinz Field,Pittsburgh,Outdoor,Grass,Clear,76.0,72,1,From S
60375,2019093000,20190930003365,away,84.76,42.53,3.24,4.62,0.3,207.65,110.63,2556367,William Jackson,22,2019,27,4,06:37:00,PIT,3,4,CIN,24,3,2557978,SHOTGUN,"1 RB, 1 TE, 3 WR",7,"4 DL, 2 LB, 5 DB",right,2019-10-01T02:54:09.000Z,2019-10-01T02:54:08.000Z,6-0,196,10/27/1992,Houston,CB,PIT,CIN,4,Heinz Field,Pittsburgh,Outdoor,Grass,Clear,76.0,72,1,From S
60376,2019093000,20190930003365,away,81.12,17.98,3.03,1.61,0.3,302.1,249.5,2560745,Sam Hubbard,94,2019,27,4,06:37:00,PIT,3,4,CIN,24,3,2557978,SHOTGUN,"1 RB, 1 TE, 3 WR",7,"4 DL, 2 LB, 5 DB",right,2019-10-01T02:54:09.000Z,2019-10-01T02:54:08.000Z,6-5,265,06/29/1995,Ohio State,DE,PIT,CIN,4,Heinz Field,Pittsburgh,Outdoor,Grass,Clear,76.0,72,1,From S
60377,2019093000,20190930003365,away,98.91,24.26,1.08,2.44,0.11,258.23,160.51,2560970,Jessie Bates,30,2019,27,4,06:37:00,PIT,3,4,CIN,24,3,2557978,SHOTGUN,"1 RB, 1 TE, 3 WR",7,"4 DL, 2 LB, 5 DB",right,2019-10-01T02:54:09.000Z,2019-10-01T02:54:08.000Z,6-1,200,02/26/1997,Wake Forest,S,PIT,CIN,4,Heinz Field,Pittsburgh,Outdoor,Grass,Clear,76.0,72,1,From S
60378,2019093000,20190930003365,away,81.32,21.4,2.18,1.01,0.22,266.24,272.32,2560979,Andrew Brown,93,2019,27,4,06:37:00,PIT,3,4,CIN,24,3,2557978,SHOTGUN,"1 RB, 1 TE, 3 WR",7,"4 DL, 2 LB, 5 DB",right,2019-10-01T02:54:09.000Z,2019-10-01T02:54:08.000Z,6-3,290,12/30/1995,Virginia,DE,PIT,CIN,4,Heinz Field,Pittsburgh,Outdoor,Grass,Clear,76.0,72,1,From S
60379,2019093000,20190930003365,home,82.61,23.74,1.9,0.73,0.19,40.1,137.13,81821,Ramon Foster,73,2019,27,4,06:37:00,PIT,3,4,CIN,24,3,2557978,SHOTGUN,"1 RB, 1 TE, 3 WR",7,"4 DL, 2 LB, 5 DB",right,2019-10-01T02:54:09.000Z,2019-10-01T02:54:08.000Z,6-5,328,01/07/1986,Tennessee,G,PIT,CIN,4,Heinz Field,Pittsburgh,Outdoor,Grass,Clear,76.0,72,1,From S
60380,2019093000,20190930003365,home,80.86,22.0,2.44,0.93,0.26,128.13,233.73,497042,Maurkice Pouncey,53,2019,27,4,06:37:00,PIT,3,4,CIN,24,3,2557978,SHOTGUN,"1 RB, 1 TE, 3 WR",7,"4 DL, 2 LB, 5 DB",right,2019-10-01T02:54:09.000Z,2019-10-01T02:54:08.000Z,6-4,304,07/24/1989,Florida,C,PIT,CIN,4,Heinz Field,Pittsburgh,Outdoor,Grass,Clear,76.0,72,1,From S
60381,2019093000,20190930003365,home,81.11,20.85,1.98,1.53,0.19,68.22,204.26,2533043,David DeCastro,66,2019,27,4,06:37:00,PIT,3,4,CIN,24,3,2557978,SHOTGUN,"1 RB, 1 TE, 3 WR",7,"4 DL, 2 LB, 5 DB",right,2019-10-01T02:54:09.000Z,2019-10-01T02:54:08.000Z,6-5,316,01/11/1990,Stanford,G,PIT,CIN,4,Heinz Field,Pittsburgh,Outdoor,Grass,Clear,76.0,72,1,From S
60382,2019093000,20190930003365,home,82.31,24.54,1.9,1.18,0.21,59.4,162.15,2550130,Alejandro Villanueva,78,2019,27,4,06:37:00,PIT,3,4,CIN,24,3,2557978,SHOTGUN,"1 RB, 1 TE, 3 WR",7,"4 DL, 2 LB, 5 DB",right,2019-10-01T02:54:09.000Z,2019-10-01T02:54:08.000Z,6-9,320,09/22/1988,Army,T,PIT,CIN,4,Heinz Field,Pittsburgh,Outdoor,Grass,Clear,76.0,72,1,From S
60383,2019093000,20190930003365,home,80.79,19.09,1.81,0.66,0.19,170.3,216.0,2550561,Matt Feiler,71,2019,27,4,06:37:00,PIT,3,4,CIN,24,3,2557978,SHOTGUN,"1 RB, 1 TE, 3 WR",7,"4 DL, 2 LB, 5 DB",right,2019-10-01T02:54:09.000Z,2019-10-01T02:54:08.000Z,6-6,330,07/07/1992,Bloomsburg,T,PIT,CIN,4,Heinz Field,Pittsburgh,Outdoor,Grass,Clear,76.0,72,1,From S
60384,2019093000,20190930003365,home,81.81,27.19,1.19,0.46,0.12,57.6,137.26,2555289,Nick Vannett,88,2019,27,4,06:37:00,PIT,3,4,CIN,24,3,2557978,SHOTGUN,"1 RB, 1 TE, 3 WR",7,"4 DL, 2 LB, 5 DB",right,2019-10-01T02:54:09.000Z,2019-10-01T02:54:08.000Z,6-6,261,03/06/1993,Ohio State,TE,PIT,CIN,4,Heinz Field,Pittsburgh,Outdoor,Grass,Clear,76.0,72,1,From S
60385,2019093000,20190930003365,home,78.03,21.03,0.6,1.7,0.05,100.57,96.29,2557978,James Conner,30,2019,27,4,06:37:00,PIT,3,4,CIN,24,3,2557978,SHOTGUN,"1 RB, 1 TE, 3 WR",7,"4 DL, 2 LB, 5 DB",right,2019-10-01T02:54:09.000Z,2019-10-01T02:54:08.000Z,6-1,233,05/05/1995,Pittsburgh,RB,PIT,CIN,4,Heinz Field,Pittsburgh,Outdoor,Grass,Clear,76.0,72,1,From S
60386,2019093000,20190930003365,home,83.35,34.7,3.96,1.73,0.39,53.09,84.95,2558149,JuJu Smith-Schuster,19,2019,27,4,06:37:00,PIT,3,4,CIN,24,3,2557978,SHOTGUN,"1 RB, 1 TE, 3 WR",7,"4 DL, 2 LB, 5 DB",right,2019-10-01T02:54:09.000Z,2019-10-01T02:54:08.000Z,6-1,215,11/22/1996,Southern California,WR,PIT,CIN,4,Heinz Field,Pittsburgh,Outdoor,Grass,Clear,76.0,72,1,From S
60387,2019093000,20190930003365,home,77.61,21.99,3.52,2.99,0.33,183.87,211.27,2560860,Mason Rudolph,2,2019,27,4,06:37:00,PIT,3,4,CIN,24,3,2557978,SHOTGUN,"1 RB, 1 TE, 3 WR",7,"4 DL, 2 LB, 5 DB",right,2019-10-01T02:54:09.000Z,2019-10-01T02:54:08.000Z,6-5,235,07/17/1995,Oklahoma State,QB,PIT,CIN,4,Heinz Field,Pittsburgh,Outdoor,Grass,Clear,76.0,72,1,From S
60388,2019093000,20190930003365,home,84.82,7.83,5.33,3.73,0.52,96.05,115.53,2560920,James Washington,13,2019,27,4,06:37:00,PIT,3,4,CIN,24,3,2557978,SHOTGUN,"1 RB, 1 TE, 3 WR",7,"4 DL, 2 LB, 5 DB",right,2019-10-01T02:54:09.000Z,2019-10-01T02:54:08.000Z,5-11,213,04/02/1996,Oklahoma State,WR,PIT,CIN,4,Heinz Field,Pittsburgh,Outdoor,Grass,Clear,76.0,72,1,From S
60389,2019093000,20190930003365,home,83.78,42.04,3.62,1.66,0.35,98.16,116.25,2562674,Diontae Johnson,18,2019,27,4,06:37:00,PIT,3,4,CIN,24,3,2557978,SHOTGUN,"1 RB, 1 TE, 3 WR",7,"4 DL, 2 LB, 5 DB",right,2019-10-01T02:54:09.000Z,2019-10-01T02:54:08.000Z,5-10,181,07/05/1996,Toledo,WR,PIT,CIN,4,Heinz Field,Pittsburgh,Outdoor,Grass,Clear,76.0,72,1,From S
