,GameId,PlayId,Team,X,Y,S,A,Dis,Orientation,Dir,NflId,DisplayName,JerseyNumber,Season,YardLine,Quarter,GameClock,PossessionTeam,Down,Distance,FieldPosition,HomeScoreBeforePlay,VisitorScoreBeforePlay,NflIdRusher,OffenseFormation,OffensePersonnel,DefendersInTheBox,DefensePersonnel,PlayDirection,TimeHandoff,TimeSnap,PlayerHeight,PlayerWeight,PlayerBirthDate,PlayerCollegeName,Position,HomeTeamAbbr,VisitorTeamAbbr,Week,Stadium,Location,StadiumType,Turf,GameWeather,Temperature,Humidity,WindSpeed,WindDirection
55044,2019092908,20190929080736,away,87.89,29.99,1.31,1.53,0.12,94.69,5.96,2495252,K.J. Wright,50,2019,20,1,03:54:00,ARZ,1,15,ARZ,0,10,2553435,SHOTGUN,"1 RB, 1 TE, 3 WR",7,"4 DL, 3 LB, 4 DB",left,2019-09-29T20:32:42.000Z,2019-09-29T20:32:41.000Z,6-4,246,07/23/1989,Mississippi State,OLB,ARI,SEA,4,State Farm Stadium,"Glendale, AZ",Dome,Grass,N/A Indoors,,0,,
55045,2019092908,20190929080736,away,87.1,22.17,3.31,0.44,0.33,76.57,17.67,2532890,Mychal Kendricks,56,2019,20,1,03:54:00,ARZ,1,15,ARZ,0,10,2553435,SHOTGUN,"1 RB, 1 TE, 3 WR",7,"4 DL, 3 LB, 4 DB",left,2019-09-29T20:32:42.000Z,2019-09-29T20:32:41.000Z,5-11,240,09/28/1990,California,OLB,ARI,SEA,4,State Farm Stadium,"Glendale, AZ",Dome,Grass,N/A Indoors,,0,,
55046,2019092908,20190929080736,away,86.78,26.18,2.59,2.51,0.24,82.83,41.08,2532966,Bobby Wagner,54,2019,20,1,03:54:00,ARZ,1,15,ARZ,0,10,2553435,SHOTGUN,"1 RB, 1 TE, 3 WR",7,"4 DL, 3 LB, 4 DB",left,2019-09-29T20:32:42.000Z,2019-09-29T20:32:41.000Z,6-0,242,06/27/1990,Utah State,MLB,ARI,SEA,4,State Farm Stadium,"Glendale, AZ",Dome,Grass,N/A Indoors,,0,,
55047,2019092908,20190929080736,away,74.25,16.21,2.12,1.19,0.21,95.9,228.65,2539243,Bradley McDougald,30,2019,20,1,03:54:00,ARZ,1,15,ARZ,0,10,2553435,SHOTGUN,"1 RB, 1 TE, 3 WR",7,"4 DL, 3 LB, 4 DB",left,2019-09-29T20:32:42.000Z,2019-09-29T20:32:41.000Z,6-1,215,11/15/1990,Kansas,SS,ARI,SEA,4,State Farm Stadium,"Glendale, AZ",Dome,Grass,N/A Indoors,,0,,
55048,2019092908,20190929080736,away,89.49,22.66,1.97,1.56,0.2,8.15,349.96,2555358,Quinton Jefferson,99,2019,20,1,03:54:00,ARZ,1,15,ARZ,0,10,2553435,SHOTGUN,"1 RB, 1 TE, 3 WR",7,"4 DL, 3 LB, 4 DB",left,2019-09-29T20:32:42.000Z,2019-09-29T20:32:41.000Z,6-4,291,03/31/1993,Maryland,DT,ARI,SEA,4,State Farm Stadium,"Glendale, AZ",Dome,Grass,N/A Indoors,,0,,
55049,2019092908,20190929080736,away,75.33,34.22,2.53,1.21,0.25,79.64,259.02,2557881,Tedric Thompson,33,2019,20,1,03:54:00,ARZ,1,15,ARZ,0,10,2553435,SHOTGUN,"1 RB, 1 TE, 3 WR",7,"4 DL, 3 LB, 4 DB",left,2019-09-29T20:32:42.000Z,2019-09-29T20:32:41.000Z,6-0,204,01/20/1995,Colorado,FS,ARI,SEA,4,State Farm Stadium,"Glendale, AZ",Dome,Grass,N/A Indoors,,0,,
55050,2019092908,20190929080736,away,87.08,45.12,3.54,1.52,0.35,184.27,283.74,2558259,Shaquill Griffin,26,2019,20,1,03:54:00,ARZ,1,15,ARZ,0,10,2553435,SHOTGUN,"1 RB, 1 TE, 3 WR",7,"4 DL, 3 LB, 4 DB",left,2019-09-29T20:32:42.000Z,2019-09-29T20:32:41.000Z,6-0,198,07/20/1995,Central Florida,CB,ARI,SEA,4,State Farm Stadium,"Glendale, AZ",Dome,Grass,N/A Indoors,,0,,
55051,2019092908,20190929080736,away,88.71,9.03,0.77,1.8,0.07,84.95,264.59,2560728,Tre Flowers,21,2019,20,1,03:54:00,ARZ,1,15,ARZ,0,10,2553435,SHOTGUN,"1 RB, 1 TE, 3 WR",7,"4 DL, 3 LB, 4 DB",left,2019-09-29T20:32:42.000Z,2019-09-29T20:32:41.000Z,6-3,203,06/02/1995,Oklahoma State,CB,ARI,SEA,4,State Farm Stadium,"Glendale, AZ",Dome,Grass,N/A Indoors,,0,,
55052,2019092908,20190929080736,away,89.96,28.56,1.61,1.44,0.17,89.04,37.76,2560998,Rasheem Green,98,2019,20,1,03:54:00,ARZ,1,15,ARZ,0,10,2553435,SHOTGUN,"1 RB, 1 TE, 3 WR",7,"4 DL, 3 LB, 4 DB",left,2019-09-29T20:32:42.000Z,2019-09-29T20:32:41.000Z,6-4,279,05/15/1997,Southern California,DE,ARI,SEA,4,State Farm Stadium,"Glendale, AZ",Dome,Grass,N/A Indoors,,0,,
55053,2019092908,20190929080736,away,89.77,26.3,2.44,0.62,0.24,39.25,32.62,2561195,Poona Ford,97,2019,20,1,03:54:00,ARZ,1,15,ARZ,0,10,2553435,SHOTGUN,"1 RB, 1 TE, 3 WR",7,"4 DL, 3 LB, 4 DB",left,2019-09-29T20:32:42.000Z,2019-09-29T20:32:41.000Z,5-11,310,11/19/1995,Texas,DT,ARI,SEA,4,State Farm Stadium,"Glendale, AZ",Dome,Grass,N/A Indoors,,0,,
55054,2019092908,20190929080736,away,89.96,19.52,2.0,0.84,0.2,63.16,25.52,2562248,L.J. Collier,95,2019,20,1,03:54:00,ARZ,1,15,ARZ,0,10,2553435,SHOTGUN,"1 RB, 1 TE, 3 WR",7,"4 DL, 3 LB, 4 DB",left,2019-09-29T20:32:42.000Z,2019-09-29T20:32:41.000Z,6-3,291,09/12/1995,Texas Christian,DE,ARI,SEA,4,State Farm Stadium,"Glendale, AZ",Dome,Grass,N/A Indoors,,0,,
55055,2019092908,20190929080736,home,90.64,25.65,2.35,0.48,0.25,287.95,3.05,71461,A.Q. Shipley,53,2019,20,1,03:54:00,ARZ,1,15,ARZ,0,10,2553435,SHOTGUN,"1 RB, 1 TE, 3 WR",7,"4 DL, 3 LB, 4 DB",left,2019-09-29T20:32:42.000Z,2019-09-29T20:32:41.000Z,6-1,307,05/22/1986,Penn State,C,ARI,SEA,4,State Farm Stadium,"Glendale, AZ",Dome,Grass,N/A Indoors,,0,,
55056,2019092908,20190929080736,home,92.68,27.43,4.1,3.62,0.39,181.71,173.76,2506106,Larry Fitzgerald,11,2019,20,1,03:54:00,ARZ,1,15,ARZ,0,10,2553435,SHOTGUN,"1 RB, 1 TE, 3 WR",7,"4 DL, 3 LB, 4 DB",left,2019-09-29T20:32:42.000Z,2019-09-29T20:32:41.000Z,6-3,218,08/31/1983,Pittsburgh,WR,ARI,SEA,4,State Farm Stadium,"Glendale, AZ",Dome,Grass,N/A Indoors,,0,,
55057,2019092908,20190929080736,home,90.89,26.73,2.34,1.14,0.24,257.63,349.99,2533342,J.R. Sweezy,64,2019,20,1,03:54:00,ARZ,1,15,ARZ,0,10,2553435,SHOTGUN,"1 RB, 1 TE, 3 WR",7,"4 DL, 3 LB, 4 DB",left,2019-09-29T20:32:42.000Z,2019-09-29T20:32:41.000Z,6-5,310,04/08/1989,North Carolina State,G,ARI,SEA,4,State Farm Stadium,"Glendale, AZ",Dome,Grass,N/A Indoors,,0,,
55058,2019092908,20190929080736,home,90.07,23.33,2.72,1.83,0.28,229.91,322.01,2540195,Justin Pugh,67,2019,20,1,03:54:00,ARZ,1,15,ARZ,0,10,2553435,SHOTGUN,"1 RB, 1 TE, 3 WR",7,"4 DL, 3 LB, 4 DB",left,2019-09-29T20:32:42.000Z,2019-09-29T20:32:41.000Z,6-5,311,08/15/1990,Syracuse,G,ARI,SEA,4,State Farm Stadium,"Glendale, AZ",Dome,Grass,N/A Indoors,,0,,
55059,2019092908,20190929080736,home,90.28,29.57,3.38,2.54,0.33,270.65,317.24,2552468,Maxx Williams,87,2019,20,1,03:54:00,ARZ,1,15,ARZ,0,10,2553435,SHOTGUN,"1 RB, 1 TE, 3 WR",7,"4 DL, 3 LB, 4 DB",left,2019-09-29T20:32:42.000Z,2019-09-29T20:32:41.000Z,6-4,252,04/12/1994,Minnesota,TE,ARI,SEA,4,State Farm Stadium,"Glendale, AZ",Dome,Grass,N/A Indoors,,0,,
55060,2019092908,20190929080736,home,90.46,21.83,3.39,3.15,0.32,280.12,326.05,2552626,D.J. Humphries,74,2019,20,1,03:54:00,ARZ,1,15,ARZ,0,10,2553435,SHOTGUN,"1 RB, 1 TE, 3 WR",7,"4 DL, 3 LB, 4 DB",left,2019-09-29T20:32:42.000Z,2019-09-29T20:32:41.000Z,6-5,307,12/28/1993,Florida,OT,ARI,SEA,4,State Farm Stadium,"Glendale, AZ",Dome,Grass,N/A Indoors,,0,,
55061,2019092908,20190929080736,home,95.02,23.28,4.29,3.44,0.41,299.52,341.41,2553435,David Johnson,31,2019,20,1,03:54:00,ARZ,1,15,ARZ,0,10,2553435,SHOTGUN,"1 RB, 1 TE, 3 WR",7,"4 DL, 3 LB, 4 DB",left,2019-09-29T20:32:42.000Z,2019-09-29T20:32:41.000Z,6-1,224,12/16/1991,Northern Iowa,RB,ARI,SEA,4,State Farm Stadium,"Glendale, AZ",Dome,Grass,N/A Indoors,,0,,
55062,2019092908,20190929080736,home,91.0,28.11,2.4,1.82,0.23,267.55,4.54,2556628,Justin Murray,71,2019,20,1,03:54:00,ARZ,1,15,ARZ,0,10,2553435,SHOTGUN,"1 RB, 1 TE, 3 WR",7,"4 DL, 3 LB, 4 DB",left,2019-09-29T20:32:42.000Z,2019-09-29T20:32:41.000Z,6-5,315,04/19/1993,Cincinnati,OT,ARI,SEA,4,State Farm Stadium,"Glendale, AZ",Dome,Grass,N/A Indoors,,0,,
55063,2019092908,20190929080736,home,89.89,44.0,3.53,4.12,0.35,273.51,274.08,2560781,Christian Kirk,13,2019,20,1,03:54:00,ARZ,1,15,ARZ,0,10,2553435,SHOTGUN,"1 RB, 1 TE, 3 WR",7,"4 DL, 3 LB, 4 DB",left,2019-09-29T20:32:42.000Z,2019-09-29T20:32:41.000Z,5-11,200,11/18/1996,Texas A&M,WR,ARI,SEA,4,State Farm Stadium,"Glendale, AZ",Dome,Grass,N/A Indoors,,0,,
55064,2019092908,20190929080736,home,89.99,8.68,2.44,2.35,0.23,283.17,236.15,2561272,Trent Sherfield,16,2019,20,1,03:54:00,ARZ,1,15,ARZ,0,10,2553435,SHOTGUN,"1 RB, 1 TE, 3 WR",7,"4 DL, 3 LB, 4 DB",left,2019-09-29T20:32:42.000Z,2019-09-29T20:32:41.000Z,6-1,219,02/26/1996,Vanderbilt,WR,ARI,SEA,4,State Farm Stadium,"Glendale, AZ",Dome,Grass,N/A Indoors,,0,,
55065,2019092908,20190929080736,home,95.29,24.17,0.5,0.48,0.05,236.88,25.65,2562382,Kyler Murray,1,2019,20,1,03:54:00,ARZ,1,15,ARZ,0,10,2553435,SHOTGUN,"1 RB, 1 TE, 3 WR",7,"4 DL, 3 LB, 4 DB",left,2019-09-29T20:32:42.000Z,2019-09-29T20:32:41.000Z,5-10,207,08/07/1997,Oklahoma,QB,ARI,SEA,4,State Farm Stadium,"Glendale, AZ",Dome,Grass,N/A Indoors,,0,,
