,GameId,PlayId,Team,X,Y,S,A,Dis,Orientation,Dir,NflId,DisplayName,JerseyNumber,Season,YardLine,Quarter,GameClock,PossessionTeam,Down,Distance,FieldPosition,HomeScoreBeforePlay,VisitorScoreBeforePlay,NflIdRusher,OffenseFormation,OffensePersonnel,DefendersInTheBox,DefensePersonnel,PlayDirection,TimeHandoff,TimeSnap,PlayerHeight,PlayerWeight,PlayerBirthDate,PlayerCollegeName,Position,HomeTeamAbbr,VisitorTeamAbbr,Week,Stadium,Location,StadiumType,Turf,GameWeather,Temperature,Humidity,WindSpeed,WindDirection
50600,2019092903,20190929033763,away,63.36,33.22,1.84,1.27,0.19,130.15,136.33,2540180,Tyrann Mathieu,32,2019,45,4,10:40:00,DET,1,10,DET,23,27,2560765,SINGLEBACK,"1 RB, 2 TE, 2 WR",7,"4 DL, 2 LB, 5 DB",left,2019-09-29T19:52:34.000Z,2019-09-29T19:52:33.000Z,5-9,190,05/13/1992,Louisiana State,FS,DET,KC,4,Ford Field,Detroit,Indoors,Field Turf,Controlled Climate,68.0,70,,
50601,2019092903,20190929033763,away,61.49,35.67,3.19,1.1,0.31,131.8,139.71,2543571,Bashaud Breeland,21,2019,45,4,10:40:00,DET,1,10,DET,23,27,2560765,SINGLEBACK,"1 RB, 2 TE, 2 WR",7,"4 DL, 2 LB, 5 DB",left,2019-09-29T19:52:34.000Z,2019-09-29T19:52:33.000Z,5-11,195,01/30/1992,Clemson,CB,DET,KC,4,Ford Field,Detroit,Indoors,Field Turf,Controlled Climate,68.0,70,,
50602,2019092903,20190929033763,away,65.03,26.14,1.76,1.81,0.18,33.75,344.67,2552629,Frank Clark,55,2019,45,4,10:40:00,DET,1,10,DET,23,27,2560765,SINGLEBACK,"1 RB, 2 TE, 2 WR",7,"4 DL, 2 LB, 5 DB",left,2019-09-29T19:52:34.000Z,2019-09-29T19:52:33.000Z,6-3,260,06/14/1993,Michigan,DE,DET,KC,4,Ford Field,Detroit,Indoors,Field Turf,Controlled Climate,68.0,70,,
50603,2019092903,20190929033763,away,62.05,29.94,3.78,1.98,0.37,112.33,159.15,2552686,Damien Wilson,54,2019,45,4,10:40:00,DET,1,10,DET,23,27,2560765,SINGLEBACK,"1 RB, 2 TE, 2 WR",7,"4 DL, 2 LB, 5 DB",left,2019-09-29T19:52:34.000Z,2019-09-29T19:52:33.000Z,6-0,243,05/28/1993,Minnesota,OLB,DET,KC,4,Ford Field,Detroit,Indoors,Field Turf,Controlled Climate,68.0,70,,
50604,2019092903,20190929033763,away,64.98,32.56,1.26,0.54,0.13,132.02,165.05,2555278,Emmanuel Ogbah,90,2019,45,4,10:40:00,DET,1,10,DET,23,27,2560765,SINGLEBACK,"1 RB, 2 TE, 2 WR",7,"4 DL, 2 LB, 5 DB",left,2019-09-29T19:52:34.000Z,2019-09-29T19:52:33.000Z,6-4,275,11/06/1993,Oklahoma State,DE,DET,KC,4,Ford Field,Detroit,Indoors,Field Turf,Controlled Climate,68.0,70,,
50605,2019092903,20190929033763,away,62.5,15.6,2.35,1.99,0.24,67.8,292.48,2555349,Kendall Fuller,29,2019,45,4,10:40:00,DET,1,10,DET,23,27,2560765,SINGLEBACK,"1 RB, 2 TE, 2 WR",7,"4 DL, 2 LB, 5 DB",left,2019-09-29T19:52:34.000Z,2019-09-29T19:52:33.000Z,5-11,198,02/13/1995,Virginia Tech,CB,DET,KC,4,Ford Field,Detroit,Indoors,Field Turf,Controlled Climate,68.0,70,,
50606,2019092903,20190929033763,away,64.37,28.43,1.1,0.47,0.12,105.86,8.37,2556369,Chris Jones,95,2019,45,4,10:40:00,DET,1,10,DET,23,27,2560765,SINGLEBACK,"1 RB, 2 TE, 2 WR",7,"4 DL, 2 LB, 5 DB",left,2019-09-29T19:52:34.000Z,2019-09-29T19:52:33.000Z,6-6,308,07/03/1994,Mississippi State,DT,DET,KC,4,Ford Field,Detroit,Indoors,Field Turf,Controlled Climate,68.0,70,,
50607,2019092903,20190929033763,away,64.05,30.0,1.14,0.9,0.11,135.77,227.73,2560823,Derrick Nnadi,91,2019,45,4,10:40:00,DET,1,10,DET,23,27,2560765,SINGLEBACK,"1 RB, 2 TE, 2 WR",7,"4 DL, 2 LB, 5 DB",left,2019-09-29T19:52:34.000Z,2019-09-29T19:52:33.000Z,6-1,310,05/09/1996,Florida State,NT,DET,KC,4,Ford Field,Detroit,Indoors,Field Turf,Controlled Climate,68.0,70,,
50608,2019092903,20190929033763,away,62.13,27.17,3.32,2.1,0.32,104.56,137.9,2561383,Ben Niemann,56,2019,45,4,10:40:00,DET,1,10,DET,23,27,2560765,SINGLEBACK,"1 RB, 2 TE, 2 WR",7,"4 DL, 2 LB, 5 DB",left,2019-09-29T19:52:34.000Z,2019-09-29T19:52:33.000Z,6-2,233,07/27/1995,Iowa,LB,DET,KC,4,Ford Field,Detroit,Indoors,Field Turf,Controlled Climate,68.0,70,,
50609,2019092903,20190929033763,away,62.2,7.3,4.24,1.84,0.41,159.34,237.52,2561417,Charvarius Ward,35,2019,45,4,10:40:00,DET,1,10,DET,23,27,2560765,SINGLEBACK,"1 RB, 2 TE, 2 WR",7,"4 DL, 2 LB, 5 DB",left,2019-09-29T19:52:34.000Z,2019-09-29T19:52:33.000Z,6-1,195,05/16/1996,Middle Tennessee,DB,DET,KC,4,Ford Field,Detroit,Indoors,Field Turf,Controlled Climate,68.0,70,,
50610,2019092903,20190929033763,away,47.03,23.75,1.85,0.05,0.19,37.77,266.0,2562761,Juan Thornhill,22,2019,45,4,10:40:00,DET,1,10,DET,23,27,2560765,SINGLEBACK,"1 RB, 2 TE, 2 WR",7,"4 DL, 2 LB, 5 DB",left,2019-09-29T19:52:34.000Z,2019-09-29T19:52:33.000Z,6-0,205,10/19/1995,Virginia,DB,DET,KC,4,Ford Field,Detroit,Indoors,Field Turf,Controlled Climate,68.0,70,,
50611,2019092903,20190929033763,home,70.83,30.64,4.66,0.48,0.47,121.4,77.32,79860,Matthew Stafford,9,2019,45,4,10:40:00,DET,1,10,DET,23,27,2560765,SINGLEBACK,"1 RB, 2 TE, 2 WR",7,"4 DL, 2 LB, 5 DB",left,2019-09-29T19:52:34.000Z,2019-09-29T19:52:33.000Z,6-3,220,02/07/1988,Georgia,QB,DET,KC,4,Ford Field,Detroit,Indoors,Field Turf,Controlled Climate,68.0,70,,
50612,2019092903,20190929033763,home,64.82,27.94,0.71,0.54,0.08,299.16,299.78,2530556,Kenny Wiggins,79,2019,45,4,10:40:00,DET,1,10,DET,23,27,2560765,SINGLEBACK,"1 RB, 2 TE, 2 WR",7,"4 DL, 2 LB, 5 DB",left,2019-09-29T19:52:34.000Z,2019-09-29T19:52:33.000Z,6-6,314,08/08/1988,Fresno State,G,DET,KC,4,Ford Field,Detroit,Indoors,Field Turf,Controlled Climate,68.0,70,,
50613,2019092903,20190929033763,home,63.25,6.68,4.29,2.69,0.43,256.53,239.29,2532884,Marvin Jones,11,2019,45,4,10:40:00,DET,1,10,DET,23,27,2560765,SINGLEBACK,"1 RB, 2 TE, 2 WR",7,"4 DL, 2 LB, 5 DB",left,2019-09-29T19:52:34.000Z,2019-09-29T19:52:33.000Z,6-2,198,03/12/1990,California,WR,DET,KC,4,Ford Field,Detroit,Indoors,Field Turf,Controlled Climate,68.0,70,,
50614,2019092903,20190929033763,home,65.09,31.37,1.2,0.55,0.13,312.85,245.98,2539340,Rick Wagner,71,2019,45,4,10:40:00,DET,1,10,DET,23,27,2560765,SINGLEBACK,"1 RB, 2 TE, 2 WR",7,"4 DL, 2 LB, 5 DB",left,2019-09-29T19:52:34.000Z,2019-09-29T19:52:33.000Z,6-6,315,10/21/1989,Wisconsin,T,DET,KC,4,Ford Field,Detroit,Indoors,Field Turf,Controlled Climate,68.0,70,,
50615,2019092903,20190929033763,home,67.28,30.32,5.28,2.65,0.52,215.2,196.31,2543767,Logan Thomas,82,2019,45,4,10:40:00,DET,1,10,DET,23,27,2560765,SINGLEBACK,"1 RB, 2 TE, 2 WR",7,"4 DL, 2 LB, 5 DB",left,2019-09-29T19:52:34.000Z,2019-09-29T19:52:33.000Z,6-6,250,07/01/1991,Virginia Tech,TE,DET,KC,4,Ford Field,Detroit,Indoors,Field Turf,Controlled Climate,68.0,70,,
50616,2019092903,20190929033763,home,65.65,32.25,2.28,0.66,0.23,275.6,179.31,2552633,Jesse James,83,2019,45,4,10:40:00,DET,1,10,DET,23,27,2560765,SINGLEBACK,"1 RB, 2 TE, 2 WR",7,"4 DL, 2 LB, 5 DB",left,2019-09-29T19:52:34.000Z,2019-09-29T19:52:33.000Z,6-7,250,06/04/1994,Penn State,TE,DET,KC,4,Ford Field,Detroit,Indoors,Field Turf,Controlled Climate,68.0,70,,
50617,2019092903,20190929033763,home,65.89,27.46,2.91,2.44,0.29,217.43,202.59,2555182,Graham Glasgow,60,2019,45,4,10:40:00,DET,1,10,DET,23,27,2560765,SINGLEBACK,"1 RB, 2 TE, 2 WR",7,"4 DL, 2 LB, 5 DB",left,2019-09-29T19:52:34.000Z,2019-09-29T19:52:33.000Z,6-6,310,08/19/1992,Michigan,C,DET,KC,4,Ford Field,Detroit,Indoors,Field Turf,Controlled Climate,68.0,70,,
50618,2019092903,20190929033763,home,64.14,27.71,0.8,2.07,0.09,309.25,318.09,2555206,Taylor Decker,68,2019,45,4,10:40:00,DET,1,10,DET,23,27,2560765,SINGLEBACK,"1 RB, 2 TE, 2 WR",7,"4 DL, 2 LB, 5 DB",left,2019-09-29T19:52:34.000Z,2019-09-29T19:52:33.000Z,6-7,318,08/23/1993,Ohio State,T,DET,KC,4,Ford Field,Detroit,Indoors,Field Turf,Controlled Climate,68.0,70,,
50619,2019092903,20190929033763,home,63.78,16.12,3.6,1.95,0.35,61.14,283.62,2558052,Kenny Golladay,19,2019,45,4,10:40:00,DET,1,10,DET,23,27,2560765,SINGLEBACK,"1 RB, 2 TE, 2 WR",7,"4 DL, 2 LB, 5 DB",left,2019-09-29T19:52:34.000Z,2019-09-29T19:52:33.000Z,6-4,213,11/03/1993,Northern Illinois,WR,DET,KC,4,Ford Field,Detroit,Indoors,Field Turf,Controlled Climate,68.0,70,,
50620,2019092903,20190929033763,home,70.2,29.63,3.99,3.9,0.38,244.97,244.27,2560765,Kerryon Johnson,33,2019,45,4,10:40:00,DET,1,10,DET,23,27,2560765,SINGLEBACK,"1 RB, 2 TE, 2 WR",7,"4 DL, 2 LB, 5 DB",left,2019-09-29T19:52:34.000Z,2019-09-29T19:52:33.000Z,5-11,212,06/30/1997,Auburn,RB,DET,KC,4,Ford Field,Detroit,Indoors,Field Turf,Controlled Climate,68.0,70,,
50621,2019092903,20190929033763,home,64.56,29.58,1.3,0.36,0.15,339.36,237.99,2561142,Frank Ragnow,77,2019,45,4,10:40:00,DET,1,10,DET,23,27,2560765,SINGLEBACK,"1 RB, 2 TE, 2 WR",7,"4 DL, 2 LB, 5 DB",left,2019-09-29T19:52:34.000Z,2019-09-29T19:52:33.000Z,6-5,311,05/17/1996,Arkansas,C,DET,KC,4,Ford Field,Detroit,Indoors,Field Turf,Controlled Climate,68.0,70,,
