,GameId,PlayId,Team,X,Y,S,A,Dis,Orientation,Dir,NflId,DisplayName,JerseyNumber,Season,YardLine,Quarter,GameClock,PossessionTeam,Down,Distance,FieldPosition,HomeScoreBeforePlay,VisitorScoreBeforePlay,NflIdRusher,OffenseFormation,OffensePersonnel,DefendersInTheBox,DefensePersonnel,PlayDirection,TimeHandoff,TimeSnap,PlayerHeight,PlayerWeight,PlayerBirthDate,PlayerCollegeName,Position,HomeTeamAbbr,VisitorTeamAbbr,Week,Stadium,Location,StadiumType,Turf,GameWeather,Temperature,Humidity,WindSpeed,WindDirection
27852,2019091512,20190915120507,away,53.91,28.18,4.05,1.35,0.41,281.35,250.86,2504775,Drew Brees,9,2019,49,1,07:31:00,NO,2,5,NO,3,0,2541161,SINGLEBACK,"6 OL, 1 RB, 1 TE, 2 WR",8,"4 DL, 3 LB, 4 DB",right,2019-09-15T20:43:43.000Z,2019-09-15T20:43:42.000Z,6-0,209,01/15/1979,Purdue,QB,LA,NO,2,Los Angeles Memorial Coliseum,"Los Angeles, Calif.",Outdoor,Grass,Cloudy,85.0,44,4,N
27853,2019091512,20190915120507,away,56.44,25.67,2.33,2.23,0.24,315.15,234.6,2539248,Larry Warford,67,2019,49,1,07:31:00,NO,2,5,NO,3,0,2541161,SINGLEBACK,"6 OL, 1 RB, 1 TE, 2 WR",8,"4 DL, 3 LB, 4 DB",right,2019-09-15T20:43:43.000Z,2019-09-15T20:43:42.000Z,6-3,317,06/18/1991,Kentucky,G,LA,NO,2,Los Angeles Memorial Coliseum,"Los Angeles, Calif.",Outdoor,Grass,Cloudy,85.0,44,4,N
27854,2019091512,20190915120507,away,58.32,29.5,4.27,1.17,0.43,108.94,170.15,2540228,Terron Armstead,72,2019,49,1,07:31:00,NO,2,5,NO,3,0,2541161,SINGLEBACK,"6 OL, 1 RB, 1 TE, 2 WR",8,"4 DL, 3 LB, 4 DB",right,2019-09-15T20:43:43.000Z,2019-09-15T20:43:42.000Z,6-5,304,07/23/1991,Arkansas-Pine Bluff,T,LA,NO,2,Los Angeles Memorial Coliseum,"Los Angeles, Calif.",Outdoor,Grass,Cloudy,85.0,44,4,N
27855,2019091512,20190915120507,away,53.53,27.37,4.99,0.76,0.5,155.83,143.23,2541161,Latavius Murray,28,2019,49,1,07:31:00,NO,2,5,NO,3,0,2541161,SINGLEBACK,"6 OL, 1 RB, 1 TE, 2 WR",8,"4 DL, 3 LB, 4 DB",right,2019-09-15T20:43:43.000Z,2019-09-15T20:43:42.000Z,6-3,230,01/18/1990,Central Florida,RB,LA,NO,2,Los Angeles Memorial Coliseum,"Los Angeles, Calif.",Outdoor,Grass,Cloudy,85.0,44,4,N
27856,2019091512,20190915120507,away,56.58,22.91,2.45,0.16,0.25,155.83,204.27,2541834,Josh Hill,89,2019,49,1,07:31:00,NO,2,5,NO,3,0,2541161,SINGLEBACK,"6 OL, 1 RB, 1 TE, 2 WR",8,"4 DL, 3 LB, 4 DB",right,2019-09-15T20:43:43.000Z,2019-09-15T20:43:42.000Z,6-5,250,05/21/1990,Idaho State,TE,LA,NO,2,Los Angeles Memorial Coliseum,"Los Angeles, Calif.",Outdoor,Grass,Cloudy,85.0,44,4,N
27857,2019091512,20190915120507,away,58.48,28.27,4.07,0.44,0.42,113.4,171.18,2552455,Andrus Peat,75,2019,49,1,07:31:00,NO,2,5,NO,3,0,2541161,SINGLEBACK,"6 OL, 1 RB, 1 TE, 2 WR",8,"4 DL, 3 LB, 4 DB",right,2019-09-15T20:43:43.000Z,2019-09-15T20:43:42.000Z,6-7,316,11/04/1993,Stanford,T,LA,NO,2,Los Angeles Memorial Coliseum,"Los Angeles, Calif.",Outdoor,Grass,Cloudy,85.0,44,4,N
27858,2019091512,20190915120507,away,60.61,12.56,4.44,1.12,0.44,78.33,75.72,2556370,Michael Thomas,13,2019,49,1,07:31:00,NO,2,5,NO,3,0,2541161,SINGLEBACK,"6 OL, 1 RB, 1 TE, 2 WR",8,"4 DL, 3 LB, 4 DB",right,2019-09-15T20:43:43.000Z,2019-09-15T20:43:42.000Z,6-3,212,03/03/1993,Ohio State,WR,LA,NO,2,Los Angeles Memorial Coliseum,"Los Angeles, Calif.",Outdoor,Grass,Cloudy,85.0,44,4,N
27859,2019091512,20190915120507,away,59.02,24.1,4.13,1.38,0.41,156.82,157.95,2557959,Ryan Ramczyk,71,2019,49,1,07:31:00,NO,2,5,NO,3,0,2541161,SINGLEBACK,"6 OL, 1 RB, 1 TE, 2 WR",8,"4 DL, 3 LB, 4 DB",right,2019-09-15T20:43:43.000Z,2019-09-15T20:43:42.000Z,6-6,314,04/22/1994,Wisconsin,T,LA,NO,2,Los Angeles Memorial Coliseum,"Los Angeles, Calif.",Outdoor,Grass,Cloudy,85.0,44,4,N
27860,2019091512,20190915120507,away,60.15,19.69,5.13,1.39,0.5,115.94,122.58,2560878,Tre'Quan Smith,10,2019,49,1,07:31:00,NO,2,5,NO,3,0,2541161,SINGLEBACK,"6 OL, 1 RB, 1 TE, 2 WR",8,"4 DL, 3 LB, 4 DB",right,2019-09-15T20:43:43.000Z,2019-09-15T20:43:42.000Z,6-2,210,01/07/1996,Central Florida,WR,LA,NO,2,Los Angeles Memorial Coliseum,"Los Angeles, Calif.",Outdoor,Grass,Cloudy,85.0,44,4,N
27861,2019091512,20190915120507,away,59.4,31.62,4.99,1.2,0.51,111.0,146.25,2561023,Will Clapp,64,2019,49,1,07:31:00,NO,2,5,NO,3,0,2541161,SINGLEBACK,"6 OL, 1 RB, 1 TE, 2 WR",8,"4 DL, 3 LB, 4 DB",right,2019-09-15T20:43:43.000Z,2019-09-15T20:43:42.000Z,6-5,311,12/10/1995,Louisiana State,C,LA,NO,2,Los Angeles Memorial Coliseum,"Los Angeles, Calif.",Outdoor,Grass,Cloudy,85.0,44,4,N
27862,2019091512,20190915120507,away,57.97,26.32,3.04,1.44,0.31,161.77,187.01,2562683,Erik McCoy,78,2019,49,1,07:31:00,NO,2,5,NO,3,0,2541161,SINGLEBACK,"6 OL, 1 RB, 1 TE, 2 WR",8,"4 DL, 3 LB, 4 DB",right,2019-09-15T20:43:43.000Z,2019-09-15T20:43:42.000Z,6-4,315,08/27/1997,Texas A&M,C,LA,NO,2,Los Angeles Memorial Coliseum,"Los Angeles, Calif.",Outdoor,Grass,Cloudy,85.0,44,4,N
27863,2019091512,20190915120507,home,55.55,33.99,5.23,3.51,0.52,174.27,215.54,80431,Clay Matthews,52,2019,49,1,07:31:00,NO,2,5,NO,3,0,2541161,SINGLEBACK,"6 OL, 1 RB, 1 TE, 2 WR",8,"4 DL, 3 LB, 4 DB",right,2019-09-15T20:43:43.000Z,2019-09-15T20:43:42.000Z,6-3,255,05/14/1986,Southern California,OLB,LA,NO,2,Los Angeles Memorial Coliseum,"Los Angeles, Calif.",Outdoor,Grass,Cloudy,85.0,44,4,N
27864,2019091512,20190915120507,home,75.75,24.44,4.24,4.07,0.41,271.73,221.79,2495775,Eric Weddle,32,2019,49,1,07:31:00,NO,2,5,NO,3,0,2541161,SINGLEBACK,"6 OL, 1 RB, 1 TE, 2 WR",8,"4 DL, 3 LB, 4 DB",right,2019-09-15T20:43:43.000Z,2019-09-15T20:43:42.000Z,5-11,195,01/04/1985,Utah,FS,LA,NO,2,Los Angeles Memorial Coliseum,"Los Angeles, Calif.",Outdoor,Grass,Cloudy,85.0,44,4,N
27865,2019091512,20190915120507,home,59.13,29.4,3.48,0.88,0.36,265.59,182.16,2533050,Michael Brockers,90,2019,49,1,07:31:00,NO,2,5,NO,3,0,2541161,SINGLEBACK,"6 OL, 1 RB, 1 TE, 2 WR",8,"4 DL, 3 LB, 4 DB",right,2019-09-15T20:43:43.000Z,2019-09-15T20:43:42.000Z,6-5,305,12/21/1990,Louisiana State,DT,LA,NO,2,Los Angeles Memorial Coliseum,"Los Angeles, Calif.",Outdoor,Grass,Cloudy,85.0,44,4,N
27866,2019091512,20190915120507,home,56.25,26.42,3.45,0.33,0.35,274.56,245.71,2543485,Aaron Donald,99,2019,49,1,07:31:00,NO,2,5,NO,3,0,2541161,SINGLEBACK,"6 OL, 1 RB, 1 TE, 2 WR",8,"4 DL, 3 LB, 4 DB",right,2019-09-15T20:43:43.000Z,2019-09-15T20:43:42.000Z,6-1,280,05/23/1991,Pittsburgh,DT,LA,NO,2,Los Angeles Memorial Coliseum,"Los Angeles, Calif.",Outdoor,Grass,Cloudy,85.0,44,4,N
27867,2019091512,20190915120507,home,61.02,26.44,4.78,0.17,0.48,236.04,206.48,2552307,Bryce Hager,54,2019,49,1,07:31:00,NO,2,5,NO,3,0,2541161,SINGLEBACK,"6 OL, 1 RB, 1 TE, 2 WR",8,"4 DL, 3 LB, 4 DB",right,2019-09-15T20:43:43.000Z,2019-09-15T20:43:42.000Z,6-1,237,05/04/1992,Baylor,ILB,LA,NO,2,Los Angeles Memorial Coliseum,"Los Angeles, Calif.",Outdoor,Grass,Cloudy,85.0,44,4,N
27868,2019091512,20190915120507,home,66.7,20.0,2.8,1.35,0.27,250.17,173.03,2552488,Marcus Peters,22,2019,49,1,07:31:00,NO,2,5,NO,3,0,2541161,SINGLEBACK,"6 OL, 1 RB, 1 TE, 2 WR",8,"4 DL, 3 LB, 4 DB",right,2019-09-15T20:43:43.000Z,2019-09-15T20:43:42.000Z,6-0,197,01/09/1993,Washington,CB,LA,NO,2,Los Angeles Memorial Coliseum,"Los Angeles, Calif.",Outdoor,Grass,Cloudy,85.0,44,4,N
27869,2019091512,20190915120507,home,57.0,22.2,2.5,2.04,0.25,300.91,228.58,2553431,Dante Fowler,56,2019,49,1,07:31:00,NO,2,5,NO,3,0,2541161,SINGLEBACK,"6 OL, 1 RB, 1 TE, 2 WR",8,"4 DL, 3 LB, 4 DB",right,2019-09-15T20:43:43.000Z,2019-09-15T20:43:42.000Z,6-3,255,08/03/1994,Florida,OLB,LA,NO,2,Los Angeles Memorial Coliseum,"Los Angeles, Calif.",Outdoor,Grass,Cloudy,85.0,44,4,N
27870,2019091512,20190915120507,home,68.67,12.54,2.53,0.42,0.25,304.14,77.92,2553536,Troy Hill,20,2019,49,1,07:31:00,NO,2,5,NO,3,0,2541161,SINGLEBACK,"6 OL, 1 RB, 1 TE, 2 WR",8,"4 DL, 3 LB, 4 DB",right,2019-09-15T20:43:43.000Z,2019-09-15T20:43:42.000Z,5-11,184,08/29/1991,Oregon,CB,LA,NO,2,Los Angeles Memorial Coliseum,"Los Angeles, Calif.",Outdoor,Grass,Cloudy,85.0,44,4,N
27871,2019091512,20190915120507,home,60.84,22.8,4.09,1.33,0.41,297.25,216.86,2556593,Cory Littleton,58,2019,49,1,07:31:00,NO,2,5,NO,3,0,2541161,SINGLEBACK,"6 OL, 1 RB, 1 TE, 2 WR",8,"4 DL, 3 LB, 4 DB",right,2019-09-15T20:43:43.000Z,2019-09-15T20:43:42.000Z,6-3,228,11/18/1993,Washington,ILB,LA,NO,2,Los Angeles Memorial Coliseum,"Los Angeles, Calif.",Outdoor,Grass,Cloudy,85.0,44,4,N
27872,2019091512,20190915120507,home,63.25,32.06,3.89,1.67,0.38,247.05,175.23,2558183,John Johnson,43,2019,49,1,07:31:00,NO,2,5,NO,3,0,2541161,SINGLEBACK,"6 OL, 1 RB, 1 TE, 2 WR",8,"4 DL, 3 LB, 4 DB",right,2019-09-15T20:43:43.000Z,2019-09-15T20:43:42.000Z,6-0,209,12/19/1995,Boston College,SS,LA,NO,2,Los Angeles Memorial Coliseum,"Los Angeles, Calif.",Outdoor,Grass,Cloudy,85.0,44,4,N
27873,2019091512,20190915120507,home,58.65,25.91,3.13,1.45,0.33,245.37,184.15,2561079,Sebastian Joseph-Day,69,2019,49,1,07:31:00,NO,2,5,NO,3,0,2541161,SINGLEBACK,"6 OL, 1 RB, 1 TE, 2 WR",8,"4 DL, 3 LB, 4 DB",right,2019-09-15T20:43:43.000Z,2019-09-15T20:43:42.000Z,6-4,310,03/21/1995,Rutgers,DT,LA,NO,2,Los Angeles Memorial Coliseum,"Los Angeles, Calif.",Outdoor,Grass,Cloudy,85.0,44,4,N
