,GameId,PlayId,Team,X,Y,S,A,Dis,Orientation,Dir,NflId,DisplayName,JerseyNumber,Season,YardLine,Quarter,GameClock,PossessionTeam,Down,Distance,FieldPosition,HomeScoreBeforePlay,VisitorScoreBeforePlay,NflIdRusher,OffenseFormation,OffensePersonnel,DefendersInTheBox,DefensePersonnel,PlayDirection,TimeHandoff,TimeSnap,PlayerHeight,PlayerWeight,PlayerBirthDate,PlayerCollegeName,Position,HomeTeamAbbr,VisitorTeamAbbr,Week,Stadium,Location,StadiumType,Turf,GameWeather,Temperature,Humidity,WindSpeed,WindDirection
30866,2019091900,20190919002539,away,33.89,27.84,1.75,1.48,0.18,50.33,317.14,2495476,Jurrell Casey,99,2019,24,3,08:37:00,JAX,2,6,TEN,14,0,2557973,SINGLEBACK,"1 RB, 1 TE, 3 WR",7,"2 DL, 4 LB, 5 DB",left,2019-09-20T02:15:54.000Z,2019-09-20T02:15:52.000Z,6-1,305,12/05/1989,Southern California,DT,JAX,TEN,3,TIAA Bank Field,"Jacksonville, FL",Outdoor,Grass,Light rain,73.0,87,9mph,NE
30867,2019091900,20190919002539,away,29.38,29.45,5.77,1.54,0.58,40.24,19.22,2539320,Kenny Vaccaro,24,2019,24,3,08:37:00,JAX,2,6,TEN,14,0,2557973,SINGLEBACK,"1 RB, 1 TE, 3 WR",7,"2 DL, 4 LB, 5 DB",left,2019-09-20T02:15:54.000Z,2019-09-20T02:15:52.000Z,6-0,214,02/15/1991,Texas,SS,JAX,TEN,3,TIAA Bank Field,"Jacksonville, FL",Outdoor,Grass,Light rain,73.0,87,9mph,NE
30868,2019091900,20190919002539,away,28.39,23.84,1.97,2.12,0.21,45.14,6.88,2540162,Logan Ryan,26,2019,24,3,08:37:00,JAX,2,6,TEN,14,0,2557973,SINGLEBACK,"1 RB, 1 TE, 3 WR",7,"2 DL, 4 LB, 5 DB",left,2019-09-20T02:15:54.000Z,2019-09-20T02:15:52.000Z,5-11,195,02/09/1991,Rutgers,CB,JAX,TEN,3,TIAA Bank Field,"Jacksonville, FL",Outdoor,Grass,Light rain,73.0,87,9mph,NE
30869,2019091900,20190919002539,away,34.0,28.43,1.02,0.83,0.12,124.33,201.47,2543504,DaQuan Jones,90,2019,24,3,08:37:00,JAX,2,6,TEN,14,0,2557973,SINGLEBACK,"1 RB, 1 TE, 3 WR",7,"2 DL, 4 LB, 5 DB",left,2019-09-20T02:15:54.000Z,2019-09-20T02:15:52.000Z,6-4,322,12/27/1991,Penn State,DE,JAX,TEN,3,TIAA Bank Field,"Jacksonville, FL",Outdoor,Grass,Light rain,73.0,87,9mph,NE
30870,2019091900,20190919002539,away,27.41,38.26,1.47,1.91,0.14,170.7,218.24,2550613,Malcolm Butler,21,2019,24,3,08:37:00,JAX,2,6,TEN,14,0,2557973,SINGLEBACK,"1 RB, 1 TE, 3 WR",7,"2 DL, 4 LB, 5 DB",left,2019-09-20T02:15:54.000Z,2019-09-20T02:15:52.000Z,5-11,190,03/02/1990,West Alabama,CB,JAX,TEN,3,TIAA Bank Field,"Jacksonville, FL",Outdoor,Grass,Light rain,73.0,87,9mph,NE
30871,2019091900,20190919002539,away,19.19,30.78,1.49,3.95,0.12,83.45,41.7,2555158,Kevin Byard,31,2019,24,3,08:37:00,JAX,2,6,TEN,14,0,2557973,SINGLEBACK,"1 RB, 1 TE, 3 WR",7,"2 DL, 4 LB, 5 DB",left,2019-09-20T02:15:54.000Z,2019-09-20T02:15:52.000Z,5-11,212,08/17/1993,Middle Tennessee,FS,JAX,TEN,3,TIAA Bank Field,"Jacksonville, FL",Outdoor,Grass,Light rain,73.0,87,9mph,NE
30872,2019091900,20190919002539,away,36.57,32.95,5.05,1.75,0.5,75.42,127.72,2558005,Jayon Brown,55,2019,24,3,08:37:00,JAX,2,6,TEN,14,0,2557973,SINGLEBACK,"1 RB, 1 TE, 3 WR",7,"2 DL, 4 LB, 5 DB",left,2019-09-20T02:15:54.000Z,2019-09-20T02:15:52.000Z,6-0,226,02/26/1995,UCLA,ILB,JAX,TEN,3,TIAA Bank Field,"Jacksonville, FL",Outdoor,Grass,Light rain,73.0,87,9mph,NE
30873,2019091900,20190919002539,away,31.04,41.15,4.2,4.0,0.4,320.4,303.77,2558065,Adoree' Jackson,25,2019,24,3,08:37:00,JAX,2,6,TEN,14,0,2557973,SINGLEBACK,"1 RB, 1 TE, 3 WR",7,"2 DL, 4 LB, 5 DB",left,2019-09-20T02:15:54.000Z,2019-09-20T02:15:52.000Z,5-11,185,09/18/1995,Southern California,CB,JAX,TEN,3,TIAA Bank Field,"Jacksonville, FL",Outdoor,Grass,Light rain,73.0,87,9mph,NE
30874,2019091900,20190919002539,away,31.82,31.54,4.24,0.92,0.42,91.84,88.04,2560718,Rashaan Evans,54,2019,24,3,08:37:00,JAX,2,6,TEN,14,0,2557973,SINGLEBACK,"1 RB, 1 TE, 3 WR",7,"2 DL, 4 LB, 5 DB",left,2019-09-20T02:15:54.000Z,2019-09-20T02:15:52.000Z,6-2,234,11/08/1995,Alabama,LB,JAX,TEN,3,TIAA Bank Field,"Jacksonville, FL",Outdoor,Grass,Light rain,73.0,87,9mph,NE
30875,2019091900,20190919002539,away,34.95,25.83,2.55,0.38,0.25,61.32,65.32,2560784,Harold Landry,58,2019,24,3,08:37:00,JAX,2,6,TEN,14,0,2557973,SINGLEBACK,"1 RB, 1 TE, 3 WR",7,"2 DL, 4 LB, 5 DB",left,2019-09-20T02:15:54.000Z,2019-09-20T02:15:52.000Z,6-2,250,06/05/1996,Boston College,OLB,JAX,TEN,3,TIAA Bank Field,"Jacksonville, FL",Outdoor,Grass,Light rain,73.0,87,9mph,NE
30876,2019091900,20190919002539,away,34.25,29.56,1.72,3.48,0.16,158.21,166.39,2561328,Sharif Finch,56,2019,24,3,08:37:00,JAX,2,6,TEN,14,0,2557973,SINGLEBACK,"1 RB, 1 TE, 3 WR",7,"2 DL, 4 LB, 5 DB",left,2019-09-20T02:15:54.000Z,2019-09-20T02:15:52.000Z,6-4,250,10/01/1995,Temple,OLB,JAX,TEN,3,TIAA Bank Field,"Jacksonville, FL",Outdoor,Grass,Light rain,73.0,87,9mph,NE
30877,2019091900,20190919002539,home,33.58,36.68,4.59,2.44,0.45,275.59,239.0,2543475,Marqise Lee,11,2019,24,3,08:37:00,JAX,2,6,TEN,14,0,2557973,SINGLEBACK,"1 RB, 1 TE, 3 WR",7,"2 DL, 4 LB, 5 DB",left,2019-09-20T02:15:54.000Z,2019-09-20T02:15:52.000Z,6-0,196,11/25/1991,Southern California,WR,JAX,TEN,3,TIAA Bank Field,"Jacksonville, FL",Outdoor,Grass,Light rain,73.0,87,9mph,NE
30878,2019091900,20190919002539,home,34.85,28.38,1.99,1.5,0.2,215.6,190.43,2543729,Brandon Linder,65,2019,24,3,08:37:00,JAX,2,6,TEN,14,0,2557973,SINGLEBACK,"1 RB, 1 TE, 3 WR",7,"2 DL, 4 LB, 5 DB",left,2019-09-20T02:15:54.000Z,2019-09-20T02:15:52.000Z,6-6,315,01/25/1992,Miami,C,JAX,TEN,3,TIAA Bank Field,"Jacksonville, FL",Outdoor,Grass,Light rain,73.0,87,9mph,NE
30879,2019091900,20190919002539,home,36.34,31.29,3.44,1.88,0.36,343.16,24.4,2550589,Andrew Norwell,68,2019,24,3,08:37:00,JAX,2,6,TEN,14,0,2557973,SINGLEBACK,"1 RB, 1 TE, 3 WR",7,"2 DL, 4 LB, 5 DB",left,2019-09-20T02:15:54.000Z,2019-09-20T02:15:52.000Z,6-6,325,10/25/1991,Ohio State,G,JAX,TEN,3,TIAA Bank Field,"Jacksonville, FL",Outdoor,Grass,Light rain,73.0,87,9mph,NE
30880,2019091900,20190919002539,home,34.8,29.31,2.59,1.7,0.29,272.85,184.33,2552330,A.J. Cann,60,2019,24,3,08:37:00,JAX,2,6,TEN,14,0,2557973,SINGLEBACK,"1 RB, 1 TE, 3 WR",7,"2 DL, 4 LB, 5 DB",left,2019-09-20T02:15:54.000Z,2019-09-20T02:15:52.000Z,6-3,325,10/23/1991,South Carolina,G,JAX,TEN,3,TIAA Bank Field,"Jacksonville, FL",Outdoor,Grass,Light rain,73.0,87,9mph,NE
30881,2019091900,20190919002539,home,31.92,41.88,5.32,3.3,0.52,272.85,302.14,2552652,Chris Conley,18,2019,24,3,08:37:00,JAX,2,6,TEN,14,0,2557973,SINGLEBACK,"1 RB, 1 TE, 3 WR",7,"2 DL, 4 LB, 5 DB",left,2019-09-20T02:15:54.000Z,2019-09-20T02:15:52.000Z,6-3,205,10/25/1992,Georgia,WR,JAX,TEN,3,TIAA Bank Field,"Jacksonville, FL",Outdoor,Grass,Light rain,73.0,87,9mph,NE
30882,2019091900,20190919002539,home,36.27,29.43,4.5,1.49,0.45,311.18,339.32,2553454,Geoff Swaim,87,2019,24,3,08:37:00,JAX,2,6,TEN,14,0,2557973,SINGLEBACK,"1 RB, 1 TE, 3 WR",7,"2 DL, 4 LB, 5 DB",left,2019-09-20T02:15:54.000Z,2019-09-20T02:15:52.000Z,6-4,260,09/16/1993,Texas,TE,JAX,TEN,3,TIAA Bank Field,"Jacksonville, FL",Outdoor,Grass,Light rain,73.0,87,9mph,NE
30883,2019091900,20190919002539,home,32.35,26.33,5.25,2.43,0.52,327.01,331.84,2557895,Dede Westbrook,12,2019,24,3,08:37:00,JAX,2,6,TEN,14,0,2557973,SINGLEBACK,"1 RB, 1 TE, 3 WR",7,"2 DL, 4 LB, 5 DB",left,2019-09-20T02:15:54.000Z,2019-09-20T02:15:52.000Z,6-0,176,11/21/1993,Oklahoma,WR,JAX,TEN,3,TIAA Bank Field,"Jacksonville, FL",Outdoor,Grass,Light rain,73.0,87,9mph,NE
30884,2019091900,20190919002539,home,39.71,29.84,3.86,3.44,0.37,277.79,283.3,2557973,Leonard Fournette,27,2019,24,3,08:37:00,JAX,2,6,TEN,14,0,2557973,SINGLEBACK,"1 RB, 1 TE, 3 WR",7,"2 DL, 4 LB, 5 DB",left,2019-09-20T02:15:54.000Z,2019-09-20T02:15:52.000Z,6-0,228,01/18/1995,Louisiana State,RB,JAX,TEN,3,TIAA Bank Field,"Jacksonville, FL",Outdoor,Grass,Light rain,73.0,87,9mph,NE
30885,2019091900,20190919002539,home,35.29,27.39,0.82,1.38,0.08,210.1,129.81,2558004,Cam Robinson,74,2019,24,3,08:37:00,JAX,2,6,TEN,14,0,2557973,SINGLEBACK,"1 RB, 1 TE, 3 WR",7,"2 DL, 4 LB, 5 DB",left,2019-09-20T02:15:54.000Z,2019-09-20T02:15:52.000Z,6-6,320,10/09/1995,Alabama,T,JAX,TEN,3,TIAA Bank Field,"Jacksonville, FL",Outdoor,Grass,Light rain,73.0,87,9mph,NE
30886,2019091900,20190919002539,home,34.7,29.88,2.75,2.07,0.28,212.46,169.65,2562756,Jawaan Taylor,75,2019,24,3,08:37:00,JAX,2,6,TEN,14,0,2557973,SINGLEBACK,"1 RB, 1 TE, 3 WR",7,"2 DL, 4 LB, 5 DB",left,2019-09-20T02:15:54.000Z,2019-09-20T02:15:52.000Z,6-5,312,11/25/1997,Florida,T,JAX,TEN,3,TIAA Bank Field,"Jacksonville, FL",Outdoor,Grass,Light rain,73.0,87,9mph,NE
30887,2019091900,20190919002539,home,39.1,29.48,4.55,1.75,0.45,56.59,111.25,2562796,Gardner Minshew,15,2019,24,3,08:37:00,JAX,2,6,TEN,14,0,2557973,SINGLEBACK,"1 RB, 1 TE, 3 WR",7,"2 DL, 4 LB, 5 DB",left,2019-09-20T02:15:54.000Z,2019-09-20T02:15:52.000Z,6-1,225,05/16/1996,Washington State,QB,JAX,TEN,3,TIAA Bank Field,"Jacksonville, FL",Outdoor,Grass,Light rain,73.0,87,9mph,NE
