,GameId,PlayId,Team,X,Y,S,A,Dis,Orientation,Dir,NflId,DisplayName,JerseyNumber,Season,YardLine,Quarter,GameClock,PossessionTeam,Down,Distance,FieldPosition,HomeScoreBeforePlay,VisitorScoreBeforePlay,NflIdRusher,OffenseFormation,OffensePersonnel,DefendersInTheBox,DefensePersonnel,PlayDirection,TimeHandoff,TimeSnap,PlayerHeight,PlayerWeight,PlayerBirthDate,PlayerCollegeName,Position,HomeTeamAbbr,VisitorTeamAbbr,Week,Stadium,Location,StadiumType,Turf,GameWeather,Temperature,Humidity,WindSpeed,WindDirection
54054,2019092907,20190929070942,away,35.05,32.45,2.3,1.25,0.23,98.18,167.0,2495190,Ryan Kerrigan,91,2019,25,2,13:15:00,NYG,2,3,WAS,7,0,2557952,SHOTGUN,"1 RB, 1 TE, 3 WR",7,"2 DL, 4 LB, 5 DB",left,2019-09-29T17:36:12.000Z,2019-09-29T17:36:11.000Z,6-4,265,08/16/1988,Purdue,OLB,NYG,WAS,4,MetLife Stadium,"East Rutherford, NJ",,UBU Speed Series-S5-M,Fair,77.0,42,11,NNE
54055,2019092907,20190929070942,away,33.26,35.31,3.38,2.66,0.32,152.68,227.3,2532920,Josh Norman,24,2019,25,2,13:15:00,NYG,2,3,WAS,7,0,2557952,SHOTGUN,"1 RB, 1 TE, 3 WR",7,"2 DL, 4 LB, 5 DB",left,2019-09-29T17:36:12.000Z,2019-09-29T17:36:11.000Z,6-0,200,12/15/1987,Coastal Carolina,CB,NYG,WAS,4,MetLife Stadium,"East Rutherford, NJ",,UBU Speed Series-S5-M,Fair,77.0,42,11,NNE
54056,2019092907,20190929070942,away,32.56,27.44,2.89,3.66,0.27,70.44,11.81,2539978,Jon Bostic,53,2019,25,2,13:15:00,NYG,2,3,WAS,7,0,2557952,SHOTGUN,"1 RB, 1 TE, 3 WR",7,"2 DL, 4 LB, 5 DB",left,2019-09-29T17:36:12.000Z,2019-09-29T17:36:11.000Z,6-1,245,05/05/1991,Florida,ILB,NYG,WAS,4,MetLife Stadium,"East Rutherford, NJ",,UBU Speed Series-S5-M,Fair,77.0,42,11,NNE
54057,2019092907,20190929070942,away,32.05,33.48,2.08,1.48,0.2,86.15,148.2,2552454,Landon Collins,20,2019,25,2,13:15:00,NYG,2,3,WAS,7,0,2557952,SHOTGUN,"1 RB, 1 TE, 3 WR",7,"2 DL, 4 LB, 5 DB",left,2019-09-29T17:36:12.000Z,2019-09-29T17:36:11.000Z,6-0,218,01/10/1994,Alabama,SS,NYG,WAS,4,MetLife Stadium,"East Rutherford, NJ",,UBU Speed Series-S5-M,Fair,77.0,42,11,NNE
54058,2019092907,20190929070942,away,28.32,13.67,0.79,1.06,0.08,62.75,274.14,2553796,Quinton Dunbar,23,2019,25,2,13:15:00,NYG,2,3,WAS,7,0,2557952,SHOTGUN,"1 RB, 1 TE, 3 WR",7,"2 DL, 4 LB, 5 DB",left,2019-09-29T17:36:12.000Z,2019-09-29T17:36:11.000Z,6-2,202,07/22/1992,Florida,CB,NYG,WAS,4,MetLife Stadium,"East Rutherford, NJ",,UBU Speed Series-S5-M,Fair,77.0,42,11,NNE
54059,2019092907,20190929070942,away,35.44,27.34,2.39,0.97,0.24,125.84,152.47,2557844,Jonathan Allen,93,2019,25,2,13:15:00,NYG,2,3,WAS,7,0,2557952,SHOTGUN,"1 RB, 1 TE, 3 WR",7,"2 DL, 4 LB, 5 DB",left,2019-09-29T17:36:12.000Z,2019-09-29T17:36:11.000Z,6-3,300,01/16/1995,Alabama,DE,NYG,WAS,4,MetLife Stadium,"East Rutherford, NJ",,UBU Speed Series-S5-M,Fair,77.0,42,11,NNE
54060,2019092907,20190929070942,away,16.71,25.89,0.96,1.76,0.09,74.24,316.59,2558133,Montae Nicholson,35,2019,25,2,13:15:00,NYG,2,3,WAS,7,0,2557952,SHOTGUN,"1 RB, 1 TE, 3 WR",7,"2 DL, 4 LB, 5 DB",left,2019-09-29T17:36:12.000Z,2019-09-29T17:36:11.000Z,6-2,212,12/04/1995,Michigan State,FS,NYG,WAS,4,MetLife Stadium,"East Rutherford, NJ",,UBU Speed Series-S5-M,Fair,77.0,42,11,NNE
54061,2019092907,20190929070942,away,33.17,14.88,0.99,1.25,0.09,96.19,218.82,2558136,Fabian Moreau,31,2019,25,2,13:15:00,NYG,2,3,WAS,7,0,2557952,SHOTGUN,"1 RB, 1 TE, 3 WR",7,"2 DL, 4 LB, 5 DB",left,2019-09-29T17:36:12.000Z,2019-09-29T17:36:11.000Z,6-0,204,04/09/1994,UCLA,CB,NYG,WAS,4,MetLife Stadium,"East Rutherford, NJ",,UBU Speed Series-S5-M,Fair,77.0,42,11,NNE
54062,2019092907,20190929070942,away,34.99,30.01,2.79,1.18,0.28,83.98,158.81,2560834,Daron Payne,94,2019,25,2,13:15:00,NYG,2,3,WAS,7,0,2557952,SHOTGUN,"1 RB, 1 TE, 3 WR",7,"2 DL, 4 LB, 5 DB",left,2019-09-29T17:36:12.000Z,2019-09-29T17:36:11.000Z,6-3,320,05/27/1997,Alabama,NT,NYG,WAS,4,MetLife Stadium,"East Rutherford, NJ",,UBU Speed Series-S5-M,Fair,77.0,42,11,NNE
54063,2019092907,20190929070942,away,36.95,25.8,3.42,0.07,0.34,33.91,65.32,2562749,Montez Sweat,90,2019,25,2,13:15:00,NYG,2,3,WAS,7,0,2557952,SHOTGUN,"1 RB, 1 TE, 3 WR",7,"2 DL, 4 LB, 5 DB",left,2019-09-29T17:36:12.000Z,2019-09-29T17:36:11.000Z,6-6,262,09/04/1996,Mississippi State,LB,NYG,WAS,4,MetLife Stadium,"East Rutherford, NJ",,UBU Speed Series-S5-M,Fair,77.0,42,11,NNE
54064,2019092907,20190929070942,away,34.64,29.81,1.36,5.17,0.16,92.65,156.08,2562872,Cole Holcomb,55,2019,25,2,13:15:00,NYG,2,3,WAS,7,0,2557952,SHOTGUN,"1 RB, 1 TE, 3 WR",7,"2 DL, 4 LB, 5 DB",left,2019-09-29T17:36:12.000Z,2019-09-29T17:36:11.000Z,6-1,240,07/30/1996,North Carolina,LB,NYG,WAS,4,MetLife Stadium,"East Rutherford, NJ",,UBU Speed Series-S5-M,Fair,77.0,42,11,NNE
54065,2019092907,20190929070942,home,36.86,26.71,1.55,1.64,0.14,249.66,63.6,2495232,Nate Solder,76,2019,25,2,13:15:00,NYG,2,3,WAS,7,0,2557952,SHOTGUN,"1 RB, 1 TE, 3 WR",7,"2 DL, 4 LB, 5 DB",left,2019-09-29T17:36:12.000Z,2019-09-29T17:36:11.000Z,6-9,325,04/12/1988,Colorado,T,NYG,WAS,4,MetLife Stadium,"East Rutherford, NJ",,UBU Speed Series-S5-M,Fair,77.0,42,11,NNE
54066,2019092907,20190929070942,home,35.84,32.14,2.29,1.55,0.24,288.21,203.01,2532835,Rhett Ellison,85,2019,25,2,13:15:00,NYG,2,3,WAS,7,0,2557952,SHOTGUN,"1 RB, 1 TE, 3 WR",7,"2 DL, 4 LB, 5 DB",left,2019-09-29T17:36:12.000Z,2019-09-29T17:36:11.000Z,6-5,255,10/03/1988,Southern California,TE,NYG,WAS,4,MetLife Stadium,"East Rutherford, NJ",,UBU Speed Series-S5-M,Fair,77.0,42,11,NNE
54067,2019092907,20190929070942,home,35.73,29.78,1.91,0.81,0.2,227.85,171.01,2532980,Kevin Zeitler,70,2019,25,2,13:15:00,NYG,2,3,WAS,7,0,2557952,SHOTGUN,"1 RB, 1 TE, 3 WR",7,"2 DL, 4 LB, 5 DB",left,2019-09-29T17:36:12.000Z,2019-09-29T17:36:11.000Z,6-4,315,03/08/1990,Wisconsin,G,NYG,WAS,4,MetLife Stadium,"East Rutherford, NJ",,UBU Speed Series-S5-M,Fair,77.0,42,11,NNE
54068,2019092907,20190929070942,home,35.19,30.39,2.66,1.31,0.27,182.31,188.25,2535607,Mike Remmers,74,2019,25,2,13:15:00,NYG,2,3,WAS,7,0,2557952,SHOTGUN,"1 RB, 1 TE, 3 WR",7,"2 DL, 4 LB, 5 DB",left,2019-09-29T17:36:12.000Z,2019-09-29T17:36:11.000Z,6-5,310,04/11/1989,Oregon State,T,NYG,WAS,4,MetLife Stadium,"East Rutherford, NJ",,UBU Speed Series-S5-M,Fair,77.0,42,11,NNE
54069,2019092907,20190929070942,home,35.65,27.96,2.09,1.16,0.21,209.25,162.66,2543708,Jon Halapio,75,2019,25,2,13:15:00,NYG,2,3,WAS,7,0,2557952,SHOTGUN,"1 RB, 1 TE, 3 WR",7,"2 DL, 4 LB, 5 DB",left,2019-09-29T17:36:12.000Z,2019-09-29T17:36:11.000Z,6-4,315,06/23/1991,Florida,C,NYG,WAS,4,MetLife Stadium,"East Rutherford, NJ",,UBU Speed Series-S5-M,Fair,77.0,42,11,NNE
54070,2019092907,20190929070942,home,34.0,34.22,3.89,1.24,0.38,245.18,218.88,2550198,Bennie Fowler,18,2019,25,2,13:15:00,NYG,2,3,WAS,7,0,2557952,SHOTGUN,"1 RB, 1 TE, 3 WR",7,"2 DL, 4 LB, 5 DB",left,2019-09-29T17:36:12.000Z,2019-09-29T17:36:11.000Z,6-1,218,06/10/1991,Michigan State,WR,NYG,WAS,4,MetLife Stadium,"East Rutherford, NJ",,UBU Speed Series-S5-M,Fair,77.0,42,11,NNE
54071,2019092907,20190929070942,home,36.69,12.93,0.71,2.38,0.07,321.31,205.27,2555295,Sterling Shepard,87,2019,25,2,13:15:00,NYG,2,3,WAS,7,0,2557952,SHOTGUN,"1 RB, 1 TE, 3 WR",7,"2 DL, 4 LB, 5 DB",left,2019-09-29T17:36:12.000Z,2019-09-29T17:36:11.000Z,5-10,201,02/10/1993,Oklahoma,WR,NYG,WAS,4,MetLife Stadium,"East Rutherford, NJ",,UBU Speed Series-S5-M,Fair,77.0,42,11,NNE
54072,2019092907,20190929070942,home,39.11,28.92,4.78,2.78,0.47,273.97,323.81,2557952,Wayne Gallman,22,2019,25,2,13:15:00,NYG,2,3,WAS,7,0,2557952,SHOTGUN,"1 RB, 1 TE, 3 WR",7,"2 DL, 4 LB, 5 DB",left,2019-09-29T17:36:12.000Z,2019-09-29T17:36:11.000Z,6-0,210,10/01/1994,Clemson,RB,NYG,WAS,4,MetLife Stadium,"East Rutherford, NJ",,UBU Speed Series-S5-M,Fair,77.0,42,11,NNE
54073,2019092907,20190929070942,home,36.9,30.21,3.0,2.01,0.3,306.99,358.74,2560737,Will Hernandez,71,2019,25,2,13:15:00,NYG,2,3,WAS,7,0,2557952,SHOTGUN,"1 RB, 1 TE, 3 WR",7,"2 DL, 4 LB, 5 DB",left,2019-09-29T17:36:12.000Z,2019-09-29T17:36:11.000Z,6-3,327,09/02/1995,Texas-El Paso,G,NYG,WAS,4,MetLife Stadium,"East Rutherford, NJ",,UBU Speed Series-S5-M,Fair,77.0,42,11,NNE
54074,2019092907,20190929070942,home,39.63,29.5,1.01,1.91,0.1,245.43,147.93,2562299,Daniel Jones,8,2019,25,2,13:15:00,NYG,2,3,WAS,7,0,2557952,SHOTGUN,"1 RB, 1 TE, 3 WR",7,"2 DL, 4 LB, 5 DB",left,2019-09-29T17:36:12.000Z,2019-09-29T17:36:11.000Z,6-5,220,05/27/1997,Duke,QB,NYG,WAS,4,MetLife Stadium,"East Rutherford, NJ",,UBU Speed Series-S5-M,Fair,77.0,42,11,NNE
54075,2019092907,20190929070942,home,34.18,14.49,2.07,0.1,0.2,277.27,262.19,2562736,Darius Slayton,86,2019,25,2,13:15:00,NYG,2,3,WAS,7,0,2557952,SHOTGUN,"1 RB, 1 TE, 3 WR",7,"2 DL, 4 LB, 5 DB",left,2019-09-29T17:36:12.000Z,2019-09-29T17:36:11.000Z,6-1,190,01/12/1997,Auburn,WR,NYG,WAS,4,MetLife Stadium,"East Rutherford, NJ",,UBU Speed Series-S5-M,Fair,77.0,42,11,NNE
