,GameId,PlayId,Team,X,Y,S,A,Dis,Orientation,Dir,NflId,DisplayName,JerseyNumber,Season,YardLine,Quarter,GameClock,PossessionTeam,Down,Distance,FieldPosition,HomeScoreBeforePlay,VisitorScoreBeforePlay,NflIdRusher,OffenseFormation,OffensePersonnel,DefendersInTheBox,DefensePersonnel,PlayDirection,TimeHandoff,TimeSnap,PlayerHeight,PlayerWeight,PlayerBirthDate,PlayerCollegeName,Position,HomeTeamAbbr,VisitorTeamAbbr,Week,Stadium,Location,StadiumType,Turf,GameWeather,Temperature,Humidity,WindSpeed,WindDirection
18370,2019091502,20190915023060,away,90.53,31.51,1.78,0.57,0.18,223.02,358.97,2495216,Mike Pouncey,53,2019,20,3,00:17:00,LAC,2,5,LAC,6,10,2559169,SINGLEBACK,"1 RB, 1 TE, 3 WR",6,"3 DL, 3 LB, 5 DB",left,2019-09-15T19:17:02.000Z,2019-09-15T19:17:01.000Z,6-5,298,07/24/1989,Florida,C,DET,LAC,2,Ford Field,Detroit,Indoors,Field Turf,Controlled Climate,68.0,70,,
18371,2019091502,20190915023060,away,90.11,26.03,2.68,0.52,0.27,257.69,317.07,2495288,Virgil Green,88,2019,20,3,00:17:00,LAC,2,5,LAC,6,10,2559169,SINGLEBACK,"1 RB, 1 TE, 3 WR",6,"3 DL, 3 LB, 5 DB",left,2019-09-15T19:17:02.000Z,2019-09-15T19:17:01.000Z,6-5,255,08/03/1988,Nevada,TE,DET,LAC,2,Ford Field,Detroit,Indoors,Field Turf,Controlled Climate,68.0,70,,
18372,2019091502,20190915023060,away,94.15,30.69,3.64,0.93,0.36,11.04,71.24,2506121,Philip Rivers,17,2019,20,3,00:17:00,LAC,2,5,LAC,6,10,2559169,SINGLEBACK,"1 RB, 1 TE, 3 WR",6,"3 DL, 3 LB, 5 DB",left,2019-09-15T19:17:02.000Z,2019-09-15T19:17:01.000Z,6-5,228,12/08/1981,North Carolina State,QB,DET,LAC,2,Ford Field,Detroit,Indoors,Field Turf,Controlled Climate,68.0,70,,
18373,2019091502,20190915023060,away,94.56,22.71,6.21,3.51,0.63,222.41,176.97,2532790,Travis Benjamin,12,2019,20,3,00:17:00,LAC,2,5,LAC,6,10,2559169,SINGLEBACK,"1 RB, 1 TE, 3 WR",6,"3 DL, 3 LB, 5 DB",left,2019-09-15T19:17:02.000Z,2019-09-15T19:17:01.000Z,5-10,175,12/29/1989,Miami,WR,DET,LAC,2,Ford Field,Detroit,Indoors,Field Turf,Controlled Climate,68.0,70,,
18374,2019091502,20190915023060,away,90.84,25.21,3.18,0.69,0.32,292.04,314.92,2540154,Keenan Allen,13,2019,20,3,00:17:00,LAC,2,5,LAC,6,10,2559169,SINGLEBACK,"1 RB, 1 TE, 3 WR",6,"3 DL, 3 LB, 5 DB",left,2019-09-15T19:17:02.000Z,2019-09-15T19:17:01.000Z,6-2,211,04/27/1992,California,WR,DET,LAC,2,Ford Field,Detroit,Indoors,Field Turf,Controlled Climate,68.0,70,,
18375,2019091502,20190915023060,away,91.7,32.35,1.25,1.28,0.12,335.76,63.64,2543732,Michael Schofield,75,2019,20,3,00:17:00,LAC,2,5,LAC,6,10,2559169,SINGLEBACK,"1 RB, 1 TE, 3 WR",6,"3 DL, 3 LB, 5 DB",left,2019-09-15T19:17:02.000Z,2019-09-15T19:17:01.000Z,6-6,301,11/15/1990,Michigan,G,DET,LAC,2,Ford Field,Detroit,Indoors,Field Turf,Controlled Climate,68.0,70,,
18376,2019091502,20190915023060,away,90.19,27.72,0.91,1.11,0.09,272.29,244.83,2557873,Dan Feeney,66,2019,20,3,00:17:00,LAC,2,5,LAC,6,10,2559169,SINGLEBACK,"1 RB, 1 TE, 3 WR",6,"3 DL, 3 LB, 5 DB",left,2019-09-15T19:17:02.000Z,2019-09-15T19:17:01.000Z,6-4,310,05/29/1994,Indiana,G,DET,LAC,2,Ford Field,Detroit,Indoors,Field Turf,Controlled Climate,68.0,70,,
18377,2019091502,20190915023060,away,91.03,34.78,2.49,0.63,0.25,317.43,350.0,2558026,Sam Tevi,69,2019,20,3,00:17:00,LAC,2,5,LAC,6,10,2559169,SINGLEBACK,"1 RB, 1 TE, 3 WR",6,"3 DL, 3 LB, 5 DB",left,2019-09-15T19:17:02.000Z,2019-09-15T19:17:01.000Z,6-5,315,11/15/1994,Utah,T,DET,LAC,2,Ford Field,Detroit,Indoors,Field Turf,Controlled Climate,68.0,70,,
18378,2019091502,20190915023060,away,89.28,36.3,3.62,1.47,0.36,245.63,288.7,2558846,Mike Williams,81,2019,20,3,00:17:00,LAC,2,5,LAC,6,10,2559169,SINGLEBACK,"1 RB, 1 TE, 3 WR",6,"3 DL, 3 LB, 5 DB",left,2019-09-15T19:17:02.000Z,2019-09-15T19:17:01.000Z,6-4,218,10/04/1994,Clemson,WR,DET,LAC,2,Ford Field,Detroit,Indoors,Field Turf,Controlled Climate,68.0,70,,
18379,2019091502,20190915023060,away,95.39,31.23,3.93,2.88,0.38,277.61,297.8,2559169,Austin Ekeler,30,2019,20,3,00:17:00,LAC,2,5,LAC,6,10,2559169,SINGLEBACK,"1 RB, 1 TE, 3 WR",6,"3 DL, 3 LB, 5 DB",left,2019-09-15T19:17:02.000Z,2019-09-15T19:17:01.000Z,5-10,200,05/17/1995,"Western State, Colo.",RB,DET,LAC,2,Ford Field,Detroit,Indoors,Field Turf,Controlled Climate,68.0,70,,
18380,2019091502,20190915023060,away,89.82,27.1,1.7,1.44,0.18,304.42,284.47,2561544,Trent Scott,78,2019,20,3,00:17:00,LAC,2,5,LAC,6,10,2559169,SINGLEBACK,"1 RB, 1 TE, 3 WR",6,"3 DL, 3 LB, 5 DB",left,2019-09-15T19:17:02.000Z,2019-09-15T19:17:01.000Z,6-5,320,01/25/1994,Grambling,T,DET,LAC,2,Ford Field,Detroit,Indoors,Field Turf,Controlled Climate,68.0,70,,
18381,2019091502,20190915023060,home,89.81,31.0,1.44,0.46,0.14,71.76,7.54,2535718,Damon Harrison,98,2019,20,3,00:17:00,LAC,2,5,LAC,6,10,2559169,SINGLEBACK,"1 RB, 1 TE, 3 WR",6,"3 DL, 3 LB, 5 DB",left,2019-09-15T19:17:02.000Z,2019-09-15T19:17:01.000Z,6-3,350,11/29/1988,William Penn,DT,DET,LAC,2,Ford Field,Detroit,Indoors,Field Turf,Controlled Climate,68.0,70,,
18382,2019091502,20190915023060,home,85.93,17.75,2.38,1.15,0.24,49.55,195.42,2540288,Darius Slay,23,2019,20,3,00:17:00,LAC,2,5,LAC,6,10,2559169,SINGLEBACK,"1 RB, 1 TE, 3 WR",6,"3 DL, 3 LB, 5 DB",left,2019-09-15T19:17:02.000Z,2019-09-15T19:17:01.000Z,6-0,190,01/01/1991,Mississippi State,CB,DET,LAC,2,Ford Field,Detroit,Indoors,Field Turf,Controlled Climate,68.0,70,,
18383,2019091502,20190915023060,home,85.33,38.17,1.75,0.83,0.17,135.33,298.48,2541200,Rashaan Melvin,29,2019,20,3,00:17:00,LAC,2,5,LAC,6,10,2559169,SINGLEBACK,"1 RB, 1 TE, 3 WR",6,"3 DL, 3 LB, 5 DB",left,2019-09-15T19:17:02.000Z,2019-09-15T19:17:01.000Z,6-2,196,10/02/1989,Northern Illinois,CB,DET,LAC,2,Ford Field,Detroit,Indoors,Field Turf,Controlled Climate,68.0,70,,
18384,2019091502,20190915023060,home,90.16,35.68,2.41,2.01,0.23,106.27,34.19,2543869,Devon Kennard,42,2019,20,3,00:17:00,LAC,2,5,LAC,6,10,2559169,SINGLEBACK,"1 RB, 1 TE, 3 WR",6,"3 DL, 3 LB, 5 DB",left,2019-09-15T19:17:02.000Z,2019-09-15T19:17:01.000Z,6-3,256,06/24/1991,Southern California,OLB,DET,LAC,2,Ford Field,Detroit,Indoors,Field Turf,Controlled Climate,68.0,70,,
18385,2019091502,20190915023060,home,89.36,25.27,2.45,1.64,0.25,35.17,354.05,2550572,Christian Jones,52,2019,20,3,00:17:00,LAC,2,5,LAC,6,10,2559169,SINGLEBACK,"1 RB, 1 TE, 3 WR",6,"3 DL, 3 LB, 5 DB",left,2019-09-15T19:17:02.000Z,2019-09-15T19:17:01.000Z,6-3,250,02/18/1991,Florida State,ILB,DET,LAC,2,Ford Field,Detroit,Indoors,Field Turf,Controlled Climate,68.0,70,,
18386,2019091502,20190915023060,home,85.72,26.17,2.57,2.63,0.24,57.63,7.8,2552262,Quandre Diggs,28,2019,20,3,00:17:00,LAC,2,5,LAC,6,10,2559169,SINGLEBACK,"1 RB, 1 TE, 3 WR",6,"3 DL, 3 LB, 5 DB",left,2019-09-15T19:17:02.000Z,2019-09-15T19:17:01.000Z,5-9,197,01/22/1993,Texas,CB,DET,LAC,2,Ford Field,Detroit,Indoors,Field Turf,Controlled Climate,68.0,70,,
18387,2019091502,20190915023060,home,89.2,27.51,0.78,1.19,0.08,84.83,281.52,2552278,Trey Flowers,90,2019,20,3,00:17:00,LAC,2,5,LAC,6,10,2559169,SINGLEBACK,"1 RB, 1 TE, 3 WR",6,"3 DL, 3 LB, 5 DB",left,2019-09-15T19:17:02.000Z,2019-09-15T19:17:01.000Z,6-2,265,08/16/1993,Arkansas,DE,DET,LAC,2,Ford Field,Detroit,Indoors,Field Turf,Controlled Climate,68.0,70,,
18388,2019091502,20190915023060,home,82.43,35.69,1.46,2.35,0.14,118.18,330.07,2553637,Justin Coleman,27,2019,20,3,00:17:00,LAC,2,5,LAC,6,10,2559169,SINGLEBACK,"1 RB, 1 TE, 3 WR",6,"3 DL, 3 LB, 5 DB",left,2019-09-15T19:17:02.000Z,2019-09-15T19:17:01.000Z,5-11,190,03/27/1993,Tennessee,CB,DET,LAC,2,Ford Field,Detroit,Indoors,Field Turf,Controlled Climate,68.0,70,,
18389,2019091502,20190915023060,home,91.56,33.16,2.4,0.85,0.24,143.4,66.57,2555265,A'Shawn Robinson,91,2019,20,3,00:17:00,LAC,2,5,LAC,6,10,2559169,SINGLEBACK,"1 RB, 1 TE, 3 WR",6,"3 DL, 3 LB, 5 DB",left,2019-09-15T19:17:02.000Z,2019-09-15T19:17:01.000Z,6-4,330,03/21/1995,Alabama,DT,DET,LAC,2,Ford Field,Detroit,Indoors,Field Turf,Controlled Climate,68.0,70,,
18390,2019091502,20190915023060,home,75.04,29.81,1.85,0.92,0.19,76.95,275.9,2560913,Tracy Walker,21,2019,20,3,00:17:00,LAC,2,5,LAC,6,10,2559169,SINGLEBACK,"1 RB, 1 TE, 3 WR",6,"3 DL, 3 LB, 5 DB",left,2019-09-15T19:17:02.000Z,2019-09-15T19:17:01.000Z,6-1,210,02/01/1995,Louisiana-Lafayette,DB,DET,LAC,2,Ford Field,Detroit,Indoors,Field Turf,Controlled Climate,68.0,70,,
18391,2019091502,20190915023060,home,86.71,30.46,2.26,1.4,0.23,94.75,44.97,2562755,Jahlani Tavai,51,2019,20,3,00:17:00,LAC,2,5,LAC,6,10,2559169,SINGLEBACK,"1 RB, 1 TE, 3 WR",6,"3 DL, 3 LB, 5 DB",left,2019-09-15T19:17:02.000Z,2019-09-15T19:17:01.000Z,6-2,250,09/28/1996,Hawaii,LB,DET,LAC,2,Ford Field,Detroit,Indoors,Field Turf,Controlled Climate,68.0,70,,
