,GameId,PlayId,Team,X,Y,S,A,Dis,Orientation,Dir,NflId,DisplayName,JerseyNumber,Season,YardLine,Quarter,GameClock,PossessionTeam,Down,Distance,FieldPosition,HomeScoreBeforePlay,VisitorScoreBeforePlay,NflIdRusher,OffenseFormation,OffensePersonnel,DefendersInTheBox,DefensePersonnel,PlayDirection,TimeHandoff,TimeSnap,PlayerHeight,PlayerWeight,PlayerBirthDate,PlayerCollegeName,Position,HomeTeamAbbr,VisitorTeamAbbr,Week,Stadium,Location,StadiumType,Turf,GameWeather,Temperature,Humidity,WindSpeed,WindDirection
27324,2019091511,20190915112524,away,89.75,35.13,2.32,1.15,0.24,4.63,314.91,2533543,Bobby Massie,70,2019,20,3,06:44:00,CHI,1,10,CHI,3,6,2562502,SINGLEBACK,"1 RB, 1 TE, 3 WR",6,"2 DL, 4 LB, 5 DB",left,2019-09-15T22:16:04.000Z,2019-09-15T22:16:03.000Z,6-6,325,08/01/1989,Mississippi,T,DEN,CHI,2,Empower Field at Mile High,Denver CO,Outdoor,Grass,Mostly Sunny,87.0,14,3,East
27325,2019091511,20190915112524,away,90.79,29.34,1.92,2.19,0.2,217.82,186.6,2539933,Kyle Long,75,2019,20,3,06:44:00,CHI,1,10,CHI,3,6,2562502,SINGLEBACK,"1 RB, 1 TE, 3 WR",6,"2 DL, 4 LB, 5 DB",left,2019-09-15T22:16:04.000Z,2019-09-15T22:16:03.000Z,6-6,332,12/05/1988,Oregon,OG,DEN,CHI,2,Empower Field at Mile High,Denver CO,Outdoor,Grass,Mostly Sunny,87.0,14,3,East
27326,2019091511,20190915112524,away,90.54,9.61,2.48,2.27,0.24,94.07,297.17,2543509,Allen Robinson,12,2019,20,3,06:44:00,CHI,1,10,CHI,3,6,2562502,SINGLEBACK,"1 RB, 1 TE, 3 WR",6,"2 DL, 4 LB, 5 DB",left,2019-09-15T22:16:04.000Z,2019-09-15T22:16:03.000Z,6-2,220,08/24/1993,Penn State,WR,DEN,CHI,2,Empower Field at Mile High,Denver CO,Outdoor,Grass,Mostly Sunny,87.0,14,3,East
27327,2019091511,20190915112524,away,88.8,27.72,2.62,1.77,0.26,151.01,287.81,2550169,Charles Leno Jr.,72,2019,20,3,06:44:00,CHI,1,10,CHI,3,6,2562502,SINGLEBACK,"1 RB, 1 TE, 3 WR",6,"2 DL, 4 LB, 5 DB",left,2019-09-15T22:16:04.000Z,2019-09-15T22:16:03.000Z,6-3,305,10/09/1991,Boise State,T,DEN,CHI,2,Empower Field at Mile High,Denver CO,Outdoor,Grass,Mostly Sunny,87.0,14,3,East
27328,2019091511,20190915112524,away,88.79,38.6,4.96,2.73,0.48,246.75,242.63,2550617,Taylor Gabriel,18,2019,20,3,06:44:00,CHI,1,10,CHI,3,6,2562502,SINGLEBACK,"1 RB, 1 TE, 3 WR",6,"2 DL, 4 LB, 5 DB",left,2019-09-15T22:16:04.000Z,2019-09-15T22:16:03.000Z,5-7,167,02/17/1991,Abilene Christian,WR,DEN,CHI,2,Empower Field at Mile High,Denver CO,Outdoor,Grass,Mostly Sunny,87.0,14,3,East
27329,2019091511,20190915112524,away,90.64,26.33,1.75,1.53,0.18,205.5,189.47,2555132,Cody Whitehair,65,2019,20,3,06:44:00,CHI,1,10,CHI,3,6,2562502,SINGLEBACK,"1 RB, 1 TE, 3 WR",6,"2 DL, 4 LB, 5 DB",left,2019-09-15T22:16:04.000Z,2019-09-15T22:16:03.000Z,6-3,309,07/11/1992,Kansas State,OG,DEN,CHI,2,Empower Field at Mile High,Denver CO,Outdoor,Grass,Mostly Sunny,87.0,14,3,East
27330,2019091511,20190915112524,away,93.77,30.49,3.99,1.73,0.39,6.41,79.08,2558008,Mitchell Trubisky,10,2019,20,3,06:44:00,CHI,1,10,CHI,3,6,2562502,SINGLEBACK,"1 RB, 1 TE, 3 WR",6,"2 DL, 4 LB, 5 DB",left,2019-09-15T22:16:04.000Z,2019-09-15T22:16:03.000Z,6-2,215,08/20/1994,North Carolina,QB,DEN,CHI,2,Empower Field at Mile High,Denver CO,Outdoor,Grass,Mostly Sunny,87.0,14,3,East
27331,2019091511,20190915112524,away,91.38,32.6,4.25,1.93,0.41,204.9,191.81,2558144,Adam Shaheen,87,2019,20,3,06:44:00,CHI,1,10,CHI,3,6,2562502,SINGLEBACK,"1 RB, 1 TE, 3 WR",6,"2 DL, 4 LB, 5 DB",left,2019-09-15T22:16:04.000Z,2019-09-15T22:16:03.000Z,6-6,257,10/24/1994,Ashland,TE,DEN,CHI,2,Empower Field at Mile High,Denver CO,Outdoor,Grass,Mostly Sunny,87.0,14,3,East
27332,2019091511,20190915112524,away,88.43,20.09,5.03,2.29,0.49,274.23,318.35,2560810,Anthony Miller,17,2019,20,3,06:44:00,CHI,1,10,CHI,3,6,2562502,SINGLEBACK,"1 RB, 1 TE, 3 WR",6,"2 DL, 4 LB, 5 DB",left,2019-09-15T22:16:04.000Z,2019-09-15T22:16:03.000Z,5-11,199,10/09/1994,Memphis,WR,DEN,CHI,2,Empower Field at Mile High,Denver CO,Outdoor,Grass,Mostly Sunny,87.0,14,3,East
27333,2019091511,20190915112524,away,88.93,30.92,2.43,1.24,0.26,229.91,295.4,2561035,James Daniels,68,2019,20,3,06:44:00,CHI,1,10,CHI,3,6,2562502,SINGLEBACK,"1 RB, 1 TE, 3 WR",6,"2 DL, 4 LB, 5 DB",left,2019-09-15T22:16:04.000Z,2019-09-15T22:16:03.000Z,6-3,305,09/13/1997,Iowa,C,DEN,CHI,2,Empower Field at Mile High,Denver CO,Outdoor,Grass,Mostly Sunny,87.0,14,3,East
27334,2019091511,20190915112524,away,94.56,31.43,4.62,3.77,0.44,267.68,303.2,2562502,David Montgomery,32,2019,20,3,06:44:00,CHI,1,10,CHI,3,6,2562502,SINGLEBACK,"1 RB, 1 TE, 3 WR",6,"2 DL, 4 LB, 5 DB",left,2019-09-15T22:16:04.000Z,2019-09-15T22:16:03.000Z,5-10,222,06/07/1997,Iowa State,RB,DEN,CHI,2,Empower Field at Mile High,Denver CO,Outdoor,Grass,Mostly Sunny,87.0,14,3,East
27335,2019091511,20190915112524,home,84.91,19.66,2.78,1.42,0.27,56.0,357.73,496735,Kareem Jackson,22,2019,20,3,06:44:00,CHI,1,10,CHI,3,6,2562502,SINGLEBACK,"1 RB, 1 TE, 3 WR",6,"2 DL, 4 LB, 5 DB",left,2019-09-15T22:16:04.000Z,2019-09-15T22:16:03.000Z,5-10,185,04/10/1988,Alabama,CB,DEN,CHI,2,Empower Field at Mile High,Denver CO,Outdoor,Grass,Mostly Sunny,87.0,14,3,East
27336,2019091511,20190915112524,home,90.04,35.91,1.75,1.21,0.17,152.69,36.15,2495202,Von Miller,58,2019,20,3,06:44:00,CHI,1,10,CHI,3,6,2562502,SINGLEBACK,"1 RB, 1 TE, 3 WR",6,"2 DL, 4 LB, 5 DB",left,2019-09-15T22:16:04.000Z,2019-09-15T22:16:03.000Z,6-3,250,03/26/1989,Texas A&M,OLB,DEN,CHI,2,Empower Field at Mile High,Denver CO,Outdoor,Grass,Mostly Sunny,87.0,14,3,East
27337,2019091511,20190915112524,home,82.78,40.7,3.04,1.0,0.3,181.58,273.21,2530510,Chris Harris,25,2019,20,3,06:44:00,CHI,1,10,CHI,3,6,2562502,SINGLEBACK,"1 RB, 1 TE, 3 WR",6,"2 DL, 4 LB, 5 DB",left,2019-09-15T22:16:04.000Z,2019-09-15T22:16:03.000Z,5-10,199,06/18/1989,Kansas,CB,DEN,CHI,2,Empower Field at Mile High,Denver CO,Outdoor,Grass,Mostly Sunny,87.0,14,3,East
27338,2019091511,20190915112524,home,90.27,30.93,1.85,1.19,0.19,92.9,142.98,2533026,Derek Wolfe,95,2019,20,3,06:44:00,CHI,1,10,CHI,3,6,2562502,SINGLEBACK,"1 RB, 1 TE, 3 WR",6,"2 DL, 4 LB, 5 DB",left,2019-09-15T22:16:04.000Z,2019-09-15T22:16:03.000Z,6-5,285,02/24/1990,Cincinnati,DE,DEN,CHI,2,Empower Field at Mile High,Denver CO,Outdoor,Grass,Mostly Sunny,87.0,14,3,East
27339,2019091511,20190915112524,home,90.15,28.55,0.61,1.58,0.05,52.32,80.05,2549926,Shelby Harris,96,2019,20,3,06:44:00,CHI,1,10,CHI,3,6,2562502,SINGLEBACK,"1 RB, 1 TE, 3 WR",6,"2 DL, 4 LB, 5 DB",left,2019-09-15T22:16:04.000Z,2019-09-15T22:16:03.000Z,6-2,290,08/11/1991,Illinois State,NT,DEN,CHI,2,Empower Field at Mile High,Denver CO,Outdoor,Grass,Mostly Sunny,87.0,14,3,East
27340,2019091511,20190915112524,home,87.0,26.93,1.87,1.42,0.18,75.97,102.35,2550167,Corey Nelson,56,2019,20,3,06:44:00,CHI,1,10,CHI,3,6,2562502,SINGLEBACK,"1 RB, 1 TE, 3 WR",6,"2 DL, 4 LB, 5 DB",left,2019-09-15T22:16:04.000Z,2019-09-15T22:16:03.000Z,6-1,226,04/22/1992,Oklahoma,ILB,DEN,CHI,2,Empower Field at Mile High,Denver CO,Outdoor,Grass,Mostly Sunny,87.0,14,3,East
27341,2019091511,20190915112524,home,79.04,34.85,1.5,4.15,0.13,93.23,85.58,2555550,Justin Simmons,31,2019,20,3,06:44:00,CHI,1,10,CHI,3,6,2562502,SINGLEBACK,"1 RB, 1 TE, 3 WR",6,"2 DL, 4 LB, 5 DB",left,2019-09-15T22:16:04.000Z,2019-09-15T22:16:03.000Z,6-2,202,11/19/1993,Boston College,SS,DEN,CHI,2,Empower Field at Mile High,Denver CO,Outdoor,Grass,Mostly Sunny,87.0,14,3,East
27342,2019091511,20190915112524,home,74.72,19.98,3.7,2.25,0.36,127.15,230.16,2556278,Will Parks,34,2019,20,3,06:44:00,CHI,1,10,CHI,3,6,2562502,SINGLEBACK,"1 RB, 1 TE, 3 WR",6,"2 DL, 4 LB, 5 DB",left,2019-09-15T22:16:04.000Z,2019-09-15T22:16:03.000Z,6-1,194,07/29/1994,Arizona,FS,DEN,CHI,2,Empower Field at Mile High,Denver CO,Outdoor,Grass,Mostly Sunny,87.0,14,3,East
27343,2019091511,20190915112524,home,87.34,30.68,1.85,1.48,0.18,77.55,116.73,2560763,Josey Jewell,47,2019,20,3,06:44:00,CHI,1,10,CHI,3,6,2562502,SINGLEBACK,"1 RB, 1 TE, 3 WR",6,"2 DL, 4 LB, 5 DB",left,2019-09-15T22:16:04.000Z,2019-09-15T22:16:03.000Z,6-2,236,12/25/1994,Iowa,LB,DEN,CHI,2,Empower Field at Mile High,Denver CO,Outdoor,Grass,Mostly Sunny,87.0,14,3,East
27344,2019091511,20190915112524,home,87.33,9.04,1.97,1.83,0.2,81.07,50.28,2560946,Isaac Yiadom,26,2019,20,3,06:44:00,CHI,1,10,CHI,3,6,2562502,SINGLEBACK,"1 RB, 1 TE, 3 WR",6,"2 DL, 4 LB, 5 DB",left,2019-09-15T22:16:04.000Z,2019-09-15T22:16:03.000Z,6-1,190,02/20/1996,Boston College,DB,DEN,CHI,2,Empower Field at Mile High,Denver CO,Outdoor,Grass,Mostly Sunny,87.0,14,3,East
27345,2019091511,20190915112524,home,90.08,25.46,0.26,2.06,0.03,42.89,81.74,2561020,Bradley Chubb,55,2019,20,3,06:44:00,CHI,1,10,CHI,3,6,2562502,SINGLEBACK,"1 RB, 1 TE, 3 WR",6,"2 DL, 4 LB, 5 DB",left,2019-09-15T22:16:04.000Z,2019-09-15T22:16:03.000Z,6-4,275,06/24/1996,North Carolina State,DE,DEN,CHI,2,Empower Field at Mile High,Denver CO,Outdoor,Grass,Mostly Sunny,87.0,14,3,East
