,GameId,PlayId,Team,X,Y,S,A,Dis,Orientation,Dir,NflId,DisplayName,JerseyNumber,Season,YardLine,Quarter,GameClock,PossessionTeam,Down,Distance,FieldPosition,HomeScoreBeforePlay,VisitorScoreBeforePlay,NflIdRusher,OffenseFormation,OffensePersonnel,DefendersInTheBox,DefensePersonnel,PlayDirection,TimeHandoff,TimeSnap,PlayerHeight,PlayerWeight,PlayerBirthDate,PlayerCollegeName,Position,HomeTeamAbbr,VisitorTeamAbbr,Week,Stadium,Location,StadiumType,Turf,GameWeather,Temperature,Humidity,WindSpeed,WindDirection
66748,2019100605,20191006050127,away,71.31,17.89,2.16,0.47,0.21,22.07,235.7,2495108,Prince Amukamara,20,2019,37,1,13:18:00,OAK,1,10,OAK,0,0,2562377,SINGLEBACK,"1 RB, 2 TE, 2 WR",6,"2 DL, 4 LB, 5 DB",left,2019-10-06T17:08:13.000Z,2019-10-06T17:08:11.000Z,6-0,204,06/06/1989,Nebraska,CB,OAK,CHI,5,Tottenham Hotspur Stadium,"London, England",Outdoors,Turf,Cloudy,59.0,60,15,WNW
66749,2019100605,20191006050127,away,74.57,33.31,4.31,1.62,0.44,154.58,135.49,2495343,Buster Skrine,24,2019,37,1,13:18:00,OAK,1,10,OAK,0,0,2562377,SINGLEBACK,"1 RB, 2 TE, 2 WR",6,"2 DL, 4 LB, 5 DB",left,2019-10-06T17:08:13.000Z,2019-10-06T17:08:11.000Z,5-9,185,04/26/1989,Chattanooga,CB,OAK,CHI,5,Tottenham Hotspur Stadium,"London, England",Outdoors,Turf,Cloudy,59.0,60,15,WNW
66750,2019100605,20191006050127,away,69.87,27.22,2.89,0.83,0.28,84.48,150.89,2532961,Danny Trevathan,59,2019,37,1,13:18:00,OAK,1,10,OAK,0,0,2562377,SINGLEBACK,"1 RB, 2 TE, 2 WR",6,"2 DL, 4 LB, 5 DB",left,2019-10-06T17:08:13.000Z,2019-10-06T17:08:11.000Z,6-0,239,03/24/1990,Kentucky,ILB,OAK,CHI,5,Tottenham Hotspur Stadium,"London, England",Outdoors,Turf,Cloudy,59.0,60,15,WNW
66751,2019100605,20191006050127,away,72.42,28.67,0.4,0.36,0.04,124.22,201.82,2533433,Akiem Hicks,96,2019,37,1,13:18:00,OAK,1,10,OAK,0,0,2562377,SINGLEBACK,"1 RB, 2 TE, 2 WR",6,"2 DL, 4 LB, 5 DB",left,2019-10-06T17:08:13.000Z,2019-10-06T17:08:11.000Z,6-4,352,11/16/1989,"Regina, Can.",DT,OAK,CHI,5,Tottenham Hotspur Stadium,"London, England",Outdoors,Turf,Cloudy,59.0,60,15,WNW
66752,2019100605,20191006050127,away,73.3,24.87,2.31,2.61,0.24,28.36,16.88,2543463,Khalil Mack,52,2019,37,1,13:18:00,OAK,1,10,OAK,0,0,2562377,SINGLEBACK,"1 RB, 2 TE, 2 WR",6,"2 DL, 4 LB, 5 DB",left,2019-10-06T17:08:13.000Z,2019-10-06T17:08:11.000Z,6-3,269,02/22/1991,Buffalo,OLB,OAK,CHI,5,Tottenham Hotspur Stadium,"London, England",Outdoors,Turf,Cloudy,59.0,60,15,WNW
66753,2019100605,20191006050127,away,66.72,32.9,2.9,2.37,0.28,111.37,117.4,2543470,Ha Ha Clinton-Dix,21,2019,37,1,13:18:00,OAK,1,10,OAK,0,0,2562377,SINGLEBACK,"1 RB, 2 TE, 2 WR",6,"2 DL, 4 LB, 5 DB",left,2019-10-06T17:08:13.000Z,2019-10-06T17:08:11.000Z,6-1,211,12/21/1992,Alabama,FS,OAK,CHI,5,Tottenham Hotspur Stadium,"London, England",Outdoors,Turf,Cloudy,59.0,60,15,WNW
66754,2019100605,20191006050127,away,62.3,38.81,0.88,3.44,0.07,118.61,152.22,2543681,Kyle Fuller,23,2019,37,1,13:18:00,OAK,1,10,OAK,0,0,2562377,SINGLEBACK,"1 RB, 2 TE, 2 WR",6,"2 DL, 4 LB, 5 DB",left,2019-10-06T17:08:13.000Z,2019-10-06T17:08:11.000Z,5-11,194,02/16/1992,Virginia Tech,CB,OAK,CHI,5,Tottenham Hotspur Stadium,"London, England",Outdoors,Turf,Cloudy,59.0,60,15,WNW
66755,2019100605,20191006050127,away,71.45,27.67,2.13,0.99,0.21,30.52,316.72,2552489,Eddie Goldman,91,2019,37,1,13:18:00,OAK,1,10,OAK,0,0,2562377,SINGLEBACK,"1 RB, 2 TE, 2 WR",6,"2 DL, 4 LB, 5 DB",left,2019-10-06T17:08:13.000Z,2019-10-06T17:08:11.000Z,6-3,320,01/06/1994,Florida State,NT,OAK,CHI,5,Tottenham Hotspur Stadium,"London, England",Outdoors,Turf,Cloudy,59.0,60,15,WNW
66756,2019100605,20191006050127,away,72.51,30.82,2.07,2.42,0.21,167.22,204.93,2555285,Leonard Floyd,94,2019,37,1,13:18:00,OAK,1,10,OAK,0,0,2562377,SINGLEBACK,"1 RB, 2 TE, 2 WR",6,"2 DL, 4 LB, 5 DB",left,2019-10-06T17:08:13.000Z,2019-10-06T17:08:11.000Z,6-5,240,09/08/1992,Georgia,OLB,OAK,CHI,5,Tottenham Hotspur Stadium,"London, England",Outdoors,Turf,Cloudy,59.0,60,15,WNW
66757,2019100605,20191006050127,away,57.09,25.94,1.64,1.35,0.17,110.77,244.53,2558176,Eddie Jackson,39,2019,37,1,13:18:00,OAK,1,10,OAK,0,0,2562377,SINGLEBACK,"1 RB, 2 TE, 2 WR",6,"2 DL, 4 LB, 5 DB",left,2019-10-06T17:08:13.000Z,2019-10-06T17:08:11.000Z,6-0,202,12/10/1993,Alabama,FS,OAK,CHI,5,Tottenham Hotspur Stadium,"London, England",Outdoors,Turf,Cloudy,59.0,60,15,WNW
66758,2019100605,20191006050127,away,70.04,24.53,2.08,1.67,0.2,88.14,84.82,2560877,Roquan Smith,58,2019,37,1,13:18:00,OAK,1,10,OAK,0,0,2562377,SINGLEBACK,"1 RB, 2 TE, 2 WR",6,"2 DL, 4 LB, 5 DB",left,2019-10-06T17:08:13.000Z,2019-10-06T17:08:11.000Z,6-0,230,04/08/1997,Georgia,LB,OAK,CHI,5,Tottenham Hotspur Stadium,"London, England",Outdoors,Turf,Cloudy,59.0,60,15,WNW
66759,2019100605,20191006050127,home,73.14,28.37,0.39,0.19,0.04,301.3,268.0,2495171,Rodney Hudson,61,2019,37,1,13:18:00,OAK,1,10,OAK,0,0,2562377,SINGLEBACK,"1 RB, 2 TE, 2 WR",6,"2 DL, 4 LB, 5 DB",left,2019-10-06T17:08:13.000Z,2019-10-06T17:08:11.000Z,6-2,315,07/12/1989,Florida State,C,OAK,CHI,5,Tottenham Hotspur Stadium,"London, England",Outdoors,Turf,Cloudy,59.0,60,15,WNW
66760,2019100605,20191006050127,home,72.44,27.75,1.31,1.24,0.14,321.65,304.04,2506420,Richie Incognito,64,2019,37,1,13:18:00,OAK,1,10,OAK,0,0,2562377,SINGLEBACK,"1 RB, 2 TE, 2 WR",6,"2 DL, 4 LB, 5 DB",left,2019-10-06T17:08:13.000Z,2019-10-06T17:08:11.000Z,6-3,325,07/05/1983,Nebraska,G,OAK,CHI,5,Tottenham Hotspur Stadium,"London, England",Outdoors,Turf,Cloudy,59.0,60,15,WNW
66761,2019100605,20191006050127,home,77.78,28.17,4.67,0.55,0.46,54.02,85.81,2543499,Derek Carr,4,2019,37,1,13:18:00,OAK,1,10,OAK,0,0,2562377,SINGLEBACK,"1 RB, 2 TE, 2 WR",6,"2 DL, 4 LB, 5 DB",left,2019-10-06T17:08:13.000Z,2019-10-06T17:08:11.000Z,6-3,210,03/28/1991,Fresno State,QB,OAK,CHI,5,Tottenham Hotspur Stadium,"London, England",Outdoors,Turf,Cloudy,59.0,60,15,WNW
66762,2019100605,20191006050127,home,72.95,30.23,2.54,1.12,0.25,304.0,218.71,2552350,Trent Brown,77,2019,37,1,13:18:00,OAK,1,10,OAK,0,0,2562377,SINGLEBACK,"1 RB, 2 TE, 2 WR",6,"2 DL, 4 LB, 5 DB",left,2019-10-06T17:08:13.000Z,2019-10-06T17:08:11.000Z,6-8,380,04/13/1993,Florida,T,OAK,CHI,5,Tottenham Hotspur Stadium,"London, England",Outdoors,Turf,Cloudy,59.0,60,15,WNW
66763,2019100605,20191006050127,home,73.96,24.95,2.76,2.27,0.28,259.65,7.89,2552408,Darren Waller,83,2019,37,1,13:18:00,OAK,1,10,OAK,0,0,2562377,SINGLEBACK,"1 RB, 2 TE, 2 WR",6,"2 DL, 4 LB, 5 DB",left,2019-10-06T17:08:13.000Z,2019-10-06T17:08:11.000Z,6-6,255,09/13/1992,Georgia Tech,TE,OAK,CHI,5,Tottenham Hotspur Stadium,"London, England",Outdoors,Turf,Cloudy,59.0,60,15,WNW
66764,2019100605,20191006050127,home,73.47,26.65,3.63,2.4,0.36,204.06,219.69,2553460,Denzelle Good,71,2019,37,1,13:18:00,OAK,1,10,OAK,0,0,2562377,SINGLEBACK,"1 RB, 2 TE, 2 WR",6,"2 DL, 4 LB, 5 DB",left,2019-10-06T17:08:13.000Z,2019-10-06T17:08:11.000Z,6-5,340,03/08/1991,Mars Hill,OT,OAK,CHI,5,Tottenham Hotspur Stadium,"London, England",Outdoors,Turf,Cloudy,59.0,60,15,WNW
66765,2019100605,20191006050127,home,72.59,34.5,4.44,2.73,0.43,210.44,215.83,2555413,Trevor Davis,11,2019,37,1,13:18:00,OAK,1,10,OAK,0,0,2562377,SINGLEBACK,"1 RB, 2 TE, 2 WR",6,"2 DL, 4 LB, 5 DB",left,2019-10-06T17:08:13.000Z,2019-10-06T17:08:11.000Z,6-1,188,07/04/1993,California,WR,OAK,CHI,5,Tottenham Hotspur Stadium,"London, England",Outdoors,Turf,Cloudy,59.0,60,15,WNW
66766,2019100605,20191006050127,home,71.78,27.27,2.49,1.53,0.26,321.06,309.23,2560811,Kolton Miller,74,2019,37,1,13:18:00,OAK,1,10,OAK,0,0,2562377,SINGLEBACK,"1 RB, 2 TE, 2 WR",6,"2 DL, 4 LB, 5 DB",left,2019-10-06T17:08:13.000Z,2019-10-06T17:08:11.000Z,6-8,325,10/09/1995,UCLA,T,OAK,CHI,5,Tottenham Hotspur Stadium,"London, England",Outdoors,Turf,Cloudy,59.0,60,15,WNW
66767,2019100605,20191006050127,home,74.91,31.18,1.51,1.81,0.15,349.0,161.08,2562317,Foster Moreau,87,2019,37,1,13:18:00,OAK,1,10,OAK,0,0,2562377,SINGLEBACK,"1 RB, 2 TE, 2 WR",6,"2 DL, 4 LB, 5 DB",left,2019-10-06T17:08:13.000Z,2019-10-06T17:08:11.000Z,6-4,250,05/06/1997,Louisiana State,TE,OAK,CHI,5,Tottenham Hotspur Stadium,"London, England",Outdoors,Turf,Cloudy,59.0,60,15,WNW
66768,2019100605,20191006050127,home,77.17,27.24,4.22,2.44,0.42,250.73,249.26,2562377,Josh Jacobs,28,2019,37,1,13:18:00,OAK,1,10,OAK,0,0,2562377,SINGLEBACK,"1 RB, 2 TE, 2 WR",6,"2 DL, 4 LB, 5 DB",left,2019-10-06T17:08:13.000Z,2019-10-06T17:08:11.000Z,5-10,220,02/11/1998,Alabama,RB,OAK,CHI,5,Tottenham Hotspur Stadium,"London, England",Outdoors,Turf,Cloudy,59.0,60,15,WNW
66769,2019100605,20191006050127,home,72.04,18.79,3.01,0.42,0.3,234.42,244.29,2562393,Keelan Doss,18,2019,37,1,13:18:00,OAK,1,10,OAK,0,0,2562377,SINGLEBACK,"1 RB, 2 TE, 2 WR",6,"2 DL, 4 LB, 5 DB",left,2019-10-06T17:08:13.000Z,2019-10-06T17:08:11.000Z,6-3,215,03/21/1996,California-Davis,WR,OAK,CHI,5,Tottenham Hotspur Stadium,"London, England",Outdoors,Turf,Cloudy,59.0,60,15,WNW
