,GameId,PlayId,Team,X,Y,S,A,Dis,Orientation,Dir,NflId,DisplayName,JerseyNumber,Season,YardLine,Quarter,GameClock,PossessionTeam,Down,Distance,FieldPosition,HomeScoreBeforePlay,VisitorScoreBeforePlay,NflIdRusher,OffenseFormation,OffensePersonnel,DefendersInTheBox,DefensePersonnel,PlayDirection,TimeHandoff,TimeSnap,PlayerHeight,PlayerWeight,PlayerBirthDate,PlayerCollegeName,Position,HomeTeamAbbr,VisitorTeamAbbr,Week,Stadium,Location,StadiumType,Turf,GameWeather,Temperature,Humidity,WindSpeed,WindDirection
47630,2019092900,20190929003846,away,66.65,29.6,2.26,1.45,0.23,247.87,320.62,497048,Rodger Saffold,76,2019,43,4,05:09:00,TEN,2,3,TEN,10,24,2556075,SINGLEBACK,"1 RB, 2 TE, 2 WR",8,"4 DL, 3 LB, 4 DB",left,2019-09-29T19:47:04.000Z,2019-09-29T19:47:03.000Z,6-5,325,06/06/1988,Indiana,G,ATL,TEN,4,Mercedes-Benz Stadium,"Atlanta, GA","Domed, closed",FieldTurf,,,0,,
47631,2019092900,20190929003846,away,67.51,30.93,1.32,0.24,0.13,297.52,339.0,2532883,Ben Jones,60,2019,43,4,05:09:00,TEN,2,3,TEN,10,24,2556075,SINGLEBACK,"1 RB, 2 TE, 2 WR",8,"4 DL, 3 LB, 4 DB",left,2019-09-29T19:47:04.000Z,2019-09-29T19:47:03.000Z,6-3,308,07/02/1989,Georgia,C,ATL,TEN,4,Mercedes-Benz Stadium,"Atlanta, GA","Domed, closed",FieldTurf,,,0,,
47632,2019092900,20190929003846,away,67.11,28.99,2.33,2.51,0.25,289.63,329.13,2535131,Dennis Kelly,71,2019,43,4,05:09:00,TEN,2,3,TEN,10,24,2556075,SINGLEBACK,"1 RB, 2 TE, 2 WR",8,"4 DL, 3 LB, 4 DB",left,2019-09-29T19:47:04.000Z,2019-09-29T19:47:03.000Z,6-8,321,01/16/1990,Purdue,OT,ATL,TEN,4,Mercedes-Benz Stadium,"Atlanta, GA","Domed, closed",FieldTurf,,,0,,
47633,2019092900,20190929003846,away,69.46,28.53,3.87,0.97,0.39,291.12,20.53,2552401,MyCole Pruitt,85,2019,43,4,05:09:00,TEN,2,3,TEN,10,24,2556075,SINGLEBACK,"1 RB, 2 TE, 2 WR",8,"4 DL, 3 LB, 4 DB",left,2019-09-29T19:47:04.000Z,2019-09-29T19:47:03.000Z,6-2,243,03/24/1992,Southern Illinois,TE,ATL,TEN,4,Mercedes-Benz Stadium,"Atlanta, GA","Domed, closed",FieldTurf,,,0,,
47634,2019092900,20190929003846,away,71.85,30.47,5.33,1.42,0.52,333.89,73.09,2552466,Marcus Mariota,8,2019,43,4,05:09:00,TEN,2,3,TEN,10,24,2556075,SINGLEBACK,"1 RB, 2 TE, 2 WR",8,"4 DL, 3 LB, 4 DB",left,2019-09-29T19:47:04.000Z,2019-09-29T19:47:03.000Z,6-4,222,10/30/1993,Oregon,QB,ATL,TEN,4,Mercedes-Benz Stadium,"Atlanta, GA","Domed, closed",FieldTurf,,,0,,
47635,2019092900,20190929003846,away,68.06,34.44,1.75,0.8,0.18,11.86,359.36,2555279,Jack Conklin,78,2019,43,4,05:09:00,TEN,2,3,TEN,10,24,2556075,SINGLEBACK,"1 RB, 2 TE, 2 WR",8,"4 DL, 3 LB, 4 DB",left,2019-09-29T19:47:04.000Z,2019-09-29T19:47:03.000Z,6-6,308,08/17/1994,Michigan State,T,ATL,TEN,4,Mercedes-Benz Stadium,"Atlanta, GA","Domed, closed",FieldTurf,,,0,,
47636,2019092900,20190929003846,away,67.2,38.65,4.39,2.67,0.43,290.77,319.42,2555317,Tajae Sharpe,19,2019,43,4,05:09:00,TEN,2,3,TEN,10,24,2556075,SINGLEBACK,"1 RB, 2 TE, 2 WR",8,"4 DL, 3 LB, 4 DB",left,2019-09-29T19:47:04.000Z,2019-09-29T19:47:03.000Z,6-2,194,12/23/1994,Massachusetts,WR,ATL,TEN,4,Mercedes-Benz Stadium,"Atlanta, GA","Domed, closed",FieldTurf,,,0,,
47637,2019092900,20190929003846,away,72.28,31.28,4.64,3.23,0.45,301.29,284.45,2556075,Derrick Henry,22,2019,43,4,05:09:00,TEN,2,3,TEN,10,24,2556075,SINGLEBACK,"1 RB, 2 TE, 2 WR",8,"4 DL, 3 LB, 4 DB",left,2019-09-29T19:47:04.000Z,2019-09-29T19:47:03.000Z,6-3,247,01/04/1994,Alabama,RB,ATL,TEN,4,Mercedes-Benz Stadium,"Atlanta, GA","Domed, closed",FieldTurf,,,0,,
47638,2019092900,20190929003846,away,67.96,26.31,2.19,2.37,0.22,287.38,300.88,2557848,Corey Davis,84,2019,43,4,05:09:00,TEN,2,3,TEN,10,24,2556075,SINGLEBACK,"1 RB, 2 TE, 2 WR",8,"4 DL, 3 LB, 4 DB",left,2019-09-29T19:47:04.000Z,2019-09-29T19:47:03.000Z,6-3,209,01/11/1995,Western Michigan,WR,ATL,TEN,4,Mercedes-Benz Stadium,"Atlanta, GA","Domed, closed",FieldTurf,,,0,,
47639,2019092900,20190929003846,away,69.51,35.17,1.28,0.7,0.13,300.19,74.97,2558207,Jonnu Smith,81,2019,43,4,05:09:00,TEN,2,3,TEN,10,24,2556075,SINGLEBACK,"1 RB, 2 TE, 2 WR",8,"4 DL, 3 LB, 4 DB",left,2019-09-29T19:47:04.000Z,2019-09-29T19:47:03.000Z,6-3,248,08/22/1995,Florida International,TE,ATL,TEN,4,Mercedes-Benz Stadium,"Atlanta, GA","Domed, closed",FieldTurf,,,0,,
47640,2019092900,20190929003846,away,67.98,32.3,1.49,0.22,0.15,332.02,340.84,2562641,Nate Davis,64,2019,43,4,05:09:00,TEN,2,3,TEN,10,24,2556075,SINGLEBACK,"1 RB, 2 TE, 2 WR",8,"4 DL, 3 LB, 4 DB",left,2019-09-29T19:47:04.000Z,2019-09-29T19:47:03.000Z,6-3,316,09/23/1996,North Carolina-Charlotte,G,ATL,TEN,4,Mercedes-Benz Stadium,"Atlanta, GA","Domed, closed",FieldTurf,,,0,,
47641,2019092900,20190929003846,home,67.71,32.85,1.74,1.15,0.17,156.54,3.26,2495116,Allen Bailey,93,2019,43,4,05:09:00,TEN,2,3,TEN,10,24,2556075,SINGLEBACK,"1 RB, 2 TE, 2 WR",8,"4 DL, 3 LB, 4 DB",left,2019-09-29T19:47:04.000Z,2019-09-29T19:47:03.000Z,6-3,288,03/25/1989,Miami,DE,ATL,TEN,4,Mercedes-Benz Stadium,"Atlanta, GA","Domed, closed",FieldTurf,,,0,,
47642,2019092900,20190929003846,home,65.88,38.4,2.22,4.46,0.2,100.47,342.85,2539334,Desmond Trufant,21,2019,43,4,05:09:00,TEN,2,3,TEN,10,24,2556075,SINGLEBACK,"1 RB, 2 TE, 2 WR",8,"4 DL, 3 LB, 4 DB",left,2019-09-29T19:47:04.000Z,2019-09-29T19:47:03.000Z,6-0,190,09/10/1990,Washington,CB,ATL,TEN,4,Mercedes-Benz Stadium,"Atlanta, GA","Domed, closed",FieldTurf,,,0,,
47643,2019092900,20190929003846,home,67.09,26.49,3.58,1.17,0.35,106.15,13.1,2541431,Kemal Ishmael,36,2019,43,4,05:09:00,TEN,2,3,TEN,10,24,2556075,SINGLEBACK,"1 RB, 2 TE, 2 WR",8,"4 DL, 3 LB, 4 DB",left,2019-09-29T19:47:04.000Z,2019-09-29T19:47:03.000Z,6-0,206,05/06/1991,Central Florida,FS,ATL,TEN,4,Mercedes-Benz Stadium,"Atlanta, GA","Domed, closed",FieldTurf,,,0,,
47644,2019092900,20190929003846,home,58.46,28.93,1.65,1.7,0.16,78.63,80.28,2543850,Ricardo Allen,37,2019,43,4,05:09:00,TEN,2,3,TEN,10,24,2556075,SINGLEBACK,"1 RB, 2 TE, 2 WR",8,"4 DL, 3 LB, 4 DB",left,2019-09-29T19:47:04.000Z,2019-09-29T19:47:03.000Z,5-9,186,12/18/1991,Purdue,SS,ATL,TEN,4,Mercedes-Benz Stadium,"Atlanta, GA","Domed, closed",FieldTurf,,,0,,
47645,2019092900,20190929003846,home,68.93,35.4,1.22,2.28,0.14,114.93,91.98,2552301,Vic Beasley,44,2019,43,4,05:09:00,TEN,2,3,TEN,10,24,2556075,SINGLEBACK,"1 RB, 2 TE, 2 WR",8,"4 DL, 3 LB, 4 DB",left,2019-09-29T19:47:04.000Z,2019-09-29T19:47:03.000Z,6-3,246,07/08/1992,Clemson,OLB,ATL,TEN,4,Mercedes-Benz Stadium,"Atlanta, GA","Domed, closed",FieldTurf,,,0,,
47646,2019092900,20190929003846,home,66.1,29.07,1.35,0.4,0.14,47.43,333.42,2552327,Grady Jarrett,97,2019,43,4,05:09:00,TEN,2,3,TEN,10,24,2556075,SINGLEBACK,"1 RB, 2 TE, 2 WR",8,"4 DL, 3 LB, 4 DB",left,2019-09-29T19:47:04.000Z,2019-09-29T19:47:03.000Z,6-0,305,04/28/1993,Clemson,DT,ATL,TEN,4,Mercedes-Benz Stadium,"Atlanta, GA","Domed, closed",FieldTurf,,,0,,
47647,2019092900,20190929003846,home,66.74,30.91,1.52,0.46,0.16,108.39,350.79,2552329,Tyeler Davison,96,2019,43,4,05:09:00,TEN,2,3,TEN,10,24,2556075,SINGLEBACK,"1 RB, 2 TE, 2 WR",8,"4 DL, 3 LB, 4 DB",left,2019-09-29T19:47:04.000Z,2019-09-29T19:47:03.000Z,6-2,309,09/03/1992,Fresno State,DT,ATL,TEN,4,Mercedes-Benz Stadium,"Atlanta, GA","Domed, closed",FieldTurf,,,0,,
47648,2019092900,20190929003846,home,64.57,31.4,3.38,1.41,0.32,97.1,35.47,2555162,Deion Jones,45,2019,43,4,05:09:00,TEN,2,3,TEN,10,24,2556075,SINGLEBACK,"1 RB, 2 TE, 2 WR",8,"4 DL, 3 LB, 4 DB",left,2019-09-29T19:47:04.000Z,2019-09-29T19:47:03.000Z,6-1,227,11/04/1994,Louisiana State,MLB,ATL,TEN,4,Mercedes-Benz Stadium,"Atlanta, GA","Domed, closed",FieldTurf,,,0,,
47649,2019092900,20190929003846,home,68.02,35.01,2.88,0.44,0.29,148.59,42.88,2555255,De'Vondre Campbell,59,2019,43,4,05:09:00,TEN,2,3,TEN,10,24,2556075,SINGLEBACK,"1 RB, 2 TE, 2 WR",8,"4 DL, 3 LB, 4 DB",left,2019-09-29T19:47:04.000Z,2019-09-29T19:47:03.000Z,6-3,232,07/01/1993,Minnesota,OLB,ATL,TEN,4,Mercedes-Benz Stadium,"Atlanta, GA","Domed, closed",FieldTurf,,,0,,
47650,2019092900,20190929003846,home,68.76,28.65,3.99,1.0,0.43,83.58,24.8,2557872,Takkarist McKinley,98,2019,43,4,05:09:00,TEN,2,3,TEN,10,24,2556075,SINGLEBACK,"1 RB, 2 TE, 2 WR",8,"4 DL, 3 LB, 4 DB",left,2019-09-29T19:47:04.000Z,2019-09-29T19:47:03.000Z,6-2,265,11/02/1995,UCLA,DE,ATL,TEN,4,Mercedes-Benz Stadium,"Atlanta, GA","Domed, closed",FieldTurf,,,0,,
47651,2019092900,20190929003846,home,64.78,25.19,2.98,2.96,0.28,44.33,90.76,2560830,Isaiah Oliver,26,2019,43,4,05:09:00,TEN,2,3,TEN,10,24,2556075,SINGLEBACK,"1 RB, 2 TE, 2 WR",8,"4 DL, 3 LB, 4 DB",left,2019-09-29T19:47:04.000Z,2019-09-29T19:47:03.000Z,6-0,210,09/30/1996,Colorado,CB,ATL,TEN,4,Mercedes-Benz Stadium,"Atlanta, GA","Domed, closed",FieldTurf,,,0,,
