,GameId,PlayId,Team,X,Y,S,A,Dis,Orientation,Dir,NflId,DisplayName,JerseyNumber,Season,YardLine,Quarter,GameClock,PossessionTeam,Down,Distance,FieldPosition,HomeScoreBeforePlay,VisitorScoreBeforePlay,NflIdRusher,OffenseFormation,OffensePersonnel,DefendersInTheBox,DefensePersonnel,PlayDirection,TimeHandoff,TimeSnap,PlayerHeight,PlayerWeight,PlayerBirthDate,PlayerCollegeName,Position,HomeTeamAbbr,VisitorTeamAbbr,Week,Stadium,Location,StadiumType,Turf,GameWeather,Temperature,Humidity,WindSpeed,WindDirection
63250,2019100601,20191006012011,away,60.2,22.79,2.83,0.54,0.29,297.38,229.61,71461,A.Q. Shipley,53,2019,48,2,01:23:00,ARZ,1,10,ARZ,6,10,2553435,SINGLEBACK,"1 RB, 1 TE, 3 WR",7,"4 DL, 2 LB, 5 DB",left,2019-10-06T18:19:00.000Z,2019-10-06T18:18:58.000Z,6-1,307,05/22/1986,Penn State,C,CIN,ARI,5,Paul Brown Stadium,"Cincinnati, OH",Outdoor,Twenty Four/Seven Turf,Cloudy,76.0,68,"6 mph, Gusts to 10",SW
63251,2019100601,20191006012011,away,61.95,30.91,1.36,3.43,0.12,340.22,60.31,2506106,Larry Fitzgerald,11,2019,48,2,01:23:00,ARZ,1,10,ARZ,6,10,2553435,SINGLEBACK,"1 RB, 1 TE, 3 WR",7,"4 DL, 2 LB, 5 DB",left,2019-10-06T18:19:00.000Z,2019-10-06T18:18:58.000Z,6-3,218,08/31/1983,Pittsburgh,WR,CIN,ARI,5,Paul Brown Stadium,"Cincinnati, OH",Outdoor,Twenty Four/Seven Turf,Cloudy,76.0,68,"6 mph, Gusts to 10",SW
63252,2019100601,20191006012011,away,61.96,23.65,1.7,0.79,0.17,255.75,183.79,2533342,J.R. Sweezy,64,2019,48,2,01:23:00,ARZ,1,10,ARZ,6,10,2553435,SINGLEBACK,"1 RB, 1 TE, 3 WR",7,"4 DL, 2 LB, 5 DB",left,2019-10-06T18:19:00.000Z,2019-10-06T18:18:58.000Z,6-5,310,04/08/1989,North Carolina State,G,CIN,ARI,5,Paul Brown Stadium,"Cincinnati, OH",Outdoor,Twenty Four/Seven Turf,Cloudy,76.0,68,"6 mph, Gusts to 10",SW
63253,2019100601,20191006012011,away,62.35,22.59,0.79,0.61,0.08,276.35,150.75,2540195,Justin Pugh,67,2019,48,2,01:23:00,ARZ,1,10,ARZ,6,10,2553435,SINGLEBACK,"1 RB, 1 TE, 3 WR",7,"4 DL, 2 LB, 5 DB",left,2019-10-06T18:19:00.000Z,2019-10-06T18:18:58.000Z,6-5,311,08/15/1990,Syracuse,G,CIN,ARI,5,Paul Brown Stadium,"Cincinnati, OH",Outdoor,Twenty Four/Seven Turf,Cloudy,76.0,68,"6 mph, Gusts to 10",SW
63254,2019100601,20191006012011,away,63.71,23.65,5.88,1.74,0.58,223.45,190.87,2552468,Maxx Williams,87,2019,48,2,01:23:00,ARZ,1,10,ARZ,6,10,2553435,SINGLEBACK,"1 RB, 1 TE, 3 WR",7,"4 DL, 2 LB, 5 DB",left,2019-10-06T18:19:00.000Z,2019-10-06T18:18:58.000Z,6-4,252,04/12/1994,Minnesota,TE,CIN,ARI,5,Paul Brown Stadium,"Cincinnati, OH",Outdoor,Twenty Four/Seven Turf,Cloudy,76.0,68,"6 mph, Gusts to 10",SW
63255,2019100601,20191006012011,away,60.81,21.43,2.28,2.12,0.23,305.45,264.93,2552626,D.J. Humphries,74,2019,48,2,01:23:00,ARZ,1,10,ARZ,6,10,2553435,SINGLEBACK,"1 RB, 1 TE, 3 WR",7,"4 DL, 2 LB, 5 DB",left,2019-10-06T18:19:00.000Z,2019-10-06T18:18:58.000Z,6-5,307,12/28/1993,Florida,OT,CIN,ARI,5,Paul Brown Stadium,"Cincinnati, OH",Outdoor,Twenty Four/Seven Turf,Cloudy,76.0,68,"6 mph, Gusts to 10",SW
63256,2019100601,20191006012011,away,67.24,24.02,3.37,4.11,0.32,259.89,235.16,2553435,David Johnson,31,2019,48,2,01:23:00,ARZ,1,10,ARZ,6,10,2553435,SINGLEBACK,"1 RB, 1 TE, 3 WR",7,"4 DL, 2 LB, 5 DB",left,2019-10-06T18:19:00.000Z,2019-10-06T18:18:58.000Z,6-1,224,12/16/1991,Northern Iowa,RB,CIN,ARI,5,Paul Brown Stadium,"Cincinnati, OH",Outdoor,Twenty Four/Seven Turf,Cloudy,76.0,68,"6 mph, Gusts to 10",SW
63257,2019100601,20191006012011,away,61.2,24.89,2.61,1.23,0.26,249.3,201.96,2556628,Justin Murray,71,2019,48,2,01:23:00,ARZ,1,10,ARZ,6,10,2553435,SINGLEBACK,"1 RB, 1 TE, 3 WR",7,"4 DL, 2 LB, 5 DB",left,2019-10-06T18:19:00.000Z,2019-10-06T18:18:58.000Z,6-5,315,04/19/1993,Cincinnati,OT,CIN,ARI,5,Paul Brown Stadium,"Cincinnati, OH",Outdoor,Twenty Four/Seven Turf,Cloudy,76.0,68,"6 mph, Gusts to 10",SW
63258,2019100601,20191006012011,away,59.23,18.43,3.91,2.19,0.4,326.64,318.37,2561272,Trent Sherfield,16,2019,48,2,01:23:00,ARZ,1,10,ARZ,6,10,2553435,SINGLEBACK,"1 RB, 1 TE, 3 WR",7,"4 DL, 2 LB, 5 DB",left,2019-10-06T18:19:00.000Z,2019-10-06T18:18:58.000Z,6-1,219,02/26/1996,Vanderbilt,WR,CIN,ARI,5,Paul Brown Stadium,"Cincinnati, OH",Outdoor,Twenty Four/Seven Turf,Cloudy,76.0,68,"6 mph, Gusts to 10",SW
63259,2019100601,20191006012011,away,66.79,25.05,4.73,1.52,0.47,55.02,65.67,2562382,Kyler Murray,1,2019,48,2,01:23:00,ARZ,1,10,ARZ,6,10,2553435,SINGLEBACK,"1 RB, 1 TE, 3 WR",7,"4 DL, 2 LB, 5 DB",left,2019-10-06T18:19:00.000Z,2019-10-06T18:18:58.000Z,5-10,207,08/07/1997,Oklahoma,QB,CIN,ARI,5,Paul Brown Stadium,"Cincinnati, OH",Outdoor,Twenty Four/Seven Turf,Cloudy,76.0,68,"6 mph, Gusts to 10",SW
63260,2019100601,20191006012011,away,60.94,33.66,3.91,1.88,0.38,284.7,311.7,2562677,KeeSean Johnson,19,2019,48,2,01:23:00,ARZ,1,10,ARZ,6,10,2553435,SINGLEBACK,"1 RB, 1 TE, 3 WR",7,"4 DL, 2 LB, 5 DB",left,2019-10-06T18:19:00.000Z,2019-10-06T18:18:58.000Z,6-1,199,10/09/1996,Fresno State,WR,CIN,ARI,5,Paul Brown Stadium,"Cincinnati, OH",Outdoor,Twenty Four/Seven Turf,Cloudy,76.0,68,"6 mph, Gusts to 10",SW
63261,2019100601,20191006012011,home,61.35,23.91,1.14,1.15,0.12,114.99,170.37,496762,Geno Atkins,97,2019,48,2,01:23:00,ARZ,1,10,ARZ,6,10,2553435,SINGLEBACK,"1 RB, 1 TE, 3 WR",7,"4 DL, 2 LB, 5 DB",left,2019-10-06T18:19:00.000Z,2019-10-06T18:18:58.000Z,6-1,300,03/28/1988,Georgia,DT,CIN,ARI,5,Paul Brown Stadium,"Cincinnati, OH",Outdoor,Twenty Four/Seven Turf,Cloudy,76.0,68,"6 mph, Gusts to 10",SW
63262,2019100601,20191006012011,home,58.36,34.67,1.6,1.89,0.15,92.53,347.92,2533060,Dre Kirkpatrick,27,2019,48,2,01:23:00,ARZ,1,10,ARZ,6,10,2553435,SINGLEBACK,"1 RB, 1 TE, 3 WR",7,"4 DL, 2 LB, 5 DB",left,2019-10-06T18:19:00.000Z,2019-10-06T18:18:58.000Z,6-2,190,10/26/1989,Alabama,CB,CIN,ARI,5,Paul Brown Stadium,"Cincinnati, OH",Outdoor,Twenty Four/Seven Turf,Cloudy,76.0,68,"6 mph, Gusts to 10",SW
63263,2019100601,20191006012011,home,58.61,19.72,0.62,1.4,0.06,112.12,95.32,2539233,Shawn Williams,36,2019,48,2,01:23:00,ARZ,1,10,ARZ,6,10,2553435,SINGLEBACK,"1 RB, 1 TE, 3 WR",7,"4 DL, 2 LB, 5 DB",left,2019-10-06T18:19:00.000Z,2019-10-06T18:18:58.000Z,6-0,210,05/13/1991,Georgia,SS,CIN,ARI,5,Paul Brown Stadium,"Cincinnati, OH",Outdoor,Twenty Four/Seven Turf,Cloudy,76.0,68,"6 mph, Gusts to 10",SW
63264,2019100601,20191006012011,home,61.9,31.48,2.36,1.0,0.24,145.22,85.44,2539338,B.W. Webb,23,2019,48,2,01:23:00,ARZ,1,10,ARZ,6,10,2553435,SINGLEBACK,"1 RB, 1 TE, 3 WR",7,"4 DL, 2 LB, 5 DB",left,2019-10-06T18:19:00.000Z,2019-10-06T18:18:58.000Z,5-11,190,05/03/1990,William & Mary,CB,CIN,ARI,5,Paul Brown Stadium,"Cincinnati, OH",Outdoor,Twenty Four/Seven Turf,Cloudy,76.0,68,"6 mph, Gusts to 10",SW
63265,2019100601,20191006012011,home,58.01,26.24,2.03,1.3,0.2,103.08,142.46,2543814,Preston Brown,52,2019,48,2,01:23:00,ARZ,1,10,ARZ,6,10,2553435,SINGLEBACK,"1 RB, 1 TE, 3 WR",7,"4 DL, 2 LB, 5 DB",left,2019-10-06T18:19:00.000Z,2019-10-06T18:18:58.000Z,6-1,251,10/27/1992,Louisville,MLB,CIN,ARI,5,Paul Brown Stadium,"Cincinnati, OH",Outdoor,Twenty Four/Seven Turf,Cloudy,76.0,68,"6 mph, Gusts to 10",SW
63266,2019100601,20191006012011,home,61.62,22.61,0.79,0.41,0.07,34.86,141.16,2555267,Andrew Billings,99,2019,48,2,01:23:00,ARZ,1,10,ARZ,6,10,2553435,SINGLEBACK,"1 RB, 1 TE, 3 WR",7,"4 DL, 2 LB, 5 DB",left,2019-10-06T18:19:00.000Z,2019-10-06T18:18:58.000Z,6-1,328,03/06/1995,Baylor,DT,CIN,ARI,5,Paul Brown Stadium,"Cincinnati, OH",Outdoor,Twenty Four/Seven Turf,Cloudy,76.0,68,"6 mph, Gusts to 10",SW
63267,2019100601,20191006012011,home,57.67,23.05,1.07,2.07,0.1,74.25,186.86,2555528,Nick Vigil,59,2019,48,2,01:23:00,ARZ,1,10,ARZ,6,10,2553435,SINGLEBACK,"1 RB, 1 TE, 3 WR",7,"4 DL, 2 LB, 5 DB",left,2019-10-06T18:19:00.000Z,2019-10-06T18:18:58.000Z,6-2,235,08/20/1993,Utah State,OLB,CIN,ARI,5,Paul Brown Stadium,"Cincinnati, OH",Outdoor,Twenty Four/Seven Turf,Cloudy,76.0,68,"6 mph, Gusts to 10",SW
63268,2019100601,20191006012011,home,53.08,15.67,4.47,2.04,0.44,21.5,300.54,2556367,William Jackson,22,2019,48,2,01:23:00,ARZ,1,10,ARZ,6,10,2553435,SINGLEBACK,"1 RB, 1 TE, 3 WR",7,"4 DL, 2 LB, 5 DB",left,2019-10-06T18:19:00.000Z,2019-10-06T18:18:58.000Z,6-0,196,10/27/1992,Houston,CB,CIN,ARI,5,Paul Brown Stadium,"Cincinnati, OH",Outdoor,Twenty Four/Seven Turf,Cloudy,76.0,68,"6 mph, Gusts to 10",SW
63269,2019100601,20191006012011,home,61.22,20.79,0.78,2.14,0.07,39.6,16.32,2557901,Carl Lawson,58,2019,48,2,01:23:00,ARZ,1,10,ARZ,6,10,2553435,SINGLEBACK,"1 RB, 1 TE, 3 WR",7,"4 DL, 2 LB, 5 DB",left,2019-10-06T18:19:00.000Z,2019-10-06T18:18:58.000Z,6-2,265,06/29/1995,Auburn,DE,CIN,ARI,5,Paul Brown Stadium,"Cincinnati, OH",Outdoor,Twenty Four/Seven Turf,Cloudy,76.0,68,"6 mph, Gusts to 10",SW
63270,2019100601,20191006012011,home,60.5,24.67,2.65,1.45,0.28,87.47,196.2,2560745,Sam Hubbard,94,2019,48,2,01:23:00,ARZ,1,10,ARZ,6,10,2553435,SINGLEBACK,"1 RB, 1 TE, 3 WR",7,"4 DL, 2 LB, 5 DB",left,2019-10-06T18:19:00.000Z,2019-10-06T18:18:58.000Z,6-5,265,06/29/1995,Ohio State,DE,CIN,ARI,5,Paul Brown Stadium,"Cincinnati, OH",Outdoor,Twenty Four/Seven Turf,Cloudy,76.0,68,"6 mph, Gusts to 10",SW
63271,2019100601,20191006012011,home,47.1,32.35,4.44,1.45,0.45,70.41,312.76,2560970,Jessie Bates,30,2019,48,2,01:23:00,ARZ,1,10,ARZ,6,10,2553435,SINGLEBACK,"1 RB, 1 TE, 3 WR",7,"4 DL, 2 LB, 5 DB",left,2019-10-06T18:19:00.000Z,2019-10-06T18:18:58.000Z,6-1,200,02/26/1997,Wake Forest,S,CIN,ARI,5,Paul Brown Stadium,"Cincinnati, OH",Outdoor,Twenty Four/Seven Turf,Cloudy,76.0,68,"6 mph, Gusts to 10",SW
