,GameId,PlayId,Team,X,Y,S,A,Dis,Orientation,Dir,NflId,DisplayName,JerseyNumber,Season,YardLine,Quarter,GameClock,PossessionTeam,Down,Distance,FieldPosition,HomeScoreBeforePlay,VisitorScoreBeforePlay,NflIdRusher,OffenseFormation,OffensePersonnel,DefendersInTheBox,DefensePersonnel,PlayDirection,TimeHandoff,TimeSnap,PlayerHeight,PlayerWeight,PlayerBirthDate,PlayerCollegeName,Position,HomeTeamAbbr,VisitorTeamAbbr,Week,Stadium,Location,StadiumType,Turf,GameWeather,Temperature,Humidity,WindSpeed,WindDirection
3674,2019090803,20190908030934,away,41.44,22.48,0.29,1.66,0.03,86.09,187.19,2507188,Marshal Yanda,73,2019,32,1,01:01:00,BLT,1,10,BLT,0,21,2562407,SHOTGUN,"1 RB, 2 TE, 2 WR",6,"3 DL, 3 LB, 5 DB",right,2019-09-08T17:43:58.000Z,2019-09-08T17:43:57.000Z,6-3,305,09/15/1984,Iowa,G,MIA,BAL,1,Hard Rock Stadium,"Miami Gardens, FL",Outdoor,Natural grass,Mostly Cloudy,91.0,56,8,SSE
3675,2019090803,20190908030934,away,43.38,15.61,4.74,2.96,0.46,125.17,112.01,2550256,Willie Snead,83,2019,32,1,01:01:00,BLT,1,10,BLT,0,21,2562407,SHOTGUN,"1 RB, 2 TE, 2 WR",6,"3 DL, 3 LB, 5 DB",right,2019-09-08T17:43:58.000Z,2019-09-08T17:43:57.000Z,5-11,205,10/17/1992,Ball State,WR,MIA,BAL,1,Hard Rock Stadium,"Miami Gardens, FL",Outdoor,Natural grass,Mostly Cloudy,91.0,56,8,SSE
3676,2019090803,20190908030934,away,43.42,37.08,4.76,2.99,0.46,114.59,106.89,2550597,Seth Roberts,11,2019,32,1,01:01:00,BLT,1,10,BLT,0,21,2562407,SHOTGUN,"1 RB, 2 TE, 2 WR",6,"3 DL, 3 LB, 5 DB",right,2019-09-08T17:43:58.000Z,2019-09-08T17:43:57.000Z,6-2,195,02/22/1991,West Alabama,WR,MIA,BAL,1,Hard Rock Stadium,"Miami Gardens, FL",Outdoor,Natural grass,Mostly Cloudy,91.0,56,8,SSE
3677,2019090803,20190908030934,away,41.55,20.3,1.87,1.16,0.19,82.97,79.59,2552402,Nick Boyle,86,2019,32,1,01:01:00,BLT,1,10,BLT,0,21,2562407,SHOTGUN,"1 RB, 2 TE, 2 WR",6,"3 DL, 3 LB, 5 DB",right,2019-09-08T17:43:58.000Z,2019-09-08T17:43:57.000Z,6-4,270,02/17/1993,Delaware,TE,MIA,BAL,1,Hard Rock Stadium,"Miami Gardens, FL",Outdoor,Natural grass,Mostly Cloudy,91.0,56,8,SSE
3678,2019090803,20190908030934,away,41.37,25.92,0.97,1.12,0.1,332.0,161.15,2555204,Ronnie Stanley,79,2019,32,1,01:01:00,BLT,1,10,BLT,0,21,2562407,SHOTGUN,"1 RB, 2 TE, 2 WR",6,"3 DL, 3 LB, 5 DB",right,2019-09-08T17:43:58.000Z,2019-09-08T17:43:57.000Z,6-6,315,03/18/1994,Notre Dame,T,MIA,BAL,1,Hard Rock Stadium,"Miami Gardens, FL",Outdoor,Natural grass,Mostly Cloudy,91.0,56,8,SSE
3679,2019090803,20190908030934,away,41.68,24.26,0.21,0.35,0.02,117.73,322.37,2556683,Matt Skura,68,2019,32,1,01:01:00,BLT,1,10,BLT,0,21,2562407,SHOTGUN,"1 RB, 2 TE, 2 WR",6,"3 DL, 3 LB, 5 DB",right,2019-09-08T17:43:58.000Z,2019-09-08T17:43:57.000Z,6-3,313,02/17/1993,Duke,C,MIA,BAL,1,Hard Rock Stadium,"Miami Gardens, FL",Outdoor,Natural grass,Mostly Cloudy,91.0,56,8,SSE
3680,2019090803,20190908030934,away,40.73,22.56,4.73,0.72,0.48,136.2,177.53,2559827,Bradley Bozeman,77,2019,32,1,01:01:00,BLT,1,10,BLT,0,21,2562407,SHOTGUN,"1 RB, 2 TE, 2 WR",6,"3 DL, 3 LB, 5 DB",right,2019-09-08T17:43:58.000Z,2019-09-08T17:43:57.000Z,6-3,317,11/24/1994,Alabama,C,MIA,BAL,1,Hard Rock Stadium,"Miami Gardens, FL",Outdoor,Natural grass,Mostly Cloudy,91.0,56,8,SSE
3681,2019090803,20190908030934,away,39.74,22.89,6.07,1.15,0.61,137.8,175.48,2560747,Hayden Hurst,81,2019,32,1,01:01:00,BLT,1,10,BLT,0,21,2562407,SHOTGUN,"1 RB, 2 TE, 2 WR",6,"3 DL, 3 LB, 5 DB",right,2019-09-08T17:43:58.000Z,2019-09-08T17:43:57.000Z,6-4,245,08/24/1993,South Carolina,TE,MIA,BAL,1,Hard Rock Stadium,"Miami Gardens, FL",Outdoor,Natural grass,Mostly Cloudy,91.0,56,8,SSE
3682,2019090803,20190908030934,away,36.91,24.0,0.62,1.67,0.1,84.49,6.31,2560757,Lamar Jackson,8,2019,32,1,01:01:00,BLT,1,10,BLT,0,21,2562407,SHOTGUN,"1 RB, 2 TE, 2 WR",6,"3 DL, 3 LB, 5 DB",right,2019-09-08T17:43:58.000Z,2019-09-08T17:43:57.000Z,6-2,212,01/07/1997,Louisville,QB,MIA,BAL,1,Hard Rock Stadium,"Miami Gardens, FL",Outdoor,Natural grass,Mostly Cloudy,91.0,56,8,SSE
3683,2019090803,20190908030934,away,41.29,20.93,0.79,0.4,0.08,93.34,86.21,2560981,Orlando Brown,78,2019,32,1,01:01:00,BLT,1,10,BLT,0,21,2562407,SHOTGUN,"1 RB, 2 TE, 2 WR",6,"3 DL, 3 LB, 5 DB",right,2019-09-08T17:43:58.000Z,2019-09-08T17:43:57.000Z,6-8,345,05/02/1996,Oklahoma,T,MIA,BAL,1,Hard Rock Stadium,"Miami Gardens, FL",Outdoor,Natural grass,Mostly Cloudy,91.0,56,8,SSE
3684,2019090803,20190908030934,away,37.22,24.6,3.47,3.47,0.33,103.28,147.59,2562407,Justice Hill,43,2019,32,1,01:01:00,BLT,1,10,BLT,0,21,2562407,SHOTGUN,"1 RB, 2 TE, 2 WR",6,"3 DL, 3 LB, 5 DB",right,2019-09-08T17:43:58.000Z,2019-09-08T17:43:57.000Z,5-10,200,11/14/1997,Oklahoma State,RB,MIA,BAL,1,Hard Rock Stadium,"Miami Gardens, FL",Outdoor,Natural grass,Mostly Cloudy,91.0,56,8,SSE
3685,2019090803,20190908030934,home,42.99,30.58,2.4,0.92,0.24,271.98,214.98,496739,Reshad Jones,20,2019,32,1,01:01:00,BLT,1,10,BLT,0,21,2562407,SHOTGUN,"1 RB, 2 TE, 2 WR",6,"3 DL, 3 LB, 5 DB",right,2019-09-08T17:43:58.000Z,2019-09-08T17:43:57.000Z,6-1,215,02/25/1988,Georgia,SS,MIA,BAL,1,Hard Rock Stadium,"Miami Gardens, FL",Outdoor,Natural grass,Mostly Cloudy,91.0,56,8,SSE
3686,2019090803,20190908030934,home,42.44,24.63,0.27,1.86,0.02,294.92,165.06,2539231,John Jenkins,95,2019,32,1,01:01:00,BLT,1,10,BLT,0,21,2562407,SHOTGUN,"1 RB, 2 TE, 2 WR",6,"3 DL, 3 LB, 5 DB",right,2019-09-08T17:43:58.000Z,2019-09-08T17:43:57.000Z,6-3,327,07/11/1989,Georgia,NT,MIA,BAL,1,Hard Rock Stadium,"Miami Gardens, FL",Outdoor,Natural grass,Mostly Cloudy,91.0,56,8,SSE
3687,2019090803,20190908030934,home,48.62,12.9,0.89,0.1,0.09,292.07,71.01,2552255,Eric Rowe,21,2019,32,1,01:01:00,BLT,1,10,BLT,0,21,2562407,SHOTGUN,"1 RB, 2 TE, 2 WR",6,"3 DL, 3 LB, 5 DB",right,2019-09-08T17:43:58.000Z,2019-09-08T17:43:57.000Z,6-1,205,10/03/1992,Utah,CB,MIA,BAL,1,Hard Rock Stadium,"Miami Gardens, FL",Outdoor,Natural grass,Mostly Cloudy,91.0,56,8,SSE
3688,2019090803,20190908030934,home,56.44,27.21,0.3,0.49,0.03,305.23,141.73,2552434,Bobby McCain,28,2019,32,1,01:01:00,BLT,1,10,BLT,0,21,2562407,SHOTGUN,"1 RB, 2 TE, 2 WR",6,"3 DL, 3 LB, 5 DB",right,2019-09-08T17:43:58.000Z,2019-09-08T17:43:57.000Z,5-11,192,08/18/1993,Memphis,CB,MIA,BAL,1,Hard Rock Stadium,"Miami Gardens, FL",Outdoor,Natural grass,Mostly Cloudy,91.0,56,8,SSE
3689,2019090803,20190908030934,home,51.2,38.89,2.86,1.79,0.28,249.79,89.98,2555539,Xavien Howard,25,2019,32,1,01:01:00,BLT,1,10,BLT,0,21,2562407,SHOTGUN,"1 RB, 2 TE, 2 WR",6,"3 DL, 3 LB, 5 DB",right,2019-09-08T17:43:58.000Z,2019-09-08T17:43:57.000Z,6-1,200,07/04/1993,Baylor,CB,MIA,BAL,1,Hard Rock Stadium,"Miami Gardens, FL",Outdoor,Natural grass,Mostly Cloudy,91.0,56,8,SSE
3690,2019090803,20190908030934,home,41.61,26.73,2.78,0.44,0.29,202.71,223.09,2558001,Charles Harris,90,2019,32,1,01:01:00,BLT,1,10,BLT,0,21,2562407,SHOTGUN,"1 RB, 2 TE, 2 WR",6,"3 DL, 3 LB, 5 DB",right,2019-09-08T17:43:58.000Z,2019-09-08T17:43:57.000Z,6-3,250,03/06/1995,Missouri,DE,MIA,BAL,1,Hard Rock Stadium,"Miami Gardens, FL",Outdoor,Natural grass,Mostly Cloudy,91.0,56,8,SSE
3691,2019090803,20190908030934,home,42.18,22.51,0.46,1.0,0.05,273.67,274.3,2558012,Davon Godchaux,56,2019,32,1,01:01:00,BLT,1,10,BLT,0,21,2562407,SHOTGUN,"1 RB, 2 TE, 2 WR",6,"3 DL, 3 LB, 5 DB",right,2019-09-08T17:43:58.000Z,2019-09-08T17:43:57.000Z,6-3,311,11/11/1994,Louisiana State,DT,MIA,BAL,1,Hard Rock Stadium,"Miami Gardens, FL",Outdoor,Natural grass,Mostly Cloudy,91.0,56,8,SSE
3692,2019090803,20190908030934,home,42.07,20.91,0.26,2.07,0.03,256.96,10.38,2558031,Avery Moss,93,2019,32,1,01:01:00,BLT,1,10,BLT,0,21,2562407,SHOTGUN,"1 RB, 2 TE, 2 WR",6,"3 DL, 3 LB, 5 DB",right,2019-09-08T17:43:58.000Z,2019-09-08T17:43:57.000Z,6-3,271,09/16/1994,Youngstown State,OLB,MIA,BAL,1,Hard Rock Stadium,"Miami Gardens, FL",Outdoor,Natural grass,Mostly Cloudy,91.0,56,8,SSE
3693,2019090803,20190908030934,home,46.69,26.31,1.15,1.55,0.12,74.41,207.59,2560725,Minkah Fitzpatrick,29,2019,32,1,01:01:00,BLT,1,10,BLT,0,21,2562407,SHOTGUN,"1 RB, 2 TE, 2 WR",6,"3 DL, 3 LB, 5 DB",right,2019-09-08T17:43:58.000Z,2019-09-08T17:43:57.000Z,6-1,207,11/17/1996,Alabama,S,MIA,BAL,1,Hard Rock Stadium,"Miami Gardens, FL",Outdoor,Natural grass,Mostly Cloudy,91.0,56,8,SSE
3694,2019090803,20190908030934,home,45.38,21.3,2.95,1.06,0.29,273.9,235.85,2560966,Jerome Baker,55,2019,32,1,01:01:00,BLT,1,10,BLT,0,21,2562407,SHOTGUN,"1 RB, 2 TE, 2 WR",6,"3 DL, 3 LB, 5 DB",right,2019-09-08T17:43:58.000Z,2019-09-08T17:43:57.000Z,6-2,225,12/25/1996,Ohio State,LB,MIA,BAL,1,Hard Rock Stadium,"Miami Gardens, FL",Outdoor,Natural grass,Mostly Cloudy,91.0,56,8,SSE
3695,2019090803,20190908030934,home,42.29,17.83,2.05,0.98,0.2,305.49,296.23,2562038,Sam Eguavoen,49,2019,32,1,01:01:00,BLT,1,10,BLT,0,21,2562407,SHOTGUN,"1 RB, 2 TE, 2 WR",6,"3 DL, 3 LB, 5 DB",right,2019-09-08T17:43:58.000Z,2019-09-08T17:43:57.000Z,6-0,236,02/22/1993,Texas Tech,LB,MIA,BAL,1,Hard Rock Stadium,"Miami Gardens, FL",Outdoor,Natural grass,Mostly Cloudy,91.0,56,8,SSE
