,GameId,PlayId,Team,X,Y,S,A,Dis,Orientation,Dir,NflId,DisplayName,JerseyNumber,Season,YardLine,Quarter,GameClock,PossessionTeam,Down,Distance,FieldPosition,HomeScoreBeforePlay,VisitorScoreBeforePlay,NflIdRusher,OffenseFormation,OffensePersonnel,DefendersInTheBox,DefensePersonnel,PlayDirection,TimeHandoff,TimeSnap,PlayerHeight,PlayerWeight,PlayerBirthDate,PlayerCollegeName,Position,HomeTeamAbbr,VisitorTeamAbbr,Week,Stadium,Location,StadiumType,Turf,GameWeather,Temperature,Humidity,WindSpeed,WindDirection
39556,2019092207,20190922073698,away,57.02,28.79,4.47,0.42,0.44,61.15,105.68,79860,Matthew Stafford,9,2019,42,4,04:49:00,DET,1,10,PHI,24,27,2560765,I_FORM,"2 RB, 2 TE, 1 WR",8,"4 DL, 3 LB, 4 DB",left,2019-09-22T19:51:46.000Z,2019-09-22T19:51:44.000Z,6-3,220,02/07/1988,Georgia,QB,PHI,DET,3,Lincoln Financial Field,"Philadelphia, Pa.",Outdoor,Grass,Sunny,84.0,53,7,SSW
39557,2019092207,20190922073698,away,51.74,31.3,1.48,1.21,0.16,243.55,225.82,2539340,Rick Wagner,71,2019,42,4,04:49:00,DET,1,10,PHI,24,27,2560765,I_FORM,"2 RB, 2 TE, 1 WR",8,"4 DL, 3 LB, 4 DB",left,2019-09-22T19:51:46.000Z,2019-09-22T19:51:44.000Z,6-6,315,10/21/1989,Wisconsin,T,PHI,DET,3,Lincoln Financial Field,"Philadelphia, Pa.",Outdoor,Grass,Sunny,84.0,53,7,SSW
39558,2019092207,20190922073698,away,52.32,36.68,1.87,5.11,0.19,292.91,290.84,2552633,Jesse James,83,2019,42,4,04:49:00,DET,1,10,PHI,24,27,2560765,I_FORM,"2 RB, 2 TE, 1 WR",8,"4 DL, 3 LB, 4 DB",left,2019-09-22T19:51:46.000Z,2019-09-22T19:51:44.000Z,6-7,250,06/04/1994,Penn State,TE,PHI,DET,3,Lincoln Financial Field,"Philadelphia, Pa.",Outdoor,Grass,Sunny,84.0,53,7,SSW
39559,2019092207,20190922073698,away,53.98,31.11,4.36,0.55,0.44,323.71,19.08,2555136,Joe Dahl,66,2019,42,4,04:49:00,DET,1,10,PHI,24,27,2560765,I_FORM,"2 RB, 2 TE, 1 WR",8,"4 DL, 3 LB, 4 DB",left,2019-09-22T19:51:46.000Z,2019-09-22T19:51:44.000Z,6-4,310,04/09/1993,Washington State,G,PHI,DET,3,Lincoln Financial Field,"Philadelphia, Pa.",Outdoor,Grass,Sunny,84.0,53,7,SSW
39560,2019092207,20190922073698,away,52.26,30.35,0.86,1.21,0.09,268.96,206.33,2555182,Graham Glasgow,60,2019,42,4,04:49:00,DET,1,10,PHI,24,27,2560765,I_FORM,"2 RB, 2 TE, 1 WR",8,"4 DL, 3 LB, 4 DB",left,2019-09-22T19:51:46.000Z,2019-09-22T19:51:44.000Z,6-6,310,08/19/1992,Michigan,C,PHI,DET,3,Lincoln Financial Field,"Philadelphia, Pa.",Outdoor,Grass,Sunny,84.0,53,7,SSW
39561,2019092207,20190922073698,away,50.4,28.52,2.81,1.59,0.29,284.34,316.28,2555206,Taylor Decker,68,2019,42,4,04:49:00,DET,1,10,PHI,24,27,2560765,I_FORM,"2 RB, 2 TE, 1 WR",8,"4 DL, 3 LB, 4 DB",left,2019-09-22T19:51:46.000Z,2019-09-22T19:51:44.000Z,6-7,318,08/23/1993,Ohio State,T,PHI,DET,3,Lincoln Financial Field,"Philadelphia, Pa.",Outdoor,Grass,Sunny,84.0,53,7,SSW
39562,2019092207,20190922073698,away,49.66,11.49,5.37,1.73,0.53,316.23,303.03,2557034,Marvin Hall,17,2019,42,4,04:49:00,DET,1,10,PHI,24,27,2560765,I_FORM,"2 RB, 2 TE, 1 WR",8,"4 DL, 3 LB, 4 DB",left,2019-09-22T19:51:46.000Z,2019-09-22T19:51:44.000Z,5-10,190,04/10/1993,Washington,WR,PHI,DET,3,Lincoln Financial Field,"Philadelphia, Pa.",Outdoor,Grass,Sunny,84.0,53,7,SSW
39563,2019092207,20190922073698,away,57.89,29.42,3.47,4.22,0.33,288.79,292.09,2560765,Kerryon Johnson,33,2019,42,4,04:49:00,DET,1,10,PHI,24,27,2560765,I_FORM,"2 RB, 2 TE, 1 WR",8,"4 DL, 3 LB, 4 DB",left,2019-09-22T19:51:46.000Z,2019-09-22T19:51:44.000Z,5-11,212,06/30/1997,Auburn,RB,PHI,DET,3,Lincoln Financial Field,"Philadelphia, Pa.",Outdoor,Grass,Sunny,84.0,53,7,SSW
39564,2019092207,20190922073698,away,54.07,29.66,3.84,4.38,0.37,318.3,311.04,2560972,Nick Bawden,46,2019,42,4,04:49:00,DET,1,10,PHI,24,27,2560765,I_FORM,"2 RB, 2 TE, 1 WR",8,"4 DL, 3 LB, 4 DB",left,2019-09-22T19:51:46.000Z,2019-09-22T19:51:44.000Z,6-2,245,06/22/1996,San Diego State,RB,PHI,DET,3,Lincoln Financial Field,"Philadelphia, Pa.",Outdoor,Grass,Sunny,84.0,53,7,SSW
39565,2019092207,20190922073698,away,52.95,28.38,1.71,1.05,0.17,212.08,139.39,2561142,Frank Ragnow,77,2019,42,4,04:49:00,DET,1,10,PHI,24,27,2560765,I_FORM,"2 RB, 2 TE, 1 WR",8,"4 DL, 3 LB, 4 DB",left,2019-09-22T19:51:46.000Z,2019-09-22T19:51:44.000Z,6-5,311,05/17/1996,Arkansas,C,PHI,DET,3,Lincoln Financial Field,"Philadelphia, Pa.",Outdoor,Grass,Sunny,84.0,53,7,SSW
39566,2019092207,20190922073698,away,50.82,25.66,2.68,2.73,0.27,209.79,247.0,2562378,T.J. Hockenson,88,2019,42,4,04:49:00,DET,1,10,PHI,24,27,2560765,I_FORM,"2 RB, 2 TE, 1 WR",8,"4 DL, 3 LB, 4 DB",left,2019-09-22T19:51:46.000Z,2019-09-22T19:51:44.000Z,6-5,248,07/03/1997,Iowa,TE,PHI,DET,3,Lincoln Financial Field,"Philadelphia, Pa.",Outdoor,Grass,Sunny,84.0,53,7,SSW
39567,2019092207,20190922073698,home,42.21,26.45,0.39,1.35,0.02,88.51,55.22,79848,Malcolm Jenkins,27,2019,42,4,04:49:00,DET,1,10,PHI,24,27,2560765,I_FORM,"2 RB, 2 TE, 1 WR",8,"4 DL, 3 LB, 4 DB",left,2019-09-22T19:51:46.000Z,2019-09-22T19:51:44.000Z,6-0,204,12/20/1987,Ohio State,SS,PHI,DET,3,Lincoln Financial Field,"Philadelphia, Pa.",Outdoor,Grass,Sunny,84.0,53,7,SSW
39568,2019092207,20190922073698,home,49.17,29.33,2.6,4.12,0.24,74.63,22.5,2532800,Nigel Bradham,53,2019,42,4,04:49:00,DET,1,10,PHI,24,27,2560765,I_FORM,"2 RB, 2 TE, 1 WR",8,"4 DL, 3 LB, 4 DB",left,2019-09-22T19:51:46.000Z,2019-09-22T19:51:44.000Z,6-2,241,09/04/1989,Florida State,OLB,PHI,DET,3,Lincoln Financial Field,"Philadelphia, Pa.",Outdoor,Grass,Sunny,84.0,53,7,SSW
39569,2019092207,20190922073698,home,49.85,32.22,3.31,2.47,0.32,95.36,64.2,2532804,Zach Brown,52,2019,42,4,04:49:00,DET,1,10,PHI,24,27,2560765,I_FORM,"2 RB, 2 TE, 1 WR",8,"4 DL, 3 LB, 4 DB",left,2019-09-22T19:51:46.000Z,2019-09-22T19:51:44.000Z,6-1,251,10/23/1989,North Carolina,ILB,PHI,DET,3,Lincoln Financial Field,"Philadelphia, Pa.",Outdoor,Grass,Sunny,84.0,53,7,SSW
39570,2019092207,20190922073698,home,54.4,34.83,3.12,2.57,0.32,137.7,112.98,2532825,Vinny Curry,75,2019,42,4,04:49:00,DET,1,10,PHI,24,27,2560765,I_FORM,"2 RB, 2 TE, 1 WR",8,"4 DL, 3 LB, 4 DB",left,2019-09-22T19:51:46.000Z,2019-09-22T19:51:44.000Z,6-3,279,06/30/1988,Marshall,DE,PHI,DET,3,Lincoln Financial Field,"Philadelphia, Pa.",Outdoor,Grass,Sunny,84.0,53,7,SSW
39571,2019092207,20190922073698,home,52.63,24.93,5.17,3.49,0.51,35.22,49.74,2534832,Rodney McLeod,23,2019,42,4,04:49:00,DET,1,10,PHI,24,27,2560765,I_FORM,"2 RB, 2 TE, 1 WR",8,"4 DL, 3 LB, 4 DB",left,2019-09-22T19:51:46.000Z,2019-09-22T19:51:44.000Z,5-10,195,06/23/1990,Virginia,FS,PHI,DET,3,Lincoln Financial Field,"Philadelphia, Pa.",Outdoor,Grass,Sunny,84.0,53,7,SSW
39572,2019092207,20190922073698,home,51.53,30.69,1.4,0.84,0.14,139.89,209.68,2540201,Akeem Spence,66,2019,42,4,04:49:00,DET,1,10,PHI,24,27,2560765,I_FORM,"2 RB, 2 TE, 1 WR",8,"4 DL, 3 LB, 4 DB",left,2019-09-22T19:51:46.000Z,2019-09-22T19:51:44.000Z,6-1,307,11/29/1991,Illinois,DT,PHI,DET,3,Lincoln Financial Field,"Philadelphia, Pa.",Outdoor,Grass,Sunny,84.0,53,7,SSW
39573,2019092207,20190922073698,home,52.84,27.74,2.07,0.73,0.2,63.14,136.96,2555514,Hassan Ridgeway,98,2019,42,4,04:49:00,DET,1,10,PHI,24,27,2560765,I_FORM,"2 RB, 2 TE, 1 WR",8,"4 DL, 3 LB, 4 DB",left,2019-09-22T19:51:46.000Z,2019-09-22T19:51:44.000Z,6-3,305,11/02/1994,Texas,DT,PHI,DET,3,Lincoln Financial Field,"Philadelphia, Pa.",Outdoor,Grass,Sunny,84.0,53,7,SSW
39574,2019092207,20190922073698,home,48.41,36.16,1.4,1.41,0.14,95.4,93.78,2557958,Sidney Jones,22,2019,42,4,04:49:00,DET,1,10,PHI,24,27,2560765,I_FORM,"2 RB, 2 TE, 1 WR",8,"4 DL, 3 LB, 4 DB",left,2019-09-22T19:51:46.000Z,2019-09-22T19:51:44.000Z,6-0,181,05/21/1996,Washington,CB,PHI,DET,3,Lincoln Financial Field,"Philadelphia, Pa.",Outdoor,Grass,Sunny,84.0,53,7,SSW
39575,2019092207,20190922073698,home,51.38,26.6,1.94,1.47,0.19,86.05,352.63,2557984,Derek Barnett,96,2019,42,4,04:49:00,DET,1,10,PHI,24,27,2560765,I_FORM,"2 RB, 2 TE, 1 WR",8,"4 DL, 3 LB, 4 DB",left,2019-09-22T19:51:46.000Z,2019-09-22T19:51:44.000Z,6-3,259,06/25/1996,Tennessee,DE,PHI,DET,3,Lincoln Financial Field,"Philadelphia, Pa.",Outdoor,Grass,Sunny,84.0,53,7,SSW
39576,2019092207,20190922073698,home,45.3,10.58,3.59,1.86,0.35,1.32,295.95,2558168,Rasul Douglas,32,2019,42,4,04:49:00,DET,1,10,PHI,24,27,2560765,I_FORM,"2 RB, 2 TE, 1 WR",8,"4 DL, 3 LB, 4 DB",left,2019-09-22T19:51:46.000Z,2019-09-22T19:51:44.000Z,6-2,209,08/29/1995,West Virginia,CB,PHI,DET,3,Lincoln Financial Field,"Philadelphia, Pa.",Outdoor,Grass,Sunny,84.0,53,7,SSW
39577,2019092207,20190922073698,home,49.88,28.84,2.8,1.55,0.28,137.51,8.79,2558175,Nate Gerry,47,2019,42,4,04:49:00,DET,1,10,PHI,24,27,2560765,I_FORM,"2 RB, 2 TE, 1 WR",8,"4 DL, 3 LB, 4 DB",left,2019-09-22T19:51:46.000Z,2019-09-22T19:51:44.000Z,6-2,230,02/23/1995,Nebraska,LB,PHI,DET,3,Lincoln Financial Field,"Philadelphia, Pa.",Outdoor,Grass,Sunny,84.0,53,7,SSW
