,GameId,PlayId,Team,X,Y,S,A,Dis,Orientation,Dir,NflId,DisplayName,JerseyNumber,Season,YardLine,Quarter,GameClock,PossessionTeam,Down,Distance,FieldPosition,HomeScoreBeforePlay,VisitorScoreBeforePlay,NflIdRusher,OffenseFormation,OffensePersonnel,DefendersInTheBox,DefensePersonnel,PlayDirection,TimeHandoff,TimeSnap,PlayerHeight,PlayerWeight,PlayerBirthDate,PlayerCollegeName,Position,HomeTeamAbbr,VisitorTeamAbbr,Week,Stadium,Location,StadiumType,Turf,GameWeather,Temperature,Humidity,WindSpeed,WindDirection
53108,2019092906,20190929061206,away,70.86,22.42,1.17,0.71,0.12,185.89,165.64,2495216,Mike Pouncey,53,2019,40,2,08:07:00,LAC,2,1,LAC,10,10,2559169,SHOTGUN,"1 RB, 1 TE, 3 WR",6,"3 DL, 3 LB, 5 DB",left,2019-09-29T17:52:51.000Z,2019-09-29T17:52:50.000Z,6-5,298,07/24/1989,Florida,C,MIA,LAC,4,Hard Rock Stadium,"Miami Gardens, FL",Outdoor,Natural Grass,Mostly Cloudy,88.0,53,15,ENE
53109,2019092906,20190929061206,away,74.88,23.62,0.11,0.73,0.01,311.57,286.8,2506121,Philip Rivers,17,2019,40,2,08:07:00,LAC,2,1,LAC,10,10,2559169,SHOTGUN,"1 RB, 1 TE, 3 WR",6,"3 DL, 3 LB, 5 DB",left,2019-09-29T17:52:51.000Z,2019-09-29T17:52:50.000Z,6-5,228,12/08/1981,North Carolina State,QB,MIA,LAC,4,Hard Rock Stadium,"Miami Gardens, FL",Outdoor,Natural Grass,Mostly Cloudy,88.0,53,15,ENE
53110,2019092906,20190929061206,away,70.9,29.09,1.3,0.02,0.13,313.7,253.48,2530700,Dontrelle Inman,15,2019,40,2,08:07:00,LAC,2,1,LAC,10,10,2559169,SHOTGUN,"1 RB, 1 TE, 3 WR",6,"3 DL, 3 LB, 5 DB",left,2019-09-29T17:52:51.000Z,2019-09-29T17:52:50.000Z,6-3,205,01/31/1989,Virginia,WR,MIA,LAC,4,Hard Rock Stadium,"Miami Gardens, FL",Outdoor,Natural Grass,Mostly Cloudy,88.0,53,15,ENE
53111,2019092906,20190929061206,away,70.44,24.93,0.58,1.2,0.06,288.62,246.68,2543732,Michael Schofield,75,2019,40,2,08:07:00,LAC,2,1,LAC,10,10,2559169,SHOTGUN,"1 RB, 1 TE, 3 WR",6,"3 DL, 3 LB, 5 DB",left,2019-09-29T17:52:51.000Z,2019-09-29T17:52:50.000Z,6-6,301,11/15/1990,Michigan,G,MIA,LAC,4,Hard Rock Stadium,"Miami Gardens, FL",Outdoor,Natural Grass,Mostly Cloudy,88.0,53,15,ENE
53112,2019092906,20190929061206,away,69.69,15.68,3.6,2.32,0.35,254.43,228.63,2552654,Geremy Davis,11,2019,40,2,08:07:00,LAC,2,1,LAC,10,10,2559169,SHOTGUN,"1 RB, 1 TE, 3 WR",6,"3 DL, 3 LB, 5 DB",left,2019-09-29T17:52:51.000Z,2019-09-29T17:52:50.000Z,6-3,211,01/10/1992,Connecticut,WR,MIA,LAC,4,Hard Rock Stadium,"Miami Gardens, FL",Outdoor,Natural Grass,Mostly Cloudy,88.0,53,15,ENE
53113,2019092906,20190929061206,away,70.86,20.4,1.56,0.99,0.16,201.39,213.95,2557873,Dan Feeney,66,2019,40,2,08:07:00,LAC,2,1,LAC,10,10,2559169,SHOTGUN,"1 RB, 1 TE, 3 WR",6,"3 DL, 3 LB, 5 DB",left,2019-09-29T17:52:51.000Z,2019-09-29T17:52:50.000Z,6-4,310,05/29/1994,Indiana,G,MIA,LAC,4,Hard Rock Stadium,"Miami Gardens, FL",Outdoor,Natural Grass,Mostly Cloudy,88.0,53,15,ENE
53114,2019092906,20190929061206,away,69.7,26.15,2.41,0.89,0.27,266.89,238.38,2558026,Sam Tevi,69,2019,40,2,08:07:00,LAC,2,1,LAC,10,10,2559169,SHOTGUN,"1 RB, 1 TE, 3 WR",6,"3 DL, 3 LB, 5 DB",left,2019-09-29T17:52:51.000Z,2019-09-29T17:52:50.000Z,6-5,315,11/15/1994,Utah,T,MIA,LAC,4,Hard Rock Stadium,"Miami Gardens, FL",Outdoor,Natural Grass,Mostly Cloudy,88.0,53,15,ENE
53115,2019092906,20190929061206,away,70.04,26.92,1.57,0.97,0.16,286.3,229.91,2559161,Sean Culkin,80,2019,40,2,08:07:00,LAC,2,1,LAC,10,10,2559169,SHOTGUN,"1 RB, 1 TE, 3 WR",6,"3 DL, 3 LB, 5 DB",left,2019-09-29T17:52:51.000Z,2019-09-29T17:52:50.000Z,6-5,255,06/11/1993,Missouri,TE,MIA,LAC,4,Hard Rock Stadium,"Miami Gardens, FL",Outdoor,Natural Grass,Mostly Cloudy,88.0,53,15,ENE
53116,2019092906,20190929061206,away,74.41,24.63,3.31,2.55,0.32,246.09,220.49,2559169,Austin Ekeler,30,2019,40,2,08:07:00,LAC,2,1,LAC,10,10,2559169,SHOTGUN,"1 RB, 1 TE, 3 WR",6,"3 DL, 3 LB, 5 DB",left,2019-09-29T17:52:51.000Z,2019-09-29T17:52:50.000Z,5-10,200,05/17/1995,"Western State, Colo.",RB,MIA,LAC,4,Hard Rock Stadium,"Miami Gardens, FL",Outdoor,Natural Grass,Mostly Cloudy,88.0,53,15,ENE
53117,2019092906,20190929061206,away,73.72,25.94,7.74,0.12,0.78,345.41,4.36,2559227,Andre Patton,16,2019,40,2,08:07:00,LAC,2,1,LAC,10,10,2559169,SHOTGUN,"1 RB, 1 TE, 3 WR",6,"3 DL, 3 LB, 5 DB",left,2019-09-29T17:52:51.000Z,2019-09-29T17:52:50.000Z,6-2,200,05/28/1994,Rutgers,WR,MIA,LAC,4,Hard Rock Stadium,"Miami Gardens, FL",Outdoor,Natural Grass,Mostly Cloudy,88.0,53,15,ENE
53118,2019092906,20190929061206,away,71.06,19.26,1.56,0.46,0.15,252.71,213.77,2561544,Trent Scott,78,2019,40,2,08:07:00,LAC,2,1,LAC,10,10,2559169,SHOTGUN,"1 RB, 1 TE, 3 WR",6,"3 DL, 3 LB, 5 DB",left,2019-09-29T17:52:51.000Z,2019-09-29T17:52:50.000Z,6-5,320,01/25/1994,Grambling,T,MIA,LAC,4,Hard Rock Stadium,"Miami Gardens, FL",Outdoor,Natural Grass,Mostly Cloudy,88.0,53,15,ENE
53119,2019092906,20190929061206,home,63.58,33.75,1.44,0.58,0.14,140.69,343.67,2535693,Johnson Bademosi,24,2019,40,2,08:07:00,LAC,2,1,LAC,10,10,2559169,SHOTGUN,"1 RB, 1 TE, 3 WR",6,"3 DL, 3 LB, 5 DB",left,2019-09-29T17:52:51.000Z,2019-09-29T17:52:50.000Z,6-0,219,07/23/1990,Stanford,CB,MIA,LAC,4,Hard Rock Stadium,"Miami Gardens, FL",Outdoor,Natural Grass,Mostly Cloudy,88.0,53,15,ENE
53120,2019092906,20190929061206,home,69.3,31.33,0.2,1.48,0.02,123.63,298.12,2543724,Walt Aikens,35,2019,40,2,08:07:00,LAC,2,1,LAC,10,10,2559169,SHOTGUN,"1 RB, 1 TE, 3 WR",6,"3 DL, 3 LB, 5 DB",left,2019-09-29T17:52:51.000Z,2019-09-29T17:52:50.000Z,6-1,200,06/19/1991,Liberty,CB,MIA,LAC,4,Hard Rock Stadium,"Miami Gardens, FL",Outdoor,Natural Grass,Mostly Cloudy,88.0,53,15,ENE
53121,2019092906,20190929061206,home,59.03,17.96,1.28,0.67,0.12,91.07,107.51,2552255,Eric Rowe,21,2019,40,2,08:07:00,LAC,2,1,LAC,10,10,2559169,SHOTGUN,"1 RB, 1 TE, 3 WR",6,"3 DL, 3 LB, 5 DB",left,2019-09-29T17:52:51.000Z,2019-09-29T17:52:50.000Z,6-1,205,10/03/1992,Utah,CB,MIA,LAC,4,Hard Rock Stadium,"Miami Gardens, FL",Outdoor,Natural Grass,Mostly Cloudy,88.0,53,15,ENE
53122,2019092906,20190929061206,home,63.91,13.46,0.39,1.67,0.03,85.45,205.47,2555539,Xavien Howard,25,2019,40,2,08:07:00,LAC,2,1,LAC,10,10,2559169,SHOTGUN,"1 RB, 1 TE, 3 WR",6,"3 DL, 3 LB, 5 DB",left,2019-09-29T17:52:51.000Z,2019-09-29T17:52:50.000Z,6-1,200,07/04/1993,Baylor,CB,MIA,LAC,4,Hard Rock Stadium,"Miami Gardens, FL",Outdoor,Natural Grass,Mostly Cloudy,88.0,53,15,ENE
53123,2019092906,20190929061206,home,69.32,27.15,1.11,1.2,0.11,113.51,222.42,2558001,Charles Harris,90,2019,40,2,08:07:00,LAC,2,1,LAC,10,10,2559169,SHOTGUN,"1 RB, 1 TE, 3 WR",6,"3 DL, 3 LB, 5 DB",left,2019-09-29T17:52:51.000Z,2019-09-29T17:52:50.000Z,6-3,250,03/06/1995,Missouri,DE,MIA,LAC,4,Hard Rock Stadium,"Miami Gardens, FL",Outdoor,Natural Grass,Mostly Cloudy,88.0,53,15,ENE
53124,2019092906,20190929061206,home,70.23,21.99,1.47,1.4,0.14,85.62,150.23,2558012,Davon Godchaux,56,2019,40,2,08:07:00,LAC,2,1,LAC,10,10,2559169,SHOTGUN,"1 RB, 1 TE, 3 WR",6,"3 DL, 3 LB, 5 DB",left,2019-09-29T17:52:51.000Z,2019-09-29T17:52:50.000Z,6-3,311,11/11/1994,Louisiana State,DT,MIA,LAC,4,Hard Rock Stadium,"Miami Gardens, FL",Outdoor,Natural Grass,Mostly Cloudy,88.0,53,15,ENE
53125,2019092906,20190929061206,home,70.32,19.69,1.35,2.05,0.13,45.2,141.83,2558031,Avery Moss,93,2019,40,2,08:07:00,LAC,2,1,LAC,10,10,2559169,SHOTGUN,"1 RB, 1 TE, 3 WR",6,"3 DL, 3 LB, 5 DB",left,2019-09-29T17:52:51.000Z,2019-09-29T17:52:50.000Z,6-3,271,09/16/1994,Youngstown State,OLB,MIA,LAC,4,Hard Rock Stadium,"Miami Gardens, FL",Outdoor,Natural Grass,Mostly Cloudy,88.0,53,15,ENE
53126,2019092906,20190929061206,home,65.41,24.55,2.39,1.28,0.23,89.34,140.69,2558070,Raekwon McMillan,52,2019,40,2,08:07:00,LAC,2,1,LAC,10,10,2559169,SHOTGUN,"1 RB, 1 TE, 3 WR",6,"3 DL, 3 LB, 5 DB",left,2019-09-29T17:52:51.000Z,2019-09-29T17:52:50.000Z,6-2,242,11/17/1995,Ohio State,LB,MIA,LAC,4,Hard Rock Stadium,"Miami Gardens, FL",Outdoor,Natural Grass,Mostly Cloudy,88.0,53,15,ENE
53127,2019092906,20190929061206,home,69.57,16.75,1.6,1.56,0.15,101.46,183.39,2560966,Jerome Baker,55,2019,40,2,08:07:00,LAC,2,1,LAC,10,10,2559169,SHOTGUN,"1 RB, 1 TE, 3 WR",6,"3 DL, 3 LB, 5 DB",left,2019-09-29T17:52:51.000Z,2019-09-29T17:52:50.000Z,6-2,225,12/25/1996,Ohio State,LB,MIA,LAC,4,Hard Rock Stadium,"Miami Gardens, FL",Outdoor,Natural Grass,Mostly Cloudy,88.0,53,15,ENE
53128,2019092906,20190929061206,home,54.18,28.62,3.26,0.48,0.33,104.3,247.65,2561256,Steven Parker,26,2019,40,2,08:07:00,LAC,2,1,LAC,10,10,2559169,SHOTGUN,"1 RB, 1 TE, 3 WR",6,"3 DL, 3 LB, 5 DB",left,2019-09-29T17:52:51.000Z,2019-09-29T17:52:50.000Z,6-1,210,12/14/1995,Oklahoma,DB,MIA,LAC,4,Hard Rock Stadium,"Miami Gardens, FL",Outdoor,Natural Grass,Mostly Cloudy,88.0,53,15,ENE
53129,2019092906,20190929061206,home,69.58,25.4,0.65,1.2,0.08,274.98,178.92,2562782,Christian Wilkins,94,2019,40,2,08:07:00,LAC,2,1,LAC,10,10,2559169,SHOTGUN,"1 RB, 1 TE, 3 WR",6,"3 DL, 3 LB, 5 DB",left,2019-09-29T17:52:51.000Z,2019-09-29T17:52:50.000Z,6-4,315,12/20/1995,Clemson,DT,MIA,LAC,4,Hard Rock Stadium,"Miami Gardens, FL",Outdoor,Natural Grass,Mostly Cloudy,88.0,53,15,ENE
