,GameId,PlayId,Team,X,Y,S,A,Dis,Orientation,Dir,NflId,DisplayName,JerseyNumber,Season,YardLine,Quarter,GameClock,PossessionTeam,Down,Distance,FieldPosition,HomeScoreBeforePlay,VisitorScoreBeforePlay,NflIdRusher,OffenseFormation,OffensePersonnel,DefendersInTheBox,DefensePersonnel,PlayDirection,TimeHandoff,TimeSnap,PlayerHeight,PlayerWeight,PlayerBirthDate,PlayerCollegeName,Position,HomeTeamAbbr,VisitorTeamAbbr,Week,Stadium,Location,StadiumType,Turf,GameWeather,Temperature,Humidity,WindSpeed,WindDirection
42526,2019092211,20190922112308,away,11.53,35.47,0.67,4.22,0.06,307.76,256.43,71265,Jared Cook,87,2019,1,3,09:06:00,NO,2,1,SEA,7,20,2539303,SINGLEBACK,"6 OL, 2 RB, 2 TE, 0 WR",10,"5 DL, 3 LB, 3 DB",left,2019-09-22T22:07:30.000Z,2019-09-22T22:07:29.000Z,6-5,254,04/07/1987,South Carolina,TE,SEA,NO,3,CenturyLink Field,"Seattle, WA",Outdoor,FieldTurf,Rain,63.0,85,SSE,8
42527,2019092211,20190922112308,away,10.96,31.04,1.48,0.72,0.15,317.66,244.64,2539248,Larry Warford,67,2019,1,3,09:06:00,NO,2,1,SEA,7,20,2539303,SINGLEBACK,"6 OL, 2 RB, 2 TE, 0 WR",10,"5 DL, 3 LB, 3 DB",left,2019-09-22T22:07:30.000Z,2019-09-22T22:07:29.000Z,6-3,317,06/18/1991,Kentucky,G,SEA,NO,3,CenturyLink Field,"Seattle, WA",Outdoor,FieldTurf,Rain,63.0,85,SSE,8
42528,2019092211,20190922112308,away,13.53,29.96,3.59,3.22,0.35,319.41,276.48,2539303,Zach Line,42,2019,1,3,09:06:00,NO,2,1,SEA,7,20,2539303,SINGLEBACK,"6 OL, 2 RB, 2 TE, 0 WR",10,"5 DL, 3 LB, 3 DB",left,2019-09-22T22:07:30.000Z,2019-09-22T22:07:29.000Z,6-1,233,04/26/1990,Southern Methodist,FB,SEA,NO,3,CenturyLink Field,"Seattle, WA",Outdoor,FieldTurf,Rain,63.0,85,SSE,8
42529,2019092211,20190922112308,away,11.09,26.73,0.54,1.0,0.09,159.88,291.87,2540228,Terron Armstead,72,2019,1,3,09:06:00,NO,2,1,SEA,7,20,2539303,SINGLEBACK,"6 OL, 2 RB, 2 TE, 0 WR",10,"5 DL, 3 LB, 3 DB",left,2019-09-22T22:07:30.000Z,2019-09-22T22:07:29.000Z,6-5,304,07/23/1991,Arkansas-Pine Bluff,T,SEA,NO,3,CenturyLink Field,"Seattle, WA",Outdoor,FieldTurf,Rain,63.0,85,SSE,8
42530,2019092211,20190922112308,away,11.32,26.16,2.35,1.12,0.25,55.68,328.99,2541834,Josh Hill,89,2019,1,3,09:06:00,NO,2,1,SEA,7,20,2539303,SINGLEBACK,"6 OL, 2 RB, 2 TE, 0 WR",10,"5 DL, 3 LB, 3 DB",left,2019-09-22T22:07:30.000Z,2019-09-22T22:07:29.000Z,6-5,250,05/21/1990,Idaho State,TE,SEA,NO,3,CenturyLink Field,"Seattle, WA",Outdoor,FieldTurf,Rain,63.0,85,SSE,8
42531,2019092211,20190922112308,away,13.03,29.56,1.8,1.32,0.18,5.08,95.12,2543465,Teddy Bridgewater,5,2019,1,3,09:06:00,NO,2,1,SEA,7,20,2539303,SINGLEBACK,"6 OL, 2 RB, 2 TE, 0 WR",10,"5 DL, 3 LB, 3 DB",left,2019-09-22T22:07:30.000Z,2019-09-22T22:07:29.000Z,6-2,215,11/10/1992,Louisville,QB,SEA,NO,3,CenturyLink Field,"Seattle, WA",Outdoor,FieldTurf,Rain,63.0,85,SSE,8
42532,2019092211,20190922112308,away,10.69,27.88,1.2,0.24,0.15,242.25,262.7,2552455,Andrus Peat,75,2019,1,3,09:06:00,NO,2,1,SEA,7,20,2539303,SINGLEBACK,"6 OL, 2 RB, 2 TE, 0 WR",10,"5 DL, 3 LB, 3 DB",left,2019-09-22T22:07:30.000Z,2019-09-22T22:07:29.000Z,6-7,316,11/04/1993,Stanford,T,SEA,NO,3,CenturyLink Field,"Seattle, WA",Outdoor,FieldTurf,Rain,63.0,85,SSE,8
42533,2019092211,20190922112308,away,10.94,31.82,2.06,0.5,0.2,325.72,240.54,2557959,Ryan Ramczyk,71,2019,1,3,09:06:00,NO,2,1,SEA,7,20,2539303,SINGLEBACK,"6 OL, 2 RB, 2 TE, 0 WR",10,"5 DL, 3 LB, 3 DB",left,2019-09-22T22:07:30.000Z,2019-09-22T22:07:29.000Z,6-6,314,04/22/1994,Wisconsin,T,SEA,NO,3,CenturyLink Field,"Seattle, WA",Outdoor,FieldTurf,Rain,63.0,85,SSE,8
42534,2019092211,20190922112308,away,12.1,21.33,4.1,4.32,0.39,219.5,207.13,2558019,Alvin Kamara,41,2019,1,3,09:06:00,NO,2,1,SEA,7,20,2539303,SINGLEBACK,"6 OL, 2 RB, 2 TE, 0 WR",10,"5 DL, 3 LB, 3 DB",left,2019-09-22T22:07:30.000Z,2019-09-22T22:07:29.000Z,5-10,215,07/25/1995,Tennessee,RB,SEA,NO,3,CenturyLink Field,"Seattle, WA",Outdoor,FieldTurf,Rain,63.0,85,SSE,8
42535,2019092211,20190922112308,away,11.61,32.42,2.06,0.3,0.21,111.09,177.58,2561023,Will Clapp,64,2019,1,3,09:06:00,NO,2,1,SEA,7,20,2539303,SINGLEBACK,"6 OL, 2 RB, 2 TE, 0 WR",10,"5 DL, 3 LB, 3 DB",left,2019-09-22T22:07:30.000Z,2019-09-22T22:07:29.000Z,6-5,311,12/10/1995,Louisiana State,C,SEA,NO,3,CenturyLink Field,"Seattle, WA",Outdoor,FieldTurf,Rain,63.0,85,SSE,8
42536,2019092211,20190922112308,away,10.95,29.29,0.59,0.88,0.06,322.25,223.81,2562683,Erik McCoy,78,2019,1,3,09:06:00,NO,2,1,SEA,7,20,2539303,SINGLEBACK,"6 OL, 2 RB, 2 TE, 0 WR",10,"5 DL, 3 LB, 3 DB",left,2019-09-22T22:07:30.000Z,2019-09-22T22:07:29.000Z,6-4,315,08/27/1997,Texas A&M,C,SEA,NO,3,CenturyLink Field,"Seattle, WA",Outdoor,FieldTurf,Rain,63.0,85,SSE,8
42537,2019092211,20190922112308,home,10.91,27.38,0.38,2.72,0.05,58.84,117.38,496881,Al Woods,72,2019,1,3,09:06:00,NO,2,1,SEA,7,20,2539303,SINGLEBACK,"6 OL, 2 RB, 2 TE, 0 WR",10,"5 DL, 3 LB, 3 DB",left,2019-09-22T22:07:30.000Z,2019-09-22T22:07:29.000Z,6-4,330,03/25/1987,Louisiana State,DT,SEA,NO,3,CenturyLink Field,"Seattle, WA",Outdoor,FieldTurf,Rain,63.0,85,SSE,8
42538,2019092211,20190922112308,home,8.56,25.38,0.6,1.44,0.06,61.03,28.57,2495252,K.J. Wright,50,2019,1,3,09:06:00,NO,2,1,SEA,7,20,2539303,SINGLEBACK,"6 OL, 2 RB, 2 TE, 0 WR",10,"5 DL, 3 LB, 3 DB",left,2019-09-22T22:07:30.000Z,2019-09-22T22:07:29.000Z,6-4,246,07/23/1989,Mississippi State,OLB,SEA,NO,3,CenturyLink Field,"Seattle, WA",Outdoor,FieldTurf,Rain,63.0,85,SSE,8
42539,2019092211,20190922112308,home,8.81,31.88,1.4,0.61,0.14,112.41,98.95,2532890,Mychal Kendricks,56,2019,1,3,09:06:00,NO,2,1,SEA,7,20,2539303,SINGLEBACK,"6 OL, 2 RB, 2 TE, 0 WR",10,"5 DL, 3 LB, 3 DB",left,2019-09-22T22:07:30.000Z,2019-09-22T22:07:29.000Z,5-11,240,09/28/1990,California,OLB,SEA,NO,3,CenturyLink Field,"Seattle, WA",Outdoor,FieldTurf,Rain,63.0,85,SSE,8
42540,2019092211,20190922112308,home,9.23,30.1,1.75,1.93,0.16,95.07,87.46,2532966,Bobby Wagner,54,2019,1,3,09:06:00,NO,2,1,SEA,7,20,2539303,SINGLEBACK,"6 OL, 2 RB, 2 TE, 0 WR",10,"5 DL, 3 LB, 3 DB",left,2019-09-22T22:07:30.000Z,2019-09-22T22:07:29.000Z,6-0,242,06/27/1990,Utah State,MLB,SEA,NO,3,CenturyLink Field,"Seattle, WA",Outdoor,FieldTurf,Rain,63.0,85,SSE,8
42541,2019092211,20190922112308,home,10.43,37.57,2.27,2.17,0.22,112.3,152.3,2539243,Bradley McDougald,30,2019,1,3,09:06:00,NO,2,1,SEA,7,20,2539303,SINGLEBACK,"6 OL, 2 RB, 2 TE, 0 WR",10,"5 DL, 3 LB, 3 DB",left,2019-09-22T22:07:30.000Z,2019-09-22T22:07:29.000Z,6-1,215,11/15/1990,Kansas,SS,SEA,NO,3,CenturyLink Field,"Seattle, WA",Outdoor,FieldTurf,Rain,63.0,85,SSE,8
42542,2019092211,20190922112308,home,8.37,36.04,0.56,0.77,0.06,115.4,176.2,2553456,Akeem King,36,2019,1,3,09:06:00,NO,2,1,SEA,7,20,2539303,SINGLEBACK,"6 OL, 2 RB, 2 TE, 0 WR",10,"5 DL, 3 LB, 3 DB",left,2019-09-22T22:07:30.000Z,2019-09-22T22:07:29.000Z,6-1,215,08/29/1992,San Jose State,CB,SEA,NO,3,CenturyLink Field,"Seattle, WA",Outdoor,FieldTurf,Rain,63.0,85,SSE,8
42543,2019092211,20190922112308,home,11.07,26.04,2.13,1.47,0.22,37.58,58.79,2555358,Quinton Jefferson,99,2019,1,3,09:06:00,NO,2,1,SEA,7,20,2539303,SINGLEBACK,"6 OL, 2 RB, 2 TE, 0 WR",10,"5 DL, 3 LB, 3 DB",left,2019-09-22T22:07:30.000Z,2019-09-22T22:07:29.000Z,6-4,291,03/31/1993,Maryland,DT,SEA,NO,3,CenturyLink Field,"Seattle, WA",Outdoor,FieldTurf,Rain,63.0,85,SSE,8
42544,2019092211,20190922112308,home,9.05,20.05,3.41,2.27,0.33,84.88,189.81,2558077,Lano Hill,42,2019,1,3,09:06:00,NO,2,1,SEA,7,20,2539303,SINGLEBACK,"6 OL, 2 RB, 2 TE, 0 WR",10,"5 DL, 3 LB, 3 DB",left,2019-09-22T22:07:30.000Z,2019-09-22T22:07:29.000Z,6-1,216,11/26/1995,Michigan,SS,SEA,NO,3,CenturyLink Field,"Seattle, WA",Outdoor,FieldTurf,Rain,63.0,85,SSE,8
42545,2019092211,20190922112308,home,10.76,32.42,1.81,0.9,0.18,137.16,143.61,2560998,Rasheem Green,98,2019,1,3,09:06:00,NO,2,1,SEA,7,20,2539303,SINGLEBACK,"6 OL, 2 RB, 2 TE, 0 WR",10,"5 DL, 3 LB, 3 DB",left,2019-09-22T22:07:30.000Z,2019-09-22T22:07:29.000Z,6-4,279,05/15/1997,Southern California,DE,SEA,NO,3,CenturyLink Field,"Seattle, WA",Outdoor,FieldTurf,Rain,63.0,85,SSE,8
42546,2019092211,20190922112308,home,10.18,31.33,1.02,0.84,0.11,45.08,164.34,2561195,Poona Ford,97,2019,1,3,09:06:00,NO,2,1,SEA,7,20,2539303,SINGLEBACK,"6 OL, 2 RB, 2 TE, 0 WR",10,"5 DL, 3 LB, 3 DB",left,2019-09-22T22:07:30.000Z,2019-09-22T22:07:29.000Z,5-11,310,11/19/1995,Texas,DT,SEA,NO,3,CenturyLink Field,"Seattle, WA",Outdoor,FieldTurf,Rain,63.0,85,SSE,8
42547,2019092211,20190922112308,home,10.48,29.12,0.82,1.14,0.09,67.62,136.35,2562914,Bryan Mone,79,2019,1,3,09:06:00,NO,2,1,SEA,7,20,2539303,SINGLEBACK,"6 OL, 2 RB, 2 TE, 0 WR",10,"5 DL, 3 LB, 3 DB",left,2019-09-22T22:07:30.000Z,2019-09-22T22:07:29.000Z,6-3,345,10/20/1995,Michigan,NT,SEA,NO,3,CenturyLink Field,"Seattle, WA",Outdoor,FieldTurf,Rain,63.0,85,SSE,8
