,GameId,PlayId,Team,X,Y,S,A,Dis,Orientation,Dir,NflId,DisplayName,JerseyNumber,Season,YardLine,Quarter,GameClock,PossessionTeam,Down,Distance,FieldPosition,HomeScoreBeforePlay,VisitorScoreBeforePlay,NflIdRusher,OffenseFormation,OffensePersonnel,DefendersInTheBox,DefensePersonnel,PlayDirection,TimeHandoff,TimeSnap,PlayerHeight,PlayerWeight,PlayerBirthDate,PlayerCollegeName,Position,HomeTeamAbbr,VisitorTeamAbbr,Week,Stadium,Location,StadiumType,Turf,GameWeather,Temperature,Humidity,WindSpeed,WindDirection
52624,2019092905,20190929053336,away,69.6,21.36,3.27,0.61,0.33,274.24,153.57,2495171,Rodney Hudson,61,2019,42,4,11:38:00,OAK,1,10,OAK,10,24,2555464,SHOTGUN,"1 RB, 1 TE, 3 WR",5,"4 DL, 2 LB, 5 DB",left,2019-09-29T19:26:51.000Z,2019-09-29T19:26:50.000Z,6-2,315,07/12/1989,Florida State,C,IND,OAK,4,Lucas Oil Stadium,"Indianapolis, Ind.",Retr. Roof-Closed,Artificial,Cloudy,77.0,72,10,NNE
52625,2019092905,20190929053336,away,67.73,20.77,2.65,0.49,0.28,248.78,233.2,2506420,Richie Incognito,64,2019,42,4,11:38:00,OAK,1,10,OAK,10,24,2555464,SHOTGUN,"1 RB, 1 TE, 3 WR",5,"4 DL, 2 LB, 5 DB",left,2019-09-29T19:26:51.000Z,2019-09-29T19:26:50.000Z,6-3,325,07/05/1983,Nebraska,G,IND,OAK,4,Lucas Oil Stadium,"Indianapolis, Ind.",Retr. Roof-Closed,Artificial,Cloudy,77.0,72,10,NNE
52626,2019092905,20190929053336,away,73.13,23.57,0.33,0.72,0.03,307.92,29.61,2543499,Derek Carr,4,2019,42,4,11:38:00,OAK,1,10,OAK,10,24,2555464,SHOTGUN,"1 RB, 1 TE, 3 WR",5,"4 DL, 2 LB, 5 DB",left,2019-09-29T19:26:51.000Z,2019-09-29T19:26:50.000Z,6-3,210,03/28/1991,Fresno State,QB,IND,OAK,4,Lucas Oil Stadium,"Indianapolis, Ind.",Retr. Roof-Closed,Artificial,Cloudy,77.0,72,10,NNE
52627,2019092905,20190929053336,away,68.83,27.49,1.99,1.67,0.18,274.2,337.58,2552350,Trent Brown,77,2019,42,4,11:38:00,OAK,1,10,OAK,10,24,2555464,SHOTGUN,"1 RB, 1 TE, 3 WR",5,"4 DL, 2 LB, 5 DB",left,2019-09-29T19:26:51.000Z,2019-09-29T19:26:50.000Z,6-8,380,04/13/1993,Florida,T,IND,OAK,4,Lucas Oil Stadium,"Indianapolis, Ind.",Retr. Roof-Closed,Artificial,Cloudy,77.0,72,10,NNE
52628,2019092905,20190929053336,away,67.35,9.56,3.65,2.77,0.35,261.29,263.03,2552408,Darren Waller,83,2019,42,4,11:38:00,OAK,1,10,OAK,10,24,2555464,SHOTGUN,"1 RB, 1 TE, 3 WR",5,"4 DL, 2 LB, 5 DB",left,2019-09-29T19:26:51.000Z,2019-09-29T19:26:50.000Z,6-6,255,09/13/1992,Georgia Tech,TE,IND,OAK,4,Lucas Oil Stadium,"Indianapolis, Ind.",Retr. Roof-Closed,Artificial,Cloudy,77.0,72,10,NNE
52629,2019092905,20190929053336,away,69.07,23.29,2.08,0.58,0.21,241.96,165.07,2553460,Denzelle Good,71,2019,42,4,11:38:00,OAK,1,10,OAK,10,24,2555464,SHOTGUN,"1 RB, 1 TE, 3 WR",5,"4 DL, 2 LB, 5 DB",left,2019-09-29T19:26:51.000Z,2019-09-29T19:26:50.000Z,6-5,340,03/08/1991,Mars Hill,OT,IND,OAK,4,Lucas Oil Stadium,"Indianapolis, Ind.",Retr. Roof-Closed,Artificial,Cloudy,77.0,72,10,NNE
52630,2019092905,20190929053336,away,67.21,44.11,2.79,2.22,0.27,262.08,288.12,2553913,Tyrell Williams,16,2019,42,4,11:38:00,OAK,1,10,OAK,10,24,2555464,SHOTGUN,"1 RB, 1 TE, 3 WR",5,"4 DL, 2 LB, 5 DB",left,2019-09-29T19:26:51.000Z,2019-09-29T19:26:50.000Z,6-4,205,02/12/1992,Western Oregon,WR,IND,OAK,4,Lucas Oil Stadium,"Indianapolis, Ind.",Retr. Roof-Closed,Artificial,Cloudy,77.0,72,10,NNE
52631,2019092905,20190929053336,away,72.59,24.38,4.7,2.69,0.45,197.9,191.52,2555464,DeAndre Washington,33,2019,42,4,11:38:00,OAK,1,10,OAK,10,24,2555464,SHOTGUN,"1 RB, 1 TE, 3 WR",5,"4 DL, 2 LB, 5 DB",left,2019-09-29T19:26:51.000Z,2019-09-29T19:26:50.000Z,5-8,210,02/22/1993,Texas Tech,RB,IND,OAK,4,Lucas Oil Stadium,"Indianapolis, Ind.",Retr. Roof-Closed,Artificial,Cloudy,77.0,72,10,NNE
52632,2019092905,20190929053336,away,69.24,18.42,2.65,0.71,0.27,180.55,168.26,2560811,Kolton Miller,74,2019,42,4,11:38:00,OAK,1,10,OAK,10,24,2555464,SHOTGUN,"1 RB, 1 TE, 3 WR",5,"4 DL, 2 LB, 5 DB",left,2019-09-29T19:26:51.000Z,2019-09-29T19:26:50.000Z,6-8,325,10/09/1995,UCLA,T,IND,OAK,4,Lucas Oil Stadium,"Indianapolis, Ind.",Retr. Roof-Closed,Artificial,Cloudy,77.0,72,10,NNE
52633,2019092905,20190929053336,away,70.01,39.58,4.15,4.07,0.4,297.03,11.74,2562393,Keelan Doss,18,2019,42,4,11:38:00,OAK,1,10,OAK,10,24,2555464,SHOTGUN,"1 RB, 1 TE, 3 WR",5,"4 DL, 2 LB, 5 DB",left,2019-09-29T19:26:51.000Z,2019-09-29T19:26:50.000Z,6-3,215,03/21/1996,California-Davis,WR,IND,OAK,4,Lucas Oil Stadium,"Indianapolis, Ind.",Retr. Roof-Closed,Artificial,Cloudy,77.0,72,10,NNE
52634,2019092905,20190929053336,away,68.18,34.18,3.6,3.47,0.35,220.3,290.53,2562712,Hunter Renfrow,13,2019,42,4,11:38:00,OAK,1,10,OAK,10,24,2555464,SHOTGUN,"1 RB, 1 TE, 3 WR",5,"4 DL, 2 LB, 5 DB",left,2019-09-29T19:26:51.000Z,2019-09-29T19:26:50.000Z,5-10,185,12/21/1995,Clemson,WR,IND,OAK,4,Lucas Oil Stadium,"Indianapolis, Ind.",Retr. Roof-Closed,Artificial,Cloudy,77.0,72,10,NNE
52635,2019092905,20190929053336,home,68.1,28.57,1.95,2.03,0.19,114.3,140.37,2495228,Jabaal Sheard,93,2019,42,4,11:38:00,OAK,1,10,OAK,10,24,2555464,SHOTGUN,"1 RB, 1 TE, 3 WR",5,"4 DL, 2 LB, 5 DB",left,2019-09-29T19:26:51.000Z,2019-09-29T19:26:50.000Z,6-3,268,05/10/1989,Pittsburgh,DE,IND,OAK,4,Lucas Oil Stadium,"Indianapolis, Ind.",Retr. Roof-Closed,Artificial,Cloudy,77.0,72,10,NNE
52636,2019092905,20190929053336,home,68.91,21.55,2.66,1.8,0.28,80.22,141.07,2539310,Margus Hunt,92,2019,42,4,11:38:00,OAK,1,10,OAK,10,24,2555464,SHOTGUN,"1 RB, 1 TE, 3 WR",5,"4 DL, 2 LB, 5 DB",left,2019-09-29T19:26:51.000Z,2019-09-29T19:26:50.000Z,6-8,295,07/14/1987,Southern Methodist,DT,IND,OAK,4,Lucas Oil Stadium,"Indianapolis, Ind.",Retr. Roof-Closed,Artificial,Cloudy,77.0,72,10,NNE
52637,2019092905,20190929053336,home,64.88,9.76,2.61,2.16,0.25,74.31,253.53,2543811,Pierre Desir,35,2019,42,4,11:38:00,OAK,1,10,OAK,10,24,2555464,SHOTGUN,"1 RB, 1 TE, 3 WR",5,"4 DL, 2 LB, 5 DB",left,2019-09-29T19:26:51.000Z,2019-09-29T19:26:50.000Z,6-1,192,09/08/1990,Lindenwood,CB,IND,OAK,4,Lucas Oil Stadium,"Indianapolis, Ind.",Retr. Roof-Closed,Artificial,Cloudy,77.0,72,10,NNE
52638,2019092905,20190929053336,home,59.38,17.29,4.5,2.05,0.44,80.03,108.63,2552386,Clayton Geathers,26,2019,42,4,11:38:00,OAK,1,10,OAK,10,24,2555464,SHOTGUN,"1 RB, 1 TE, 3 WR",5,"4 DL, 2 LB, 5 DB",left,2019-09-29T19:26:51.000Z,2019-09-29T19:26:50.000Z,6-2,216,06/01/1992,Central Florida,FS,IND,OAK,4,Lucas Oil Stadium,"Indianapolis, Ind.",Retr. Roof-Closed,Artificial,Cloudy,77.0,72,10,NNE
52639,2019092905,20190929053336,home,68.35,23.13,2.08,1.24,0.21,126.24,153.42,2558766,Grover Stewart,90,2019,42,4,11:38:00,OAK,1,10,OAK,10,24,2555464,SHOTGUN,"1 RB, 1 TE, 3 WR",5,"4 DL, 2 LB, 5 DB",left,2019-09-29T19:26:51.000Z,2019-09-29T19:26:50.000Z,6-4,315,10/20/1993,"Albany State, Ga.",DT,IND,OAK,4,Lucas Oil Stadium,"Indianapolis, Ind.",Retr. Roof-Closed,Artificial,Cloudy,77.0,72,10,NNE
52640,2019092905,20190929053336,home,63.82,23.39,2.74,2.65,0.26,111.61,161.13,2558851,Anthony Walker,50,2019,42,4,11:38:00,OAK,1,10,OAK,10,24,2555464,SHOTGUN,"1 RB, 1 TE, 3 WR",5,"4 DL, 2 LB, 5 DB",left,2019-09-29T19:26:51.000Z,2019-09-29T19:26:50.000Z,6-1,230,08/08/1995,Northwestern,ILB,IND,OAK,4,Lucas Oil Stadium,"Indianapolis, Ind.",Retr. Roof-Closed,Artificial,Cloudy,77.0,72,10,NNE
52641,2019092905,20190929053336,home,65.77,38.48,1.76,2.31,0.17,109.49,316.58,2558976,Kenny Moore,23,2019,42,4,11:38:00,OAK,1,10,OAK,10,24,2555464,SHOTGUN,"1 RB, 1 TE, 3 WR",5,"4 DL, 2 LB, 5 DB",left,2019-09-29T19:26:51.000Z,2019-09-29T19:26:50.000Z,5-9,190,08/23/1995,Valdosta State,CB,IND,OAK,4,Lucas Oil Stadium,"Indianapolis, Ind.",Retr. Roof-Closed,Artificial,Cloudy,77.0,72,10,NNE
52642,2019092905,20190929053336,home,68.57,17.71,1.94,1.62,0.19,69.18,130.24,2562229,Ben Banogu,52,2019,42,4,11:38:00,OAK,1,10,OAK,10,24,2555464,SHOTGUN,"1 RB, 1 TE, 3 WR",5,"4 DL, 2 LB, 5 DB",left,2019-09-29T19:26:51.000Z,2019-09-29T19:26:50.000Z,6-3,252,01/19/1996,Texas Christian,DE,IND,OAK,4,Lucas Oil Stadium,"Indianapolis, Ind.",Retr. Roof-Closed,Artificial,Cloudy,77.0,72,10,NNE
52643,2019092905,20190929053336,home,63.08,30.34,1.35,1.78,0.13,117.6,258.36,2562416,Bobby Okereke,58,2019,42,4,11:38:00,OAK,1,10,OAK,10,24,2555464,SHOTGUN,"1 RB, 1 TE, 3 WR",5,"4 DL, 2 LB, 5 DB",left,2019-09-29T19:26:51.000Z,2019-09-29T19:26:50.000Z,6-1,234,07/29/1996,Stanford,LB,IND,OAK,4,Lucas Oil Stadium,"Indianapolis, Ind.",Retr. Roof-Closed,Artificial,Cloudy,77.0,72,10,NNE
52644,2019092905,20190929053336,home,54.74,34.23,3.32,2.49,0.32,109.14,242.33,2562602,Khari Willis,37,2019,42,4,11:38:00,OAK,1,10,OAK,10,24,2555464,SHOTGUN,"1 RB, 1 TE, 3 WR",5,"4 DL, 2 LB, 5 DB",left,2019-09-29T19:26:51.000Z,2019-09-29T19:26:50.000Z,5-11,215,05/07/1996,Michigan State,DB,IND,OAK,4,Lucas Oil Stadium,"Indianapolis, Ind.",Retr. Roof-Closed,Artificial,Cloudy,77.0,72,10,NNE
52645,2019092905,20190929053336,home,63.81,44.39,2.93,4.49,0.29,116.38,278.67,2562614,Rock Ya-Sin,34,2019,42,4,11:38:00,OAK,1,10,OAK,10,24,2555464,SHOTGUN,"1 RB, 1 TE, 3 WR",5,"4 DL, 2 LB, 5 DB",left,2019-09-29T19:26:51.000Z,2019-09-29T19:26:50.000Z,6-0,190,05/23/1996,Temple,DB,IND,OAK,4,Lucas Oil Stadium,"Indianapolis, Ind.",Retr. Roof-Closed,Artificial,Cloudy,77.0,72,10,NNE
