,GameId,PlayId,Team,X,Y,S,A,Dis,Orientation,Dir,NflId,DisplayName,JerseyNumber,Season,YardLine,Quarter,GameClock,PossessionTeam,Down,Distance,FieldPosition,HomeScoreBeforePlay,VisitorScoreBeforePlay,NflIdRusher,OffenseFormation,OffensePersonnel,DefendersInTheBox,DefensePersonnel,PlayDirection,TimeHandoff,TimeSnap,PlayerHeight,PlayerWeight,PlayerBirthDate,PlayerCollegeName,Position,HomeTeamAbbr,VisitorTeamAbbr,Week,Stadium,Location,StadiumType,Turf,GameWeather,Temperature,Humidity,WindSpeed,WindDirection
30888,2019091900,20190919002620,away,33.88,27.59,3.52,0.92,0.4,172.72,169.44,497048,Rodger Saffold,76,2019,25,3,07:54:00,TEN,1,10,TEN,17,0,2556075,SINGLEBACK,"1 RB, 3 TE, 1 WR",7,"3 DL, 4 LB, 4 DB",right,2019-09-20T02:22:08.000Z,2019-09-20T02:22:06.000Z,6-5,325,06/06/1988,Indiana,G,JAX,TEN,3,TIAA Bank Field,"Jacksonville, FL",Outdoor,Grass,Light rain,73.0,87,9mph,NE
30889,2019091900,20190919002620,away,34.51,23.69,3.06,1.09,0.31,62.15,157.63,2495966,Delanie Walker,82,2019,25,3,07:54:00,TEN,1,10,TEN,17,0,2556075,SINGLEBACK,"1 RB, 3 TE, 1 WR",7,"3 DL, 4 LB, 4 DB",right,2019-09-20T02:22:08.000Z,2019-09-20T02:22:06.000Z,6-2,248,08/12/1984,Central Missouri,TE,JAX,TEN,3,TIAA Bank Field,"Jacksonville, FL",Outdoor,Grass,Light rain,73.0,87,9mph,NE
30890,2019091900,20190919002620,away,34.66,30.2,1.24,0.84,0.12,83.55,163.27,2532883,Ben Jones,60,2019,25,3,07:54:00,TEN,1,10,TEN,17,0,2556075,SINGLEBACK,"1 RB, 3 TE, 1 WR",7,"3 DL, 4 LB, 4 DB",right,2019-09-20T02:22:08.000Z,2019-09-20T02:22:06.000Z,6-3,308,07/02/1989,Georgia,C,JAX,TEN,3,TIAA Bank Field,"Jacksonville, FL",Outdoor,Grass,Light rain,73.0,87,9mph,NE
30891,2019091900,20190919002620,away,33.98,31.14,1.72,0.74,0.17,16.68,178.34,2535131,Dennis Kelly,71,2019,25,3,07:54:00,TEN,1,10,TEN,17,0,2556075,SINGLEBACK,"1 RB, 3 TE, 1 WR",7,"3 DL, 4 LB, 4 DB",right,2019-09-20T02:22:08.000Z,2019-09-20T02:22:06.000Z,6-8,321,01/16/1990,Purdue,OT,JAX,TEN,3,TIAA Bank Field,"Jacksonville, FL",Outdoor,Grass,Light rain,73.0,87,9mph,NE
30892,2019091900,20190919002620,away,34.71,29.47,0.57,1.57,0.05,94.9,72.31,2552339,Jamil Douglas,75,2019,25,3,07:54:00,TEN,1,10,TEN,17,0,2556075,SINGLEBACK,"1 RB, 3 TE, 1 WR",7,"3 DL, 4 LB, 4 DB",right,2019-09-20T02:22:08.000Z,2019-09-20T02:22:06.000Z,6-4,308,02/28/1992,Arizona State,OG,JAX,TEN,3,TIAA Bank Field,"Jacksonville, FL",Outdoor,Grass,Light rain,73.0,87,9mph,NE
30893,2019091900,20190919002620,away,35.86,31.67,5.0,1.24,0.5,108.45,138.74,2552401,MyCole Pruitt,85,2019,25,3,07:54:00,TEN,1,10,TEN,17,0,2556075,SINGLEBACK,"1 RB, 3 TE, 1 WR",7,"3 DL, 4 LB, 4 DB",right,2019-09-20T02:22:08.000Z,2019-09-20T02:22:06.000Z,6-2,243,03/24/1992,Southern Illinois,TE,JAX,TEN,3,TIAA Bank Field,"Jacksonville, FL",Outdoor,Grass,Light rain,73.0,87,9mph,NE
30894,2019091900,20190919002620,away,29.81,31.04,4.12,1.12,0.41,211.95,285.03,2552466,Marcus Mariota,8,2019,25,3,07:54:00,TEN,1,10,TEN,17,0,2556075,SINGLEBACK,"1 RB, 3 TE, 1 WR",7,"3 DL, 4 LB, 4 DB",right,2019-09-20T02:22:08.000Z,2019-09-20T02:22:06.000Z,6-4,222,10/30/1993,Oregon,QB,JAX,TEN,3,TIAA Bank Field,"Jacksonville, FL",Outdoor,Grass,Light rain,73.0,87,9mph,NE
30895,2019091900,20190919002620,away,34.8,28.22,1.08,2.61,0.14,94.46,161.78,2555279,Jack Conklin,78,2019,25,3,07:54:00,TEN,1,10,TEN,17,0,2556075,SINGLEBACK,"1 RB, 3 TE, 1 WR",7,"3 DL, 4 LB, 4 DB",right,2019-09-20T02:22:08.000Z,2019-09-20T02:22:06.000Z,6-6,308,08/17/1994,Michigan State,T,JAX,TEN,3,TIAA Bank Field,"Jacksonville, FL",Outdoor,Grass,Light rain,73.0,87,9mph,NE
30896,2019091900,20190919002620,away,29.32,30.42,3.56,4.0,0.34,89.5,115.94,2556075,Derrick Henry,22,2019,25,3,07:54:00,TEN,1,10,TEN,17,0,2556075,SINGLEBACK,"1 RB, 3 TE, 1 WR",7,"3 DL, 4 LB, 4 DB",right,2019-09-20T02:22:08.000Z,2019-09-20T02:22:06.000Z,6-3,247,01/04/1994,Alabama,RB,JAX,TEN,3,TIAA Bank Field,"Jacksonville, FL",Outdoor,Grass,Light rain,73.0,87,9mph,NE
30897,2019091900,20190919002620,away,32.63,30.47,5.19,1.33,0.52,146.31,173.91,2558207,Jonnu Smith,81,2019,25,3,07:54:00,TEN,1,10,TEN,17,0,2556075,SINGLEBACK,"1 RB, 3 TE, 1 WR",7,"3 DL, 4 LB, 4 DB",right,2019-09-20T02:22:08.000Z,2019-09-20T02:22:06.000Z,6-3,248,08/22/1995,Florida International,TE,JAX,TEN,3,TIAA Bank Field,"Jacksonville, FL",Outdoor,Grass,Light rain,73.0,87,9mph,NE
30898,2019091900,20190919002620,away,38.2,18.17,6.33,1.88,0.62,85.33,93.76,2562238,A.J. Brown,11,2019,25,3,07:54:00,TEN,1,10,TEN,17,0,2556075,SINGLEBACK,"1 RB, 3 TE, 1 WR",7,"3 DL, 4 LB, 4 DB",right,2019-09-20T02:22:08.000Z,2019-09-20T02:22:06.000Z,6-1,226,06/30/1997,Mississippi,WR,JAX,TEN,3,TIAA Bank Field,"Jacksonville, FL",Outdoor,Grass,Light rain,73.0,87,9mph,NE
30899,2019091900,20190919002620,home,35.34,30.2,1.33,1.15,0.16,250.28,165.71,2495478,Marcell Dareus,99,2019,25,3,07:54:00,TEN,1,10,TEN,17,0,2556075,SINGLEBACK,"1 RB, 3 TE, 1 WR",7,"3 DL, 4 LB, 4 DB",right,2019-09-20T02:22:08.000Z,2019-09-20T02:22:06.000Z,6-3,331,03/13/1990,Alabama,DT,JAX,TEN,3,TIAA Bank Field,"Jacksonville, FL",Outdoor,Grass,Light rain,73.0,87,9mph,NE
30900,2019091900,20190919002620,home,36.35,27.87,3.66,1.77,0.36,257.84,236.74,2533016,Najee Goode,52,2019,25,3,07:54:00,TEN,1,10,TEN,17,0,2556075,SINGLEBACK,"1 RB, 3 TE, 1 WR",7,"3 DL, 4 LB, 4 DB",right,2019-09-20T02:22:08.000Z,2019-09-20T02:22:06.000Z,6-0,244,06/04/1989,West Virginia,OLB,JAX,TEN,3,TIAA Bank Field,"Jacksonville, FL",Outdoor,Grass,Light rain,73.0,87,9mph,NE
30901,2019091900,20190919002620,home,35.19,28.89,0.44,0.9,0.03,268.56,126.09,2539230,Abry Jones,95,2019,25,3,07:54:00,TEN,1,10,TEN,17,0,2556075,SINGLEBACK,"1 RB, 3 TE, 1 WR",7,"3 DL, 4 LB, 4 DB",right,2019-09-20T02:22:08.000Z,2019-09-20T02:22:06.000Z,6-4,318,09/08/1991,Georgia,NT,JAX,TEN,3,TIAA Bank Field,"Jacksonville, FL",Outdoor,Grass,Light rain,73.0,87,9mph,NE
30902,2019091900,20190919002620,home,51.12,30.17,0.94,1.39,0.08,195.55,127.62,2541162,A.J. Bouye,21,2019,25,3,07:54:00,TEN,1,10,TEN,17,0,2556075,SINGLEBACK,"1 RB, 3 TE, 1 WR",7,"3 DL, 4 LB, 4 DB",right,2019-09-20T02:22:08.000Z,2019-09-20T02:22:06.000Z,6-0,191,08/16/1991,Central Florida,CB,JAX,TEN,3,TIAA Bank Field,"Jacksonville, FL",Outdoor,Grass,Light rain,73.0,87,9mph,NE
30903,2019091900,20190919002620,home,43.93,18.57,3.87,1.25,0.38,262.54,89.87,2555280,Jalen Ramsey,20,2019,25,3,07:54:00,TEN,1,10,TEN,17,0,2556075,SINGLEBACK,"1 RB, 3 TE, 1 WR",7,"3 DL, 4 LB, 4 DB",right,2019-09-20T02:22:08.000Z,2019-09-20T02:22:06.000Z,6-1,208,10/24/1994,Florida State,CB,JAX,TEN,3,TIAA Bank Field,"Jacksonville, FL",Outdoor,Grass,Light rain,73.0,87,9mph,NE
30904,2019091900,20190919002620,home,35.52,37.27,3.72,1.47,0.37,194.19,214.06,2556711,Jarrod Wilson,26,2019,25,3,07:54:00,TEN,1,10,TEN,17,0,2556075,SINGLEBACK,"1 RB, 3 TE, 1 WR",7,"3 DL, 4 LB, 4 DB",right,2019-09-20T02:22:08.000Z,2019-09-20T02:22:06.000Z,6-2,210,02/09/1994,Michigan,SS,JAX,TEN,3,TIAA Bank Field,"Jacksonville, FL",Outdoor,Grass,Light rain,73.0,87,9mph,NE
30905,2019091900,20190919002620,home,34.48,31.53,1.95,1.61,0.21,257.24,193.46,2557839,Dawuane Smoot,94,2019,25,3,07:54:00,TEN,1,10,TEN,17,0,2556075,SINGLEBACK,"1 RB, 3 TE, 1 WR",7,"3 DL, 4 LB, 4 DB",right,2019-09-20T02:22:08.000Z,2019-09-20T02:22:06.000Z,6-3,264,03/02/1995,Illinois,DE,JAX,TEN,3,TIAA Bank Field,"Jacksonville, FL",Outdoor,Grass,Light rain,73.0,87,9mph,NE
30906,2019091900,20190919002620,home,38.0,31.25,4.29,2.16,0.42,220.76,195.2,2560758,Leon Jacobs,48,2019,25,3,07:54:00,TEN,1,10,TEN,17,0,2556075,SINGLEBACK,"1 RB, 3 TE, 1 WR",7,"3 DL, 4 LB, 4 DB",right,2019-09-20T02:22:08.000Z,2019-09-20T02:22:06.000Z,6-2,245,10/03/1995,Wisconsin,LB,JAX,TEN,3,TIAA Bank Field,"Jacksonville, FL",Outdoor,Grass,Light rain,73.0,87,9mph,NE
30907,2019091900,20190919002620,home,33.56,32.66,4.41,1.64,0.44,230.33,206.44,2561008,Ronnie Harrison,36,2019,25,3,07:54:00,TEN,1,10,TEN,17,0,2556075,SINGLEBACK,"1 RB, 3 TE, 1 WR",7,"3 DL, 4 LB, 4 DB",right,2019-09-20T02:22:08.000Z,2019-09-20T02:22:06.000Z,6-3,214,04/18/1997,Alabama,DB,JAX,TEN,3,TIAA Bank Field,"Jacksonville, FL",Outdoor,Grass,Light rain,73.0,87,9mph,NE
30908,2019091900,20190919002620,home,33.4,26.87,3.49,4.25,0.34,281.16,272.63,2562619,Josh Allen,41,2019,25,3,07:54:00,TEN,1,10,TEN,17,0,2556075,SINGLEBACK,"1 RB, 3 TE, 1 WR",7,"3 DL, 4 LB, 4 DB",right,2019-09-20T02:22:08.000Z,2019-09-20T02:22:06.000Z,6-5,262,07/13/1997,Kentucky,LB,JAX,TEN,3,TIAA Bank Field,"Jacksonville, FL",Outdoor,Grass,Light rain,73.0,87,9mph,NE
30909,2019091900,20190919002620,home,36.53,23.13,2.96,2.93,0.28,268.14,227.64,2562954,Quincy Williams,56,2019,25,3,07:54:00,TEN,1,10,TEN,17,0,2556075,SINGLEBACK,"1 RB, 3 TE, 1 WR",7,"3 DL, 4 LB, 4 DB",right,2019-09-20T02:22:08.000Z,2019-09-20T02:22:06.000Z,5-11,226,08/28/1996,Murray State,LB,JAX,TEN,3,TIAA Bank Field,"Jacksonville, FL",Outdoor,Grass,Light rain,73.0,87,9mph,NE
