,GameId,PlayId,Team,X,Y,S,A,Dis,Orientation,Dir,NflId,DisplayName,JerseyNumber,Season,YardLine,Quarter,GameClock,PossessionTeam,Down,Distance,FieldPosition,HomeScoreBeforePlay,VisitorScoreBeforePlay,NflIdRusher,OffenseFormation,OffensePersonnel,DefendersInTheBox,DefensePersonnel,PlayDirection,TimeHandoff,TimeSnap,PlayerHeight,PlayerWeight,PlayerBirthDate,PlayerCollegeName,Position,HomeTeamAbbr,VisitorTeamAbbr,Week,Stadium,Location,StadiumType,Turf,GameWeather,Temperature,Humidity,WindSpeed,WindDirection
17864,2019091502,20190915020858,away,37.88,26.76,2.54,2.49,0.24,212.16,133.55,2495677,Brandon Mebane,92,2019,27,1,00:42:00,DET,1,10,DET,6,7,2540269,I_FORM,"2 RB, 1 TE, 2 WR",8,"4 DL, 3 LB, 4 DB",right,2019-09-15T17:37:13.000Z,2019-09-15T17:37:12.000Z,6-1,311,01/15/1985,California,NT,DET,LAC,2,Ford Field,Detroit,Indoors,Field Turf,Controlled Climate,68.0,70,,
17865,2019091502,20190915020858,away,41.01,28.32,3.77,0.23,0.38,240.37,179.24,2506352,Thomas Davis,58,2019,27,1,00:42:00,DET,1,10,DET,6,7,2540269,I_FORM,"2 RB, 1 TE, 2 WR",8,"4 DL, 3 LB, 4 DB",right,2019-09-15T17:37:13.000Z,2019-09-15T17:37:12.000Z,6-1,235,03/22/1983,Georgia,OLB,DET,LAC,2,Ford Field,Detroit,Indoors,Field Turf,Controlled Climate,68.0,70,,
17866,2019091502,20190915020858,away,43.29,17.28,1.45,0.55,0.14,331.78,89.44,2532861,Casey Hayward,26,2019,27,1,00:42:00,DET,1,10,DET,6,7,2540269,I_FORM,"2 RB, 1 TE, 2 WR",8,"4 DL, 3 LB, 4 DB",right,2019-09-15T17:37:13.000Z,2019-09-15T17:37:12.000Z,5-11,192,09/09/1989,Vanderbilt,CB,DET,LAC,2,Ford Field,Detroit,Indoors,Field Turf,Controlled Climate,68.0,70,,
17867,2019091502,20190915020858,away,37.35,31.35,4.29,2.03,0.42,219.03,205.22,2550842,Adrian Phillips,31,2019,27,1,00:42:00,DET,1,10,DET,6,7,2540269,I_FORM,"2 RB, 1 TE, 2 WR",8,"4 DL, 3 LB, 4 DB",right,2019-09-15T17:37:13.000Z,2019-09-15T17:37:12.000Z,5-11,210,03/28/1992,Texas,SS,DET,LAC,2,Ford Field,Detroit,Indoors,Field Turf,Controlled Climate,68.0,70,,
17868,2019091502,20190915020858,away,36.72,28.92,3.25,1.53,0.33,209.84,180.3,2555249,Joey Bosa,97,2019,27,1,00:42:00,DET,1,10,DET,6,7,2540269,I_FORM,"2 RB, 1 TE, 2 WR",8,"4 DL, 3 LB, 4 DB",right,2019-09-15T17:37:13.000Z,2019-09-15T17:37:12.000Z,6-5,280,07/11/1995,Ohio State,DE,DET,LAC,2,Ford Field,Detroit,Indoors,Field Turf,Controlled Climate,68.0,70,,
17869,2019091502,20190915020858,away,35.3,20.98,2.26,2.86,0.22,325.84,219.19,2557860,Isaac Rochell,98,2019,27,1,00:42:00,DET,1,10,DET,6,7,2540269,I_FORM,"2 RB, 1 TE, 2 WR",8,"4 DL, 3 LB, 4 DB",right,2019-09-15T17:37:13.000Z,2019-09-15T17:37:12.000Z,6-4,280,04/22/1995,Notre Dame,DE,DET,LAC,2,Ford Field,Detroit,Indoors,Field Turf,Controlled Climate,68.0,70,,
17870,2019091502,20190915020858,away,54.34,27.03,2.88,0.79,0.29,279.35,98.83,2558182,Rayshawn Jenkins,23,2019,27,1,00:42:00,DET,1,10,DET,6,7,2540269,I_FORM,"2 RB, 1 TE, 2 WR",8,"4 DL, 3 LB, 4 DB",right,2019-09-15T17:37:13.000Z,2019-09-15T17:37:12.000Z,6-2,220,01/25/1994,Miami,SS,DET,LAC,2,Ford Field,Detroit,Indoors,Field Turf,Controlled Climate,68.0,70,,
17871,2019091502,20190915020858,away,43.94,35.22,1.69,3.64,0.16,234.16,183.86,2560719,Brandon Facyson,28,2019,27,1,00:42:00,DET,1,10,DET,6,7,2540269,I_FORM,"2 RB, 1 TE, 2 WR",8,"4 DL, 3 LB, 4 DB",right,2019-09-15T17:37:13.000Z,2019-09-15T17:37:12.000Z,6-2,197,09/08/1994,Virginia Tech,CB,DET,LAC,2,Ford Field,Detroit,Indoors,Field Turf,Controlled Climate,68.0,70,,
17872,2019091502,20190915020858,away,36.27,23.76,1.23,1.39,0.12,287.48,203.38,2560769,Justin Jones,93,2019,27,1,00:42:00,DET,1,10,DET,6,7,2540269,I_FORM,"2 RB, 1 TE, 2 WR",8,"4 DL, 3 LB, 4 DB",right,2019-09-15T17:37:13.000Z,2019-09-15T17:37:12.000Z,6-3,309,08/28/1996,North Carolina State,DT,DET,LAC,2,Ford Field,Detroit,Indoors,Field Turf,Controlled Climate,68.0,70,,
17873,2019091502,20190915020858,away,40.62,24.04,0.77,0.64,0.08,284.22,251.78,2560826,Uchenna Nwosu,42,2019,27,1,00:42:00,DET,1,10,DET,6,7,2540269,I_FORM,"2 RB, 1 TE, 2 WR",8,"4 DL, 3 LB, 4 DB",right,2019-09-15T17:37:13.000Z,2019-09-15T17:37:12.000Z,6-2,251,12/28/1996,Southern California,LB,DET,LAC,2,Ford Field,Detroit,Indoors,Field Turf,Controlled Climate,68.0,70,,
17874,2019091502,20190915020858,away,41.62,25.31,1.9,0.25,0.19,265.34,174.72,2560928,Kyzir White,44,2019,27,1,00:42:00,DET,1,10,DET,6,7,2540269,I_FORM,"2 RB, 1 TE, 2 WR",8,"4 DL, 3 LB, 4 DB",right,2019-09-15T17:37:13.000Z,2019-09-15T17:37:12.000Z,6-2,216,03/24/1996,West Virginia,LB,DET,LAC,2,Ford Field,Detroit,Indoors,Field Turf,Controlled Climate,68.0,70,,
17875,2019091502,20190915020858,home,31.97,26.01,4.75,0.95,0.47,208.82,256.16,79860,Matthew Stafford,9,2019,27,1,00:42:00,DET,1,10,DET,6,7,2540269,I_FORM,"2 RB, 1 TE, 2 WR",8,"4 DL, 3 LB, 4 DB",right,2019-09-15T17:37:13.000Z,2019-09-15T17:37:12.000Z,6-3,220,02/07/1988,Georgia,QB,DET,LAC,2,Ford Field,Detroit,Indoors,Field Turf,Controlled Climate,68.0,70,,
17876,2019091502,20190915020858,home,38.17,18.96,4.15,2.24,0.41,97.57,106.78,2532884,Marvin Jones,11,2019,27,1,00:42:00,DET,1,10,DET,6,7,2540269,I_FORM,"2 RB, 1 TE, 2 WR",8,"4 DL, 3 LB, 4 DB",right,2019-09-15T17:37:13.000Z,2019-09-15T17:37:12.000Z,6-2,198,03/12/1990,California,WR,DET,LAC,2,Ford Field,Detroit,Indoors,Field Turf,Controlled Climate,68.0,70,,
17877,2019091502,20190915020858,home,35.21,21.96,1.63,0.2,0.16,164.15,200.25,2539340,Rick Wagner,71,2019,27,1,00:42:00,DET,1,10,DET,6,7,2540269,I_FORM,"2 RB, 1 TE, 2 WR",8,"4 DL, 3 LB, 4 DB",right,2019-09-15T17:37:13.000Z,2019-09-15T17:37:12.000Z,6-6,315,10/21/1989,Wisconsin,T,DET,LAC,2,Ford Field,Detroit,Indoors,Field Turf,Controlled Climate,68.0,70,,
17878,2019091502,20190915020858,home,31.17,25.42,4.22,3.61,0.41,81.06,113.47,2540269,C.J. Anderson,26,2019,27,1,00:42:00,DET,1,10,DET,6,7,2540269,I_FORM,"2 RB, 1 TE, 2 WR",8,"4 DL, 3 LB, 4 DB",right,2019-09-15T17:37:13.000Z,2019-09-15T17:37:12.000Z,5-8,225,02/10/1991,California,RB,DET,LAC,2,Ford Field,Detroit,Indoors,Field Turf,Controlled Climate,68.0,70,,
17879,2019091502,20190915020858,home,37.13,26.77,2.22,0.56,0.23,91.54,121.88,2555136,Joe Dahl,66,2019,27,1,00:42:00,DET,1,10,DET,6,7,2540269,I_FORM,"2 RB, 1 TE, 2 WR",8,"4 DL, 3 LB, 4 DB",right,2019-09-15T17:37:13.000Z,2019-09-15T17:37:12.000Z,6-4,310,04/09/1993,Washington State,G,DET,LAC,2,Ford Field,Detroit,Indoors,Field Turf,Controlled Climate,68.0,70,,
17880,2019091502,20190915020858,home,35.96,24.23,1.0,0.59,0.1,152.88,191.65,2555182,Graham Glasgow,60,2019,27,1,00:42:00,DET,1,10,DET,6,7,2540269,I_FORM,"2 RB, 1 TE, 2 WR",8,"4 DL, 3 LB, 4 DB",right,2019-09-15T17:37:13.000Z,2019-09-15T17:37:12.000Z,6-6,310,08/19/1992,Michigan,C,DET,LAC,2,Ford Field,Detroit,Indoors,Field Turf,Controlled Climate,68.0,70,,
17881,2019091502,20190915020858,home,37.78,32.15,3.6,2.62,0.35,325.73,144.44,2558052,Kenny Golladay,19,2019,27,1,00:42:00,DET,1,10,DET,6,7,2540269,I_FORM,"2 RB, 1 TE, 2 WR",8,"4 DL, 3 LB, 4 DB",right,2019-09-15T17:37:13.000Z,2019-09-15T17:37:12.000Z,6-4,213,11/03/1993,Northern Illinois,WR,DET,LAC,2,Ford Field,Detroit,Indoors,Field Turf,Controlled Climate,68.0,70,,
17882,2019091502,20190915020858,home,34.14,26.35,3.18,6.03,0.3,85.61,57.56,2560972,Nick Bawden,46,2019,27,1,00:42:00,DET,1,10,DET,6,7,2540269,I_FORM,"2 RB, 1 TE, 2 WR",8,"4 DL, 3 LB, 4 DB",right,2019-09-15T17:37:13.000Z,2019-09-15T17:37:12.000Z,6-2,245,06/22/1996,San Diego State,RB,DET,LAC,2,Ford Field,Detroit,Indoors,Field Turf,Controlled Climate,68.0,70,,
17883,2019091502,20190915020858,home,36.96,27.74,2.78,1.96,0.28,131.48,130.18,2561032,Tyrell Crosby,65,2019,27,1,00:42:00,DET,1,10,DET,6,7,2540269,I_FORM,"2 RB, 1 TE, 2 WR",8,"4 DL, 3 LB, 4 DB",right,2019-09-15T17:37:13.000Z,2019-09-15T17:37:12.000Z,6-4,310,09/05/1995,Oregon,T,DET,LAC,2,Ford Field,Detroit,Indoors,Field Turf,Controlled Climate,68.0,70,,
17884,2019091502,20190915020858,home,37.48,25.8,2.3,0.44,0.23,111.78,139.04,2561142,Frank Ragnow,77,2019,27,1,00:42:00,DET,1,10,DET,6,7,2540269,I_FORM,"2 RB, 1 TE, 2 WR",8,"4 DL, 3 LB, 4 DB",right,2019-09-15T17:37:13.000Z,2019-09-15T17:37:12.000Z,6-5,311,05/17/1996,Arkansas,C,DET,LAC,2,Ford Field,Detroit,Indoors,Field Turf,Controlled Climate,68.0,70,,
17885,2019091502,20190915020858,home,36.06,29.48,3.12,0.34,0.31,141.13,151.2,2562378,T.J. Hockenson,88,2019,27,1,00:42:00,DET,1,10,DET,6,7,2540269,I_FORM,"2 RB, 1 TE, 2 WR",8,"4 DL, 3 LB, 4 DB",right,2019-09-15T17:37:13.000Z,2019-09-15T17:37:12.000Z,6-5,248,07/03/1997,Iowa,TE,DET,LAC,2,Ford Field,Detroit,Indoors,Field Turf,Controlled Climate,68.0,70,,
