,GameId,PlayId,Team,X,Y,S,A,Dis,Orientation,Dir,NflId,DisplayName,JerseyNumber,Season,YardLine,Quarter,GameClock,PossessionTeam,Down,Distance,FieldPosition,HomeScoreBeforePlay,VisitorScoreBeforePlay,NflIdRusher,OffenseFormation,OffensePersonnel,DefendersInTheBox,DefensePersonnel,PlayDirection,TimeHandoff,TimeSnap,PlayerHeight,PlayerWeight,PlayerBirthDate,PlayerCollegeName,Position,HomeTeamAbbr,VisitorTeamAbbr,Week,Stadium,Location,StadiumType,Turf,GameWeather,Temperature,Humidity,WindSpeed,WindDirection
11836,2019090811,20190908113345,away,16.43,36.05,2.77,1.18,0.28,294.34,4.18,2495746,Joe Staley,74,2019,7,4,10:51:00,SF,1,15,SF,14,20,2558918,I_FORM,"2 RB, 1 TE, 2 WR",7,"4 DL, 3 LB, 4 DB",right,2019-09-08T22:55:40.000Z,2019-09-08T22:55:38.000Z,6-5,295,08/30/1984,Central Michigan,T,TB,SF,1,Raymond James Stadium,"Tampa, FL",Outdoor,Natural Grass,Cloudy,93.0,52,9,SW
11837,2019090811,20190908113345,away,15.87,30.37,2.86,0.82,0.29,266.95,352.11,2508140,Mike Person,68,2019,7,4,10:51:00,SF,1,15,SF,14,20,2558918,I_FORM,"2 RB, 1 TE, 2 WR",7,"4 DL, 3 LB, 4 DB",right,2019-09-08T22:55:40.000Z,2019-09-08T22:55:38.000Z,6-4,299,06/17/1988,Montana State,C,TB,SF,1,Raymond James Stadium,"Tampa, FL",Outdoor,Natural Grass,Cloudy,93.0,52,9,SW
11838,2019090811,20190908113345,away,16.31,24.84,3.75,1.34,0.43,47.05,355.33,2539964,Marquise Goodwin,11,2019,7,4,10:51:00,SF,1,15,SF,14,20,2558918,I_FORM,"2 RB, 1 TE, 2 WR",7,"4 DL, 3 LB, 4 DB",right,2019-09-08T22:55:40.000Z,2019-09-08T22:55:38.000Z,5-9,179,11/19/1990,Texas,WR,TB,SF,1,Raymond James Stadium,"Tampa, FL",Outdoor,Natural Grass,Cloudy,93.0,52,9,SW
11839,2019090811,20190908113345,away,14.89,32.43,5.03,1.31,0.49,79.6,51.47,2540230,Kyle Juszczyk,44,2019,7,4,10:51:00,SF,1,15,SF,14,20,2558918,I_FORM,"2 RB, 1 TE, 2 WR",7,"4 DL, 3 LB, 4 DB",right,2019-09-08T22:55:40.000Z,2019-09-08T22:55:38.000Z,6-1,240,04/23/1991,Harvard,RB,TB,SF,1,Raymond James Stadium,"Tampa, FL",Outdoor,Natural Grass,Cloudy,93.0,52,9,SW
11840,2019090811,20190908113345,away,16.08,31.44,3.2,0.89,0.31,63.06,338.39,2543705,Weston Richburg,58,2019,7,4,10:51:00,SF,1,15,SF,14,20,2558918,I_FORM,"2 RB, 1 TE, 2 WR",7,"4 DL, 3 LB, 4 DB",right,2019-09-08T22:55:40.000Z,2019-09-08T22:55:38.000Z,6-4,290,07/09/1991,Colorado State,C,TB,SF,1,Raymond James Stadium,"Tampa, FL",Outdoor,Natural Grass,Cloudy,93.0,52,9,SW
11841,2019090811,20190908113345,away,12.25,30.56,4.05,0.8,0.4,309.59,293.01,2543801,Jimmy Garoppolo,10,2019,7,4,10:51:00,SF,1,15,SF,14,20,2558918,I_FORM,"2 RB, 1 TE, 2 WR",7,"4 DL, 3 LB, 4 DB",right,2019-09-08T22:55:40.000Z,2019-09-08T22:55:38.000Z,6-2,225,11/02/1991,Eastern Illinois,QB,TB,SF,1,Raymond James Stadium,"Tampa, FL",Outdoor,Natural Grass,Cloudy,93.0,52,9,SW
11842,2019090811,20190908113345,away,15.56,33.46,2.51,1.53,0.26,348.68,332.43,2552345,Laken Tomlinson,75,2019,7,4,10:51:00,SF,1,15,SF,14,20,2558918,I_FORM,"2 RB, 1 TE, 2 WR",7,"4 DL, 3 LB, 4 DB",right,2019-09-08T22:55:40.000Z,2019-09-08T22:55:38.000Z,6-3,312,02/09/1992,Duke,G,TB,SF,1,Raymond James Stadium,"Tampa, FL",Outdoor,Natural Grass,Cloudy,93.0,52,9,SW
11843,2019090811,20190908113345,away,15.91,28.43,4.3,0.35,0.43,83.13,10.31,2558266,George Kittle,85,2019,7,4,10:51:00,SF,1,15,SF,14,20,2558918,I_FORM,"2 RB, 1 TE, 2 WR",7,"4 DL, 3 LB, 4 DB",right,2019-09-08T22:55:40.000Z,2019-09-08T22:55:38.000Z,6-4,250,10/09/1993,Iowa,TE,TB,SF,1,Raymond James Stadium,"Tampa, FL",Outdoor,Natural Grass,Cloudy,93.0,52,9,SW
11844,2019090811,20190908113345,away,11.2,31.78,4.78,1.95,0.47,86.08,62.55,2558918,Matt Breida,22,2019,7,4,10:51:00,SF,1,15,SF,14,20,2558918,I_FORM,"2 RB, 1 TE, 2 WR",7,"4 DL, 3 LB, 4 DB",right,2019-09-08T22:55:40.000Z,2019-09-08T22:55:38.000Z,5-11,190,02/28/1995,Georgia Southern,RB,TB,SF,1,Raymond James Stadium,"Tampa, FL",Outdoor,Natural Grass,Cloudy,93.0,52,9,SW
11845,2019090811,20190908113345,away,17.42,29.51,3.7,0.48,0.37,51.92,29.35,2560805,Mike McGlinchey,69,2019,7,4,10:51:00,SF,1,15,SF,14,20,2558918,I_FORM,"2 RB, 1 TE, 2 WR",7,"4 DL, 3 LB, 4 DB",right,2019-09-08T22:55:40.000Z,2019-09-08T22:55:38.000Z,6-8,315,01/12/1995,Notre Dame,OT,TB,SF,1,Raymond James Stadium,"Tampa, FL",Outdoor,Natural Grass,Cloudy,93.0,52,9,SW
11846,2019090811,20190908113345,away,18.11,39.74,4.35,1.03,0.43,94.5,62.17,2562721,Deebo Samuel,19,2019,7,4,10:51:00,SF,1,15,SF,14,20,2558918,I_FORM,"2 RB, 1 TE, 2 WR",7,"4 DL, 3 LB, 4 DB",right,2019-09-08T22:55:40.000Z,2019-09-08T22:55:38.000Z,6-0,214,01/15/1996,South Carolina,WR,TB,SF,1,Raymond James Stadium,"Tampa, FL",Outdoor,Natural Grass,Cloudy,93.0,52,9,SW
11847,2019090811,20190908113345,home,32.13,27.87,2.1,0.6,0.21,241.34,140.38,494307,Darian Stewart,24,2019,7,4,10:51:00,SF,1,15,SF,14,20,2558918,I_FORM,"2 RB, 1 TE, 2 WR",7,"4 DL, 3 LB, 4 DB",right,2019-09-08T22:55:40.000Z,2019-09-08T22:55:38.000Z,5-11,214,08/04/1988,South Carolina,FS,TB,SF,1,Raymond James Stadium,"Tampa, FL",Outdoor,Natural Grass,Cloudy,93.0,52,9,SW
11848,2019090811,20190908113345,home,16.53,30.51,3.11,0.79,0.32,249.02,345.79,496861,Ndamukong Suh,93,2019,7,4,10:51:00,SF,1,15,SF,14,20,2558918,I_FORM,"2 RB, 1 TE, 2 WR",7,"4 DL, 3 LB, 4 DB",right,2019-09-08T22:55:40.000Z,2019-09-08T22:55:38.000Z,6-4,313,01/06/1987,Nebraska,DT,TB,SF,1,Raymond James Stadium,"Tampa, FL",Outdoor,Natural Grass,Cloudy,93.0,52,9,SW
11849,2019090811,20190908113345,home,19.61,33.42,4.15,0.99,0.4,228.21,321.85,2532828,Lavonte David,54,2019,7,4,10:51:00,SF,1,15,SF,14,20,2558918,I_FORM,"2 RB, 1 TE, 2 WR",7,"4 DL, 3 LB, 4 DB",right,2019-09-08T22:55:40.000Z,2019-09-08T22:55:38.000Z,6-1,233,01/23/1990,Nebraska,OLB,TB,SF,1,Raymond James Stadium,"Tampa, FL",Outdoor,Natural Grass,Cloudy,93.0,52,9,SW
11850,2019090811,20190908113345,home,15.71,33.99,2.79,1.1,0.29,256.75,309.57,2540176,William Gholston,92,2019,7,4,10:51:00,SF,1,15,SF,14,20,2558918,I_FORM,"2 RB, 1 TE, 2 WR",7,"4 DL, 3 LB, 4 DB",right,2019-09-08T22:55:40.000Z,2019-09-08T22:55:38.000Z,6-6,281,07/31/1991,Michigan State,DE,TB,SF,1,Raymond James Stadium,"Tampa, FL",Outdoor,Natural Grass,Cloudy,93.0,52,9,SW
11851,2019090811,20190908113345,home,16.17,36.54,2.9,0.91,0.29,10.87,330.76,2550541,Shaquil Barrett,58,2019,7,4,10:51:00,SF,1,15,SF,14,20,2558918,I_FORM,"2 RB, 1 TE, 2 WR",7,"4 DL, 3 LB, 4 DB",right,2019-09-08T22:55:40.000Z,2019-09-08T22:55:38.000Z,6-2,250,11/17/1992,Colorado State,OLB,TB,SF,1,Raymond James Stadium,"Tampa, FL",Outdoor,Natural Grass,Cloudy,93.0,52,9,SW
11852,2019090811,20190908113345,home,16.48,28.49,4.59,2.26,0.48,300.08,359.51,2555270,Carl Nassib,94,2019,7,4,10:51:00,SF,1,15,SF,14,20,2558918,I_FORM,"2 RB, 1 TE, 2 WR",7,"4 DL, 3 LB, 4 DB",right,2019-09-08T22:55:40.000Z,2019-09-08T22:55:38.000Z,6-7,275,04/12/1993,Penn State,DE,TB,SF,1,Raymond James Stadium,"Tampa, FL",Outdoor,Natural Grass,Cloudy,93.0,52,9,SW
11853,2019090811,20190908113345,home,19.16,40.07,4.02,4.37,0.37,239.1,47.04,2555299,Vernon Hargreaves III,28,2019,7,4,10:51:00,SF,1,15,SF,14,20,2558918,I_FORM,"2 RB, 1 TE, 2 WR",7,"4 DL, 3 LB, 4 DB",right,2019-09-08T22:55:40.000Z,2019-09-08T22:55:38.000Z,5-10,204,06/03/1995,Florida,CB,TB,SF,1,Raymond James Stadium,"Tampa, FL",Outdoor,Natural Grass,Cloudy,93.0,52,9,SW
11854,2019090811,20190908113345,home,16.39,31.81,2.23,0.89,0.23,259.26,334.7,2560909,Vita Vea,50,2019,7,4,10:51:00,SF,1,15,SF,14,20,2558918,I_FORM,"2 RB, 1 TE, 2 WR",7,"4 DL, 3 LB, 4 DB",right,2019-09-08T22:55:40.000Z,2019-09-08T22:55:38.000Z,6-4,347,02/05/1995,Washington,DT,TB,SF,1,Raymond James Stadium,"Tampa, FL",Outdoor,Natural Grass,Cloudy,93.0,52,9,SW
11855,2019090811,20190908113345,home,15.75,26.13,5.94,3.64,0.58,269.39,336.52,2560930,Jordan Whitehead,31,2019,7,4,10:51:00,SF,1,15,SF,14,20,2558918,I_FORM,"2 RB, 1 TE, 2 WR",7,"4 DL, 3 LB, 4 DB",right,2019-09-08T22:55:40.000Z,2019-09-08T22:55:38.000Z,5-10,198,03/18/1997,Pittsburgh,DB,TB,SF,1,Raymond James Stadium,"Tampa, FL",Outdoor,Natural Grass,Cloudy,93.0,52,9,SW
11856,2019090811,20190908113345,home,21.71,21.47,3.32,3.28,0.33,310.46,7.01,2561039,Carlton Davis,33,2019,7,4,10:51:00,SF,1,15,SF,14,20,2558918,I_FORM,"2 RB, 1 TE, 2 WR",7,"4 DL, 3 LB, 4 DB",right,2019-09-08T22:55:40.000Z,2019-09-08T22:55:38.000Z,6-1,206,12/31/1996,Auburn,CB,TB,SF,1,Raymond James Stadium,"Tampa, FL",Outdoor,Natural Grass,Cloudy,93.0,52,9,SW
11857,2019090811,20190908113345,home,19.81,30.33,0.02,0.11,0.0,57.34,328.23,2562781,Devin White,45,2019,7,4,10:51:00,SF,1,15,SF,14,20,2558918,I_FORM,"2 RB, 1 TE, 2 WR",7,"4 DL, 3 LB, 4 DB",right,2019-09-08T22:55:40.000Z,2019-09-08T22:55:38.000Z,6-0,237,02/17/1998,Louisiana State,LB,TB,SF,1,Raymond James Stadium,"Tampa, FL",Outdoor,Natural Grass,Cloudy,93.0,52,9,SW
