,GameId,PlayId,Team,X,Y,S,A,Dis,Orientation,Dir,NflId,DisplayName,JerseyNumber,Season,YardLine,Quarter,GameClock,PossessionTeam,Down,Distance,FieldPosition,HomeScoreBeforePlay,VisitorScoreBeforePlay,NflIdRusher,OffenseFormation,OffensePersonnel,DefendersInTheBox,DefensePersonnel,PlayDirection,TimeHandoff,TimeSnap,PlayerHeight,PlayerWeight,PlayerBirthDate,PlayerCollegeName,Position,HomeTeamAbbr,VisitorTeamAbbr,Week,Stadium,Location,StadiumType,Turf,GameWeather,Temperature,Humidity,WindSpeed,WindDirection
61182,2019100300,20191003003112,away,59.82,38.31,1.28,6.2,0.1,130.79,48.36,1302,Aqib Talib,21,2019,25,3,03:07:00,SEA,1,10,SEA,21,26,2561046,SINGLEBACK,"1 RB, 2 TE, 2 WR",7,"3 DL, 4 LB, 4 DB",left,2019-10-04T02:44:22.000Z,2019-10-04T02:44:17.000Z,6-1,209,02/13/1986,Kansas,CB,SEA,LA,5,CenturyLink Field,Seattle,Outdoor,FieldTurf,Cloudy,57.0,56,7,SW
61183,2019100300,20191003003112,away,67.74,15.11,4.51,0.55,0.45,106.58,155.8,2495775,Eric Weddle,32,2019,25,3,03:07:00,SEA,1,10,SEA,21,26,2561046,SINGLEBACK,"1 RB, 2 TE, 2 WR",7,"3 DL, 4 LB, 4 DB",left,2019-10-04T02:44:22.000Z,2019-10-04T02:44:17.000Z,5-11,195,01/04/1985,Utah,FS,SEA,LA,5,CenturyLink Field,Seattle,Outdoor,FieldTurf,Cloudy,57.0,56,7,SW
61184,2019100300,20191003003112,away,88.03,27.99,3.77,1.04,0.39,345.32,309.21,2533050,Michael Brockers,90,2019,25,3,03:07:00,SEA,1,10,SEA,21,26,2561046,SINGLEBACK,"1 RB, 2 TE, 2 WR",7,"3 DL, 4 LB, 4 DB",left,2019-10-04T02:44:22.000Z,2019-10-04T02:44:17.000Z,6-5,305,12/21/1990,Louisiana State,DT,SEA,LA,5,CenturyLink Field,Seattle,Outdoor,FieldTurf,Cloudy,57.0,56,7,SW
61185,2019100300,20191003003112,away,49.04,14.52,6.65,3.14,0.66,338.68,293.38,2552488,Marcus Peters,22,2019,25,3,03:07:00,SEA,1,10,SEA,21,26,2561046,SINGLEBACK,"1 RB, 2 TE, 2 WR",7,"3 DL, 4 LB, 4 DB",left,2019-10-04T02:44:22.000Z,2019-10-04T02:44:17.000Z,6-0,197,01/09/1993,Washington,CB,SEA,LA,5,CenturyLink Field,Seattle,Outdoor,FieldTurf,Cloudy,57.0,56,7,SW
61186,2019100300,20191003003112,away,89.24,22.58,4.0,0.37,0.41,277.28,281.54,2553431,Dante Fowler,56,2019,25,3,03:07:00,SEA,1,10,SEA,21,26,2561046,SINGLEBACK,"1 RB, 2 TE, 2 WR",7,"3 DL, 4 LB, 4 DB",left,2019-10-04T02:44:22.000Z,2019-10-04T02:44:17.000Z,6-3,255,08/03/1994,Florida,OLB,SEA,LA,5,CenturyLink Field,Seattle,Outdoor,FieldTurf,Cloudy,57.0,56,7,SW
61187,2019100300,20191003003112,away,74.17,24.11,3.9,5.19,0.36,16.7,10.11,2556593,Cory Littleton,58,2019,25,3,03:07:00,SEA,1,10,SEA,21,26,2561046,SINGLEBACK,"1 RB, 2 TE, 2 WR",7,"3 DL, 4 LB, 4 DB",left,2019-10-04T02:44:22.000Z,2019-10-04T02:44:17.000Z,6-3,228,11/18/1993,Washington,ILB,SEA,LA,5,CenturyLink Field,Seattle,Outdoor,FieldTurf,Cloudy,57.0,56,7,SW
61188,2019100300,20191003003112,away,49.53,24.34,3.94,3.76,0.39,91.18,283.12,2558183,John Johnson,43,2019,25,3,03:07:00,SEA,1,10,SEA,21,26,2561046,SINGLEBACK,"1 RB, 2 TE, 2 WR",7,"3 DL, 4 LB, 4 DB",left,2019-10-04T02:44:22.000Z,2019-10-04T02:44:17.000Z,6-0,209,12/19/1995,Boston College,SS,SEA,LA,5,CenturyLink Field,Seattle,Outdoor,FieldTurf,Cloudy,57.0,56,7,SW
61189,2019100300,20191003003112,away,86.18,22.71,5.18,2.1,0.53,324.01,301.03,2558199,Tanzel Smart,92,2019,25,3,03:07:00,SEA,1,10,SEA,21,26,2561046,SINGLEBACK,"1 RB, 2 TE, 2 WR",7,"3 DL, 4 LB, 4 DB",left,2019-10-04T02:44:22.000Z,2019-10-04T02:44:17.000Z,6-1,295,11/06/1994,Tulane,DT,SEA,LA,5,CenturyLink Field,Seattle,Outdoor,FieldTurf,Cloudy,57.0,56,7,SW
61190,2019100300,20191003003112,away,91.89,28.29,4.04,3.24,0.39,321.71,278.42,2558830,Samson Ebukam,50,2019,25,3,03:07:00,SEA,1,10,SEA,21,26,2561046,SINGLEBACK,"1 RB, 2 TE, 2 WR",7,"3 DL, 4 LB, 4 DB",left,2019-10-04T02:44:22.000Z,2019-10-04T02:44:17.000Z,6-3,245,05/09/1995,Eastern Washington,OLB,SEA,LA,5,CenturyLink Field,Seattle,Outdoor,FieldTurf,Cloudy,57.0,56,7,SW
61191,2019100300,20191003003112,away,91.84,22.42,1.73,3.15,0.19,243.68,193.19,2561079,Sebastian Joseph-Day,69,2019,25,3,03:07:00,SEA,1,10,SEA,21,26,2561046,SINGLEBACK,"1 RB, 2 TE, 2 WR",7,"3 DL, 4 LB, 4 DB",left,2019-10-04T02:44:22.000Z,2019-10-04T02:44:17.000Z,6-4,310,03/21/1995,Rutgers,DT,SEA,LA,5,CenturyLink Field,Seattle,Outdoor,FieldTurf,Cloudy,57.0,56,7,SW
61192,2019100300,20191003003112,away,71.91,37.32,3.2,4.76,0.31,99.29,7.0,2563313,Troy Reeder,51,2019,25,3,03:07:00,SEA,1,10,SEA,21,26,2561046,SINGLEBACK,"1 RB, 2 TE, 2 WR",7,"3 DL, 4 LB, 4 DB",left,2019-10-04T02:44:22.000Z,2019-10-04T02:44:17.000Z,6-3,245,09/13/1994,Delaware,LB,SEA,LA,5,CenturyLink Field,Seattle,Outdoor,FieldTurf,Cloudy,57.0,56,7,SW
61193,2019100300,20191003003112,home,91.46,21.29,3.56,1.31,0.35,274.72,210.65,808,Duane Brown,76,2019,25,3,03:07:00,SEA,1,10,SEA,21,26,2561046,SINGLEBACK,"1 RB, 2 TE, 2 WR",7,"3 DL, 4 LB, 4 DB",left,2019-10-04T02:44:22.000Z,2019-10-04T02:44:17.000Z,6-4,315,08/30/1985,Virginia Tech,T,SEA,LA,5,CenturyLink Field,Seattle,Outdoor,FieldTurf,Cloudy,57.0,56,7,SW
61194,2019100300,20191003003112,home,87.56,22.93,4.12,1.04,0.41,233.91,283.21,497016,Mike Iupati,70,2019,25,3,03:07:00,SEA,1,10,SEA,21,26,2561046,SINGLEBACK,"1 RB, 2 TE, 2 WR",7,"3 DL, 4 LB, 4 DB",left,2019-10-04T02:44:22.000Z,2019-10-04T02:44:17.000Z,6-5,331,05/12/1987,Idaho,OG,SEA,LA,5,CenturyLink Field,Seattle,Outdoor,FieldTurf,Cloudy,57.0,56,7,SW
61195,2019100300,20191003003112,home,89.14,31.56,6.23,1.66,0.62,324.31,310.85,2532975,Russell Wilson,3,2019,25,3,03:07:00,SEA,1,10,SEA,21,26,2561046,SINGLEBACK,"1 RB, 2 TE, 2 WR",7,"3 DL, 4 LB, 4 DB",left,2019-10-04T02:44:22.000Z,2019-10-04T02:44:17.000Z,5-11,215,11/29/1988,Wisconsin,QB,SEA,LA,5,CenturyLink Field,Seattle,Outdoor,FieldTurf,Cloudy,57.0,56,7,SW
61196,2019100300,20191003003112,home,93.59,28.73,1.13,1.52,0.11,259.71,236.03,2541199,Luke Willson,82,2019,25,3,03:07:00,SEA,1,10,SEA,21,26,2561046,SINGLEBACK,"1 RB, 2 TE, 2 WR",7,"3 DL, 4 LB, 4 DB",left,2019-10-04T02:44:22.000Z,2019-10-04T02:44:17.000Z,6-5,254,01/15/1990,Rice,TE,SEA,LA,5,CenturyLink Field,Seattle,Outdoor,FieldTurf,Cloudy,57.0,56,7,SW
61197,2019100300,20191003003112,home,89.53,23.98,2.79,1.05,0.28,208.14,261.17,2550135,Justin Britt,68,2019,25,3,03:07:00,SEA,1,10,SEA,21,26,2561046,SINGLEBACK,"1 RB, 2 TE, 2 WR",7,"3 DL, 4 LB, 4 DB",left,2019-10-04T02:44:22.000Z,2019-10-04T02:44:17.000Z,6-6,315,05/29/1991,Missouri,C,SEA,LA,5,CenturyLink Field,Seattle,Outdoor,FieldTurf,Cloudy,57.0,56,7,SW
61198,2019100300,20191003003112,home,49.99,18.48,6.82,4.0,0.69,350.65,284.05,2552430,Tyler Lockett,16,2019,25,3,03:07:00,SEA,1,10,SEA,21,26,2561046,SINGLEBACK,"1 RB, 2 TE, 2 WR",7,"3 DL, 4 LB, 4 DB",left,2019-10-04T02:44:22.000Z,2019-10-04T02:44:17.000Z,5-10,182,09/28/1992,Kansas State,WR,SEA,LA,5,CenturyLink Field,Seattle,Outdoor,FieldTurf,Cloudy,57.0,56,7,SW
61199,2019100300,20191003003112,home,89.91,27.58,2.57,2.08,0.25,300.84,300.43,2555395,Germain Ifedi,65,2019,25,3,03:07:00,SEA,1,10,SEA,21,26,2561046,SINGLEBACK,"1 RB, 2 TE, 2 WR",7,"3 DL, 4 LB, 4 DB",left,2019-10-04T02:44:22.000Z,2019-10-04T02:44:17.000Z,6-5,325,06/02/1994,Texas A&M,G,SEA,LA,5,CenturyLink Field,Seattle,Outdoor,FieldTurf,Cloudy,57.0,56,7,SW
61200,2019100300,20191003003112,home,81.59,8.4,4.59,2.2,0.47,342.73,234.9,2558865,Chris Carson,32,2019,25,3,03:07:00,SEA,1,10,SEA,21,26,2561046,SINGLEBACK,"1 RB, 2 TE, 2 WR",7,"3 DL, 4 LB, 4 DB",left,2019-10-04T02:44:22.000Z,2019-10-04T02:44:17.000Z,5-11,222,09/16/1994,Oklahoma State,RB,SEA,LA,5,CenturyLink Field,Seattle,Outdoor,FieldTurf,Cloudy,57.0,56,7,SW
61201,2019100300,20191003003112,home,92.66,23.01,2.49,2.75,0.26,201.49,149.33,2560768,Jamarco Jones,73,2019,25,3,03:07:00,SEA,1,10,SEA,21,26,2561046,SINGLEBACK,"1 RB, 2 TE, 2 WR",7,"3 DL, 4 LB, 4 DB",left,2019-10-04T02:44:22.000Z,2019-10-04T02:44:17.000Z,6-4,293,06/04/1996,Ohio State,T,SEA,LA,5,CenturyLink Field,Seattle,Outdoor,FieldTurf,Cloudy,57.0,56,7,SW
61202,2019100300,20191003003112,home,90.64,33.97,5.43,1.98,0.54,268.7,308.05,2561046,Will Dissly,88,2019,25,3,03:07:00,SEA,1,10,SEA,21,26,2561046,SINGLEBACK,"1 RB, 2 TE, 2 WR",7,"3 DL, 4 LB, 4 DB",left,2019-10-04T02:44:22.000Z,2019-10-04T02:44:17.000Z,6-4,267,07/08/1996,Washington,TE,SEA,LA,5,CenturyLink Field,Seattle,Outdoor,FieldTurf,Cloudy,57.0,56,7,SW
61203,2019100300,20191003003112,home,68.53,21.41,5.85,2.69,0.57,7.98,347.54,2562685,D.K. Metcalf,14,2019,25,3,03:07:00,SEA,1,10,SEA,21,26,2561046,SINGLEBACK,"1 RB, 2 TE, 2 WR",7,"3 DL, 4 LB, 4 DB",left,2019-10-04T02:44:22.000Z,2019-10-04T02:44:17.000Z,6-4,230,12/14/1997,Mississippi,WR,SEA,LA,5,CenturyLink Field,Seattle,Outdoor,FieldTurf,Cloudy,57.0,56,7,SW
