,GameId,PlayId,Team,X,Y,S,A,Dis,Orientation,Dir,NflId,DisplayName,JerseyNumber,Season,YardLine,Quarter,GameClock,PossessionTeam,Down,Distance,FieldPosition,HomeScoreBeforePlay,VisitorScoreBeforePlay,NflIdRusher,OffenseFormation,OffensePersonnel,DefendersInTheBox,DefensePersonnel,PlayDirection,TimeHandoff,TimeSnap,PlayerHeight,PlayerWeight,PlayerBirthDate,PlayerCollegeName,Position,HomeTeamAbbr,VisitorTeamAbbr,Week,Stadium,Location,StadiumType,Turf,GameWeather,Temperature,Humidity,WindSpeed,WindDirection
73590,2019100612,20191006121170,away,42.52,31.55,2.37,2.12,0.23,141.23,192.44,2495137,Anthony Castonzo,74,2019,34,2,13:05:00,IND,3,1,IND,10,7,2558123,SHOTGUN,"1 RB, 1 TE, 3 WR",6,"4 DL, 2 LB, 5 DB",right,2019-10-07T01:09:07.000Z,2019-10-07T01:09:06.000Z,6-7,307,08/09/1988,Boston College,T,KC,IND,5,Arrowhead Stadium,"Kansas City, MO",Outdoor,Natural Grass,Cloudy,59.0,75,3,West
73591,2019100612,20191006121170,away,43.42,44.76,3.74,3.58,0.37,125.21,120.23,2532865,T.Y. Hilton,13,2019,34,2,13:05:00,IND,3,1,IND,10,7,2558123,SHOTGUN,"1 RB, 1 TE, 3 WR",6,"4 DL, 2 LB, 5 DB",right,2019-10-07T01:09:07.000Z,2019-10-07T01:09:06.000Z,5-10,183,11/14/1989,Florida International,WR,KC,IND,5,Arrowhead Stadium,"Kansas City, MO",Outdoor,Natural Grass,Cloudy,59.0,75,3,West
73592,2019100612,20191006121170,away,42.94,33.33,2.17,1.91,0.21,69.51,165.01,2540232,Jack Doyle,84,2019,34,2,13:05:00,IND,3,1,IND,10,7,2558123,SHOTGUN,"1 RB, 1 TE, 3 WR",6,"4 DL, 2 LB, 5 DB",right,2019-10-07T01:09:07.000Z,2019-10-07T01:09:06.000Z,6-6,262,05/05/1990,Western Kentucky,TE,KC,IND,5,Arrowhead Stadium,"Kansas City, MO",Outdoor,Natural Grass,Cloudy,59.0,75,3,West
73593,2019100612,20191006121170,away,44.03,28.31,1.93,1.35,0.2,93.92,94.31,2552467,Mark Glowinski,64,2019,34,2,13:05:00,IND,3,1,IND,10,7,2558123,SHOTGUN,"1 RB, 1 TE, 3 WR",6,"4 DL, 2 LB, 5 DB",right,2019-10-07T01:09:07.000Z,2019-10-07T01:09:06.000Z,6-4,310,05/03/1992,West Virginia,G,KC,IND,5,Arrowhead Stadium,"Kansas City, MO",Outdoor,Natural Grass,Cloudy,59.0,75,3,West
73594,2019100612,20191006121170,away,43.54,29.06,0.81,0.34,0.09,63.52,173.11,2555191,Ryan Kelly,78,2019,34,2,13:05:00,IND,3,1,IND,10,7,2558123,SHOTGUN,"1 RB, 1 TE, 3 WR",6,"4 DL, 2 LB, 5 DB",right,2019-10-07T01:09:07.000Z,2019-10-07T01:09:06.000Z,6-4,309,05/30/1993,Alabama,C,KC,IND,5,Arrowhead Stadium,"Kansas City, MO",Outdoor,Natural Grass,Cloudy,59.0,75,3,West
73595,2019100612,20191006121170,away,39.0,30.13,0.66,1.47,0.06,60.63,350.11,2555261,Jacoby Brissett,7,2019,34,2,13:05:00,IND,3,1,IND,10,7,2558123,SHOTGUN,"1 RB, 1 TE, 3 WR",6,"4 DL, 2 LB, 5 DB",right,2019-10-07T01:09:07.000Z,2019-10-07T01:09:06.000Z,6-4,235,12/11/1992,North Carolina State,QB,KC,IND,5,Arrowhead Stadium,"Kansas City, MO",Outdoor,Natural Grass,Cloudy,59.0,75,3,West
73596,2019100612,20191006121170,away,41.36,18.03,1.92,2.17,0.18,38.22,226.01,2556396,Chester Rogers,80,2019,34,2,13:05:00,IND,3,1,IND,10,7,2558123,SHOTGUN,"1 RB, 1 TE, 3 WR",6,"4 DL, 2 LB, 5 DB",right,2019-10-07T01:09:07.000Z,2019-10-07T01:09:06.000Z,6-0,184,01/12/1994,Grambling,WR,KC,IND,5,Arrowhead Stadium,"Kansas City, MO",Outdoor,Natural Grass,Cloudy,59.0,75,3,West
73597,2019100612,20191006121170,away,39.24,31.2,2.61,2.32,0.25,89.78,138.73,2558123,Marlon Mack,25,2019,34,2,13:05:00,IND,3,1,IND,10,7,2558123,SHOTGUN,"1 RB, 1 TE, 3 WR",6,"4 DL, 2 LB, 5 DB",right,2019-10-07T01:09:07.000Z,2019-10-07T01:09:06.000Z,6-0,210,03/07/1996,South Florida,RB,KC,IND,5,Arrowhead Stadium,"Kansas City, MO",Outdoor,Natural Grass,Cloudy,59.0,75,3,West
73598,2019100612,20191006121170,away,43.29,30.16,1.82,1.07,0.19,113.7,150.72,2560820,Quenton Nelson,56,2019,34,2,13:05:00,IND,3,1,IND,10,7,2558123,SHOTGUN,"1 RB, 1 TE, 3 WR",6,"4 DL, 2 LB, 5 DB",right,2019-10-07T01:09:07.000Z,2019-10-07T01:09:06.000Z,6-5,330,03/19/1996,Notre Dame,G,KC,IND,5,Arrowhead Stadium,"Kansas City, MO",Outdoor,Natural Grass,Cloudy,59.0,75,3,West
73599,2019100612,20191006121170,away,43.5,27.07,1.5,1.62,0.15,120.02,19.38,2560876,Braden Smith,72,2019,34,2,13:05:00,IND,3,1,IND,10,7,2558123,SHOTGUN,"1 RB, 1 TE, 3 WR",6,"4 DL, 2 LB, 5 DB",right,2019-10-07T01:09:07.000Z,2019-10-07T01:09:06.000Z,6-6,315,03/25/1996,Auburn,G,KC,IND,5,Arrowhead Stadium,"Kansas City, MO",Outdoor,Natural Grass,Cloudy,59.0,75,3,West
73600,2019100612,20191006121170,away,44.08,9.52,2.22,2.65,0.22,71.1,124.14,2560987,Deon Cain,11,2019,34,2,13:05:00,IND,3,1,IND,10,7,2558123,SHOTGUN,"1 RB, 1 TE, 3 WR",6,"4 DL, 2 LB, 5 DB",right,2019-10-07T01:09:07.000Z,2019-10-07T01:09:06.000Z,6-2,202,08/09/1996,Clemson,WR,KC,IND,5,Arrowhead Stadium,"Kansas City, MO",Outdoor,Natural Grass,Cloudy,59.0,75,3,West
73601,2019100612,20191006121170,home,49.02,35.6,4.58,2.63,0.46,240.74,266.88,2540180,Tyrann Mathieu,32,2019,34,2,13:05:00,IND,3,1,IND,10,7,2558123,SHOTGUN,"1 RB, 1 TE, 3 WR",6,"4 DL, 2 LB, 5 DB",right,2019-10-07T01:09:07.000Z,2019-10-07T01:09:06.000Z,5-9,190,05/13/1992,Louisiana State,FS,KC,IND,5,Arrowhead Stadium,"Kansas City, MO",Outdoor,Natural Grass,Cloudy,59.0,75,3,West
73602,2019100612,20191006121170,home,45.62,45.46,1.98,2.83,0.18,233.75,109.52,2543571,Bashaud Breeland,21,2019,34,2,13:05:00,IND,3,1,IND,10,7,2558123,SHOTGUN,"1 RB, 1 TE, 3 WR",6,"4 DL, 2 LB, 5 DB",right,2019-10-07T01:09:07.000Z,2019-10-07T01:09:06.000Z,5-11,195,01/30/1992,Clemson,CB,KC,IND,5,Arrowhead Stadium,"Kansas City, MO",Outdoor,Natural Grass,Cloudy,59.0,75,3,West
73603,2019100612,20191006121170,home,44.3,26.46,1.83,0.26,0.19,337.29,334.28,2552629,Frank Clark,55,2019,34,2,13:05:00,IND,3,1,IND,10,7,2558123,SHOTGUN,"1 RB, 1 TE, 3 WR",6,"4 DL, 2 LB, 5 DB",right,2019-10-07T01:09:07.000Z,2019-10-07T01:09:06.000Z,6-3,260,06/14/1993,Michigan,DE,KC,IND,5,Arrowhead Stadium,"Kansas City, MO",Outdoor,Natural Grass,Cloudy,59.0,75,3,West
73604,2019100612,20191006121170,home,47.19,30.45,2.69,1.54,0.26,253.68,209.77,2552686,Damien Wilson,54,2019,34,2,13:05:00,IND,3,1,IND,10,7,2558123,SHOTGUN,"1 RB, 1 TE, 3 WR",6,"4 DL, 2 LB, 5 DB",right,2019-10-07T01:09:07.000Z,2019-10-07T01:09:06.000Z,6-0,243,05/28/1993,Minnesota,OLB,KC,IND,5,Arrowhead Stadium,"Kansas City, MO",Outdoor,Natural Grass,Cloudy,59.0,75,3,West
73605,2019100612,20191006121170,home,44.46,22.68,5.07,2.45,0.5,320.86,330.94,2555349,Kendall Fuller,29,2019,34,2,13:05:00,IND,3,1,IND,10,7,2558123,SHOTGUN,"1 RB, 1 TE, 3 WR",6,"4 DL, 2 LB, 5 DB",right,2019-10-07T01:09:07.000Z,2019-10-07T01:09:06.000Z,5-11,198,02/13/1995,Virginia Tech,CB,KC,IND,5,Arrowhead Stadium,"Kansas City, MO",Outdoor,Natural Grass,Cloudy,59.0,75,3,West
73606,2019100612,20191006121170,home,43.27,31.03,2.07,0.37,0.2,223.22,224.13,2556369,Chris Jones,95,2019,34,2,13:05:00,IND,3,1,IND,10,7,2558123,SHOTGUN,"1 RB, 1 TE, 3 WR",6,"4 DL, 2 LB, 5 DB",right,2019-10-07T01:09:07.000Z,2019-10-07T01:09:06.000Z,6-6,308,07/03/1994,Mississippi State,DT,KC,IND,5,Arrowhead Stadium,"Kansas City, MO",Outdoor,Natural Grass,Cloudy,59.0,75,3,West
73607,2019100612,20191006121170,home,44.17,33.59,2.4,0.24,0.24,247.53,198.82,2558185,Tanoh Kpassagnon,92,2019,34,2,13:05:00,IND,3,1,IND,10,7,2558123,SHOTGUN,"1 RB, 1 TE, 3 WR",6,"4 DL, 2 LB, 5 DB",right,2019-10-07T01:09:07.000Z,2019-10-07T01:09:06.000Z,6-7,289,06/14/1994,Villanova,DE,KC,IND,5,Arrowhead Stadium,"Kansas City, MO",Outdoor,Natural Grass,Cloudy,59.0,75,3,West
73608,2019100612,20191006121170,home,44.12,29.31,0.16,1.84,0.02,235.73,272.19,2560823,Derrick Nnadi,91,2019,34,2,13:05:00,IND,3,1,IND,10,7,2558123,SHOTGUN,"1 RB, 1 TE, 3 WR",6,"4 DL, 2 LB, 5 DB",right,2019-10-07T01:09:07.000Z,2019-10-07T01:09:06.000Z,6-1,310,05/09/1996,Florida State,NT,KC,IND,5,Arrowhead Stadium,"Kansas City, MO",Outdoor,Natural Grass,Cloudy,59.0,75,3,West
73609,2019100612,20191006121170,home,44.16,30.05,0.86,2.81,0.09,276.81,238.15,2561383,Ben Niemann,56,2019,34,2,13:05:00,IND,3,1,IND,10,7,2558123,SHOTGUN,"1 RB, 1 TE, 3 WR",6,"4 DL, 2 LB, 5 DB",right,2019-10-07T01:09:07.000Z,2019-10-07T01:09:06.000Z,6-2,233,07/27/1995,Iowa,LB,KC,IND,5,Arrowhead Stadium,"Kansas City, MO",Outdoor,Natural Grass,Cloudy,59.0,75,3,West
73610,2019100612,20191006121170,home,45.41,9.85,1.24,2.07,0.11,245.26,133.82,2561417,Charvarius Ward,35,2019,34,2,13:05:00,IND,3,1,IND,10,7,2558123,SHOTGUN,"1 RB, 1 TE, 3 WR",6,"4 DL, 2 LB, 5 DB",right,2019-10-07T01:09:07.000Z,2019-10-07T01:09:06.000Z,6-1,195,05/16/1996,Middle Tennessee,DB,KC,IND,5,Arrowhead Stadium,"Kansas City, MO",Outdoor,Natural Grass,Cloudy,59.0,75,3,West
73611,2019100612,20191006121170,home,54.43,21.88,4.87,1.37,0.48,247.99,218.24,2562761,Juan Thornhill,22,2019,34,2,13:05:00,IND,3,1,IND,10,7,2558123,SHOTGUN,"1 RB, 1 TE, 3 WR",6,"4 DL, 2 LB, 5 DB",right,2019-10-07T01:09:07.000Z,2019-10-07T01:09:06.000Z,6-0,205,10/19/1995,Virginia,DB,KC,IND,5,Arrowhead Stadium,"Kansas City, MO",Outdoor,Natural Grass,Cloudy,59.0,75,3,West
