,GameId,PlayId,Team,X,Y,S,A,Dis,Orientation,Dir,NflId,DisplayName,JerseyNumber,Season,YardLine,Quarter,GameClock,PossessionTeam,Down,Distance,FieldPosition,HomeScoreBeforePlay,VisitorScoreBeforePlay,NflIdRusher,OffenseFormation,OffensePersonnel,DefendersInTheBox,DefensePersonnel,PlayDirection,TimeHandoff,TimeSnap,PlayerHeight,PlayerWeight,PlayerBirthDate,PlayerCollegeName,Position,HomeTeamAbbr,VisitorTeamAbbr,Week,Stadium,Location,StadiumType,Turf,GameWeather,Temperature,Humidity,WindSpeed,WindDirection
56474,2019092909,20190929093888,away,8.59,24.65,3.08,1.3,0.31,141.62,171.2,494307,Darian Stewart,24,2019,5,4,12:37:00,LA,1,5,TB,20,38,2552475,SINGLEBACK,"1 RB, 1 TE, 3 WR",8,"2 DL, 4 LB, 5 DB",left,2019-09-29T22:48:40.000Z,2019-09-29T22:48:38.000Z,5-11,214,08/04/1988,South Carolina,FS,LA,TB,4,Los Angeles Memorial Coliseum,"Los Angeles, Calif.",Outdoor,Grass,Mostly Sunny,74.0,41,2,SW
56475,2019092909,20190929093888,away,14.25,21.83,3.56,0.16,0.36,129.39,187.99,496861,Ndamukong Suh,93,2019,5,4,12:37:00,LA,1,5,TB,20,38,2552475,SINGLEBACK,"1 RB, 1 TE, 3 WR",8,"2 DL, 4 LB, 5 DB",left,2019-09-29T22:48:40.000Z,2019-09-29T22:48:38.000Z,6-4,313,01/06/1987,Nebraska,DT,LA,TB,4,Los Angeles Memorial Coliseum,"Los Angeles, Calif.",Outdoor,Grass,Mostly Sunny,74.0,41,2,SW
56476,2019092909,20190929093888,away,12.68,25.51,2.36,0.78,0.23,103.03,163.34,2532828,Lavonte David,54,2019,5,4,12:37:00,LA,1,5,TB,20,38,2552475,SINGLEBACK,"1 RB, 1 TE, 3 WR",8,"2 DL, 4 LB, 5 DB",left,2019-09-29T22:48:40.000Z,2019-09-29T22:48:38.000Z,6-1,233,01/23/1990,Nebraska,OLB,LA,TB,4,Los Angeles Memorial Coliseum,"Los Angeles, Calif.",Outdoor,Grass,Mostly Sunny,74.0,41,2,SW
56477,2019092909,20190929093888,away,12.8,20.95,3.55,0.24,0.35,125.45,161.91,2540159,Kevin Minter,51,2019,5,4,12:37:00,LA,1,5,TB,20,38,2552475,SINGLEBACK,"1 RB, 1 TE, 3 WR",8,"2 DL, 4 LB, 5 DB",left,2019-09-29T22:48:40.000Z,2019-09-29T22:48:38.000Z,6-0,246,12/03/1990,Louisiana State,MLB,LA,TB,4,Los Angeles Memorial Coliseum,"Los Angeles, Calif.",Outdoor,Grass,Mostly Sunny,74.0,41,2,SW
56478,2019092909,20190929093888,away,14.97,19.42,3.55,1.78,0.37,34.6,188.53,2540176,William Gholston,92,2019,5,4,12:37:00,LA,1,5,TB,20,38,2552475,SINGLEBACK,"1 RB, 1 TE, 3 WR",8,"2 DL, 4 LB, 5 DB",left,2019-09-29T22:48:40.000Z,2019-09-29T22:48:38.000Z,6-6,281,07/31/1991,Michigan State,DE,LA,TB,4,Los Angeles Memorial Coliseum,"Los Angeles, Calif.",Outdoor,Grass,Mostly Sunny,74.0,41,2,SW
56479,2019092909,20190929093888,away,12.3,17.9,1.96,0.8,0.19,93.88,153.66,2540185,Mike Edwards,34,2019,5,4,12:37:00,LA,1,5,TB,20,38,2552475,SINGLEBACK,"1 RB, 1 TE, 3 WR",8,"2 DL, 4 LB, 5 DB",left,2019-09-29T22:48:40.000Z,2019-09-29T22:48:38.000Z,5-10,200,05/18/1996,Kentucky,FS,LA,TB,4,Los Angeles Memorial Coliseum,"Los Angeles, Calif.",Outdoor,Grass,Mostly Sunny,74.0,41,2,SW
56480,2019092909,20190929093888,away,15.67,17.12,3.87,2.03,0.38,116.98,122.41,2550541,Shaquil Barrett,58,2019,5,4,12:37:00,LA,1,5,TB,20,38,2552475,SINGLEBACK,"1 RB, 1 TE, 3 WR",8,"2 DL, 4 LB, 5 DB",left,2019-09-29T22:48:40.000Z,2019-09-29T22:48:38.000Z,6-2,250,11/17/1992,Colorado State,OLB,LA,TB,4,Los Angeles Memorial Coliseum,"Los Angeles, Calif.",Outdoor,Grass,Mostly Sunny,74.0,41,2,SW
56481,2019092909,20190929093888,away,15.96,25.35,3.84,2.65,0.38,135.16,176.53,2555270,Carl Nassib,94,2019,5,4,12:37:00,LA,1,5,TB,20,38,2552475,SINGLEBACK,"1 RB, 1 TE, 3 WR",8,"2 DL, 4 LB, 5 DB",left,2019-09-29T22:48:40.000Z,2019-09-29T22:48:38.000Z,6-7,275,04/12/1993,Penn State,DE,LA,TB,4,Los Angeles Memorial Coliseum,"Los Angeles, Calif.",Outdoor,Grass,Mostly Sunny,74.0,41,2,SW
56482,2019092909,20190929093888,away,11.66,13.84,3.06,1.18,0.3,15.8,281.92,2555299,Vernon Hargreaves III,28,2019,5,4,12:37:00,LA,1,5,TB,20,38,2552475,SINGLEBACK,"1 RB, 1 TE, 3 WR",8,"2 DL, 4 LB, 5 DB",left,2019-09-29T22:48:40.000Z,2019-09-29T22:48:38.000Z,5-10,204,06/03/1995,Florida,CB,LA,TB,4,Los Angeles Memorial Coliseum,"Los Angeles, Calif.",Outdoor,Grass,Mostly Sunny,74.0,41,2,SW
56483,2019092909,20190929093888,away,12.42,28.48,2.75,2.11,0.27,129.8,183.89,2560884,M.J. Stewart,36,2019,5,4,12:37:00,LA,1,5,TB,20,38,2552475,SINGLEBACK,"1 RB, 1 TE, 3 WR",8,"2 DL, 4 LB, 5 DB",left,2019-09-29T22:48:40.000Z,2019-09-29T22:48:38.000Z,5-11,205,09/16/1995,North Carolina,CB,LA,TB,4,Los Angeles Memorial Coliseum,"Los Angeles, Calif.",Outdoor,Grass,Mostly Sunny,74.0,41,2,SW
56484,2019092909,20190929093888,away,9.51,31.29,3.09,2.59,0.3,153.41,208.57,2561039,Carlton Davis,33,2019,5,4,12:37:00,LA,1,5,TB,20,38,2552475,SINGLEBACK,"1 RB, 1 TE, 3 WR",8,"2 DL, 4 LB, 5 DB",left,2019-09-29T22:48:40.000Z,2019-09-29T22:48:38.000Z,6-1,206,12/31/1996,Auburn,CB,LA,TB,4,Los Angeles Memorial Coliseum,"Los Angeles, Calif.",Outdoor,Grass,Mostly Sunny,74.0,41,2,SW
56485,2019092909,20190929093888,home,15.21,17.54,3.24,1.41,0.32,206.73,174.93,2495977,Andrew Whitworth,77,2019,5,4,12:37:00,LA,1,5,TB,20,38,2552475,SINGLEBACK,"1 RB, 1 TE, 3 WR",8,"2 DL, 4 LB, 5 DB",left,2019-09-29T22:48:40.000Z,2019-09-29T22:48:38.000Z,6-7,330,12/12/1981,Louisiana State,T,LA,TB,4,Los Angeles Memorial Coliseum,"Los Angeles, Calif.",Outdoor,Grass,Mostly Sunny,74.0,41,2,SW
56486,2019092909,20190929093888,home,15.04,26.34,4.82,1.13,0.48,206.62,207.0,2540169,Robert Woods,17,2019,5,4,12:37:00,LA,1,5,TB,20,38,2552475,SINGLEBACK,"1 RB, 1 TE, 3 WR",8,"2 DL, 4 LB, 5 DB",left,2019-09-29T22:48:40.000Z,2019-09-29T22:48:38.000Z,6-0,193,04/10/1992,Southern California,WR,LA,TB,4,Los Angeles Memorial Coliseum,"Los Angeles, Calif.",Outdoor,Grass,Mostly Sunny,74.0,41,2,SW
56487,2019092909,20190929093888,home,13.24,14.57,3.5,2.14,0.34,230.38,269.98,2543498,Brandin Cooks,12,2019,5,4,12:37:00,LA,1,5,TB,20,38,2552475,SINGLEBACK,"1 RB, 1 TE, 3 WR",8,"2 DL, 4 LB, 5 DB",left,2019-09-29T22:48:40.000Z,2019-09-29T22:48:38.000Z,5-10,183,09/25/1993,Oregon State,WR,LA,TB,4,Los Angeles Memorial Coliseum,"Los Angeles, Calif.",Outdoor,Grass,Mostly Sunny,74.0,41,2,SW
56488,2019092909,20190929093888,home,14.98,22.44,3.69,1.03,0.4,192.14,203.83,2552363,Rob Havenstein,79,2019,5,4,12:37:00,LA,1,5,TB,20,38,2552475,SINGLEBACK,"1 RB, 1 TE, 3 WR",8,"2 DL, 4 LB, 5 DB",left,2019-09-29T22:48:40.000Z,2019-09-29T22:48:38.000Z,6-8,328,05/13/1992,Wisconsin,T,LA,TB,4,Los Angeles Memorial Coliseum,"Los Angeles, Calif.",Outdoor,Grass,Mostly Sunny,74.0,41,2,SW
56489,2019092909,20190929093888,home,19.96,20.97,5.24,1.62,0.52,242.36,231.95,2552475,Todd Gurley,30,2019,5,4,12:37:00,LA,1,5,TB,20,38,2552475,SINGLEBACK,"1 RB, 1 TE, 3 WR",8,"2 DL, 4 LB, 5 DB",left,2019-09-29T22:48:40.000Z,2019-09-29T22:48:38.000Z,6-1,224,08/03/1994,Georgia,RB,LA,TB,4,Los Angeles Memorial Coliseum,"Los Angeles, Calif.",Outdoor,Grass,Mostly Sunny,74.0,41,2,SW
56490,2019092909,20190929093888,home,15.47,21.84,3.14,1.17,0.32,197.59,194.09,2555180,Austin Blythe,66,2019,5,4,12:37:00,LA,1,5,TB,20,38,2552475,SINGLEBACK,"1 RB, 1 TE, 3 WR",8,"2 DL, 4 LB, 5 DB",left,2019-09-29T22:48:40.000Z,2019-09-29T22:48:38.000Z,6-3,300,06/16/1992,Iowa,C,LA,TB,4,Los Angeles Memorial Coliseum,"Los Angeles, Calif.",Outdoor,Grass,Mostly Sunny,74.0,41,2,SW
56491,2019092909,20190929093888,home,19.82,21.99,4.17,2.09,0.41,126.81,105.42,2555334,Jared Goff,16,2019,5,4,12:37:00,LA,1,5,TB,20,38,2552475,SINGLEBACK,"1 RB, 1 TE, 3 WR",8,"2 DL, 4 LB, 5 DB",left,2019-09-29T22:48:40.000Z,2019-09-29T22:48:38.000Z,6-4,223,10/14/1994,California,QB,LA,TB,4,Los Angeles Memorial Coliseum,"Los Angeles, Calif.",Outdoor,Grass,Mostly Sunny,74.0,41,2,SW
56492,2019092909,20190929093888,home,15.13,23.94,3.67,1.72,0.37,256.84,214.79,2557889,Gerald Everett,81,2019,5,4,12:37:00,LA,1,5,TB,20,38,2552475,SINGLEBACK,"1 RB, 1 TE, 3 WR",8,"2 DL, 4 LB, 5 DB",left,2019-09-29T22:48:40.000Z,2019-09-29T22:48:38.000Z,6-3,240,06/25/1994,South Alabama,TE,LA,TB,4,Los Angeles Memorial Coliseum,"Los Angeles, Calif.",Outdoor,Grass,Mostly Sunny,74.0,41,2,SW
56493,2019092909,20190929093888,home,16.66,25.49,3.45,2.19,0.35,213.25,179.6,2557898,Cooper Kupp,18,2019,5,4,12:37:00,LA,1,5,TB,20,38,2552475,SINGLEBACK,"1 RB, 1 TE, 3 WR",8,"2 DL, 4 LB, 5 DB",left,2019-09-29T22:48:40.000Z,2019-09-29T22:48:38.000Z,6-2,208,06/15/1993,Eastern Washington,WR,LA,TB,4,Los Angeles Memorial Coliseum,"Los Angeles, Calif.",Outdoor,Grass,Mostly Sunny,74.0,41,2,SW
56494,2019092909,20190929093888,home,15.6,19.71,3.29,0.45,0.33,175.66,189.98,2560825,Joe Noteboom,70,2019,5,4,12:37:00,LA,1,5,TB,20,38,2552475,SINGLEBACK,"1 RB, 1 TE, 3 WR",8,"2 DL, 4 LB, 5 DB",left,2019-09-29T22:48:40.000Z,2019-09-29T22:48:38.000Z,6-5,321,06/19/1995,Texas Christian,T,LA,TB,4,Los Angeles Memorial Coliseum,"Los Angeles, Calif.",Outdoor,Grass,Mostly Sunny,74.0,41,2,SW
56495,2019092909,20190929093888,home,15.02,20.41,2.8,1.55,0.3,200.0,204.35,2560954,Brian Allen,55,2019,5,4,12:37:00,LA,1,5,TB,20,38,2552475,SINGLEBACK,"1 RB, 1 TE, 3 WR",8,"2 DL, 4 LB, 5 DB",left,2019-09-29T22:48:40.000Z,2019-09-29T22:48:38.000Z,6-2,302,10/11/1995,Michigan State,C,LA,TB,4,Los Angeles Memorial Coliseum,"Los Angeles, Calif.",Outdoor,Grass,Mostly Sunny,74.0,41,2,SW
