,GameId,PlayId,Team,X,Y,S,A,Dis,Orientation,Dir,NflId,DisplayName,JerseyNumber,Season,YardLine,Quarter,GameClock,PossessionTeam,Down,Distance,FieldPosition,HomeScoreBeforePlay,VisitorScoreBeforePlay,NflIdRusher,OffenseFormation,OffensePersonnel,DefendersInTheBox,DefensePersonnel,PlayDirection,TimeHandoff,TimeSnap,PlayerHeight,PlayerWeight,PlayerBirthDate,PlayerCollegeName,Position,HomeTeamAbbr,VisitorTeamAbbr,Week,Stadium,Location,StadiumType,Turf,GameWeather,Temperature,Humidity,WindSpeed,WindDirection
5434,2019090804,20190908043366,away,78.71,24.86,3.99,1.83,0.4,39.76,347.77,2495116,Allen Bailey,93,2019,31,4,08:32:00,MIN,2,8,MIN,28,6,2557991,SINGLEBACK,"1 RB, 3 TE, 1 WR",9,"4 DL, 3 LB, 4 DB",left,2019-09-08T19:42:15.000Z,2019-09-08T19:42:14.000Z,6-3,288,03/25/1989,Miami,DE,MIN,ATL,1,U.S. Bank Stadium,"Minneapolis, MN",Indoors,Field Turf,N/A (Indoors),,0,,
5435,2019090804,20190908043366,away,77.2,43.63,3.62,3.9,0.34,33.79,287.02,2539334,Desmond Trufant,21,2019,31,4,08:32:00,MIN,2,8,MIN,28,6,2557991,SINGLEBACK,"1 RB, 3 TE, 1 WR",9,"4 DL, 3 LB, 4 DB",left,2019-09-08T19:42:15.000Z,2019-09-08T19:42:14.000Z,6-0,190,09/10/1990,Washington,CB,MIN,ATL,1,U.S. Bank Stadium,"Minneapolis, MN",Indoors,Field Turf,N/A (Indoors),,0,,
5436,2019090804,20190908043366,away,78.63,30.29,3.6,2.43,0.36,119.33,31.57,2541431,Kemal Ishmael,36,2019,31,4,08:32:00,MIN,2,8,MIN,28,6,2557991,SINGLEBACK,"1 RB, 3 TE, 1 WR",9,"4 DL, 3 LB, 4 DB",left,2019-09-08T19:42:15.000Z,2019-09-08T19:42:14.000Z,6-0,206,05/06/1991,Central Florida,FS,MIN,ATL,1,U.S. Bank Stadium,"Minneapolis, MN",Indoors,Field Turf,N/A (Indoors),,0,,
5437,2019090804,20190908043366,away,66.75,29.44,2.02,1.9,0.19,82.08,22.87,2543850,Ricardo Allen,37,2019,31,4,08:32:00,MIN,2,8,MIN,28,6,2557991,SINGLEBACK,"1 RB, 3 TE, 1 WR",9,"4 DL, 3 LB, 4 DB",left,2019-09-08T19:42:15.000Z,2019-09-08T19:42:14.000Z,5-9,186,12/18/1991,Purdue,SS,MIN,ATL,1,U.S. Bank Stadium,"Minneapolis, MN",Indoors,Field Turf,N/A (Indoors),,0,,
5438,2019090804,20190908043366,away,81.61,31.12,2.29,2.56,0.23,145.21,49.33,2552301,Vic Beasley,44,2019,31,4,08:32:00,MIN,2,8,MIN,28,6,2557991,SINGLEBACK,"1 RB, 3 TE, 1 WR",9,"4 DL, 3 LB, 4 DB",left,2019-09-08T19:42:15.000Z,2019-09-08T19:42:14.000Z,6-3,246,07/08/1992,Clemson,OLB,MIN,ATL,1,U.S. Bank Stadium,"Minneapolis, MN",Indoors,Field Turf,N/A (Indoors),,0,,
5439,2019090804,20190908043366,away,78.46,28.17,3.3,1.72,0.34,83.09,344.02,2552327,Grady Jarrett,97,2019,31,4,08:32:00,MIN,2,8,MIN,28,6,2557991,SINGLEBACK,"1 RB, 3 TE, 1 WR",9,"4 DL, 3 LB, 4 DB",left,2019-09-08T19:42:15.000Z,2019-09-08T19:42:14.000Z,6-0,305,04/28/1993,Clemson,DT,MIN,ATL,1,U.S. Bank Stadium,"Minneapolis, MN",Indoors,Field Turf,N/A (Indoors),,0,,
5440,2019090804,20190908043366,away,78.64,27.3,3.36,1.91,0.35,60.62,354.07,2552329,Tyeler Davison,96,2019,31,4,08:32:00,MIN,2,8,MIN,28,6,2557991,SINGLEBACK,"1 RB, 3 TE, 1 WR",9,"4 DL, 3 LB, 4 DB",left,2019-09-08T19:42:15.000Z,2019-09-08T19:42:14.000Z,6-2,309,09/03/1992,Fresno State,DT,MIN,ATL,1,U.S. Bank Stadium,"Minneapolis, MN",Indoors,Field Turf,N/A (Indoors),,0,,
5441,2019090804,20190908043366,away,77.77,22.93,4.94,1.5,0.49,103.0,346.24,2555255,De'Vondre Campbell,59,2019,31,4,08:32:00,MIN,2,8,MIN,28,6,2557991,SINGLEBACK,"1 RB, 3 TE, 1 WR",9,"4 DL, 3 LB, 4 DB",left,2019-09-08T19:42:15.000Z,2019-09-08T19:42:14.000Z,6-3,232,07/01/1993,Minnesota,OLB,MIN,ATL,1,U.S. Bank Stadium,"Minneapolis, MN",Indoors,Field Turf,N/A (Indoors),,0,,
5442,2019090804,20190908043366,away,76.47,17.75,5.29,2.65,0.51,40.84,358.15,2555543,Keanu Neal,22,2019,31,4,08:32:00,MIN,2,8,MIN,28,6,2557991,SINGLEBACK,"1 RB, 3 TE, 1 WR",9,"4 DL, 3 LB, 4 DB",left,2019-09-08T19:42:15.000Z,2019-09-08T19:42:14.000Z,6-0,211,07/26/1995,Florida,FS,MIN,ATL,1,U.S. Bank Stadium,"Minneapolis, MN",Indoors,Field Turf,N/A (Indoors),,0,,
5443,2019090804,20190908043366,away,80.28,20.91,3.89,1.0,0.41,4.85,17.54,2557872,Takkarist McKinley,98,2019,31,4,08:32:00,MIN,2,8,MIN,28,6,2557991,SINGLEBACK,"1 RB, 3 TE, 1 WR",9,"4 DL, 3 LB, 4 DB",left,2019-09-08T19:42:15.000Z,2019-09-08T19:42:14.000Z,6-2,265,11/02/1995,UCLA,DE,MIN,ATL,1,U.S. Bank Stadium,"Minneapolis, MN",Indoors,Field Turf,N/A (Indoors),,0,,
5444,2019090804,20190908043366,away,75.89,27.44,5.08,1.03,0.5,91.82,20.13,2561132,Foye Oluokun,54,2019,31,4,08:32:00,MIN,2,8,MIN,28,6,2557991,SINGLEBACK,"1 RB, 3 TE, 1 WR",9,"4 DL, 3 LB, 4 DB",left,2019-09-08T19:42:15.000Z,2019-09-08T19:42:14.000Z,6-2,215,08/02/1995,Yale,LB,MIN,ATL,1,U.S. Bank Stadium,"Minneapolis, MN",Indoors,Field Turf,N/A (Indoors),,0,,
5445,2019090804,20190908043366,home,78.42,22.46,5.04,0.31,0.5,288.3,333.12,2495438,Kyle Rudolph,82,2019,31,4,08:32:00,MIN,2,8,MIN,28,6,2557991,SINGLEBACK,"1 RB, 3 TE, 1 WR",9,"4 DL, 3 LB, 4 DB",left,2019-09-08T19:42:15.000Z,2019-09-08T19:42:14.000Z,6-6,265,11/09/1989,Notre Dame,TE,MIN,ATL,1,U.S. Bank Stadium,"Minneapolis, MN",Indoors,Field Turf,N/A (Indoors),,0,,
5446,2019090804,20190908043366,home,83.66,26.46,4.82,2.22,0.48,70.08,59.97,2532820,Kirk Cousins,8,2019,31,4,08:32:00,MIN,2,8,MIN,28,6,2557991,SINGLEBACK,"1 RB, 3 TE, 1 WR",9,"4 DL, 3 LB, 4 DB",left,2019-09-08T19:42:15.000Z,2019-09-08T19:42:14.000Z,6-3,202,08/19/1988,Michigan State,QB,MIN,ATL,1,U.S. Bank Stadium,"Minneapolis, MN",Indoors,Field Turf,N/A (Indoors),,0,,
5447,2019090804,20190908043366,home,79.26,25.54,4.13,2.34,0.43,281.51,347.75,2533042,Riley Reiff,71,2019,31,4,08:32:00,MIN,2,8,MIN,28,6,2557991,SINGLEBACK,"1 RB, 3 TE, 1 WR",9,"4 DL, 3 LB, 4 DB",left,2019-09-08T19:42:15.000Z,2019-09-08T19:42:14.000Z,6-6,305,12/01/1988,Iowa,T,MIN,ATL,1,U.S. Bank Stadium,"Minneapolis, MN",Indoors,Field Turf,N/A (Indoors),,0,,
5448,2019090804,20190908043366,home,79.16,28.45,3.52,1.09,0.35,278.06,337.57,2541142,Josh Kline,64,2019,31,4,08:32:00,MIN,2,8,MIN,28,6,2557991,SINGLEBACK,"1 RB, 3 TE, 1 WR",9,"4 DL, 3 LB, 4 DB",left,2019-09-08T19:42:15.000Z,2019-09-08T19:42:14.000Z,6-3,300,12/29/1989,Kent State,G,MIN,ATL,1,U.S. Bank Stadium,"Minneapolis, MN",Indoors,Field Turf,N/A (Indoors),,0,,
5449,2019090804,20190908043366,home,78.06,45.1,4.94,2.28,0.48,304.32,306.6,2541785,Adam Thielen,19,2019,31,4,08:32:00,MIN,2,8,MIN,28,6,2557991,SINGLEBACK,"1 RB, 3 TE, 1 WR",9,"4 DL, 3 LB, 4 DB",left,2019-09-08T19:42:15.000Z,2019-09-08T19:42:14.000Z,6-2,200,08/22/1990,Minn. State-Mankato,WR,MIN,ATL,1,U.S. Bank Stadium,"Minneapolis, MN",Indoors,Field Turf,N/A (Indoors),,0,,
5450,2019090804,20190908043366,home,83.92,27.35,6.26,1.92,0.62,298.48,326.36,2557991,Dalvin Cook,33,2019,31,4,08:32:00,MIN,2,8,MIN,28,6,2557991,SINGLEBACK,"1 RB, 3 TE, 1 WR",9,"4 DL, 3 LB, 4 DB",left,2019-09-08T19:42:15.000Z,2019-09-08T19:42:14.000Z,5-10,210,08/10/1995,Florida State,RB,MIN,ATL,1,U.S. Bank Stadium,"Minneapolis, MN",Indoors,Field Turf,N/A (Indoors),,0,,
5451,2019090804,20190908043366,home,79.21,26.93,4.1,1.3,0.43,294.98,347.82,2558848,Pat Elflein,65,2019,31,4,08:32:00,MIN,2,8,MIN,28,6,2557991,SINGLEBACK,"1 RB, 3 TE, 1 WR",9,"4 DL, 3 LB, 4 DB",left,2019-09-08T19:42:15.000Z,2019-09-08T19:42:14.000Z,6-3,303,07/06/1994,Ohio State,G,MIN,ATL,1,U.S. Bank Stadium,"Minneapolis, MN",Indoors,Field Turf,N/A (Indoors),,0,,
5452,2019090804,20190908043366,home,79.69,30.05,2.81,0.8,0.3,284.33,352.13,2560831,Brian O'Neill,75,2019,31,4,08:32:00,MIN,2,8,MIN,28,6,2557991,SINGLEBACK,"1 RB, 3 TE, 1 WR",9,"4 DL, 3 LB, 4 DB",left,2019-09-08T19:42:15.000Z,2019-09-08T19:42:14.000Z,6-7,297,09/15/1995,Pittsburgh,T,MIN,ATL,1,U.S. Bank Stadium,"Minneapolis, MN",Indoors,Field Turf,N/A (Indoors),,0,,
5453,2019090804,20190908043366,home,79.38,27.7,3.56,1.19,0.36,286.04,348.69,2562632,Garrett Bradbury,56,2019,31,4,08:32:00,MIN,2,8,MIN,28,6,2557991,SINGLEBACK,"1 RB, 3 TE, 1 WR",9,"4 DL, 3 LB, 4 DB",left,2019-09-08T19:42:15.000Z,2019-09-08T19:42:14.000Z,6-3,305,06/20/1995,North Carolina State,C,MIN,ATL,1,U.S. Bank Stadium,"Minneapolis, MN",Indoors,Field Turf,N/A (Indoors),,0,,
5454,2019090804,20190908043366,home,79.83,21.22,3.55,1.52,0.36,337.97,349.94,2562738,Irv Smith,84,2019,31,4,08:32:00,MIN,2,8,MIN,28,6,2557991,SINGLEBACK,"1 RB, 3 TE, 1 WR",9,"4 DL, 3 LB, 4 DB",left,2019-09-08T19:42:15.000Z,2019-09-08T19:42:14.000Z,6-2,240,08/09/1998,Alabama,TE,MIN,ATL,1,U.S. Bank Stadium,"Minneapolis, MN",Indoors,Field Turf,N/A (Indoors),,0,,
5455,2019090804,20190908043366,home,81.89,30.76,3.64,0.5,0.35,318.51,35.81,2562984,Brandon Dillon,86,2019,31,4,08:32:00,MIN,2,8,MIN,28,6,2557991,SINGLEBACK,"1 RB, 3 TE, 1 WR",9,"4 DL, 3 LB, 4 DB",left,2019-09-08T19:42:15.000Z,2019-09-08T19:42:14.000Z,6-5,250,04/30/1997,Marian (Ind.),TE,MIN,ATL,1,U.S. Bank Stadium,"Minneapolis, MN",Indoors,Field Turf,N/A (Indoors),,0,,
