,GameId,PlayId,Team,X,Y,S,A,Dis,Orientation,Dir,NflId,DisplayName,JerseyNumber,Season,YardLine,Quarter,GameClock,PossessionTeam,Down,Distance,FieldPosition,HomeScoreBeforePlay,VisitorScoreBeforePlay,NflIdRusher,OffenseFormation,OffensePersonnel,DefendersInTheBox,DefensePersonnel,PlayDirection,TimeHandoff,TimeSnap,PlayerHeight,PlayerWeight,PlayerBirthDate,PlayerCollegeName,Position,HomeTeamAbbr,VisitorTeamAbbr,Week,Stadium,Location,StadiumType,Turf,GameWeather,Temperature,Humidity,WindSpeed,WindDirection
39468,2019092207,20190922073346,away,84.32,23.63,0.46,0.59,0.04,284.28,243.37,2535718,Damon Harrison,98,2019,26,4,09:07:00,PHI,2,10,DET,17,27,2506467,SHOTGUN,"1 RB, 1 TE, 3 WR",6,"3 DL, 3 LB, 5 DB",right,2019-09-22T19:38:55.000Z,2019-09-22T19:38:54.000Z,6-3,350,11/29/1988,William Penn,DT,PHI,DET,3,Lincoln Financial Field,"Philadelphia, Pa.",Outdoor,Grass,Sunny,84.0,53,7,SSW
39469,2019092207,20190922073346,away,87.22,42.64,0.99,1.61,0.1,202.26,66.49,2541200,Rashaan Melvin,29,2019,26,4,09:07:00,PHI,2,10,DET,17,27,2506467,SHOTGUN,"1 RB, 1 TE, 3 WR",6,"3 DL, 3 LB, 5 DB",right,2019-09-22T19:38:55.000Z,2019-09-22T19:38:54.000Z,6-2,196,10/02/1989,Northern Illinois,CB,PHI,DET,3,Lincoln Financial Field,"Philadelphia, Pa.",Outdoor,Grass,Sunny,84.0,53,7,SSW
39470,2019092207,20190922073346,away,85.23,18.3,0.41,1.13,0.04,280.31,18.68,2543869,Devon Kennard,42,2019,26,4,09:07:00,PHI,2,10,DET,17,27,2506467,SHOTGUN,"1 RB, 1 TE, 3 WR",6,"3 DL, 3 LB, 5 DB",right,2019-09-22T19:38:55.000Z,2019-09-22T19:38:54.000Z,6-3,256,06/24/1991,Southern California,OLB,PHI,DET,3,Lincoln Financial Field,"Philadelphia, Pa.",Outdoor,Grass,Sunny,84.0,53,7,SSW
39471,2019092207,20190922073346,away,99.21,33.87,0.43,1.3,0.05,257.1,147.66,2552262,Quandre Diggs,28,2019,26,4,09:07:00,PHI,2,10,DET,17,27,2506467,SHOTGUN,"1 RB, 1 TE, 3 WR",6,"3 DL, 3 LB, 5 DB",right,2019-09-22T19:38:55.000Z,2019-09-22T19:38:54.000Z,5-9,197,01/22/1993,Texas,CB,PHI,DET,3,Lincoln Financial Field,"Philadelphia, Pa.",Outdoor,Grass,Sunny,84.0,53,7,SSW
39472,2019092207,20190922073346,away,83.78,26.15,1.51,0.66,0.13,241.72,258.16,2552278,Trey Flowers,90,2019,26,4,09:07:00,PHI,2,10,DET,17,27,2506467,SHOTGUN,"1 RB, 1 TE, 3 WR",6,"3 DL, 3 LB, 5 DB",right,2019-09-22T19:38:55.000Z,2019-09-22T19:38:54.000Z,6-2,265,08/16/1993,Arkansas,DE,PHI,DET,3,Lincoln Financial Field,"Philadelphia, Pa.",Outdoor,Grass,Sunny,84.0,53,7,SSW
39473,2019092207,20190922073346,away,87.22,34.29,0.2,1.25,0.02,245.6,88.83,2553637,Justin Coleman,27,2019,26,4,09:07:00,PHI,2,10,DET,17,27,2506467,SHOTGUN,"1 RB, 1 TE, 3 WR",6,"3 DL, 3 LB, 5 DB",right,2019-09-22T19:38:55.000Z,2019-09-22T19:38:54.000Z,5-11,190,03/27/1993,Tennessee,CB,PHI,DET,3,Lincoln Financial Field,"Philadelphia, Pa.",Outdoor,Grass,Sunny,84.0,53,7,SSW
39474,2019092207,20190922073346,away,88.83,23.62,3.55,4.69,0.33,300.84,308.56,2557855,Jarrad Davis,40,2019,26,4,09:07:00,PHI,2,10,DET,17,27,2506467,SHOTGUN,"1 RB, 1 TE, 3 WR",6,"3 DL, 3 LB, 5 DB",right,2019-09-22T19:38:55.000Z,2019-09-22T19:38:54.000Z,6-1,245,11/16/1994,Florida,MLB,PHI,DET,3,Lincoln Financial Field,"Philadelphia, Pa.",Outdoor,Grass,Sunny,84.0,53,7,SSW
39475,2019092207,20190922073346,away,84.23,29.01,0.65,1.05,0.05,254.52,273.24,2557924,Jalen Reeves-Maybin,44,2019,26,4,09:07:00,PHI,2,10,DET,17,27,2506467,SHOTGUN,"1 RB, 1 TE, 3 WR",6,"3 DL, 3 LB, 5 DB",right,2019-09-22T19:38:55.000Z,2019-09-22T19:38:54.000Z,6-0,233,01/31/1995,Tennessee,OLB,PHI,DET,3,Lincoln Financial Field,"Philadelphia, Pa.",Outdoor,Grass,Sunny,84.0,53,7,SSW
39476,2019092207,20190922073346,away,95.65,17.72,0.99,0.39,0.1,278.78,116.12,2560913,Tracy Walker,21,2019,26,4,09:07:00,PHI,2,10,DET,17,27,2506467,SHOTGUN,"1 RB, 1 TE, 3 WR",6,"3 DL, 3 LB, 5 DB",right,2019-09-22T19:38:55.000Z,2019-09-22T19:38:54.000Z,6-1,210,02/01/1995,Louisiana-Lafayette,DB,PHI,DET,3,Lincoln Financial Field,"Philadelphia, Pa.",Outdoor,Grass,Sunny,84.0,53,7,SSW
39477,2019092207,20190922073346,away,85.7,12.3,1.04,1.04,0.1,285.23,115.76,2561527,Mike Ford,38,2019,26,4,09:07:00,PHI,2,10,DET,17,27,2506467,SHOTGUN,"1 RB, 1 TE, 3 WR",6,"3 DL, 3 LB, 5 DB",right,2019-09-22T19:38:55.000Z,2019-09-22T19:38:54.000Z,6-0,196,08/04/1995,Southeast Missouri,CB,PHI,DET,3,Lincoln Financial Field,"Philadelphia, Pa.",Outdoor,Grass,Sunny,84.0,53,7,SSW
39478,2019092207,20190922073346,away,82.37,20.9,2.8,1.77,0.28,308.56,270.29,2563197,Kevin Strong,92,2019,26,4,09:07:00,PHI,2,10,DET,17,27,2506467,SHOTGUN,"1 RB, 1 TE, 3 WR",6,"3 DL, 3 LB, 5 DB",right,2019-09-22T19:38:55.000Z,2019-09-22T19:38:54.000Z,6-4,285,08/05/1996,Texas-San Antonio,DT,PHI,DET,3,Lincoln Financial Field,"Philadelphia, Pa.",Outdoor,Grass,Sunny,84.0,53,7,SSW
39479,2019092207,20190922073346,home,83.59,23.73,0.06,0.47,0.01,105.63,63.43,2495298,Jason Kelce,62,2019,26,4,09:07:00,PHI,2,10,DET,17,27,2506467,SHOTGUN,"1 RB, 1 TE, 3 WR",6,"3 DL, 3 LB, 5 DB",right,2019-09-22T19:38:55.000Z,2019-09-22T19:38:54.000Z,6-3,295,11/05/1987,Cincinnati,C,PHI,DET,3,Lincoln Financial Field,"Philadelphia, Pa.",Outdoor,Grass,Sunny,84.0,53,7,SSW
39480,2019092207,20190922073346,home,82.97,28.29,2.16,2.18,0.21,56.66,35.84,2505827,Jason Peters,71,2019,26,4,09:07:00,PHI,2,10,DET,17,27,2506467,SHOTGUN,"1 RB, 1 TE, 3 WR",6,"3 DL, 3 LB, 5 DB",right,2019-09-22T19:38:55.000Z,2019-09-22T19:38:54.000Z,6-4,328,01/22/1982,Arkansas,OT,PHI,DET,3,Lincoln Financial Field,"Philadelphia, Pa.",Outdoor,Grass,Sunny,84.0,53,7,SSW
39481,2019092207,20190922073346,home,79.21,22.72,4.36,3.97,0.42,29.84,41.74,2506467,Darren Sproles,43,2019,26,4,09:07:00,PHI,2,10,DET,17,27,2506467,SHOTGUN,"1 RB, 1 TE, 3 WR",6,"3 DL, 3 LB, 5 DB",right,2019-09-22T19:38:55.000Z,2019-09-22T19:38:54.000Z,5-6,190,06/20/1983,Kansas State,RB,PHI,DET,3,Lincoln Financial Field,"Philadelphia, Pa.",Outdoor,Grass,Sunny,84.0,53,7,SSW
39482,2019092207,20190922073346,home,82.75,21.61,1.16,1.75,0.12,157.61,235.76,2534434,Brandon Brooks,79,2019,26,4,09:07:00,PHI,2,10,DET,17,27,2506467,SHOTGUN,"1 RB, 1 TE, 3 WR",6,"3 DL, 3 LB, 5 DB",right,2019-09-22T19:38:55.000Z,2019-09-22T19:38:54.000Z,6-5,335,08/19/1989,"Miami, O.",G,PHI,DET,3,Lincoln Financial Field,"Philadelphia, Pa.",Outdoor,Grass,Sunny,84.0,53,7,SSW
39483,2019092207,20190922073346,home,82.46,24.01,4.03,0.75,0.4,47.91,5.11,2539286,Lane Johnson,65,2019,26,4,09:07:00,PHI,2,10,DET,17,27,2506467,SHOTGUN,"1 RB, 1 TE, 3 WR",6,"3 DL, 3 LB, 5 DB",right,2019-09-22T19:38:55.000Z,2019-09-22T19:38:54.000Z,6-6,317,05/08/1990,Oklahoma,T,PHI,DET,3,Lincoln Financial Field,"Philadelphia, Pa.",Outdoor,Grass,Sunny,84.0,53,7,SSW
39484,2019092207,20190922073346,home,84.12,17.15,2.99,1.67,0.29,73.23,74.56,2540158,Zach Ertz,86,2019,26,4,09:07:00,PHI,2,10,DET,17,27,2506467,SHOTGUN,"1 RB, 1 TE, 3 WR",6,"3 DL, 3 LB, 5 DB",right,2019-09-22T19:38:55.000Z,2019-09-22T19:38:54.000Z,6-5,250,11/10/1990,Stanford,TE,PHI,DET,3,Lincoln Financial Field,"Philadelphia, Pa.",Outdoor,Grass,Sunny,84.0,53,7,SSW
39485,2019092207,20190922073346,home,82.76,12.43,3.61,2.17,0.35,83.29,90.52,2552600,Nelson Agholor,13,2019,26,4,09:07:00,PHI,2,10,DET,17,27,2506467,SHOTGUN,"1 RB, 1 TE, 3 WR",6,"3 DL, 3 LB, 5 DB",right,2019-09-22T19:38:55.000Z,2019-09-22T19:38:54.000Z,6-0,198,05/24/1993,Southern California,WR,PHI,DET,3,Lincoln Financial Field,"Philadelphia, Pa.",Outdoor,Grass,Sunny,84.0,53,7,SSW
39486,2019092207,20190922073346,home,78.72,23.34,1.95,2.59,0.19,155.53,205.53,2555259,Carson Wentz,11,2019,26,4,09:07:00,PHI,2,10,DET,17,27,2506467,SHOTGUN,"1 RB, 1 TE, 3 WR",6,"3 DL, 3 LB, 5 DB",right,2019-09-22T19:38:55.000Z,2019-09-22T19:38:54.000Z,6-5,237,12/30/1992,North Dakota State,QB,PHI,DET,3,Lincoln Financial Field,"Philadelphia, Pa.",Outdoor,Grass,Sunny,84.0,53,7,SSW
39487,2019092207,20190922073346,home,84.22,24.8,2.2,1.66,0.23,108.02,97.0,2555495,Isaac Seumalo,73,2019,26,4,09:07:00,PHI,2,10,DET,17,27,2506467,SHOTGUN,"1 RB, 1 TE, 3 WR",6,"3 DL, 3 LB, 5 DB",right,2019-09-22T19:38:55.000Z,2019-09-22T19:38:54.000Z,6-4,303,10/29/1993,Oregon State,G,PHI,DET,3,Lincoln Financial Field,"Philadelphia, Pa.",Outdoor,Grass,Sunny,84.0,53,7,SSW
39488,2019092207,20190922073346,home,82.52,35.38,1.39,2.13,0.13,103.85,84.25,2558262,Mack Hollins,16,2019,26,4,09:07:00,PHI,2,10,DET,17,27,2506467,SHOTGUN,"1 RB, 1 TE, 3 WR",6,"3 DL, 3 LB, 5 DB",right,2019-09-22T19:38:55.000Z,2019-09-22T19:38:54.000Z,6-4,221,09/16/1993,North Carolina,WR,PHI,DET,3,Lincoln Financial Field,"Philadelphia, Pa.",Outdoor,Grass,Sunny,84.0,53,7,SSW
39489,2019092207,20190922073346,home,84.23,42.36,2.83,1.81,0.27,88.27,77.97,2562466,J.J. Arcega-Whiteside,19,2019,26,4,09:07:00,PHI,2,10,DET,17,27,2506467,SHOTGUN,"1 RB, 1 TE, 3 WR",6,"3 DL, 3 LB, 5 DB",right,2019-09-22T19:38:55.000Z,2019-09-22T19:38:54.000Z,6-2,225,12/31/1996,Stanford,WR,PHI,DET,3,Lincoln Financial Field,"Philadelphia, Pa.",Outdoor,Grass,Sunny,84.0,53,7,SSW
