,GameId,PlayId,Team,X,Y,S,A,Dis,Orientation,Dir,NflId,DisplayName,JerseyNumber,Season,YardLine,Quarter,GameClock,PossessionTeam,Down,Distance,FieldPosition,HomeScoreBeforePlay,VisitorScoreBeforePlay,NflIdRusher,OffenseFormation,OffensePersonnel,DefendersInTheBox,DefensePersonnel,PlayDirection,TimeHandoff,TimeSnap,PlayerHeight,PlayerWeight,PlayerBirthDate,PlayerCollegeName,Position,HomeTeamAbbr,VisitorTeamAbbr,Week,Stadium,Location,StadiumType,Turf,GameWeather,Temperature,Humidity,WindSpeed,WindDirection
59730,2019093000,20190930000231,away,21.93,31.78,3.56,1.4,0.37,293.24,2.93,496762,Geno Atkins,97,2019,12,1,10:02:00,PIT,1,10,PIT,0,0,2557978,SINGLEBACK,"1 RB, 1 TE, 3 WR",7,"4 DL, 2 LB, 5 DB",right,2019-10-01T00:24:11.000Z,2019-10-01T00:24:10.000Z,6-1,300,03/28/1988,Georgia,DT,PIT,CIN,4,Heinz Field,Pittsburgh,Outdoor,Grass,Clear,76.0,72,1,From S
59731,2019093000,20190930000231,away,20.33,36.88,3.02,1.98,0.3,208.01,337.01,496780,Carlos Dunlap,96,2019,12,1,10:02:00,PIT,1,10,PIT,0,0,2557978,SINGLEBACK,"1 RB, 1 TE, 3 WR",7,"4 DL, 2 LB, 5 DB",right,2019-10-01T00:24:11.000Z,2019-10-01T00:24:10.000Z,6-6,285,02/28/1989,Florida,DE,PIT,CIN,4,Heinz Field,Pittsburgh,Outdoor,Grass,Clear,76.0,72,1,From S
59732,2019093000,20190930000231,away,28.0,28.2,7.16,1.94,0.71,166.6,173.69,2533060,Dre Kirkpatrick,27,2019,12,1,10:02:00,PIT,1,10,PIT,0,0,2557978,SINGLEBACK,"1 RB, 1 TE, 3 WR",7,"4 DL, 2 LB, 5 DB",right,2019-10-01T00:24:11.000Z,2019-10-01T00:24:10.000Z,6-2,190,10/26/1989,Alabama,CB,PIT,CIN,4,Heinz Field,Pittsburgh,Outdoor,Grass,Clear,76.0,72,1,From S
59733,2019093000,20190930000231,away,21.15,28.96,5.86,0.3,0.59,316.7,326.34,2539233,Shawn Williams,36,2019,12,1,10:02:00,PIT,1,10,PIT,0,0,2557978,SINGLEBACK,"1 RB, 1 TE, 3 WR",7,"4 DL, 2 LB, 5 DB",right,2019-10-01T00:24:11.000Z,2019-10-01T00:24:10.000Z,6-0,210,05/13/1991,Georgia,SS,PIT,CIN,4,Heinz Field,Pittsburgh,Outdoor,Grass,Clear,76.0,72,1,From S
59734,2019093000,20190930000231,away,25.94,21.37,2.48,3.35,0.23,268.09,226.29,2539338,B.W. Webb,23,2019,12,1,10:02:00,PIT,1,10,PIT,0,0,2557978,SINGLEBACK,"1 RB, 1 TE, 3 WR",7,"4 DL, 2 LB, 5 DB",right,2019-10-01T00:24:11.000Z,2019-10-01T00:24:10.000Z,5-11,190,05/03/1990,William & Mary,CB,PIT,CIN,4,Heinz Field,Pittsburgh,Outdoor,Grass,Clear,76.0,72,1,From S
59735,2019093000,20190930000231,away,24.3,27.53,3.43,1.84,0.33,285.13,303.89,2543814,Preston Brown,52,2019,12,1,10:02:00,PIT,1,10,PIT,0,0,2557978,SINGLEBACK,"1 RB, 1 TE, 3 WR",7,"4 DL, 2 LB, 5 DB",right,2019-10-01T00:24:11.000Z,2019-10-01T00:24:10.000Z,6-1,251,10/27/1992,Louisville,MLB,PIT,CIN,4,Heinz Field,Pittsburgh,Outdoor,Grass,Clear,76.0,72,1,From S
59736,2019093000,20190930000231,away,20.96,33.61,3.36,1.09,0.35,274.71,352.92,2555267,Andrew Billings,99,2019,12,1,10:02:00,PIT,1,10,PIT,0,0,2557978,SINGLEBACK,"1 RB, 1 TE, 3 WR",7,"4 DL, 2 LB, 5 DB",right,2019-10-01T00:24:11.000Z,2019-10-01T00:24:10.000Z,6-1,328,03/06/1995,Baylor,DT,PIT,CIN,4,Heinz Field,Pittsburgh,Outdoor,Grass,Clear,76.0,72,1,From S
59737,2019093000,20190930000231,away,23.42,35.67,4.58,1.35,0.46,249.9,328.38,2555528,Nick Vigil,59,2019,12,1,10:02:00,PIT,1,10,PIT,0,0,2557978,SINGLEBACK,"1 RB, 1 TE, 3 WR",7,"4 DL, 2 LB, 5 DB",right,2019-10-01T00:24:11.000Z,2019-10-01T00:24:10.000Z,6-2,235,08/20/1993,Utah State,OLB,PIT,CIN,4,Heinz Field,Pittsburgh,Outdoor,Grass,Clear,76.0,72,1,From S
59738,2019093000,20190930000231,away,24.51,43.53,3.42,1.1,0.34,294.2,57.97,2556367,William Jackson,22,2019,12,1,10:02:00,PIT,1,10,PIT,0,0,2557978,SINGLEBACK,"1 RB, 1 TE, 3 WR",7,"4 DL, 2 LB, 5 DB",right,2019-10-01T00:24:11.000Z,2019-10-01T00:24:10.000Z,6-0,196,10/27/1992,Houston,CB,PIT,CIN,4,Heinz Field,Pittsburgh,Outdoor,Grass,Clear,76.0,72,1,From S
59739,2019093000,20190930000231,away,19.45,26.48,3.7,2.79,0.38,272.43,324.7,2560745,Sam Hubbard,94,2019,12,1,10:02:00,PIT,1,10,PIT,0,0,2557978,SINGLEBACK,"1 RB, 1 TE, 3 WR",7,"4 DL, 2 LB, 5 DB",right,2019-10-01T00:24:11.000Z,2019-10-01T00:24:10.000Z,6-5,265,06/29/1995,Ohio State,DE,PIT,CIN,4,Heinz Field,Pittsburgh,Outdoor,Grass,Clear,76.0,72,1,From S
59740,2019093000,20190930000231,away,35.79,28.42,2.88,2.78,0.28,308.42,26.09,2560970,Jessie Bates,30,2019,12,1,10:02:00,PIT,1,10,PIT,0,0,2557978,SINGLEBACK,"1 RB, 1 TE, 3 WR",7,"4 DL, 2 LB, 5 DB",right,2019-10-01T00:24:11.000Z,2019-10-01T00:24:10.000Z,6-1,200,02/26/1997,Wake Forest,S,PIT,CIN,4,Heinz Field,Pittsburgh,Outdoor,Grass,Clear,76.0,72,1,From S
59741,2019093000,20190930000231,home,21.58,35.04,3.89,0.51,0.4,24.06,20.47,81821,Ramon Foster,73,2019,12,1,10:02:00,PIT,1,10,PIT,0,0,2557978,SINGLEBACK,"1 RB, 1 TE, 3 WR",7,"4 DL, 2 LB, 5 DB",right,2019-10-01T00:24:11.000Z,2019-10-01T00:24:10.000Z,6-5,328,01/07/1986,Tennessee,G,PIT,CIN,4,Heinz Field,Pittsburgh,Outdoor,Grass,Clear,76.0,72,1,From S
59742,2019093000,20190930000231,home,20.17,33.32,3.11,0.79,0.32,24.01,348.02,497042,Maurkice Pouncey,53,2019,12,1,10:02:00,PIT,1,10,PIT,0,0,2557978,SINGLEBACK,"1 RB, 1 TE, 3 WR",7,"4 DL, 2 LB, 5 DB",right,2019-10-01T00:24:11.000Z,2019-10-01T00:24:10.000Z,6-4,304,07/24/1989,Florida,C,PIT,CIN,4,Heinz Field,Pittsburgh,Outdoor,Grass,Clear,76.0,72,1,From S
59743,2019093000,20190930000231,home,21.15,31.59,3.28,0.37,0.34,88.65,2.22,2533043,David DeCastro,66,2019,12,1,10:02:00,PIT,1,10,PIT,0,0,2557978,SINGLEBACK,"1 RB, 1 TE, 3 WR",7,"4 DL, 2 LB, 5 DB",right,2019-10-01T00:24:11.000Z,2019-10-01T00:24:10.000Z,6-5,316,01/11/1990,Stanford,G,PIT,CIN,4,Heinz Field,Pittsburgh,Outdoor,Grass,Clear,76.0,72,1,From S
59744,2019093000,20190930000231,home,20.28,35.91,2.39,0.3,0.25,320.76,349.66,2550130,Alejandro Villanueva,78,2019,12,1,10:02:00,PIT,1,10,PIT,0,0,2557978,SINGLEBACK,"1 RB, 1 TE, 3 WR",7,"4 DL, 2 LB, 5 DB",right,2019-10-01T00:24:11.000Z,2019-10-01T00:24:10.000Z,6-9,320,09/22/1988,Army,T,PIT,CIN,4,Heinz Field,Pittsburgh,Outdoor,Grass,Clear,76.0,72,1,From S
59745,2019093000,20190930000231,home,20.57,30.9,4.23,1.04,0.44,62.36,7.36,2550561,Matt Feiler,71,2019,12,1,10:02:00,PIT,1,10,PIT,0,0,2557978,SINGLEBACK,"1 RB, 1 TE, 3 WR",7,"4 DL, 2 LB, 5 DB",right,2019-10-01T00:24:11.000Z,2019-10-01T00:24:10.000Z,6-6,330,07/07/1992,Bloomsburg,T,PIT,CIN,4,Heinz Field,Pittsburgh,Outdoor,Grass,Clear,76.0,72,1,From S
59746,2019093000,20190930000231,home,21.35,28.14,3.82,2.06,0.38,26.45,3.85,2555289,Nick Vannett,88,2019,12,1,10:02:00,PIT,1,10,PIT,0,0,2557978,SINGLEBACK,"1 RB, 1 TE, 3 WR",7,"4 DL, 2 LB, 5 DB",right,2019-10-01T00:24:11.000Z,2019-10-01T00:24:10.000Z,6-6,261,03/06/1993,Ohio State,TE,PIT,CIN,4,Heinz Field,Pittsburgh,Outdoor,Grass,Clear,76.0,72,1,From S
59747,2019093000,20190930000231,home,17.37,33.2,6.48,1.39,0.64,46.01,42.67,2557978,James Conner,30,2019,12,1,10:02:00,PIT,1,10,PIT,0,0,2557978,SINGLEBACK,"1 RB, 1 TE, 3 WR",7,"4 DL, 2 LB, 5 DB",right,2019-10-01T00:24:11.000Z,2019-10-01T00:24:10.000Z,6-1,233,05/05/1995,Pittsburgh,RB,PIT,CIN,4,Heinz Field,Pittsburgh,Outdoor,Grass,Clear,76.0,72,1,From S
59748,2019093000,20190930000231,home,21.19,25.07,2.42,0.88,0.24,14.26,5.94,2558149,JuJu Smith-Schuster,19,2019,12,1,10:02:00,PIT,1,10,PIT,0,0,2557978,SINGLEBACK,"1 RB, 1 TE, 3 WR",7,"4 DL, 2 LB, 5 DB",right,2019-10-01T00:24:11.000Z,2019-10-01T00:24:10.000Z,6-1,215,11/22/1996,Southern California,WR,PIT,CIN,4,Heinz Field,Pittsburgh,Outdoor,Grass,Clear,76.0,72,1,From S
59749,2019093000,20190930000231,home,17.7,32.71,4.72,1.08,0.47,303.46,313.98,2560860,Mason Rudolph,2,2019,12,1,10:02:00,PIT,1,10,PIT,0,0,2557978,SINGLEBACK,"1 RB, 1 TE, 3 WR",7,"4 DL, 2 LB, 5 DB",right,2019-10-01T00:24:11.000Z,2019-10-01T00:24:10.000Z,6-5,235,07/17/1995,Oklahoma State,QB,PIT,CIN,4,Heinz Field,Pittsburgh,Outdoor,Grass,Clear,76.0,72,1,From S
59750,2019093000,20190930000231,home,18.69,23.04,8.0,1.56,0.8,158.21,174.74,2560920,James Washington,13,2019,12,1,10:02:00,PIT,1,10,PIT,0,0,2557978,SINGLEBACK,"1 RB, 1 TE, 3 WR",7,"4 DL, 2 LB, 5 DB",right,2019-10-01T00:24:11.000Z,2019-10-01T00:24:10.000Z,5-11,213,04/02/1996,Oklahoma State,WR,PIT,CIN,4,Heinz Field,Pittsburgh,Outdoor,Grass,Clear,76.0,72,1,From S
59751,2019093000,20190930000231,home,23.35,42.92,3.22,2.86,0.32,86.72,90.93,2562674,Diontae Johnson,18,2019,12,1,10:02:00,PIT,1,10,PIT,0,0,2557978,SINGLEBACK,"1 RB, 1 TE, 3 WR",7,"4 DL, 2 LB, 5 DB",right,2019-10-01T00:24:11.000Z,2019-10-01T00:24:10.000Z,5-10,181,07/05/1996,Toledo,WR,PIT,CIN,4,Heinz Field,Pittsburgh,Outdoor,Grass,Clear,76.0,72,1,From S
