,GameId,PlayId,Team,X,Y,S,A,Dis,Orientation,Dir,NflId,DisplayName,JerseyNumber,Season,YardLine,Quarter,GameClock,PossessionTeam,Down,Distance,FieldPosition,HomeScoreBeforePlay,VisitorScoreBeforePlay,NflIdRusher,OffenseFormation,OffensePersonnel,DefendersInTheBox,DefensePersonnel,PlayDirection,TimeHandoff,TimeSnap,PlayerHeight,PlayerWeight,PlayerBirthDate,PlayerCollegeName,Position,HomeTeamAbbr,VisitorTeamAbbr,Week,Stadium,Location,StadiumType,Turf,GameWeather,Temperature,Humidity,WindSpeed,WindDirection
22176,2019091506,20190915061442,away,23.26,27.66,3.73,1.63,0.38,235.51,233.79,496796,Jerry Hughes,55,2019,14,2,07:26:00,NYG,1,10,NYG,7,21,2560968,SINGLEBACK,"1 RB, 1 TE, 3 WR",7,"4 DL, 2 LB, 5 DB",right,2019-09-15T18:07:12.000Z,2019-09-15T18:07:11.000Z,6-2,254,08/13/1988,Texas Christian,DE,NYG,BUF,2,MetLife Stadium,"East Rutherford, NJ",,UBU Speed Series-S5-M,Fair,79.0,48,5,NNW
22177,2019091506,20190915061442,away,25.47,17.61,1.52,1.63,0.14,264.65,211.14,2539240,Micah Hyde,23,2019,14,2,07:26:00,NYG,1,10,NYG,7,21,2560968,SINGLEBACK,"1 RB, 1 TE, 3 WR",7,"4 DL, 2 LB, 5 DB",right,2019-09-15T18:07:12.000Z,2019-09-15T18:07:11.000Z,6-0,197,12/31/1990,Iowa,SS,NYG,BUF,2,MetLife Stadium,"East Rutherford, NJ",,UBU Speed Series-S5-M,Fair,79.0,48,5,NNW
22178,2019091506,20190915061442,away,38.52,24.93,0.48,0.37,0.05,267.96,109.16,2539290,Jordan Poyer,21,2019,14,2,07:26:00,NYG,1,10,NYG,7,21,2560968,SINGLEBACK,"1 RB, 1 TE, 3 WR",7,"4 DL, 2 LB, 5 DB",right,2019-09-15T18:07:12.000Z,2019-09-15T18:07:11.000Z,6-0,191,04/25/1991,Oregon State,FS,NYG,BUF,2,MetLife Stadium,"East Rutherford, NJ",,UBU Speed Series-S5-M,Fair,79.0,48,5,NNW
22179,2019091506,20190915061442,away,23.65,18.38,1.87,1.31,0.19,284.93,238.76,2543503,Trent Murphy,93,2019,14,2,07:26:00,NYG,1,10,NYG,7,21,2560968,SINGLEBACK,"1 RB, 1 TE, 3 WR",7,"4 DL, 2 LB, 5 DB",right,2019-09-15T18:07:12.000Z,2019-09-15T18:07:11.000Z,6-6,259,12/22/1990,Stanford,DE,NYG,BUF,2,MetLife Stadium,"East Rutherford, NJ",,UBU Speed Series-S5-M,Fair,79.0,48,5,NNW
22180,2019091506,20190915061442,away,22.35,24.88,3.69,0.75,0.37,249.75,234.76,2552492,Jordan Phillips,97,2019,14,2,07:26:00,NYG,1,10,NYG,7,21,2560968,SINGLEBACK,"1 RB, 1 TE, 3 WR",7,"4 DL, 2 LB, 5 DB",right,2019-09-15T18:07:12.000Z,2019-09-15T18:07:11.000Z,6-6,341,09/21/1992,Oklahoma,DT,NYG,BUF,2,MetLife Stadium,"East Rutherford, NJ",,UBU Speed Series-S5-M,Fair,79.0,48,5,NNW
22181,2019091506,20190915061442,away,31.18,14.16,0.28,1.69,0.04,290.3,287.84,2557867,Tre'Davious White,27,2019,14,2,07:26:00,NYG,1,10,NYG,7,21,2560968,SINGLEBACK,"1 RB, 1 TE, 3 WR",7,"4 DL, 2 LB, 5 DB",right,2019-09-15T18:07:12.000Z,2019-09-15T18:07:11.000Z,5-11,192,01/16/1995,Louisiana State,CB,NYG,BUF,2,MetLife Stadium,"East Rutherford, NJ",,UBU Speed Series-S5-M,Fair,79.0,48,5,NNW
22182,2019091506,20190915061442,away,26.37,20.1,3.2,2.72,0.31,254.04,220.9,2557969,Matt Milano,58,2019,14,2,07:26:00,NYG,1,10,NYG,7,21,2560968,SINGLEBACK,"1 RB, 1 TE, 3 WR",7,"4 DL, 2 LB, 5 DB",right,2019-09-15T18:07:12.000Z,2019-09-15T18:07:11.000Z,6-0,223,07/28/1994,Boston College,OLB,NYG,BUF,2,MetLife Stadium,"East Rutherford, NJ",,UBU Speed Series-S5-M,Fair,79.0,48,5,NNW
22183,2019091506,20190915061442,away,27.0,23.83,2.99,3.5,0.28,255.33,206.84,2560713,Tremaine Edmunds,49,2019,14,2,07:26:00,NYG,1,10,NYG,7,21,2560968,SINGLEBACK,"1 RB, 1 TE, 3 WR",7,"4 DL, 2 LB, 5 DB",right,2019-09-15T18:07:12.000Z,2019-09-15T18:07:11.000Z,6-5,250,05/02/1998,Virginia Tech,LB,NYG,BUF,2,MetLife Stadium,"East Rutherford, NJ",,UBU Speed Series-S5-M,Fair,79.0,48,5,NNW
22184,2019091506,20190915061442,away,25.02,30.15,0.46,1.41,0.03,268.9,180.9,2560818,Siran Neal,33,2019,14,2,07:26:00,NYG,1,10,NYG,7,21,2560968,SINGLEBACK,"1 RB, 1 TE, 3 WR",7,"4 DL, 2 LB, 5 DB",right,2019-09-15T18:07:12.000Z,2019-09-15T18:07:11.000Z,6-0,205,08/04/1994,Jacksonville State,DB,NYG,BUF,2,MetLife Stadium,"East Rutherford, NJ",,UBU Speed Series-S5-M,Fair,79.0,48,5,NNW
22185,2019091506,20190915061442,away,24.04,21.83,2.39,1.87,0.25,260.25,200.59,2560840,Harrison Phillips,99,2019,14,2,07:26:00,NYG,1,10,NYG,7,21,2560968,SINGLEBACK,"1 RB, 1 TE, 3 WR",7,"4 DL, 2 LB, 5 DB",right,2019-09-15T18:07:12.000Z,2019-09-15T18:07:11.000Z,6-3,307,01/25/1996,Stanford,DT,NYG,BUF,2,MetLife Stadium,"East Rutherford, NJ",,UBU Speed Series-S5-M,Fair,79.0,48,5,NNW
22186,2019091506,20190915061442,away,27.98,33.07,0.37,1.75,0.03,259.62,206.52,2560914,Levi Wallace,39,2019,14,2,07:26:00,NYG,1,10,NYG,7,21,2560968,SINGLEBACK,"1 RB, 1 TE, 3 WR",7,"4 DL, 2 LB, 5 DB",right,2019-09-15T18:07:12.000Z,2019-09-15T18:07:11.000Z,6-0,179,06/12/1995,Alabama,CB,NYG,BUF,2,MetLife Stadium,"East Rutherford, NJ",,UBU Speed Series-S5-M,Fair,79.0,48,5,NNW
22187,2019091506,20190915061442,home,22.54,25.43,2.5,0.66,0.26,161.51,191.04,2495232,Nate Solder,76,2019,14,2,07:26:00,NYG,1,10,NYG,7,21,2560968,SINGLEBACK,"1 RB, 1 TE, 3 WR",7,"4 DL, 2 LB, 5 DB",right,2019-09-15T18:07:12.000Z,2019-09-15T18:07:11.000Z,6-9,325,04/12/1988,Colorado,T,NYG,BUF,2,MetLife Stadium,"East Rutherford, NJ",,UBU Speed Series-S5-M,Fair,79.0,48,5,NNW
22188,2019091506,20190915061442,home,21.5,22.86,3.1,2.56,0.3,244.16,235.46,2505996,Eli Manning,10,2019,14,2,07:26:00,NYG,1,10,NYG,7,21,2560968,SINGLEBACK,"1 RB, 1 TE, 3 WR",7,"4 DL, 2 LB, 5 DB",right,2019-09-15T18:07:12.000Z,2019-09-15T18:07:11.000Z,6-5,218,01/03/1981,Mississippi,QB,NYG,BUF,2,MetLife Stadium,"East Rutherford, NJ",,UBU Speed Series-S5-M,Fair,79.0,48,5,NNW
22189,2019091506,20190915061442,home,22.39,18.4,0.33,1.76,0.04,92.59,48.43,2532835,Rhett Ellison,85,2019,14,2,07:26:00,NYG,1,10,NYG,7,21,2560968,SINGLEBACK,"1 RB, 1 TE, 3 WR",7,"4 DL, 2 LB, 5 DB",right,2019-09-15T18:07:12.000Z,2019-09-15T18:07:11.000Z,6-5,255,10/03/1988,Southern California,TE,NYG,BUF,2,MetLife Stadium,"East Rutherford, NJ",,UBU Speed Series-S5-M,Fair,79.0,48,5,NNW
22190,2019091506,20190915061442,home,22.01,20.7,3.19,2.22,0.32,142.46,212.57,2532980,Kevin Zeitler,70,2019,14,2,07:26:00,NYG,1,10,NYG,7,21,2560968,SINGLEBACK,"1 RB, 1 TE, 3 WR",7,"4 DL, 2 LB, 5 DB",right,2019-09-15T18:07:12.000Z,2019-09-15T18:07:11.000Z,6-4,315,03/08/1990,Wisconsin,G,NYG,BUF,2,MetLife Stadium,"East Rutherford, NJ",,UBU Speed Series-S5-M,Fair,79.0,48,5,NNW
22191,2019091506,20190915061442,home,21.95,19.03,2.99,2.62,0.29,143.72,200.07,2535607,Mike Remmers,74,2019,14,2,07:26:00,NYG,1,10,NYG,7,21,2560968,SINGLEBACK,"1 RB, 1 TE, 3 WR",7,"4 DL, 2 LB, 5 DB",right,2019-09-15T18:07:12.000Z,2019-09-15T18:07:11.000Z,6-5,310,04/11/1989,Oregon State,T,NYG,BUF,2,MetLife Stadium,"East Rutherford, NJ",,UBU Speed Series-S5-M,Fair,79.0,48,5,NNW
22192,2019091506,20190915061442,home,23.51,29.74,1.37,1.34,0.13,89.91,104.84,2541944,Russell Shepard,81,2019,14,2,07:26:00,NYG,1,10,NYG,7,21,2560968,SINGLEBACK,"1 RB, 1 TE, 3 WR",7,"4 DL, 2 LB, 5 DB",right,2019-09-15T18:07:12.000Z,2019-09-15T18:07:11.000Z,6-0,195,09/17/1990,LSU,WR,NYG,BUF,2,MetLife Stadium,"East Rutherford, NJ",,UBU Speed Series-S5-M,Fair,79.0,48,5,NNW
22193,2019091506,20190915061442,home,23.82,16.01,1.64,0.91,0.16,70.4,66.38,2543590,Cody Latimer,12,2019,14,2,07:26:00,NYG,1,10,NYG,7,21,2560968,SINGLEBACK,"1 RB, 1 TE, 3 WR",7,"4 DL, 2 LB, 5 DB",right,2019-09-15T18:07:12.000Z,2019-09-15T18:07:11.000Z,6-3,215,10/10/1992,Indiana,WR,NYG,BUF,2,MetLife Stadium,"East Rutherford, NJ",,UBU Speed Series-S5-M,Fair,79.0,48,5,NNW
22194,2019091506,20190915061442,home,23.12,22.16,2.89,1.81,0.28,102.13,191.87,2543708,Jon Halapio,75,2019,14,2,07:26:00,NYG,1,10,NYG,7,21,2560968,SINGLEBACK,"1 RB, 1 TE, 3 WR",7,"4 DL, 2 LB, 5 DB",right,2019-09-15T18:07:12.000Z,2019-09-15T18:07:11.000Z,6-4,315,06/23/1991,Florida,C,NYG,BUF,2,MetLife Stadium,"East Rutherford, NJ",,UBU Speed Series-S5-M,Fair,79.0,48,5,NNW
22195,2019091506,20190915061442,home,22.13,31.68,1.92,4.32,0.17,73.05,121.47,2550198,Bennie Fowler,18,2019,14,2,07:26:00,NYG,1,10,NYG,7,21,2560968,SINGLEBACK,"1 RB, 1 TE, 3 WR",7,"4 DL, 2 LB, 5 DB",right,2019-09-15T18:07:12.000Z,2019-09-15T18:07:11.000Z,6-1,218,06/10/1991,Michigan State,WR,NYG,BUF,2,MetLife Stadium,"East Rutherford, NJ",,UBU Speed Series-S5-M,Fair,79.0,48,5,NNW
22196,2019091506,20190915061442,home,22.79,23.73,3.76,2.78,0.36,137.07,176.74,2560737,Will Hernandez,71,2019,14,2,07:26:00,NYG,1,10,NYG,7,21,2560968,SINGLEBACK,"1 RB, 1 TE, 3 WR",7,"4 DL, 2 LB, 5 DB",right,2019-09-15T18:07:12.000Z,2019-09-15T18:07:11.000Z,6-3,327,09/02/1995,Texas-El Paso,G,NYG,BUF,2,MetLife Stadium,"East Rutherford, NJ",,UBU Speed Series-S5-M,Fair,79.0,48,5,NNW
22197,2019091506,20190915061442,home,16.88,22.6,2.84,3.51,0.26,88.96,179.39,2560968,Saquon Barkley,26,2019,14,2,07:26:00,NYG,1,10,NYG,7,21,2560968,SINGLEBACK,"1 RB, 1 TE, 3 WR",7,"4 DL, 2 LB, 5 DB",right,2019-09-15T18:07:12.000Z,2019-09-15T18:07:11.000Z,6-0,233,02/09/1997,Penn State,RB,NYG,BUF,2,MetLife Stadium,"East Rutherford, NJ",,UBU Speed Series-S5-M,Fair,79.0,48,5,NNW
