,GameId,PlayId,Team,X,Y,S,A,Dis,Orientation,Dir,NflId,DisplayName,JerseyNumber,Season,YardLine,Quarter,GameClock,PossessionTeam,Down,Distance,FieldPosition,HomeScoreBeforePlay,VisitorScoreBeforePlay,NflIdRusher,OffenseFormation,OffensePersonnel,DefendersInTheBox,DefensePersonnel,PlayDirection,TimeHandoff,TimeSnap,PlayerHeight,PlayerWeight,PlayerBirthDate,PlayerCollegeName,Position,HomeTeamAbbr,VisitorTeamAbbr,Week,Stadium,Location,StadiumType,Turf,GameWeather,Temperature,Humidity,WindSpeed,WindDirection
61204,2019100300,20191003003133,away,69.57,44.34,0.56,1.46,0.05,146.72,254.23,1302,Aqib Talib,21,2019,32,3,02:19:00,SEA,2,3,SEA,21,26,2558865,SHOTGUN,"1 RB, 1 TE, 3 WR",7,"3 DL, 4 LB, 4 DB",left,2019-10-04T02:45:06.000Z,2019-10-04T02:45:05.000Z,6-1,209,02/13/1986,Kansas,CB,SEA,LA,5,CenturyLink Field,Seattle,Outdoor,FieldTurf,Cloudy,57.0,56,7,SW
61205,2019100300,20191003003133,away,67.01,22.76,0.55,1.16,0.05,53.11,290.46,2495775,Eric Weddle,32,2019,32,3,02:19:00,SEA,2,3,SEA,21,26,2558865,SHOTGUN,"1 RB, 1 TE, 3 WR",7,"3 DL, 4 LB, 4 DB",left,2019-10-04T02:45:06.000Z,2019-10-04T02:45:05.000Z,5-11,195,01/04/1985,Utah,FS,SEA,LA,5,CenturyLink Field,Seattle,Outdoor,FieldTurf,Cloudy,57.0,56,7,SW
61206,2019100300,20191003003133,away,78.16,29.9,2.29,1.63,0.24,106.08,157.19,2533050,Michael Brockers,90,2019,32,3,02:19:00,SEA,2,3,SEA,21,26,2558865,SHOTGUN,"1 RB, 1 TE, 3 WR",7,"3 DL, 4 LB, 4 DB",left,2019-10-04T02:45:06.000Z,2019-10-04T02:45:05.000Z,6-5,305,12/21/1990,Louisiana State,DT,SEA,LA,5,CenturyLink Field,Seattle,Outdoor,FieldTurf,Cloudy,57.0,56,7,SW
61207,2019100300,20191003003133,away,70.91,9.15,2.48,1.28,0.24,358.13,277.02,2552488,Marcus Peters,22,2019,32,3,02:19:00,SEA,2,3,SEA,21,26,2558865,SHOTGUN,"1 RB, 1 TE, 3 WR",7,"3 DL, 4 LB, 4 DB",left,2019-10-04T02:45:06.000Z,2019-10-04T02:45:05.000Z,6-0,197,01/09/1993,Washington,CB,SEA,LA,5,CenturyLink Field,Seattle,Outdoor,FieldTurf,Cloudy,57.0,56,7,SW
61208,2019100300,20191003003133,away,78.44,22.03,1.91,1.88,0.2,29.79,129.55,2553431,Dante Fowler,56,2019,32,3,02:19:00,SEA,2,3,SEA,21,26,2558865,SHOTGUN,"1 RB, 1 TE, 3 WR",7,"3 DL, 4 LB, 4 DB",left,2019-10-04T02:45:06.000Z,2019-10-04T02:45:05.000Z,6-3,255,08/03/1994,Florida,OLB,SEA,LA,5,CenturyLink Field,Seattle,Outdoor,FieldTurf,Cloudy,57.0,56,7,SW
61209,2019100300,20191003003133,away,74.05,23.71,3.03,3.28,0.29,75.84,165.83,2556593,Cory Littleton,58,2019,32,3,02:19:00,SEA,2,3,SEA,21,26,2558865,SHOTGUN,"1 RB, 1 TE, 3 WR",7,"3 DL, 4 LB, 4 DB",left,2019-10-04T02:45:06.000Z,2019-10-04T02:45:05.000Z,6-3,228,11/18/1993,Washington,ILB,SEA,LA,5,CenturyLink Field,Seattle,Outdoor,FieldTurf,Cloudy,57.0,56,7,SW
61210,2019100300,20191003003133,away,73.79,33.72,3.24,2.24,0.32,105.07,143.73,2558183,John Johnson,43,2019,32,3,02:19:00,SEA,2,3,SEA,21,26,2558865,SHOTGUN,"1 RB, 1 TE, 3 WR",7,"3 DL, 4 LB, 4 DB",left,2019-10-04T02:45:06.000Z,2019-10-04T02:45:05.000Z,6-0,209,12/19/1995,Boston College,SS,SEA,LA,5,CenturyLink Field,Seattle,Outdoor,FieldTurf,Cloudy,57.0,56,7,SW
61211,2019100300,20191003003133,away,78.01,24.89,2.71,1.23,0.27,82.86,165.91,2558199,Tanzel Smart,92,2019,32,3,02:19:00,SEA,2,3,SEA,21,26,2558865,SHOTGUN,"1 RB, 1 TE, 3 WR",7,"3 DL, 4 LB, 4 DB",left,2019-10-04T02:45:06.000Z,2019-10-04T02:45:05.000Z,6-1,295,11/06/1994,Tulane,DT,SEA,LA,5,CenturyLink Field,Seattle,Outdoor,FieldTurf,Cloudy,57.0,56,7,SW
61212,2019100300,20191003003133,away,77.85,33.71,2.49,1.54,0.24,133.75,157.81,2558830,Samson Ebukam,50,2019,32,3,02:19:00,SEA,2,3,SEA,21,26,2558865,SHOTGUN,"1 RB, 1 TE, 3 WR",7,"3 DL, 4 LB, 4 DB",left,2019-10-04T02:45:06.000Z,2019-10-04T02:45:05.000Z,6-3,245,05/09/1995,Eastern Washington,OLB,SEA,LA,5,CenturyLink Field,Seattle,Outdoor,FieldTurf,Cloudy,57.0,56,7,SW
61213,2019100300,20191003003133,away,78.06,27.62,2.47,0.68,0.26,115.1,151.95,2561079,Sebastian Joseph-Day,69,2019,32,3,02:19:00,SEA,2,3,SEA,21,26,2558865,SHOTGUN,"1 RB, 1 TE, 3 WR",7,"3 DL, 4 LB, 4 DB",left,2019-10-04T02:45:06.000Z,2019-10-04T02:45:05.000Z,6-4,310,03/21/1995,Rutgers,DT,SEA,LA,5,CenturyLink Field,Seattle,Outdoor,FieldTurf,Cloudy,57.0,56,7,SW
61214,2019100300,20191003003133,away,74.62,29.05,2.69,2.79,0.26,102.45,139.32,2563313,Troy Reeder,51,2019,32,3,02:19:00,SEA,2,3,SEA,21,26,2558865,SHOTGUN,"1 RB, 1 TE, 3 WR",7,"3 DL, 4 LB, 4 DB",left,2019-10-04T02:45:06.000Z,2019-10-04T02:45:05.000Z,6-3,245,09/13/1994,Delaware,LB,SEA,LA,5,CenturyLink Field,Seattle,Outdoor,FieldTurf,Cloudy,57.0,56,7,SW
61215,2019100300,20191003003133,home,79.26,24.54,2.62,0.52,0.28,256.91,188.9,808,Duane Brown,76,2019,32,3,02:19:00,SEA,2,3,SEA,21,26,2558865,SHOTGUN,"1 RB, 1 TE, 3 WR",7,"3 DL, 4 LB, 4 DB",left,2019-10-04T02:45:06.000Z,2019-10-04T02:45:05.000Z,6-4,315,08/30/1985,Virginia Tech,T,SEA,LA,5,CenturyLink Field,Seattle,Outdoor,FieldTurf,Cloudy,57.0,56,7,SW
61216,2019100300,20191003003133,home,79.34,26.21,3.58,2.96,0.34,223.35,181.47,497016,Mike Iupati,70,2019,32,3,02:19:00,SEA,2,3,SEA,21,26,2558865,SHOTGUN,"1 RB, 1 TE, 3 WR",7,"3 DL, 4 LB, 4 DB",left,2019-10-04T02:45:06.000Z,2019-10-04T02:45:05.000Z,6-5,331,05/12/1987,Idaho,OG,SEA,LA,5,CenturyLink Field,Seattle,Outdoor,FieldTurf,Cloudy,57.0,56,7,SW
61217,2019100300,20191003003133,home,82.8,29.67,0.56,1.32,0.06,302.03,353.67,2532975,Russell Wilson,3,2019,32,3,02:19:00,SEA,2,3,SEA,21,26,2558865,SHOTGUN,"1 RB, 1 TE, 3 WR",7,"3 DL, 4 LB, 4 DB",left,2019-10-04T02:45:06.000Z,2019-10-04T02:45:05.000Z,5-11,215,11/29/1988,Wisconsin,QB,SEA,LA,5,CenturyLink Field,Seattle,Outdoor,FieldTurf,Cloudy,57.0,56,7,SW
61218,2019100300,20191003003133,home,79.9,31.23,1.58,1.06,0.16,320.66,228.92,2541966,Jaron Brown,18,2019,32,3,02:19:00,SEA,2,3,SEA,21,26,2558865,SHOTGUN,"1 RB, 1 TE, 3 WR",7,"3 DL, 4 LB, 4 DB",left,2019-10-04T02:45:06.000Z,2019-10-04T02:45:05.000Z,6-3,205,01/08/1990,Clemson,WR,SEA,LA,5,CenturyLink Field,Seattle,Outdoor,FieldTurf,Cloudy,57.0,56,7,SW
61219,2019100300,20191003003133,home,78.75,27.36,2.81,0.54,0.29,260.59,171.94,2550135,Justin Britt,68,2019,32,3,02:19:00,SEA,2,3,SEA,21,26,2558865,SHOTGUN,"1 RB, 1 TE, 3 WR",7,"3 DL, 4 LB, 4 DB",left,2019-10-04T02:45:06.000Z,2019-10-04T02:45:05.000Z,6-6,315,05/29/1991,Missouri,C,SEA,LA,5,CenturyLink Field,Seattle,Outdoor,FieldTurf,Cloudy,57.0,56,7,SW
61220,2019100300,20191003003133,home,78.52,9.87,3.72,3.41,0.37,256.27,268.96,2552430,Tyler Lockett,16,2019,32,3,02:19:00,SEA,2,3,SEA,21,26,2558865,SHOTGUN,"1 RB, 1 TE, 3 WR",7,"3 DL, 4 LB, 4 DB",left,2019-10-04T02:45:06.000Z,2019-10-04T02:45:05.000Z,5-10,182,09/28/1992,Kansas State,WR,SEA,LA,5,CenturyLink Field,Seattle,Outdoor,FieldTurf,Cloudy,57.0,56,7,SW
61221,2019100300,20191003003133,home,79.13,30.58,2.86,0.48,0.29,219.35,179.54,2555395,Germain Ifedi,65,2019,32,3,02:19:00,SEA,2,3,SEA,21,26,2558865,SHOTGUN,"1 RB, 1 TE, 3 WR",7,"3 DL, 4 LB, 4 DB",left,2019-10-04T02:45:06.000Z,2019-10-04T02:45:05.000Z,6-5,325,06/02/1994,Texas A&M,G,SEA,LA,5,CenturyLink Field,Seattle,Outdoor,FieldTurf,Cloudy,57.0,56,7,SW
61222,2019100300,20191003003133,home,82.41,29.93,4.64,4.07,0.44,222.57,196.09,2558865,Chris Carson,32,2019,32,3,02:19:00,SEA,2,3,SEA,21,26,2558865,SHOTGUN,"1 RB, 1 TE, 3 WR",7,"3 DL, 4 LB, 4 DB",left,2019-10-04T02:45:06.000Z,2019-10-04T02:45:05.000Z,5-11,222,09/16/1994,Oklahoma State,RB,SEA,LA,5,CenturyLink Field,Seattle,Outdoor,FieldTurf,Cloudy,57.0,56,7,SW
61223,2019100300,20191003003133,home,79.05,29.58,2.53,0.95,0.25,280.97,175.09,2560768,Jamarco Jones,73,2019,32,3,02:19:00,SEA,2,3,SEA,21,26,2558865,SHOTGUN,"1 RB, 1 TE, 3 WR",7,"3 DL, 4 LB, 4 DB",left,2019-10-04T02:45:06.000Z,2019-10-04T02:45:05.000Z,6-4,293,06/04/1996,Ohio State,T,SEA,LA,5,CenturyLink Field,Seattle,Outdoor,FieldTurf,Cloudy,57.0,56,7,SW
61224,2019100300,20191003003133,home,79.12,22.85,2.37,0.91,0.24,212.98,179.15,2561046,Will Dissly,88,2019,32,3,02:19:00,SEA,2,3,SEA,21,26,2558865,SHOTGUN,"1 RB, 1 TE, 3 WR",7,"3 DL, 4 LB, 4 DB",left,2019-10-04T02:45:06.000Z,2019-10-04T02:45:05.000Z,6-4,267,07/08/1996,Washington,TE,SEA,LA,5,CenturyLink Field,Seattle,Outdoor,FieldTurf,Cloudy,57.0,56,7,SW
61225,2019100300,20191003003133,home,77.55,44.22,2.99,3.15,0.29,244.29,249.62,2562685,D.K. Metcalf,14,2019,32,3,02:19:00,SEA,2,3,SEA,21,26,2558865,SHOTGUN,"1 RB, 1 TE, 3 WR",7,"3 DL, 4 LB, 4 DB",left,2019-10-04T02:45:06.000Z,2019-10-04T02:45:05.000Z,6-4,230,12/14/1997,Mississippi,WR,SEA,LA,5,CenturyLink Field,Seattle,Outdoor,FieldTurf,Cloudy,57.0,56,7,SW
