,GameId,PlayId,Team,X,Y,S,A,Dis,Orientation,Dir,NflId,DisplayName,JerseyNumber,Season,YardLine,Quarter,GameClock,PossessionTeam,Down,Distance,FieldPosition,HomeScoreBeforePlay,VisitorScoreBeforePlay,NflIdRusher,OffenseFormation,OffensePersonnel,DefendersInTheBox,DefensePersonnel,PlayDirection,TimeHandoff,TimeSnap,PlayerHeight,PlayerWeight,PlayerBirthDate,PlayerCollegeName,Position,HomeTeamAbbr,VisitorTeamAbbr,Week,Stadium,Location,StadiumType,Turf,GameWeather,Temperature,Humidity,WindSpeed,WindDirection
8470,2019090808,20190908081535,away,86.86,24.04,3.96,0.56,0.42,29.82,95.95,496780,Carlos Dunlap,96,2019,25,2,05:12:00,SEA,1,10,SEA,7,10,2560835,SHOTGUN,"1 RB, 2 TE, 2 WR",7,"5 DL, 2 LB, 4 DB",left,2019-09-08T21:14:42.000Z,2019-09-08T21:14:41.000Z,6-6,285,02/28/1989,Florida,DE,SEA,CIN,1,CenturyLink Field,"Seattle, WA",Outdoor,FieldTurf,Cloudy,64.0,82,7,S
8471,2019090808,20190908081535,away,83.24,7.88,2.1,2.31,0.2,89.19,260.15,2533060,Dre Kirkpatrick,27,2019,25,2,05:12:00,SEA,1,10,SEA,7,10,2560835,SHOTGUN,"1 RB, 2 TE, 2 WR",7,"5 DL, 2 LB, 4 DB",left,2019-09-08T21:14:42.000Z,2019-09-08T21:14:41.000Z,6-2,190,10/26/1989,Alabama,CB,SEA,CIN,1,CenturyLink Field,"Seattle, WA",Outdoor,FieldTurf,Cloudy,64.0,82,7,S
8472,2019090808,20190908081535,away,83.49,44.51,1.25,1.85,0.11,95.71,296.43,2539233,Shawn Williams,36,2019,25,2,05:12:00,SEA,1,10,SEA,7,10,2560835,SHOTGUN,"1 RB, 2 TE, 2 WR",7,"5 DL, 2 LB, 4 DB",left,2019-09-08T21:14:42.000Z,2019-09-08T21:14:41.000Z,6-0,210,05/13/1991,Georgia,SS,SEA,CIN,1,CenturyLink Field,"Seattle, WA",Outdoor,FieldTurf,Cloudy,64.0,82,7,S
8473,2019090808,20190908081535,away,82.77,33.4,2.6,2.1,0.25,104.5,111.73,2543814,Preston Brown,52,2019,25,2,05:12:00,SEA,1,10,SEA,7,10,2560835,SHOTGUN,"1 RB, 2 TE, 2 WR",7,"5 DL, 2 LB, 4 DB",left,2019-09-08T21:14:42.000Z,2019-09-08T21:14:41.000Z,6-1,251,10/27/1992,Louisville,MLB,SEA,CIN,1,CenturyLink Field,"Seattle, WA",Outdoor,FieldTurf,Cloudy,64.0,82,7,S
8474,2019090808,20190908081535,away,84.36,28.55,2.34,0.18,0.23,97.08,190.55,2555267,Andrew Billings,99,2019,25,2,05:12:00,SEA,1,10,SEA,7,10,2560835,SHOTGUN,"1 RB, 2 TE, 2 WR",7,"5 DL, 2 LB, 4 DB",left,2019-09-08T21:14:42.000Z,2019-09-08T21:14:41.000Z,6-1,328,03/06/1995,Baylor,DT,SEA,CIN,1,CenturyLink Field,"Seattle, WA",Outdoor,FieldTurf,Cloudy,64.0,82,7,S
8475,2019090808,20190908081535,away,83.9,17.82,0.54,1.52,0.05,94.34,265.09,2556367,William Jackson,22,2019,25,2,05:12:00,SEA,1,10,SEA,7,10,2560835,SHOTGUN,"1 RB, 2 TE, 2 WR",7,"5 DL, 2 LB, 4 DB",left,2019-09-08T21:14:42.000Z,2019-09-08T21:14:41.000Z,6-0,196,10/27/1992,Houston,CB,SEA,CIN,1,CenturyLink Field,"Seattle, WA",Outdoor,FieldTurf,Cloudy,64.0,82,7,S
8476,2019090808,20190908081535,away,85.31,30.01,2.85,1.23,0.29,95.01,173.27,2557851,Ryan Glasgow,98,2019,25,2,05:12:00,SEA,1,10,SEA,7,10,2560835,SHOTGUN,"1 RB, 2 TE, 2 WR",7,"5 DL, 2 LB, 4 DB",left,2019-09-08T21:14:42.000Z,2019-09-08T21:14:41.000Z,6-3,302,09/30/1993,Michigan,DT,SEA,CIN,1,CenturyLink Field,"Seattle, WA",Outdoor,FieldTurf,Cloudy,64.0,82,7,S
8477,2019090808,20190908081535,away,85.22,33.78,2.69,1.43,0.27,116.53,164.65,2557901,Carl Lawson,58,2019,25,2,05:12:00,SEA,1,10,SEA,7,10,2560835,SHOTGUN,"1 RB, 2 TE, 2 WR",7,"5 DL, 2 LB, 4 DB",left,2019-09-08T21:14:42.000Z,2019-09-08T21:14:41.000Z,6-2,265,06/29/1995,Auburn,DE,SEA,CIN,1,CenturyLink Field,"Seattle, WA",Outdoor,FieldTurf,Cloudy,64.0,82,7,S
8478,2019090808,20190908081535,away,85.98,26.5,1.7,1.65,0.17,48.03,114.92,2559003,Josh Tupou,91,2019,25,2,05:12:00,SEA,1,10,SEA,7,10,2560835,SHOTGUN,"1 RB, 2 TE, 2 WR",7,"5 DL, 2 LB, 4 DB",left,2019-09-08T21:14:42.000Z,2019-09-08T21:14:41.000Z,6-3,345,05/02/1994,Colorado,DT,SEA,CIN,1,CenturyLink Field,"Seattle, WA",Outdoor,FieldTurf,Cloudy,64.0,82,7,S
8479,2019090808,20190908081535,away,69.52,26.21,1.93,1.15,0.19,90.41,255.71,2560970,Jessie Bates,30,2019,25,2,05:12:00,SEA,1,10,SEA,7,10,2560835,SHOTGUN,"1 RB, 2 TE, 2 WR",7,"5 DL, 2 LB, 4 DB",left,2019-09-08T21:14:42.000Z,2019-09-08T21:14:41.000Z,6-1,200,02/26/1997,Wake Forest,S,SEA,CIN,1,CenturyLink Field,"Seattle, WA",Outdoor,FieldTurf,Cloudy,64.0,82,7,S
8480,2019090808,20190908081535,away,82.73,29.33,2.92,1.69,0.29,80.25,119.24,2562702,Germaine Pratt,57,2019,25,2,05:12:00,SEA,1,10,SEA,7,10,2560835,SHOTGUN,"1 RB, 2 TE, 2 WR",7,"5 DL, 2 LB, 4 DB",left,2019-09-08T21:14:42.000Z,2019-09-08T21:14:41.000Z,6-3,245,05/21/1996,North Carolina State,LB,SEA,CIN,1,CenturyLink Field,"Seattle, WA",Outdoor,FieldTurf,Cloudy,64.0,82,7,S
8481,2019090808,20190908081535,home,87.11,25.27,1.77,0.57,0.18,210.95,147.23,808,Duane Brown,76,2019,25,2,05:12:00,SEA,1,10,SEA,7,10,2560835,SHOTGUN,"1 RB, 2 TE, 2 WR",7,"5 DL, 2 LB, 4 DB",left,2019-09-08T21:14:42.000Z,2019-09-08T21:14:41.000Z,6-4,315,08/30/1985,Virginia Tech,T,SEA,CIN,1,CenturyLink Field,"Seattle, WA",Outdoor,FieldTurf,Cloudy,64.0,82,7,S
8482,2019090808,20190908081535,home,89.67,29.59,0.54,0.83,0.06,296.15,314.26,2532975,Russell Wilson,3,2019,25,2,05:12:00,SEA,1,10,SEA,7,10,2560835,SHOTGUN,"1 RB, 2 TE, 2 WR",7,"5 DL, 2 LB, 4 DB",left,2019-09-08T21:14:42.000Z,2019-09-08T21:14:41.000Z,5-11,215,11/29/1988,Wisconsin,QB,SEA,CIN,1,CenturyLink Field,"Seattle, WA",Outdoor,FieldTurf,Cloudy,64.0,82,7,S
8483,2019090808,20190908081535,home,85.2,29.19,3.12,0.51,0.31,238.24,214.32,2540166,D.J. Fluker,78,2019,25,2,05:12:00,SEA,1,10,SEA,7,10,2560835,SHOTGUN,"1 RB, 2 TE, 2 WR",7,"5 DL, 2 LB, 4 DB",left,2019-09-08T21:14:42.000Z,2019-09-08T21:14:41.000Z,6-5,342,03/13/1991,Alabama,OG,SEA,CIN,1,CenturyLink Field,"Seattle, WA",Outdoor,FieldTurf,Cloudy,64.0,82,7,S
8484,2019090808,20190908081535,home,85.15,7.24,2.37,3.08,0.22,227.73,236.94,2541966,Jaron Brown,18,2019,25,2,05:12:00,SEA,1,10,SEA,7,10,2560835,SHOTGUN,"1 RB, 2 TE, 2 WR",7,"5 DL, 2 LB, 4 DB",left,2019-09-08T21:14:42.000Z,2019-09-08T21:14:41.000Z,6-3,205,01/08/1990,Clemson,WR,SEA,CIN,1,CenturyLink Field,"Seattle, WA",Outdoor,FieldTurf,Cloudy,64.0,82,7,S
8485,2019090808,20190908081535,home,85.05,28.32,2.17,1.19,0.23,240.25,203.78,2550135,Justin Britt,68,2019,25,2,05:12:00,SEA,1,10,SEA,7,10,2560835,SHOTGUN,"1 RB, 2 TE, 2 WR",7,"5 DL, 2 LB, 4 DB",left,2019-09-08T21:14:42.000Z,2019-09-08T21:14:41.000Z,6-6,315,05/29/1991,Missouri,C,SEA,CIN,1,CenturyLink Field,"Seattle, WA",Outdoor,FieldTurf,Cloudy,64.0,82,7,S
8486,2019090808,20190908081535,home,86.09,17.82,2.66,2.69,0.25,271.07,261.91,2552430,Tyler Lockett,16,2019,25,2,05:12:00,SEA,1,10,SEA,7,10,2560835,SHOTGUN,"1 RB, 2 TE, 2 WR",7,"5 DL, 2 LB, 4 DB",left,2019-09-08T21:14:42.000Z,2019-09-08T21:14:41.000Z,5-10,182,09/28/1992,Kansas State,WR,SEA,CIN,1,CenturyLink Field,"Seattle, WA",Outdoor,FieldTurf,Cloudy,64.0,82,7,S
8487,2019090808,20190908081535,home,86.05,44.49,3.12,2.75,0.3,283.78,276.49,2555289,Nick Vannett,81,2019,25,2,05:12:00,SEA,1,10,SEA,7,10,2560835,SHOTGUN,"1 RB, 2 TE, 2 WR",7,"5 DL, 2 LB, 4 DB",left,2019-09-08T21:14:42.000Z,2019-09-08T21:14:41.000Z,6-6,261,03/06/1993,Ohio State,TE,SEA,CIN,1,CenturyLink Field,"Seattle, WA",Outdoor,FieldTurf,Cloudy,64.0,82,7,S
8488,2019090808,20190908081535,home,86.13,30.15,2.51,0.71,0.26,244.78,180.06,2555395,Germain Ifedi,65,2019,25,2,05:12:00,SEA,1,10,SEA,7,10,2560835,SHOTGUN,"1 RB, 2 TE, 2 WR",7,"5 DL, 2 LB, 4 DB",left,2019-09-08T21:14:42.000Z,2019-09-08T21:14:41.000Z,6-5,325,06/02/1994,Texas A&M,G,SEA,CIN,1,CenturyLink Field,"Seattle, WA",Outdoor,FieldTurf,Cloudy,64.0,82,7,S
8489,2019090808,20190908081535,home,86.67,26.95,1.29,0.87,0.13,208.87,111.43,2557891,Ethan Pocic,77,2019,25,2,05:12:00,SEA,1,10,SEA,7,10,2560835,SHOTGUN,"1 RB, 2 TE, 2 WR",7,"5 DL, 2 LB, 4 DB",left,2019-09-08T21:14:42.000Z,2019-09-08T21:14:41.000Z,6-6,320,08/05/1995,Louisiana State,C,SEA,CIN,1,CenturyLink Field,"Seattle, WA",Outdoor,FieldTurf,Cloudy,64.0,82,7,S
8490,2019090808,20190908081535,home,89.45,30.5,3.2,2.23,0.31,226.91,212.74,2560835,Rashaad Penny,20,2019,25,2,05:12:00,SEA,1,10,SEA,7,10,2560835,SHOTGUN,"1 RB, 2 TE, 2 WR",7,"5 DL, 2 LB, 4 DB",left,2019-09-08T21:14:42.000Z,2019-09-08T21:14:41.000Z,5-11,220,02/02/1996,San Diego State,RB,SEA,CIN,1,CenturyLink Field,"Seattle, WA",Outdoor,FieldTurf,Cloudy,64.0,82,7,S
8491,2019090808,20190908081535,home,86.07,33.2,2.45,1.98,0.23,266.0,196.91,2561046,Will Dissly,88,2019,25,2,05:12:00,SEA,1,10,SEA,7,10,2560835,SHOTGUN,"1 RB, 2 TE, 2 WR",7,"5 DL, 2 LB, 4 DB",left,2019-09-08T21:14:42.000Z,2019-09-08T21:14:41.000Z,6-4,267,07/08/1996,Washington,TE,SEA,CIN,1,CenturyLink Field,"Seattle, WA",Outdoor,FieldTurf,Cloudy,64.0,82,7,S
