,GameId,PlayId,Team,X,Y,S,A,Dis,Orientation,Dir,NflId,DisplayName,JerseyNumber,Season,YardLine,Quarter,GameClock,PossessionTeam,Down,Distance,FieldPosition,HomeScoreBeforePlay,VisitorScoreBeforePlay,NflIdRusher,OffenseFormation,OffensePersonnel,DefendersInTheBox,DefensePersonnel,PlayDirection,TimeHandoff,TimeSnap,PlayerHeight,PlayerWeight,PlayerBirthDate,PlayerCollegeName,Position,HomeTeamAbbr,VisitorTeamAbbr,Week,Stadium,Location,StadiumType,Turf,GameWeather,Temperature,Humidity,WindSpeed,WindDirection
63272,2019100601,20191006012065,away,40.46,20.41,3.73,0.87,0.39,257.08,200.63,71461,A.Q. Shipley,53,2019,32,2,00:42:00,ARZ,2,5,CIN,6,10,2560711,SHOTGUN,"1 RB, 0 TE, 4 WR",5,"4 DL, 2 LB, 5 DB",left,2019-10-06T18:20:02.000Z,2019-10-06T18:20:00.000Z,6-1,307,05/22/1986,Penn State,C,CIN,ARI,5,Paul Brown Stadium,"Cincinnati, OH",Outdoor,Twenty Four/Seven Turf,Cloudy,76.0,68,"6 mph, Gusts to 10",SW
63273,2019100601,20191006012065,away,40.51,40.06,5.37,4.2,0.52,355.25,332.69,2506106,Larry Fitzgerald,11,2019,32,2,00:42:00,ARZ,2,5,CIN,6,10,2560711,SHOTGUN,"1 RB, 0 TE, 4 WR",5,"4 DL, 2 LB, 5 DB",left,2019-10-06T18:20:02.000Z,2019-10-06T18:20:00.000Z,6-3,218,08/31/1983,Pittsburgh,WR,CIN,ARI,5,Paul Brown Stadium,"Cincinnati, OH",Outdoor,Twenty Four/Seven Turf,Cloudy,76.0,68,"6 mph, Gusts to 10",SW
63274,2019100601,20191006012065,away,42.86,23.01,3.0,0.99,0.3,324.75,167.52,2533342,J.R. Sweezy,64,2019,32,2,00:42:00,ARZ,2,5,CIN,6,10,2560711,SHOTGUN,"1 RB, 0 TE, 4 WR",5,"4 DL, 2 LB, 5 DB",left,2019-10-06T18:20:02.000Z,2019-10-06T18:20:00.000Z,6-5,310,04/08/1989,North Carolina State,G,CIN,ARI,5,Paul Brown Stadium,"Cincinnati, OH",Outdoor,Twenty Four/Seven Turf,Cloudy,76.0,68,"6 mph, Gusts to 10",SW
63275,2019100601,20191006012065,away,43.18,20.72,1.87,0.63,0.19,275.73,158.86,2540195,Justin Pugh,67,2019,32,2,00:42:00,ARZ,2,5,CIN,6,10,2560711,SHOTGUN,"1 RB, 0 TE, 4 WR",5,"4 DL, 2 LB, 5 DB",left,2019-10-06T18:20:02.000Z,2019-10-06T18:20:00.000Z,6-5,311,08/15/1990,Syracuse,G,CIN,ARI,5,Paul Brown Stadium,"Cincinnati, OH",Outdoor,Twenty Four/Seven Turf,Cloudy,76.0,68,"6 mph, Gusts to 10",SW
63276,2019100601,20191006012065,away,44.42,19.11,2.82,0.75,0.28,214.05,144.67,2552626,D.J. Humphries,74,2019,32,2,00:42:00,ARZ,2,5,CIN,6,10,2560711,SHOTGUN,"1 RB, 0 TE, 4 WR",5,"4 DL, 2 LB, 5 DB",left,2019-10-06T18:20:02.000Z,2019-10-06T18:20:00.000Z,6-5,307,12/28/1993,Florida,OT,CIN,ARI,5,Paul Brown Stadium,"Cincinnati, OH",Outdoor,Twenty Four/Seven Turf,Cloudy,76.0,68,"6 mph, Gusts to 10",SW
63277,2019100601,20191006012065,away,39.32,34.05,3.98,3.66,0.4,11.73,307.52,2555419,Pharoh Cooper,12,2019,32,2,00:42:00,ARZ,2,5,CIN,6,10,2560711,SHOTGUN,"1 RB, 0 TE, 4 WR",5,"4 DL, 2 LB, 5 DB",left,2019-10-06T18:20:02.000Z,2019-10-06T18:20:00.000Z,5-11,207,03/07/1995,South Carolina,WR,CIN,ARI,5,Paul Brown Stadium,"Cincinnati, OH",Outdoor,Twenty Four/Seven Turf,Cloudy,76.0,68,"6 mph, Gusts to 10",SW
63278,2019100601,20191006012065,away,44.9,28.4,3.21,1.56,0.32,27.9,72.91,2556628,Justin Murray,71,2019,32,2,00:42:00,ARZ,2,5,CIN,6,10,2560711,SHOTGUN,"1 RB, 0 TE, 4 WR",5,"4 DL, 2 LB, 5 DB",left,2019-10-06T18:20:02.000Z,2019-10-06T18:20:00.000Z,6-5,315,04/19/1993,Cincinnati,OT,CIN,ARI,5,Paul Brown Stadium,"Cincinnati, OH",Outdoor,Twenty Four/Seven Turf,Cloudy,76.0,68,"6 mph, Gusts to 10",SW
63279,2019100601,20191006012065,away,47.49,21.98,1.63,3.11,0.15,275.14,284.67,2560711,Chase Edmonds,29,2019,32,2,00:42:00,ARZ,2,5,CIN,6,10,2560711,SHOTGUN,"1 RB, 0 TE, 4 WR",5,"4 DL, 2 LB, 5 DB",left,2019-10-06T18:20:02.000Z,2019-10-06T18:20:00.000Z,5-9,210,04/13/1996,Fordham,RB,CIN,ARI,5,Paul Brown Stadium,"Cincinnati, OH",Outdoor,Twenty Four/Seven Turf,Cloudy,76.0,68,"6 mph, Gusts to 10",SW
63280,2019100601,20191006012065,away,38.69,11.65,5.14,0.63,0.51,273.49,271.68,2561272,Trent Sherfield,16,2019,32,2,00:42:00,ARZ,2,5,CIN,6,10,2560711,SHOTGUN,"1 RB, 0 TE, 4 WR",5,"4 DL, 2 LB, 5 DB",left,2019-10-06T18:20:02.000Z,2019-10-06T18:20:00.000Z,6-1,219,02/26/1996,Vanderbilt,WR,CIN,ARI,5,Paul Brown Stadium,"Cincinnati, OH",Outdoor,Twenty Four/Seven Turf,Cloudy,76.0,68,"6 mph, Gusts to 10",SW
63281,2019100601,20191006012065,away,47.97,22.81,2.46,1.42,0.24,200.48,121.77,2562382,Kyler Murray,1,2019,32,2,00:42:00,ARZ,2,5,CIN,6,10,2560711,SHOTGUN,"1 RB, 0 TE, 4 WR",5,"4 DL, 2 LB, 5 DB",left,2019-10-06T18:20:02.000Z,2019-10-06T18:20:00.000Z,5-10,207,08/07/1997,Oklahoma,QB,CIN,ARI,5,Paul Brown Stadium,"Cincinnati, OH",Outdoor,Twenty Four/Seven Turf,Cloudy,76.0,68,"6 mph, Gusts to 10",SW
63282,2019100601,20191006012065,away,40.66,47.56,5.19,3.13,0.5,282.28,301.96,2562677,KeeSean Johnson,19,2019,32,2,00:42:00,ARZ,2,5,CIN,6,10,2560711,SHOTGUN,"1 RB, 0 TE, 4 WR",5,"4 DL, 2 LB, 5 DB",left,2019-10-06T18:20:02.000Z,2019-10-06T18:20:00.000Z,6-1,199,10/09/1996,Fresno State,WR,CIN,ARI,5,Paul Brown Stadium,"Cincinnati, OH",Outdoor,Twenty Four/Seven Turf,Cloudy,76.0,68,"6 mph, Gusts to 10",SW
63283,2019100601,20191006012065,home,45.39,28.81,4.48,1.5,0.46,162.16,101.01,496780,Carlos Dunlap,96,2019,32,2,00:42:00,ARZ,2,5,CIN,6,10,2560711,SHOTGUN,"1 RB, 0 TE, 4 WR",5,"4 DL, 2 LB, 5 DB",left,2019-10-06T18:20:02.000Z,2019-10-06T18:20:00.000Z,6-6,285,02/28/1989,Florida,DE,CIN,ARI,5,Paul Brown Stadium,"Cincinnati, OH",Outdoor,Twenty Four/Seven Turf,Cloudy,76.0,68,"6 mph, Gusts to 10",SW
63284,2019100601,20191006012065,home,38.96,47.35,3.33,2.07,0.32,41.36,300.93,2533060,Dre Kirkpatrick,27,2019,32,2,00:42:00,ARZ,2,5,CIN,6,10,2560711,SHOTGUN,"1 RB, 0 TE, 4 WR",5,"4 DL, 2 LB, 5 DB",left,2019-10-06T18:20:02.000Z,2019-10-06T18:20:00.000Z,6-2,190,10/26/1989,Alabama,CB,CIN,ARI,5,Paul Brown Stadium,"Cincinnati, OH",Outdoor,Twenty Four/Seven Turf,Cloudy,76.0,68,"6 mph, Gusts to 10",SW
63285,2019100601,20191006012065,home,31.31,19.22,0.31,0.58,0.03,71.88,13.74,2539233,Shawn Williams,36,2019,32,2,00:42:00,ARZ,2,5,CIN,6,10,2560711,SHOTGUN,"1 RB, 0 TE, 4 WR",5,"4 DL, 2 LB, 5 DB",left,2019-10-06T18:20:02.000Z,2019-10-06T18:20:00.000Z,6-0,210,05/13/1991,Georgia,SS,CIN,ARI,5,Paul Brown Stadium,"Cincinnati, OH",Outdoor,Twenty Four/Seven Turf,Cloudy,76.0,68,"6 mph, Gusts to 10",SW
63286,2019100601,20191006012065,home,38.95,39.63,3.98,2.94,0.39,76.81,344.87,2539338,B.W. Webb,23,2019,32,2,00:42:00,ARZ,2,5,CIN,6,10,2560711,SHOTGUN,"1 RB, 0 TE, 4 WR",5,"4 DL, 2 LB, 5 DB",left,2019-10-06T18:20:02.000Z,2019-10-06T18:20:00.000Z,5-11,190,05/03/1990,William & Mary,CB,CIN,ARI,5,Paul Brown Stadium,"Cincinnati, OH",Outdoor,Twenty Four/Seven Turf,Cloudy,76.0,68,"6 mph, Gusts to 10",SW
63287,2019100601,20191006012065,home,36.96,32.01,2.09,1.34,0.2,38.9,341.32,2543814,Preston Brown,52,2019,32,2,00:42:00,ARZ,2,5,CIN,6,10,2560711,SHOTGUN,"1 RB, 0 TE, 4 WR",5,"4 DL, 2 LB, 5 DB",left,2019-10-06T18:20:02.000Z,2019-10-06T18:20:00.000Z,6-1,251,10/27/1992,Louisville,MLB,CIN,ARI,5,Paul Brown Stadium,"Cincinnati, OH",Outdoor,Twenty Four/Seven Turf,Cloudy,76.0,68,"6 mph, Gusts to 10",SW
63288,2019100601,20191006012065,home,38.43,21.29,1.23,0.86,0.12,87.41,93.07,2555528,Nick Vigil,59,2019,32,2,00:42:00,ARZ,2,5,CIN,6,10,2560711,SHOTGUN,"1 RB, 0 TE, 4 WR",5,"4 DL, 2 LB, 5 DB",left,2019-10-06T18:20:02.000Z,2019-10-06T18:20:00.000Z,6-2,235,08/20/1993,Utah State,OLB,CIN,ARI,5,Paul Brown Stadium,"Cincinnati, OH",Outdoor,Twenty Four/Seven Turf,Cloudy,76.0,68,"6 mph, Gusts to 10",SW
63289,2019100601,20191006012065,home,33.77,10.77,2.89,0.36,0.29,58.24,259.81,2556367,William Jackson,22,2019,32,2,00:42:00,ARZ,2,5,CIN,6,10,2560711,SHOTGUN,"1 RB, 0 TE, 4 WR",5,"4 DL, 2 LB, 5 DB",left,2019-10-06T18:20:02.000Z,2019-10-06T18:20:00.000Z,6-0,196,10/27/1992,Houston,CB,CIN,ARI,5,Paul Brown Stadium,"Cincinnati, OH",Outdoor,Twenty Four/Seven Turf,Cloudy,76.0,68,"6 mph, Gusts to 10",SW
63290,2019100601,20191006012065,home,42.52,20.45,1.89,1.58,0.18,68.8,167.7,2557851,Ryan Glasgow,98,2019,32,2,00:42:00,ARZ,2,5,CIN,6,10,2560711,SHOTGUN,"1 RB, 0 TE, 4 WR",5,"4 DL, 2 LB, 5 DB",left,2019-10-06T18:20:02.000Z,2019-10-06T18:20:00.000Z,6-3,302,09/30/1993,Michigan,DT,CIN,ARI,5,Paul Brown Stadium,"Cincinnati, OH",Outdoor,Twenty Four/Seven Turf,Cloudy,76.0,68,"6 mph, Gusts to 10",SW
63291,2019100601,20191006012065,home,45.26,18.58,4.04,1.04,0.42,42.35,100.15,2557901,Carl Lawson,58,2019,32,2,00:42:00,ARZ,2,5,CIN,6,10,2560711,SHOTGUN,"1 RB, 0 TE, 4 WR",5,"4 DL, 2 LB, 5 DB",left,2019-10-06T18:20:02.000Z,2019-10-06T18:20:00.000Z,6-2,265,06/29/1995,Auburn,DE,CIN,ARI,5,Paul Brown Stadium,"Cincinnati, OH",Outdoor,Twenty Four/Seven Turf,Cloudy,76.0,68,"6 mph, Gusts to 10",SW
63292,2019100601,20191006012065,home,42.29,23.49,2.12,0.49,0.21,105.57,105.22,2559003,Josh Tupou,91,2019,32,2,00:42:00,ARZ,2,5,CIN,6,10,2560711,SHOTGUN,"1 RB, 0 TE, 4 WR",5,"4 DL, 2 LB, 5 DB",left,2019-10-06T18:20:02.000Z,2019-10-06T18:20:00.000Z,6-3,345,05/02/1994,Colorado,DT,CIN,ARI,5,Paul Brown Stadium,"Cincinnati, OH",Outdoor,Twenty Four/Seven Turf,Cloudy,76.0,68,"6 mph, Gusts to 10",SW
63293,2019100601,20191006012065,home,29.07,36.6,2.84,0.37,0.28,91.59,302.45,2560970,Jessie Bates,30,2019,32,2,00:42:00,ARZ,2,5,CIN,6,10,2560711,SHOTGUN,"1 RB, 0 TE, 4 WR",5,"4 DL, 2 LB, 5 DB",left,2019-10-06T18:20:02.000Z,2019-10-06T18:20:00.000Z,6-1,200,02/26/1997,Wake Forest,S,CIN,ARI,5,Paul Brown Stadium,"Cincinnati, OH",Outdoor,Twenty Four/Seven Turf,Cloudy,76.0,68,"6 mph, Gusts to 10",SW
