,GameId,PlayId,Team,X,Y,S,A,Dis,Orientation,Dir,NflId,DisplayName,JerseyNumber,Season,YardLine,Quarter,GameClock,PossessionTeam,Down,Distance,FieldPosition,HomeScoreBeforePlay,VisitorScoreBeforePlay,NflIdRusher,OffenseFormation,OffensePersonnel,DefendersInTheBox,DefensePersonnel,PlayDirection,TimeHandoff,TimeSnap,PlayerHeight,PlayerWeight,PlayerBirthDate,PlayerCollegeName,Position,HomeTeamAbbr,VisitorTeamAbbr,Week,Stadium,Location,StadiumType,Turf,GameWeather,Temperature,Humidity,WindSpeed,WindDirection
71126,2019100609,20191006093613,away,62.78,28.07,4.37,2.46,0.44,169.37,177.0,238498,Julian Edelman,11,2019,48,4,12:57:00,NE,2,4,NE,7,26,2543773,SHOTGUN,"1 RB, 1 TE, 3 WR",7,"2 DL, 4 LB, 5 DB",left,2019-10-06T19:42:00.000Z,2019-10-06T19:41:58.000Z,5-10,200,05/22/1986,Kent State,WR,WAS,NE,5,FedExField,"Landover, MD",Outdoor,Grass,Cloudy,70.0,66,8,S
71127,2019100609,20191006093613,away,62.72,21.03,0.47,0.61,0.06,240.56,267.44,497030,Marshall Newhouse,72,2019,48,4,12:57:00,NE,2,4,NE,7,26,2543773,SHOTGUN,"1 RB, 1 TE, 3 WR",7,"2 DL, 4 LB, 5 DB",left,2019-10-06T19:42:00.000Z,2019-10-06T19:41:58.000Z,6-4,328,09/29/1988,Texas Christian,T,WAS,NE,5,FedExField,"Landover, MD",Outdoor,Grass,Cloudy,70.0,66,8,S
71128,2019100609,20191006093613,away,62.34,24.22,2.63,2.1,0.27,215.1,175.95,2495131,Marcus Cannon,61,2019,48,4,12:57:00,NE,2,4,NE,7,26,2543773,SHOTGUN,"1 RB, 1 TE, 3 WR",7,"2 DL, 4 LB, 5 DB",left,2019-10-06T19:42:00.000Z,2019-10-06T19:41:58.000Z,6-6,335,05/06/1988,Texas Christian,T,WAS,NE,5,FedExField,"Landover, MD",Outdoor,Grass,Cloudy,70.0,66,8,S
71129,2019100609,20191006093613,away,67.04,23.29,1.86,1.9,0.17,255.26,113.86,2504211,Tom Brady,12,2019,48,4,12:57:00,NE,2,4,NE,7,26,2543773,SHOTGUN,"1 RB, 1 TE, 3 WR",7,"2 DL, 4 LB, 5 DB",left,2019-10-06T19:42:00.000Z,2019-10-06T19:41:58.000Z,6-4,225,08/03/1977,Michigan,QB,WAS,NE,5,FedExField,"Landover, MD",Outdoor,Grass,Cloudy,70.0,66,8,S
71130,2019100609,20191006093613,away,60.8,10.6,4.43,0.97,0.44,295.66,329.27,2537931,Josh Gordon,10,2019,48,4,12:57:00,NE,2,4,NE,7,26,2543773,SHOTGUN,"1 RB, 1 TE, 3 WR",7,"2 DL, 4 LB, 5 DB",left,2019-10-06T19:42:00.000Z,2019-10-06T19:41:58.000Z,6-3,225,04/13/1991,Baylor,WR,WAS,NE,5,FedExField,"Landover, MD",Outdoor,Grass,Cloudy,70.0,66,8,S
71131,2019100609,20191006093613,away,65.72,23.36,3.86,1.27,0.38,290.02,329.99,2543773,James White,28,2019,48,4,12:57:00,NE,2,4,NE,7,26,2543773,SHOTGUN,"1 RB, 1 TE, 3 WR",7,"2 DL, 4 LB, 5 DB",left,2019-10-06T19:42:00.000Z,2019-10-06T19:41:58.000Z,5-10,205,02/03/1992,Wisconsin,RB,WAS,NE,5,FedExField,"Landover, MD",Outdoor,Grass,Cloudy,70.0,66,8,S
71132,2019100609,20191006093613,away,61.31,23.88,2.85,2.44,0.28,262.2,242.21,2552563,Shaq Mason,69,2019,48,4,12:57:00,NE,2,4,NE,7,26,2543773,SHOTGUN,"1 RB, 1 TE, 3 WR",7,"2 DL, 4 LB, 5 DB",left,2019-10-06T19:42:00.000Z,2019-10-06T19:41:58.000Z,6-1,310,08/28/1993,Georgia Tech,G,WAS,NE,5,FedExField,"Landover, MD",Outdoor,Grass,Cloudy,70.0,66,8,S
71133,2019100609,20191006093613,away,62.16,25.6,3.1,2.84,0.32,234.04,189.82,2553667,Matt LaCosse,83,2019,48,4,12:57:00,NE,2,4,NE,7,26,2543773,SHOTGUN,"1 RB, 1 TE, 3 WR",7,"2 DL, 4 LB, 5 DB",left,2019-10-06T19:42:00.000Z,2019-10-06T19:41:58.000Z,6-6,255,09/21/1992,Illinois,TE,WAS,NE,5,FedExField,"Landover, MD",Outdoor,Grass,Cloudy,70.0,66,8,S
71134,2019100609,20191006093613,away,62.18,22.41,0.46,1.01,0.05,255.73,260.77,2555145,Ted Karras,75,2019,48,4,12:57:00,NE,2,4,NE,7,26,2543773,SHOTGUN,"1 RB, 1 TE, 3 WR",7,"2 DL, 4 LB, 5 DB",left,2019-10-06T19:42:00.000Z,2019-10-06T19:41:58.000Z,6-4,305,03/15/1993,Illinois,C,WAS,NE,5,FedExField,"Landover, MD",Outdoor,Grass,Cloudy,70.0,66,8,S
71135,2019100609,20191006093613,away,63.5,24.73,2.8,2.04,0.29,307.88,350.25,2555281,Joe Thuney,62,2019,48,4,12:57:00,NE,2,4,NE,7,26,2543773,SHOTGUN,"1 RB, 1 TE, 3 WR",7,"2 DL, 4 LB, 5 DB",left,2019-10-06T19:42:00.000Z,2019-10-06T19:41:58.000Z,6-5,308,11/18/1992,North Carolina State,G,WAS,NE,5,FedExField,"Landover, MD",Outdoor,Grass,Cloudy,70.0,66,8,S
71136,2019100609,20191006093613,away,60.44,30.08,6.15,2.4,0.61,229.17,208.84,2562492,Jakobi Meyers,16,2019,48,4,12:57:00,NE,2,4,NE,7,26,2543773,SHOTGUN,"1 RB, 1 TE, 3 WR",7,"2 DL, 4 LB, 5 DB",left,2019-10-06T19:42:00.000Z,2019-10-06T19:41:58.000Z,6-2,200,11/09/1996,North Carolina State,WR,WAS,NE,5,FedExField,"Landover, MD",Outdoor,Grass,Cloudy,70.0,66,8,S
71137,2019100609,20191006093613,home,61.78,25.64,3.25,0.27,0.33,85.24,167.91,2495190,Ryan Kerrigan,91,2019,48,4,12:57:00,NE,2,4,NE,7,26,2543773,SHOTGUN,"1 RB, 1 TE, 3 WR",7,"2 DL, 4 LB, 5 DB",left,2019-10-06T19:42:00.000Z,2019-10-06T19:41:58.000Z,6-4,265,08/16/1988,Purdue,OLB,WAS,NE,5,FedExField,"Landover, MD",Outdoor,Grass,Cloudy,70.0,66,8,S
71138,2019100609,20191006093613,home,58.32,32.27,4.78,0.62,0.47,206.68,216.21,2532920,Josh Norman,24,2019,48,4,12:57:00,NE,2,4,NE,7,26,2543773,SHOTGUN,"1 RB, 1 TE, 3 WR",7,"2 DL, 4 LB, 5 DB",left,2019-10-06T19:42:00.000Z,2019-10-06T19:41:58.000Z,6-0,200,12/15/1987,Coastal Carolina,CB,WAS,NE,5,FedExField,"Landover, MD",Outdoor,Grass,Cloudy,70.0,66,8,S
71139,2019100609,20191006093613,home,60.34,23.32,3.1,1.58,0.3,65.51,357.45,2539978,Jon Bostic,53,2019,48,4,12:57:00,NE,2,4,NE,7,26,2543773,SHOTGUN,"1 RB, 1 TE, 3 WR",7,"2 DL, 4 LB, 5 DB",left,2019-10-06T19:42:00.000Z,2019-10-06T19:41:58.000Z,6-1,245,05/05/1991,Florida,ILB,WAS,NE,5,FedExField,"Landover, MD",Outdoor,Grass,Cloudy,70.0,66,8,S
71140,2019100609,20191006093613,home,62.3,26.83,5.49,2.96,0.54,190.69,156.7,2552454,Landon Collins,20,2019,48,4,12:57:00,NE,2,4,NE,7,26,2543773,SHOTGUN,"1 RB, 1 TE, 3 WR",7,"2 DL, 4 LB, 5 DB",left,2019-10-06T19:42:00.000Z,2019-10-06T19:41:58.000Z,6-0,218,01/10/1994,Alabama,SS,WAS,NE,5,FedExField,"Landover, MD",Outdoor,Grass,Cloudy,70.0,66,8,S
71141,2019100609,20191006093613,home,59.31,9.69,4.34,2.79,0.42,36.74,344.06,2553796,Quinton Dunbar,23,2019,48,4,12:57:00,NE,2,4,NE,7,26,2543773,SHOTGUN,"1 RB, 1 TE, 3 WR",7,"2 DL, 4 LB, 5 DB",left,2019-10-06T19:42:00.000Z,2019-10-06T19:41:58.000Z,6-2,202,07/22/1992,Florida,CB,WAS,NE,5,FedExField,"Landover, MD",Outdoor,Grass,Cloudy,70.0,66,8,S
71142,2019100609,20191006093613,home,62.18,23.73,2.38,0.46,0.24,209.05,162.86,2555240,Matthew Ioannidis,98,2019,48,4,12:57:00,NE,2,4,NE,7,26,2543773,SHOTGUN,"1 RB, 1 TE, 3 WR",7,"2 DL, 4 LB, 5 DB",left,2019-10-06T19:42:00.000Z,2019-10-06T19:41:58.000Z,6-3,310,01/11/1994,Temple,DE,WAS,NE,5,FedExField,"Landover, MD",Outdoor,Grass,Cloudy,70.0,66,8,S
71143,2019100609,20191006093613,home,61.53,22.24,0.5,2.37,0.05,77.93,294.57,2557844,Jonathan Allen,93,2019,48,4,12:57:00,NE,2,4,NE,7,26,2543773,SHOTGUN,"1 RB, 1 TE, 3 WR",7,"2 DL, 4 LB, 5 DB",left,2019-10-06T19:42:00.000Z,2019-10-06T19:41:58.000Z,6-3,300,01/16/1995,Alabama,DE,WAS,NE,5,FedExField,"Landover, MD",Outdoor,Grass,Cloudy,70.0,66,8,S
71144,2019100609,20191006093613,home,45.1,23.1,1.96,1.19,0.2,83.95,270.36,2558133,Montae Nicholson,35,2019,48,4,12:57:00,NE,2,4,NE,7,26,2543773,SHOTGUN,"1 RB, 1 TE, 3 WR",7,"2 DL, 4 LB, 5 DB",left,2019-10-06T19:42:00.000Z,2019-10-06T19:41:58.000Z,6-2,212,12/04/1995,Michigan State,FS,WAS,NE,5,FedExField,"Landover, MD",Outdoor,Grass,Cloudy,70.0,66,8,S
71145,2019100609,20191006093613,home,59.57,29.51,4.66,1.96,0.45,110.54,199.84,2558136,Fabian Moreau,31,2019,48,4,12:57:00,NE,2,4,NE,7,26,2543773,SHOTGUN,"1 RB, 1 TE, 3 WR",7,"2 DL, 4 LB, 5 DB",left,2019-10-06T19:42:00.000Z,2019-10-06T19:41:58.000Z,6-0,204,04/09/1994,UCLA,CB,WAS,NE,5,FedExField,"Landover, MD",Outdoor,Grass,Cloudy,70.0,66,8,S
71146,2019100609,20191006093613,home,61.66,19.45,0.52,2.5,0.06,43.79,29.46,2562749,Montez Sweat,90,2019,48,4,12:57:00,NE,2,4,NE,7,26,2543773,SHOTGUN,"1 RB, 1 TE, 3 WR",7,"2 DL, 4 LB, 5 DB",left,2019-10-06T19:42:00.000Z,2019-10-06T19:41:58.000Z,6-6,262,09/04/1996,Mississippi State,LB,WAS,NE,5,FedExField,"Landover, MD",Outdoor,Grass,Cloudy,70.0,66,8,S
71147,2019100609,20191006093613,home,59.52,26.53,2.42,0.85,0.24,84.31,133.51,2562872,Cole Holcomb,55,2019,48,4,12:57:00,NE,2,4,NE,7,26,2543773,SHOTGUN,"1 RB, 1 TE, 3 WR",7,"2 DL, 4 LB, 5 DB",left,2019-10-06T19:42:00.000Z,2019-10-06T19:41:58.000Z,6-1,240,07/30/1996,North Carolina,LB,WAS,NE,5,FedExField,"Landover, MD",Outdoor,Grass,Cloudy,70.0,66,8,S
