,GameId,PlayId,Team,X,Y,S,A,Dis,Orientation,Dir,NflId,DisplayName,JerseyNumber,Season,YardLine,Quarter,GameClock,PossessionTeam,Down,Distance,FieldPosition,HomeScoreBeforePlay,VisitorScoreBeforePlay,NflIdRusher,OffenseFormation,OffensePersonnel,DefendersInTheBox,DefensePersonnel,PlayDirection,TimeHandoff,TimeSnap,PlayerHeight,PlayerWeight,PlayerBirthDate,PlayerCollegeName,Position,HomeTeamAbbr,VisitorTeamAbbr,Week,Stadium,Location,StadiumType,Turf,GameWeather,Temperature,Humidity,WindSpeed,WindDirection
46970,2019092900,20190929000845,away,83.01,24.22,1.66,0.3,0.17,148.71,139.72,497048,Rodger Saffold,76,2019,27,1,03:52:00,TEN,1,10,ATL,7,7,2556075,SINGLEBACK,"1 RB, 2 TE, 2 WR",8,"4 DL, 3 LB, 4 DB",right,2019-09-29T17:34:07.000Z,2019-09-29T17:34:05.000Z,6-5,325,06/06/1988,Indiana,G,ATL,TEN,4,Mercedes-Benz Stadium,"Atlanta, GA","Domed, closed",FieldTurf,,,0,,
46971,2019092900,20190929000845,away,82.81,23.37,0.4,0.58,0.04,158.61,114.66,2532883,Ben Jones,60,2019,27,1,03:52:00,TEN,1,10,ATL,7,7,2556075,SINGLEBACK,"1 RB, 2 TE, 2 WR",8,"4 DL, 3 LB, 4 DB",right,2019-09-29T17:34:07.000Z,2019-09-29T17:34:05.000Z,6-3,308,07/02/1989,Georgia,C,ATL,TEN,4,Mercedes-Benz Stadium,"Atlanta, GA","Domed, closed",FieldTurf,,,0,,
46972,2019092900,20190929000845,away,83.44,24.8,2.42,1.21,0.25,58.65,139.58,2535131,Dennis Kelly,71,2019,27,1,03:52:00,TEN,1,10,ATL,7,7,2556075,SINGLEBACK,"1 RB, 2 TE, 2 WR",8,"4 DL, 3 LB, 4 DB",right,2019-09-29T17:34:07.000Z,2019-09-29T17:34:05.000Z,6-8,321,01/16/1990,Purdue,OT,ATL,TEN,4,Mercedes-Benz Stadium,"Atlanta, GA","Domed, closed",FieldTurf,,,0,,
46973,2019092900,20190929000845,away,82.51,26.66,2.52,1.85,0.24,52.07,167.17,2552401,MyCole Pruitt,85,2019,27,1,03:52:00,TEN,1,10,ATL,7,7,2556075,SINGLEBACK,"1 RB, 2 TE, 2 WR",8,"4 DL, 3 LB, 4 DB",right,2019-09-29T17:34:07.000Z,2019-09-29T17:34:05.000Z,6-2,243,03/24/1992,Southern Illinois,TE,ATL,TEN,4,Mercedes-Benz Stadium,"Atlanta, GA","Domed, closed",FieldTurf,,,0,,
46974,2019092900,20190929000845,away,79.23,23.67,4.96,2.23,0.48,49.6,267.95,2552466,Marcus Mariota,8,2019,27,1,03:52:00,TEN,1,10,ATL,7,7,2556075,SINGLEBACK,"1 RB, 2 TE, 2 WR",8,"4 DL, 3 LB, 4 DB",right,2019-09-29T17:34:07.000Z,2019-09-29T17:34:05.000Z,6-4,222,10/30/1993,Oregon,QB,ATL,TEN,4,Mercedes-Benz Stadium,"Atlanta, GA","Domed, closed",FieldTurf,,,0,,
46975,2019092900,20190929000845,away,81.93,18.1,2.38,1.49,0.24,188.17,182.9,2555279,Jack Conklin,78,2019,27,1,03:52:00,TEN,1,10,ATL,7,7,2556075,SINGLEBACK,"1 RB, 2 TE, 2 WR",8,"4 DL, 3 LB, 4 DB",right,2019-09-29T17:34:07.000Z,2019-09-29T17:34:05.000Z,6-6,308,08/17/1994,Michigan State,T,ATL,TEN,4,Mercedes-Benz Stadium,"Atlanta, GA","Domed, closed",FieldTurf,,,0,,
46976,2019092900,20190929000845,away,84.14,14.42,3.82,1.89,0.38,100.31,121.01,2555317,Tajae Sharpe,19,2019,27,1,03:52:00,TEN,1,10,ATL,7,7,2556075,SINGLEBACK,"1 RB, 2 TE, 2 WR",8,"4 DL, 3 LB, 4 DB",right,2019-09-29T17:34:07.000Z,2019-09-29T17:34:05.000Z,6-2,194,12/23/1994,Massachusetts,WR,ATL,TEN,4,Mercedes-Benz Stadium,"Atlanta, GA","Domed, closed",FieldTurf,,,0,,
46977,2019092900,20190929000845,away,78.01,24.8,4.19,2.26,0.41,71.5,69.4,2556075,Derrick Henry,22,2019,27,1,03:52:00,TEN,1,10,ATL,7,7,2556075,SINGLEBACK,"1 RB, 2 TE, 2 WR",8,"4 DL, 3 LB, 4 DB",right,2019-09-29T17:34:07.000Z,2019-09-29T17:34:05.000Z,6-3,247,01/04/1994,Alabama,RB,ATL,TEN,4,Mercedes-Benz Stadium,"Atlanta, GA","Domed, closed",FieldTurf,,,0,,
46978,2019092900,20190929000845,away,79.38,19.02,8.61,1.75,0.86,164.88,180.59,2557848,Corey Davis,84,2019,27,1,03:52:00,TEN,1,10,ATL,7,7,2556075,SINGLEBACK,"1 RB, 2 TE, 2 WR",8,"4 DL, 3 LB, 4 DB",right,2019-09-29T17:34:07.000Z,2019-09-29T17:34:05.000Z,6-3,209,01/11/1995,Western Michigan,WR,ATL,TEN,4,Mercedes-Benz Stadium,"Atlanta, GA","Domed, closed",FieldTurf,,,0,,
46979,2019092900,20190929000845,away,82.05,27.1,2.8,0.46,0.28,135.21,159.79,2558207,Jonnu Smith,81,2019,27,1,03:52:00,TEN,1,10,ATL,7,7,2556075,SINGLEBACK,"1 RB, 2 TE, 2 WR",8,"4 DL, 3 LB, 4 DB",right,2019-09-29T17:34:07.000Z,2019-09-29T17:34:05.000Z,6-3,248,08/22/1995,Florida International,TE,ATL,TEN,4,Mercedes-Benz Stadium,"Atlanta, GA","Domed, closed",FieldTurf,,,0,,
46980,2019092900,20190929000845,away,82.0,21.01,0.64,1.25,0.07,188.93,208.64,2562641,Nate Davis,64,2019,27,1,03:52:00,TEN,1,10,ATL,7,7,2556075,SINGLEBACK,"1 RB, 2 TE, 2 WR",8,"4 DL, 3 LB, 4 DB",right,2019-09-29T17:34:07.000Z,2019-09-29T17:34:05.000Z,6-3,316,09/23/1996,North Carolina-Charlotte,G,ATL,TEN,4,Mercedes-Benz Stadium,"Atlanta, GA","Domed, closed",FieldTurf,,,0,,
46981,2019092900,20190929000845,home,81.93,20.05,1.46,1.59,0.15,333.13,237.73,2495116,Allen Bailey,93,2019,27,1,03:52:00,TEN,1,10,ATL,7,7,2556075,SINGLEBACK,"1 RB, 2 TE, 2 WR",8,"4 DL, 3 LB, 4 DB",right,2019-09-29T17:34:07.000Z,2019-09-29T17:34:05.000Z,6-3,288,03/25/1989,Miami,DE,ATL,TEN,4,Mercedes-Benz Stadium,"Atlanta, GA","Domed, closed",FieldTurf,,,0,,
46982,2019092900,20190929000845,home,91.31,12.58,2.61,2.3,0.25,283.82,116.22,2539334,Desmond Trufant,21,2019,27,1,03:52:00,TEN,1,10,ATL,7,7,2556075,SINGLEBACK,"1 RB, 2 TE, 2 WR",8,"4 DL, 3 LB, 4 DB",right,2019-09-29T17:34:07.000Z,2019-09-29T17:34:05.000Z,6-0,190,09/10/1990,Washington,CB,ATL,TEN,4,Mercedes-Benz Stadium,"Atlanta, GA","Domed, closed",FieldTurf,,,0,,
46983,2019092900,20190929000845,home,86.8,15.04,4.59,0.42,0.46,255.09,182.06,2541431,Kemal Ishmael,36,2019,27,1,03:52:00,TEN,1,10,ATL,7,7,2556075,SINGLEBACK,"1 RB, 2 TE, 2 WR",8,"4 DL, 3 LB, 4 DB",right,2019-09-29T17:34:07.000Z,2019-09-29T17:34:05.000Z,6-0,206,05/06/1991,Central Florida,FS,ATL,TEN,4,Mercedes-Benz Stadium,"Atlanta, GA","Domed, closed",FieldTurf,,,0,,
46984,2019092900,20190929000845,home,96.38,27.61,1.0,2.92,0.1,250.67,210.36,2543850,Ricardo Allen,37,2019,27,1,03:52:00,TEN,1,10,ATL,7,7,2556075,SINGLEBACK,"1 RB, 2 TE, 2 WR",8,"4 DL, 3 LB, 4 DB",right,2019-09-29T17:34:07.000Z,2019-09-29T17:34:05.000Z,5-9,186,12/18/1991,Purdue,SS,ATL,TEN,4,Mercedes-Benz Stadium,"Atlanta, GA","Domed, closed",FieldTurf,,,0,,
46985,2019092900,20190929000845,home,82.24,16.98,3.15,2.69,0.31,313.52,209.45,2552301,Vic Beasley,44,2019,27,1,03:52:00,TEN,1,10,ATL,7,7,2556075,SINGLEBACK,"1 RB, 2 TE, 2 WR",8,"4 DL, 3 LB, 4 DB",right,2019-09-29T17:34:07.000Z,2019-09-29T17:34:05.000Z,6-3,246,07/08/1992,Clemson,OLB,ATL,TEN,4,Mercedes-Benz Stadium,"Atlanta, GA","Domed, closed",FieldTurf,,,0,,
46986,2019092900,20190929000845,home,83.92,24.2,1.64,0.9,0.16,214.6,157.94,2552327,Grady Jarrett,97,2019,27,1,03:52:00,TEN,1,10,ATL,7,7,2556075,SINGLEBACK,"1 RB, 2 TE, 2 WR",8,"4 DL, 3 LB, 4 DB",right,2019-09-29T17:34:07.000Z,2019-09-29T17:34:05.000Z,6-0,305,04/28/1993,Clemson,DT,ATL,TEN,4,Mercedes-Benz Stadium,"Atlanta, GA","Domed, closed",FieldTurf,,,0,,
46987,2019092900,20190929000845,home,83.15,22.83,0.31,1.61,0.03,339.93,156.21,2552329,Tyeler Davison,96,2019,27,1,03:52:00,TEN,1,10,ATL,7,7,2556075,SINGLEBACK,"1 RB, 2 TE, 2 WR",8,"4 DL, 3 LB, 4 DB",right,2019-09-29T17:34:07.000Z,2019-09-29T17:34:05.000Z,6-2,309,09/03/1992,Fresno State,DT,ATL,TEN,4,Mercedes-Benz Stadium,"Atlanta, GA","Domed, closed",FieldTurf,,,0,,
46988,2019092900,20190929000845,home,85.56,21.11,3.94,1.79,0.4,286.61,224.17,2555162,Deion Jones,45,2019,27,1,03:52:00,TEN,1,10,ATL,7,7,2556075,SINGLEBACK,"1 RB, 2 TE, 2 WR",8,"4 DL, 3 LB, 4 DB",right,2019-09-29T17:34:07.000Z,2019-09-29T17:34:05.000Z,6-1,227,11/04/1994,Louisiana State,MLB,ATL,TEN,4,Mercedes-Benz Stadium,"Atlanta, GA","Domed, closed",FieldTurf,,,0,,
46989,2019092900,20190929000845,home,85.77,25.22,2.98,3.56,0.3,258.55,220.75,2555255,De'Vondre Campbell,59,2019,27,1,03:52:00,TEN,1,10,ATL,7,7,2556075,SINGLEBACK,"1 RB, 2 TE, 2 WR",8,"4 DL, 3 LB, 4 DB",right,2019-09-29T17:34:07.000Z,2019-09-29T17:34:05.000Z,6-3,232,07/01/1993,Minnesota,OLB,ATL,TEN,4,Mercedes-Benz Stadium,"Atlanta, GA","Domed, closed",FieldTurf,,,0,,
46990,2019092900,20190929000845,home,88.12,32.39,3.53,2.4,0.34,208.77,225.14,2560830,Isaiah Oliver,26,2019,27,1,03:52:00,TEN,1,10,ATL,7,7,2556075,SINGLEBACK,"1 RB, 2 TE, 2 WR",8,"4 DL, 3 LB, 4 DB",right,2019-09-29T17:34:07.000Z,2019-09-29T17:34:05.000Z,6-0,210,09/30/1996,Colorado,CB,ATL,TEN,4,Mercedes-Benz Stadium,"Atlanta, GA","Domed, closed",FieldTurf,,,0,,
46991,2019092900,20190929000845,home,82.89,27.17,1.93,2.16,0.19,218.83,183.62,2562249,John Cominsky,50,2019,27,1,03:52:00,TEN,1,10,ATL,7,7,2556075,SINGLEBACK,"1 RB, 2 TE, 2 WR",8,"4 DL, 3 LB, 4 DB",right,2019-09-29T17:34:07.000Z,2019-09-29T17:34:05.000Z,6-5,285,11/22/1995,"Charleston, W. Va.",DE,ATL,TEN,4,Mercedes-Benz Stadium,"Atlanta, GA","Domed, closed",FieldTurf,,,0,,
