,GameId,PlayId,Team,X,Y,S,A,Dis,Orientation,Dir,NflId,DisplayName,JerseyNumber,Season,YardLine,Quarter,GameClock,PossessionTeam,Down,Distance,FieldPosition,HomeScoreBeforePlay,VisitorScoreBeforePlay,NflIdRusher,OffenseFormation,OffensePersonnel,DefendersInTheBox,DefensePersonnel,PlayDirection,TimeHandoff,TimeSnap,PlayerHeight,PlayerWeight,PlayerBirthDate,PlayerCollegeName,Position,HomeTeamAbbr,VisitorTeamAbbr,Week,Stadium,Location,StadiumType,Turf,GameWeather,Temperature,Humidity,WindSpeed,WindDirection
56452,2019092909,20190929093552,away,27.14,31.79,2.48,1.92,0.24,99.57,120.57,2507716,Demar Dotson,69,2019,15,3,00:44:00,TB,1,10,LA,20,31,2560770,I_FORM,"1 RB, 2 TE, 2 WR",7,"4 DL, 3 LB, 4 DB",left,2019-09-29T22:37:05.000Z,2019-09-29T22:37:04.000Z,6-9,315,10/11/1985,Southern Mississippi,OT,LA,TB,4,Los Angeles Memorial Coliseum,"Los Angeles, Calif.",Outdoor,Grass,Mostly Sunny,74.0,41,2,SW
56453,2019092909,20190929093552,away,24.21,30.61,1.58,0.96,0.17,237.18,282.38,2541159,Ryan Jensen,66,2019,15,3,00:44:00,TB,1,10,LA,20,31,2560770,I_FORM,"1 RB, 2 TE, 2 WR",7,"4 DL, 3 LB, 4 DB",left,2019-09-29T22:37:05.000Z,2019-09-29T22:37:04.000Z,6-4,319,05/27/1991,Colorado State-Pueblo,C,LA,TB,4,Los Angeles Memorial Coliseum,"Los Angeles, Calif.",Outdoor,Grass,Mostly Sunny,74.0,41,2,SW
56454,2019092909,20190929093552,away,25.47,43.48,0.9,1.34,0.09,174.16,234.2,2543468,Mike Evans,13,2019,15,3,00:44:00,TB,1,10,LA,20,31,2560770,I_FORM,"1 RB, 2 TE, 2 WR",7,"4 DL, 3 LB, 4 DB",left,2019-09-29T22:37:05.000Z,2019-09-29T22:37:04.000Z,6-5,231,08/21/1993,Texas A&M,WR,LA,TB,4,Los Angeles Memorial Coliseum,"Los Angeles, Calif.",Outdoor,Grass,Mostly Sunny,74.0,41,2,SW
56455,2019092909,20190929093552,away,29.08,29.34,3.51,2.19,0.35,137.63,88.28,2552033,Jameis Winston,3,2019,15,3,00:44:00,TB,1,10,LA,20,31,2560770,I_FORM,"1 RB, 2 TE, 2 WR",7,"4 DL, 3 LB, 4 DB",left,2019-09-29T22:37:05.000Z,2019-09-29T22:37:04.000Z,6-4,231,01/06/1994,Florida State,QB,LA,TB,4,Los Angeles Memorial Coliseum,"Los Angeles, Calif.",Outdoor,Grass,Mostly Sunny,74.0,41,2,SW
56456,2019092909,20190929093552,away,25.62,29.59,0.97,0.71,0.1,269.73,0.38,2552332,Ali Marpet,74,2019,15,3,00:44:00,TB,1,10,LA,20,31,2560770,I_FORM,"1 RB, 2 TE, 2 WR",7,"4 DL, 3 LB, 4 DB",left,2019-09-29T22:37:05.000Z,2019-09-29T22:37:04.000Z,6-4,307,04/17/1993,Hobart,G,LA,TB,4,Los Angeles Memorial Coliseum,"Los Angeles, Calif.",Outdoor,Grass,Mostly Sunny,74.0,41,2,SW
56457,2019092909,20190929093552,away,25.05,27.82,1.25,0.28,0.14,307.46,303.08,2552460,Donovan Smith,76,2019,15,3,00:44:00,TB,1,10,LA,20,31,2560770,I_FORM,"1 RB, 2 TE, 2 WR",7,"4 DL, 3 LB, 4 DB",left,2019-09-29T22:37:05.000Z,2019-09-29T22:37:04.000Z,6-6,338,06/23/1993,Penn State,T,LA,TB,4,Los Angeles Memorial Coliseum,"Los Angeles, Calif.",Outdoor,Grass,Mostly Sunny,74.0,41,2,SW
56458,2019092909,20190929093552,away,26.05,27.64,2.58,1.54,0.26,234.9,257.45,2557856,O.J. Howard,80,2019,15,3,00:44:00,TB,1,10,LA,20,31,2560770,I_FORM,"1 RB, 2 TE, 2 WR",7,"4 DL, 3 LB, 4 DB",left,2019-09-29T22:37:05.000Z,2019-09-29T22:37:04.000Z,6-6,250,11/18/1994,Alabama,TE,LA,TB,4,Los Angeles Memorial Coliseum,"Los Angeles, Calif.",Outdoor,Grass,Mostly Sunny,74.0,41,2,SW
56459,2019092909,20190929093552,away,23.15,25.3,4.5,1.73,0.44,282.52,296.65,2558105,Chris Godwin,12,2019,15,3,00:44:00,TB,1,10,LA,20,31,2560770,I_FORM,"1 RB, 2 TE, 2 WR",7,"4 DL, 3 LB, 4 DB",left,2019-09-29T22:37:05.000Z,2019-09-29T22:37:04.000Z,6-1,209,02/27/1996,Penn State,WR,LA,TB,4,Los Angeles Memorial Coliseum,"Los Angeles, Calif.",Outdoor,Grass,Mostly Sunny,74.0,41,2,SW
56460,2019092909,20190929093552,away,25.13,27.23,3.1,0.76,0.3,318.12,303.75,2559044,Antony Auclair,82,2019,15,3,00:44:00,TB,1,10,LA,20,31,2560770,I_FORM,"1 RB, 2 TE, 2 WR",7,"4 DL, 3 LB, 4 DB",left,2019-09-29T22:37:05.000Z,2019-09-29T22:37:04.000Z,6-6,256,05/28/1993,"Laval, Can.",TE,LA,TB,4,Los Angeles Memorial Coliseum,"Los Angeles, Calif.",Outdoor,Grass,Mostly Sunny,74.0,41,2,SW
56461,2019092909,20190929093552,away,29.46,28.46,4.45,1.4,0.44,229.54,249.35,2560770,Ronald Jones,27,2019,15,3,00:44:00,TB,1,10,LA,20,31,2560770,I_FORM,"1 RB, 2 TE, 2 WR",7,"4 DL, 3 LB, 4 DB",left,2019-09-29T22:37:05.000Z,2019-09-29T22:37:04.000Z,5-11,208,08/03/1997,Southern California,RB,LA,TB,4,Los Angeles Memorial Coliseum,"Los Angeles, Calif.",Outdoor,Grass,Mostly Sunny,74.0,41,2,SW
56462,2019092909,20190929093552,away,25.21,31.64,0.26,0.91,0.02,330.14,181.99,2560991,Alex Cappa,65,2019,15,3,00:44:00,TB,1,10,LA,20,31,2560770,I_FORM,"1 RB, 2 TE, 2 WR",7,"4 DL, 3 LB, 4 DB",left,2019-09-29T22:37:05.000Z,2019-09-29T22:37:04.000Z,6-6,305,01/27/1995,Humboldt State,G,LA,TB,4,Los Angeles Memorial Coliseum,"Los Angeles, Calif.",Outdoor,Grass,Mostly Sunny,74.0,41,2,SW
56463,2019092909,20190929093552,home,15.32,42.22,1.49,1.57,0.15,159.25,212.58,1302,Aqib Talib,21,2019,15,3,00:44:00,TB,1,10,LA,20,31,2560770,I_FORM,"1 RB, 2 TE, 2 WR",7,"4 DL, 3 LB, 4 DB",left,2019-09-29T22:37:05.000Z,2019-09-29T22:37:04.000Z,6-1,209,02/13/1986,Kansas,CB,LA,TB,4,Los Angeles Memorial Coliseum,"Los Angeles, Calif.",Outdoor,Grass,Mostly Sunny,74.0,41,2,SW
56464,2019092909,20190929093552,home,26.21,25.42,4.66,2.11,0.46,2.36,28.18,80431,Clay Matthews,52,2019,15,3,00:44:00,TB,1,10,LA,20,31,2560770,I_FORM,"1 RB, 2 TE, 2 WR",7,"4 DL, 3 LB, 4 DB",left,2019-09-29T22:37:05.000Z,2019-09-29T22:37:04.000Z,6-3,255,05/14/1986,Southern California,OLB,LA,TB,4,Los Angeles Memorial Coliseum,"Los Angeles, Calif.",Outdoor,Grass,Mostly Sunny,74.0,41,2,SW
56465,2019092909,20190929093552,home,21.84,32.26,2.26,3.1,0.25,143.6,127.1,2495775,Eric Weddle,32,2019,15,3,00:44:00,TB,1,10,LA,20,31,2560770,I_FORM,"1 RB, 2 TE, 2 WR",7,"4 DL, 3 LB, 4 DB",left,2019-09-29T22:37:05.000Z,2019-09-29T22:37:04.000Z,5-11,195,01/04/1985,Utah,FS,LA,TB,4,Los Angeles Memorial Coliseum,"Los Angeles, Calif.",Outdoor,Grass,Mostly Sunny,74.0,41,2,SW
56466,2019092909,20190929093552,home,24.67,27.93,1.5,0.9,0.16,99.23,344.74,2533050,Michael Brockers,90,2019,15,3,00:44:00,TB,1,10,LA,20,31,2560770,I_FORM,"1 RB, 2 TE, 2 WR",7,"4 DL, 3 LB, 4 DB",left,2019-09-29T22:37:05.000Z,2019-09-29T22:37:04.000Z,6-5,305,12/21/1990,Louisiana State,DT,LA,TB,4,Los Angeles Memorial Coliseum,"Los Angeles, Calif.",Outdoor,Grass,Mostly Sunny,74.0,41,2,SW
56467,2019092909,20190929093552,home,25.09,32.26,0.63,0.2,0.06,136.4,56.72,2543485,Aaron Donald,99,2019,15,3,00:44:00,TB,1,10,LA,20,31,2560770,I_FORM,"1 RB, 2 TE, 2 WR",7,"4 DL, 3 LB, 4 DB",left,2019-09-29T22:37:05.000Z,2019-09-29T22:37:04.000Z,6-1,280,05/23/1991,Pittsburgh,DT,LA,TB,4,Los Angeles Memorial Coliseum,"Los Angeles, Calif.",Outdoor,Grass,Mostly Sunny,74.0,41,2,SW
56468,2019092909,20190929093552,home,23.17,21.69,2.23,1.31,0.23,18.26,36.37,2552488,Marcus Peters,22,2019,15,3,00:44:00,TB,1,10,LA,20,31,2560770,I_FORM,"1 RB, 2 TE, 2 WR",7,"4 DL, 3 LB, 4 DB",left,2019-09-29T22:37:05.000Z,2019-09-29T22:37:04.000Z,6-0,197,01/09/1993,Washington,CB,LA,TB,4,Los Angeles Memorial Coliseum,"Los Angeles, Calif.",Outdoor,Grass,Mostly Sunny,74.0,41,2,SW
56469,2019092909,20190929093552,home,27.92,32.43,4.33,1.11,0.45,126.55,133.44,2553431,Dante Fowler,56,2019,15,3,00:44:00,TB,1,10,LA,20,31,2560770,I_FORM,"1 RB, 2 TE, 2 WR",7,"4 DL, 3 LB, 4 DB",left,2019-09-29T22:37:05.000Z,2019-09-29T22:37:04.000Z,6-3,255,08/03/1994,Florida,OLB,LA,TB,4,Los Angeles Memorial Coliseum,"Los Angeles, Calif.",Outdoor,Grass,Mostly Sunny,74.0,41,2,SW
56470,2019092909,20190929093552,home,22.39,30.28,1.28,1.08,0.13,111.02,143.37,2556593,Cory Littleton,58,2019,15,3,00:44:00,TB,1,10,LA,20,31,2560770,I_FORM,"1 RB, 2 TE, 2 WR",7,"4 DL, 3 LB, 4 DB",left,2019-09-29T22:37:05.000Z,2019-09-29T22:37:04.000Z,6-3,228,11/18/1993,Washington,ILB,LA,TB,4,Los Angeles Memorial Coliseum,"Los Angeles, Calif.",Outdoor,Grass,Mostly Sunny,74.0,41,2,SW
56471,2019092909,20190929093552,home,15.92,26.72,1.64,1.58,0.16,100.38,12.27,2558183,John Johnson,43,2019,15,3,00:44:00,TB,1,10,LA,20,31,2560770,I_FORM,"1 RB, 2 TE, 2 WR",7,"4 DL, 3 LB, 4 DB",left,2019-09-29T22:37:05.000Z,2019-09-29T22:37:04.000Z,6-0,209,12/19/1995,Boston College,SS,LA,TB,4,Los Angeles Memorial Coliseum,"Los Angeles, Calif.",Outdoor,Grass,Mostly Sunny,74.0,41,2,SW
56472,2019092909,20190929093552,home,24.84,29.44,0.63,0.83,0.06,62.98,43.26,2561079,Sebastian Joseph-Day,69,2019,15,3,00:44:00,TB,1,10,LA,20,31,2560770,I_FORM,"1 RB, 2 TE, 2 WR",7,"4 DL, 3 LB, 4 DB",left,2019-09-29T22:37:05.000Z,2019-09-29T22:37:04.000Z,6-4,310,03/21/1995,Rutgers,DT,LA,TB,4,Los Angeles Memorial Coliseum,"Los Angeles, Calif.",Outdoor,Grass,Mostly Sunny,74.0,41,2,SW
56473,2019092909,20190929093552,home,23.17,26.76,2.27,0.38,0.22,65.98,85.25,2563313,Troy Reeder,51,2019,15,3,00:44:00,TB,1,10,LA,20,31,2560770,I_FORM,"1 RB, 2 TE, 2 WR",7,"4 DL, 3 LB, 4 DB",left,2019-09-29T22:37:05.000Z,2019-09-29T22:37:04.000Z,6-3,245,09/13/1994,Delaware,LB,LA,TB,4,Los Angeles Memorial Coliseum,"Los Angeles, Calif.",Outdoor,Grass,Mostly Sunny,74.0,41,2,SW
