,GameId,PlayId,Team,X,Y,S,A,Dis,Orientation,Dir,NflId,DisplayName,JerseyNumber,Season,YardLine,Quarter,GameClock,PossessionTeam,Down,Distance,FieldPosition,HomeScoreBeforePlay,VisitorScoreBeforePlay,NflIdRusher,OffenseFormation,OffensePersonnel,DefendersInTheBox,DefensePersonnel,PlayDirection,TimeHandoff,TimeSnap,PlayerHeight,PlayerWeight,PlayerBirthDate,PlayerCollegeName,Position,HomeTeamAbbr,VisitorTeamAbbr,Week,Stadium,Location,StadiumType,Turf,GameWeather,Temperature,Humidity,WindSpeed,WindDirection
49478,2019092902,20190929023614,away,64.52,18.49,2.31,0.58,0.23,310.9,295.3,71251,Patrick Chung,23,2019,47,3,00:12:00,BUF,1,10,NE,10,16,2506404,SINGLEBACK,"1 RB, 3 TE, 1 WR",8,"3 DL, 4 LB, 4 DB",right,2019-09-29T19:34:02.000Z,2019-09-29T19:34:01.000Z,5-11,215,08/19/1987,Oregon,SS,BUF,NE,4,New Era Field,Orchard Park NY,Outdoors,A-Turf Titan,Mostly cloudy,58.0,71,10,E
49479,2019092902,20190929023614,away,63.66,16.18,3.47,2.01,0.34,349.22,324.11,89756,Jason McCourty,30,2019,47,3,00:12:00,BUF,1,10,NE,10,16,2506404,SINGLEBACK,"1 RB, 3 TE, 1 WR",8,"3 DL, 4 LB, 4 DB",right,2019-09-29T19:34:02.000Z,2019-09-29T19:34:01.000Z,5-11,195,08/13/1987,Rutgers,CB,BUF,NE,4,New Era Field,Orchard Park NY,Outdoors,A-Turf Titan,Mostly cloudy,58.0,71,10,E
49480,2019092902,20190929023614,away,79.05,24.27,1.23,1.06,0.12,248.5,96.3,494287,Devin McCourty,32,2019,47,3,00:12:00,BUF,1,10,NE,10,16,2506404,SINGLEBACK,"1 RB, 3 TE, 1 WR",8,"3 DL, 4 LB, 4 DB",right,2019-09-29T19:34:02.000Z,2019-09-29T19:34:01.000Z,5-10,195,08/13/1987,Rutgers,FS,BUF,NE,4,New Era Field,Orchard Park NY,Outdoors,A-Turf Titan,Mostly cloudy,58.0,71,10,E
49481,2019092902,20190929023614,away,62.5,20.65,0.9,1.34,0.09,269.63,350.49,2495481,Lawrence Guy,93,2019,47,3,00:12:00,BUF,1,10,NE,10,16,2506404,SINGLEBACK,"1 RB, 3 TE, 1 WR",8,"3 DL, 4 LB, 4 DB",right,2019-09-29T19:34:02.000Z,2019-09-29T19:34:01.000Z,6-4,315,03/17/1990,Arizona State,DT,BUF,NE,4,New Era Field,Orchard Park NY,Outdoors,A-Turf Titan,Mostly cloudy,58.0,71,10,E
49482,2019092902,20190929023614,away,69.83,36.45,1.04,0.36,0.08,212.22,83.2,2533062,Stephon Gilmore,24,2019,47,3,00:12:00,BUF,1,10,NE,10,16,2506404,SINGLEBACK,"1 RB, 3 TE, 1 WR",8,"3 DL, 4 LB, 4 DB",right,2019-09-29T19:34:02.000Z,2019-09-29T19:34:01.000Z,6-1,202,09/19/1990,South Carolina,CB,BUF,NE,4,New Era Field,Orchard Park NY,Outdoors,A-Turf Titan,Mostly cloudy,58.0,71,10,E
49483,2019092902,20190929023614,away,61.56,26.36,2.48,2.42,0.25,265.64,233.35,2539311,Jamie Collins,58,2019,47,3,00:12:00,BUF,1,10,NE,10,16,2506404,SINGLEBACK,"1 RB, 3 TE, 1 WR",8,"3 DL, 4 LB, 4 DB",right,2019-09-29T19:34:02.000Z,2019-09-29T19:34:01.000Z,6-3,255,10/20/1989,Southern Mississippi,OLB,BUF,NE,4,New Era Field,Orchard Park NY,Outdoors,A-Turf Titan,Mostly cloudy,58.0,71,10,E
49484,2019092902,20190929023614,away,60.47,20.07,5.26,2.0,0.52,317.91,325.96,2543699,Kyle Van Noy,53,2019,47,3,00:12:00,BUF,1,10,NE,10,16,2506404,SINGLEBACK,"1 RB, 3 TE, 1 WR",8,"3 DL, 4 LB, 4 DB",right,2019-09-29T19:34:02.000Z,2019-09-29T19:34:01.000Z,6-3,250,03/26/1991,Brigham Young,OLB,BUF,NE,4,New Era Field,Orchard Park NY,Outdoors,A-Turf Titan,Mostly cloudy,58.0,71,10,E
49485,2019092902,20190929023614,away,61.65,22.32,1.68,1.2,0.19,315.25,294.94,2552325,Danny Shelton,71,2019,47,3,00:12:00,BUF,1,10,NE,10,16,2506404,SINGLEBACK,"1 RB, 3 TE, 1 WR",8,"3 DL, 4 LB, 4 DB",right,2019-09-29T19:34:02.000Z,2019-09-29T19:34:01.000Z,6-2,345,08/20/1993,Washington,DT,BUF,NE,4,New Era Field,Orchard Park NY,Outdoors,A-Turf Titan,Mostly cloudy,58.0,71,10,E
49486,2019092902,20190929023614,away,64.96,22.51,2.98,1.02,0.29,294.41,321.18,2556119,Elandon Roberts,52,2019,47,3,00:12:00,BUF,1,10,NE,10,16,2506404,SINGLEBACK,"1 RB, 3 TE, 1 WR",8,"3 DL, 4 LB, 4 DB",right,2019-09-29T19:34:02.000Z,2019-09-29T19:34:01.000Z,6-0,238,04/22/1994,Houston,MLB,BUF,NE,4,New Era Field,Orchard Park NY,Outdoors,A-Turf Titan,Mostly cloudy,58.0,71,10,E
49487,2019092902,20190929023614,away,63.03,24.1,0.9,1.75,0.09,264.45,297.78,2558924,Adam Butler,70,2019,47,3,00:12:00,BUF,1,10,NE,10,16,2506404,SINGLEBACK,"1 RB, 3 TE, 1 WR",8,"3 DL, 4 LB, 4 DB",right,2019-09-29T19:34:02.000Z,2019-09-29T19:34:01.000Z,6-5,300,04/12/1994,Vanderbilt,DT,BUF,NE,4,New Era Field,Orchard Park NY,Outdoors,A-Turf Titan,Mostly cloudy,58.0,71,10,E
49488,2019092902,20190929023614,away,64.77,24.88,2.22,1.74,0.22,230.71,331.43,2561143,Ja'Whaun Bentley,51,2019,47,3,00:12:00,BUF,1,10,NE,10,16,2506404,SINGLEBACK,"1 RB, 3 TE, 1 WR",8,"3 DL, 4 LB, 4 DB",right,2019-09-29T19:34:02.000Z,2019-09-29T19:34:01.000Z,6-2,255,08/24/1996,Purdue,LB,BUF,NE,4,New Era Field,Orchard Park NY,Outdoors,A-Turf Titan,Mostly cloudy,58.0,71,10,E
49489,2019092902,20190929023614,home,61.71,20.85,1.57,0.6,0.16,76.24,351.12,2495347,Lee Smith,85,2019,47,3,00:12:00,BUF,1,10,NE,10,16,2506404,SINGLEBACK,"1 RB, 3 TE, 1 WR",8,"3 DL, 4 LB, 4 DB",right,2019-09-29T19:34:02.000Z,2019-09-29T19:34:01.000Z,6-6,265,11/21/1987,Marshall,TE,BUF,NE,4,New Era Field,Orchard Park NY,Outdoors,A-Turf Titan,Mostly cloudy,58.0,71,10,E
49490,2019092902,20190929023614,home,57.38,23.55,3.49,1.94,0.35,62.08,82.46,2506404,Frank Gore,20,2019,47,3,00:12:00,BUF,1,10,NE,10,16,2506404,SINGLEBACK,"1 RB, 3 TE, 1 WR",8,"3 DL, 4 LB, 4 DB",right,2019-09-29T19:34:02.000Z,2019-09-29T19:34:01.000Z,5-9,212,05/14/1983,Miami,RB,BUF,NE,4,New Era Field,Orchard Park NY,Outdoors,A-Turf Titan,Mostly cloudy,58.0,71,10,E
49491,2019092902,20190929023614,home,61.4,25.3,2.21,2.18,0.23,314.17,348.9,2552343,Jon Feliciano,76,2019,47,3,00:12:00,BUF,1,10,NE,10,16,2506404,SINGLEBACK,"1 RB, 3 TE, 1 WR",8,"3 DL, 4 LB, 4 DB",right,2019-09-29T19:34:02.000Z,2019-09-29T19:34:01.000Z,6-4,323,02/10/1992,Miami,G,BUF,NE,4,New Era Field,Orchard Park NY,Outdoors,A-Turf Titan,Mostly cloudy,58.0,71,10,E
49492,2019092902,20190929023614,home,61.68,22.77,0.82,1.34,0.08,190.99,299.68,2552668,Mitch Morse,60,2019,47,3,00:12:00,BUF,1,10,NE,10,16,2506404,SINGLEBACK,"1 RB, 3 TE, 1 WR",8,"3 DL, 4 LB, 4 DB",right,2019-09-29T19:34:02.000Z,2019-09-29T19:34:01.000Z,6-6,305,04/21/1992,Missouri,C,BUF,NE,4,New Era Field,Orchard Park NY,Outdoors,A-Turf Titan,Mostly cloudy,58.0,71,10,E
49493,2019092902,20190929023614,home,62.45,23.24,1.24,2.48,0.13,62.19,184.26,2553824,Quinton Spain,67,2019,47,3,00:12:00,BUF,1,10,NE,10,16,2506404,SINGLEBACK,"1 RB, 3 TE, 1 WR",8,"3 DL, 4 LB, 4 DB",right,2019-09-29T19:34:02.000Z,2019-09-29T19:34:01.000Z,6-4,330,08/07/1991,West Virginia,G,BUF,NE,4,New Era Field,Orchard Park NY,Outdoors,A-Turf Titan,Mostly cloudy,58.0,71,10,E
49494,2019092902,20190929023614,home,64.98,34.8,4.03,0.39,0.4,80.31,81.23,2557863,Zay Jones,11,2019,47,3,00:12:00,BUF,1,10,NE,10,16,2506404,SINGLEBACK,"1 RB, 3 TE, 1 WR",8,"3 DL, 4 LB, 4 DB",right,2019-09-29T19:34:02.000Z,2019-09-29T19:34:01.000Z,6-2,200,03/30/1995,East Carolina,WR,BUF,NE,4,New Era Field,Orchard Park NY,Outdoors,A-Turf Titan,Mostly cloudy,58.0,71,10,E
49495,2019092902,20190929023614,home,63.82,24.74,1.61,2.21,0.16,134.97,129.9,2557875,Dion Dawkins,73,2019,47,3,00:12:00,BUF,1,10,NE,10,16,2506404,SINGLEBACK,"1 RB, 3 TE, 1 WR",8,"3 DL, 4 LB, 4 DB",right,2019-09-29T19:34:02.000Z,2019-09-29T19:34:01.000Z,6-5,320,04/26/1994,Temple,T,BUF,NE,4,New Era Field,Orchard Park NY,Outdoors,A-Turf Titan,Mostly cloudy,58.0,71,10,E
49496,2019092902,20190929023614,home,57.88,22.69,4.16,0.2,0.41,5.73,252.06,2560955,Josh Allen,17,2019,47,3,00:12:00,BUF,1,10,NE,10,16,2506404,SINGLEBACK,"1 RB, 3 TE, 1 WR",8,"3 DL, 4 LB, 4 DB",right,2019-09-29T19:34:02.000Z,2019-09-29T19:34:01.000Z,6-5,237,05/21/1996,Wyoming,QB,BUF,NE,4,New Era Field,Orchard Park NY,Outdoors,A-Turf Titan,Mostly cloudy,58.0,71,10,E
49497,2019092902,20190929023614,home,62.54,21.55,1.45,0.63,0.16,66.16,46.05,2562266,Cody Ford,70,2019,47,3,00:12:00,BUF,1,10,NE,10,16,2506404,SINGLEBACK,"1 RB, 3 TE, 1 WR",8,"3 DL, 4 LB, 4 DB",right,2019-09-29T19:34:02.000Z,2019-09-29T19:34:01.000Z,6-3,329,12/28/1996,Oklahoma,T,BUF,NE,4,New Era Field,Orchard Park NY,Outdoors,A-Turf Titan,Mostly cloudy,58.0,71,10,E
49498,2019092902,20190929023614,home,59.68,20.18,4.63,1.91,0.45,55.42,329.36,2562681,Dawson Knox,88,2019,47,3,00:12:00,BUF,1,10,NE,10,16,2506404,SINGLEBACK,"1 RB, 3 TE, 1 WR",8,"3 DL, 4 LB, 4 DB",right,2019-09-29T19:34:02.000Z,2019-09-29T19:34:01.000Z,6-4,254,11/14/1996,Mississippi,TE,BUF,NE,4,New Era Field,Orchard Park NY,Outdoors,A-Turf Titan,Mostly cloudy,58.0,71,10,E
49499,2019092902,20190929023614,home,60.68,21.88,5.14,1.66,0.5,14.1,9.51,2562750,Tommy Sweeney,89,2019,47,3,00:12:00,BUF,1,10,NE,10,16,2506404,SINGLEBACK,"1 RB, 3 TE, 1 WR",8,"3 DL, 4 LB, 4 DB",right,2019-09-29T19:34:02.000Z,2019-09-29T19:34:01.000Z,6-4,251,07/01/1995,Boston College,TE,BUF,NE,4,New Era Field,Orchard Park NY,Outdoors,A-Turf Titan,Mostly cloudy,58.0,71,10,E
