,GameId,PlayId,Team,X,Y,S,A,Dis,Orientation,Dir,NflId,DisplayName,JerseyNumber,Season,YardLine,Quarter,GameClock,PossessionTeam,Down,Distance,FieldPosition,HomeScoreBeforePlay,VisitorScoreBeforePlay,NflIdRusher,OffenseFormation,OffensePersonnel,DefendersInTheBox,DefensePersonnel,PlayDirection,TimeHandoff,TimeSnap,PlayerHeight,PlayerWeight,PlayerBirthDate,PlayerCollegeName,Position,HomeTeamAbbr,VisitorTeamAbbr,Week,Stadium,Location,StadiumType,Turf,GameWeather,Temperature,Humidity,WindSpeed,WindDirection
65032,2019100603,20191006031239,away,94.4,31.66,3.09,0.47,0.32,294.89,356.2,496861,Ndamukong Suh,93,2019,16,2,10:57:00,NO,3,2,TB,3,7,2558019,SINGLEBACK,"2 QB, 1 RB, 2 TE, 1 WR",6,"3 DL, 3 LB, 5 DB",right,2019-10-06T17:53:42.000Z,2019-10-06T17:53:41.000Z,6-4,313,01/06/1987,Nebraska,DT,NO,TB,5,Mercedes-Benz Superdome,"New Orleans, LA",Indoors,UBU Speed Series-S5-M,Sunny,85.0,77,7,ENE
65033,2019100603,20191006031239,away,96.84,28.29,4.1,2.42,0.4,298.89,347.11,2532828,Lavonte David,54,2019,16,2,10:57:00,NO,3,2,TB,3,7,2558019,SINGLEBACK,"2 QB, 1 RB, 2 TE, 1 WR",6,"3 DL, 3 LB, 5 DB",right,2019-10-06T17:53:42.000Z,2019-10-06T17:53:41.000Z,6-1,233,01/23/1990,Nebraska,OLB,NO,TB,5,Mercedes-Benz Superdome,"New Orleans, LA",Indoors,UBU Speed Series-S5-M,Sunny,85.0,77,7,ENE
65034,2019100603,20191006031239,away,97.12,32.51,2.38,1.3,0.24,302.31,338.54,2540159,Kevin Minter,51,2019,16,2,10:57:00,NO,3,2,TB,3,7,2558019,SINGLEBACK,"2 QB, 1 RB, 2 TE, 1 WR",6,"3 DL, 3 LB, 5 DB",right,2019-10-06T17:53:42.000Z,2019-10-06T17:53:41.000Z,6-0,246,12/03/1990,Louisiana State,MLB,NO,TB,5,Mercedes-Benz Superdome,"New Orleans, LA",Indoors,UBU Speed Series-S5-M,Sunny,85.0,77,7,ENE
65035,2019100603,20191006031239,away,101.23,34.18,2.63,2.06,0.26,266.37,340.19,2540185,Mike Edwards,34,2019,16,2,10:57:00,NO,3,2,TB,3,7,2558019,SINGLEBACK,"2 QB, 1 RB, 2 TE, 1 WR",6,"3 DL, 3 LB, 5 DB",right,2019-10-06T17:53:42.000Z,2019-10-06T17:53:41.000Z,5-10,200,05/18/1996,Kentucky,FS,NO,TB,5,Mercedes-Benz Superdome,"New Orleans, LA",Indoors,UBU Speed Series-S5-M,Sunny,85.0,77,7,ENE
65036,2019100603,20191006031239,away,93.7,35.61,2.22,3.18,0.21,249.25,348.08,2550541,Shaquil Barrett,58,2019,16,2,10:57:00,NO,3,2,TB,3,7,2558019,SINGLEBACK,"2 QB, 1 RB, 2 TE, 1 WR",6,"3 DL, 3 LB, 5 DB",right,2019-10-06T17:53:42.000Z,2019-10-06T17:53:41.000Z,6-2,250,11/17/1992,Colorado State,OLB,NO,TB,5,Mercedes-Benz Superdome,"New Orleans, LA",Indoors,UBU Speed Series-S5-M,Sunny,85.0,77,7,ENE
65037,2019100603,20191006031239,away,94.08,34.7,3.53,0.55,0.35,259.77,348.38,2552674,Rakeem Nunez-Roches,56,2019,16,2,10:57:00,NO,3,2,TB,3,7,2558019,SINGLEBACK,"2 QB, 1 RB, 2 TE, 1 WR",6,"3 DL, 3 LB, 5 DB",right,2019-10-06T17:53:42.000Z,2019-10-06T17:53:41.000Z,6-2,307,07/03/1993,Southern Mississippi,DT,NO,TB,5,Mercedes-Benz Superdome,"New Orleans, LA",Indoors,UBU Speed Series-S5-M,Sunny,85.0,77,7,ENE
65038,2019100603,20191006031239,away,93.68,27.66,1.99,1.23,0.21,21.4,328.67,2555270,Carl Nassib,94,2019,16,2,10:57:00,NO,3,2,TB,3,7,2558019,SINGLEBACK,"2 QB, 1 RB, 2 TE, 1 WR",6,"3 DL, 3 LB, 5 DB",right,2019-10-06T17:53:42.000Z,2019-10-06T17:53:41.000Z,6-7,275,04/12/1993,Penn State,DE,NO,TB,5,Mercedes-Benz Superdome,"New Orleans, LA",Indoors,UBU Speed Series-S5-M,Sunny,85.0,77,7,ENE
65039,2019100603,20191006031239,away,95.97,35.99,3.04,0.97,0.3,221.63,149.85,2555299,Vernon Hargreaves III,28,2019,16,2,10:57:00,NO,3,2,TB,3,7,2558019,SINGLEBACK,"2 QB, 1 RB, 2 TE, 1 WR",6,"3 DL, 3 LB, 5 DB",right,2019-10-06T17:53:42.000Z,2019-10-06T17:53:41.000Z,5-10,204,06/03/1995,Florida,CB,NO,TB,5,Mercedes-Benz Superdome,"New Orleans, LA",Indoors,UBU Speed Series-S5-M,Sunny,85.0,77,7,ENE
65040,2019100603,20191006031239,away,100.09,26.84,3.08,2.29,0.3,302.25,334.63,2560930,Jordan Whitehead,31,2019,16,2,10:57:00,NO,3,2,TB,3,7,2558019,SINGLEBACK,"2 QB, 1 RB, 2 TE, 1 WR",6,"3 DL, 3 LB, 5 DB",right,2019-10-06T17:53:42.000Z,2019-10-06T17:53:41.000Z,5-10,198,03/18/1997,Pittsburgh,DB,NO,TB,5,Mercedes-Benz Superdome,"New Orleans, LA",Indoors,UBU Speed Series-S5-M,Sunny,85.0,77,7,ENE
65041,2019100603,20191006031239,away,97.39,21.25,2.43,2.42,0.23,325.26,36.0,2561039,Carlton Davis,33,2019,16,2,10:57:00,NO,3,2,TB,3,7,2558019,SINGLEBACK,"2 QB, 1 RB, 2 TE, 1 WR",6,"3 DL, 3 LB, 5 DB",right,2019-10-06T17:53:42.000Z,2019-10-06T17:53:41.000Z,6-1,206,12/31/1996,Auburn,CB,NO,TB,5,Mercedes-Benz Superdome,"New Orleans, LA",Indoors,UBU Speed Series-S5-M,Sunny,85.0,77,7,ENE
65042,2019100603,20191006031239,away,97.21,23.97,2.63,3.46,0.25,312.61,356.66,2562635,Sean Murphy-Bunting,26,2019,16,2,10:57:00,NO,3,2,TB,3,7,2558019,SINGLEBACK,"2 QB, 1 RB, 2 TE, 1 WR",6,"3 DL, 3 LB, 5 DB",right,2019-10-06T17:53:42.000Z,2019-10-06T17:53:41.000Z,6-0,195,06/19/1997,Central Michigan,DB,NO,TB,5,Mercedes-Benz Superdome,"New Orleans, LA",Indoors,UBU Speed Series-S5-M,Sunny,85.0,77,7,ENE
65043,2019100603,20191006031239,home,95.11,26.12,4.89,2.6,0.48,61.64,42.09,71265,Jared Cook,87,2019,16,2,10:57:00,NO,3,2,TB,3,7,2558019,SINGLEBACK,"2 QB, 1 RB, 2 TE, 1 WR",6,"3 DL, 3 LB, 5 DB",right,2019-10-06T17:53:42.000Z,2019-10-06T17:53:41.000Z,6-5,254,04/07/1987,South Carolina,TE,NO,TB,5,Mercedes-Benz Superdome,"New Orleans, LA",Indoors,UBU Speed Series-S5-M,Sunny,85.0,77,7,ENE
65044,2019100603,20191006031239,home,93.71,31.66,2.89,1.31,0.3,43.99,4.76,2539248,Larry Warford,67,2019,16,2,10:57:00,NO,3,2,TB,3,7,2558019,SINGLEBACK,"2 QB, 1 RB, 2 TE, 1 WR",6,"3 DL, 3 LB, 5 DB",right,2019-10-06T17:53:42.000Z,2019-10-06T17:53:41.000Z,6-3,317,06/18/1991,Kentucky,G,NO,TB,5,Mercedes-Benz Superdome,"New Orleans, LA",Indoors,UBU Speed Series-S5-M,Sunny,85.0,77,7,ENE
65045,2019100603,20191006031239,home,92.92,35.44,2.66,0.32,0.27,82.15,358.73,2540228,Terron Armstead,72,2019,16,2,10:57:00,NO,3,2,TB,3,7,2558019,SINGLEBACK,"2 QB, 1 RB, 2 TE, 1 WR",6,"3 DL, 3 LB, 5 DB",right,2019-10-06T17:53:42.000Z,2019-10-06T17:53:41.000Z,6-5,304,07/23/1991,Arkansas-Pine Bluff,T,NO,TB,5,Mercedes-Benz Superdome,"New Orleans, LA",Indoors,UBU Speed Series-S5-M,Sunny,85.0,77,7,ENE
65046,2019100603,20191006031239,home,93.2,28.08,3.03,1.13,0.27,109.77,19.71,2541834,Josh Hill,89,2019,16,2,10:57:00,NO,3,2,TB,3,7,2558019,SINGLEBACK,"2 QB, 1 RB, 2 TE, 1 WR",6,"3 DL, 3 LB, 5 DB",right,2019-10-06T17:53:42.000Z,2019-10-06T17:53:41.000Z,6-5,250,05/21/1990,Idaho State,TE,NO,TB,5,Mercedes-Benz Superdome,"New Orleans, LA",Indoors,UBU Speed Series-S5-M,Sunny,85.0,77,7,ENE
65047,2019100603,20191006031239,home,90.61,31.47,3.63,1.48,0.36,300.74,299.46,2543465,Teddy Bridgewater,5,2019,16,2,10:57:00,NO,3,2,TB,3,7,2558019,SINGLEBACK,"2 QB, 1 RB, 2 TE, 1 WR",6,"3 DL, 3 LB, 5 DB",right,2019-10-06T17:53:42.000Z,2019-10-06T17:53:41.000Z,6-2,215,11/10/1992,Louisville,QB,NO,TB,5,Mercedes-Benz Superdome,"New Orleans, LA",Indoors,UBU Speed Series-S5-M,Sunny,85.0,77,7,ENE
65048,2019100603,20191006031239,home,93.74,34.1,2.57,0.33,0.27,6.49,9.42,2552455,Andrus Peat,75,2019,16,2,10:57:00,NO,3,2,TB,3,7,2558019,SINGLEBACK,"2 QB, 1 RB, 2 TE, 1 WR",6,"3 DL, 3 LB, 5 DB",right,2019-10-06T17:53:42.000Z,2019-10-06T17:53:41.000Z,6-7,316,11/04/1993,Stanford,T,NO,TB,5,Mercedes-Benz Superdome,"New Orleans, LA",Indoors,UBU Speed Series-S5-M,Sunny,85.0,77,7,ENE
65049,2019100603,20191006031239,home,94.79,35.43,4.06,0.81,0.4,102.24,143.71,2556370,Michael Thomas,13,2019,16,2,10:57:00,NO,3,2,TB,3,7,2558019,SINGLEBACK,"2 QB, 1 RB, 2 TE, 1 WR",6,"3 DL, 3 LB, 5 DB",right,2019-10-06T17:53:42.000Z,2019-10-06T17:53:41.000Z,6-3,212,03/03/1993,Ohio State,WR,NO,TB,5,Mercedes-Benz Superdome,"New Orleans, LA",Indoors,UBU Speed Series-S5-M,Sunny,85.0,77,7,ENE
65050,2019100603,20191006031239,home,94.66,28.28,3.22,0.18,0.32,60.94,59.86,2557959,Ryan Ramczyk,71,2019,16,2,10:57:00,NO,3,2,TB,3,7,2558019,SINGLEBACK,"2 QB, 1 RB, 2 TE, 1 WR",6,"3 DL, 3 LB, 5 DB",right,2019-10-06T17:53:42.000Z,2019-10-06T17:53:41.000Z,6-6,314,04/22/1994,Wisconsin,T,NO,TB,5,Mercedes-Benz Superdome,"New Orleans, LA",Indoors,UBU Speed Series-S5-M,Sunny,85.0,77,7,ENE
65051,2019100603,20191006031239,home,89.68,32.23,5.41,1.62,0.53,59.64,51.17,2558019,Alvin Kamara,41,2019,16,2,10:57:00,NO,3,2,TB,3,7,2558019,SINGLEBACK,"2 QB, 1 RB, 2 TE, 1 WR",6,"3 DL, 3 LB, 5 DB",right,2019-10-06T17:53:42.000Z,2019-10-06T17:53:41.000Z,5-10,215,07/25/1995,Tennessee,RB,NO,TB,5,Mercedes-Benz Superdome,"New Orleans, LA",Indoors,UBU Speed Series-S5-M,Sunny,85.0,77,7,ENE
65052,2019100603,20191006031239,home,94.25,24.35,4.98,3.21,0.48,73.48,48.83,2558954,Taysom Hill,7,2019,16,2,10:57:00,NO,3,2,TB,3,7,2558019,SINGLEBACK,"2 QB, 1 RB, 2 TE, 1 WR",6,"3 DL, 3 LB, 5 DB",right,2019-10-06T17:53:42.000Z,2019-10-06T17:53:41.000Z,6-2,221,08/23/1990,Brigham Young,QB,NO,TB,5,Mercedes-Benz Superdome,"New Orleans, LA",Indoors,UBU Speed Series-S5-M,Sunny,85.0,77,7,ENE
65053,2019100603,20191006031239,home,95.49,32.56,4.01,0.96,0.42,59.56,44.12,2562683,Erik McCoy,78,2019,16,2,10:57:00,NO,3,2,TB,3,7,2558019,SINGLEBACK,"2 QB, 1 RB, 2 TE, 1 WR",6,"3 DL, 3 LB, 5 DB",right,2019-10-06T17:53:42.000Z,2019-10-06T17:53:41.000Z,6-4,315,08/27/1997,Texas A&M,C,NO,TB,5,Mercedes-Benz Superdome,"New Orleans, LA",Indoors,UBU Speed Series-S5-M,Sunny,85.0,77,7,ENE
