,GameId,PlayId,Team,X,Y,S,A,Dis,Orientation,Dir,NflId,DisplayName,JerseyNumber,Season,YardLine,Quarter,GameClock,PossessionTeam,Down,Distance,FieldPosition,HomeScoreBeforePlay,VisitorScoreBeforePlay,NflIdRusher,OffenseFormation,OffensePersonnel,DefendersInTheBox,DefensePersonnel,PlayDirection,TimeHandoff,TimeSnap,PlayerHeight,PlayerWeight,PlayerBirthDate,PlayerCollegeName,Position,HomeTeamAbbr,VisitorTeamAbbr,Week,Stadium,Location,StadiumType,Turf,GameWeather,Temperature,Humidity,WindSpeed,WindDirection
2112,2019090801,20190908011687,away,40.02,27.08,2.92,2.58,0.3,264.87,324.7,2354,Wesley Woodyard,59,2019,28,2,05:03:00,CLV,1,10,CLV,6,10,2561021,SINGLEBACK,"1 RB, 1 TE, 3 WR",6,"2 DL, 4 LB, 5 DB",right,2019-09-08T18:13:54.000Z,2019-09-08T18:13:53.000Z,6-0,233,07/21/1986,Kentucky,ILB,CLE,TEN,1,First Energy Stadium,"Cleveland, Ohio",Outdoor,Grass,Partly Cloudy,71.0,55,10,NE
2113,2019090801,20190908011687,away,34.65,28.61,3.63,1.61,0.38,291.22,308.64,2495476,Jurrell Casey,99,2019,28,2,05:03:00,CLV,1,10,CLV,6,10,2561021,SINGLEBACK,"1 RB, 1 TE, 3 WR",6,"2 DL, 4 LB, 5 DB",right,2019-09-08T18:13:54.000Z,2019-09-08T18:13:53.000Z,6-1,305,12/05/1989,Southern California,DT,CLE,TEN,1,First Energy Stadium,"Cleveland, Ohio",Outdoor,Grass,Partly Cloudy,71.0,55,10,NE
2114,2019090801,20190908011687,away,47.17,28.3,5.35,2.46,0.53,275.9,297.65,2539320,Kenny Vaccaro,24,2019,28,2,05:03:00,CLV,1,10,CLV,6,10,2561021,SINGLEBACK,"1 RB, 1 TE, 3 WR",6,"2 DL, 4 LB, 5 DB",right,2019-09-08T18:13:54.000Z,2019-09-08T18:13:53.000Z,6-0,214,02/15/1991,Texas,SS,CLE,TEN,1,First Energy Stadium,"Cleveland, Ohio",Outdoor,Grass,Partly Cloudy,71.0,55,10,NE
2115,2019090801,20190908011687,away,42.82,33.14,0.44,0.46,0.04,221.08,130.83,2540162,Logan Ryan,26,2019,28,2,05:03:00,CLV,1,10,CLV,6,10,2561021,SINGLEBACK,"1 RB, 1 TE, 3 WR",6,"2 DL, 4 LB, 5 DB",right,2019-09-08T18:13:54.000Z,2019-09-08T18:13:53.000Z,5-11,195,02/09/1991,Rutgers,CB,CLE,TEN,1,First Energy Stadium,"Cleveland, Ohio",Outdoor,Grass,Partly Cloudy,71.0,55,10,NE
2116,2019090801,20190908011687,away,35.23,25.79,2.91,2.01,0.31,14.66,335.79,2543504,DaQuan Jones,90,2019,28,2,05:03:00,CLV,1,10,CLV,6,10,2561021,SINGLEBACK,"1 RB, 1 TE, 3 WR",6,"2 DL, 4 LB, 5 DB",right,2019-09-08T18:13:54.000Z,2019-09-08T18:13:53.000Z,6-4,322,12/27/1991,Penn State,DE,CLE,TEN,1,First Energy Stadium,"Cleveland, Ohio",Outdoor,Grass,Partly Cloudy,71.0,55,10,NE
2117,2019090801,20190908011687,away,46.63,35.61,1.81,1.1,0.18,272.01,2.63,2550613,Malcolm Butler,21,2019,28,2,05:03:00,CLV,1,10,CLV,6,10,2561021,SINGLEBACK,"1 RB, 1 TE, 3 WR",6,"2 DL, 4 LB, 5 DB",right,2019-09-08T18:13:54.000Z,2019-09-08T18:13:53.000Z,5-11,190,03/02/1990,West Alabama,CB,CLE,TEN,1,First Energy Stadium,"Cleveland, Ohio",Outdoor,Grass,Partly Cloudy,71.0,55,10,NE
2118,2019090801,20190908011687,away,37.55,22.32,5.18,3.79,0.52,322.5,341.51,2555158,Kevin Byard,31,2019,28,2,05:03:00,CLV,1,10,CLV,6,10,2561021,SINGLEBACK,"1 RB, 1 TE, 3 WR",6,"2 DL, 4 LB, 5 DB",right,2019-09-08T18:13:54.000Z,2019-09-08T18:13:53.000Z,5-11,212,08/17/1993,Middle Tennessee,FS,CLE,TEN,1,First Energy Stadium,"Cleveland, Ohio",Outdoor,Grass,Partly Cloudy,71.0,55,10,NE
2119,2019090801,20190908011687,away,35.25,22.57,4.05,3.96,0.42,332.34,336.76,2555339,Kamalei Correa,44,2019,28,2,05:03:00,CLV,1,10,CLV,6,10,2561021,SINGLEBACK,"1 RB, 1 TE, 3 WR",6,"2 DL, 4 LB, 5 DB",right,2019-09-08T18:13:54.000Z,2019-09-08T18:13:53.000Z,6-3,241,04/27/1994,Boise State,ILB,CLE,TEN,1,First Energy Stadium,"Cleveland, Ohio",Outdoor,Grass,Partly Cloudy,71.0,55,10,NE
2120,2019090801,20190908011687,away,47.03,9.95,1.25,1.81,0.12,247.45,16.9,2558065,Adoree' Jackson,25,2019,28,2,05:03:00,CLV,1,10,CLV,6,10,2561021,SINGLEBACK,"1 RB, 1 TE, 3 WR",6,"2 DL, 4 LB, 5 DB",right,2019-09-08T18:13:54.000Z,2019-09-08T18:13:53.000Z,5-11,185,09/18/1995,Southern California,CB,CLE,TEN,1,First Energy Stadium,"Cleveland, Ohio",Outdoor,Grass,Partly Cloudy,71.0,55,10,NE
2121,2019090801,20190908011687,away,40.12,30.09,4.74,0.83,0.46,265.77,331.1,2560718,Rashaan Evans,54,2019,28,2,05:03:00,CLV,1,10,CLV,6,10,2561021,SINGLEBACK,"1 RB, 1 TE, 3 WR",6,"2 DL, 4 LB, 5 DB",right,2019-09-08T18:13:54.000Z,2019-09-08T18:13:53.000Z,6-2,234,11/08/1995,Alabama,LB,CLE,TEN,1,First Energy Stadium,"Cleveland, Ohio",Outdoor,Grass,Partly Cloudy,71.0,55,10,NE
2122,2019090801,20190908011687,away,36.24,33.35,4.24,1.88,0.44,279.98,343.3,2560784,Harold Landry,58,2019,28,2,05:03:00,CLV,1,10,CLV,6,10,2561021,SINGLEBACK,"1 RB, 1 TE, 3 WR",6,"2 DL, 4 LB, 5 DB",right,2019-09-08T18:13:54.000Z,2019-09-08T18:13:53.000Z,6-2,250,06/05/1996,Boston College,OLB,CLE,TEN,1,First Energy Stadium,"Cleveland, Ohio",Outdoor,Grass,Partly Cloudy,71.0,55,10,NE
2123,2019090801,20190908011687,home,35.28,28.13,4.07,1.28,0.41,324.11,317.84,2540292,JC Tretter,64,2019,28,2,05:03:00,CLV,1,10,CLV,6,10,2561021,SINGLEBACK,"1 RB, 1 TE, 3 WR",6,"2 DL, 4 LB, 5 DB",right,2019-09-08T18:13:54.000Z,2019-09-08T18:13:53.000Z,6-4,307,02/12/1991,Cornell,T,CLE,TEN,1,First Energy Stadium,"Cleveland, Ohio",Outdoor,Grass,Partly Cloudy,71.0,55,10,NE
2124,2019090801,20190908011687,home,36.88,25.1,0.62,3.83,0.07,15.54,359.48,2541312,Eric Kush,72,2019,28,2,05:03:00,CLV,1,10,CLV,6,10,2561021,SINGLEBACK,"1 RB, 1 TE, 3 WR",6,"2 DL, 4 LB, 5 DB",right,2019-09-08T18:13:54.000Z,2019-09-08T18:13:53.000Z,6-4,317,09/09/1989,"California, Pa.",OG,CLE,TEN,1,First Energy Stadium,"Cleveland, Ohio",Outdoor,Grass,Partly Cloudy,71.0,55,10,NE
2125,2019090801,20190908011687,home,36.29,25.23,2.8,3.59,0.3,328.19,345.0,2541716,Chris Hubbard,74,2019,28,2,05:03:00,CLV,1,10,CLV,6,10,2561021,SINGLEBACK,"1 RB, 1 TE, 3 WR",6,"2 DL, 4 LB, 5 DB",right,2019-09-08T18:13:54.000Z,2019-09-08T18:13:53.000Z,6-4,295,04/23/1991,Alabama-Birmingham,G,CLE,TEN,1,First Energy Stadium,"Cleveland, Ohio",Outdoor,Grass,Partly Cloudy,71.0,55,10,NE
2126,2019090801,20190908011687,home,36.83,32.36,4.24,1.96,0.43,28.47,11.75,2543458,Greg Robinson,78,2019,28,2,05:03:00,CLV,1,10,CLV,6,10,2561021,SINGLEBACK,"1 RB, 1 TE, 3 WR",6,"2 DL, 4 LB, 5 DB",right,2019-09-08T18:13:54.000Z,2019-09-08T18:13:53.000Z,6-5,332,10/21/1992,Auburn,OT,CLE,TEN,1,First Energy Stadium,"Cleveland, Ohio",Outdoor,Grass,Partly Cloudy,71.0,55,10,NE
2127,2019090801,20190908011687,home,34.62,18.09,6.86,3.22,0.7,136.48,166.84,2543488,Jarvis Landry,80,2019,28,2,05:03:00,CLV,1,10,CLV,6,10,2561021,SINGLEBACK,"1 RB, 1 TE, 3 WR",6,"2 DL, 4 LB, 5 DB",right,2019-09-08T18:13:54.000Z,2019-09-08T18:13:53.000Z,5-11,196,11/28/1992,Louisiana State,WR,CLE,TEN,1,First Energy Stadium,"Cleveland, Ohio",Outdoor,Grass,Partly Cloudy,71.0,55,10,NE
2128,2019090801,20190908011687,home,41.23,9.65,5.06,1.39,0.5,73.61,74.18,2543496,Odell Beckham,13,2019,28,2,05:03:00,CLV,1,10,CLV,6,10,2561021,SINGLEBACK,"1 RB, 1 TE, 3 WR",6,"2 DL, 4 LB, 5 DB",right,2019-09-08T18:13:54.000Z,2019-09-08T18:13:53.000Z,5-11,198,11/05/1992,Louisiana State,WR,CLE,TEN,1,First Energy Stadium,"Cleveland, Ohio",Outdoor,Grass,Partly Cloudy,71.0,55,10,NE
2129,2019090801,20190908011687,home,37.45,28.95,1.92,1.22,0.2,246.17,1.95,2543737,Joel Bitonio,75,2019,28,2,05:03:00,CLV,1,10,CLV,6,10,2561021,SINGLEBACK,"1 RB, 1 TE, 3 WR",6,"2 DL, 4 LB, 5 DB",right,2019-09-08T18:13:54.000Z,2019-09-08T18:13:53.000Z,6-4,320,10/11/1991,Nevada,G,CLE,TEN,1,First Energy Stadium,"Cleveland, Ohio",Outdoor,Grass,Partly Cloudy,71.0,55,10,NE
2130,2019090801,20190908011687,home,39.32,35.28,4.52,1.81,0.44,84.4,71.11,2555468,Rashard Higgins,81,2019,28,2,05:03:00,CLV,1,10,CLV,6,10,2561021,SINGLEBACK,"1 RB, 1 TE, 3 WR",6,"2 DL, 4 LB, 5 DB",right,2019-09-08T18:13:54.000Z,2019-09-08T18:13:53.000Z,6-1,198,10/07/1994,Colorado State,WR,CLE,TEN,1,First Energy Stadium,"Cleveland, Ohio",Outdoor,Grass,Partly Cloudy,71.0,55,10,NE
2131,2019090801,20190908011687,home,35.63,33.31,4.87,1.96,0.48,76.04,348.8,2557986,David Njoku,85,2019,28,2,05:03:00,CLV,1,10,CLV,6,10,2561021,SINGLEBACK,"1 RB, 1 TE, 3 WR",6,"2 DL, 4 LB, 5 DB",right,2019-09-08T18:13:54.000Z,2019-09-08T18:13:53.000Z,6-4,246,07/10/1996,Miami (Fla.),TE,CLE,TEN,1,First Energy Stadium,"Cleveland, Ohio",Outdoor,Grass,Partly Cloudy,71.0,55,10,NE
2132,2019090801,20190908011687,home,31.63,25.77,4.7,2.76,0.47,227.74,277.46,2560800,Baker Mayfield,6,2019,28,2,05:03:00,CLV,1,10,CLV,6,10,2561021,SINGLEBACK,"1 RB, 1 TE, 3 WR",6,"2 DL, 4 LB, 5 DB",right,2019-09-08T18:13:54.000Z,2019-09-08T18:13:53.000Z,6-1,215,04/14/1995,Oklahoma,QB,CLE,TEN,1,First Energy Stadium,"Cleveland, Ohio",Outdoor,Grass,Partly Cloudy,71.0,55,10,NE
2133,2019090801,20190908011687,home,32.93,26.92,4.17,0.95,0.41,53.4,44.32,2561021,Nick Chubb,24,2019,28,2,05:03:00,CLV,1,10,CLV,6,10,2561021,SINGLEBACK,"1 RB, 1 TE, 3 WR",6,"2 DL, 4 LB, 5 DB",right,2019-09-08T18:13:54.000Z,2019-09-08T18:13:53.000Z,5-11,225,12/27/1995,Georgia,RB,CLE,TEN,1,First Energy Stadium,"Cleveland, Ohio",Outdoor,Grass,Partly Cloudy,71.0,55,10,NE
