,GameId,PlayId,Team,X,Y,S,A,Dis,Orientation,Dir,NflId,DisplayName,JerseyNumber,Season,YardLine,Quarter,GameClock,PossessionTeam,Down,Distance,FieldPosition,HomeScoreBeforePlay,VisitorScoreBeforePlay,NflIdRusher,OffenseFormation,OffensePersonnel,DefendersInTheBox,DefensePersonnel,PlayDirection,TimeHandoff,TimeSnap,PlayerHeight,PlayerWeight,PlayerBirthDate,PlayerCollegeName,Position,HomeTeamAbbr,VisitorTeamAbbr,Week,Stadium,Location,StadiumType,Turf,GameWeather,Temperature,Humidity,WindSpeed,WindDirection
8228,2019090808,20190908080459,away,67.71,20.87,1.27,1.88,0.13,233.06,121.04,71465,Andre Smith,71,2019,44,1,08:35:00,CIN,2,4,CIN,0,0,2557976,SINGLEBACK,"1 RB, 1 TE, 3 WR",7,"4 DL, 3 LB, 4 DB",left,2019-09-08T20:24:05.000Z,2019-09-08T20:24:04.000Z,6-4,330,01/25/1987,Alabama,T,SEA,CIN,1,CenturyLink Field,"Seattle, WA",Outdoor,FieldTurf,Cloudy,64.0,82,7,S
8229,2019090808,20190908080459,away,69.99,24.4,3.75,1.77,0.37,22.22,71.16,2495143,Andy Dalton,14,2019,44,1,08:35:00,CIN,2,4,CIN,0,0,2557976,SINGLEBACK,"1 RB, 1 TE, 3 WR",7,"4 DL, 3 LB, 4 DB",left,2019-09-08T20:24:05.000Z,2019-09-08T20:24:04.000Z,6-2,220,10/29/1987,Texas Christian,QB,SEA,CIN,1,CenturyLink Field,"Seattle, WA",Outdoor,FieldTurf,Cloudy,64.0,82,7,S
8230,2019090808,20190908080459,away,67.16,24.19,0.92,0.48,0.09,295.95,71.49,2550208,Trey Hopkins,66,2019,44,1,08:35:00,CIN,2,4,CIN,0,0,2557976,SINGLEBACK,"1 RB, 1 TE, 3 WR",7,"4 DL, 3 LB, 4 DB",left,2019-09-08T20:24:05.000Z,2019-09-08T20:24:04.000Z,6-3,316,07/06/1992,Texas,G,SEA,CIN,1,CenturyLink Field,"Seattle, WA",Outdoor,FieldTurf,Cloudy,64.0,82,7,S
8231,2019090808,20190908080459,away,67.26,26.98,1.28,2.22,0.12,231.56,185.46,2552335,Bobby Hart,68,2019,44,1,08:35:00,CIN,2,4,CIN,0,0,2557976,SINGLEBACK,"1 RB, 1 TE, 3 WR",7,"4 DL, 3 LB, 4 DB",left,2019-09-08T20:24:05.000Z,2019-09-08T20:24:04.000Z,6-5,310,08/21/1994,Florida State,OT,SEA,CIN,1,CenturyLink Field,"Seattle, WA",Outdoor,FieldTurf,Cloudy,64.0,82,7,S
8232,2019090808,20190908080459,away,68.83,26.69,4.42,3.19,0.43,209.46,163.14,2552559,C.J. Uzomah,87,2019,44,1,08:35:00,CIN,2,4,CIN,0,0,2557976,SINGLEBACK,"1 RB, 1 TE, 3 WR",7,"4 DL, 3 LB, 4 DB",left,2019-09-08T20:24:05.000Z,2019-09-08T20:24:04.000Z,6-6,260,01/14/1993,Auburn,TE,SEA,CIN,1,CenturyLink Field,"Seattle, WA",Outdoor,FieldTurf,Cloudy,64.0,82,7,S
8233,2019090808,20190908080459,away,67.19,25.07,0.72,1.64,0.08,269.59,124.19,2553436,John Miller,67,2019,44,1,08:35:00,CIN,2,4,CIN,0,0,2557976,SINGLEBACK,"1 RB, 1 TE, 3 WR",7,"4 DL, 3 LB, 4 DB",left,2019-09-08T20:24:05.000Z,2019-09-08T20:24:04.000Z,6-3,315,08/12/1993,Louisville,G,SEA,CIN,1,CenturyLink Field,"Seattle, WA",Outdoor,FieldTurf,Cloudy,64.0,82,7,S
8234,2019090808,20190908080459,away,65.36,30.89,2.84,2.02,0.27,299.46,260.43,2555466,Tyler Boyd,83,2019,44,1,08:35:00,CIN,2,4,CIN,0,0,2557976,SINGLEBACK,"1 RB, 1 TE, 3 WR",7,"4 DL, 3 LB, 4 DB",left,2019-09-08T20:24:05.000Z,2019-09-08T20:24:04.000Z,6-2,203,11/15/1994,Pittsburgh,WR,SEA,CIN,1,CenturyLink Field,"Seattle, WA",Outdoor,FieldTurf,Cloudy,64.0,82,7,S
8235,2019090808,20190908080459,away,71.78,25.16,3.73,2.44,0.36,248.29,296.09,2557976,Joe Mixon,28,2019,44,1,08:35:00,CIN,2,4,CIN,0,0,2557976,SINGLEBACK,"1 RB, 1 TE, 3 WR",7,"4 DL, 3 LB, 4 DB",left,2019-09-08T20:24:05.000Z,2019-09-08T20:24:04.000Z,6-1,220,07/24/1996,Oklahoma,HB,SEA,CIN,1,CenturyLink Field,"Seattle, WA",Outdoor,FieldTurf,Cloudy,64.0,82,7,S
8236,2019090808,20190908080459,away,69.48,20.42,7.37,0.78,0.74,187.14,177.25,2558010,John Ross,11,2019,44,1,08:35:00,CIN,2,4,CIN,0,0,2557976,SINGLEBACK,"1 RB, 1 TE, 3 WR",7,"4 DL, 3 LB, 4 DB",left,2019-09-08T20:24:05.000Z,2019-09-08T20:24:04.000Z,5-11,194,11/27/1995,Washington,WR,SEA,CIN,1,CenturyLink Field,"Seattle, WA",Outdoor,FieldTurf,Cloudy,64.0,82,7,S
8237,2019090808,20190908080459,away,67.65,23.33,1.62,2.6,0.16,262.92,62.21,2562679,Mike Jordan,60,2019,44,1,08:35:00,CIN,2,4,CIN,0,0,2557976,SINGLEBACK,"1 RB, 1 TE, 3 WR",7,"4 DL, 3 LB, 4 DB",left,2019-09-08T20:24:05.000Z,2019-09-08T20:24:04.000Z,6-6,315,01/25/1998,Ohio State,OG,SEA,CIN,1,CenturyLink Field,"Seattle, WA",Outdoor,FieldTurf,Cloudy,64.0,82,7,S
8238,2019090808,20190908080459,away,65.54,11.22,4.31,4.84,0.4,302.03,306.64,2563238,Damion Willis,15,2019,44,1,08:35:00,CIN,2,4,CIN,0,0,2557976,SINGLEBACK,"1 RB, 1 TE, 3 WR",7,"4 DL, 3 LB, 4 DB",left,2019-09-08T20:24:05.000Z,2019-09-08T20:24:04.000Z,6-3,204,06/20/1997,Troy,WR,SEA,CIN,1,CenturyLink Field,"Seattle, WA",Outdoor,FieldTurf,Cloudy,64.0,82,7,S
8239,2019090808,20190908080459,home,66.26,24.67,1.6,1.32,0.16,72.13,123.83,496881,Al Woods,72,2019,44,1,08:35:00,CIN,2,4,CIN,0,0,2557976,SINGLEBACK,"1 RB, 1 TE, 3 WR",7,"4 DL, 3 LB, 4 DB",left,2019-09-08T20:24:05.000Z,2019-09-08T20:24:04.000Z,6-4,330,03/25/1987,Louisiana State,DT,SEA,CIN,1,CenturyLink Field,"Seattle, WA",Outdoor,FieldTurf,Cloudy,64.0,82,7,S
8240,2019090808,20190908080459,home,67.15,31.54,4.02,3.29,0.4,109.44,124.01,2495252,K.J. Wright,50,2019,44,1,08:35:00,CIN,2,4,CIN,0,0,2557976,SINGLEBACK,"1 RB, 1 TE, 3 WR",7,"4 DL, 3 LB, 4 DB",left,2019-09-08T20:24:05.000Z,2019-09-08T20:24:04.000Z,6-4,246,07/23/1989,Mississippi State,OLB,SEA,CIN,1,CenturyLink Field,"Seattle, WA",Outdoor,FieldTurf,Cloudy,64.0,82,7,S
8241,2019090808,20190908080459,home,65.82,17.95,1.23,1.97,0.12,71.16,163.81,2532890,Mychal Kendricks,56,2019,44,1,08:35:00,CIN,2,4,CIN,0,0,2557976,SINGLEBACK,"1 RB, 1 TE, 3 WR",7,"4 DL, 3 LB, 4 DB",left,2019-09-08T20:24:05.000Z,2019-09-08T20:24:04.000Z,5-11,240,09/28/1990,California,OLB,SEA,CIN,1,CenturyLink Field,"Seattle, WA",Outdoor,FieldTurf,Cloudy,64.0,82,7,S
8242,2019090808,20190908080459,home,62.81,25.53,2.52,1.39,0.24,86.92,75.87,2532966,Bobby Wagner,54,2019,44,1,08:35:00,CIN,2,4,CIN,0,0,2557976,SINGLEBACK,"1 RB, 1 TE, 3 WR",7,"4 DL, 3 LB, 4 DB",left,2019-09-08T20:24:05.000Z,2019-09-08T20:24:04.000Z,6-0,242,06/27/1990,Utah State,MLB,SEA,CIN,1,CenturyLink Field,"Seattle, WA",Outdoor,FieldTurf,Cloudy,64.0,82,7,S
8243,2019090808,20190908080459,home,51.51,20.93,2.87,1.23,0.28,87.69,263.5,2539243,Bradley McDougald,30,2019,44,1,08:35:00,CIN,2,4,CIN,0,0,2557976,SINGLEBACK,"1 RB, 1 TE, 3 WR",7,"4 DL, 3 LB, 4 DB",left,2019-09-08T20:24:05.000Z,2019-09-08T20:24:04.000Z,6-1,215,11/15/1990,Kansas,SS,SEA,CIN,1,CenturyLink Field,"Seattle, WA",Outdoor,FieldTurf,Cloudy,64.0,82,7,S
8244,2019090808,20190908080459,home,67.05,26.57,3.49,0.76,0.35,129.91,140.46,2543456,Jadeveon Clowney,90,2019,44,1,08:35:00,CIN,2,4,CIN,0,0,2557976,SINGLEBACK,"1 RB, 1 TE, 3 WR",7,"4 DL, 3 LB, 4 DB",left,2019-09-08T20:24:05.000Z,2019-09-08T20:24:04.000Z,6-5,255,02/14/1993,South Carolina,OLB,SEA,CIN,1,CenturyLink Field,"Seattle, WA",Outdoor,FieldTurf,Cloudy,64.0,82,7,S
8245,2019090808,20190908080459,home,67.02,19.98,3.15,1.59,0.33,61.25,117.13,2555358,Quinton Jefferson,99,2019,44,1,08:35:00,CIN,2,4,CIN,0,0,2557976,SINGLEBACK,"1 RB, 1 TE, 3 WR",7,"4 DL, 3 LB, 4 DB",left,2019-09-08T20:24:05.000Z,2019-09-08T20:24:04.000Z,6-4,291,03/31/1993,Maryland,DT,SEA,CIN,1,CenturyLink Field,"Seattle, WA",Outdoor,FieldTurf,Cloudy,64.0,82,7,S
8246,2019090808,20190908080459,home,53.7,29.76,0.59,2.85,0.05,80.16,342.6,2557881,Tedric Thompson,33,2019,44,1,08:35:00,CIN,2,4,CIN,0,0,2557976,SINGLEBACK,"1 RB, 1 TE, 3 WR",7,"4 DL, 3 LB, 4 DB",left,2019-09-08T20:24:05.000Z,2019-09-08T20:24:04.000Z,6-0,204,01/20/1995,Colorado,FS,SEA,CIN,1,CenturyLink Field,"Seattle, WA",Outdoor,FieldTurf,Cloudy,64.0,82,7,S
8247,2019090808,20190908080459,home,58.8,35.04,0.34,1.42,0.03,136.18,173.14,2558259,Shaquill Griffin,26,2019,44,1,08:35:00,CIN,2,4,CIN,0,0,2557976,SINGLEBACK,"1 RB, 1 TE, 3 WR",7,"4 DL, 3 LB, 4 DB",left,2019-09-08T20:24:05.000Z,2019-09-08T20:24:04.000Z,6-0,198,07/20/1995,Central Florida,CB,SEA,CIN,1,CenturyLink Field,"Seattle, WA",Outdoor,FieldTurf,Cloudy,64.0,82,7,S
8248,2019090808,20190908080459,home,61.19,9.46,3.95,1.63,0.39,358.03,273.95,2560728,Tre Flowers,21,2019,44,1,08:35:00,CIN,2,4,CIN,0,0,2557976,SINGLEBACK,"1 RB, 1 TE, 3 WR",7,"4 DL, 3 LB, 4 DB",left,2019-09-08T20:24:05.000Z,2019-09-08T20:24:04.000Z,6-3,203,06/02/1995,Oklahoma State,CB,SEA,CIN,1,CenturyLink Field,"Seattle, WA",Outdoor,FieldTurf,Cloudy,64.0,82,7,S
8249,2019090808,20190908080459,home,66.78,23.14,1.79,0.23,0.18,45.39,85.43,2562914,Bryan Mone,79,2019,44,1,08:35:00,CIN,2,4,CIN,0,0,2557976,SINGLEBACK,"1 RB, 1 TE, 3 WR",7,"4 DL, 3 LB, 4 DB",left,2019-09-08T20:24:05.000Z,2019-09-08T20:24:04.000Z,6-3,345,10/20/1995,Michigan,NT,SEA,CIN,1,CenturyLink Field,"Seattle, WA",Outdoor,FieldTurf,Cloudy,64.0,82,7,S
