,GameId,PlayId,Team,X,Y,S,A,Dis,Orientation,Dir,NflId,DisplayName,JerseyNumber,Season,YardLine,Quarter,GameClock,PossessionTeam,Down,Distance,FieldPosition,HomeScoreBeforePlay,VisitorScoreBeforePlay,NflIdRusher,OffenseFormation,OffensePersonnel,DefendersInTheBox,DefensePersonnel,PlayDirection,TimeHandoff,TimeSnap,PlayerHeight,PlayerWeight,PlayerBirthDate,PlayerCollegeName,Position,HomeTeamAbbr,VisitorTeamAbbr,Week,Stadium,Location,StadiumType,Turf,GameWeather,Temperature,Humidity,WindSpeed,WindDirection
26268,2019091510,20190915102976,away,86.39,31.01,2.33,0.35,0.24,277.35,195.8,2532945,Mitchell Schwartz,71,2019,24,3,07:59:00,KC,2,6,KC,10,28,2550512,SHOTGUN,"1 RB, 1 TE, 3 WR",6,"4 DL, 2 LB, 5 DB",left,2019-09-15T22:22:40.000Z,2019-09-15T22:22:39.000Z,6-5,320,06/08/1989,California,T,OAK,KC,2,Oakland-Alameda County Coliseum,"Oakland, CA",Outdoor,Natural Grass,Sunny,70.0,61,13,WSW
26269,2019091510,20190915102976,away,87.5,34.06,0.99,1.51,0.09,327.79,129.39,2540258,Travis Kelce,87,2019,24,3,07:59:00,KC,2,6,KC,10,28,2550512,SHOTGUN,"1 RB, 1 TE, 3 WR",6,"4 DL, 2 LB, 5 DB",left,2019-09-15T22:22:40.000Z,2019-09-15T22:22:39.000Z,6-5,260,10/05/1989,Cincinnati,TE,OAK,KC,2,Oakland-Alameda County Coliseum,"Oakland, CA",Outdoor,Natural Grass,Sunny,70.0,61,13,WSW
26270,2019091510,20190915102976,away,84.36,18.77,3.13,2.11,0.3,287.21,295.37,2543457,Sammy Watkins,14,2019,24,3,07:59:00,KC,2,6,KC,10,28,2550512,SHOTGUN,"1 RB, 1 TE, 3 WR",6,"4 DL, 2 LB, 5 DB",left,2019-09-15T22:22:40.000Z,2019-09-15T22:22:39.000Z,6-1,211,06/14/1993,Clemson,WR,OAK,KC,2,Oakland-Alameda County Coliseum,"Oakland, CA",Outdoor,Natural Grass,Sunny,70.0,61,13,WSW
26271,2019091510,20190915102976,away,85.32,30.61,1.71,0.52,0.17,314.17,244.7,2543816,Laurent Duvernay-Tardif,76,2019,24,3,07:59:00,KC,2,6,KC,10,28,2550512,SHOTGUN,"1 RB, 1 TE, 3 WR",6,"4 DL, 2 LB, 5 DB",left,2019-09-15T22:22:40.000Z,2019-09-15T22:22:39.000Z,6-5,321,02/11/1991,McGill,G,OAK,KC,2,Oakland-Alameda County Coliseum,"Oakland, CA",Outdoor,Natural Grass,Sunny,70.0,61,13,WSW
26272,2019091510,20190915102976,away,89.58,29.4,3.3,2.65,0.33,288.63,320.44,2550512,Damien Williams,26,2019,24,3,07:59:00,KC,2,6,KC,10,28,2550512,SHOTGUN,"1 RB, 1 TE, 3 WR",6,"4 DL, 2 LB, 5 DB",left,2019-09-15T22:22:40.000Z,2019-09-15T22:22:39.000Z,5-11,224,04/03/1992,Oklahoma,RB,OAK,KC,2,Oakland-Alameda County Coliseum,"Oakland, CA",Outdoor,Natural Grass,Sunny,70.0,61,13,WSW
26273,2019091510,20190915102976,away,86.81,26.86,0.31,0.86,0.03,279.21,166.15,2552240,Cameron Erving,75,2019,24,3,07:59:00,KC,2,6,KC,10,28,2550512,SHOTGUN,"1 RB, 1 TE, 3 WR",6,"4 DL, 2 LB, 5 DB",left,2019-09-15T22:22:40.000Z,2019-09-15T22:22:39.000Z,6-5,313,08/23/1992,Florida State,G,OAK,KC,2,Oakland-Alameda County Coliseum,"Oakland, CA",Outdoor,Natural Grass,Sunny,70.0,61,13,WSW
26274,2019091510,20190915102976,away,87.12,28.23,1.35,1.64,0.13,280.9,163.59,2553452,Austin Reiter,62,2019,24,3,07:59:00,KC,2,6,KC,10,28,2550512,SHOTGUN,"1 RB, 1 TE, 3 WR",6,"4 DL, 2 LB, 5 DB",left,2019-09-15T22:22:40.000Z,2019-09-15T22:22:39.000Z,6-3,300,11/27/1991,South Florida,C,OAK,KC,2,Oakland-Alameda County Coliseum,"Oakland, CA",Outdoor,Natural Grass,Sunny,70.0,61,13,WSW
26275,2019091510,20190915102976,away,83.92,9.39,4.6,1.04,0.45,275.65,279.85,2555478,Demarcus Robinson,11,2019,24,3,07:59:00,KC,2,6,KC,10,28,2550512,SHOTGUN,"1 RB, 1 TE, 3 WR",6,"4 DL, 2 LB, 5 DB",left,2019-09-15T22:22:40.000Z,2019-09-15T22:22:39.000Z,6-1,203,09/21/1994,Florida,WR,OAK,KC,2,Oakland-Alameda County Coliseum,"Oakland, CA",Outdoor,Natural Grass,Sunny,70.0,61,13,WSW
26276,2019091510,20190915102976,away,90.49,29.67,0.66,1.12,0.06,263.29,159.08,2558125,Patrick Mahomes,15,2019,24,3,07:59:00,KC,2,6,KC,10,28,2550512,SHOTGUN,"1 RB, 1 TE, 3 WR",6,"4 DL, 2 LB, 5 DB",left,2019-09-15T22:22:40.000Z,2019-09-15T22:22:39.000Z,6-3,230,09/17/1995,Texas Tech,QB,OAK,KC,2,Oakland-Alameda County Coliseum,"Oakland, CA",Outdoor,Natural Grass,Sunny,70.0,61,13,WSW
26277,2019091510,20190915102976,away,86.4,27.53,1.0,0.41,0.1,240.0,195.35,2559354,Andrew Wylie,77,2019,24,3,07:59:00,KC,2,6,KC,10,28,2550512,SHOTGUN,"1 RB, 1 TE, 3 WR",6,"4 DL, 2 LB, 5 DB",left,2019-09-15T22:22:40.000Z,2019-09-15T22:22:39.000Z,6-6,309,08/19/1994,Eastern Michigan,OT,OAK,KC,2,Oakland-Alameda County Coliseum,"Oakland, CA",Outdoor,Natural Grass,Sunny,70.0,61,13,WSW
26278,2019091510,20190915102976,away,84.15,41.63,5.42,3.21,0.52,289.56,314.51,2562580,Mecole Hardman,17,2019,24,3,07:59:00,KC,2,6,KC,10,28,2550512,SHOTGUN,"1 RB, 1 TE, 3 WR",6,"4 DL, 2 LB, 5 DB",left,2019-09-15T22:22:40.000Z,2019-09-15T22:22:39.000Z,5-10,187,03/12/1998,Georgia,WR,OAK,KC,2,Oakland-Alameda County Coliseum,"Oakland, CA",Outdoor,Natural Grass,Sunny,70.0,61,13,WSW
26279,2019091510,20190915102976,home,82.43,32.0,1.33,1.83,0.13,87.22,108.18,2532986,Tahir Whitehead,59,2019,24,3,07:59:00,KC,2,6,KC,10,28,2550512,SHOTGUN,"1 RB, 1 TE, 3 WR",6,"4 DL, 2 LB, 5 DB",left,2019-09-15T22:22:40.000Z,2019-09-15T22:22:39.000Z,6-1,241,04/02/1990,Temple,OLB,OAK,KC,2,Oakland-Alameda County Coliseum,"Oakland, CA",Outdoor,Natural Grass,Sunny,70.0,61,13,WSW
26280,2019091510,20190915102976,home,80.46,27.01,0.94,0.76,0.09,73.36,43.23,2533058,Vontaze Burfict,55,2019,24,3,07:59:00,KC,2,6,KC,10,28,2550512,SHOTGUN,"1 RB, 1 TE, 3 WR",6,"4 DL, 2 LB, 5 DB",left,2019-09-15T22:22:40.000Z,2019-09-15T22:22:39.000Z,6-1,255,09/24/1990,Arizona State,OLB,OAK,KC,2,Oakland-Alameda County Coliseum,"Oakland, CA",Outdoor,Natural Grass,Sunny,70.0,61,13,WSW
26281,2019091510,20190915102976,home,86.38,28.4,0.82,2.29,0.07,105.06,111.56,2540147,Johnathan Hankins,90,2019,24,3,07:59:00,KC,2,6,KC,10,28,2550512,SHOTGUN,"1 RB, 1 TE, 3 WR",6,"4 DL, 2 LB, 5 DB",left,2019-09-15T22:22:40.000Z,2019-09-15T22:22:39.000Z,6-3,340,03/30/1992,Ohio State,DT,OAK,KC,2,Oakland-Alameda County Coliseum,"Oakland, CA",Outdoor,Natural Grass,Sunny,70.0,61,13,WSW
26282,2019091510,20190915102976,home,81.81,19.24,0.58,0.52,0.05,76.72,333.54,2543492,Lamarcus Joyner,29,2019,24,3,07:59:00,KC,2,6,KC,10,28,2550512,SHOTGUN,"1 RB, 1 TE, 3 WR",6,"4 DL, 2 LB, 5 DB",left,2019-09-15T22:22:40.000Z,2019-09-15T22:22:39.000Z,5-8,185,11/27/1990,Florida State,FS,OAK,KC,2,Oakland-Alameda County Coliseum,"Oakland, CA",Outdoor,Natural Grass,Sunny,70.0,61,13,WSW
26283,2019091510,20190915102976,home,87.15,35.36,2.21,2.09,0.22,165.32,131.61,2550437,Josh Mauro,97,2019,24,3,07:59:00,KC,2,6,KC,10,28,2550512,SHOTGUN,"1 RB, 1 TE, 3 WR",6,"4 DL, 2 LB, 5 DB",left,2019-09-15T22:22:40.000Z,2019-09-15T22:22:39.000Z,6-6,290,02/17/1991,Stanford,DE,OAK,KC,2,Oakland-Alameda County Coliseum,"Oakland, CA",Outdoor,Natural Grass,Sunny,70.0,61,13,WSW
26284,2019091510,20190915102976,home,75.01,35.4,0.27,0.62,0.03,97.89,265.99,2555342,Karl Joseph,42,2019,24,3,07:59:00,KC,2,6,KC,10,28,2550512,SHOTGUN,"1 RB, 1 TE, 3 WR",6,"4 DL, 2 LB, 5 DB",left,2019-09-15T22:22:40.000Z,2019-09-15T22:22:39.000Z,5-10,200,09/08/1993,West Virginia,SS,OAK,KC,2,Oakland-Alameda County Coliseum,"Oakland, CA",Outdoor,Natural Grass,Sunny,70.0,61,13,WSW
26285,2019091510,20190915102976,home,76.72,9.56,2.18,0.31,0.22,62.5,275.55,2555394,Daryl Worley,20,2019,24,3,07:59:00,KC,2,6,KC,10,28,2550512,SHOTGUN,"1 RB, 1 TE, 3 WR",6,"4 DL, 2 LB, 5 DB",left,2019-09-15T22:22:40.000Z,2019-09-15T22:22:39.000Z,6-1,215,02/22/1995,West Virginia,CB,OAK,KC,2,Oakland-Alameda County Coliseum,"Oakland, CA",Outdoor,Natural Grass,Sunny,70.0,61,13,WSW
26286,2019091510,20190915102976,home,72.55,19.33,0.58,0.76,0.06,72.74,200.41,2555568,Erik Harris,25,2019,24,3,07:59:00,KC,2,6,KC,10,28,2550512,SHOTGUN,"1 RB, 1 TE, 3 WR",6,"4 DL, 2 LB, 5 DB",left,2019-09-15T22:22:40.000Z,2019-09-15T22:22:39.000Z,6-2,220,04/02/1990,"California, Pa.",SS,OAK,KC,2,Oakland-Alameda County Coliseum,"Oakland, CA",Outdoor,Natural Grass,Sunny,70.0,61,13,WSW
26287,2019091510,20190915102976,home,83.27,40.81,4.0,3.66,0.38,344.91,308.46,2558062,Gareon Conley,21,2019,24,3,07:59:00,KC,2,6,KC,10,28,2550512,SHOTGUN,"1 RB, 1 TE, 3 WR",6,"4 DL, 2 LB, 5 DB",left,2019-09-15T22:22:40.000Z,2019-09-15T22:22:39.000Z,6-0,190,06/29/1995,Ohio State,CB,OAK,KC,2,Oakland-Alameda County Coliseum,"Oakland, CA",Outdoor,Natural Grass,Sunny,70.0,61,13,WSW
26288,2019091510,20190915102976,home,85.82,31.37,1.59,1.58,0.16,133.06,189.27,2560748,Maurice Hurst,73,2019,24,3,07:59:00,KC,2,6,KC,10,28,2550512,SHOTGUN,"1 RB, 1 TE, 3 WR",6,"4 DL, 2 LB, 5 DB",left,2019-09-15T22:22:40.000Z,2019-09-15T22:22:39.000Z,6-1,291,05/09/1995,Michigan,DT,OAK,KC,2,Oakland-Alameda County Coliseum,"Oakland, CA",Outdoor,Natural Grass,Sunny,70.0,61,13,WSW
26289,2019091510,20190915102976,home,85.93,27.07,0.67,1.43,0.07,52.11,159.28,2562263,Clelin Ferrell,96,2019,24,3,07:59:00,KC,2,6,KC,10,28,2550512,SHOTGUN,"1 RB, 1 TE, 3 WR",6,"4 DL, 2 LB, 5 DB",left,2019-09-15T22:22:40.000Z,2019-09-15T22:22:39.000Z,6-4,265,05/17/1997,Clemson,DL,OAK,KC,2,Oakland-Alameda County Coliseum,"Oakland, CA",Outdoor,Natural Grass,Sunny,70.0,61,13,WSW
