,GameId,PlayId,Team,X,Y,S,A,Dis,Orientation,Dir,NflId,DisplayName,JerseyNumber,Season,YardLine,Quarter,GameClock,PossessionTeam,Down,Distance,FieldPosition,HomeScoreBeforePlay,VisitorScoreBeforePlay,NflIdRusher,OffenseFormation,OffensePersonnel,DefendersInTheBox,DefensePersonnel,PlayDirection,TimeHandoff,TimeSnap,PlayerHeight,PlayerWeight,PlayerBirthDate,PlayerCollegeName,Position,HomeTeamAbbr,VisitorTeamAbbr,Week,Stadium,Location,StadiumType,Turf,GameWeather,Temperature,Humidity,WindSpeed,WindDirection
26686,2019091511,20190915110301,away,85.85,34.27,1.13,0.75,0.12,304.19,324.14,2533543,Bobby Massie,70,2019,25,1,09:45:00,CHI,1,10,CHI,3,0,2562502,SINGLEBACK,"1 RB, 1 TE, 3 WR",6,"2 DL, 4 LB, 5 DB",left,2019-09-15T20:35:22.000Z,2019-09-15T20:35:21.000Z,6-6,325,08/01/1989,Mississippi,T,DEN,CHI,2,Empower Field at Mile High,Denver CO,Outdoor,Grass,Mostly Sunny,87.0,14,3,East
26687,2019091511,20190915110301,away,85.37,32.25,0.97,2.56,0.09,11.09,43.45,2539933,Kyle Long,75,2019,25,1,09:45:00,CHI,1,10,CHI,3,0,2562502,SINGLEBACK,"1 RB, 1 TE, 3 WR",6,"2 DL, 4 LB, 5 DB",left,2019-09-15T20:35:22.000Z,2019-09-15T20:35:21.000Z,6-6,332,12/05/1988,Oregon,OG,DEN,CHI,2,Empower Field at Mile High,Denver CO,Outdoor,Grass,Mostly Sunny,87.0,14,3,East
26688,2019091511,20190915110301,away,84.92,24.74,3.86,2.51,0.37,331.9,342.05,2540145,Cordarrelle Patterson,84,2019,25,1,09:45:00,CHI,1,10,CHI,3,0,2562502,SINGLEBACK,"1 RB, 1 TE, 3 WR",6,"2 DL, 4 LB, 5 DB",left,2019-09-15T20:35:22.000Z,2019-09-15T20:35:21.000Z,6-2,238,03/17/1991,Tennessee,WR,DEN,CHI,2,Empower Field at Mile High,Denver CO,Outdoor,Grass,Mostly Sunny,87.0,14,3,East
26689,2019091511,20190915110301,away,83.67,37.95,4.6,3.67,0.44,57.38,241.3,2543509,Allen Robinson,12,2019,25,1,09:45:00,CHI,1,10,CHI,3,0,2562502,SINGLEBACK,"1 RB, 1 TE, 3 WR",6,"2 DL, 4 LB, 5 DB",left,2019-09-15T20:35:22.000Z,2019-09-15T20:35:21.000Z,6-2,220,08/24/1993,Penn State,WR,DEN,CHI,2,Empower Field at Mile High,Denver CO,Outdoor,Grass,Mostly Sunny,87.0,14,3,East
26690,2019091511,20190915110301,away,84.46,28.14,3.06,0.65,0.3,49.67,317.11,2550169,Charles Leno Jr.,72,2019,25,1,09:45:00,CHI,1,10,CHI,3,0,2562502,SINGLEBACK,"1 RB, 1 TE, 3 WR",6,"2 DL, 4 LB, 5 DB",left,2019-09-15T20:35:22.000Z,2019-09-15T20:35:21.000Z,6-3,305,10/09/1991,Boise State,T,DEN,CHI,2,Empower Field at Mile High,Denver CO,Outdoor,Grass,Mostly Sunny,87.0,14,3,East
26691,2019091511,20190915110301,away,86.85,31.07,3.65,0.16,0.37,233.82,200.58,2550284,Trey Burton,80,2019,25,1,09:45:00,CHI,1,10,CHI,3,0,2562502,SINGLEBACK,"1 RB, 1 TE, 3 WR",6,"2 DL, 4 LB, 5 DB",left,2019-09-15T20:35:22.000Z,2019-09-15T20:35:21.000Z,6-2,238,10/29/1991,Florida,TE,DEN,CHI,2,Empower Field at Mile High,Denver CO,Outdoor,Grass,Mostly Sunny,87.0,14,3,East
26692,2019091511,20190915110301,away,84.23,21.84,4.67,2.22,0.46,252.63,292.89,2550617,Taylor Gabriel,18,2019,25,1,09:45:00,CHI,1,10,CHI,3,0,2562502,SINGLEBACK,"1 RB, 1 TE, 3 WR",6,"2 DL, 4 LB, 5 DB",left,2019-09-15T20:35:22.000Z,2019-09-15T20:35:21.000Z,5-7,167,02/17/1991,Abilene Christian,WR,DEN,CHI,2,Empower Field at Mile High,Denver CO,Outdoor,Grass,Mostly Sunny,87.0,14,3,East
26693,2019091511,20190915110301,away,85.15,30.96,2.63,2.53,0.27,359.79,6.87,2555132,Cody Whitehair,65,2019,25,1,09:45:00,CHI,1,10,CHI,3,0,2562502,SINGLEBACK,"1 RB, 1 TE, 3 WR",6,"2 DL, 4 LB, 5 DB",left,2019-09-15T20:35:22.000Z,2019-09-15T20:35:21.000Z,6-3,309,07/11/1992,Kansas State,OG,DEN,CHI,2,Empower Field at Mile High,Denver CO,Outdoor,Grass,Mostly Sunny,87.0,14,3,East
26694,2019091511,20190915110301,away,88.76,30.88,4.08,1.94,0.4,15.37,73.65,2558008,Mitchell Trubisky,10,2019,25,1,09:45:00,CHI,1,10,CHI,3,0,2562502,SINGLEBACK,"1 RB, 1 TE, 3 WR",6,"2 DL, 4 LB, 5 DB",left,2019-09-15T20:35:22.000Z,2019-09-15T20:35:21.000Z,6-2,215,08/20/1994,North Carolina,QB,DEN,CHI,2,Empower Field at Mile High,Denver CO,Outdoor,Grass,Mostly Sunny,87.0,14,3,East
26695,2019091511,20190915110301,away,83.9,31.86,3.51,1.65,0.35,276.85,308.7,2561035,James Daniels,68,2019,25,1,09:45:00,CHI,1,10,CHI,3,0,2562502,SINGLEBACK,"1 RB, 1 TE, 3 WR",6,"2 DL, 4 LB, 5 DB",left,2019-09-15T20:35:22.000Z,2019-09-15T20:35:21.000Z,6-3,305,09/13/1997,Iowa,C,DEN,CHI,2,Empower Field at Mile High,Denver CO,Outdoor,Grass,Mostly Sunny,87.0,14,3,East
26696,2019091511,20190915110301,away,90.41,31.47,4.56,2.85,0.44,281.34,297.58,2562502,David Montgomery,32,2019,25,1,09:45:00,CHI,1,10,CHI,3,0,2562502,SINGLEBACK,"1 RB, 1 TE, 3 WR",6,"2 DL, 4 LB, 5 DB",left,2019-09-15T20:35:22.000Z,2019-09-15T20:35:21.000Z,5-10,222,06/07/1997,Iowa State,RB,DEN,CHI,2,Empower Field at Mile High,Denver CO,Outdoor,Grass,Mostly Sunny,87.0,14,3,East
26697,2019091511,20190915110301,home,84.71,25.93,5.18,1.76,0.51,24.48,31.36,496735,Kareem Jackson,22,2019,25,1,09:45:00,CHI,1,10,CHI,3,0,2562502,SINGLEBACK,"1 RB, 1 TE, 3 WR",6,"2 DL, 4 LB, 5 DB",left,2019-09-15T20:35:22.000Z,2019-09-15T20:35:21.000Z,5-10,185,04/10/1988,Alabama,CB,DEN,CHI,2,Empower Field at Mile High,Denver CO,Outdoor,Grass,Mostly Sunny,87.0,14,3,East
26698,2019091511,20190915110301,home,84.78,35.09,0.56,2.18,0.05,148.87,169.48,2495202,Von Miller,58,2019,25,1,09:45:00,CHI,1,10,CHI,3,0,2562502,SINGLEBACK,"1 RB, 1 TE, 3 WR",6,"2 DL, 4 LB, 5 DB",left,2019-09-15T20:35:22.000Z,2019-09-15T20:35:21.000Z,6-3,250,03/26/1989,Texas A&M,OLB,DEN,CHI,2,Empower Field at Mile High,Denver CO,Outdoor,Grass,Mostly Sunny,87.0,14,3,East
26699,2019091511,20190915110301,home,79.47,39.48,2.77,1.75,0.27,156.44,245.9,2530510,Chris Harris,25,2019,25,1,09:45:00,CHI,1,10,CHI,3,0,2562502,SINGLEBACK,"1 RB, 1 TE, 3 WR",6,"2 DL, 4 LB, 5 DB",left,2019-09-15T20:35:22.000Z,2019-09-15T20:35:21.000Z,5-10,199,06/18/1989,Kansas,CB,DEN,CHI,2,Empower Field at Mile High,Denver CO,Outdoor,Grass,Mostly Sunny,87.0,14,3,East
26700,2019091511,20190915110301,home,84.92,32.8,0.86,0.63,0.1,98.81,37.05,2533026,Derek Wolfe,95,2019,25,1,09:45:00,CHI,1,10,CHI,3,0,2562502,SINGLEBACK,"1 RB, 1 TE, 3 WR",6,"2 DL, 4 LB, 5 DB",left,2019-09-15T20:35:22.000Z,2019-09-15T20:35:21.000Z,6-5,285,02/24/1990,Cincinnati,DE,DEN,CHI,2,Empower Field at Mile High,Denver CO,Outdoor,Grass,Mostly Sunny,87.0,14,3,East
26701,2019091511,20190915110301,home,84.77,31.6,2.95,1.44,0.3,350.44,10.54,2549926,Shelby Harris,96,2019,25,1,09:45:00,CHI,1,10,CHI,3,0,2562502,SINGLEBACK,"1 RB, 1 TE, 3 WR",6,"2 DL, 4 LB, 5 DB",left,2019-09-15T20:35:22.000Z,2019-09-15T20:35:21.000Z,6-2,290,08/11/1991,Illinois State,NT,DEN,CHI,2,Empower Field at Mile High,Denver CO,Outdoor,Grass,Mostly Sunny,87.0,14,3,East
26702,2019091511,20190915110301,home,81.66,29.52,1.34,0.57,0.13,83.62,61.49,2550167,Corey Nelson,56,2019,25,1,09:45:00,CHI,1,10,CHI,3,0,2562502,SINGLEBACK,"1 RB, 1 TE, 3 WR",6,"2 DL, 4 LB, 5 DB",left,2019-09-15T20:35:22.000Z,2019-09-15T20:35:21.000Z,6-1,226,04/22/1992,Oklahoma,ILB,DEN,CHI,2,Empower Field at Mile High,Denver CO,Outdoor,Grass,Mostly Sunny,87.0,14,3,East
26703,2019091511,20190915110301,home,73.78,35.34,3.72,2.67,0.36,155.4,236.69,2555550,Justin Simmons,31,2019,25,1,09:45:00,CHI,1,10,CHI,3,0,2562502,SINGLEBACK,"1 RB, 1 TE, 3 WR",6,"2 DL, 4 LB, 5 DB",left,2019-09-15T20:35:22.000Z,2019-09-15T20:35:21.000Z,6-2,202,11/19/1993,Boston College,SS,DEN,CHI,2,Empower Field at Mile High,Denver CO,Outdoor,Grass,Mostly Sunny,87.0,14,3,East
26704,2019091511,20190915110301,home,77.47,22.65,3.09,2.08,0.31,83.14,68.68,2556278,Will Parks,34,2019,25,1,09:45:00,CHI,1,10,CHI,3,0,2562502,SINGLEBACK,"1 RB, 1 TE, 3 WR",6,"2 DL, 4 LB, 5 DB",left,2019-09-15T20:35:22.000Z,2019-09-15T20:35:21.000Z,6-1,194,07/29/1994,Arizona,FS,DEN,CHI,2,Empower Field at Mile High,Denver CO,Outdoor,Grass,Mostly Sunny,87.0,14,3,East
26705,2019091511,20190915110301,home,81.59,33.56,0.95,4.0,0.08,107.07,160.11,2560763,Josey Jewell,47,2019,25,1,09:45:00,CHI,1,10,CHI,3,0,2562502,SINGLEBACK,"1 RB, 1 TE, 3 WR",6,"2 DL, 4 LB, 5 DB",left,2019-09-15T20:35:22.000Z,2019-09-15T20:35:21.000Z,6-2,236,12/25/1994,Iowa,LB,DEN,CHI,2,Empower Field at Mile High,Denver CO,Outdoor,Grass,Mostly Sunny,87.0,14,3,East
26706,2019091511,20190915110301,home,76.23,19.27,2.37,2.29,0.23,359.42,314.42,2560946,Isaac Yiadom,26,2019,25,1,09:45:00,CHI,1,10,CHI,3,0,2562502,SINGLEBACK,"1 RB, 1 TE, 3 WR",6,"2 DL, 4 LB, 5 DB",left,2019-09-15T20:35:22.000Z,2019-09-15T20:35:21.000Z,6-1,190,02/20/1996,Boston College,DB,DEN,CHI,2,Empower Field at Mile High,Denver CO,Outdoor,Grass,Mostly Sunny,87.0,14,3,East
26707,2019091511,20190915110301,home,84.68,27.68,3.15,0.67,0.32,4.73,355.2,2561020,Bradley Chubb,55,2019,25,1,09:45:00,CHI,1,10,CHI,3,0,2562502,SINGLEBACK,"1 RB, 1 TE, 3 WR",6,"2 DL, 4 LB, 5 DB",left,2019-09-15T20:35:22.000Z,2019-09-15T20:35:21.000Z,6-4,275,06/24/1996,North Carolina State,DE,DEN,CHI,2,Empower Field at Mile High,Denver CO,Outdoor,Grass,Mostly Sunny,87.0,14,3,East
