,GameId,PlayId,Team,X,Y,S,A,Dis,Orientation,Dir,NflId,DisplayName,JerseyNumber,Season,YardLine,Quarter,GameClock,PossessionTeam,Down,Distance,FieldPosition,HomeScoreBeforePlay,VisitorScoreBeforePlay,NflIdRusher,OffenseFormation,OffensePersonnel,DefendersInTheBox,DefensePersonnel,PlayDirection,TimeHandoff,TimeSnap,PlayerHeight,PlayerWeight,PlayerBirthDate,PlayerCollegeName,Position,HomeTeamAbbr,VisitorTeamAbbr,Week,Stadium,Location,StadiumType,Turf,GameWeather,Temperature,Humidity,WindSpeed,WindDirection
69432,2019100607,20191006073086,away,68.14,27.85,2.6,4.62,0.24,319.79,329.89,2495466,Mark Ingram,21,2019,47,3,01:44:00,BLT,2,4,BLT,20,17,2495466,SHOTGUN,"1 RB, 1 TE, 3 WR",6,"2 DL, 4 LB, 5 DB",left,2019-10-06T19:22:24.000Z,2019-10-06T19:22:23.000Z,5-9,215,12/21/1989,Alabama,RB,PIT,BAL,5,Heinz Field,Pittsburgh,Outdoors,Grass,Rain,70.0,74,7,From SW
69433,2019100607,20191006073086,away,63.85,30.18,0.96,1.09,0.1,243.69,222.89,2507188,Marshal Yanda,73,2019,47,3,01:44:00,BLT,2,4,BLT,20,17,2495466,SHOTGUN,"1 RB, 1 TE, 3 WR",6,"2 DL, 4 LB, 5 DB",left,2019-10-06T19:22:24.000Z,2019-10-06T19:22:23.000Z,6-3,305,09/15/1984,Iowa,G,PIT,BAL,5,Heinz Field,Pittsburgh,Outdoors,Grass,Rain,70.0,74,7,From SW
69434,2019100607,20191006073086,away,63.89,34.86,3.2,2.35,0.31,291.51,313.08,2550256,Willie Snead,83,2019,47,3,01:44:00,BLT,2,4,BLT,20,17,2495466,SHOTGUN,"1 RB, 1 TE, 3 WR",6,"2 DL, 4 LB, 5 DB",left,2019-10-06T19:22:24.000Z,2019-10-06T19:22:23.000Z,5-11,205,10/17/1992,Ball State,WR,PIT,BAL,5,Heinz Field,Pittsburgh,Outdoors,Grass,Rain,70.0,74,7,From SW
69435,2019100607,20191006073086,away,61.93,43.95,5.0,3.06,0.48,254.05,243.13,2550597,Seth Roberts,11,2019,47,3,01:44:00,BLT,2,4,BLT,20,17,2495466,SHOTGUN,"1 RB, 1 TE, 3 WR",6,"2 DL, 4 LB, 5 DB",left,2019-10-06T19:22:24.000Z,2019-10-06T19:22:23.000Z,6-2,195,02/22/1991,West Alabama,WR,PIT,BAL,5,Heinz Field,Pittsburgh,Outdoors,Grass,Rain,70.0,74,7,From SW
69436,2019100607,20191006073086,away,66.12,28.09,5.08,2.77,0.49,334.17,358.27,2552402,Nick Boyle,86,2019,47,3,01:44:00,BLT,2,4,BLT,20,17,2495466,SHOTGUN,"1 RB, 1 TE, 3 WR",6,"2 DL, 4 LB, 5 DB",left,2019-10-06T19:22:24.000Z,2019-10-06T19:22:23.000Z,6-4,270,02/17/1993,Delaware,TE,PIT,BAL,5,Heinz Field,Pittsburgh,Outdoors,Grass,Rain,70.0,74,7,From SW
69437,2019100607,20191006073086,away,64.29,27.67,1.02,1.02,0.1,222.57,346.86,2555204,Ronnie Stanley,79,2019,47,3,01:44:00,BLT,2,4,BLT,20,17,2495466,SHOTGUN,"1 RB, 1 TE, 3 WR",6,"2 DL, 4 LB, 5 DB",left,2019-10-06T19:22:24.000Z,2019-10-06T19:22:23.000Z,6-6,315,03/18/1994,Notre Dame,T,PIT,BAL,5,Heinz Field,Pittsburgh,Outdoors,Grass,Rain,70.0,74,7,From SW
69438,2019100607,20191006073086,away,62.24,23.44,4.53,2.23,0.44,304.23,306.57,2555209,Chris Moore,10,2019,47,3,01:44:00,BLT,2,4,BLT,20,17,2495466,SHOTGUN,"1 RB, 1 TE, 3 WR",6,"2 DL, 4 LB, 5 DB",left,2019-10-06T19:22:24.000Z,2019-10-06T19:22:23.000Z,6-1,200,06/16/1993,Cincinnati,WR,PIT,BAL,5,Heinz Field,Pittsburgh,Outdoors,Grass,Rain,70.0,74,7,From SW
69439,2019100607,20191006073086,away,63.11,28.41,1.41,1.92,0.15,190.78,239.66,2556683,Matt Skura,68,2019,47,3,01:44:00,BLT,2,4,BLT,20,17,2495466,SHOTGUN,"1 RB, 1 TE, 3 WR",6,"2 DL, 4 LB, 5 DB",left,2019-10-06T19:22:24.000Z,2019-10-06T19:22:23.000Z,6-3,313,02/17/1993,Duke,C,PIT,BAL,5,Heinz Field,Pittsburgh,Outdoors,Grass,Rain,70.0,74,7,From SW
69440,2019100607,20191006073086,away,64.8,30.42,3.71,1.89,0.37,315.61,358.48,2559827,Bradley Bozeman,77,2019,47,3,01:44:00,BLT,2,4,BLT,20,17,2495466,SHOTGUN,"1 RB, 1 TE, 3 WR",6,"2 DL, 4 LB, 5 DB",left,2019-10-06T19:22:24.000Z,2019-10-06T19:22:23.000Z,6-3,317,11/24/1994,Alabama,C,PIT,BAL,5,Heinz Field,Pittsburgh,Outdoors,Grass,Rain,70.0,74,7,From SW
69441,2019100607,20191006073086,away,68.82,28.61,2.93,4.15,0.27,229.13,167.41,2560757,Lamar Jackson,8,2019,47,3,01:44:00,BLT,2,4,BLT,20,17,2495466,SHOTGUN,"1 RB, 1 TE, 3 WR",6,"2 DL, 4 LB, 5 DB",left,2019-10-06T19:22:24.000Z,2019-10-06T19:22:23.000Z,6-2,212,01/07/1997,Louisville,QB,PIT,BAL,5,Heinz Field,Pittsburgh,Outdoors,Grass,Rain,70.0,74,7,From SW
69442,2019100607,20191006073086,away,63.79,31.85,1.78,0.24,0.19,282.43,253.34,2560981,Orlando Brown,78,2019,47,3,01:44:00,BLT,2,4,BLT,20,17,2495466,SHOTGUN,"1 RB, 1 TE, 3 WR",6,"2 DL, 4 LB, 5 DB",left,2019-10-06T19:22:24.000Z,2019-10-06T19:22:23.000Z,6-8,345,05/02/1996,Oklahoma,T,PIT,BAL,5,Heinz Field,Pittsburgh,Outdoors,Grass,Rain,70.0,74,7,From SW
69443,2019100607,20191006073086,home,55.42,44.69,1.03,1.68,0.1,119.93,206.69,496733,Joe Haden,23,2019,47,3,01:44:00,BLT,2,4,BLT,20,17,2495466,SHOTGUN,"1 RB, 1 TE, 3 WR",6,"2 DL, 4 LB, 5 DB",left,2019-10-06T19:22:24.000Z,2019-10-06T19:22:23.000Z,5-11,195,04/14/1989,Florida,CB,PIT,BAL,5,Heinz Field,Pittsburgh,Outdoors,Grass,Rain,70.0,74,7,From SW
69444,2019100607,20191006073086,home,62.74,27.32,0.68,2.28,0.09,51.25,244.3,2508109,Cameron Heyward,97,2019,47,3,01:44:00,BLT,2,4,BLT,20,17,2495466,SHOTGUN,"1 RB, 1 TE, 3 WR",6,"2 DL, 4 LB, 5 DB",left,2019-10-06T19:22:24.000Z,2019-10-06T19:22:23.000Z,6-5,295,05/06/1989,Ohio State,DT,PIT,BAL,5,Heinz Field,Pittsburgh,Outdoors,Grass,Rain,70.0,74,7,From SW
69445,2019100607,20191006073086,home,60.85,32.69,3.29,5.95,0.3,91.64,68.7,2540221,Vince Williams,98,2019,47,3,01:44:00,BLT,2,4,BLT,20,17,2495466,SHOTGUN,"1 RB, 1 TE, 3 WR",6,"2 DL, 4 LB, 5 DB",left,2019-10-06T19:22:24.000Z,2019-10-06T19:22:23.000Z,6-1,233,12/27/1989,Florida State,ILB,PIT,BAL,5,Heinz Field,Pittsburgh,Outdoors,Grass,Rain,70.0,74,7,From SW
69446,2019100607,20191006073086,home,63.12,29.97,0.55,2.52,0.05,80.26,201.37,2543483,Stephon Tuitt,91,2019,47,3,01:44:00,BLT,2,4,BLT,20,17,2495466,SHOTGUN,"1 RB, 1 TE, 3 WR",6,"2 DL, 4 LB, 5 DB",left,2019-10-06T19:22:24.000Z,2019-10-06T19:22:23.000Z,6-6,303,05/23/1993,Notre Dame,DE,PIT,BAL,5,Heinz Field,Pittsburgh,Outdoors,Grass,Rain,70.0,74,7,From SW
69447,2019100607,20191006073086,home,54.98,19.75,0.53,0.82,0.05,68.34,257.43,2552265,Steven Nelson,22,2019,47,3,01:44:00,BLT,2,4,BLT,20,17,2495466,SHOTGUN,"1 RB, 1 TE, 3 WR",6,"2 DL, 4 LB, 5 DB",left,2019-10-06T19:22:24.000Z,2019-10-06T19:22:23.000Z,5-11,194,01/22/1993,Oregon State,CB,PIT,BAL,5,Heinz Field,Pittsburgh,Outdoors,Grass,Rain,70.0,74,7,From SW
69448,2019100607,20191006073086,home,62.94,25.82,1.15,0.39,0.11,68.98,53.93,2552289,Bud Dupree,48,2019,47,3,01:44:00,BLT,2,4,BLT,20,17,2495466,SHOTGUN,"1 RB, 1 TE, 3 WR",6,"2 DL, 4 LB, 5 DB",left,2019-10-06T19:22:24.000Z,2019-10-06T19:22:23.000Z,6-4,269,02/12/1993,Kentucky,OLB,PIT,BAL,5,Heinz Field,Pittsburgh,Outdoors,Grass,Rain,70.0,74,7,From SW
69449,2019100607,20191006073086,home,63.19,24.41,1.95,2.27,0.18,53.82,80.39,2556559,Mike Hilton,28,2019,47,3,01:44:00,BLT,2,4,BLT,20,17,2495466,SHOTGUN,"1 RB, 1 TE, 3 WR",6,"2 DL, 4 LB, 5 DB",left,2019-10-06T19:22:24.000Z,2019-10-06T19:22:23.000Z,5-9,184,03/09/1994,Mississippi,CB,PIT,BAL,5,Heinz Field,Pittsburgh,Outdoors,Grass,Rain,70.0,74,7,From SW
69450,2019100607,20191006073086,home,63.11,32.68,1.32,2.67,0.13,146.46,149.8,2558064,T.J. Watt,90,2019,47,3,01:44:00,BLT,2,4,BLT,20,17,2495466,SHOTGUN,"1 RB, 1 TE, 3 WR",6,"2 DL, 4 LB, 5 DB",left,2019-10-06T19:22:24.000Z,2019-10-06T19:22:23.000Z,6-4,252,10/11/1994,Wisconsin,OLB,PIT,BAL,5,Heinz Field,Pittsburgh,Outdoors,Grass,Rain,70.0,74,7,From SW
69451,2019100607,20191006073086,home,60.63,37.87,0.49,1.27,0.05,109.43,82.27,2560712,Terrell Edmunds,34,2019,47,3,01:44:00,BLT,2,4,BLT,20,17,2495466,SHOTGUN,"1 RB, 1 TE, 3 WR",6,"2 DL, 4 LB, 5 DB",left,2019-10-06T19:22:24.000Z,2019-10-06T19:22:23.000Z,6-1,217,01/20/1997,Virginia Tech,S,PIT,BAL,5,Heinz Field,Pittsburgh,Outdoors,Grass,Rain,70.0,74,7,From SW
69452,2019100607,20191006073086,home,48.97,31.26,0.45,0.44,0.04,72.45,359.43,2560725,Minkah Fitzpatrick,39,2019,47,3,01:44:00,BLT,2,4,BLT,20,17,2495466,SHOTGUN,"1 RB, 1 TE, 3 WR",6,"2 DL, 4 LB, 5 DB",left,2019-10-06T19:22:24.000Z,2019-10-06T19:22:23.000Z,6-1,207,11/17/1996,Alabama,S,PIT,BAL,5,Heinz Field,Pittsburgh,Outdoors,Grass,Rain,70.0,74,7,From SW
69453,2019100607,20191006073086,home,60.66,29.91,2.42,1.25,0.24,76.37,43.38,2562243,Devin Bush,55,2019,47,3,01:44:00,BLT,2,4,BLT,20,17,2495466,SHOTGUN,"1 RB, 1 TE, 3 WR",6,"2 DL, 4 LB, 5 DB",left,2019-10-06T19:22:24.000Z,2019-10-06T19:22:23.000Z,5-11,233,07/18/1998,Michigan,LB,PIT,BAL,5,Heinz Field,Pittsburgh,Outdoors,Grass,Rain,70.0,74,7,From SW
