,GameId,PlayId,Team,X,Y,S,A,Dis,Orientation,Dir,NflId,DisplayName,JerseyNumber,Season,YardLine,Quarter,GameClock,PossessionTeam,Down,Distance,FieldPosition,HomeScoreBeforePlay,VisitorScoreBeforePlay,NflIdRusher,OffenseFormation,OffensePersonnel,DefendersInTheBox,DefensePersonnel,PlayDirection,TimeHandoff,TimeSnap,PlayerHeight,PlayerWeight,PlayerBirthDate,PlayerCollegeName,Position,HomeTeamAbbr,VisitorTeamAbbr,Week,Stadium,Location,StadiumType,Turf,GameWeather,Temperature,Humidity,WindSpeed,WindDirection
75592,2019100700,20191007003923,away,87.7,19.49,3.74,1.93,0.38,99.32,162.53,2533534,Olivier Vernon,54,2019,23,4,02:54:00,SF,2,7,SF,31,3,2553728,I_FORM,"1 RB, 3 TE, 1 WR",8,"3 DL, 4 LB, 4 DB",left,2019-10-08T03:06:02.000Z,2019-10-08T03:06:01.000Z,6-2,262,10/07/1990,Miami,OLB,SF,CLE,5,Levis Stadium,"Santa Clara, CA",Outdoor,Natural Grass,Clear,87.0,36,8,NW
75593,2019100700,20191007003923,away,86.83,27.3,2.78,2.26,0.28,97.61,180.93,2540142,Sheldon Richardson,98,2019,23,4,02:54:00,SF,2,7,SF,31,3,2553728,I_FORM,"1 RB, 3 TE, 1 WR",8,"3 DL, 4 LB, 4 DB",left,2019-10-08T03:06:02.000Z,2019-10-08T03:06:01.000Z,6-3,294,11/29/1990,Missouri,DT,SF,CLE,5,Levis Stadium,"Santa Clara, CA",Outdoor,Natural Grass,Clear,87.0,36,8,NW
75594,2019100700,20191007003923,away,86.39,34.29,3.22,3.77,0.3,173.69,153.57,2543637,Terrance Mitchell,39,2019,23,4,02:54:00,SF,2,7,SF,31,3,2553728,I_FORM,"1 RB, 3 TE, 1 WR",8,"3 DL, 4 LB, 4 DB",left,2019-10-08T03:06:02.000Z,2019-10-08T03:06:01.000Z,5-11,190,05/17/1992,Oregon,CB,SF,CLE,5,Levis Stadium,"Santa Clara, CA",Outdoor,Natural Grass,Clear,87.0,36,8,NW
75595,2019100700,20191007003923,away,79.45,13.95,1.95,0.86,0.19,83.25,218.31,2550164,T.J. Carrie,38,2019,23,4,02:54:00,SF,2,7,SF,31,3,2553728,I_FORM,"1 RB, 3 TE, 1 WR",8,"3 DL, 4 LB, 4 DB",left,2019-10-08T03:06:02.000Z,2019-10-08T03:06:01.000Z,6-0,204,07/28/1990,Ohio,CB,SF,CLE,5,Levis Stadium,"Santa Clara, CA",Outdoor,Natural Grass,Clear,87.0,36,8,NW
75596,2019100700,20191007003923,away,86.23,18.88,4.62,1.6,0.46,108.5,150.56,2550565,Adarius Taylor,57,2019,23,4,02:54:00,SF,2,7,SF,31,3,2553728,I_FORM,"1 RB, 3 TE, 1 WR",8,"3 DL, 4 LB, 4 DB",left,2019-10-08T03:06:02.000Z,2019-10-08T03:06:01.000Z,6-0,230,09/21/1990,Florida Atlantic,MLB,SF,CLE,5,Levis Stadium,"Santa Clara, CA",Outdoor,Natural Grass,Clear,87.0,36,8,NW
75597,2019100700,20191007003923,away,72.22,26.2,1.68,1.75,0.16,114.84,174.94,2552389,Damarious Randall,23,2019,23,4,02:54:00,SF,2,7,SF,31,3,2553728,I_FORM,"1 RB, 3 TE, 1 WR",8,"3 DL, 4 LB, 4 DB",left,2019-10-08T03:06:02.000Z,2019-10-08T03:06:01.000Z,5-11,196,08/29/1992,Arizona State,CB,SF,CLE,5,Levis Stadium,"Santa Clara, CA",Outdoor,Natural Grass,Clear,87.0,36,8,NW
75598,2019100700,20191007003923,away,83.69,27.64,4.4,3.19,0.42,84.42,202.6,2552697,Jermaine Whitehead,35,2019,23,4,02:54:00,SF,2,7,SF,31,3,2553728,I_FORM,"1 RB, 3 TE, 1 WR",8,"3 DL, 4 LB, 4 DB",left,2019-10-08T03:06:02.000Z,2019-10-08T03:06:01.000Z,5-11,195,03/12/1993,Auburn,FS,SF,CLE,5,Levis Stadium,"Santa Clara, CA",Outdoor,Natural Grass,Clear,87.0,36,8,NW
75599,2019100700,20191007003923,away,84.33,22.75,4.38,2.4,0.42,119.41,167.36,2555166,Joe Schobert,53,2019,23,4,02:54:00,SF,2,7,SF,31,3,2553728,I_FORM,"1 RB, 3 TE, 1 WR",8,"3 DL, 4 LB, 4 DB",left,2019-10-08T03:06:02.000Z,2019-10-08T03:06:01.000Z,6-1,245,11/06/1993,Wisconsin,MLB,SF,CLE,5,Levis Stadium,"Santa Clara, CA",Outdoor,Natural Grass,Clear,87.0,36,8,NW
75600,2019100700,20191007003923,away,86.96,22.6,2.63,0.07,0.28,73.92,180.55,2557836,Larry Ogunjobi,65,2019,23,4,02:54:00,SF,2,7,SF,31,3,2553728,I_FORM,"1 RB, 3 TE, 1 WR",8,"3 DL, 4 LB, 4 DB",left,2019-10-08T03:06:02.000Z,2019-10-08T03:06:01.000Z,6-3,305,06/03/1994,North Carolina-Charlotte,DT,SF,CLE,5,Levis Stadium,"Santa Clara, CA",Outdoor,Natural Grass,Clear,87.0,36,8,NW
75601,2019100700,20191007003923,away,87.85,29.03,3.12,2.3,0.36,101.45,157.17,2557965,Myles Garrett,95,2019,23,4,02:54:00,SF,2,7,SF,31,3,2553728,I_FORM,"1 RB, 3 TE, 1 WR",8,"3 DL, 4 LB, 4 DB",left,2019-10-08T03:06:02.000Z,2019-10-08T03:06:01.000Z,6-4,272,12/29/1995,Texas A&M,DE,SF,CLE,5,Levis Stadium,"Santa Clara, CA",Outdoor,Natural Grass,Clear,87.0,36,8,NW
75602,2019100700,20191007003923,away,85.83,25.07,4.65,1.46,0.46,124.88,131.03,2562605,Mack Wilson,51,2019,23,4,02:54:00,SF,2,7,SF,31,3,2553728,I_FORM,"1 RB, 3 TE, 1 WR",8,"3 DL, 4 LB, 4 DB",left,2019-10-08T03:06:02.000Z,2019-10-08T03:06:01.000Z,6-1,240,02/14/1998,Alabama,LB,SF,CLE,5,Levis Stadium,"Santa Clara, CA",Outdoor,Natural Grass,Clear,87.0,36,8,NW
75603,2019100700,20191007003923,home,85.87,25.63,4.41,0.45,0.45,267.77,223.85,2508140,Mike Person,68,2019,23,4,02:54:00,SF,2,7,SF,31,3,2553728,I_FORM,"1 RB, 3 TE, 1 WR",8,"3 DL, 4 LB, 4 DB",left,2019-10-08T03:06:02.000Z,2019-10-08T03:06:01.000Z,6-4,299,06/17/1988,Montana State,C,SF,CLE,5,Levis Stadium,"Santa Clara, CA",Outdoor,Natural Grass,Clear,87.0,36,8,NW
75604,2019100700,20191007003923,home,88.35,28.44,3.13,0.36,0.32,282.77,178.49,2540203,Levine Toilolo,83,2019,23,4,02:54:00,SF,2,7,SF,31,3,2553728,I_FORM,"1 RB, 3 TE, 1 WR",8,"3 DL, 4 LB, 4 DB",left,2019-10-08T03:06:02.000Z,2019-10-08T03:06:01.000Z,6-8,268,07/30/1991,Stanford,TE,SF,CLE,5,Levis Stadium,"Santa Clara, CA",Outdoor,Natural Grass,Clear,87.0,36,8,NW
75605,2019100700,20191007003923,home,85.74,24.24,2.58,1.3,0.27,245.12,220.79,2543705,Weston Richburg,58,2019,23,4,02:54:00,SF,2,7,SF,31,3,2553728,I_FORM,"1 RB, 3 TE, 1 WR",8,"3 DL, 4 LB, 4 DB",left,2019-10-08T03:06:02.000Z,2019-10-08T03:06:01.000Z,6-4,290,07/09/1991,Colorado State,C,SF,CLE,5,Levis Stadium,"Santa Clara, CA",Outdoor,Natural Grass,Clear,87.0,36,8,NW
75606,2019100700,20191007003923,home,91.12,25.88,2.75,2.51,0.28,83.87,82.59,2543801,Jimmy Garoppolo,10,2019,23,4,02:54:00,SF,2,7,SF,31,3,2553728,I_FORM,"1 RB, 3 TE, 1 WR",8,"3 DL, 4 LB, 4 DB",left,2019-10-08T03:06:02.000Z,2019-10-08T03:06:01.000Z,6-2,225,11/02/1991,Eastern Illinois,QB,SF,CLE,5,Levis Stadium,"Santa Clara, CA",Outdoor,Natural Grass,Clear,87.0,36,8,NW
75607,2019100700,20191007003923,home,87.81,22.33,3.07,0.18,0.32,246.07,183.55,2552345,Laken Tomlinson,75,2019,23,4,02:54:00,SF,2,7,SF,31,3,2553728,I_FORM,"1 RB, 3 TE, 1 WR",8,"3 DL, 4 LB, 4 DB",left,2019-10-08T03:06:02.000Z,2019-10-08T03:06:01.000Z,6-3,312,02/09/1992,Duke,G,SF,CLE,5,Levis Stadium,"Santa Clara, CA",Outdoor,Natural Grass,Clear,87.0,36,8,NW
75608,2019100700,20191007003923,home,93.76,24.0,5.5,3.19,0.54,267.26,198.74,2553728,Raheem Mostert,31,2019,23,4,02:54:00,SF,2,7,SF,31,3,2553728,I_FORM,"1 RB, 3 TE, 1 WR",8,"3 DL, 4 LB, 4 DB",left,2019-10-08T03:06:02.000Z,2019-10-08T03:06:01.000Z,5-10,197,04/09/1992,Purdue,RB,SF,CLE,5,Levis Stadium,"Santa Clara, CA",Outdoor,Natural Grass,Clear,87.0,36,8,NW
75609,2019100700,20191007003923,home,88.41,18.92,4.67,1.68,0.46,304.8,182.5,2558266,George Kittle,85,2019,23,4,02:54:00,SF,2,7,SF,31,3,2553728,I_FORM,"1 RB, 3 TE, 1 WR",8,"3 DL, 4 LB, 4 DB",left,2019-10-08T03:06:02.000Z,2019-10-08T03:06:01.000Z,6-4,250,10/09/1993,Iowa,TE,SF,CLE,5,Levis Stadium,"Santa Clara, CA",Outdoor,Natural Grass,Clear,87.0,36,8,NW
75610,2019100700,20191007003923,home,87.67,26.56,4.07,0.83,0.41,286.04,189.19,2559108,Daniel Brunskill,60,2019,23,4,02:54:00,SF,2,7,SF,31,3,2553728,I_FORM,"1 RB, 3 TE, 1 WR",8,"3 DL, 4 LB, 4 DB",left,2019-10-08T03:06:02.000Z,2019-10-08T03:06:01.000Z,6-5,260,01/27/1994,San Diego State,OT,SF,CLE,5,Levis Stadium,"Santa Clara, CA",Outdoor,Natural Grass,Clear,87.0,36,8,NW
75611,2019100700,20191007003923,home,85.54,15.65,5.29,3.18,0.51,239.46,239.05,2560836,Dante Pettis,18,2019,23,4,02:54:00,SF,2,7,SF,31,3,2553728,I_FORM,"1 RB, 3 TE, 1 WR",8,"3 DL, 4 LB, 4 DB",left,2019-10-08T03:06:02.000Z,2019-10-08T03:06:01.000Z,6-1,195,10/23/1995,Washington,WR,SF,CLE,5,Levis Stadium,"Santa Clara, CA",Outdoor,Natural Grass,Clear,87.0,36,8,NW
75612,2019100700,20191007003923,home,91.42,22.43,6.02,1.74,0.6,211.03,190.5,2561060,Ross Dwelley,82,2019,23,4,02:54:00,SF,2,7,SF,31,3,2553728,I_FORM,"1 RB, 3 TE, 1 WR",8,"3 DL, 4 LB, 4 DB",left,2019-10-08T03:06:02.000Z,2019-10-08T03:06:01.000Z,6-5,240,01/26/1995,San Diego,TE,SF,CLE,5,Levis Stadium,"Santa Clara, CA",Outdoor,Natural Grass,Clear,87.0,36,8,NW
75613,2019100700,20191007003923,home,88.37,20.17,4.22,0.13,0.44,223.94,178.15,2562927,Justin Skule,67,2019,23,4,02:54:00,SF,2,7,SF,31,3,2553728,I_FORM,"1 RB, 3 TE, 1 WR",8,"3 DL, 4 LB, 4 DB",left,2019-10-08T03:06:02.000Z,2019-10-08T03:06:01.000Z,6-6,318,11/23/1996,Vanderbilt,T,SF,CLE,5,Levis Stadium,"Santa Clara, CA",Outdoor,Natural Grass,Clear,87.0,36,8,NW
