,GameId,PlayId,Team,X,Y,S,A,Dis,Orientation,Dir,NflId,DisplayName,JerseyNumber,Season,YardLine,Quarter,GameClock,PossessionTeam,Down,Distance,FieldPosition,HomeScoreBeforePlay,VisitorScoreBeforePlay,NflIdRusher,OffenseFormation,OffensePersonnel,DefendersInTheBox,DefensePersonnel,PlayDirection,TimeHandoff,TimeSnap,PlayerHeight,PlayerWeight,PlayerBirthDate,PlayerCollegeName,Position,HomeTeamAbbr,VisitorTeamAbbr,Week,Stadium,Location,StadiumType,Turf,GameWeather,Temperature,Humidity,WindSpeed,WindDirection
48950,2019092902,20190929020815,away,53.5,24.07,1.69,1.13,0.16,78.45,51.09,71251,Patrick Chung,23,2019,47,1,05:42:00,BUF,1,10,NE,0,13,2506404,I_FORM,"2 RB, 1 TE, 2 WR",7,"3 DL, 3 LB, 5 DB",left,2019-09-29T17:32:21.000Z,2019-09-29T17:32:19.000Z,5-11,215,08/19/1987,Oregon,SS,BUF,NE,4,New Era Field,Orchard Park NY,Outdoors,A-Turf Titan,Mostly cloudy,58.0,71,10,E
48951,2019092902,20190929020815,away,50.05,31.82,2.96,1.15,0.29,92.6,114.16,89756,Jason McCourty,30,2019,47,1,05:42:00,BUF,1,10,NE,0,13,2506404,I_FORM,"2 RB, 1 TE, 2 WR",7,"3 DL, 3 LB, 5 DB",left,2019-09-29T17:32:21.000Z,2019-09-29T17:32:19.000Z,5-11,195,08/13/1987,Rutgers,CB,BUF,NE,4,New Era Field,Orchard Park NY,Outdoors,A-Turf Titan,Mostly cloudy,58.0,71,10,E
48952,2019092902,20190929020815,away,38.27,22.93,1.5,1.22,0.14,49.09,295.83,494287,Devin McCourty,32,2019,47,1,05:42:00,BUF,1,10,NE,0,13,2506404,I_FORM,"2 RB, 1 TE, 2 WR",7,"3 DL, 3 LB, 5 DB",left,2019-09-29T17:32:21.000Z,2019-09-29T17:32:19.000Z,5-10,195,08/13/1987,Rutgers,FS,BUF,NE,4,New Era Field,Orchard Park NY,Outdoors,A-Turf Titan,Mostly cloudy,58.0,71,10,E
48953,2019092902,20190929020815,away,57.33,28.2,1.17,1.13,0.13,176.79,139.38,2495481,Lawrence Guy,93,2019,47,1,05:42:00,BUF,1,10,NE,0,13,2506404,I_FORM,"2 RB, 1 TE, 2 WR",7,"3 DL, 3 LB, 5 DB",left,2019-09-29T17:32:21.000Z,2019-09-29T17:32:19.000Z,6-4,315,03/17/1990,Arizona State,DT,BUF,NE,4,New Era Field,Orchard Park NY,Outdoors,A-Turf Titan,Mostly cloudy,58.0,71,10,E
48954,2019092902,20190929020815,away,48.93,9.57,2.83,0.78,0.29,6.3,272.34,2533062,Stephon Gilmore,24,2019,47,1,05:42:00,BUF,1,10,NE,0,13,2506404,I_FORM,"2 RB, 1 TE, 2 WR",7,"3 DL, 3 LB, 5 DB",left,2019-09-29T17:32:21.000Z,2019-09-29T17:32:19.000Z,6-1,202,09/19/1990,South Carolina,CB,BUF,NE,4,New Era Field,Orchard Park NY,Outdoors,A-Turf Titan,Mostly cloudy,58.0,71,10,E
48955,2019092902,20190929020815,away,56.65,23.25,0.99,1.77,0.11,63.99,39.23,2539280,John Simon,55,2019,47,1,05:42:00,BUF,1,10,NE,0,13,2506404,I_FORM,"2 RB, 1 TE, 2 WR",7,"3 DL, 3 LB, 5 DB",left,2019-09-29T17:32:21.000Z,2019-09-29T17:32:19.000Z,6-2,260,10/14/1990,Ohio State,DE,BUF,NE,4,New Era Field,Orchard Park NY,Outdoors,A-Turf Titan,Mostly cloudy,58.0,71,10,E
48956,2019092902,20190929020815,away,55.4,20.12,0.96,2.42,0.08,42.48,310.99,2539311,Jamie Collins,58,2019,47,1,05:42:00,BUF,1,10,NE,0,13,2506404,I_FORM,"2 RB, 1 TE, 2 WR",7,"3 DL, 3 LB, 5 DB",left,2019-09-29T17:32:21.000Z,2019-09-29T17:32:19.000Z,6-3,255,10/20/1989,Southern Mississippi,OLB,BUF,NE,4,New Era Field,Orchard Park NY,Outdoors,A-Turf Titan,Mostly cloudy,58.0,71,10,E
48957,2019092902,20190929020815,away,59.11,29.67,5.21,3.25,0.52,222.29,135.71,2543699,Kyle Van Noy,53,2019,47,1,05:42:00,BUF,1,10,NE,0,13,2506404,I_FORM,"2 RB, 1 TE, 2 WR",7,"3 DL, 3 LB, 5 DB",left,2019-09-29T17:32:21.000Z,2019-09-29T17:32:19.000Z,6-3,250,03/26/1991,Brigham Young,OLB,BUF,NE,4,New Era Field,Orchard Park NY,Outdoors,A-Turf Titan,Mostly cloudy,58.0,71,10,E
48958,2019092902,20190929020815,away,56.49,25.55,0.56,1.33,0.07,67.55,8.41,2552325,Danny Shelton,71,2019,47,1,05:42:00,BUF,1,10,NE,0,13,2506404,I_FORM,"2 RB, 1 TE, 2 WR",7,"3 DL, 3 LB, 5 DB",left,2019-09-29T17:32:21.000Z,2019-09-29T17:32:19.000Z,6-2,345,08/20/1993,Washington,DT,BUF,NE,4,New Era Field,Orchard Park NY,Outdoors,A-Turf Titan,Mostly cloudy,58.0,71,10,E
48959,2019092902,20190929020815,away,50.52,37.39,1.71,0.91,0.17,172.75,274.86,2560754,J.C. Jackson,27,2019,47,1,05:42:00,BUF,1,10,NE,0,13,2506404,I_FORM,"2 RB, 1 TE, 2 WR",7,"3 DL, 3 LB, 5 DB",left,2019-09-29T17:32:21.000Z,2019-09-29T17:32:19.000Z,6-1,198,11/17/1995,Maryland,DB,BUF,NE,4,New Era Field,Orchard Park NY,Outdoors,A-Turf Titan,Mostly cloudy,58.0,71,10,E
48960,2019092902,20190929020815,away,54.44,27.95,2.36,1.11,0.23,88.95,81.91,2561143,Ja'Whaun Bentley,51,2019,47,1,05:42:00,BUF,1,10,NE,0,13,2506404,I_FORM,"2 RB, 1 TE, 2 WR",7,"3 DL, 3 LB, 5 DB",left,2019-09-29T17:32:21.000Z,2019-09-29T17:32:19.000Z,6-2,255,08/24/1996,Purdue,LB,BUF,NE,4,New Era Field,Orchard Park NY,Outdoors,A-Turf Titan,Mostly cloudy,58.0,71,10,E
48961,2019092902,20190929020815,home,57.76,28.47,1.36,1.48,0.14,224.42,170.62,2495347,Lee Smith,85,2019,47,1,05:42:00,BUF,1,10,NE,0,13,2506404,I_FORM,"2 RB, 1 TE, 2 WR",7,"3 DL, 3 LB, 5 DB",left,2019-09-29T17:32:21.000Z,2019-09-29T17:32:19.000Z,6-6,265,11/21/1987,Marshall,TE,BUF,NE,4,New Era Field,Orchard Park NY,Outdoors,A-Turf Titan,Mostly cloudy,58.0,71,10,E
48962,2019092902,20190929020815,home,62.07,25.64,3.7,2.39,0.36,273.38,282.01,2506404,Frank Gore,20,2019,47,1,05:42:00,BUF,1,10,NE,0,13,2506404,I_FORM,"2 RB, 1 TE, 2 WR",7,"3 DL, 3 LB, 5 DB",left,2019-09-29T17:32:21.000Z,2019-09-29T17:32:19.000Z,5-9,212,05/14/1983,Miami,RB,BUF,NE,4,New Era Field,Orchard Park NY,Outdoors,A-Turf Titan,Mostly cloudy,58.0,71,10,E
48963,2019092902,20190929020815,home,59.57,25.09,4.61,2.02,0.45,305.41,332.5,2530763,Patrick DiMarco,42,2019,47,1,05:42:00,BUF,1,10,NE,0,13,2506404,I_FORM,"2 RB, 1 TE, 2 WR",7,"3 DL, 3 LB, 5 DB",left,2019-09-29T17:32:21.000Z,2019-09-29T17:32:19.000Z,6-1,234,04/30/1989,South Carolina,FB,BUF,NE,4,New Era Field,Orchard Park NY,Outdoors,A-Turf Titan,Mostly cloudy,58.0,71,10,E
48964,2019092902,20190929020815,home,56.79,33.82,4.71,2.48,0.46,241.93,232.51,2535698,Cole Beasley,10,2019,47,1,05:42:00,BUF,1,10,NE,0,13,2506404,I_FORM,"2 RB, 1 TE, 2 WR",7,"3 DL, 3 LB, 5 DB",left,2019-09-29T17:32:21.000Z,2019-09-29T17:32:19.000Z,5-8,174,04/26/1989,Southern Methodist,WR,BUF,NE,4,New Era Field,Orchard Park NY,Outdoors,A-Turf Titan,Mostly cloudy,58.0,71,10,E
48965,2019092902,20190929020815,home,56.19,27.04,2.4,0.38,0.25,229.96,227.25,2538176,Ty Nsekhe,77,2019,47,1,05:42:00,BUF,1,10,NE,0,13,2506404,I_FORM,"2 RB, 1 TE, 2 WR",7,"3 DL, 3 LB, 5 DB",left,2019-09-29T17:32:21.000Z,2019-09-29T17:32:19.000Z,6-8,330,10/27/1985,Texas State,T,BUF,NE,4,New Era Field,Orchard Park NY,Outdoors,A-Turf Titan,Mostly cloudy,58.0,71,10,E
48966,2019092902,20190929020815,home,55.12,10.91,5.21,2.53,0.51,303.61,297.01,2543847,John Brown,15,2019,47,1,05:42:00,BUF,1,10,NE,0,13,2506404,I_FORM,"2 RB, 1 TE, 2 WR",7,"3 DL, 3 LB, 5 DB",left,2019-09-29T17:32:21.000Z,2019-09-29T17:32:19.000Z,5-11,179,04/03/1990,Pittsburg State,WR,BUF,NE,4,New Era Field,Orchard Park NY,Outdoors,A-Turf Titan,Mostly cloudy,58.0,71,10,E
48967,2019092902,20190929020815,home,57.16,25.69,0.49,1.81,0.06,238.27,241.58,2552343,Jon Feliciano,76,2019,47,1,05:42:00,BUF,1,10,NE,0,13,2506404,I_FORM,"2 RB, 1 TE, 2 WR",7,"3 DL, 3 LB, 5 DB",left,2019-09-29T17:32:21.000Z,2019-09-29T17:32:19.000Z,6-4,323,02/10/1992,Miami,G,BUF,NE,4,New Era Field,Orchard Park NY,Outdoors,A-Turf Titan,Mostly cloudy,58.0,71,10,E
48968,2019092902,20190929020815,home,56.98,24.42,1.25,0.87,0.12,221.34,224.37,2552668,Mitch Morse,60,2019,47,1,05:42:00,BUF,1,10,NE,0,13,2506404,I_FORM,"2 RB, 1 TE, 2 WR",7,"3 DL, 3 LB, 5 DB",left,2019-09-29T17:32:21.000Z,2019-09-29T17:32:19.000Z,6-6,305,04/21/1992,Missouri,C,BUF,NE,4,New Era Field,Orchard Park NY,Outdoors,A-Turf Titan,Mostly cloudy,58.0,71,10,E
48969,2019092902,20190929020815,home,58.89,26.69,3.58,0.65,0.36,43.17,15.58,2553824,Quinton Spain,67,2019,47,1,05:42:00,BUF,1,10,NE,0,13,2506404,I_FORM,"2 RB, 1 TE, 2 WR",7,"3 DL, 3 LB, 5 DB",left,2019-09-29T17:32:21.000Z,2019-09-29T17:32:19.000Z,6-4,330,08/07/1991,West Virginia,G,BUF,NE,4,New Era Field,Orchard Park NY,Outdoors,A-Turf Titan,Mostly cloudy,58.0,71,10,E
48970,2019092902,20190929020815,home,57.79,23.72,1.53,1.0,0.15,226.23,344.15,2557875,Dion Dawkins,73,2019,47,1,05:42:00,BUF,1,10,NE,0,13,2506404,I_FORM,"2 RB, 1 TE, 2 WR",7,"3 DL, 3 LB, 5 DB",left,2019-09-29T17:32:21.000Z,2019-09-29T17:32:19.000Z,6-5,320,04/26/1994,Temple,T,BUF,NE,4,New Era Field,Orchard Park NY,Outdoors,A-Turf Titan,Mostly cloudy,58.0,71,10,E
48971,2019092902,20190929020815,home,61.76,24.87,4.28,0.75,0.42,26.61,102.79,2560955,Josh Allen,17,2019,47,1,05:42:00,BUF,1,10,NE,0,13,2506404,I_FORM,"2 RB, 1 TE, 2 WR",7,"3 DL, 3 LB, 5 DB",left,2019-09-29T17:32:21.000Z,2019-09-29T17:32:19.000Z,6-5,237,05/21/1996,Wyoming,QB,BUF,NE,4,New Era Field,Orchard Park NY,Outdoors,A-Turf Titan,Mostly cloudy,58.0,71,10,E
