,GameId,PlayId,Team,X,Y,S,A,Dis,Orientation,Dir,NflId,DisplayName,JerseyNumber,Season,YardLine,Quarter,GameClock,PossessionTeam,Down,Distance,FieldPosition,HomeScoreBeforePlay,VisitorScoreBeforePlay,NflIdRusher,OffenseFormation,OffensePersonnel,DefendersInTheBox,DefensePersonnel,PlayDirection,TimeHandoff,TimeSnap,PlayerHeight,PlayerWeight,PlayerBirthDate,PlayerCollegeName,Position,HomeTeamAbbr,VisitorTeamAbbr,Week,Stadium,Location,StadiumType,Turf,GameWeather,Temperature,Humidity,WindSpeed,WindDirection
60896,2019100300,20191003001792,away,80.88,38.63,1.26,1.84,0.12,158.71,249.43,1302,Aqib Talib,21,2019,21,2,04:54:00,SEA,2,6,SEA,14,6,2558865,SHOTGUN,"1 RB, 2 TE, 2 WR",7,"3 DL, 4 LB, 4 DB",left,2019-10-04T01:37:14.000Z,2019-10-04T01:37:13.000Z,6-1,209,02/13/1986,Kansas,CB,SEA,LA,5,CenturyLink Field,Seattle,Outdoor,FieldTurf,Cloudy,57.0,56,7,SW
60897,2019100300,20191003001792,away,89.0,37.07,1.76,3.45,0.16,80.05,15.78,80431,Clay Matthews,52,2019,21,2,04:54:00,SEA,2,6,SEA,14,6,2558865,SHOTGUN,"1 RB, 2 TE, 2 WR",7,"3 DL, 4 LB, 4 DB",left,2019-10-04T01:37:14.000Z,2019-10-04T01:37:13.000Z,6-3,255,05/14/1986,Southern California,OLB,SEA,LA,5,CenturyLink Field,Seattle,Outdoor,FieldTurf,Cloudy,57.0,56,7,SW
60898,2019100300,20191003001792,away,81.6,18.21,2.11,1.77,0.2,44.77,279.69,2495775,Eric Weddle,32,2019,21,2,04:54:00,SEA,2,6,SEA,14,6,2558865,SHOTGUN,"1 RB, 2 TE, 2 WR",7,"3 DL, 4 LB, 4 DB",left,2019-10-04T01:37:14.000Z,2019-10-04T01:37:13.000Z,5-11,195,01/04/1985,Utah,FS,SEA,LA,5,CenturyLink Field,Seattle,Outdoor,FieldTurf,Cloudy,57.0,56,7,SW
60899,2019100300,20191003001792,away,88.86,30.71,1.93,1.07,0.2,90.06,166.82,2533050,Michael Brockers,90,2019,21,2,04:54:00,SEA,2,6,SEA,14,6,2558865,SHOTGUN,"1 RB, 2 TE, 2 WR",7,"3 DL, 4 LB, 4 DB",left,2019-10-04T01:37:14.000Z,2019-10-04T01:37:13.000Z,6-5,305,12/21/1990,Louisiana State,DT,SEA,LA,5,CenturyLink Field,Seattle,Outdoor,FieldTurf,Cloudy,57.0,56,7,SW
60900,2019100300,20191003001792,away,90.36,25.42,2.28,1.59,0.23,341.6,122.79,2543485,Aaron Donald,99,2019,21,2,04:54:00,SEA,2,6,SEA,14,6,2558865,SHOTGUN,"1 RB, 2 TE, 2 WR",7,"3 DL, 4 LB, 4 DB",left,2019-10-04T01:37:14.000Z,2019-10-04T01:37:13.000Z,6-1,280,05/23/1991,Pittsburgh,DT,SEA,LA,5,CenturyLink Field,Seattle,Outdoor,FieldTurf,Cloudy,57.0,56,7,SW
60901,2019100300,20191003001792,away,81.15,9.67,2.21,2.6,0.21,3.05,270.56,2552488,Marcus Peters,22,2019,21,2,04:54:00,SEA,2,6,SEA,14,6,2558865,SHOTGUN,"1 RB, 2 TE, 2 WR",7,"3 DL, 4 LB, 4 DB",left,2019-10-04T01:37:14.000Z,2019-10-04T01:37:13.000Z,6-0,197,01/09/1993,Washington,CB,SEA,LA,5,CenturyLink Field,Seattle,Outdoor,FieldTurf,Cloudy,57.0,56,7,SW
60902,2019100300,20191003001792,away,90.1,23.69,1.57,1.67,0.15,44.76,85.06,2553431,Dante Fowler,56,2019,21,2,04:54:00,SEA,2,6,SEA,14,6,2558865,SHOTGUN,"1 RB, 2 TE, 2 WR",7,"3 DL, 4 LB, 4 DB",left,2019-10-04T01:37:14.000Z,2019-10-04T01:37:13.000Z,6-3,255,08/03/1994,Florida,OLB,SEA,LA,5,CenturyLink Field,Seattle,Outdoor,FieldTurf,Cloudy,57.0,56,7,SW
60903,2019100300,20191003001792,away,86.05,26.37,2.93,1.97,0.28,78.93,134.51,2556593,Cory Littleton,58,2019,21,2,04:54:00,SEA,2,6,SEA,14,6,2558865,SHOTGUN,"1 RB, 2 TE, 2 WR",7,"3 DL, 4 LB, 4 DB",left,2019-10-04T01:37:14.000Z,2019-10-04T01:37:13.000Z,6-3,228,11/18/1993,Washington,ILB,SEA,LA,5,CenturyLink Field,Seattle,Outdoor,FieldTurf,Cloudy,57.0,56,7,SW
60904,2019100300,20191003001792,away,77.19,29.81,1.69,0.84,0.16,88.15,229.04,2558183,John Johnson,43,2019,21,2,04:54:00,SEA,2,6,SEA,14,6,2558865,SHOTGUN,"1 RB, 2 TE, 2 WR",7,"3 DL, 4 LB, 4 DB",left,2019-10-04T01:37:14.000Z,2019-10-04T01:37:13.000Z,6-0,209,12/19/1995,Boston College,SS,SEA,LA,5,CenturyLink Field,Seattle,Outdoor,FieldTurf,Cloudy,57.0,56,7,SW
60905,2019100300,20191003001792,away,89.09,28.82,1.11,1.06,0.11,126.2,156.93,2561079,Sebastian Joseph-Day,69,2019,21,2,04:54:00,SEA,2,6,SEA,14,6,2558865,SHOTGUN,"1 RB, 2 TE, 2 WR",7,"3 DL, 4 LB, 4 DB",left,2019-10-04T01:37:14.000Z,2019-10-04T01:37:13.000Z,6-4,310,03/21/1995,Rutgers,DT,SEA,LA,5,CenturyLink Field,Seattle,Outdoor,FieldTurf,Cloudy,57.0,56,7,SW
60906,2019100300,20191003001792,away,86.27,31.89,2.0,0.38,0.19,67.1,139.14,2563313,Troy Reeder,51,2019,21,2,04:54:00,SEA,2,6,SEA,14,6,2558865,SHOTGUN,"1 RB, 2 TE, 2 WR",7,"3 DL, 4 LB, 4 DB",left,2019-10-04T01:37:14.000Z,2019-10-04T01:37:13.000Z,6-3,245,09/13/1994,Delaware,LB,SEA,LA,5,CenturyLink Field,Seattle,Outdoor,FieldTurf,Cloudy,57.0,56,7,SW
60907,2019100300,20191003001792,home,90.98,24.65,1.45,0.93,0.15,209.13,153.14,808,Duane Brown,76,2019,21,2,04:54:00,SEA,2,6,SEA,14,6,2558865,SHOTGUN,"1 RB, 2 TE, 2 WR",7,"3 DL, 4 LB, 4 DB",left,2019-10-04T01:37:14.000Z,2019-10-04T01:37:13.000Z,6-4,315,08/30/1985,Virginia Tech,T,SEA,LA,5,CenturyLink Field,Seattle,Outdoor,FieldTurf,Cloudy,57.0,56,7,SW
60908,2019100300,20191003001792,home,90.01,25.8,2.2,2.09,0.22,154.65,169.17,497016,Mike Iupati,70,2019,21,2,04:54:00,SEA,2,6,SEA,14,6,2558865,SHOTGUN,"1 RB, 2 TE, 2 WR",7,"3 DL, 4 LB, 4 DB",left,2019-10-04T01:37:14.000Z,2019-10-04T01:37:13.000Z,6-5,331,05/12/1987,Idaho,OG,SEA,LA,5,CenturyLink Field,Seattle,Outdoor,FieldTurf,Cloudy,57.0,56,7,SW
60909,2019100300,20191003001792,home,93.46,29.68,1.27,2.14,0.11,309.65,337.01,2532975,Russell Wilson,3,2019,21,2,04:54:00,SEA,2,6,SEA,14,6,2558865,SHOTGUN,"1 RB, 2 TE, 2 WR",7,"3 DL, 4 LB, 4 DB",left,2019-10-04T01:37:14.000Z,2019-10-04T01:37:13.000Z,5-11,215,11/29/1988,Wisconsin,QB,SEA,LA,5,CenturyLink Field,Seattle,Outdoor,FieldTurf,Cloudy,57.0,56,7,SW
60910,2019100300,20191003001792,home,90.06,37.46,3.93,1.98,0.38,349.34,345.97,2541199,Luke Willson,82,2019,21,2,04:54:00,SEA,2,6,SEA,14,6,2558865,SHOTGUN,"1 RB, 2 TE, 2 WR",7,"3 DL, 4 LB, 4 DB",left,2019-10-04T01:37:14.000Z,2019-10-04T01:37:13.000Z,6-5,254,01/15/1990,Rice,TE,SEA,LA,5,CenturyLink Field,Seattle,Outdoor,FieldTurf,Cloudy,57.0,56,7,SW
60911,2019100300,20191003001792,home,89.17,27.89,1.8,0.67,0.19,249.82,194.64,2550135,Justin Britt,68,2019,21,2,04:54:00,SEA,2,6,SEA,14,6,2558865,SHOTGUN,"1 RB, 2 TE, 2 WR",7,"3 DL, 4 LB, 4 DB",left,2019-10-04T01:37:14.000Z,2019-10-04T01:37:13.000Z,6-6,315,05/29/1991,Missouri,C,SEA,LA,5,CenturyLink Field,Seattle,Outdoor,FieldTurf,Cloudy,57.0,56,7,SW
60912,2019100300,20191003001792,home,87.96,18.23,4.08,2.87,0.39,274.52,281.75,2552430,Tyler Lockett,16,2019,21,2,04:54:00,SEA,2,6,SEA,14,6,2558865,SHOTGUN,"1 RB, 2 TE, 2 WR",7,"3 DL, 4 LB, 4 DB",left,2019-10-04T01:37:14.000Z,2019-10-04T01:37:13.000Z,5-10,182,09/28/1992,Kansas State,WR,SEA,LA,5,CenturyLink Field,Seattle,Outdoor,FieldTurf,Cloudy,57.0,56,7,SW
60913,2019100300,20191003001792,home,89.75,30.55,1.83,0.8,0.19,288.09,181.65,2555395,Germain Ifedi,65,2019,21,2,04:54:00,SEA,2,6,SEA,14,6,2558865,SHOTGUN,"1 RB, 2 TE, 2 WR",7,"3 DL, 4 LB, 4 DB",left,2019-10-04T01:37:14.000Z,2019-10-04T01:37:13.000Z,6-5,325,06/02/1994,Texas A&M,G,SEA,LA,5,CenturyLink Field,Seattle,Outdoor,FieldTurf,Cloudy,57.0,56,7,SW
60914,2019100300,20191003001792,home,92.94,30.27,3.13,1.75,0.31,260.69,233.6,2558865,Chris Carson,32,2019,21,2,04:54:00,SEA,2,6,SEA,14,6,2558865,SHOTGUN,"1 RB, 2 TE, 2 WR",7,"3 DL, 4 LB, 4 DB",left,2019-10-04T01:37:14.000Z,2019-10-04T01:37:13.000Z,5-11,222,09/16/1994,Oklahoma State,RB,SEA,LA,5,CenturyLink Field,Seattle,Outdoor,FieldTurf,Cloudy,57.0,56,7,SW
60915,2019100300,20191003001792,home,89.88,28.56,2.4,1.01,0.25,286.13,188.31,2560768,Jamarco Jones,73,2019,21,2,04:54:00,SEA,2,6,SEA,14,6,2558865,SHOTGUN,"1 RB, 2 TE, 2 WR",7,"3 DL, 4 LB, 4 DB",left,2019-10-04T01:37:14.000Z,2019-10-04T01:37:13.000Z,6-4,293,06/04/1996,Ohio State,T,SEA,LA,5,CenturyLink Field,Seattle,Outdoor,FieldTurf,Cloudy,57.0,56,7,SW
60916,2019100300,20191003001792,home,88.26,32.26,4.03,0.58,0.4,247.63,236.49,2561046,Will Dissly,88,2019,21,2,04:54:00,SEA,2,6,SEA,14,6,2558865,SHOTGUN,"1 RB, 2 TE, 2 WR",7,"3 DL, 4 LB, 4 DB",left,2019-10-04T01:37:14.000Z,2019-10-04T01:37:13.000Z,6-4,267,07/08/1996,Washington,TE,SEA,LA,5,CenturyLink Field,Seattle,Outdoor,FieldTurf,Cloudy,57.0,56,7,SW
60917,2019100300,20191003001792,home,88.98,9.82,4.14,3.38,0.4,265.59,279.55,2562685,D.K. Metcalf,14,2019,21,2,04:54:00,SEA,2,6,SEA,14,6,2558865,SHOTGUN,"1 RB, 2 TE, 2 WR",7,"3 DL, 4 LB, 4 DB",left,2019-10-04T01:37:14.000Z,2019-10-04T01:37:13.000Z,6-4,230,12/14/1997,Mississippi,WR,SEA,LA,5,CenturyLink Field,Seattle,Outdoor,FieldTurf,Cloudy,57.0,56,7,SW
