,GameId,PlayId,Team,X,Y,S,A,Dis,Orientation,Dir,NflId,DisplayName,JerseyNumber,Season,YardLine,Quarter,GameClock,PossessionTeam,Down,Distance,FieldPosition,HomeScoreBeforePlay,VisitorScoreBeforePlay,NflIdRusher,OffenseFormation,OffensePersonnel,DefendersInTheBox,DefensePersonnel,PlayDirection,TimeHandoff,TimeSnap,PlayerHeight,PlayerWeight,PlayerBirthDate,PlayerCollegeName,Position,HomeTeamAbbr,VisitorTeamAbbr,Week,Stadium,Location,StadiumType,Turf,GameWeather,Temperature,Humidity,WindSpeed,WindDirection
44462,2019092213,20190922132249,away,101.54,31.43,5.13,0.41,0.53,327.98,350.04,2495977,Andrew Whitworth,77,2019,7,3,11:29:00,LA,1,7,CLV,6,3,2552475,SINGLEBACK,"1 RB, 1 TE, 3 WR",7,"3 DL, 3 LB, 5 DB",right,2019-09-23T02:03:13.000Z,2019-09-23T02:03:12.000Z,6-7,330,12/12/1981,Louisiana State,T,CLE,LA,3,First Energy Stadium,"Cleveland, Ohio",Outdoor,Grass,Mostly Clear,83.0,33,12,SSW
44463,2019092213,20190922132249,away,104.16,12.64,4.24,2.1,0.42,121.72,114.34,2540169,Robert Woods,17,2019,7,3,11:29:00,LA,1,7,CLV,6,3,2552475,SINGLEBACK,"1 RB, 1 TE, 3 WR",7,"3 DL, 3 LB, 5 DB",right,2019-09-23T02:03:13.000Z,2019-09-23T02:03:12.000Z,6-0,193,04/10/1992,Southern California,WR,CLE,LA,3,First Energy Stadium,"Cleveland, Ohio",Outdoor,Grass,Mostly Clear,83.0,33,12,SSW
44464,2019092213,20190922132249,away,99.08,20.13,7.33,2.58,0.74,188.88,184.63,2543498,Brandin Cooks,12,2019,7,3,11:29:00,LA,1,7,CLV,6,3,2552475,SINGLEBACK,"1 RB, 1 TE, 3 WR",7,"3 DL, 3 LB, 5 DB",right,2019-09-23T02:03:13.000Z,2019-09-23T02:03:12.000Z,5-10,183,09/25/1993,Oregon State,WR,CLE,LA,3,First Energy Stadium,"Cleveland, Ohio",Outdoor,Grass,Mostly Clear,83.0,33,12,SSW
44465,2019092213,20190922132249,away,103.46,24.89,4.58,0.57,0.47,55.16,16.26,2552363,Rob Havenstein,79,2019,7,3,11:29:00,LA,1,7,CLV,6,3,2552475,SINGLEBACK,"1 RB, 1 TE, 3 WR",7,"3 DL, 3 LB, 5 DB",right,2019-09-23T02:03:13.000Z,2019-09-23T02:03:12.000Z,6-8,328,05/13/1992,Wisconsin,T,CLE,LA,3,First Energy Stadium,"Cleveland, Ohio",Outdoor,Grass,Mostly Clear,83.0,33,12,SSW
44466,2019092213,20190922132249,away,96.38,28.49,6.02,1.67,0.59,47.38,9.24,2552475,Todd Gurley,30,2019,7,3,11:29:00,LA,1,7,CLV,6,3,2552475,SINGLEBACK,"1 RB, 1 TE, 3 WR",7,"3 DL, 3 LB, 5 DB",right,2019-09-23T02:03:13.000Z,2019-09-23T02:03:12.000Z,6-1,224,08/03/1994,Georgia,RB,CLE,LA,3,First Energy Stadium,"Cleveland, Ohio",Outdoor,Grass,Mostly Clear,83.0,33,12,SSW
44467,2019092213,20190922132249,away,99.59,24.34,2.49,3.04,0.25,234.64,255.34,2555334,Jared Goff,16,2019,7,3,11:29:00,LA,1,7,CLV,6,3,2552475,SINGLEBACK,"1 RB, 1 TE, 3 WR",7,"3 DL, 3 LB, 5 DB",right,2019-09-23T02:03:13.000Z,2019-09-23T02:03:12.000Z,6-4,223,10/14/1994,California,QB,CLE,LA,3,First Energy Stadium,"Cleveland, Ohio",Outdoor,Grass,Mostly Clear,83.0,33,12,SSW
44468,2019092213,20190922132249,away,103.62,16.03,4.65,2.31,0.47,131.43,147.67,2557889,Gerald Everett,81,2019,7,3,11:29:00,LA,1,7,CLV,6,3,2552475,SINGLEBACK,"1 RB, 1 TE, 3 WR",7,"3 DL, 3 LB, 5 DB",right,2019-09-23T02:03:13.000Z,2019-09-23T02:03:12.000Z,6-3,240,06/25/1994,South Alabama,TE,CLE,LA,3,First Energy Stadium,"Cleveland, Ohio",Outdoor,Grass,Mostly Clear,83.0,33,12,SSW
44469,2019092213,20190922132249,away,104.22,30.31,2.77,2.85,0.27,105.26,43.0,2557898,Cooper Kupp,18,2019,7,3,11:29:00,LA,1,7,CLV,6,3,2552475,SINGLEBACK,"1 RB, 1 TE, 3 WR",7,"3 DL, 3 LB, 5 DB",right,2019-09-23T02:03:13.000Z,2019-09-23T02:03:12.000Z,6-2,208,06/15/1993,Eastern Washington,WR,CLE,LA,3,First Energy Stadium,"Cleveland, Ohio",Outdoor,Grass,Mostly Clear,83.0,33,12,SSW
44470,2019092213,20190922132249,away,104.45,28.93,4.52,0.21,0.48,34.15,36.6,2560825,Joe Noteboom,70,2019,7,3,11:29:00,LA,1,7,CLV,6,3,2552475,SINGLEBACK,"1 RB, 1 TE, 3 WR",7,"3 DL, 3 LB, 5 DB",right,2019-09-23T02:03:13.000Z,2019-09-23T02:03:12.000Z,6-5,321,06/19/1995,Texas Christian,T,CLE,LA,3,First Energy Stadium,"Cleveland, Ohio",Outdoor,Grass,Mostly Clear,83.0,33,12,SSW
44471,2019092213,20190922132249,away,100.74,26.39,2.5,1.27,0.26,15.99,315.74,2560954,Brian Allen,55,2019,7,3,11:29:00,LA,1,7,CLV,6,3,2552475,SINGLEBACK,"1 RB, 1 TE, 3 WR",7,"3 DL, 3 LB, 5 DB",right,2019-09-23T02:03:13.000Z,2019-09-23T02:03:12.000Z,6-2,302,10/11/1995,Michigan State,C,CLE,LA,3,First Energy Stadium,"Cleveland, Ohio",Outdoor,Grass,Mostly Clear,83.0,33,12,SSW
44472,2019092213,20190922132249,away,104.66,26.26,5.15,0.97,0.56,66.49,31.63,2561043,Jamil Demby,64,2019,7,3,11:29:00,LA,1,7,CLV,6,3,2552475,SINGLEBACK,"1 RB, 1 TE, 3 WR",7,"3 DL, 3 LB, 5 DB",right,2019-09-23T02:03:13.000Z,2019-09-23T02:03:12.000Z,6-5,321,06/20/1996,Maine,G,CLE,LA,3,First Energy Stadium,"Cleveland, Ohio",Outdoor,Grass,Mostly Clear,83.0,33,12,SSW
44473,2019092213,20190922132249,home,104.6,30.69,3.85,1.96,0.37,289.93,15.71,2533534,Olivier Vernon,54,2019,7,3,11:29:00,LA,1,7,CLV,6,3,2552475,SINGLEBACK,"1 RB, 1 TE, 3 WR",7,"3 DL, 3 LB, 5 DB",right,2019-09-23T02:03:13.000Z,2019-09-23T02:03:12.000Z,6-2,262,10/07/1990,Miami,OLB,CLE,LA,3,First Energy Stadium,"Cleveland, Ohio",Outdoor,Grass,Mostly Clear,83.0,33,12,SSW
44474,2019092213,20190922132249,home,102.79,25.35,4.02,1.07,0.42,339.2,341.87,2540142,Sheldon Richardson,98,2019,7,3,11:29:00,LA,1,7,CLV,6,3,2552475,SINGLEBACK,"1 RB, 1 TE, 3 WR",7,"3 DL, 3 LB, 5 DB",right,2019-09-23T02:03:13.000Z,2019-09-23T02:03:12.000Z,6-3,294,11/29/1990,Missouri,DT,CLE,LA,3,First Energy Stadium,"Cleveland, Ohio",Outdoor,Grass,Mostly Clear,83.0,33,12,SSW
44475,2019092213,20190922132249,home,104.57,11.7,3.58,0.98,0.35,288.54,184.03,2543637,Terrance Mitchell,39,2019,7,3,11:29:00,LA,1,7,CLV,6,3,2552475,SINGLEBACK,"1 RB, 1 TE, 3 WR",7,"3 DL, 3 LB, 5 DB",right,2019-09-23T02:03:13.000Z,2019-09-23T02:03:12.000Z,5-11,190,05/17/1992,Oregon,CB,CLE,LA,3,First Energy Stadium,"Cleveland, Ohio",Outdoor,Grass,Mostly Clear,83.0,33,12,SSW
44476,2019092213,20190922132249,home,103.06,35.01,4.57,3.45,0.44,248.96,273.32,2550164,T.J. Carrie,38,2019,7,3,11:29:00,LA,1,7,CLV,6,3,2552475,SINGLEBACK,"1 RB, 1 TE, 3 WR",7,"3 DL, 3 LB, 5 DB",right,2019-09-23T02:03:13.000Z,2019-09-23T02:03:12.000Z,6-0,204,07/28/1990,Ohio,CB,CLE,LA,3,First Energy Stadium,"Cleveland, Ohio",Outdoor,Grass,Mostly Clear,83.0,33,12,SSW
44477,2019092213,20190922132249,home,112.17,16.08,2.42,1.28,0.24,264.87,172.15,2552697,Jermaine Whitehead,35,2019,7,3,11:29:00,LA,1,7,CLV,6,3,2552475,SINGLEBACK,"1 RB, 1 TE, 3 WR",7,"3 DL, 3 LB, 5 DB",right,2019-09-23T02:03:13.000Z,2019-09-23T02:03:12.000Z,5-11,195,03/12/1993,Auburn,FS,CLE,LA,3,First Energy Stadium,"Cleveland, Ohio",Outdoor,Grass,Mostly Clear,83.0,33,12,SSW
44478,2019092213,20190922132249,home,107.66,26.23,3.25,3.3,0.31,281.16,358.93,2555166,Joe Schobert,53,2019,7,3,11:29:00,LA,1,7,CLV,6,3,2552475,SINGLEBACK,"1 RB, 1 TE, 3 WR",7,"3 DL, 3 LB, 5 DB",right,2019-09-23T02:03:13.000Z,2019-09-23T02:03:12.000Z,6-1,245,11/06/1993,Wisconsin,MLB,CLE,LA,3,First Energy Stadium,"Cleveland, Ohio",Outdoor,Grass,Mostly Clear,83.0,33,12,SSW
44479,2019092213,20190922132249,home,104.39,32.32,5.5,3.55,0.53,279.83,342.11,2555173,Eric Murray,22,2019,7,3,11:29:00,LA,1,7,CLV,6,3,2552475,SINGLEBACK,"1 RB, 1 TE, 3 WR",7,"3 DL, 3 LB, 5 DB",right,2019-09-23T02:03:13.000Z,2019-09-23T02:03:12.000Z,5-11,199,01/07/1994,Minnesota,FS,CLE,LA,3,First Energy Stadium,"Cleveland, Ohio",Outdoor,Grass,Mostly Clear,83.0,33,12,SSW
44480,2019092213,20190922132249,home,110.85,29.77,2.81,5.93,0.25,266.47,341.98,2555313,Juston Burris,41,2019,7,3,11:29:00,LA,1,7,CLV,6,3,2552475,SINGLEBACK,"1 RB, 1 TE, 3 WR",7,"3 DL, 3 LB, 5 DB",right,2019-09-23T02:03:13.000Z,2019-09-23T02:03:12.000Z,6-0,212,08/04/1993,North Carolina State,CB,CLE,LA,3,First Energy Stadium,"Cleveland, Ohio",Outdoor,Grass,Mostly Clear,83.0,33,12,SSW
44481,2019092213,20190922132249,home,101.0,26.59,2.06,3.23,0.23,268.85,307.85,2557836,Larry Ogunjobi,65,2019,7,3,11:29:00,LA,1,7,CLV,6,3,2552475,SINGLEBACK,"1 RB, 1 TE, 3 WR",7,"3 DL, 3 LB, 5 DB",right,2019-09-23T02:03:13.000Z,2019-09-23T02:03:12.000Z,6-3,305,06/03/1994,North Carolina-Charlotte,DT,CLE,LA,3,First Energy Stadium,"Cleveland, Ohio",Outdoor,Grass,Mostly Clear,83.0,33,12,SSW
44482,2019092213,20190922132249,home,101.7,23.26,3.85,1.97,0.4,358.54,324.08,2557965,Myles Garrett,95,2019,7,3,11:29:00,LA,1,7,CLV,6,3,2552475,SINGLEBACK,"1 RB, 1 TE, 3 WR",7,"3 DL, 3 LB, 5 DB",right,2019-09-23T02:03:13.000Z,2019-09-23T02:03:12.000Z,6-4,272,12/29/1995,Texas A&M,DE,CLE,LA,3,First Energy Stadium,"Cleveland, Ohio",Outdoor,Grass,Mostly Clear,83.0,33,12,SSW
44483,2019092213,20190922132249,home,106.53,17.18,4.45,1.34,0.45,254.96,177.18,2562605,Mack Wilson,51,2019,7,3,11:29:00,LA,1,7,CLV,6,3,2552475,SINGLEBACK,"1 RB, 1 TE, 3 WR",7,"3 DL, 3 LB, 5 DB",right,2019-09-23T02:03:13.000Z,2019-09-23T02:03:12.000Z,6-1,240,02/14/1998,Alabama,LB,CLE,LA,3,First Energy Stadium,"Cleveland, Ohio",Outdoor,Grass,Mostly Clear,83.0,33,12,SSW
