,GameId,PlayId,Team,X,Y,S,A,Dis,Orientation,Dir,NflId,DisplayName,JerseyNumber,Season,YardLine,Quarter,GameClock,PossessionTeam,Down,Distance,FieldPosition,HomeScoreBeforePlay,VisitorScoreBeforePlay,NflIdRusher,OffenseFormation,OffensePersonnel,DefendersInTheBox,DefensePersonnel,PlayDirection,TimeHandoff,TimeSnap,PlayerHeight,PlayerWeight,PlayerBirthDate,PlayerCollegeName,Position,HomeTeamAbbr,VisitorTeamAbbr,Week,Stadium,Location,StadiumType,Turf,GameWeather,Temperature,Humidity,WindSpeed,WindDirection
18414,2019091502,20190915023172,away,82.87,24.48,2.94,0.52,0.29,131.29,70.54,2495216,Mike Pouncey,53,2019,28,4,12:44:00,LAC,2,6,DET,6,10,2559169,SHOTGUN,"1 RB, 1 TE, 3 WR",6,"3 DL, 3 LB, 5 DB",right,2019-09-15T19:22:27.000Z,2019-09-15T19:22:26.000Z,6-5,298,07/24/1989,Florida,C,DET,LAC,2,Ford Field,Detroit,Indoors,Field Turf,Controlled Climate,68.0,70,,
18415,2019091502,20190915023172,away,76.54,24.03,1.01,0.38,0.09,82.61,332.93,2506121,Philip Rivers,17,2019,28,4,12:44:00,LAC,2,6,DET,6,10,2559169,SHOTGUN,"1 RB, 1 TE, 3 WR",6,"3 DL, 3 LB, 5 DB",right,2019-09-15T19:22:27.000Z,2019-09-15T19:22:26.000Z,6-5,228,12/08/1981,North Carolina State,QB,DET,LAC,2,Ford Field,Detroit,Indoors,Field Turf,Controlled Climate,68.0,70,,
18416,2019091502,20190915023172,away,81.66,7.84,2.38,2.54,0.24,83.32,117.75,2530700,Dontrelle Inman,15,2019,28,4,12:44:00,LAC,2,6,DET,6,10,2559169,SHOTGUN,"1 RB, 1 TE, 3 WR",6,"3 DL, 3 LB, 5 DB",right,2019-09-15T19:22:27.000Z,2019-09-15T19:22:26.000Z,6-3,205,01/31/1989,Virginia,WR,DET,LAC,2,Ford Field,Detroit,Indoors,Field Turf,Controlled Climate,68.0,70,,
18417,2019091502,20190915023172,away,80.58,13.6,3.4,4.32,0.33,110.65,147.71,2532790,Travis Benjamin,12,2019,28,4,12:44:00,LAC,2,6,DET,6,10,2559169,SHOTGUN,"1 RB, 1 TE, 3 WR",6,"3 DL, 3 LB, 5 DB",right,2019-09-15T19:22:27.000Z,2019-09-15T19:22:26.000Z,5-10,175,12/29/1989,Miami,WR,DET,LAC,2,Ford Field,Detroit,Indoors,Field Turf,Controlled Climate,68.0,70,,
18418,2019091502,20190915023172,away,81.72,37.1,2.36,2.21,0.23,101.34,105.7,2540154,Keenan Allen,13,2019,28,4,12:44:00,LAC,2,6,DET,6,10,2559169,SHOTGUN,"1 RB, 1 TE, 3 WR",6,"3 DL, 3 LB, 5 DB",right,2019-09-15T19:22:27.000Z,2019-09-15T19:22:26.000Z,6-2,211,04/27/1992,California,WR,DET,LAC,2,Ford Field,Detroit,Indoors,Field Turf,Controlled Climate,68.0,70,,
18419,2019091502,20190915023172,away,81.27,23.0,2.53,1.07,0.26,118.17,45.85,2543732,Michael Schofield,75,2019,28,4,12:44:00,LAC,2,6,DET,6,10,2559169,SHOTGUN,"1 RB, 1 TE, 3 WR",6,"3 DL, 3 LB, 5 DB",right,2019-09-15T19:22:27.000Z,2019-09-15T19:22:26.000Z,6-6,301,11/15/1990,Michigan,G,DET,LAC,2,Ford Field,Detroit,Indoors,Field Turf,Controlled Climate,68.0,70,,
18420,2019091502,20190915023172,away,79.84,27.55,3.29,1.43,0.33,48.96,353.87,2557873,Dan Feeney,66,2019,28,4,12:44:00,LAC,2,6,DET,6,10,2559169,SHOTGUN,"1 RB, 1 TE, 3 WR",6,"3 DL, 3 LB, 5 DB",right,2019-09-15T19:22:27.000Z,2019-09-15T19:22:26.000Z,6-4,310,05/29/1994,Indiana,G,DET,LAC,2,Ford Field,Detroit,Indoors,Field Turf,Controlled Climate,68.0,70,,
18421,2019091502,20190915023172,away,80.66,22.32,3.35,0.83,0.35,45.75,16.3,2558026,Sam Tevi,69,2019,28,4,12:44:00,LAC,2,6,DET,6,10,2559169,SHOTGUN,"1 RB, 1 TE, 3 WR",6,"3 DL, 3 LB, 5 DB",right,2019-09-15T19:22:27.000Z,2019-09-15T19:22:26.000Z,6-5,315,11/15/1994,Utah,T,DET,LAC,2,Ford Field,Detroit,Indoors,Field Turf,Controlled Climate,68.0,70,,
18422,2019091502,20190915023172,away,80.82,30.12,2.47,2.63,0.24,120.33,78.92,2559161,Sean Culkin,80,2019,28,4,12:44:00,LAC,2,6,DET,6,10,2559169,SHOTGUN,"1 RB, 1 TE, 3 WR",6,"3 DL, 3 LB, 5 DB",right,2019-09-15T19:22:27.000Z,2019-09-15T19:22:26.000Z,6-5,255,06/11/1993,Missouri,TE,DET,LAC,2,Ford Field,Detroit,Indoors,Field Turf,Controlled Climate,68.0,70,,
18423,2019091502,20190915023172,away,76.95,23.1,4.55,4.74,0.44,45.92,6.75,2559169,Austin Ekeler,30,2019,28,4,12:44:00,LAC,2,6,DET,6,10,2559169,SHOTGUN,"1 RB, 1 TE, 3 WR",6,"3 DL, 3 LB, 5 DB",right,2019-09-15T19:22:27.000Z,2019-09-15T19:22:26.000Z,5-10,200,05/17/1995,"Western State, Colo.",RB,DET,LAC,2,Ford Field,Detroit,Indoors,Field Turf,Controlled Climate,68.0,70,,
18424,2019091502,20190915023172,away,80.95,26.68,1.41,0.92,0.12,107.57,137.33,2561544,Trent Scott,78,2019,28,4,12:44:00,LAC,2,6,DET,6,10,2559169,SHOTGUN,"1 RB, 1 TE, 3 WR",6,"3 DL, 3 LB, 5 DB",right,2019-09-15T19:22:27.000Z,2019-09-15T19:22:26.000Z,6-5,320,01/25/1994,Grambling,T,DET,LAC,2,Ford Field,Detroit,Indoors,Field Turf,Controlled Climate,68.0,70,,
18425,2019091502,20190915023172,home,82.17,22.29,1.85,0.61,0.2,319.01,354.43,2532826,Mike Daniels,96,2019,28,4,12:44:00,LAC,2,6,DET,6,10,2559169,SHOTGUN,"1 RB, 1 TE, 3 WR",6,"3 DL, 3 LB, 5 DB",right,2019-09-15T19:22:27.000Z,2019-09-15T19:22:26.000Z,6-0,310,05/05/1989,Iowa,DT,DET,LAC,2,Ford Field,Detroit,Indoors,Field Turf,Controlled Climate,68.0,70,,
18426,2019091502,20190915023172,home,81.58,25.65,0.9,0.2,0.09,286.46,284.55,2535718,Damon Harrison,98,2019,28,4,12:44:00,LAC,2,6,DET,6,10,2559169,SHOTGUN,"1 RB, 1 TE, 3 WR",6,"3 DL, 3 LB, 5 DB",right,2019-09-15T19:22:27.000Z,2019-09-15T19:22:26.000Z,6-3,350,11/29/1988,William Penn,DT,DET,LAC,2,Ford Field,Detroit,Indoors,Field Turf,Controlled Climate,68.0,70,,
18427,2019091502,20190915023172,home,83.46,36.51,0.51,0.73,0.05,282.01,173.06,2540288,Darius Slay,23,2019,28,4,12:44:00,LAC,2,6,DET,6,10,2559169,SHOTGUN,"1 RB, 1 TE, 3 WR",6,"3 DL, 3 LB, 5 DB",right,2019-09-15T19:22:27.000Z,2019-09-15T19:22:26.000Z,6-0,190,01/01/1991,Mississippi State,CB,DET,LAC,2,Ford Field,Detroit,Indoors,Field Turf,Controlled Climate,68.0,70,,
18428,2019091502,20190915023172,home,82.82,8.07,0.93,0.82,0.09,249.09,144.42,2541200,Rashaan Melvin,29,2019,28,4,12:44:00,LAC,2,6,DET,6,10,2559169,SHOTGUN,"1 RB, 1 TE, 3 WR",6,"3 DL, 3 LB, 5 DB",right,2019-09-15T19:22:27.000Z,2019-09-15T19:22:26.000Z,6-2,196,10/02/1989,Northern Illinois,CB,DET,LAC,2,Ford Field,Detroit,Indoors,Field Turf,Controlled Climate,68.0,70,,
18429,2019091502,20190915023172,home,81.3,18.2,2.23,3.08,0.22,271.56,314.81,2543869,Devon Kennard,42,2019,28,4,12:44:00,LAC,2,6,DET,6,10,2559169,SHOTGUN,"1 RB, 1 TE, 3 WR",6,"3 DL, 3 LB, 5 DB",right,2019-09-15T19:22:27.000Z,2019-09-15T19:22:26.000Z,6-3,256,06/24/1991,Southern California,OLB,DET,LAC,2,Ford Field,Detroit,Indoors,Field Turf,Controlled Climate,68.0,70,,
18430,2019091502,20190915023172,home,85.29,21.16,2.17,3.03,0.2,287.75,354.6,2550572,Christian Jones,52,2019,28,4,12:44:00,LAC,2,6,DET,6,10,2559169,SHOTGUN,"1 RB, 1 TE, 3 WR",6,"3 DL, 3 LB, 5 DB",right,2019-09-15T19:22:27.000Z,2019-09-15T19:22:26.000Z,6-3,250,02/18/1991,Florida State,ILB,DET,LAC,2,Ford Field,Detroit,Indoors,Field Turf,Controlled Climate,68.0,70,,
18431,2019091502,20190915023172,home,98.39,33.52,0.52,1.49,0.05,256.61,254.79,2552262,Quandre Diggs,28,2019,28,4,12:44:00,LAC,2,6,DET,6,10,2559169,SHOTGUN,"1 RB, 1 TE, 3 WR",6,"3 DL, 3 LB, 5 DB",right,2019-09-15T19:22:27.000Z,2019-09-15T19:22:26.000Z,5-9,197,01/22/1993,Texas,CB,DET,LAC,2,Ford Field,Detroit,Indoors,Field Turf,Controlled Climate,68.0,70,,
18432,2019091502,20190915023172,home,82.3,29.0,1.55,1.61,0.18,279.23,352.67,2552278,Trey Flowers,90,2019,28,4,12:44:00,LAC,2,6,DET,6,10,2559169,SHOTGUN,"1 RB, 1 TE, 3 WR",6,"3 DL, 3 LB, 5 DB",right,2019-09-15T19:22:27.000Z,2019-09-15T19:22:26.000Z,6-2,265,08/16/1993,Arkansas,DE,DET,LAC,2,Ford Field,Detroit,Indoors,Field Turf,Controlled Climate,68.0,70,,
18433,2019091502,20190915023172,home,82.36,14.34,1.9,3.55,0.18,250.72,170.8,2553637,Justin Coleman,27,2019,28,4,12:44:00,LAC,2,6,DET,6,10,2559169,SHOTGUN,"1 RB, 1 TE, 3 WR",6,"3 DL, 3 LB, 5 DB",right,2019-09-15T19:22:27.000Z,2019-09-15T19:22:26.000Z,5-11,190,03/27/1993,Tennessee,CB,DET,LAC,2,Ford Field,Detroit,Indoors,Field Turf,Controlled Climate,68.0,70,,
18434,2019091502,20190915023172,home,85.05,28.54,2.57,3.05,0.24,276.4,331.21,2557924,Jalen Reeves-Maybin,44,2019,28,4,12:44:00,LAC,2,6,DET,6,10,2559169,SHOTGUN,"1 RB, 1 TE, 3 WR",6,"3 DL, 3 LB, 5 DB",right,2019-09-15T19:22:27.000Z,2019-09-15T19:22:26.000Z,6-0,233,01/31/1995,Tennessee,OLB,DET,LAC,2,Ford Field,Detroit,Indoors,Field Turf,Controlled Climate,68.0,70,,
18435,2019091502,20190915023172,home,98.21,18.6,0.69,1.1,0.07,270.16,350.66,2560913,Tracy Walker,21,2019,28,4,12:44:00,LAC,2,6,DET,6,10,2559169,SHOTGUN,"1 RB, 1 TE, 3 WR",6,"3 DL, 3 LB, 5 DB",right,2019-09-15T19:22:27.000Z,2019-09-15T19:22:26.000Z,6-1,210,02/01/1995,Louisiana-Lafayette,DB,DET,LAC,2,Ford Field,Detroit,Indoors,Field Turf,Controlled Climate,68.0,70,,
