,GameId,PlayId,Team,X,Y,S,A,Dis,Orientation,Dir,NflId,DisplayName,JerseyNumber,Season,YardLine,Quarter,GameClock,PossessionTeam,Down,Distance,FieldPosition,HomeScoreBeforePlay,VisitorScoreBeforePlay,NflIdRusher,OffenseFormation,OffensePersonnel,DefendersInTheBox,DefensePersonnel,PlayDirection,TimeHandoff,TimeSnap,PlayerHeight,PlayerWeight,PlayerBirthDate,PlayerCollegeName,Position,HomeTeamAbbr,VisitorTeamAbbr,Week,Stadium,Location,StadiumType,Turf,GameWeather,Temperature,Humidity,WindSpeed,WindDirection
72512,2019100611,20191006110485,away,100.27,16.5,0.25,3.12,0.03,33.55,39.63,2552276,Preston Smith,91,2019,10,1,08:50:00,DAL,1,10,DAL,0,7,2555224,SINGLEBACK,"1 RB, 2 TE, 2 WR",8,"3 DL, 4 LB, 4 DB",left,2019-10-06T20:45:02.000Z,2019-10-06T20:45:00.000Z,6-5,265,11/17/1992,Mississippi State,OLB,DAL,GB,5,AT&T Stadium,"Arlington, Texas",Indoor,Artificial,,,0,,
72513,2019100611,20191006110485,away,101.49,28.17,3.61,2.55,0.35,107.93,96.18,2552279,Za'Darius Smith,55,2019,10,1,08:50:00,DAL,1,10,DAL,0,7,2555224,SINGLEBACK,"1 RB, 2 TE, 2 WR",8,"3 DL, 4 LB, 4 DB",left,2019-10-06T20:45:02.000Z,2019-10-06T20:45:00.000Z,6-4,272,09/08/1992,Kentucky,OLB,DAL,GB,5,AT&T Stadium,"Arlington, Texas",Indoor,Artificial,,,0,,
72514,2019100611,20191006110485,away,94.65,19.37,5.0,3.8,0.48,18.13,358.78,2552385,Adrian Amos,31,2019,10,1,08:50:00,DAL,1,10,DAL,0,7,2555224,SINGLEBACK,"1 RB, 2 TE, 2 WR",8,"3 DL, 4 LB, 4 DB",left,2019-10-06T20:45:02.000Z,2019-10-06T20:45:00.000Z,6-0,214,04/29/1993,Penn State,FS,DAL,GB,5,AT&T Stadium,"Arlington, Texas",Indoor,Artificial,,,0,,
72515,2019100611,20191006110485,away,98.61,23.95,1.5,3.87,0.17,69.36,102.17,2555161,Blake Martinez,50,2019,10,1,08:50:00,DAL,1,10,DAL,0,7,2555224,SINGLEBACK,"1 RB, 2 TE, 2 WR",8,"3 DL, 4 LB, 4 DB",left,2019-10-06T20:45:02.000Z,2019-10-06T20:45:00.000Z,6-2,237,01/09/1994,Stanford,ILB,DAL,GB,5,AT&T Stadium,"Arlington, Texas",Indoor,Artificial,,,0,,
72516,2019100611,20191006110485,away,100.29,18.53,2.24,1.21,0.23,44.28,161.68,2555274,Dean Lowry,94,2019,10,1,08:50:00,DAL,1,10,DAL,0,7,2555224,SINGLEBACK,"1 RB, 2 TE, 2 WR",8,"3 DL, 4 LB, 4 DB",left,2019-10-06T20:45:02.000Z,2019-10-06T20:45:00.000Z,6-6,296,06/09/1994,Northwestern,DE,DAL,GB,5,AT&T Stadium,"Arlington, Texas",Indoor,Artificial,,,0,,
72517,2019100611,20191006110485,away,100.01,22.89,0.44,0.96,0.05,80.15,79.46,2555282,Kenny Clark,97,2019,10,1,08:50:00,DAL,1,10,DAL,0,7,2555224,SINGLEBACK,"1 RB, 2 TE, 2 WR",8,"3 DL, 4 LB, 4 DB",left,2019-10-06T20:45:02.000Z,2019-10-06T20:45:00.000Z,6-3,314,10/04/1995,UCLA,NT,DAL,GB,5,AT&T Stadium,"Arlington, Texas",Indoor,Artificial,,,0,,
72518,2019100611,20191006110485,away,97.01,20.28,1.81,1.06,0.18,59.76,72.62,2555522,B.J. Goodson,93,2019,10,1,08:50:00,DAL,1,10,DAL,0,7,2555224,SINGLEBACK,"1 RB, 2 TE, 2 WR",8,"3 DL, 4 LB, 4 DB",left,2019-10-06T20:45:02.000Z,2019-10-06T20:45:00.000Z,6-1,242,05/29/1993,Clemson,ILB,DAL,GB,5,AT&T Stadium,"Arlington, Texas",Indoor,Artificial,,,0,,
72519,2019100611,20191006110485,away,96.18,32.44,0.45,1.84,0.05,125.53,330.69,2557996,Kevin King,20,2019,10,1,08:50:00,DAL,1,10,DAL,0,7,2555224,SINGLEBACK,"1 RB, 2 TE, 2 WR",8,"3 DL, 4 LB, 4 DB",left,2019-10-06T20:45:02.000Z,2019-10-06T20:45:00.000Z,6-3,200,05/05/1995,Washington,CB,DAL,GB,5,AT&T Stadium,"Arlington, Texas",Indoor,Artificial,,,0,,
72520,2019100611,20191006110485,away,91.75,35.19,1.47,0.5,0.14,198.28,286.1,2560952,Jaire Alexander,23,2019,10,1,08:50:00,DAL,1,10,DAL,0,7,2555224,SINGLEBACK,"1 RB, 2 TE, 2 WR",8,"3 DL, 4 LB, 4 DB",left,2019-10-06T20:45:02.000Z,2019-10-06T20:45:00.000Z,5-10,196,02/09/1997,Louisville,CB,DAL,GB,5,AT&T Stadium,"Arlington, Texas",Indoor,Artificial,,,0,,
72521,2019100611,20191006110485,away,99.79,24.88,1.26,0.37,0.13,130.85,168.49,2561227,Tyler Lancaster,95,2019,10,1,08:50:00,DAL,1,10,DAL,0,7,2555224,SINGLEBACK,"1 RB, 2 TE, 2 WR",8,"3 DL, 4 LB, 4 DB",left,2019-10-06T20:45:02.000Z,2019-10-06T20:45:00.000Z,6-3,315,11/04/1994,Northwestern,DT,DAL,GB,5,AT&T Stadium,"Arlington, Texas",Indoor,Artificial,,,0,,
72522,2019100611,20191006110485,away,85.85,24.84,2.16,1.04,0.21,117.05,261.33,2562724,Darnell Savage,26,2019,10,1,08:50:00,DAL,1,10,DAL,0,7,2555224,SINGLEBACK,"1 RB, 2 TE, 2 WR",8,"3 DL, 4 LB, 4 DB",left,2019-10-06T20:45:02.000Z,2019-10-06T20:45:00.000Z,5-11,200,07/30/1997,Maryland,DB,DAL,GB,5,AT&T Stadium,"Arlington, Texas",Indoor,Artificial,,,0,,
72523,2019100611,20191006110485,home,100.17,29.51,3.3,1.58,0.33,323.61,286.71,2495448,Randall Cobb,18,2019,10,1,08:50:00,DAL,1,10,DAL,0,7,2555224,SINGLEBACK,"1 RB, 2 TE, 2 WR",8,"3 DL, 4 LB, 4 DB",left,2019-10-06T20:45:02.000Z,2019-10-06T20:45:00.000Z,5-10,192,08/22/1990,Kentucky,WR,DAL,GB,5,AT&T Stadium,"Arlington, Texas",Indoor,Artificial,,,0,,
72524,2019100611,20191006110485,home,100.39,17.24,0.59,3.16,0.07,207.37,225.44,2505629,Jason Witten,82,2019,10,1,08:50:00,DAL,1,10,DAL,0,7,2555224,SINGLEBACK,"1 RB, 2 TE, 2 WR",8,"3 DL, 4 LB, 4 DB",left,2019-10-06T20:45:02.000Z,2019-10-06T20:45:00.000Z,6-6,263,05/06/1982,Tennessee,TE,DAL,GB,5,AT&T Stadium,"Arlington, Texas",Indoor,Artificial,,,0,,
72525,2019100611,20191006110485,home,100.44,23.59,0.43,0.56,0.04,211.62,318.69,2540161,Travis Frederick,72,2019,10,1,08:50:00,DAL,1,10,DAL,0,7,2555224,SINGLEBACK,"1 RB, 2 TE, 2 WR",8,"3 DL, 4 LB, 4 DB",left,2019-10-06T20:45:02.000Z,2019-10-06T20:45:00.000Z,6-4,320,03/18/1991,Wisconsin,C,DAL,GB,5,AT&T Stadium,"Arlington, Texas",Indoor,Artificial,,,0,,
72526,2019100611,20191006110485,home,100.66,25.43,0.61,0.21,0.06,212.48,201.71,2543480,Zack Martin,70,2019,10,1,08:50:00,DAL,1,10,DAL,0,7,2555224,SINGLEBACK,"1 RB, 2 TE, 2 WR",8,"3 DL, 4 LB, 4 DB",left,2019-10-06T20:45:02.000Z,2019-10-06T20:45:00.000Z,6-4,315,11/20/1990,Notre Dame,G,DAL,GB,5,AT&T Stadium,"Arlington, Texas",Indoor,Artificial,,,0,,
72527,2019100611,20191006110485,home,100.22,19.07,1.9,0.84,0.19,125.58,190.31,2543654,Cameron Fleming,75,2019,10,1,08:50:00,DAL,1,10,DAL,0,7,2555224,SINGLEBACK,"1 RB, 2 TE, 2 WR",8,"3 DL, 4 LB, 4 DB",left,2019-10-06T20:45:02.000Z,2019-10-06T20:45:00.000Z,6-5,320,09/03/1992,Stanford,T,DAL,GB,5,AT&T Stadium,"Arlington, Texas",Indoor,Artificial,,,0,,
72528,2019100611,20191006110485,home,97.6,33.51,5.13,1.55,0.51,291.8,291.18,2552487,Amari Cooper,19,2019,10,1,08:50:00,DAL,1,10,DAL,0,7,2555224,SINGLEBACK,"1 RB, 2 TE, 2 WR",8,"3 DL, 4 LB, 4 DB",left,2019-10-06T20:45:02.000Z,2019-10-06T20:45:00.000Z,6-1,211,06/17/1994,Alabama,WR,DAL,GB,5,AT&T Stadium,"Arlington, Texas",Indoor,Artificial,,,0,,
72529,2019100611,20191006110485,home,99.71,25.81,1.3,1.74,0.14,189.06,212.8,2553505,La'el Collins,71,2019,10,1,08:50:00,DAL,1,10,DAL,0,7,2555224,SINGLEBACK,"1 RB, 2 TE, 2 WR",8,"3 DL, 4 LB, 4 DB",left,2019-10-06T20:45:02.000Z,2019-10-06T20:45:00.000Z,6-4,320,07/26/1993,Louisiana State,T,DAL,GB,5,AT&T Stadium,"Arlington, Texas",Indoor,Artificial,,,0,,
72530,2019100611,20191006110485,home,105.93,22.17,4.3,2.85,0.42,265.88,250.58,2555224,Ezekiel Elliott,21,2019,10,1,08:50:00,DAL,1,10,DAL,0,7,2555224,SINGLEBACK,"1 RB, 2 TE, 2 WR",8,"3 DL, 4 LB, 4 DB",left,2019-10-06T20:45:02.000Z,2019-10-06T20:45:00.000Z,6-0,228,07/22/1995,Ohio State,RB,DAL,GB,5,AT&T Stadium,"Arlington, Texas",Indoor,Artificial,,,0,,
72531,2019100611,20191006110485,home,105.22,22.88,4.82,1.68,0.48,152.85,98.25,2555260,Dak Prescott,4,2019,10,1,08:50:00,DAL,1,10,DAL,0,7,2555224,SINGLEBACK,"1 RB, 2 TE, 2 WR",8,"3 DL, 4 LB, 4 DB",left,2019-10-06T20:45:02.000Z,2019-10-06T20:45:00.000Z,6-2,238,07/29/1993,Mississippi State,QB,DAL,GB,5,AT&T Stadium,"Arlington, Texas",Indoor,Artificial,,,0,,
72532,2019100611,20191006110485,home,101.98,23.01,5.61,0.82,0.56,349.24,4.26,2559193,Blake Jarwin,89,2019,10,1,08:50:00,DAL,1,10,DAL,0,7,2555224,SINGLEBACK,"1 RB, 2 TE, 2 WR",8,"3 DL, 4 LB, 4 DB",left,2019-10-06T20:45:02.000Z,2019-10-06T20:45:00.000Z,6-5,260,07/16/1994,Oklahoma State,TE,DAL,GB,5,AT&T Stadium,"Arlington, Texas",Indoor,Artificial,,,0,,
72533,2019100611,20191006110485,home,98.47,21.41,2.33,1.61,0.23,251.47,274.13,2560934,Connor Williams,52,2019,10,1,08:50:00,DAL,1,10,DAL,0,7,2555224,SINGLEBACK,"1 RB, 2 TE, 2 WR",8,"3 DL, 4 LB, 4 DB",left,2019-10-06T20:45:02.000Z,2019-10-06T20:45:00.000Z,6-5,298,05/12/1997,Texas,G,DAL,GB,5,AT&T Stadium,"Arlington, Texas",Indoor,Artificial,,,0,,
