,GameId,PlayId,Team,X,Y,S,A,Dis,Orientation,Dir,NflId,DisplayName,JerseyNumber,Season,YardLine,Quarter,GameClock,PossessionTeam,Down,Distance,FieldPosition,HomeScoreBeforePlay,VisitorScoreBeforePlay,NflIdRusher,OffenseFormation,OffensePersonnel,DefendersInTheBox,DefensePersonnel,PlayDirection,TimeHandoff,TimeSnap,PlayerHeight,PlayerWeight,PlayerBirthDate,PlayerCollegeName,Position,HomeTeamAbbr,VisitorTeamAbbr,Week,Stadium,Location,StadiumType,Turf,GameWeather,Temperature,Humidity,WindSpeed,WindDirection
44638,2019092213,20190922132969,away,65.54,33.69,0.23,0.99,0.02,17.08,129.46,2495977,Andrew Whitworth,77,2019,44,3,00:51:00,LA,2,5,CLV,13,10,2552475,SINGLEBACK,"1 RB, 1 TE, 3 WR",7,"3 DL, 3 LB, 5 DB",right,2019-09-23T02:34:25.000Z,2019-09-23T02:34:24.000Z,6-7,330,12/12/1981,Louisiana State,T,CLE,LA,3,First Energy Stadium,"Cleveland, Ohio",Outdoor,Grass,Mostly Clear,83.0,33,12,SSW
44639,2019092213,20190922132969,away,66.04,22.73,3.25,1.37,0.32,82.36,66.25,2540169,Robert Woods,17,2019,44,3,00:51:00,LA,2,5,CLV,13,10,2552475,SINGLEBACK,"1 RB, 1 TE, 3 WR",7,"3 DL, 3 LB, 5 DB",right,2019-09-23T02:34:25.000Z,2019-09-23T02:34:24.000Z,6-0,193,04/10/1992,Southern California,WR,CLE,LA,3,First Energy Stadium,"Cleveland, Ohio",Outdoor,Grass,Mostly Clear,83.0,33,12,SSW
44640,2019092213,20190922132969,away,68.57,37.25,4.61,2.64,0.46,99.82,127.6,2543498,Brandin Cooks,12,2019,44,3,00:51:00,LA,2,5,CLV,13,10,2552475,SINGLEBACK,"1 RB, 1 TE, 3 WR",7,"3 DL, 3 LB, 5 DB",right,2019-09-23T02:34:25.000Z,2019-09-23T02:34:24.000Z,5-10,183,09/25/1993,Oregon State,WR,CLE,LA,3,First Energy Stadium,"Cleveland, Ohio",Outdoor,Grass,Mostly Clear,83.0,33,12,SSW
44641,2019092213,20190922132969,away,67.36,27.78,1.88,1.67,0.19,60.5,95.49,2552363,Rob Havenstein,79,2019,44,3,00:51:00,LA,2,5,CLV,13,10,2552475,SINGLEBACK,"1 RB, 1 TE, 3 WR",7,"3 DL, 3 LB, 5 DB",right,2019-09-23T02:34:25.000Z,2019-09-23T02:34:24.000Z,6-8,328,05/13/1992,Wisconsin,T,CLE,LA,3,First Energy Stadium,"Cleveland, Ohio",Outdoor,Grass,Mostly Clear,83.0,33,12,SSW
44642,2019092213,20190922132969,away,61.4,28.46,4.42,2.84,0.43,111.08,108.02,2552475,Todd Gurley,30,2019,44,3,00:51:00,LA,2,5,CLV,13,10,2552475,SINGLEBACK,"1 RB, 1 TE, 3 WR",7,"3 DL, 3 LB, 5 DB",right,2019-09-23T02:34:25.000Z,2019-09-23T02:34:24.000Z,6-1,224,08/03/1994,Georgia,RB,CLE,LA,3,First Energy Stadium,"Cleveland, Ohio",Outdoor,Grass,Mostly Clear,83.0,33,12,SSW
44643,2019092213,20190922132969,away,61.15,28.97,3.96,0.67,0.39,186.11,260.25,2555334,Jared Goff,16,2019,44,3,00:51:00,LA,2,5,CLV,13,10,2552475,SINGLEBACK,"1 RB, 1 TE, 3 WR",7,"3 DL, 3 LB, 5 DB",right,2019-09-23T02:34:25.000Z,2019-09-23T02:34:24.000Z,6-4,223,10/14/1994,California,QB,CLE,LA,3,First Energy Stadium,"Cleveland, Ohio",Outdoor,Grass,Mostly Clear,83.0,33,12,SSW
44644,2019092213,20190922132969,away,65.72,27.65,1.36,4.42,0.18,215.37,23.05,2557889,Gerald Everett,81,2019,44,3,00:51:00,LA,2,5,CLV,13,10,2552475,SINGLEBACK,"1 RB, 1 TE, 3 WR",7,"3 DL, 3 LB, 5 DB",right,2019-09-23T02:34:25.000Z,2019-09-23T02:34:24.000Z,6-3,240,06/25/1994,South Alabama,TE,CLE,LA,3,First Energy Stadium,"Cleveland, Ohio",Outdoor,Grass,Mostly Clear,83.0,33,12,SSW
44645,2019092213,20190922132969,away,66.33,21.33,2.27,2.35,0.23,141.24,135.9,2557898,Cooper Kupp,18,2019,44,3,00:51:00,LA,2,5,CLV,13,10,2552475,SINGLEBACK,"1 RB, 1 TE, 3 WR",7,"3 DL, 3 LB, 5 DB",right,2019-09-23T02:34:25.000Z,2019-09-23T02:34:24.000Z,6-2,208,06/15/1993,Eastern Washington,WR,CLE,LA,3,First Energy Stadium,"Cleveland, Ohio",Outdoor,Grass,Mostly Clear,83.0,33,12,SSW
44646,2019092213,20190922132969,away,66.3,32.25,1.54,0.57,0.15,63.28,40.24,2560825,Joe Noteboom,70,2019,44,3,00:51:00,LA,2,5,CLV,13,10,2552475,SINGLEBACK,"1 RB, 1 TE, 3 WR",7,"3 DL, 3 LB, 5 DB",right,2019-09-23T02:34:25.000Z,2019-09-23T02:34:24.000Z,6-5,321,06/19/1995,Texas Christian,T,CLE,LA,3,First Energy Stadium,"Cleveland, Ohio",Outdoor,Grass,Mostly Clear,83.0,33,12,SSW
44647,2019092213,20190922132969,away,66.3,30.98,1.19,0.69,0.12,106.65,67.05,2560954,Brian Allen,55,2019,44,3,00:51:00,LA,2,5,CLV,13,10,2552475,SINGLEBACK,"1 RB, 1 TE, 3 WR",7,"3 DL, 3 LB, 5 DB",right,2019-09-23T02:34:25.000Z,2019-09-23T02:34:24.000Z,6-2,302,10/11/1995,Michigan State,C,CLE,LA,3,First Energy Stadium,"Cleveland, Ohio",Outdoor,Grass,Mostly Clear,83.0,33,12,SSW
44648,2019092213,20190922132969,away,66.49,29.39,1.37,0.58,0.14,61.85,46.09,2561043,Jamil Demby,64,2019,44,3,00:51:00,LA,2,5,CLV,13,10,2552475,SINGLEBACK,"1 RB, 1 TE, 3 WR",7,"3 DL, 3 LB, 5 DB",right,2019-09-23T02:34:25.000Z,2019-09-23T02:34:24.000Z,6-5,321,06/20/1996,Maine,G,CLE,LA,3,First Energy Stadium,"Cleveland, Ohio",Outdoor,Grass,Mostly Clear,83.0,33,12,SSW
44649,2019092213,20190922132969,home,65.6,34.55,0.23,2.35,0.02,235.2,195.65,2533534,Olivier Vernon,54,2019,44,3,00:51:00,LA,2,5,CLV,13,10,2552475,SINGLEBACK,"1 RB, 1 TE, 3 WR",7,"3 DL, 3 LB, 5 DB",right,2019-09-23T02:34:25.000Z,2019-09-23T02:34:24.000Z,6-2,262,10/07/1990,Miami,OLB,CLE,LA,3,First Energy Stadium,"Cleveland, Ohio",Outdoor,Grass,Mostly Clear,83.0,33,12,SSW
44650,2019092213,20190922132969,home,74.1,16.79,1.38,1.83,0.13,321.84,301.66,2543637,Terrance Mitchell,39,2019,44,3,00:51:00,LA,2,5,CLV,13,10,2552475,SINGLEBACK,"1 RB, 1 TE, 3 WR",7,"3 DL, 3 LB, 5 DB",right,2019-09-23T02:34:25.000Z,2019-09-23T02:34:24.000Z,5-11,190,05/17/1992,Oregon,CB,CLE,LA,3,First Energy Stadium,"Cleveland, Ohio",Outdoor,Grass,Mostly Clear,83.0,33,12,SSW
44651,2019092213,20190922132969,home,75.85,41.2,1.76,2.58,0.16,227.23,101.23,2550164,T.J. Carrie,38,2019,44,3,00:51:00,LA,2,5,CLV,13,10,2552475,SINGLEBACK,"1 RB, 1 TE, 3 WR",7,"3 DL, 3 LB, 5 DB",right,2019-09-23T02:34:25.000Z,2019-09-23T02:34:24.000Z,6-0,204,07/28/1990,Ohio,CB,CLE,LA,3,First Energy Stadium,"Cleveland, Ohio",Outdoor,Grass,Mostly Clear,83.0,33,12,SSW
44652,2019092213,20190922132969,home,78.24,32.75,4.35,1.83,0.43,254.16,229.23,2552697,Jermaine Whitehead,35,2019,44,3,00:51:00,LA,2,5,CLV,13,10,2552475,SINGLEBACK,"1 RB, 1 TE, 3 WR",7,"3 DL, 3 LB, 5 DB",right,2019-09-23T02:34:25.000Z,2019-09-23T02:34:24.000Z,5-11,195,03/12/1993,Auburn,FS,CLE,LA,3,First Energy Stadium,"Cleveland, Ohio",Outdoor,Grass,Mostly Clear,83.0,33,12,SSW
44653,2019092213,20190922132969,home,68.67,28.07,1.37,0.8,0.14,245.59,295.57,2555166,Joe Schobert,53,2019,44,3,00:51:00,LA,2,5,CLV,13,10,2552475,SINGLEBACK,"1 RB, 1 TE, 3 WR",7,"3 DL, 3 LB, 5 DB",right,2019-09-23T02:34:25.000Z,2019-09-23T02:34:24.000Z,6-1,245,11/06/1993,Wisconsin,MLB,CLE,LA,3,First Energy Stadium,"Cleveland, Ohio",Outdoor,Grass,Mostly Clear,83.0,33,12,SSW
44654,2019092213,20190922132969,home,66.97,20.55,1.35,3.19,0.13,319.95,122.49,2555173,Eric Murray,22,2019,44,3,00:51:00,LA,2,5,CLV,13,10,2552475,SINGLEBACK,"1 RB, 1 TE, 3 WR",7,"3 DL, 3 LB, 5 DB",right,2019-09-23T02:34:25.000Z,2019-09-23T02:34:24.000Z,5-11,199,01/07/1994,Minnesota,FS,CLE,LA,3,First Energy Stadium,"Cleveland, Ohio",Outdoor,Grass,Mostly Clear,83.0,33,12,SSW
44655,2019092213,20190922132969,home,81.14,24.5,3.17,2.43,0.32,285.01,52.39,2555313,Juston Burris,41,2019,44,3,00:51:00,LA,2,5,CLV,13,10,2552475,SINGLEBACK,"1 RB, 1 TE, 3 WR",7,"3 DL, 3 LB, 5 DB",right,2019-09-23T02:34:25.000Z,2019-09-23T02:34:24.000Z,6-0,212,08/04/1993,North Carolina State,CB,CLE,LA,3,First Energy Stadium,"Cleveland, Ohio",Outdoor,Grass,Mostly Clear,83.0,33,12,SSW
44656,2019092213,20190922132969,home,65.67,27.11,0.9,1.65,0.1,12.57,331.24,2557965,Myles Garrett,95,2019,44,3,00:51:00,LA,2,5,CLV,13,10,2552475,SINGLEBACK,"1 RB, 1 TE, 3 WR",7,"3 DL, 3 LB, 5 DB",right,2019-09-23T02:34:25.000Z,2019-09-23T02:34:24.000Z,6-4,272,12/29/1995,Texas A&M,DE,CLE,LA,3,First Energy Stadium,"Cleveland, Ohio",Outdoor,Grass,Mostly Clear,83.0,33,12,SSW
44657,2019092213,20190922132969,home,66.72,30.66,0.9,0.57,0.09,283.51,90.29,2559079,Devaroe Lawrence,99,2019,44,3,00:51:00,LA,2,5,CLV,13,10,2552475,SINGLEBACK,"1 RB, 1 TE, 3 WR",7,"3 DL, 3 LB, 5 DB",right,2019-09-23T02:34:25.000Z,2019-09-23T02:34:24.000Z,6-2,294,10/13/1992,Auburn,DT,CLE,LA,3,First Energy Stadium,"Cleveland, Ohio",Outdoor,Grass,Mostly Clear,83.0,33,12,SSW
44658,2019092213,20190922132969,home,66.84,29.77,1.24,1.63,0.12,232.33,23.53,2561458,Daniel Ekuale,96,2019,44,3,00:51:00,LA,2,5,CLV,13,10,2552475,SINGLEBACK,"1 RB, 1 TE, 3 WR",7,"3 DL, 3 LB, 5 DB",right,2019-09-23T02:34:25.000Z,2019-09-23T02:34:24.000Z,6-3,300,01/13/1994,Washington State,DT,CLE,LA,3,First Energy Stadium,"Cleveland, Ohio",Outdoor,Grass,Mostly Clear,83.0,33,12,SSW
44659,2019092213,20190922132969,home,67.81,32.92,1.55,0.76,0.15,255.74,260.12,2562605,Mack Wilson,51,2019,44,3,00:51:00,LA,2,5,CLV,13,10,2552475,SINGLEBACK,"1 RB, 1 TE, 3 WR",7,"3 DL, 3 LB, 5 DB",right,2019-09-23T02:34:25.000Z,2019-09-23T02:34:24.000Z,6-1,240,02/14/1998,Alabama,LB,CLE,LA,3,First Energy Stadium,"Cleveland, Ohio",Outdoor,Grass,Mostly Clear,83.0,33,12,SSW
