,GameId,PlayId,Team,X,Y,S,A,Dis,Orientation,Dir,NflId,DisplayName,JerseyNumber,Season,YardLine,Quarter,GameClock,PossessionTeam,Down,Distance,FieldPosition,HomeScoreBeforePlay,VisitorScoreBeforePlay,NflIdRusher,OffenseFormation,OffensePersonnel,DefendersInTheBox,DefensePersonnel,PlayDirection,TimeHandoff,TimeSnap,PlayerHeight,PlayerWeight,PlayerBirthDate,PlayerCollegeName,Position,HomeTeamAbbr,VisitorTeamAbbr,Week,Stadium,Location,StadiumType,Turf,GameWeather,Temperature,Humidity,WindSpeed,WindDirection
69916,2019100608,20191006081653,away,46.55,27.33,3.41,1.95,0.39,187.96,218.64,496796,Jerry Hughes,55,2019,39,2,02:00:00,TEN,1,10,TEN,0,7,2495469,SHOTGUN,"1 RB, 1 TE, 3 WR",6,"3 DL, 3 LB, 5 DB",right,2019-10-06T18:10:52.000Z,2019-10-06T18:10:51.000Z,6-2,254,08/13/1988,Texas Christian,DE,TEN,BUF,5,Nissan Stadium,"Nashville, TN",Outdoors,Grass,Cloudy,77.0,71,13,S
69917,2019100608,20191006081653,away,49.52,21.67,0.12,0.7,0.01,333.46,39.55,2506268,Lorenzo Alexander,57,2019,39,2,02:00:00,TEN,1,10,TEN,0,7,2495469,SHOTGUN,"1 RB, 1 TE, 3 WR",6,"3 DL, 3 LB, 5 DB",right,2019-10-06T18:10:52.000Z,2019-10-06T18:10:51.000Z,6-1,245,05/31/1983,California,OLB,TEN,BUF,5,Nissan Stadium,"Nashville, TN",Outdoors,Grass,Cloudy,77.0,71,13,S
69918,2019100608,20191006081653,away,65.36,32.86,1.48,1.57,0.15,271.44,54.77,2539240,Micah Hyde,23,2019,39,2,02:00:00,TEN,1,10,TEN,0,7,2495469,SHOTGUN,"1 RB, 1 TE, 3 WR",6,"3 DL, 3 LB, 5 DB",right,2019-10-06T18:10:52.000Z,2019-10-06T18:10:51.000Z,6-0,197,12/31/1990,Iowa,SS,TEN,BUF,5,Nissan Stadium,"Nashville, TN",Outdoors,Grass,Cloudy,77.0,71,13,S
69919,2019100608,20191006081653,away,61.13,19.99,0.41,1.87,0.05,269.41,102.93,2539290,Jordan Poyer,21,2019,39,2,02:00:00,TEN,1,10,TEN,0,7,2495469,SHOTGUN,"1 RB, 1 TE, 3 WR",6,"3 DL, 3 LB, 5 DB",right,2019-10-06T18:10:52.000Z,2019-10-06T18:10:51.000Z,6-0,191,04/25/1991,Oregon State,FS,TEN,BUF,5,Nissan Stadium,"Nashville, TN",Outdoors,Grass,Cloudy,77.0,71,13,S
69920,2019100608,20191006081653,away,48.52,18.16,0.68,1.78,0.07,293.11,331.64,2543503,Trent Murphy,93,2019,39,2,02:00:00,TEN,1,10,TEN,0,7,2495469,SHOTGUN,"1 RB, 1 TE, 3 WR",6,"3 DL, 3 LB, 5 DB",right,2019-10-06T18:10:52.000Z,2019-10-06T18:10:51.000Z,6-6,259,12/22/1990,Stanford,DE,TEN,BUF,5,Nissan Stadium,"Nashville, TN",Outdoors,Grass,Cloudy,77.0,71,13,S
69921,2019100608,20191006081653,away,55.03,33.53,0.68,1.46,0.06,244.63,171.58,2552261,Kevin Johnson,29,2019,39,2,02:00:00,TEN,1,10,TEN,0,7,2495469,SHOTGUN,"1 RB, 1 TE, 3 WR",6,"3 DL, 3 LB, 5 DB",right,2019-10-06T18:10:52.000Z,2019-10-06T18:10:51.000Z,6-0,185,08/05/1992,Wake Forest,CB,TEN,BUF,5,Nissan Stadium,"Nashville, TN",Outdoors,Grass,Cloudy,77.0,71,13,S
69922,2019100608,20191006081653,away,55.32,15.12,1.19,2.04,0.11,314.75,300.28,2557867,Tre'Davious White,27,2019,39,2,02:00:00,TEN,1,10,TEN,0,7,2495469,SHOTGUN,"1 RB, 1 TE, 3 WR",6,"3 DL, 3 LB, 5 DB",right,2019-10-06T18:10:52.000Z,2019-10-06T18:10:51.000Z,5-11,192,01/16/1995,Louisiana State,CB,TEN,BUF,5,Nissan Stadium,"Nashville, TN",Outdoors,Grass,Cloudy,77.0,71,13,S
69923,2019100608,20191006081653,away,54.26,20.36,0.5,1.31,0.05,270.46,161.38,2557969,Matt Milano,58,2019,39,2,02:00:00,TEN,1,10,TEN,0,7,2495469,SHOTGUN,"1 RB, 1 TE, 3 WR",6,"3 DL, 3 LB, 5 DB",right,2019-10-06T18:10:52.000Z,2019-10-06T18:10:51.000Z,6-0,223,07/28/1994,Boston College,OLB,TEN,BUF,5,Nissan Stadium,"Nashville, TN",Outdoors,Grass,Cloudy,77.0,71,13,S
69924,2019100608,20191006081653,away,53.54,25.36,1.67,0.91,0.16,270.24,183.86,2560713,Tremaine Edmunds,49,2019,39,2,02:00:00,TEN,1,10,TEN,0,7,2495469,SHOTGUN,"1 RB, 1 TE, 3 WR",6,"3 DL, 3 LB, 5 DB",right,2019-10-06T18:10:52.000Z,2019-10-06T18:10:51.000Z,6-5,250,05/02/1998,Virginia Tech,LB,TEN,BUF,5,Nissan Stadium,"Nashville, TN",Outdoors,Grass,Cloudy,77.0,71,13,S
69925,2019100608,20191006081653,away,55.8,44.01,3.44,0.27,0.34,151.09,90.87,2560914,Levi Wallace,39,2019,39,2,02:00:00,TEN,1,10,TEN,0,7,2495469,SHOTGUN,"1 RB, 1 TE, 3 WR",6,"3 DL, 3 LB, 5 DB",right,2019-10-06T18:10:52.000Z,2019-10-06T18:10:51.000Z,6-0,179,06/12/1995,Alabama,CB,TEN,BUF,5,Nissan Stadium,"Nashville, TN",Outdoors,Grass,Cloudy,77.0,71,13,S
69926,2019100608,20191006081653,away,49.11,27.15,0.8,1.98,0.08,254.05,29.26,2562322,Ed Oliver,91,2019,39,2,02:00:00,TEN,1,10,TEN,0,7,2495469,SHOTGUN,"1 RB, 1 TE, 3 WR",6,"3 DL, 3 LB, 5 DB",right,2019-10-06T18:10:52.000Z,2019-10-06T18:10:51.000Z,6-1,287,12/12/1997,Houston,DT,TEN,BUF,5,Nissan Stadium,"Nashville, TN",Outdoors,Grass,Cloudy,77.0,71,13,S
69927,2019100608,20191006081653,home,48.5,26.62,1.0,0.97,0.11,45.91,34.97,497048,Rodger Saffold,76,2019,39,2,02:00:00,TEN,1,10,TEN,0,7,2495469,SHOTGUN,"1 RB, 1 TE, 3 WR",6,"3 DL, 3 LB, 5 DB",right,2019-10-06T18:10:52.000Z,2019-10-06T18:10:51.000Z,6-5,325,06/06/1988,Indiana,G,TEN,BUF,5,Nissan Stadium,"Nashville, TN",Outdoors,Grass,Cloudy,77.0,71,13,S
69928,2019100608,20191006081653,home,45.23,24.29,4.2,3.34,0.41,119.99,130.69,2495469,Dion Lewis,33,2019,39,2,02:00:00,TEN,1,10,TEN,0,7,2495469,SHOTGUN,"1 RB, 1 TE, 3 WR",6,"3 DL, 3 LB, 5 DB",right,2019-10-06T18:10:52.000Z,2019-10-06T18:10:51.000Z,5-8,195,09/27/1990,Pittsburgh,RB,TEN,BUF,5,Nissan Stadium,"Nashville, TN",Outdoors,Grass,Cloudy,77.0,71,13,S
69929,2019100608,20191006081653,home,47.81,18.4,0.31,2.74,0.03,116.53,302.8,2495966,Delanie Walker,82,2019,39,2,02:00:00,TEN,1,10,TEN,0,7,2495469,SHOTGUN,"1 RB, 1 TE, 3 WR",6,"3 DL, 3 LB, 5 DB",right,2019-10-06T18:10:52.000Z,2019-10-06T18:10:51.000Z,6-2,248,08/12/1984,Central Missouri,TE,TEN,BUF,5,Nissan Stadium,"Nashville, TN",Outdoors,Grass,Cloudy,77.0,71,13,S
69930,2019100608,20191006081653,home,49.77,25.11,2.75,1.91,0.28,79.6,76.53,2532883,Ben Jones,60,2019,39,2,02:00:00,TEN,1,10,TEN,0,7,2495469,SHOTGUN,"1 RB, 1 TE, 3 WR",6,"3 DL, 3 LB, 5 DB",right,2019-10-06T18:10:52.000Z,2019-10-06T18:10:51.000Z,6-3,308,07/02/1989,Georgia,C,TEN,BUF,5,Nissan Stadium,"Nashville, TN",Outdoors,Grass,Cloudy,77.0,71,13,S
69931,2019100608,20191006081653,home,46.37,26.6,1.53,1.79,0.15,334.6,190.0,2550132,Taylor Lewan,77,2019,39,2,02:00:00,TEN,1,10,TEN,0,7,2495469,SHOTGUN,"1 RB, 1 TE, 3 WR",6,"3 DL, 3 LB, 5 DB",right,2019-10-06T18:10:52.000Z,2019-10-06T18:10:51.000Z,6-7,309,07/22/1991,Michigan,T,TEN,BUF,5,Nissan Stadium,"Nashville, TN",Outdoors,Grass,Cloudy,77.0,71,13,S
69932,2019100608,20191006081653,home,44.16,23.99,0.95,1.7,0.09,69.78,53.03,2552466,Marcus Mariota,8,2019,39,2,02:00:00,TEN,1,10,TEN,0,7,2495469,SHOTGUN,"1 RB, 1 TE, 3 WR",6,"3 DL, 3 LB, 5 DB",right,2019-10-06T18:10:52.000Z,2019-10-06T18:10:51.000Z,6-4,222,10/30/1993,Oregon,QB,TEN,BUF,5,Nissan Stadium,"Nashville, TN",Outdoors,Grass,Cloudy,77.0,71,13,S
69933,2019100608,20191006081653,home,45.82,36.85,3.37,3.44,0.33,112.14,332.52,2553895,Adam Humphries,10,2019,39,2,02:00:00,TEN,1,10,TEN,0,7,2495469,SHOTGUN,"1 RB, 1 TE, 3 WR",6,"3 DL, 3 LB, 5 DB",right,2019-10-06T18:10:52.000Z,2019-10-06T18:10:51.000Z,5-11,195,06/24/1993,Clemson,WR,TEN,BUF,5,Nissan Stadium,"Nashville, TN",Outdoors,Grass,Cloudy,77.0,71,13,S
69934,2019100608,20191006081653,home,48.9,21.89,0.99,1.84,0.11,111.26,39.72,2555279,Jack Conklin,78,2019,39,2,02:00:00,TEN,1,10,TEN,0,7,2495469,SHOTGUN,"1 RB, 1 TE, 3 WR",6,"3 DL, 3 LB, 5 DB",right,2019-10-06T18:10:52.000Z,2019-10-06T18:10:51.000Z,6-6,308,08/17/1994,Michigan State,T,TEN,BUF,5,Nissan Stadium,"Nashville, TN",Outdoors,Grass,Cloudy,77.0,71,13,S
69935,2019100608,20191006081653,home,49.16,19.85,4.44,2.88,0.43,93.66,97.65,2557848,Corey Davis,84,2019,39,2,02:00:00,TEN,1,10,TEN,0,7,2495469,SHOTGUN,"1 RB, 1 TE, 3 WR",6,"3 DL, 3 LB, 5 DB",right,2019-10-06T18:10:52.000Z,2019-10-06T18:10:51.000Z,6-3,209,01/11/1995,Western Michigan,WR,TEN,BUF,5,Nissan Stadium,"Nashville, TN",Outdoors,Grass,Cloudy,77.0,71,13,S
69936,2019100608,20191006081653,home,50.47,43.71,4.84,2.47,0.47,71.05,85.71,2562238,A.J. Brown,11,2019,39,2,02:00:00,TEN,1,10,TEN,0,7,2495469,SHOTGUN,"1 RB, 1 TE, 3 WR",6,"3 DL, 3 LB, 5 DB",right,2019-10-06T18:10:52.000Z,2019-10-06T18:10:51.000Z,6-1,226,06/30/1997,Mississippi,WR,TEN,BUF,5,Nissan Stadium,"Nashville, TN",Outdoors,Grass,Cloudy,77.0,71,13,S
69937,2019100608,20191006081653,home,49.96,22.52,2.18,0.59,0.22,124.68,80.02,2562641,Nate Davis,64,2019,39,2,02:00:00,TEN,1,10,TEN,0,7,2495469,SHOTGUN,"1 RB, 1 TE, 3 WR",6,"3 DL, 3 LB, 5 DB",right,2019-10-06T18:10:52.000Z,2019-10-06T18:10:51.000Z,6-3,316,09/23/1996,North Carolina-Charlotte,G,TEN,BUF,5,Nissan Stadium,"Nashville, TN",Outdoors,Grass,Cloudy,77.0,71,13,S
