,GameId,PlayId,Team,X,Y,S,A,Dis,Orientation,Dir,NflId,DisplayName,JerseyNumber,Season,YardLine,Quarter,GameClock,PossessionTeam,Down,Distance,FieldPosition,HomeScoreBeforePlay,VisitorScoreBeforePlay,NflIdRusher,OffenseFormation,OffensePersonnel,DefendersInTheBox,DefensePersonnel,PlayDirection,TimeHandoff,TimeSnap,PlayerHeight,PlayerWeight,PlayerBirthDate,PlayerCollegeName,Position,HomeTeamAbbr,VisitorTeamAbbr,Week,Stadium,Location,StadiumType,Turf,GameWeather,Temperature,Humidity,WindSpeed,WindDirection
12870,2019090812,20190908123645,away,34.26,27.6,1.76,1.21,0.2,62.55,131.91,81821,Ramon Foster,73,2019,25,4,06:38:00,PIT,1,10,PIT,33,3,2557978,SHOTGUN,"1 RB, 1 TE, 3 WR",5,"2 DL, 3 LB, 6 DB",right,2019-09-09T03:05:53.000Z,2019-09-09T03:05:52.000Z,6-5,328,01/07/1986,Tennessee,G,NE,PIT,1,Gillette Stadium,"Foxborough, MA",Outdoor,Field Turf,Partly cloudy and mild,66.0,62,2,NW
12871,2019090812,20190908123645,away,33.27,24.89,2.49,0.76,0.26,103.13,212.87,497042,Maurkice Pouncey,53,2019,25,4,06:38:00,PIT,1,10,PIT,33,3,2557978,SHOTGUN,"1 RB, 1 TE, 3 WR",5,"2 DL, 3 LB, 6 DB",right,2019-09-09T03:05:53.000Z,2019-09-09T03:05:52.000Z,6-4,304,07/24/1989,Florida,C,NE,PIT,1,Gillette Stadium,"Foxborough, MA",Outdoor,Field Turf,Partly cloudy and mild,66.0,62,2,NW
12872,2019090812,20190908123645,away,29.0,27.1,1.36,1.53,0.15,69.65,351.49,2506109,Ben Roethlisberger,7,2019,25,4,06:38:00,PIT,1,10,PIT,33,3,2557978,SHOTGUN,"1 RB, 1 TE, 3 WR",5,"2 DL, 3 LB, 6 DB",right,2019-09-09T03:05:53.000Z,2019-09-09T03:05:52.000Z,6-5,240,03/02/1982,Miami (Ohio),QB,NE,PIT,1,Gillette Stadium,"Foxborough, MA",Outdoor,Field Turf,Partly cloudy and mild,66.0,62,2,NW
12873,2019090812,20190908123645,away,32.34,22.54,3.21,0.85,0.34,110.86,208.96,2533043,David DeCastro,66,2019,25,4,06:38:00,PIT,1,10,PIT,33,3,2557978,SHOTGUN,"1 RB, 1 TE, 3 WR",5,"2 DL, 3 LB, 6 DB",right,2019-09-09T03:05:53.000Z,2019-09-09T03:05:52.000Z,6-5,316,01/11/1990,Stanford,G,NE,PIT,1,Gillette Stadium,"Foxborough, MA",Outdoor,Field Turf,Partly cloudy and mild,66.0,62,2,NW
12874,2019090812,20190908123645,away,32.84,21.49,2.37,1.37,0.24,16.11,336.41,2540215,Vance McDonald,89,2019,25,4,06:38:00,PIT,1,10,PIT,33,3,2557978,SHOTGUN,"1 RB, 1 TE, 3 WR",5,"2 DL, 3 LB, 6 DB",right,2019-09-09T03:05:53.000Z,2019-09-09T03:05:52.000Z,6-4,267,06/13/1990,Rice,TE,NE,PIT,1,Gillette Stadium,"Foxborough, MA",Outdoor,Field Turf,Partly cloudy and mild,66.0,62,2,NW
12875,2019090812,20190908123645,away,35.71,45.19,4.45,4.61,0.43,96.14,58.38,2543614,Donte Moncrief,11,2019,25,4,06:38:00,PIT,1,10,PIT,33,3,2557978,SHOTGUN,"1 RB, 1 TE, 3 WR",5,"2 DL, 3 LB, 6 DB",right,2019-09-09T03:05:53.000Z,2019-09-09T03:05:52.000Z,6-2,216,08/06/1993,Mississippi,WR,NE,PIT,1,Gillette Stadium,"Foxborough, MA",Outdoor,Field Turf,Partly cloudy and mild,66.0,62,2,NW
12876,2019090812,20190908123645,away,32.04,27.42,3.95,1.57,0.41,189.9,202.43,2550130,Alejandro Villanueva,78,2019,25,4,06:38:00,PIT,1,10,PIT,33,3,2557978,SHOTGUN,"1 RB, 1 TE, 3 WR",5,"2 DL, 3 LB, 6 DB",right,2019-09-09T03:05:53.000Z,2019-09-09T03:05:52.000Z,6-9,320,09/22/1988,Army,T,NE,PIT,1,Gillette Stadium,"Foxborough, MA",Outdoor,Field Turf,Partly cloudy and mild,66.0,62,2,NW
12877,2019090812,20190908123645,away,34.04,23.56,0.95,1.19,0.1,39.49,122.1,2550561,Matt Feiler,71,2019,25,4,06:38:00,PIT,1,10,PIT,33,3,2557978,SHOTGUN,"1 RB, 1 TE, 3 WR",5,"2 DL, 3 LB, 6 DB",right,2019-09-09T03:05:53.000Z,2019-09-09T03:05:52.000Z,6-6,330,07/07/1992,Bloomsburg,T,NE,PIT,1,Gillette Stadium,"Foxborough, MA",Outdoor,Field Turf,Partly cloudy and mild,66.0,62,2,NW
12878,2019090812,20190908123645,away,35.27,36.29,4.5,2.04,0.44,89.23,96.77,2557960,Ryan Switzer,10,2019,25,4,06:38:00,PIT,1,10,PIT,33,3,2557978,SHOTGUN,"1 RB, 1 TE, 3 WR",5,"2 DL, 3 LB, 6 DB",right,2019-09-09T03:05:53.000Z,2019-09-09T03:05:52.000Z,5-8,185,11/04/1994,North Carolina,WR,NE,PIT,1,Gillette Stadium,"Foxborough, MA",Outdoor,Field Turf,Partly cloudy and mild,66.0,62,2,NW
12879,2019090812,20190908123645,away,29.76,26.81,4.83,3.39,0.47,106.25,171.48,2557978,James Conner,30,2019,25,4,06:38:00,PIT,1,10,PIT,33,3,2557978,SHOTGUN,"1 RB, 1 TE, 3 WR",5,"2 DL, 3 LB, 6 DB",right,2019-09-09T03:05:53.000Z,2019-09-09T03:05:52.000Z,6-1,233,05/05/1995,Pittsburgh,RB,NE,PIT,1,Gillette Stadium,"Foxborough, MA",Outdoor,Field Turf,Partly cloudy and mild,66.0,62,2,NW
12880,2019090812,20190908123645,away,35.34,10.17,3.05,2.84,0.29,74.21,124.81,2558149,JuJu Smith-Schuster,19,2019,25,4,06:38:00,PIT,1,10,PIT,33,3,2557978,SHOTGUN,"1 RB, 1 TE, 3 WR",5,"2 DL, 3 LB, 6 DB",right,2019-09-09T03:05:53.000Z,2019-09-09T03:05:52.000Z,6-1,215,11/22/1996,Southern California,WR,NE,PIT,1,Gillette Stadium,"Foxborough, MA",Outdoor,Field Turf,Partly cloudy and mild,66.0,62,2,NW
12881,2019090812,20190908123645,home,37.72,44.85,3.16,3.8,0.3,275.87,57.6,89756,Jason McCourty,30,2019,25,4,06:38:00,PIT,1,10,PIT,33,3,2557978,SHOTGUN,"1 RB, 1 TE, 3 WR",5,"2 DL, 3 LB, 6 DB",right,2019-09-09T03:05:53.000Z,2019-09-09T03:05:52.000Z,5-11,195,08/13/1987,Rutgers,CB,NE,PIT,1,Gillette Stadium,"Foxborough, MA",Outdoor,Field Turf,Partly cloudy and mild,66.0,62,2,NW
12882,2019090812,20190908123645,home,47.6,32.13,5.32,2.44,0.54,280.12,84.8,494287,Devin McCourty,32,2019,25,4,06:38:00,PIT,1,10,PIT,33,3,2557978,SHOTGUN,"1 RB, 1 TE, 3 WR",5,"2 DL, 3 LB, 6 DB",right,2019-09-09T03:05:53.000Z,2019-09-09T03:05:52.000Z,5-10,195,08/13/1987,Rutgers,FS,NE,PIT,1,Gillette Stadium,"Foxborough, MA",Outdoor,Field Turf,Partly cloudy and mild,66.0,62,2,NW
12883,2019090812,20190908123645,home,33.71,25.22,2.59,0.86,0.27,244.07,232.57,2507617,Michael Bennett,77,2019,25,4,06:38:00,PIT,1,10,PIT,33,3,2557978,SHOTGUN,"1 RB, 1 TE, 3 WR",5,"2 DL, 3 LB, 6 DB",right,2019-09-09T03:05:53.000Z,2019-09-09T03:05:52.000Z,6-4,274,11/13/1985,Texas A&M,DE,NE,PIT,1,Gillette Stadium,"Foxborough, MA",Outdoor,Field Turf,Partly cloudy and mild,66.0,62,2,NW
12884,2019090812,20190908123645,home,34.7,24.49,0.63,2.5,0.05,314.04,53.21,2539311,Jamie Collins,58,2019,25,4,06:38:00,PIT,1,10,PIT,33,3,2557978,SHOTGUN,"1 RB, 1 TE, 3 WR",5,"2 DL, 3 LB, 6 DB",right,2019-09-09T03:05:53.000Z,2019-09-09T03:05:52.000Z,6-3,255,10/20/1989,Southern Mississippi,OLB,NE,PIT,1,Gillette Stadium,"Foxborough, MA",Outdoor,Field Turf,Partly cloudy and mild,66.0,62,2,NW
12885,2019090812,20190908123645,home,42.74,19.43,0.85,2.66,0.09,273.17,335.94,2541243,Duron Harmon,21,2019,25,4,06:38:00,PIT,1,10,PIT,33,3,2557978,SHOTGUN,"1 RB, 1 TE, 3 WR",5,"2 DL, 3 LB, 6 DB",right,2019-09-09T03:05:53.000Z,2019-09-09T03:05:52.000Z,6-1,205,01/24/1991,Rutgers,FS,NE,PIT,1,Gillette Stadium,"Foxborough, MA",Outdoor,Field Turf,Partly cloudy and mild,66.0,62,2,NW
12886,2019090812,20190908123645,home,37.24,19.65,1.24,2.25,0.12,286.01,284.87,2543712,Terrence Brooks,25,2019,25,4,06:38:00,PIT,1,10,PIT,33,3,2557978,SHOTGUN,"1 RB, 1 TE, 3 WR",5,"2 DL, 3 LB, 6 DB",right,2019-09-09T03:05:53.000Z,2019-09-09T03:05:52.000Z,5-11,205,03/02/1992,Florida State,SS,NE,PIT,1,Gillette Stadium,"Foxborough, MA",Outdoor,Field Turf,Partly cloudy and mild,66.0,62,2,NW
12887,2019090812,20190908123645,home,33.0,22.44,3.85,0.93,0.39,305.42,288.26,2555294,Shilique Calhoun,90,2019,25,4,06:38:00,PIT,1,10,PIT,33,3,2557978,SHOTGUN,"1 RB, 1 TE, 3 WR",5,"2 DL, 3 LB, 6 DB",right,2019-09-09T03:05:53.000Z,2019-09-09T03:05:52.000Z,6-4,260,03/20/1992,Michigan State,DE,NE,PIT,1,Gillette Stadium,"Foxborough, MA",Outdoor,Field Turf,Partly cloudy and mild,66.0,62,2,NW
12888,2019090812,20190908123645,home,37.51,36.84,2.38,4.02,0.23,264.46,87.86,2556571,Jonathan Jones,31,2019,25,4,06:38:00,PIT,1,10,PIT,33,3,2557978,SHOTGUN,"1 RB, 1 TE, 3 WR",5,"2 DL, 3 LB, 6 DB",right,2019-09-09T03:05:53.000Z,2019-09-09T03:05:52.000Z,5-10,190,09/20/1993,Auburn,CB,NE,PIT,1,Gillette Stadium,"Foxborough, MA",Outdoor,Field Turf,Partly cloudy and mild,66.0,62,2,NW
12889,2019090812,20190908123645,home,36.69,10.38,2.53,3.31,0.23,255.99,123.37,2560754,J.C. Jackson,27,2019,25,4,06:38:00,PIT,1,10,PIT,33,3,2557978,SHOTGUN,"1 RB, 1 TE, 3 WR",5,"2 DL, 3 LB, 6 DB",right,2019-09-09T03:05:53.000Z,2019-09-09T03:05:52.000Z,6-1,198,11/17/1995,Maryland,DB,NE,PIT,1,Gillette Stadium,"Foxborough, MA",Outdoor,Field Turf,Partly cloudy and mild,66.0,62,2,NW
12890,2019090812,20190908123645,home,35.54,27.95,2.78,3.35,0.26,251.03,171.49,2561143,Ja'Whaun Bentley,51,2019,25,4,06:38:00,PIT,1,10,PIT,33,3,2557978,SHOTGUN,"1 RB, 1 TE, 3 WR",5,"2 DL, 3 LB, 6 DB",right,2019-09-09T03:05:53.000Z,2019-09-09T03:05:52.000Z,6-2,255,08/24/1996,Purdue,LB,NE,PIT,1,Gillette Stadium,"Foxborough, MA",Outdoor,Field Turf,Partly cloudy and mild,66.0,62,2,NW
12891,2019090812,20190908123645,home,32.85,30.51,3.72,2.28,0.4,64.08,219.57,2562607,Chase Winovich,50,2019,25,4,06:38:00,PIT,1,10,PIT,33,3,2557978,SHOTGUN,"1 RB, 1 TE, 3 WR",5,"2 DL, 3 LB, 6 DB",right,2019-09-09T03:05:53.000Z,2019-09-09T03:05:52.000Z,6-3,251,04/19/1995,Michigan,DE,NE,PIT,1,Gillette Stadium,"Foxborough, MA",Outdoor,Field Turf,Partly cloudy and mild,66.0,62,2,NW
