,GameId,PlayId,Team,X,Y,S,A,Dis,Orientation,Dir,NflId,DisplayName,JerseyNumber,Season,YardLine,Quarter,GameClock,PossessionTeam,Down,Distance,FieldPosition,HomeScoreBeforePlay,VisitorScoreBeforePlay,NflIdRusher,OffenseFormation,OffensePersonnel,DefendersInTheBox,DefensePersonnel,PlayDirection,TimeHandoff,TimeSnap,PlayerHeight,PlayerWeight,PlayerBirthDate,PlayerCollegeName,Position,HomeTeamAbbr,VisitorTeamAbbr,Week,Stadium,Location,StadiumType,Turf,GameWeather,Temperature,Humidity,WindSpeed,WindDirection
61028,2019100300,20191003002568,away,59.67,36.24,2.75,3.62,0.25,139.0,141.98,1302,Aqib Talib,21,2019,46,3,11:21:00,SEA,1,10,SEA,14,20,2558865,SINGLEBACK,"1 RB, 2 TE, 2 WR",7,"3 DL, 4 LB, 4 DB",left,2019-10-04T02:19:00.000Z,2019-10-04T02:18:59.000Z,6-1,209,02/13/1986,Kansas,CB,SEA,LA,5,CenturyLink Field,Seattle,Outdoor,FieldTurf,Cloudy,57.0,56,7,SW
61029,2019100300,20191003002568,away,63.63,36.27,1.13,0.5,0.12,147.71,169.54,80431,Clay Matthews,52,2019,46,3,11:21:00,SEA,1,10,SEA,14,20,2558865,SINGLEBACK,"1 RB, 2 TE, 2 WR",7,"3 DL, 4 LB, 4 DB",left,2019-10-04T02:19:00.000Z,2019-10-04T02:18:59.000Z,6-3,255,05/14/1986,Southern California,OLB,SEA,LA,5,CenturyLink Field,Seattle,Outdoor,FieldTurf,Cloudy,57.0,56,7,SW
61030,2019100300,20191003002568,away,59.93,18.65,2.25,1.87,0.22,77.68,297.32,2495775,Eric Weddle,32,2019,46,3,11:21:00,SEA,1,10,SEA,14,20,2558865,SINGLEBACK,"1 RB, 2 TE, 2 WR",7,"3 DL, 4 LB, 4 DB",left,2019-10-04T02:19:00.000Z,2019-10-04T02:18:59.000Z,5-11,195,01/04/1985,Utah,FS,SEA,LA,5,CenturyLink Field,Seattle,Outdoor,FieldTurf,Cloudy,57.0,56,7,SW
61031,2019100300,20191003002568,away,63.76,31.34,1.48,1.72,0.14,112.55,181.76,2533050,Michael Brockers,90,2019,46,3,11:21:00,SEA,1,10,SEA,14,20,2558865,SINGLEBACK,"1 RB, 2 TE, 2 WR",7,"3 DL, 4 LB, 4 DB",left,2019-10-04T02:19:00.000Z,2019-10-04T02:18:59.000Z,6-5,305,12/21/1990,Louisiana State,DT,SEA,LA,5,CenturyLink Field,Seattle,Outdoor,FieldTurf,Cloudy,57.0,56,7,SW
61032,2019100300,20191003002568,away,64.33,26.99,0.37,1.66,0.03,14.28,107.04,2543485,Aaron Donald,99,2019,46,3,11:21:00,SEA,1,10,SEA,14,20,2558865,SINGLEBACK,"1 RB, 2 TE, 2 WR",7,"3 DL, 4 LB, 4 DB",left,2019-10-04T02:19:00.000Z,2019-10-04T02:18:59.000Z,6-1,280,05/23/1991,Pittsburgh,DT,SEA,LA,5,CenturyLink Field,Seattle,Outdoor,FieldTurf,Cloudy,57.0,56,7,SW
61033,2019100300,20191003002568,away,61.12,9.07,2.2,2.39,0.21,30.75,309.08,2552488,Marcus Peters,22,2019,46,3,11:21:00,SEA,1,10,SEA,14,20,2558865,SINGLEBACK,"1 RB, 2 TE, 2 WR",7,"3 DL, 4 LB, 4 DB",left,2019-10-04T02:19:00.000Z,2019-10-04T02:18:59.000Z,6-0,197,01/09/1993,Washington,CB,SEA,LA,5,CenturyLink Field,Seattle,Outdoor,FieldTurf,Cloudy,57.0,56,7,SW
61034,2019100300,20191003002568,away,64.41,25.27,1.63,2.45,0.16,4.1,348.69,2553431,Dante Fowler,56,2019,46,3,11:21:00,SEA,1,10,SEA,14,20,2558865,SINGLEBACK,"1 RB, 2 TE, 2 WR",7,"3 DL, 4 LB, 4 DB",left,2019-10-04T02:19:00.000Z,2019-10-04T02:18:59.000Z,6-3,255,08/03/1994,Florida,OLB,SEA,LA,5,CenturyLink Field,Seattle,Outdoor,FieldTurf,Cloudy,57.0,56,7,SW
61035,2019100300,20191003002568,away,60.94,27.83,1.42,2.39,0.16,57.5,135.88,2556593,Cory Littleton,58,2019,46,3,11:21:00,SEA,1,10,SEA,14,20,2558865,SINGLEBACK,"1 RB, 2 TE, 2 WR",7,"3 DL, 4 LB, 4 DB",left,2019-10-04T02:19:00.000Z,2019-10-04T02:18:59.000Z,6-3,228,11/18/1993,Washington,ILB,SEA,LA,5,CenturyLink Field,Seattle,Outdoor,FieldTurf,Cloudy,57.0,56,7,SW
61036,2019100300,20191003002568,away,50.26,28.34,1.97,0.43,0.2,119.02,243.08,2558183,John Johnson,43,2019,46,3,11:21:00,SEA,1,10,SEA,14,20,2558865,SINGLEBACK,"1 RB, 2 TE, 2 WR",7,"3 DL, 4 LB, 4 DB",left,2019-10-04T02:19:00.000Z,2019-10-04T02:18:59.000Z,6-0,209,12/19/1995,Boston College,SS,SEA,LA,5,CenturyLink Field,Seattle,Outdoor,FieldTurf,Cloudy,57.0,56,7,SW
61037,2019100300,20191003002568,away,63.53,29.99,0.73,0.49,0.07,119.88,167.6,2561079,Sebastian Joseph-Day,69,2019,46,3,11:21:00,SEA,1,10,SEA,14,20,2558865,SINGLEBACK,"1 RB, 2 TE, 2 WR",7,"3 DL, 4 LB, 4 DB",left,2019-10-04T02:19:00.000Z,2019-10-04T02:18:59.000Z,6-4,310,03/21/1995,Rutgers,DT,SEA,LA,5,CenturyLink Field,Seattle,Outdoor,FieldTurf,Cloudy,57.0,56,7,SW
61038,2019100300,20191003002568,away,61.44,30.92,2.0,1.99,0.21,93.86,120.57,2563313,Troy Reeder,51,2019,46,3,11:21:00,SEA,1,10,SEA,14,20,2558865,SINGLEBACK,"1 RB, 2 TE, 2 WR",7,"3 DL, 4 LB, 4 DB",left,2019-10-04T02:19:00.000Z,2019-10-04T02:18:59.000Z,6-3,245,09/13/1994,Delaware,LB,SEA,LA,5,CenturyLink Field,Seattle,Outdoor,FieldTurf,Cloudy,57.0,56,7,SW
61039,2019100300,20191003002568,home,65.35,27.0,0.81,0.53,0.09,242.74,332.18,808,Duane Brown,76,2019,46,3,11:21:00,SEA,1,10,SEA,14,20,2558865,SINGLEBACK,"1 RB, 2 TE, 2 WR",7,"3 DL, 4 LB, 4 DB",left,2019-10-04T02:19:00.000Z,2019-10-04T02:18:59.000Z,6-4,315,08/30/1985,Virginia Tech,T,SEA,LA,5,CenturyLink Field,Seattle,Outdoor,FieldTurf,Cloudy,57.0,56,7,SW
61040,2019100300,20191003002568,home,64.35,27.63,0.67,0.66,0.07,171.96,278.32,497016,Mike Iupati,70,2019,46,3,11:21:00,SEA,1,10,SEA,14,20,2558865,SINGLEBACK,"1 RB, 2 TE, 2 WR",7,"3 DL, 4 LB, 4 DB",left,2019-10-04T02:19:00.000Z,2019-10-04T02:18:59.000Z,6-5,331,05/12/1987,Idaho,OG,SEA,LA,5,CenturyLink Field,Seattle,Outdoor,FieldTurf,Cloudy,57.0,56,7,SW
61041,2019100300,20191003002568,home,68.47,29.61,4.07,1.04,0.4,31.42,84.14,2532975,Russell Wilson,3,2019,46,3,11:21:00,SEA,1,10,SEA,14,20,2558865,SINGLEBACK,"1 RB, 2 TE, 2 WR",7,"3 DL, 4 LB, 4 DB",left,2019-10-04T02:19:00.000Z,2019-10-04T02:18:59.000Z,5-11,215,11/29/1988,Wisconsin,QB,SEA,LA,5,CenturyLink Field,Seattle,Outdoor,FieldTurf,Cloudy,57.0,56,7,SW
61042,2019100300,20191003002568,home,64.13,35.59,1.59,1.84,0.15,337.54,236.96,2541199,Luke Willson,82,2019,46,3,11:21:00,SEA,1,10,SEA,14,20,2558865,SINGLEBACK,"1 RB, 2 TE, 2 WR",7,"3 DL, 4 LB, 4 DB",left,2019-10-04T02:19:00.000Z,2019-10-04T02:18:59.000Z,6-5,254,01/15/1990,Rice,TE,SEA,LA,5,CenturyLink Field,Seattle,Outdoor,FieldTurf,Cloudy,57.0,56,7,SW
61043,2019100300,20191003002568,home,63.44,29.19,1.32,0.56,0.15,276.06,234.16,2550135,Justin Britt,68,2019,46,3,11:21:00,SEA,1,10,SEA,14,20,2558865,SINGLEBACK,"1 RB, 2 TE, 2 WR",7,"3 DL, 4 LB, 4 DB",left,2019-10-04T02:19:00.000Z,2019-10-04T02:18:59.000Z,6-6,315,05/29/1991,Missouri,C,SEA,LA,5,CenturyLink Field,Seattle,Outdoor,FieldTurf,Cloudy,57.0,56,7,SW
61044,2019100300,20191003002568,home,64.55,17.66,3.72,3.29,0.36,302.41,293.66,2552430,Tyler Lockett,16,2019,46,3,11:21:00,SEA,1,10,SEA,14,20,2558865,SINGLEBACK,"1 RB, 2 TE, 2 WR",7,"3 DL, 4 LB, 4 DB",left,2019-10-04T02:19:00.000Z,2019-10-04T02:18:59.000Z,5-10,182,09/28/1992,Kansas State,WR,SEA,LA,5,CenturyLink Field,Seattle,Outdoor,FieldTurf,Cloudy,57.0,56,7,SW
61045,2019100300,20191003002568,home,64.56,30.94,1.48,1.1,0.15,278.17,186.82,2555395,Germain Ifedi,65,2019,46,3,11:21:00,SEA,1,10,SEA,14,20,2558865,SINGLEBACK,"1 RB, 2 TE, 2 WR",7,"3 DL, 4 LB, 4 DB",left,2019-10-04T02:19:00.000Z,2019-10-04T02:18:59.000Z,6-5,325,06/02/1994,Texas A&M,G,SEA,LA,5,CenturyLink Field,Seattle,Outdoor,FieldTurf,Cloudy,57.0,56,7,SW
61046,2019100300,20191003002568,home,69.34,30.32,4.21,2.46,0.41,298.08,280.42,2558865,Chris Carson,32,2019,46,3,11:21:00,SEA,1,10,SEA,14,20,2558865,SINGLEBACK,"1 RB, 2 TE, 2 WR",7,"3 DL, 4 LB, 4 DB",left,2019-10-04T02:19:00.000Z,2019-10-04T02:18:59.000Z,5-11,222,09/16/1994,Oklahoma State,RB,SEA,LA,5,CenturyLink Field,Seattle,Outdoor,FieldTurf,Cloudy,57.0,56,7,SW
61047,2019100300,20191003002568,home,64.3,29.56,1.43,0.4,0.15,303.02,193.29,2560768,Jamarco Jones,73,2019,46,3,11:21:00,SEA,1,10,SEA,14,20,2558865,SINGLEBACK,"1 RB, 2 TE, 2 WR",7,"3 DL, 4 LB, 4 DB",left,2019-10-04T02:19:00.000Z,2019-10-04T02:18:59.000Z,6-4,293,06/04/1996,Ohio State,T,SEA,LA,5,CenturyLink Field,Seattle,Outdoor,FieldTurf,Cloudy,57.0,56,7,SW
61048,2019100300,20191003002568,home,63.66,32.14,3.07,2.13,0.32,201.05,223.94,2561046,Will Dissly,88,2019,46,3,11:21:00,SEA,1,10,SEA,14,20,2558865,SINGLEBACK,"1 RB, 2 TE, 2 WR",7,"3 DL, 4 LB, 4 DB",left,2019-10-04T02:19:00.000Z,2019-10-04T02:18:59.000Z,6-4,267,07/08/1996,Washington,TE,SEA,LA,5,CenturyLink Field,Seattle,Outdoor,FieldTurf,Cloudy,57.0,56,7,SW
61049,2019100300,20191003002568,home,63.02,9.03,3.75,2.37,0.37,280.22,291.84,2562685,D.K. Metcalf,14,2019,46,3,11:21:00,SEA,1,10,SEA,14,20,2558865,SINGLEBACK,"1 RB, 2 TE, 2 WR",7,"3 DL, 4 LB, 4 DB",left,2019-10-04T02:19:00.000Z,2019-10-04T02:18:59.000Z,6-4,230,12/14/1997,Mississippi,WR,SEA,LA,5,CenturyLink Field,Seattle,Outdoor,FieldTurf,Cloudy,57.0,56,7,SW
