,GameId,PlayId,Team,X,Y,S,A,Dis,Orientation,Dir,NflId,DisplayName,JerseyNumber,Season,YardLine,Quarter,GameClock,PossessionTeam,Down,Distance,FieldPosition,HomeScoreBeforePlay,VisitorScoreBeforePlay,NflIdRusher,OffenseFormation,OffensePersonnel,DefendersInTheBox,DefensePersonnel,PlayDirection,TimeHandoff,TimeSnap,PlayerHeight,PlayerWeight,PlayerBirthDate,PlayerCollegeName,Position,HomeTeamAbbr,VisitorTeamAbbr,Week,Stadium,Location,StadiumType,Turf,GameWeather,Temperature,Humidity,WindSpeed,WindDirection
64174,2019100602,20191006021470,away,29.2,32.03,0.5,0.7,0.05,236.0,196.77,2495116,Allen Bailey,93,2019,19,2,07:33:00,HST,1,10,HST,13,10,2543743,SHOTGUN,"1 RB, 2 TE, 2 WR",6,"3 DL, 3 LB, 5 DB",right,2019-10-06T17:56:44.000Z,2019-10-06T17:56:43.000Z,6-3,288,03/25/1989,Miami,DE,HOU,ATL,5,NRG Stadium,"Houston, Texas",Retractable Roof,Artificial,Partly Cloudy,86.0,63,4,E
64175,2019100602,20191006021470,away,33.09,8.61,3.08,2.8,0.31,18.76,90.45,2539334,Desmond Trufant,21,2019,19,2,07:33:00,HST,1,10,HST,13,10,2543743,SHOTGUN,"1 RB, 2 TE, 2 WR",6,"3 DL, 3 LB, 5 DB",right,2019-10-06T17:56:44.000Z,2019-10-06T17:56:43.000Z,6-0,190,09/10/1990,Washington,CB,HOU,ATL,5,NRG Stadium,"Houston, Texas",Retractable Roof,Artificial,Partly Cloudy,86.0,63,4,E
64176,2019100602,20191006021470,away,39.82,35.58,2.46,2.59,0.23,244.79,72.93,2541431,Kemal Ishmael,36,2019,19,2,07:33:00,HST,1,10,HST,13,10,2543743,SHOTGUN,"1 RB, 2 TE, 2 WR",6,"3 DL, 3 LB, 5 DB",right,2019-10-06T17:56:44.000Z,2019-10-06T17:56:43.000Z,6-0,206,05/06/1991,Central Florida,FS,HOU,ATL,5,NRG Stadium,"Houston, Texas",Retractable Roof,Artificial,Partly Cloudy,86.0,63,4,E
64177,2019100602,20191006021470,away,46.37,21.87,3.86,1.26,0.38,231.25,141.07,2543850,Ricardo Allen,37,2019,19,2,07:33:00,HST,1,10,HST,13,10,2543743,SHOTGUN,"1 RB, 2 TE, 2 WR",6,"3 DL, 3 LB, 5 DB",right,2019-10-06T17:56:44.000Z,2019-10-06T17:56:43.000Z,5-9,186,12/18/1991,Purdue,SS,HOU,ATL,5,NRG Stadium,"Houston, Texas",Retractable Roof,Artificial,Partly Cloudy,86.0,63,4,E
64178,2019100602,20191006021470,away,26.75,25.06,3.98,1.06,0.41,333.44,293.19,2552301,Vic Beasley,44,2019,19,2,07:33:00,HST,1,10,HST,13,10,2543743,SHOTGUN,"1 RB, 2 TE, 2 WR",6,"3 DL, 3 LB, 5 DB",right,2019-10-06T17:56:44.000Z,2019-10-06T17:56:43.000Z,6-3,246,07/08/1992,Clemson,OLB,HOU,ATL,5,NRG Stadium,"Houston, Texas",Retractable Roof,Artificial,Partly Cloudy,86.0,63,4,E
64179,2019100602,20191006021470,away,28.08,27.31,2.35,1.15,0.23,297.24,244.61,2552327,Grady Jarrett,97,2019,19,2,07:33:00,HST,1,10,HST,13,10,2543743,SHOTGUN,"1 RB, 2 TE, 2 WR",6,"3 DL, 3 LB, 5 DB",right,2019-10-06T17:56:44.000Z,2019-10-06T17:56:43.000Z,6-0,305,04/28/1993,Clemson,DT,HOU,ATL,5,NRG Stadium,"Houston, Texas",Retractable Roof,Artificial,Partly Cloudy,86.0,63,4,E
64180,2019100602,20191006021470,away,28.67,29.4,2.09,1.1,0.21,282.46,239.07,2552329,Tyeler Davison,96,2019,19,2,07:33:00,HST,1,10,HST,13,10,2543743,SHOTGUN,"1 RB, 2 TE, 2 WR",6,"3 DL, 3 LB, 5 DB",right,2019-10-06T17:56:44.000Z,2019-10-06T17:56:43.000Z,6-2,309,09/03/1992,Fresno State,DT,HOU,ATL,5,NRG Stadium,"Houston, Texas",Retractable Roof,Artificial,Partly Cloudy,86.0,63,4,E
64181,2019100602,20191006021470,away,34.82,29.46,2.2,3.57,0.2,259.21,131.51,2555162,Deion Jones,45,2019,19,2,07:33:00,HST,1,10,HST,13,10,2543743,SHOTGUN,"1 RB, 2 TE, 2 WR",6,"3 DL, 3 LB, 5 DB",right,2019-10-06T17:56:44.000Z,2019-10-06T17:56:43.000Z,6-1,227,11/04/1994,Louisiana State,MLB,HOU,ATL,5,NRG Stadium,"Houston, Texas",Retractable Roof,Artificial,Partly Cloudy,86.0,63,4,E
64182,2019100602,20191006021470,away,29.88,36.96,2.62,3.06,0.25,250.92,341.99,2555255,De'Vondre Campbell,59,2019,19,2,07:33:00,HST,1,10,HST,13,10,2543743,SHOTGUN,"1 RB, 2 TE, 2 WR",6,"3 DL, 3 LB, 5 DB",right,2019-10-06T17:56:44.000Z,2019-10-06T17:56:43.000Z,6-3,232,07/01/1993,Minnesota,OLB,HOU,ATL,5,NRG Stadium,"Houston, Texas",Retractable Roof,Artificial,Partly Cloudy,86.0,63,4,E
64183,2019100602,20191006021470,away,32.01,20.86,2.99,0.17,0.3,268.29,57.94,2558184,Damontae Kazee,27,2019,19,2,07:33:00,HST,1,10,HST,13,10,2543743,SHOTGUN,"1 RB, 2 TE, 2 WR",6,"3 DL, 3 LB, 5 DB",right,2019-10-06T17:56:44.000Z,2019-10-06T17:56:43.000Z,5-11,190,06/05/1993,San Diego State,SS,HOU,ATL,5,NRG Stadium,"Houston, Texas",Retractable Roof,Artificial,Partly Cloudy,86.0,63,4,E
64184,2019100602,20191006021470,away,31.95,38.68,1.29,0.82,0.13,221.9,255.43,2560830,Isaiah Oliver,26,2019,19,2,07:33:00,HST,1,10,HST,13,10,2543743,SHOTGUN,"1 RB, 2 TE, 2 WR",6,"3 DL, 3 LB, 5 DB",right,2019-10-06T17:56:44.000Z,2019-10-06T17:56:43.000Z,6-0,210,09/30/1996,Colorado,CB,HOU,ATL,5,NRG Stadium,"Houston, Texas",Retractable Roof,Artificial,Partly Cloudy,86.0,63,4,E
64185,2019100602,20191006021470,home,28.15,20.23,2.65,2.75,0.25,66.3,64.4,2540165,DeAndre Hopkins,10,2019,19,2,07:33:00,HST,1,10,HST,13,10,2543743,SHOTGUN,"1 RB, 2 TE, 2 WR",6,"3 DL, 3 LB, 5 DB",right,2019-10-06T17:56:44.000Z,2019-10-06T17:56:43.000Z,6-1,212,06/06/1992,Clemson,WR,HOU,ATL,5,NRG Stadium,"Houston, Texas",Retractable Roof,Artificial,Partly Cloudy,86.0,63,4,E
64186,2019100602,20191006021470,home,29.09,35.99,3.68,1.82,0.35,41.8,33.94,2540928,Darren Fells,87,2019,19,2,07:33:00,HST,1,10,HST,13,10,2543743,SHOTGUN,"1 RB, 2 TE, 2 WR",6,"3 DL, 3 LB, 5 DB",right,2019-10-06T17:56:44.000Z,2019-10-06T17:56:43.000Z,6-7,270,04/22/1986,California-Irvine,TE,HOU,ATL,5,NRG Stadium,"Houston, Texas",Retractable Roof,Artificial,Partly Cloudy,86.0,63,4,E
64187,2019100602,20191006021470,home,24.39,29.14,3.53,2.99,0.34,94.17,45.77,2543743,Carlos Hyde,23,2019,19,2,07:33:00,HST,1,10,HST,13,10,2543743,SHOTGUN,"1 RB, 2 TE, 2 WR",6,"3 DL, 3 LB, 5 DB",right,2019-10-06T17:56:44.000Z,2019-10-06T17:56:43.000Z,6-0,229,09/20/1990,Ohio State,RB,HOU,ATL,5,NRG Stadium,"Houston, Texas",Retractable Roof,Artificial,Partly Cloudy,86.0,63,4,E
64188,2019100602,20191006021470,home,27.77,28.05,1.48,1.7,0.14,165.37,231.93,2543862,Zach Fulton,73,2019,19,2,07:33:00,HST,1,10,HST,13,10,2543743,SHOTGUN,"1 RB, 2 TE, 2 WR",6,"3 DL, 3 LB, 5 DB",right,2019-10-06T17:56:44.000Z,2019-10-06T17:56:43.000Z,6-5,321,09/23/1991,Tennessee,G,HOU,ATL,5,NRG Stadium,"Houston, Texas",Retractable Roof,Artificial,Partly Cloudy,86.0,63,4,E
64189,2019100602,20191006021470,home,28.77,29.92,1.11,2.66,0.15,154.56,182.19,2555189,Nick Martin,66,2019,19,2,07:33:00,HST,1,10,HST,13,10,2543743,SHOTGUN,"1 RB, 2 TE, 2 WR",6,"3 DL, 3 LB, 5 DB",right,2019-10-06T17:56:44.000Z,2019-10-06T17:56:43.000Z,6-4,300,04/29/1993,Notre Dame,C,HOU,ATL,5,NRG Stadium,"Houston, Texas",Retractable Roof,Artificial,Partly Cloudy,86.0,63,4,E
64190,2019100602,20191006021470,home,28.59,32.39,0.88,1.07,0.09,132.01,121.96,2555201,Laremy Tunsil,78,2019,19,2,07:33:00,HST,1,10,HST,13,10,2543743,SHOTGUN,"1 RB, 2 TE, 2 WR",6,"3 DL, 3 LB, 5 DB",right,2019-10-06T17:56:44.000Z,2019-10-06T17:56:43.000Z,6-5,313,08/02/1994,Mississippi,T,HOU,ATL,5,NRG Stadium,"Houston, Texas",Retractable Roof,Artificial,Partly Cloudy,86.0,63,4,E
64191,2019100602,20191006021470,home,29.86,9.55,3.53,1.72,0.34,95.81,86.72,2555346,Will Fuller,15,2019,19,2,07:33:00,HST,1,10,HST,13,10,2543743,SHOTGUN,"1 RB, 2 TE, 2 WR",6,"3 DL, 3 LB, 5 DB",right,2019-10-06T17:56:44.000Z,2019-10-06T17:56:43.000Z,6-0,184,04/16/1994,Notre Dame,WR,HOU,ATL,5,NRG Stadium,"Houston, Texas",Retractable Roof,Artificial,Partly Cloudy,86.0,63,4,E
64192,2019100602,20191006021470,home,24.09,29.94,0.56,2.02,0.04,105.38,90.46,2558063,Deshaun Watson,4,2019,19,2,07:33:00,HST,1,10,HST,13,10,2543743,SHOTGUN,"1 RB, 2 TE, 2 WR",6,"3 DL, 3 LB, 5 DB",right,2019-10-06T17:56:44.000Z,2019-10-06T17:56:43.000Z,6-2,221,09/14/1995,Clemson,QB,HOU,ATL,5,NRG Stadium,"Houston, Texas",Retractable Roof,Artificial,Partly Cloudy,86.0,63,4,E
64193,2019100602,20191006021470,home,28.68,37.31,2.75,1.41,0.26,93.48,30.05,2560951,Jordan Akins,88,2019,19,2,07:33:00,HST,1,10,HST,13,10,2543743,SHOTGUN,"1 RB, 2 TE, 2 WR",6,"3 DL, 3 LB, 5 DB",right,2019-10-06T17:56:44.000Z,2019-10-06T17:56:43.000Z,6-4,243,04/19/1992,Central Florida,TE,HOU,ATL,5,NRG Stadium,"Houston, Texas",Retractable Roof,Artificial,Partly Cloudy,86.0,63,4,E
64194,2019100602,20191006021470,home,27.26,29.08,3.56,1.66,0.37,59.36,359.31,2562286,Tytus Howard,71,2019,19,2,07:33:00,HST,1,10,HST,13,10,2543743,SHOTGUN,"1 RB, 2 TE, 2 WR",6,"3 DL, 3 LB, 5 DB",right,2019-10-06T17:56:44.000Z,2019-10-06T17:56:43.000Z,6-5,322,05/23/1996,Alabama State,T,HOU,ATL,5,NRG Stadium,"Houston, Texas",Retractable Roof,Artificial,Partly Cloudy,86.0,63,4,E
64195,2019100602,20191006021470,home,28.57,31.54,0.59,0.47,0.06,60.63,107.54,2562726,Max Scharping,74,2019,19,2,07:33:00,HST,1,10,HST,13,10,2543743,SHOTGUN,"1 RB, 2 TE, 2 WR",6,"3 DL, 3 LB, 5 DB",right,2019-10-06T17:56:44.000Z,2019-10-06T17:56:43.000Z,6-6,325,08/10/1996,Northern Illinois,T,HOU,ATL,5,NRG Stadium,"Houston, Texas",Retractable Roof,Artificial,Partly Cloudy,86.0,63,4,E
