,GameId,PlayId,Team,X,Y,S,A,Dis,Orientation,Dir,NflId,DisplayName,JerseyNumber,Season,YardLine,Quarter,GameClock,PossessionTeam,Down,Distance,FieldPosition,HomeScoreBeforePlay,VisitorScoreBeforePlay,NflIdRusher,OffenseFormation,OffensePersonnel,DefendersInTheBox,DefensePersonnel,PlayDirection,TimeHandoff,TimeSnap,PlayerHeight,PlayerWeight,PlayerBirthDate,PlayerCollegeName,Position,HomeTeamAbbr,VisitorTeamAbbr,Week,Stadium,Location,StadiumType,Turf,GameWeather,Temperature,Humidity,WindSpeed,WindDirection
51018,2019092904,20190929040616,away,78.37,33.32,3.21,2.66,0.32,205.97,201.4,2495700,Greg Olsen,88,2019,30,1,03:15:00,CAR,2,5,HST,0,0,2557997,SINGLEBACK,"1 RB, 2 TE, 2 WR",8,"3 DL, 4 LB, 4 DB",right,2019-09-29T17:23:31.000Z,2019-09-29T17:23:29.000Z,6-5,255,03/11/1985,Miami,TE,HOU,CAR,4,NRG Stadium,"Houston, TX",Retractable Roof,Artificial,Mostly Cloudy,89.0,61,6mph,SE
51019,2019092904,20190929040616,away,80.17,31.5,0.69,1.0,0.08,119.94,61.93,2538145,Greg Van Roten,73,2019,30,1,03:15:00,CAR,2,5,HST,0,0,2557997,SINGLEBACK,"1 RB, 2 TE, 2 WR",8,"3 DL, 4 LB, 4 DB",right,2019-09-29T17:23:31.000Z,2019-09-29T17:23:29.000Z,6-3,305,02/26/1990,Pennsylvania,G,HOU,CAR,4,NRG Stadium,"Houston, TX",Retractable Roof,Artificial,Mostly Cloudy,89.0,61,6mph,SE
51020,2019092904,20190929040616,away,80.14,30.0,0.8,1.76,0.1,34.13,341.06,2550155,Matt Paradis,61,2019,30,1,03:15:00,CAR,2,5,HST,0,0,2557997,SINGLEBACK,"1 RB, 2 TE, 2 WR",8,"3 DL, 4 LB, 4 DB",right,2019-09-29T17:23:31.000Z,2019-09-29T17:23:29.000Z,6-3,300,10/12/1989,Boise State,C,HOU,CAR,4,NRG Stadium,"Houston, TX",Retractable Roof,Artificial,Mostly Cloudy,89.0,61,6mph,SE
51021,2019092904,20190929040616,away,79.89,28.36,1.02,1.23,0.11,101.18,65.61,2552357,Daryl Williams,60,2019,30,1,03:15:00,CAR,2,5,HST,0,0,2557997,SINGLEBACK,"1 RB, 2 TE, 2 WR",8,"3 DL, 4 LB, 4 DB",right,2019-09-29T17:23:31.000Z,2019-09-29T17:23:29.000Z,6-6,330,08/31/1992,Oklahoma,T,HOU,CAR,4,NRG Stadium,"Houston, TX",Retractable Roof,Artificial,Mostly Cloudy,89.0,61,6mph,SE
51022,2019092904,20190929040616,away,80.85,32.81,2.81,2.84,0.28,112.82,98.19,2552622,Chris Manhertz,82,2019,30,1,03:15:00,CAR,2,5,HST,0,0,2557997,SINGLEBACK,"1 RB, 2 TE, 2 WR",8,"3 DL, 4 LB, 4 DB",right,2019-09-29T17:23:31.000Z,2019-09-29T17:23:29.000Z,6-6,255,04/10/1992,Canisius,TE,HOU,CAR,4,NRG Stadium,"Houston, TX",Retractable Roof,Artificial,Mostly Cloudy,89.0,61,6mph,SE
51023,2019092904,20190929040616,away,76.61,26.26,2.49,1.35,0.26,162.49,261.73,2557871,Taylor Moton,72,2019,30,1,03:15:00,CAR,2,5,HST,0,0,2557997,SINGLEBACK,"1 RB, 2 TE, 2 WR",8,"3 DL, 4 LB, 4 DB",right,2019-09-29T17:23:31.000Z,2019-09-29T17:23:29.000Z,6-5,325,03/18/1994,Western Michigan,T,HOU,CAR,4,NRG Stadium,"Houston, TX",Retractable Roof,Artificial,Mostly Cloudy,89.0,61,6mph,SE
51024,2019092904,20190929040616,away,74.94,32.27,4.96,1.22,0.49,45.52,50.39,2557997,Christian McCaffrey,22,2019,30,1,03:15:00,CAR,2,5,HST,0,0,2557997,SINGLEBACK,"1 RB, 2 TE, 2 WR",8,"3 DL, 4 LB, 4 DB",right,2019-09-29T17:23:31.000Z,2019-09-29T17:23:29.000Z,5-11,205,06/07/1996,Stanford,RB,HOU,CAR,4,NRG Stadium,"Houston, TX",Retractable Roof,Artificial,Mostly Cloudy,89.0,61,6mph,SE
51025,2019092904,20190929040616,away,75.74,39.14,6.31,2.6,0.64,52.62,0.56,2558066,Curtis Samuel,10,2019,30,1,03:15:00,CAR,2,5,HST,0,0,2557997,SINGLEBACK,"1 RB, 2 TE, 2 WR",8,"3 DL, 4 LB, 4 DB",right,2019-09-29T17:23:31.000Z,2019-09-29T17:23:29.000Z,5-11,195,08/11/1996,Ohio State,WR,HOU,CAR,4,NRG Stadium,"Houston, TX",Retractable Roof,Artificial,Mostly Cloudy,89.0,61,6mph,SE
51026,2019092904,20190929040616,away,81.75,10.21,4.19,1.5,0.41,82.19,98.68,2560813,D.J. Moore,12,2019,30,1,03:15:00,CAR,2,5,HST,0,0,2557997,SINGLEBACK,"1 RB, 2 TE, 2 WR",8,"3 DL, 4 LB, 4 DB",right,2019-09-29T17:23:31.000Z,2019-09-29T17:23:29.000Z,6-0,215,04/14/1997,Maryland,WR,HOU,CAR,4,NRG Stadium,"Houston, TX",Retractable Roof,Artificial,Mostly Cloudy,89.0,61,6mph,SE
51027,2019092904,20190929040616,away,74.87,31.42,4.56,2.18,0.46,285.67,281.81,2561177,Kyle Allen,7,2019,30,1,03:15:00,CAR,2,5,HST,0,0,2557997,SINGLEBACK,"1 RB, 2 TE, 2 WR",8,"3 DL, 4 LB, 4 DB",right,2019-09-29T17:23:31.000Z,2019-09-29T17:23:29.000Z,6-3,211,03/08/1996,Houston,QB,HOU,CAR,4,NRG Stadium,"Houston, TX",Retractable Roof,Artificial,Mostly Cloudy,89.0,61,6mph,SE
51028,2019092904,20190929040616,away,80.86,31.76,0.85,2.48,0.1,157.55,81.9,2562304,Greg Little,74,2019,30,1,03:15:00,CAR,2,5,HST,0,0,2557997,SINGLEBACK,"1 RB, 2 TE, 2 WR",8,"3 DL, 4 LB, 4 DB",right,2019-09-29T17:23:31.000Z,2019-09-29T17:23:29.000Z,6-5,310,11/04/1997,Mississippi,T,HOU,CAR,4,NRG Stadium,"Houston, TX",Retractable Roof,Artificial,Mostly Cloudy,89.0,61,6mph,SE
51029,2019092904,20190929040616,home,76.76,24.8,4.85,1.72,0.5,319.39,279.89,2495488,J.J. Watt,99,2019,30,1,03:15:00,CAR,2,5,HST,0,0,2557997,SINGLEBACK,"1 RB, 2 TE, 2 WR",8,"3 DL, 4 LB, 4 DB",right,2019-09-29T17:23:31.000Z,2019-09-29T17:23:29.000Z,6-5,288,03/22/1989,Wisconsin,DE,HOU,CAR,4,NRG Stadium,"Houston, TX",Retractable Roof,Artificial,Mostly Cloudy,89.0,61,6mph,SE
51030,2019092904,20190929040616,home,84.25,9.55,2.63,1.97,0.25,289.3,100.56,2495872,Johnathan Joseph,24,2019,30,1,03:15:00,CAR,2,5,HST,0,0,2557997,SINGLEBACK,"1 RB, 2 TE, 2 WR",8,"3 DL, 4 LB, 4 DB",right,2019-09-29T17:23:31.000Z,2019-09-29T17:23:29.000Z,5-11,185,04/16/1984,South Carolina,CB,HOU,CAR,4,NRG Stadium,"Houston, TX",Retractable Roof,Artificial,Mostly Cloudy,89.0,61,6mph,SE
51031,2019092904,20190929040616,home,93.76,28.05,1.87,3.83,0.17,279.09,59.76,2532848,Tashaun Gipson,39,2019,30,1,03:15:00,CAR,2,5,HST,0,0,2557997,SINGLEBACK,"1 RB, 2 TE, 2 WR",8,"3 DL, 4 LB, 4 DB",right,2019-09-29T17:23:31.000Z,2019-09-29T17:23:29.000Z,6-1,212,08/07/1990,Wyoming,FS,HOU,CAR,4,NRG Stadium,"Houston, TX",Retractable Roof,Artificial,Mostly Cloudy,89.0,61,6mph,SE
51032,2019092904,20190929040616,home,78.16,33.01,3.3,1.06,0.33,240.08,222.25,2533049,Whitney Mercilus,59,2019,30,1,03:15:00,CAR,2,5,HST,0,0,2557997,SINGLEBACK,"1 RB, 2 TE, 2 WR",8,"3 DL, 4 LB, 4 DB",right,2019-09-29T17:23:31.000Z,2019-09-29T17:23:29.000Z,6-4,258,07/21/1990,Illinois,OLB,HOU,CAR,4,NRG Stadium,"Houston, TX",Retractable Roof,Artificial,Mostly Cloudy,89.0,61,6mph,SE
51033,2019092904,20190929040616,home,86.22,35.56,7.43,2.81,0.75,332.31,357.44,2543505,Bradley Roby,21,2019,30,1,03:15:00,CAR,2,5,HST,0,0,2557997,SINGLEBACK,"1 RB, 2 TE, 2 WR",8,"3 DL, 4 LB, 4 DB",right,2019-09-29T17:23:31.000Z,2019-09-29T17:23:29.000Z,5-11,194,05/01/1992,Ohio State,CB,HOU,CAR,4,NRG Stadium,"Houston, TX",Retractable Roof,Artificial,Mostly Cloudy,89.0,61,6mph,SE
51034,2019092904,20190929040616,home,80.27,30.71,0.92,0.69,0.1,279.42,334.98,2550559,Brandon Dunn,92,2019,30,1,03:15:00,CAR,2,5,HST,0,0,2557997,SINGLEBACK,"1 RB, 2 TE, 2 WR",8,"3 DL, 4 LB, 4 DB",right,2019-09-29T17:23:31.000Z,2019-09-29T17:23:29.000Z,6-2,310,09/05/1992,Louisville,DT,HOU,CAR,4,NRG Stadium,"Houston, TX",Retractable Roof,Artificial,Mostly Cloudy,89.0,61,6mph,SE
51035,2019092904,20190929040616,home,83.75,32.82,1.59,2.58,0.15,266.86,301.49,2552490,Benardrick McKinney,55,2019,30,1,03:15:00,CAR,2,5,HST,0,0,2557997,SINGLEBACK,"1 RB, 2 TE, 2 WR",8,"3 DL, 4 LB, 4 DB",right,2019-09-29T17:23:31.000Z,2019-09-29T17:23:29.000Z,6-4,257,11/19/1992,Mississippi State,ILB,HOU,CAR,4,NRG Stadium,"Houston, TX",Retractable Roof,Artificial,Mostly Cloudy,89.0,61,6mph,SE
51036,2019092904,20190929040616,home,80.74,30.94,0.35,1.19,0.04,286.8,206.52,2555388,D.J. Reader,98,2019,30,1,03:15:00,CAR,2,5,HST,0,0,2557997,SINGLEBACK,"1 RB, 2 TE, 2 WR",8,"3 DL, 4 LB, 4 DB",right,2019-09-29T17:23:31.000Z,2019-09-29T17:23:29.000Z,6-3,347,07/01/1994,Clemson,DT,HOU,CAR,4,NRG Stadium,"Houston, TX",Retractable Roof,Artificial,Mostly Cloudy,89.0,61,6mph,SE
51037,2019092904,20190929040616,home,80.4,28.03,0.09,3.23,0.01,267.22,105.95,2556673,Brennan Scarlett,57,2019,30,1,03:15:00,CAR,2,5,HST,0,0,2557997,SINGLEBACK,"1 RB, 2 TE, 2 WR",8,"3 DL, 4 LB, 4 DB",right,2019-09-29T17:23:31.000Z,2019-09-29T17:23:29.000Z,6-4,263,07/31/1993,Stanford,OLB,HOU,CAR,4,NRG Stadium,"Houston, TX",Retractable Roof,Artificial,Mostly Cloudy,89.0,61,6mph,SE
51038,2019092904,20190929040616,home,83.27,30.9,3.16,1.49,0.31,263.01,323.25,2558094,Zach Cunningham,41,2019,30,1,03:15:00,CAR,2,5,HST,0,0,2557997,SINGLEBACK,"1 RB, 2 TE, 2 WR",8,"3 DL, 4 LB, 4 DB",right,2019-09-29T17:23:31.000Z,2019-09-29T17:23:29.000Z,6-3,238,12/12/1994,Vanderbilt,ILB,HOU,CAR,4,NRG Stadium,"Houston, TX",Retractable Roof,Artificial,Mostly Cloudy,89.0,61,6mph,SE
51039,2019092904,20190929040616,home,81.62,35.5,3.52,2.85,0.35,247.7,233.03,2560851,Justin Reid,20,2019,30,1,03:15:00,CAR,2,5,HST,0,0,2557997,SINGLEBACK,"1 RB, 2 TE, 2 WR",8,"3 DL, 4 LB, 4 DB",right,2019-09-29T17:23:31.000Z,2019-09-29T17:23:29.000Z,6-1,204,02/15/1997,Stanford,SS,HOU,CAR,4,NRG Stadium,"Houston, TX",Retractable Roof,Artificial,Mostly Cloudy,89.0,61,6mph,SE
