,GameId,PlayId,Team,X,Y,S,A,Dis,Orientation,Dir,NflId,DisplayName,JerseyNumber,Season,YardLine,Quarter,GameClock,PossessionTeam,Down,Distance,FieldPosition,HomeScoreBeforePlay,VisitorScoreBeforePlay,NflIdRusher,OffenseFormation,OffensePersonnel,DefendersInTheBox,DefensePersonnel,PlayDirection,TimeHandoff,TimeSnap,PlayerHeight,PlayerWeight,PlayerBirthDate,PlayerCollegeName,Position,HomeTeamAbbr,VisitorTeamAbbr,Week,Stadium,Location,StadiumType,Turf,GameWeather,Temperature,Humidity,WindSpeed,WindDirection
52030,2019092905,20190929050893,away,58.45,32.84,3.29,0.86,0.35,308.83,337.99,2495171,Rodney Hudson,61,2019,49,1,02:43:00,OAK,1,10,IND,7,14,2556885,SINGLEBACK,"1 RB, 1 TE, 3 WR",6,"4 DL, 2 LB, 5 DB",left,2019-09-29T17:38:45.000Z,2019-09-29T17:38:44.000Z,6-2,315,07/12/1989,Florida State,C,IND,OAK,4,Lucas Oil Stadium,"Indianapolis, Ind.",Retr. Roof-Closed,Artificial,Cloudy,77.0,72,10,NNE
52031,2019092905,20190929050893,away,58.81,30.25,1.54,2.13,0.14,35.68,336.52,2506420,Richie Incognito,64,2019,49,1,02:43:00,OAK,1,10,IND,7,14,2556885,SINGLEBACK,"1 RB, 1 TE, 3 WR",6,"4 DL, 2 LB, 5 DB",left,2019-09-29T17:38:45.000Z,2019-09-29T17:38:44.000Z,6-3,325,07/05/1983,Nebraska,G,IND,OAK,4,Lucas Oil Stadium,"Indianapolis, Ind.",Retr. Roof-Closed,Artificial,Cloudy,77.0,72,10,NNE
52032,2019092905,20190929050893,away,58.21,33.58,3.44,0.5,0.35,235.08,331.55,2540247,Jordan Devey,65,2019,49,1,02:43:00,OAK,1,10,IND,7,14,2556885,SINGLEBACK,"1 RB, 1 TE, 3 WR",6,"4 DL, 2 LB, 5 DB",left,2019-09-29T17:38:45.000Z,2019-09-29T17:38:44.000Z,6-6,320,01/11/1988,Memphis,T,IND,OAK,4,Lucas Oil Stadium,"Indianapolis, Ind.",Retr. Roof-Closed,Artificial,Cloudy,77.0,72,10,NNE
52033,2019092905,20190929050893,away,63.01,31.58,4.64,2.27,0.46,58.12,61.68,2543499,Derek Carr,4,2019,49,1,02:43:00,OAK,1,10,IND,7,14,2556885,SINGLEBACK,"1 RB, 1 TE, 3 WR",6,"4 DL, 2 LB, 5 DB",left,2019-09-29T17:38:45.000Z,2019-09-29T17:38:44.000Z,6-3,210,03/28/1991,Fresno State,QB,IND,OAK,4,Lucas Oil Stadium,"Indianapolis, Ind.",Retr. Roof-Closed,Artificial,Cloudy,77.0,72,10,NNE
52034,2019092905,20190929050893,away,58.92,36.38,4.08,1.64,0.42,317.51,343.05,2552350,Trent Brown,77,2019,49,1,02:43:00,OAK,1,10,IND,7,14,2556885,SINGLEBACK,"1 RB, 1 TE, 3 WR",6,"4 DL, 2 LB, 5 DB",left,2019-09-29T17:38:45.000Z,2019-09-29T17:38:44.000Z,6-8,380,04/13/1993,Florida,T,IND,OAK,4,Lucas Oil Stadium,"Indianapolis, Ind.",Retr. Roof-Closed,Artificial,Cloudy,77.0,72,10,NNE
52035,2019092905,20190929050893,away,58.83,37.08,3.67,1.61,0.37,257.09,1.59,2552408,Darren Waller,83,2019,49,1,02:43:00,OAK,1,10,IND,7,14,2556885,SINGLEBACK,"1 RB, 1 TE, 3 WR",6,"4 DL, 2 LB, 5 DB",left,2019-09-29T17:38:45.000Z,2019-09-29T17:38:44.000Z,6-6,255,09/13/1992,Georgia Tech,TE,IND,OAK,4,Lucas Oil Stadium,"Indianapolis, Ind.",Retr. Roof-Closed,Artificial,Cloudy,77.0,72,10,NNE
52036,2019092905,20190929050893,away,57.8,24.48,3.82,1.8,0.37,247.17,319.06,2553913,Tyrell Williams,16,2019,49,1,02:43:00,OAK,1,10,IND,7,14,2556885,SINGLEBACK,"1 RB, 1 TE, 3 WR",6,"4 DL, 2 LB, 5 DB",left,2019-09-29T17:38:45.000Z,2019-09-29T17:38:44.000Z,6-4,205,02/12/1992,Western Oregon,WR,IND,OAK,4,Lucas Oil Stadium,"Indianapolis, Ind.",Retr. Roof-Closed,Artificial,Cloudy,77.0,72,10,NNE
52037,2019092905,20190929050893,away,58.61,39.75,4.41,2.8,0.43,277.75,310.63,2555413,Trevor Davis,11,2019,49,1,02:43:00,OAK,1,10,IND,7,14,2556885,SINGLEBACK,"1 RB, 1 TE, 3 WR",6,"4 DL, 2 LB, 5 DB",left,2019-09-29T17:38:45.000Z,2019-09-29T17:38:44.000Z,6-1,188,07/04/1993,California,WR,IND,OAK,4,Lucas Oil Stadium,"Indianapolis, Ind.",Retr. Roof-Closed,Artificial,Cloudy,77.0,72,10,NNE
52038,2019092905,20190929050893,away,64.22,32.23,5.45,3.03,0.53,337.31,322.38,2556885,Jalen Richard,30,2019,49,1,02:43:00,OAK,1,10,IND,7,14,2556885,SINGLEBACK,"1 RB, 1 TE, 3 WR",6,"4 DL, 2 LB, 5 DB",left,2019-09-29T17:38:45.000Z,2019-09-29T17:38:44.000Z,5-8,207,10/15/1993,Southern Mississippi,RB,IND,OAK,4,Lucas Oil Stadium,"Indianapolis, Ind.",Retr. Roof-Closed,Artificial,Cloudy,77.0,72,10,NNE
52039,2019092905,20190929050893,away,58.18,30.07,4.23,0.68,0.44,334.06,327.81,2560811,Kolton Miller,74,2019,49,1,02:43:00,OAK,1,10,IND,7,14,2556885,SINGLEBACK,"1 RB, 1 TE, 3 WR",6,"4 DL, 2 LB, 5 DB",left,2019-09-29T17:38:45.000Z,2019-09-29T17:38:44.000Z,6-8,325,10/09/1995,UCLA,T,IND,OAK,4,Lucas Oil Stadium,"Indianapolis, Ind.",Retr. Roof-Closed,Artificial,Cloudy,77.0,72,10,NNE
52040,2019092905,20190929050893,away,59.42,22.43,2.79,3.31,0.27,273.19,304.86,2562712,Hunter Renfrow,13,2019,49,1,02:43:00,OAK,1,10,IND,7,14,2556885,SINGLEBACK,"1 RB, 1 TE, 3 WR",6,"4 DL, 2 LB, 5 DB",left,2019-09-29T17:38:45.000Z,2019-09-29T17:38:44.000Z,5-10,185,12/21/1995,Clemson,WR,IND,OAK,4,Lucas Oil Stadium,"Indianapolis, Ind.",Retr. Roof-Closed,Artificial,Cloudy,77.0,72,10,NNE
52041,2019092905,20190929050893,home,58.28,37.19,3.77,0.66,0.38,73.79,5.72,2495228,Jabaal Sheard,93,2019,49,1,02:43:00,OAK,1,10,IND,7,14,2556885,SINGLEBACK,"1 RB, 1 TE, 3 WR",6,"4 DL, 2 LB, 5 DB",left,2019-09-29T17:38:45.000Z,2019-09-29T17:38:44.000Z,6-3,268,05/10/1989,Pittsburgh,DE,IND,OAK,4,Lucas Oil Stadium,"Indianapolis, Ind.",Retr. Roof-Closed,Artificial,Cloudy,77.0,72,10,NNE
52042,2019092905,20190929050893,home,59.85,30.78,2.34,1.98,0.24,26.01,29.74,2539310,Margus Hunt,92,2019,49,1,02:43:00,OAK,1,10,IND,7,14,2556885,SINGLEBACK,"1 RB, 1 TE, 3 WR",6,"4 DL, 2 LB, 5 DB",left,2019-09-29T17:38:45.000Z,2019-09-29T17:38:44.000Z,6-8,295,07/14/1987,Southern Methodist,DT,IND,OAK,4,Lucas Oil Stadium,"Indianapolis, Ind.",Retr. Roof-Closed,Artificial,Cloudy,77.0,72,10,NNE
52043,2019092905,20190929050893,home,44.33,33.68,3.58,0.6,0.35,57.11,241.1,2552386,Clayton Geathers,26,2019,49,1,02:43:00,OAK,1,10,IND,7,14,2556885,SINGLEBACK,"1 RB, 1 TE, 3 WR",6,"4 DL, 2 LB, 5 DB",left,2019-09-29T17:38:45.000Z,2019-09-29T17:38:44.000Z,6-2,216,06/01/1992,Central Florida,FS,IND,OAK,4,Lucas Oil Stadium,"Indianapolis, Ind.",Retr. Roof-Closed,Artificial,Cloudy,77.0,72,10,NNE
52044,2019092905,20190929050893,home,52.5,18.65,1.86,3.2,0.17,30.36,321.89,2557961,Quincy Wilson,31,2019,49,1,02:43:00,OAK,1,10,IND,7,14,2556885,SINGLEBACK,"1 RB, 1 TE, 3 WR",6,"4 DL, 2 LB, 5 DB",left,2019-09-29T17:38:45.000Z,2019-09-29T17:38:44.000Z,6-2,193,08/16/1996,Florida,CB,IND,OAK,4,Lucas Oil Stadium,"Indianapolis, Ind.",Retr. Roof-Closed,Artificial,Cloudy,77.0,72,10,NNE
52045,2019092905,20190929050893,home,58.85,28.36,3.93,0.15,0.4,20.5,17.55,2558131,Al-Quadin Muhammad,97,2019,49,1,02:43:00,OAK,1,10,IND,7,14,2556885,SINGLEBACK,"1 RB, 1 TE, 3 WR",6,"4 DL, 2 LB, 5 DB",left,2019-09-29T17:38:45.000Z,2019-09-29T17:38:44.000Z,6-4,250,03/28/1995,Miami,DE,IND,OAK,4,Lucas Oil Stadium,"Indianapolis, Ind.",Retr. Roof-Closed,Artificial,Cloudy,77.0,72,10,NNE
52046,2019092905,20190929050893,home,57.67,33.13,3.27,1.97,0.34,49.37,336.85,2558766,Grover Stewart,90,2019,49,1,02:43:00,OAK,1,10,IND,7,14,2556885,SINGLEBACK,"1 RB, 1 TE, 3 WR",6,"4 DL, 2 LB, 5 DB",left,2019-09-29T17:38:45.000Z,2019-09-29T17:38:44.000Z,6-4,315,10/20/1993,"Albany State, Ga.",DT,IND,OAK,4,Lucas Oil Stadium,"Indianapolis, Ind.",Retr. Roof-Closed,Artificial,Cloudy,77.0,72,10,NNE
52047,2019092905,20190929050893,home,55.57,36.89,4.26,1.63,0.42,92.46,21.89,2558851,Anthony Walker,50,2019,49,1,02:43:00,OAK,1,10,IND,7,14,2556885,SINGLEBACK,"1 RB, 1 TE, 3 WR",6,"4 DL, 2 LB, 5 DB",left,2019-09-29T17:38:45.000Z,2019-09-29T17:38:44.000Z,6-1,230,08/08/1995,Northwestern,ILB,IND,OAK,4,Lucas Oil Stadium,"Indianapolis, Ind.",Retr. Roof-Closed,Artificial,Cloudy,77.0,72,10,NNE
52048,2019092905,20190929050893,home,58.4,23.38,3.28,3.26,0.32,47.43,27.24,2558976,Kenny Moore,23,2019,49,1,02:43:00,OAK,1,10,IND,7,14,2556885,SINGLEBACK,"1 RB, 1 TE, 3 WR",6,"4 DL, 2 LB, 5 DB",left,2019-09-29T17:38:45.000Z,2019-09-29T17:38:44.000Z,5-9,190,08/23/1995,Valdosta State,CB,IND,OAK,4,Lucas Oil Stadium,"Indianapolis, Ind.",Retr. Roof-Closed,Artificial,Cloudy,77.0,72,10,NNE
52049,2019092905,20190929050893,home,55.05,32.31,5.3,2.97,0.52,46.58,14.83,2562416,Bobby Okereke,58,2019,49,1,02:43:00,OAK,1,10,IND,7,14,2556885,SINGLEBACK,"1 RB, 1 TE, 3 WR",6,"4 DL, 2 LB, 5 DB",left,2019-09-29T17:38:45.000Z,2019-09-29T17:38:44.000Z,6-1,234,07/29/1996,Stanford,LB,IND,OAK,4,Lucas Oil Stadium,"Indianapolis, Ind.",Retr. Roof-Closed,Artificial,Cloudy,77.0,72,10,NNE
52050,2019092905,20190929050893,home,47.48,23.21,3.04,2.64,0.29,84.94,29.15,2562602,Khari Willis,37,2019,49,1,02:43:00,OAK,1,10,IND,7,14,2556885,SINGLEBACK,"1 RB, 1 TE, 3 WR",6,"4 DL, 2 LB, 5 DB",left,2019-09-29T17:38:45.000Z,2019-09-29T17:38:44.000Z,5-11,215,05/07/1996,Michigan State,DB,IND,OAK,4,Lucas Oil Stadium,"Indianapolis, Ind.",Retr. Roof-Closed,Artificial,Cloudy,77.0,72,10,NNE
52051,2019092905,20190929050893,home,56.39,39.96,2.24,8.81,0.18,84.55,313.5,2562614,Rock Ya-Sin,34,2019,49,1,02:43:00,OAK,1,10,IND,7,14,2556885,SINGLEBACK,"1 RB, 1 TE, 3 WR",6,"4 DL, 2 LB, 5 DB",left,2019-09-29T17:38:45.000Z,2019-09-29T17:38:44.000Z,6-0,190,05/23/1996,Temple,DB,IND,OAK,4,Lucas Oil Stadium,"Indianapolis, Ind.",Retr. Roof-Closed,Artificial,Cloudy,77.0,72,10,NNE
