,GameId,PlayId,Team,X,Y,S,A,Dis,Orientation,Dir,NflId,DisplayName,JerseyNumber,Season,YardLine,Quarter,GameClock,PossessionTeam,Down,Distance,FieldPosition,HomeScoreBeforePlay,VisitorScoreBeforePlay,NflIdRusher,OffenseFormation,OffensePersonnel,DefendersInTheBox,DefensePersonnel,PlayDirection,TimeHandoff,TimeSnap,PlayerHeight,PlayerWeight,PlayerBirthDate,PlayerCollegeName,Position,HomeTeamAbbr,VisitorTeamAbbr,Week,Stadium,Location,StadiumType,Turf,GameWeather,Temperature,Humidity,WindSpeed,WindDirection
48400,2019092901,20190929012403,away,88.03,10.61,1.4,0.83,0.14,334.88,44.46,2543637,Terrance Mitchell,39,2019,32,3,06:20:00,BLT,2,7,CLV,10,17,2495466,PISTOL,"1 RB, 1 TE, 3 WR",7,"4 DL, 2 LB, 5 DB",right,2019-09-29T18:56:24.000Z,2019-09-29T18:56:23.000Z,5-11,190,05/17/1992,Oregon,CB,BAL,CLE,4,M&T Stadium,"Baltimore, Md.",Outdoor,Natural Grass,Partly Cloudy,83.0,57,8,NE
48401,2019092901,20190929012403,away,76.58,33.13,3.73,1.93,0.38,231.41,249.53,2543692,Chris Smith,50,2019,32,3,06:20:00,BLT,2,7,CLV,10,17,2495466,PISTOL,"1 RB, 1 TE, 3 WR",7,"4 DL, 2 LB, 5 DB",right,2019-09-29T18:56:24.000Z,2019-09-29T18:56:23.000Z,6-1,266,02/11/1992,Arkansas,DE,BAL,CLE,4,M&T Stadium,"Baltimore, Md.",Outdoor,Natural Grass,Partly Cloudy,83.0,57,8,NE
48402,2019092901,20190929012403,away,87.53,44.03,2.9,3.15,0.28,195.88,102.92,2550164,T.J. Carrie,38,2019,32,3,06:20:00,BLT,2,7,CLV,10,17,2495466,PISTOL,"1 RB, 1 TE, 3 WR",7,"4 DL, 2 LB, 5 DB",right,2019-09-29T18:56:24.000Z,2019-09-29T18:56:23.000Z,6-0,204,07/28/1990,Ohio,CB,BAL,CLE,4,M&T Stadium,"Baltimore, Md.",Outdoor,Natural Grass,Partly Cloudy,83.0,57,8,NE
48403,2019092901,20190929012403,away,94.94,26.74,1.1,0.88,0.11,283.99,96.51,2552389,Damarious Randall,23,2019,32,3,06:20:00,BLT,2,7,CLV,10,17,2495466,PISTOL,"1 RB, 1 TE, 3 WR",7,"4 DL, 2 LB, 5 DB",right,2019-09-29T18:56:24.000Z,2019-09-29T18:56:23.000Z,5-11,196,08/29/1992,Arizona State,CB,BAL,CLE,4,M&T Stadium,"Baltimore, Md.",Outdoor,Natural Grass,Partly Cloudy,83.0,57,8,NE
48404,2019092901,20190929012403,away,81.09,35.39,1.25,2.01,0.12,259.49,195.65,2552697,Jermaine Whitehead,35,2019,32,3,06:20:00,BLT,2,7,CLV,10,17,2495466,PISTOL,"1 RB, 1 TE, 3 WR",7,"4 DL, 2 LB, 5 DB",right,2019-09-29T18:56:24.000Z,2019-09-29T18:56:23.000Z,5-11,195,03/12/1993,Auburn,FS,BAL,CLE,4,M&T Stadium,"Baltimore, Md.",Outdoor,Natural Grass,Partly Cloudy,83.0,57,8,NE
48405,2019092901,20190929012403,away,82.09,26.57,0.65,2.14,0.06,300.94,277.05,2555166,Joe Schobert,53,2019,32,3,06:20:00,BLT,2,7,CLV,10,17,2495466,PISTOL,"1 RB, 1 TE, 3 WR",7,"4 DL, 2 LB, 5 DB",right,2019-09-29T18:56:24.000Z,2019-09-29T18:56:23.000Z,6-1,245,11/06/1993,Wisconsin,MLB,BAL,CLE,4,M&T Stadium,"Baltimore, Md.",Outdoor,Natural Grass,Partly Cloudy,83.0,57,8,NE
48406,2019092901,20190929012403,away,84.89,18.5,2.58,1.92,0.25,342.97,80.35,2555173,Eric Murray,22,2019,32,3,06:20:00,BLT,2,7,CLV,10,17,2495466,PISTOL,"1 RB, 1 TE, 3 WR",7,"4 DL, 2 LB, 5 DB",right,2019-09-29T18:56:24.000Z,2019-09-29T18:56:23.000Z,5-11,199,01/07/1994,Minnesota,FS,BAL,CLE,4,M&T Stadium,"Baltimore, Md.",Outdoor,Natural Grass,Partly Cloudy,83.0,57,8,NE
48407,2019092901,20190929012403,away,78.29,27.79,1.17,0.91,0.12,254.92,200.93,2559079,Devaroe Lawrence,99,2019,32,3,06:20:00,BLT,2,7,CLV,10,17,2495466,PISTOL,"1 RB, 1 TE, 3 WR",7,"4 DL, 2 LB, 5 DB",right,2019-09-29T18:56:24.000Z,2019-09-29T18:56:23.000Z,6-2,294,10/13/1992,Auburn,DT,BAL,CLE,4,M&T Stadium,"Baltimore, Md.",Outdoor,Natural Grass,Partly Cloudy,83.0,57,8,NE
48408,2019092901,20190929012403,away,77.59,25.58,0.65,1.69,0.07,328.08,235.02,2560893,Chad Thomas,92,2019,32,3,06:20:00,BLT,2,7,CLV,10,17,2495466,PISTOL,"1 RB, 1 TE, 3 WR",7,"4 DL, 2 LB, 5 DB",right,2019-09-29T18:56:24.000Z,2019-09-29T18:56:23.000Z,6-5,278,10/12/1995,Miami,DE,BAL,CLE,4,M&T Stadium,"Baltimore, Md.",Outdoor,Natural Grass,Partly Cloudy,83.0,57,8,NE
48409,2019092901,20190929012403,away,77.21,29.12,2.28,0.41,0.23,288.09,221.23,2561458,Daniel Ekuale,96,2019,32,3,06:20:00,BLT,2,7,CLV,10,17,2495466,PISTOL,"1 RB, 1 TE, 3 WR",7,"4 DL, 2 LB, 5 DB",right,2019-09-29T18:56:24.000Z,2019-09-29T18:56:23.000Z,6-3,300,01/13/1994,Washington State,DT,BAL,CLE,4,M&T Stadium,"Baltimore, Md.",Outdoor,Natural Grass,Partly Cloudy,83.0,57,8,NE
48410,2019092901,20190929012403,away,80.36,31.1,2.39,0.92,0.24,336.56,309.3,2562605,Mack Wilson,51,2019,32,3,06:20:00,BLT,2,7,CLV,10,17,2495466,PISTOL,"1 RB, 1 TE, 3 WR",7,"4 DL, 2 LB, 5 DB",right,2019-09-29T18:56:24.000Z,2019-09-29T18:56:23.000Z,6-1,240,02/14/1998,Alabama,LB,BAL,CLE,4,M&T Stadium,"Baltimore, Md.",Outdoor,Natural Grass,Partly Cloudy,83.0,57,8,NE
48411,2019092901,20190929012403,home,73.49,30.33,4.4,2.59,0.43,79.92,86.5,2495466,Mark Ingram,21,2019,32,3,06:20:00,BLT,2,7,CLV,10,17,2495466,PISTOL,"1 RB, 1 TE, 3 WR",7,"4 DL, 2 LB, 5 DB",right,2019-09-29T18:56:24.000Z,2019-09-29T18:56:23.000Z,5-9,215,12/21/1989,Alabama,RB,BAL,CLE,4,M&T Stadium,"Baltimore, Md.",Outdoor,Natural Grass,Partly Cloudy,83.0,57,8,NE
48412,2019092901,20190929012403,home,77.61,27.64,0.84,1.27,0.1,198.84,174.92,2507188,Marshal Yanda,73,2019,32,3,06:20:00,BLT,2,7,CLV,10,17,2495466,PISTOL,"1 RB, 1 TE, 3 WR",7,"4 DL, 2 LB, 5 DB",right,2019-09-29T18:56:24.000Z,2019-09-29T18:56:23.000Z,6-3,305,09/15/1984,Iowa,G,BAL,CLE,4,M&T Stadium,"Baltimore, Md.",Outdoor,Natural Grass,Partly Cloudy,83.0,57,8,NE
48413,2019092901,20190929012403,home,79.45,19.99,4.31,2.87,0.42,82.67,71.39,2550256,Willie Snead,83,2019,32,3,06:20:00,BLT,2,7,CLV,10,17,2495466,PISTOL,"1 RB, 1 TE, 3 WR",7,"4 DL, 2 LB, 5 DB",right,2019-09-29T18:56:24.000Z,2019-09-29T18:56:23.000Z,5-11,205,10/17/1992,Ball State,WR,BAL,CLE,4,M&T Stadium,"Baltimore, Md.",Outdoor,Natural Grass,Partly Cloudy,83.0,57,8,NE
48414,2019092901,20190929012403,home,80.88,45.19,5.53,1.3,0.54,61.63,97.66,2550597,Seth Roberts,11,2019,32,3,06:20:00,BLT,2,7,CLV,10,17,2495466,PISTOL,"1 RB, 1 TE, 3 WR",7,"4 DL, 2 LB, 5 DB",right,2019-09-29T18:56:24.000Z,2019-09-29T18:56:23.000Z,6-2,195,02/22/1991,West Alabama,WR,BAL,CLE,4,M&T Stadium,"Baltimore, Md.",Outdoor,Natural Grass,Partly Cloudy,83.0,57,8,NE
48415,2019092901,20190929012403,home,78.45,31.77,2.46,1.68,0.23,140.02,114.92,2555204,Ronnie Stanley,79,2019,32,3,06:20:00,BLT,2,7,CLV,10,17,2495466,PISTOL,"1 RB, 1 TE, 3 WR",7,"4 DL, 2 LB, 5 DB",right,2019-09-29T18:56:24.000Z,2019-09-29T18:56:23.000Z,6-6,315,03/18/1994,Notre Dame,T,BAL,CLE,4,M&T Stadium,"Baltimore, Md.",Outdoor,Natural Grass,Partly Cloudy,83.0,57,8,NE
48416,2019092901,20190929012403,home,77.95,28.28,1.02,1.81,0.1,124.97,155.7,2556683,Matt Skura,68,2019,32,3,06:20:00,BLT,2,7,CLV,10,17,2495466,PISTOL,"1 RB, 1 TE, 3 WR",7,"4 DL, 2 LB, 5 DB",right,2019-09-29T18:56:24.000Z,2019-09-29T18:56:23.000Z,6-3,313,02/17/1993,Duke,C,BAL,CLE,4,M&T Stadium,"Baltimore, Md.",Outdoor,Natural Grass,Partly Cloudy,83.0,57,8,NE
48417,2019092901,20190929012403,home,77.51,29.57,1.56,1.23,0.16,152.32,179.49,2559827,Bradley Bozeman,77,2019,32,3,06:20:00,BLT,2,7,CLV,10,17,2495466,PISTOL,"1 RB, 1 TE, 3 WR",7,"4 DL, 2 LB, 5 DB",right,2019-09-29T18:56:24.000Z,2019-09-29T18:56:23.000Z,6-3,317,11/24/1994,Alabama,C,BAL,CLE,4,M&T Stadium,"Baltimore, Md.",Outdoor,Natural Grass,Partly Cloudy,83.0,57,8,NE
48418,2019092901,20190929012403,home,75.28,30.94,6.08,2.5,0.62,350.71,8.42,2560747,Hayden Hurst,81,2019,32,3,06:20:00,BLT,2,7,CLV,10,17,2495466,PISTOL,"1 RB, 1 TE, 3 WR",7,"4 DL, 2 LB, 5 DB",right,2019-09-29T18:56:24.000Z,2019-09-29T18:56:23.000Z,6-4,245,08/24/1993,South Carolina,TE,BAL,CLE,4,M&T Stadium,"Baltimore, Md.",Outdoor,Natural Grass,Partly Cloudy,83.0,57,8,NE
48419,2019092901,20190929012403,home,73.18,29.9,0.82,2.37,0.08,358.41,8.52,2560757,Lamar Jackson,8,2019,32,3,06:20:00,BLT,2,7,CLV,10,17,2495466,PISTOL,"1 RB, 1 TE, 3 WR",7,"4 DL, 2 LB, 5 DB",right,2019-09-29T18:56:24.000Z,2019-09-29T18:56:23.000Z,6-2,212,01/07/1997,Louisville,QB,BAL,CLE,4,M&T Stadium,"Baltimore, Md.",Outdoor,Natural Grass,Partly Cloudy,83.0,57,8,NE
48420,2019092901,20190929012403,home,77.01,25.97,0.49,1.56,0.05,152.27,122.48,2560981,Orlando Brown,78,2019,32,3,06:20:00,BLT,2,7,CLV,10,17,2495466,PISTOL,"1 RB, 1 TE, 3 WR",7,"4 DL, 2 LB, 5 DB",right,2019-09-29T18:56:24.000Z,2019-09-29T18:56:23.000Z,6-8,345,05/02/1996,Oklahoma,T,BAL,CLE,4,M&T Stadium,"Baltimore, Md.",Outdoor,Natural Grass,Partly Cloudy,83.0,57,8,NE
48421,2019092901,20190929012403,home,78.27,11.58,4.5,1.98,0.44,74.53,74.68,2562379,Marquise Brown,15,2019,32,3,06:20:00,BLT,2,7,CLV,10,17,2495466,PISTOL,"1 RB, 1 TE, 3 WR",7,"4 DL, 2 LB, 5 DB",right,2019-09-29T18:56:24.000Z,2019-09-29T18:56:23.000Z,5-9,170,06/04/1997,Oklahoma,WR,BAL,CLE,4,M&T Stadium,"Baltimore, Md.",Outdoor,Natural Grass,Partly Cloudy,83.0,57,8,NE
