,GameId,PlayId,Team,X,Y,S,A,Dis,Orientation,Dir,NflId,DisplayName,JerseyNumber,Season,YardLine,Quarter,GameClock,PossessionTeam,Down,Distance,FieldPosition,HomeScoreBeforePlay,VisitorScoreBeforePlay,NflIdRusher,OffenseFormation,OffensePersonnel,DefendersInTheBox,DefensePersonnel,PlayDirection,TimeHandoff,TimeSnap,PlayerHeight,PlayerWeight,PlayerBirthDate,PlayerCollegeName,Position,HomeTeamAbbr,VisitorTeamAbbr,Week,Stadium,Location,StadiumType,Turf,GameWeather,Temperature,Humidity,WindSpeed,WindDirection
54538,2019092907,20190929072741,away,16.07,29.46,0.52,2.6,0.06,84.79,106.23,2532920,Josh Norman,24,2019,10,3,02:42:00,NYG,1,10,WAS,17,3,2563062,SINGLEBACK,"1 RB, 2 TE, 2 WR",8,"3 DL, 4 LB, 4 DB",left,2019-09-29T19:02:11.000Z,2019-09-29T19:02:09.000Z,6-0,200,12/15/1987,Coastal Carolina,CB,NYG,WAS,4,MetLife Stadium,"East Rutherford, NJ",,UBU Speed Series-S5-M,Fair,77.0,42,11,NNE
54539,2019092907,20190929072741,away,18.04,24.78,2.47,1.03,0.24,85.58,153.63,2539978,Jon Bostic,53,2019,10,3,02:42:00,NYG,1,10,WAS,17,3,2563062,SINGLEBACK,"1 RB, 2 TE, 2 WR",8,"3 DL, 4 LB, 4 DB",left,2019-09-29T19:02:11.000Z,2019-09-29T19:02:09.000Z,6-1,245,05/05/1991,Florida,ILB,NYG,WAS,4,MetLife Stadium,"East Rutherford, NJ",,UBU Speed Series-S5-M,Fair,77.0,42,11,NNE
54540,2019092907,20190929072741,away,21.41,27.68,1.59,2.86,0.16,122.02,97.26,2552454,Landon Collins,20,2019,10,3,02:42:00,NYG,1,10,WAS,17,3,2563062,SINGLEBACK,"1 RB, 2 TE, 2 WR",8,"3 DL, 4 LB, 4 DB",left,2019-09-29T19:02:11.000Z,2019-09-29T19:02:09.000Z,6-0,218,01/10/1994,Alabama,SS,NYG,WAS,4,MetLife Stadium,"East Rutherford, NJ",,UBU Speed Series-S5-M,Fair,77.0,42,11,NNE
54541,2019092907,20190929072741,away,16.14,10.33,3.47,2.33,0.34,28.8,261.1,2553796,Quinton Dunbar,23,2019,10,3,02:42:00,NYG,1,10,WAS,17,3,2563062,SINGLEBACK,"1 RB, 2 TE, 2 WR",8,"3 DL, 4 LB, 4 DB",left,2019-09-29T19:02:11.000Z,2019-09-29T19:02:09.000Z,6-2,202,07/22/1992,Florida,CB,NYG,WAS,4,MetLife Stadium,"East Rutherford, NJ",,UBU Speed Series-S5-M,Fair,77.0,42,11,NNE
54542,2019092907,20190929072741,away,19.46,25.01,1.59,0.84,0.17,121.21,179.06,2555240,Matthew Ioannidis,98,2019,10,3,02:42:00,NYG,1,10,WAS,17,3,2563062,SINGLEBACK,"1 RB, 2 TE, 2 WR",8,"3 DL, 4 LB, 4 DB",left,2019-09-29T19:02:11.000Z,2019-09-29T19:02:09.000Z,6-3,310,01/11/1994,Temple,DE,NYG,WAS,4,MetLife Stadium,"East Rutherford, NJ",,UBU Speed Series-S5-M,Fair,77.0,42,11,NNE
54543,2019092907,20190929072741,away,20.77,29.3,1.81,1.58,0.18,159.11,129.94,2557853,Ryan Anderson,52,2019,10,3,02:42:00,NYG,1,10,WAS,17,3,2563062,SINGLEBACK,"1 RB, 2 TE, 2 WR",8,"3 DL, 4 LB, 4 DB",left,2019-09-29T19:02:11.000Z,2019-09-29T19:02:09.000Z,6-2,253,08/12/1994,Alabama,OLB,NYG,WAS,4,MetLife Stadium,"East Rutherford, NJ",,UBU Speed Series-S5-M,Fair,77.0,42,11,NNE
54544,2019092907,20190929072741,away,9.21,21.66,0.65,1.47,0.06,57.24,216.94,2558133,Montae Nicholson,35,2019,10,3,02:42:00,NYG,1,10,WAS,17,3,2563062,SINGLEBACK,"1 RB, 2 TE, 2 WR",8,"3 DL, 4 LB, 4 DB",left,2019-09-29T19:02:11.000Z,2019-09-29T19:02:09.000Z,6-2,212,12/04/1995,Michigan State,FS,NYG,WAS,4,MetLife Stadium,"East Rutherford, NJ",,UBU Speed Series-S5-M,Fair,77.0,42,11,NNE
54545,2019092907,20190929072741,away,18.96,22.23,2.44,1.28,0.24,103.96,199.84,2560834,Daron Payne,94,2019,10,3,02:42:00,NYG,1,10,WAS,17,3,2563062,SINGLEBACK,"1 RB, 2 TE, 2 WR",8,"3 DL, 4 LB, 4 DB",left,2019-09-29T19:02:11.000Z,2019-09-29T19:02:09.000Z,6-3,320,05/27/1997,Alabama,NT,NYG,WAS,4,MetLife Stadium,"East Rutherford, NJ",,UBU Speed Series-S5-M,Fair,77.0,42,11,NNE
54546,2019092907,20190929072741,away,19.85,19.79,1.42,1.11,0.15,122.09,158.62,2560871,Tim Settle,97,2019,10,3,02:42:00,NYG,1,10,WAS,17,3,2563062,SINGLEBACK,"1 RB, 2 TE, 2 WR",8,"3 DL, 4 LB, 4 DB",left,2019-09-29T19:02:11.000Z,2019-09-29T19:02:09.000Z,6-3,308,07/11/1997,Virginia Tech,NT,NYG,WAS,4,MetLife Stadium,"East Rutherford, NJ",,UBU Speed Series-S5-M,Fair,77.0,42,11,NNE
54547,2019092907,20190929072741,away,17.68,21.16,3.41,0.25,0.34,81.31,135.47,2561003,Shaun Dion Hamilton,51,2019,10,3,02:42:00,NYG,1,10,WAS,17,3,2563062,SINGLEBACK,"1 RB, 2 TE, 2 WR",8,"3 DL, 4 LB, 4 DB",left,2019-09-29T19:02:11.000Z,2019-09-29T19:02:09.000Z,6-0,235,09/11/1995,Alabama,LB,NYG,WAS,4,MetLife Stadium,"East Rutherford, NJ",,UBU Speed Series-S5-M,Fair,77.0,42,11,NNE
54548,2019092907,20190929072741,away,20.55,17.22,2.45,0.88,0.24,352.97,150.04,2562749,Montez Sweat,90,2019,10,3,02:42:00,NYG,1,10,WAS,17,3,2563062,SINGLEBACK,"1 RB, 2 TE, 2 WR",8,"3 DL, 4 LB, 4 DB",left,2019-09-29T19:02:11.000Z,2019-09-29T19:02:09.000Z,6-6,262,09/04/1996,Mississippi State,LB,NYG,WAS,4,MetLife Stadium,"East Rutherford, NJ",,UBU Speed Series-S5-M,Fair,77.0,42,11,NNE
54549,2019092907,20190929072741,home,20.53,17.9,2.49,1.18,0.26,153.96,180.62,2495232,Nate Solder,76,2019,10,3,02:42:00,NYG,1,10,WAS,17,3,2563062,SINGLEBACK,"1 RB, 2 TE, 2 WR",8,"3 DL, 4 LB, 4 DB",left,2019-09-29T19:02:11.000Z,2019-09-29T19:02:09.000Z,6-9,325,04/12/1988,Colorado,T,NYG,WAS,4,MetLife Stadium,"East Rutherford, NJ",,UBU Speed Series-S5-M,Fair,77.0,42,11,NNE
54550,2019092907,20190929072741,home,19.26,25.48,2.82,1.49,0.29,243.16,224.33,2532835,Rhett Ellison,85,2019,10,3,02:42:00,NYG,1,10,WAS,17,3,2563062,SINGLEBACK,"1 RB, 2 TE, 2 WR",8,"3 DL, 4 LB, 4 DB",left,2019-09-29T19:02:11.000Z,2019-09-29T19:02:09.000Z,6-5,255,10/03/1988,Southern California,TE,NYG,WAS,4,MetLife Stadium,"East Rutherford, NJ",,UBU Speed Series-S5-M,Fair,77.0,42,11,NNE
54551,2019092907,20190929072741,home,19.38,22.76,2.82,1.25,0.3,251.19,212.97,2532980,Kevin Zeitler,70,2019,10,3,02:42:00,NYG,1,10,WAS,17,3,2563062,SINGLEBACK,"1 RB, 2 TE, 2 WR",8,"3 DL, 4 LB, 4 DB",left,2019-09-29T19:02:11.000Z,2019-09-29T19:02:09.000Z,6-4,315,03/08/1990,Wisconsin,G,NYG,WAS,4,MetLife Stadium,"East Rutherford, NJ",,UBU Speed Series-S5-M,Fair,77.0,42,11,NNE
54552,2019092907,20190929072741,home,19.63,24.31,2.64,0.84,0.27,330.44,201.2,2535607,Mike Remmers,74,2019,10,3,02:42:00,NYG,1,10,WAS,17,3,2563062,SINGLEBACK,"1 RB, 2 TE, 2 WR",8,"3 DL, 4 LB, 4 DB",left,2019-09-29T19:02:11.000Z,2019-09-29T19:02:09.000Z,6-5,310,04/11/1989,Oregon State,T,NYG,WAS,4,MetLife Stadium,"East Rutherford, NJ",,UBU Speed Series-S5-M,Fair,77.0,42,11,NNE
54553,2019092907,20190929072741,home,19.37,21.95,2.31,1.33,0.23,284.94,200.24,2543708,Jon Halapio,75,2019,10,3,02:42:00,NYG,1,10,WAS,17,3,2563062,SINGLEBACK,"1 RB, 2 TE, 2 WR",8,"3 DL, 4 LB, 4 DB",left,2019-09-29T19:02:11.000Z,2019-09-29T19:02:09.000Z,6-4,315,06/23/1991,Florida,C,NYG,WAS,4,MetLife Stadium,"East Rutherford, NJ",,UBU Speed Series-S5-M,Fair,77.0,42,11,NNE
54554,2019092907,20190929072741,home,21.87,26.95,0.87,1.2,0.08,283.48,106.51,2550198,Bennie Fowler,18,2019,10,3,02:42:00,NYG,1,10,WAS,17,3,2563062,SINGLEBACK,"1 RB, 2 TE, 2 WR",8,"3 DL, 4 LB, 4 DB",left,2019-09-29T19:02:11.000Z,2019-09-29T19:02:09.000Z,6-1,218,06/10/1991,Michigan State,WR,NYG,WAS,4,MetLife Stadium,"East Rutherford, NJ",,UBU Speed Series-S5-M,Fair,77.0,42,11,NNE
54555,2019092907,20190929072741,home,18.61,11.18,3.35,1.13,0.33,251.51,275.29,2555295,Sterling Shepard,87,2019,10,3,02:42:00,NYG,1,10,WAS,17,3,2563062,SINGLEBACK,"1 RB, 2 TE, 2 WR",8,"3 DL, 4 LB, 4 DB",left,2019-09-29T19:02:11.000Z,2019-09-29T19:02:09.000Z,5-10,201,02/10/1993,Oklahoma,WR,NYG,WAS,4,MetLife Stadium,"East Rutherford, NJ",,UBU Speed Series-S5-M,Fair,77.0,42,11,NNE
54556,2019092907,20190929072741,home,19.66,29.32,1.85,2.66,0.19,46.06,302.05,2557858,Evan Engram,88,2019,10,3,02:42:00,NYG,1,10,WAS,17,3,2563062,SINGLEBACK,"1 RB, 2 TE, 2 WR",8,"3 DL, 4 LB, 4 DB",left,2019-09-29T19:02:11.000Z,2019-09-29T19:02:09.000Z,6-3,240,09/02/1994,Mississippi,TE,NYG,WAS,4,MetLife Stadium,"East Rutherford, NJ",,UBU Speed Series-S5-M,Fair,77.0,42,11,NNE
54557,2019092907,20190929072741,home,20.11,20.44,1.08,1.01,0.11,213.06,193.61,2560737,Will Hernandez,71,2019,10,3,02:42:00,NYG,1,10,WAS,17,3,2563062,SINGLEBACK,"1 RB, 2 TE, 2 WR",8,"3 DL, 4 LB, 4 DB",left,2019-09-29T19:02:11.000Z,2019-09-29T19:02:09.000Z,6-3,327,09/02/1995,Texas-El Paso,G,NYG,WAS,4,MetLife Stadium,"East Rutherford, NJ",,UBU Speed Series-S5-M,Fair,77.0,42,11,NNE
54558,2019092907,20190929072741,home,24.02,22.41,4.4,2.12,0.44,104.31,99.69,2562299,Daniel Jones,8,2019,10,3,02:42:00,NYG,1,10,WAS,17,3,2563062,SINGLEBACK,"1 RB, 2 TE, 2 WR",8,"3 DL, 4 LB, 4 DB",left,2019-09-29T19:02:11.000Z,2019-09-29T19:02:09.000Z,6-5,220,05/27/1997,Duke,QB,NYG,WAS,4,MetLife Stadium,"East Rutherford, NJ",,UBU Speed Series-S5-M,Fair,77.0,42,11,NNE
54559,2019092907,20190929072741,home,24.89,21.5,4.29,3.55,0.41,257.99,242.19,2563062,Jon Hilliman,28,2019,10,3,02:42:00,NYG,1,10,WAS,17,3,2563062,SINGLEBACK,"1 RB, 2 TE, 2 WR",8,"3 DL, 4 LB, 4 DB",left,2019-09-29T19:02:11.000Z,2019-09-29T19:02:09.000Z,6-0,216,11/14/1995,Rutgers,RB,NYG,WAS,4,MetLife Stadium,"East Rutherford, NJ",,UBU Speed Series-S5-M,Fair,77.0,42,11,NNE
