,GameId,PlayId,Team,X,Y,S,A,Dis,Orientation,Dir,NflId,DisplayName,JerseyNumber,Season,YardLine,Quarter,GameClock,PossessionTeam,Down,Distance,FieldPosition,HomeScoreBeforePlay,VisitorScoreBeforePlay,NflIdRusher,OffenseFormation,OffensePersonnel,DefendersInTheBox,DefensePersonnel,PlayDirection,TimeHandoff,TimeSnap,PlayerHeight,PlayerWeight,PlayerBirthDate,PlayerCollegeName,Position,HomeTeamAbbr,VisitorTeamAbbr,Week,Stadium,Location,StadiumType,Turf,GameWeather,Temperature,Humidity,WindSpeed,WindDirection
6512,2019090806,20190908061079,away,38.89,33.9,1.7,2.26,0.18,140.85,127.47,2495826,Vernon Davis,85,2019,29,2,10:49:00,WAS,1,10,WAS,0,10,2561000,SINGLEBACK,"1 RB, 2 TE, 2 WR",8,"4 DL, 3 LB, 4 DB",right,2019-09-08T17:52:35.000Z,2019-09-08T17:52:34.000Z,6-3,248,01/31/1984,Maryland,TE,PHI,WAS,1,Lincoln Financial Field,"Philadelphia, Pa.",Outdoor,Grass,Sunny,79.0,49,4,W
6513,2019090806,20190908061079,away,39.04,32.1,1.15,0.97,0.11,109.24,142.4,2506706,Donald Penn,72,2019,29,2,10:49:00,WAS,1,10,WAS,0,10,2561000,SINGLEBACK,"1 RB, 2 TE, 2 WR",8,"4 DL, 3 LB, 4 DB",right,2019-09-08T17:52:35.000Z,2019-09-08T17:52:34.000Z,6-4,315,04/27/1983,Utah State,T,PHI,WAS,1,Lincoln Financial Field,"Philadelphia, Pa.",Outdoor,Grass,Sunny,79.0,49,4,W
6514,2019090806,20190908061079,away,33.47,29.1,4.8,2.96,0.48,257.43,247.06,2532888,Case Keenum,8,2019,29,2,10:49:00,WAS,1,10,WAS,0,10,2561000,SINGLEBACK,"1 RB, 2 TE, 2 WR",8,"4 DL, 3 LB, 4 DB",right,2019-09-08T17:52:35.000Z,2019-09-08T17:52:34.000Z,6-1,215,02/17/1988,Houston,QB,PHI,WAS,1,Lincoln Financial Field,"Philadelphia, Pa.",Outdoor,Grass,Sunny,79.0,49,4,W
6515,2019090806,20190908061079,away,36.36,30.65,4.74,1.92,0.47,13.4,353.89,2543489,Morgan Moses,76,2019,29,2,10:49:00,WAS,1,10,WAS,0,10,2561000,SINGLEBACK,"1 RB, 2 TE, 2 WR",8,"4 DL, 3 LB, 4 DB",right,2019-09-08T17:52:35.000Z,2019-09-08T17:52:34.000Z,6-6,330,03/03/1991,Virginia,T,PHI,WAS,1,Lincoln Financial Field,"Philadelphia, Pa.",Outdoor,Grass,Sunny,79.0,49,4,W
6516,2019090806,20190908061079,away,36.83,32.69,5.31,1.68,0.54,9.52,0.27,2552032,Brandon Scherff,75,2019,29,2,10:49:00,WAS,1,10,WAS,0,10,2561000,SINGLEBACK,"1 RB, 2 TE, 2 WR",8,"4 DL, 3 LB, 4 DB",right,2019-09-08T17:52:35.000Z,2019-09-08T17:52:34.000Z,6-5,315,12/26/1991,Iowa,G,PHI,WAS,1,Lincoln Financial Field,"Philadelphia, Pa.",Outdoor,Grass,Sunny,79.0,49,4,W
6517,2019090806,20190908061079,away,39.1,30.21,1.87,0.26,0.19,85.13,168.31,2552452,Ereck Flowers,77,2019,29,2,10:49:00,WAS,1,10,WAS,0,10,2561000,SINGLEBACK,"1 RB, 2 TE, 2 WR",8,"4 DL, 3 LB, 4 DB",right,2019-09-08T17:52:35.000Z,2019-09-08T17:52:34.000Z,6-6,329,04/25/1994,Miami,T,PHI,WAS,1,Lincoln Financial Field,"Philadelphia, Pa.",Outdoor,Grass,Sunny,79.0,49,4,W
6518,2019090806,20190908061079,away,38.33,33.02,1.96,2.47,0.19,114.01,205.03,2557886,Jeremy Sprinkle,87,2019,29,2,10:49:00,WAS,1,10,WAS,0,10,2561000,SINGLEBACK,"1 RB, 2 TE, 2 WR",8,"4 DL, 3 LB, 4 DB",right,2019-09-08T17:52:35.000Z,2019-09-08T17:52:34.000Z,6-5,255,08/10/1994,Arkansas,TE,PHI,WAS,1,Lincoln Financial Field,"Philadelphia, Pa.",Outdoor,Grass,Sunny,79.0,49,4,W
6519,2019090806,20190908061079,away,37.03,28.58,1.76,0.39,0.18,259.51,256.25,2558037,Chase Roullier,73,2019,29,2,10:49:00,WAS,1,10,WAS,0,10,2561000,SINGLEBACK,"1 RB, 2 TE, 2 WR",8,"4 DL, 3 LB, 4 DB",right,2019-09-08T17:52:35.000Z,2019-09-08T17:52:34.000Z,6-4,312,08/23/1993,Wyoming,C,PHI,WAS,1,Lincoln Financial Field,"Philadelphia, Pa.",Outdoor,Grass,Sunny,79.0,49,4,W
6520,2019090806,20190908061079,away,33.57,30.38,3.99,4.03,0.38,61.72,38.21,2561000,Derrius Guice,29,2019,29,2,10:49:00,WAS,1,10,WAS,0,10,2561000,SINGLEBACK,"1 RB, 2 TE, 2 WR",8,"4 DL, 3 LB, 4 DB",right,2019-09-08T17:52:35.000Z,2019-09-08T17:52:34.000Z,5-11,225,06/21/1997,LSU,RB,PHI,WAS,1,Lincoln Financial Field,"Philadelphia, Pa.",Outdoor,Grass,Sunny,79.0,49,4,W
6521,2019090806,20190908061079,away,41.2,12.19,4.08,1.43,0.4,68.83,75.14,2562489,Terry McLaurin,17,2019,29,2,10:49:00,WAS,1,10,WAS,0,10,2561000,SINGLEBACK,"1 RB, 2 TE, 2 WR",8,"4 DL, 3 LB, 4 DB",right,2019-09-08T17:52:35.000Z,2019-09-08T17:52:34.000Z,6-0,210,09/15/1995,Ohio State,WR,PHI,WAS,1,Lincoln Financial Field,"Philadelphia, Pa.",Outdoor,Grass,Sunny,79.0,49,4,W
6522,2019090806,20190908061079,away,36.73,27.69,2.18,3.58,0.21,92.33,289.31,2562577,Kelvin Harmon,13,2019,29,2,10:49:00,WAS,1,10,WAS,0,10,2561000,SINGLEBACK,"1 RB, 2 TE, 2 WR",8,"4 DL, 3 LB, 4 DB",right,2019-09-08T17:52:35.000Z,2019-09-08T17:52:34.000Z,6-2,213,12/15/1996,North Carolina State,WR,PHI,WAS,1,Lincoln Financial Field,"Philadelphia, Pa.",Outdoor,Grass,Sunny,79.0,49,4,W
6523,2019090806,20190908061079,home,53.61,25.47,2.88,3.03,0.27,273.69,317.57,79848,Malcolm Jenkins,27,2019,29,2,10:49:00,WAS,1,10,WAS,0,10,2561000,SINGLEBACK,"1 RB, 2 TE, 2 WR",8,"4 DL, 3 LB, 4 DB",right,2019-09-08T17:52:35.000Z,2019-09-08T17:52:34.000Z,6-0,204,12/20/1987,Ohio State,SS,PHI,WAS,1,Lincoln Financial Field,"Philadelphia, Pa.",Outdoor,Grass,Sunny,79.0,49,4,W
6524,2019090806,20190908061079,home,39.84,29.93,2.7,3.37,0.28,263.01,346.18,2532800,Nigel Bradham,53,2019,29,2,10:49:00,WAS,1,10,WAS,0,10,2561000,SINGLEBACK,"1 RB, 2 TE, 2 WR",8,"4 DL, 3 LB, 4 DB",right,2019-09-08T17:52:35.000Z,2019-09-08T17:52:34.000Z,6-2,241,09/04/1989,Florida State,OLB,PHI,WAS,1,Lincoln Financial Field,"Philadelphia, Pa.",Outdoor,Grass,Sunny,79.0,49,4,W
6525,2019090806,20190908061079,home,41.17,32.39,3.23,1.67,0.31,277.45,338.81,2532804,Zach Brown,52,2019,29,2,10:49:00,WAS,1,10,WAS,0,10,2561000,SINGLEBACK,"1 RB, 2 TE, 2 WR",8,"4 DL, 3 LB, 4 DB",right,2019-09-08T17:52:35.000Z,2019-09-08T17:52:34.000Z,6-1,251,10/23/1989,North Carolina,ILB,PHI,WAS,1,Lincoln Financial Field,"Philadelphia, Pa.",Outdoor,Grass,Sunny,79.0,49,4,W
6526,2019090806,20190908061079,home,38.84,33.09,1.96,0.33,0.2,245.12,192.47,2532825,Vinny Curry,75,2019,29,2,10:49:00,WAS,1,10,WAS,0,10,2561000,SINGLEBACK,"1 RB, 2 TE, 2 WR",8,"4 DL, 3 LB, 4 DB",right,2019-09-08T17:52:35.000Z,2019-09-08T17:52:34.000Z,6-3,279,06/30/1988,Marshall,DE,PHI,WAS,1,Lincoln Financial Field,"Philadelphia, Pa.",Outdoor,Grass,Sunny,79.0,49,4,W
6527,2019090806,20190908061079,home,39.48,32.77,1.94,2.66,0.2,178.19,218.96,2534832,Rodney McLeod,23,2019,29,2,10:49:00,WAS,1,10,WAS,0,10,2561000,SINGLEBACK,"1 RB, 2 TE, 2 WR",8,"4 DL, 3 LB, 4 DB",right,2019-09-08T17:52:35.000Z,2019-09-08T17:52:34.000Z,5-10,195,06/23/1990,Virginia,FS,PHI,WAS,1,Lincoln Financial Field,"Philadelphia, Pa.",Outdoor,Grass,Sunny,79.0,49,4,W
6528,2019090806,20190908061079,home,36.46,28.25,3.26,1.11,0.33,259.38,273.78,2543461,Timmy Jernigan,93,2019,29,2,10:49:00,WAS,1,10,WAS,0,10,2561000,SINGLEBACK,"1 RB, 2 TE, 2 WR",8,"4 DL, 3 LB, 4 DB",right,2019-09-08T17:52:35.000Z,2019-09-08T17:52:34.000Z,6-2,295,09/24/1992,Florida State,DT,PHI,WAS,1,Lincoln Financial Field,"Philadelphia, Pa.",Outdoor,Grass,Sunny,79.0,49,4,W
6529,2019090806,20190908061079,home,49.77,11.46,2.19,1.99,0.22,333.93,68.06,2552689,Ronald Darby,21,2019,29,2,10:49:00,WAS,1,10,WAS,0,10,2561000,SINGLEBACK,"1 RB, 2 TE, 2 WR",8,"4 DL, 3 LB, 4 DB",right,2019-09-08T17:52:35.000Z,2019-09-08T17:52:34.000Z,5-11,193,01/02/1994,Florida State,CB,PHI,WAS,1,Lincoln Financial Field,"Philadelphia, Pa.",Outdoor,Grass,Sunny,79.0,49,4,W
6530,2019090806,20190908061079,home,39.59,31.75,0.9,0.84,0.09,275.99,125.68,2555514,Hassan Ridgeway,98,2019,29,2,10:49:00,WAS,1,10,WAS,0,10,2561000,SINGLEBACK,"1 RB, 2 TE, 2 WR",8,"4 DL, 3 LB, 4 DB",right,2019-09-08T17:52:35.000Z,2019-09-08T17:52:34.000Z,6-3,305,11/02/1994,Texas,DT,PHI,WAS,1,Lincoln Financial Field,"Philadelphia, Pa.",Outdoor,Grass,Sunny,79.0,49,4,W
6531,2019090806,20190908061079,home,39.55,37.43,3.64,1.19,0.36,223.67,237.25,2558168,Rasul Douglas,32,2019,29,2,10:49:00,WAS,1,10,WAS,0,10,2561000,SINGLEBACK,"1 RB, 2 TE, 2 WR",8,"4 DL, 3 LB, 4 DB",right,2019-09-08T17:52:35.000Z,2019-09-08T17:52:34.000Z,6-2,209,08/29/1995,West Virginia,CB,PHI,WAS,1,Lincoln Financial Field,"Philadelphia, Pa.",Outdoor,Grass,Sunny,79.0,49,4,W
6532,2019090806,20190908061079,home,39.61,25.23,4.07,2.51,0.39,322.12,343.62,2558175,Nate Gerry,47,2019,29,2,10:49:00,WAS,1,10,WAS,0,10,2561000,SINGLEBACK,"1 RB, 2 TE, 2 WR",8,"4 DL, 3 LB, 4 DB",right,2019-09-08T17:52:35.000Z,2019-09-08T17:52:34.000Z,6-2,230,02/23/1995,Nebraska,LB,PHI,WAS,1,Lincoln Financial Field,"Philadelphia, Pa.",Outdoor,Grass,Sunny,79.0,49,4,W
6533,2019090806,20190908061079,home,37.06,27.72,3.11,2.15,0.31,274.39,306.05,2560889,Josh Sweat,94,2019,29,2,10:49:00,WAS,1,10,WAS,0,10,2561000,SINGLEBACK,"1 RB, 2 TE, 2 WR",8,"4 DL, 3 LB, 4 DB",right,2019-09-08T17:52:35.000Z,2019-09-08T17:52:34.000Z,6-5,253,03/29/1997,Florida State,DE,PHI,WAS,1,Lincoln Financial Field,"Philadelphia, Pa.",Outdoor,Grass,Sunny,79.0,49,4,W
