,GameId,PlayId,Team,X,Y,S,A,Dis,Orientation,Dir,NflId,DisplayName,JerseyNumber,Season,YardLine,Quarter,GameClock,PossessionTeam,Down,Distance,FieldPosition,HomeScoreBeforePlay,VisitorScoreBeforePlay,NflIdRusher,OffenseFormation,OffensePersonnel,DefendersInTheBox,DefensePersonnel,PlayDirection,TimeHandoff,TimeSnap,PlayerHeight,PlayerWeight,PlayerBirthDate,PlayerCollegeName,Position,HomeTeamAbbr,VisitorTeamAbbr,Week,Stadium,Location,StadiumType,Turf,GameWeather,Temperature,Humidity,WindSpeed,WindDirection
69938,2019100608,20191006081674,away,57.24,28.37,2.65,1.69,0.27,225.24,178.43,496796,Jerry Hughes,55,2019,48,2,01:40:00,TEN,2,1,TEN,0,7,2495469,SHOTGUN,"1 RB, 1 TE, 3 WR",5,"3 DL, 3 LB, 5 DB",right,2019-10-06T18:11:10.000Z,2019-10-06T18:11:09.000Z,6-2,254,08/13/1988,Texas Christian,DE,TEN,BUF,5,Nissan Stadium,"Nashville, TN",Outdoors,Grass,Cloudy,77.0,71,13,S
69939,2019100608,20191006081674,away,58.68,23.85,1.51,0.95,0.15,305.22,40.56,2506268,Lorenzo Alexander,57,2019,48,2,01:40:00,TEN,2,1,TEN,0,7,2495469,SHOTGUN,"1 RB, 1 TE, 3 WR",5,"3 DL, 3 LB, 5 DB",right,2019-10-06T18:11:10.000Z,2019-10-06T18:11:09.000Z,6-1,245,05/31/1983,California,OLB,TEN,BUF,5,Nissan Stadium,"Nashville, TN",Outdoors,Grass,Cloudy,77.0,71,13,S
69940,2019100608,20191006081674,away,75.99,31.66,3.57,1.26,0.35,308.13,40.36,2539240,Micah Hyde,23,2019,48,2,01:40:00,TEN,2,1,TEN,0,7,2495469,SHOTGUN,"1 RB, 1 TE, 3 WR",5,"3 DL, 3 LB, 5 DB",right,2019-10-06T18:11:10.000Z,2019-10-06T18:11:09.000Z,6-0,197,12/31/1990,Iowa,SS,TEN,BUF,5,Nissan Stadium,"Nashville, TN",Outdoors,Grass,Cloudy,77.0,71,13,S
69941,2019100608,20191006081674,away,72.51,16.42,3.82,1.01,0.38,250.9,105.71,2539290,Jordan Poyer,21,2019,48,2,01:40:00,TEN,2,1,TEN,0,7,2495469,SHOTGUN,"1 RB, 1 TE, 3 WR",5,"3 DL, 3 LB, 5 DB",right,2019-10-06T18:11:10.000Z,2019-10-06T18:11:09.000Z,6-0,191,04/25/1991,Oregon State,FS,TEN,BUF,5,Nissan Stadium,"Nashville, TN",Outdoors,Grass,Cloudy,77.0,71,13,S
69942,2019100608,20191006081674,away,56.55,17.48,2.04,1.62,0.2,337.69,237.81,2543503,Trent Murphy,93,2019,48,2,01:40:00,TEN,2,1,TEN,0,7,2495469,SHOTGUN,"1 RB, 1 TE, 3 WR",5,"3 DL, 3 LB, 5 DB",right,2019-10-06T18:11:10.000Z,2019-10-06T18:11:09.000Z,6-6,259,12/22/1990,Stanford,DE,TEN,BUF,5,Nissan Stadium,"Nashville, TN",Outdoors,Grass,Cloudy,77.0,71,13,S
69943,2019100608,20191006081674,away,61.39,33.59,3.36,1.52,0.34,246.9,120.37,2552261,Kevin Johnson,29,2019,48,2,01:40:00,TEN,2,1,TEN,0,7,2495469,SHOTGUN,"1 RB, 1 TE, 3 WR",5,"3 DL, 3 LB, 5 DB",right,2019-10-06T18:11:10.000Z,2019-10-06T18:11:09.000Z,6-0,185,08/05/1992,Wake Forest,CB,TEN,BUF,5,Nissan Stadium,"Nashville, TN",Outdoors,Grass,Cloudy,77.0,71,13,S
69944,2019100608,20191006081674,away,60.05,10.28,2.11,1.63,0.2,312.86,120.61,2557867,Tre'Davious White,27,2019,48,2,01:40:00,TEN,2,1,TEN,0,7,2495469,SHOTGUN,"1 RB, 1 TE, 3 WR",5,"3 DL, 3 LB, 5 DB",right,2019-10-06T18:11:10.000Z,2019-10-06T18:11:09.000Z,5-11,192,01/16/1995,Louisiana State,CB,TEN,BUF,5,Nissan Stadium,"Nashville, TN",Outdoors,Grass,Cloudy,77.0,71,13,S
69945,2019100608,20191006081674,away,61.72,21.48,1.3,2.82,0.12,263.33,213.39,2557969,Matt Milano,58,2019,48,2,01:40:00,TEN,2,1,TEN,0,7,2495469,SHOTGUN,"1 RB, 1 TE, 3 WR",5,"3 DL, 3 LB, 5 DB",right,2019-10-06T18:11:10.000Z,2019-10-06T18:11:09.000Z,6-0,223,07/28/1994,Boston College,OLB,TEN,BUF,5,Nissan Stadium,"Nashville, TN",Outdoors,Grass,Cloudy,77.0,71,13,S
69946,2019100608,20191006081674,away,61.18,24.54,2.07,2.02,0.2,265.78,187.89,2560713,Tremaine Edmunds,49,2019,48,2,01:40:00,TEN,2,1,TEN,0,7,2495469,SHOTGUN,"1 RB, 1 TE, 3 WR",5,"3 DL, 3 LB, 5 DB",right,2019-10-06T18:11:10.000Z,2019-10-06T18:11:09.000Z,6-5,250,05/02/1998,Virginia Tech,LB,TEN,BUF,5,Nissan Stadium,"Nashville, TN",Outdoors,Grass,Cloudy,77.0,71,13,S
69947,2019100608,20191006081674,away,62.33,42.27,1.09,1.56,0.1,271.86,168.1,2560914,Levi Wallace,39,2019,48,2,01:40:00,TEN,2,1,TEN,0,7,2495469,SHOTGUN,"1 RB, 1 TE, 3 WR",5,"3 DL, 3 LB, 5 DB",right,2019-10-06T18:11:10.000Z,2019-10-06T18:11:09.000Z,6-0,179,06/12/1995,Alabama,CB,TEN,BUF,5,Nissan Stadium,"Nashville, TN",Outdoors,Grass,Cloudy,77.0,71,13,S
69948,2019100608,20191006081674,away,57.12,26.53,1.78,0.16,0.2,181.75,223.41,2562322,Ed Oliver,91,2019,48,2,01:40:00,TEN,2,1,TEN,0,7,2495469,SHOTGUN,"1 RB, 1 TE, 3 WR",5,"3 DL, 3 LB, 5 DB",right,2019-10-06T18:11:10.000Z,2019-10-06T18:11:09.000Z,6-1,287,12/12/1997,Houston,DT,TEN,BUF,5,Nissan Stadium,"Nashville, TN",Outdoors,Grass,Cloudy,77.0,71,13,S
69949,2019100608,20191006081674,home,56.49,24.05,3.35,1.56,0.36,131.41,147.14,497048,Rodger Saffold,76,2019,48,2,01:40:00,TEN,2,1,TEN,0,7,2495469,SHOTGUN,"1 RB, 1 TE, 3 WR",5,"3 DL, 3 LB, 5 DB",right,2019-10-06T18:11:10.000Z,2019-10-06T18:11:09.000Z,6-5,325,06/06/1988,Indiana,G,TEN,BUF,5,Nissan Stadium,"Nashville, TN",Outdoors,Grass,Cloudy,77.0,71,13,S
69950,2019100608,20191006081674,home,53.74,25.38,4.74,3.24,0.46,115.1,131.13,2495469,Dion Lewis,33,2019,48,2,01:40:00,TEN,2,1,TEN,0,7,2495469,SHOTGUN,"1 RB, 1 TE, 3 WR",5,"3 DL, 3 LB, 5 DB",right,2019-10-06T18:11:10.000Z,2019-10-06T18:11:09.000Z,5-8,195,09/27/1990,Pittsburgh,RB,TEN,BUF,5,Nissan Stadium,"Nashville, TN",Outdoors,Grass,Cloudy,77.0,71,13,S
69951,2019100608,20191006081674,home,56.9,18.34,1.59,1.79,0.16,194.68,173.53,2495966,Delanie Walker,82,2019,48,2,01:40:00,TEN,2,1,TEN,0,7,2495469,SHOTGUN,"1 RB, 1 TE, 3 WR",5,"3 DL, 3 LB, 5 DB",right,2019-10-06T18:11:10.000Z,2019-10-06T18:11:09.000Z,6-2,248,08/12/1984,Central Missouri,TE,TEN,BUF,5,Nissan Stadium,"Nashville, TN",Outdoors,Grass,Cloudy,77.0,71,13,S
69952,2019100608,20191006081674,home,57.06,25.76,0.34,1.64,0.03,334.05,68.83,2532883,Ben Jones,60,2019,48,2,01:40:00,TEN,2,1,TEN,0,7,2495469,SHOTGUN,"1 RB, 1 TE, 3 WR",5,"3 DL, 3 LB, 5 DB",right,2019-10-06T18:11:10.000Z,2019-10-06T18:11:09.000Z,6-3,308,07/02/1989,Georgia,C,TEN,BUF,5,Nissan Stadium,"Nashville, TN",Outdoors,Grass,Cloudy,77.0,71,13,S
69953,2019100608,20191006081674,home,56.22,26.92,0.53,1.12,0.07,27.21,136.41,2550132,Taylor Lewan,77,2019,48,2,01:40:00,TEN,2,1,TEN,0,7,2495469,SHOTGUN,"1 RB, 1 TE, 3 WR",5,"3 DL, 3 LB, 5 DB",right,2019-10-06T18:11:10.000Z,2019-10-06T18:11:09.000Z,6-7,309,07/22/1991,Michigan,T,TEN,BUF,5,Nissan Stadium,"Nashville, TN",Outdoors,Grass,Cloudy,77.0,71,13,S
69954,2019100608,20191006081674,home,52.79,25.06,0.77,1.77,0.07,47.23,21.44,2552466,Marcus Mariota,8,2019,48,2,01:40:00,TEN,2,1,TEN,0,7,2495469,SHOTGUN,"1 RB, 1 TE, 3 WR",5,"3 DL, 3 LB, 5 DB",right,2019-10-06T18:11:10.000Z,2019-10-06T18:11:09.000Z,6-4,222,10/30/1993,Oregon,QB,TEN,BUF,5,Nissan Stadium,"Nashville, TN",Outdoors,Grass,Cloudy,77.0,71,13,S
69955,2019100608,20191006081674,home,57.3,34.04,4.95,3.31,0.48,102.35,120.47,2553895,Adam Humphries,10,2019,48,2,01:40:00,TEN,2,1,TEN,0,7,2495469,SHOTGUN,"1 RB, 1 TE, 3 WR",5,"3 DL, 3 LB, 5 DB",right,2019-10-06T18:11:10.000Z,2019-10-06T18:11:09.000Z,5-11,195,06/24/1993,Clemson,WR,TEN,BUF,5,Nissan Stadium,"Nashville, TN",Outdoors,Grass,Cloudy,77.0,71,13,S
69956,2019100608,20191006081674,home,58.02,23.3,2.2,1.96,0.22,69.68,60.39,2555279,Jack Conklin,78,2019,48,2,01:40:00,TEN,2,1,TEN,0,7,2495469,SHOTGUN,"1 RB, 1 TE, 3 WR",5,"3 DL, 3 LB, 5 DB",right,2019-10-06T18:11:10.000Z,2019-10-06T18:11:09.000Z,6-6,308,08/17/1994,Michigan State,T,TEN,BUF,5,Nissan Stadium,"Nashville, TN",Outdoors,Grass,Cloudy,77.0,71,13,S
69957,2019100608,20191006081674,home,57.74,10.72,4.38,2.22,0.42,91.11,107.2,2557848,Corey Davis,84,2019,48,2,01:40:00,TEN,2,1,TEN,0,7,2495469,SHOTGUN,"1 RB, 1 TE, 3 WR",5,"3 DL, 3 LB, 5 DB",right,2019-10-06T18:11:10.000Z,2019-10-06T18:11:09.000Z,6-3,209,01/11/1995,Western Michigan,WR,TEN,BUF,5,Nissan Stadium,"Nashville, TN",Outdoors,Grass,Cloudy,77.0,71,13,S
69958,2019100608,20191006081674,home,58.4,42.13,4.51,1.97,0.44,86.34,112.22,2562238,A.J. Brown,11,2019,48,2,01:40:00,TEN,2,1,TEN,0,7,2495469,SHOTGUN,"1 RB, 1 TE, 3 WR",5,"3 DL, 3 LB, 5 DB",right,2019-10-06T18:11:10.000Z,2019-10-06T18:11:09.000Z,6-1,226,06/30/1997,Mississippi,WR,TEN,BUF,5,Nissan Stadium,"Nashville, TN",Outdoors,Grass,Cloudy,77.0,71,13,S
69959,2019100608,20191006081674,home,57.97,24.41,1.95,0.57,0.2,86.75,51.01,2562641,Nate Davis,64,2019,48,2,01:40:00,TEN,2,1,TEN,0,7,2495469,SHOTGUN,"1 RB, 1 TE, 3 WR",5,"3 DL, 3 LB, 5 DB",right,2019-10-06T18:11:10.000Z,2019-10-06T18:11:09.000Z,6-3,316,09/23/1996,North Carolina-Charlotte,G,TEN,BUF,5,Nissan Stadium,"Nashville, TN",Outdoors,Grass,Cloudy,77.0,71,13,S
