,GameId,PlayId,Team,X,Y,S,A,Dis,Orientation,Dir,NflId,DisplayName,JerseyNumber,Season,YardLine,Quarter,GameClock,PossessionTeam,Down,Distance,FieldPosition,HomeScoreBeforePlay,VisitorScoreBeforePlay,NflIdRusher,OffenseFormation,OffensePersonnel,DefendersInTheBox,DefensePersonnel,PlayDirection,TimeHandoff,TimeSnap,PlayerHeight,PlayerWeight,PlayerBirthDate,PlayerCollegeName,Position,HomeTeamAbbr,VisitorTeamAbbr,Week,Stadium,Location,StadiumType,Turf,GameWeather,Temperature,Humidity,WindSpeed,WindDirection
33638,2019092202,20190922020898,away,15.77,28.82,3.81,2.05,0.38,98.69,89.28,382,Joe Flacco,5,2019,1,2,14:21:00,DEN,2,1,GB,7,0,2559947,SINGLEBACK,"1 RB, 1 TE, 3 WR",6,"2 DL, 3 LB, 6 DB",left,2019-09-22T17:38:14.000Z,2019-09-22T17:38:13.000Z,6-6,245,01/16/1985,Delaware,QB,GB,DEN,3,Lambeau Field,"Green Bay, WI",Outdoor,SISGrass,Rain,69.0,93,7,S-SW
33639,2019092202,20190922020898,away,10.31,14.26,4.38,3.05,0.43,230.89,199.4,497322,Emmanuel Sanders,10,2019,1,2,14:21:00,DEN,2,1,GB,7,0,2559947,SINGLEBACK,"1 RB, 1 TE, 3 WR",6,"2 DL, 3 LB, 6 DB",left,2019-09-22T17:38:14.000Z,2019-09-22T17:38:13.000Z,5-11,180,03/17/1987,Southern Methodist,WR,GB,DEN,3,Lambeau Field,"Green Bay, WI",Outdoor,SISGrass,Rain,69.0,93,7,S-SW
33640,2019092202,20190922020898,away,11.62,28.82,1.53,1.38,0.16,242.38,172.27,2533454,Ronald Leary,65,2019,1,2,14:21:00,DEN,2,1,GB,7,0,2559947,SINGLEBACK,"1 RB, 1 TE, 3 WR",6,"2 DL, 3 LB, 6 DB",left,2019-09-22T17:38:14.000Z,2019-09-22T17:38:13.000Z,6-3,320,04/29/1989,Memphis,G,GB,DEN,3,Lambeau Field,"Green Bay, WI",Outdoor,SISGrass,Rain,69.0,93,7,S-SW
33641,2019092202,20190922020898,away,11.7,27.76,2.32,0.82,0.23,245.74,170.94,2555133,Connor McGovern,60,2019,1,2,14:21:00,DEN,2,1,GB,7,0,2559947,SINGLEBACK,"1 RB, 1 TE, 3 WR",6,"2 DL, 3 LB, 6 DB",left,2019-09-22T17:38:14.000Z,2019-09-22T17:38:13.000Z,6-4,306,04/27/1993,Missouri,G,GB,DEN,3,Lambeau Field,"Green Bay, WI",Outdoor,SISGrass,Rain,69.0,93,7,S-SW
33642,2019092202,20190922020898,away,12.25,23.79,2.76,0.77,0.28,200.69,176.46,2558014,Garett Bolles,72,2019,1,2,14:21:00,DEN,2,1,GB,7,0,2559947,SINGLEBACK,"1 RB, 1 TE, 3 WR",6,"2 DL, 3 LB, 6 DB",left,2019-09-22T17:38:14.000Z,2019-09-22T17:38:13.000Z,6-5,300,05/27/1992,Utah,T,GB,DEN,3,Lambeau Field,"Green Bay, WI",Outdoor,SISGrass,Rain,69.0,93,7,S-SW
33643,2019092202,20190922020898,away,10.79,30.48,2.37,0.85,0.26,235.36,220.39,2559295,Elijah Wilkinson,68,2019,1,2,14:21:00,DEN,2,1,GB,7,0,2559947,SINGLEBACK,"1 RB, 1 TE, 3 WR",6,"2 DL, 3 LB, 6 DB",left,2019-09-22T17:38:14.000Z,2019-09-22T17:38:13.000Z,6-6,329,02/10/1995,Massachusetts,T,GB,DEN,3,Lambeau Field,"Green Bay, WI",Outdoor,SISGrass,Rain,69.0,93,7,S-SW
33644,2019092202,20190922020898,away,15.51,27.91,4.2,3.03,0.41,236.07,257.7,2559947,Phillip Lindsay,30,2019,1,2,14:21:00,DEN,2,1,GB,7,0,2559947,SINGLEBACK,"1 RB, 1 TE, 3 WR",6,"2 DL, 3 LB, 6 DB",left,2019-09-22T17:38:14.000Z,2019-09-22T17:38:13.000Z,5-8,190,07/24/1994,Colorado,RB,GB,DEN,3,Lambeau Field,"Green Bay, WI",Outdoor,SISGrass,Rain,69.0,93,7,S-SW
33645,2019092202,20190922020898,away,10.35,7.43,2.93,1.43,0.3,271.28,243.73,2560888,Courtland Sutton,14,2019,1,2,14:21:00,DEN,2,1,GB,7,0,2559947,SINGLEBACK,"1 RB, 1 TE, 3 WR",6,"2 DL, 3 LB, 6 DB",left,2019-09-22T17:38:14.000Z,2019-09-22T17:38:13.000Z,6-4,216,10/10/1995,Southern Methodist,WR,GB,DEN,3,Lambeau Field,"Green Bay, WI",Outdoor,SISGrass,Rain,69.0,93,7,S-SW
33646,2019092202,20190922020898,away,10.2,32.97,2.45,3.17,0.25,285.12,286.51,2561002,DaeSean Hamilton,17,2019,1,2,14:21:00,DEN,2,1,GB,7,0,2559947,SINGLEBACK,"1 RB, 1 TE, 3 WR",6,"2 DL, 3 LB, 6 DB",left,2019-09-22T17:38:14.000Z,2019-09-22T17:38:13.000Z,6-1,206,03/10/1995,Penn State,WR,GB,DEN,3,Lambeau Field,"Green Bay, WI",Outdoor,SISGrass,Rain,69.0,93,7,S-SW
33647,2019092202,20190922020898,away,11.54,35.49,1.46,4.39,0.13,51.46,61.06,2562383,Noah Fant,87,2019,1,2,14:21:00,DEN,2,1,GB,7,0,2559947,SINGLEBACK,"1 RB, 1 TE, 3 WR",6,"2 DL, 3 LB, 6 DB",left,2019-09-22T17:38:14.000Z,2019-09-22T17:38:13.000Z,6-4,249,11/20/1997,Iowa,TE,GB,DEN,3,Lambeau Field,"Green Bay, WI",Outdoor,SISGrass,Rain,69.0,93,7,S-SW
33648,2019092202,20190922020898,away,11.84,25.63,2.3,1.34,0.23,173.21,161.64,2562714,Dalton Risner,66,2019,1,2,14:21:00,DEN,2,1,GB,7,0,2559947,SINGLEBACK,"1 RB, 1 TE, 3 WR",6,"2 DL, 3 LB, 6 DB",left,2019-09-22T17:38:14.000Z,2019-09-22T17:38:13.000Z,6-5,312,07/13/1995,Kansas State,G,GB,DEN,3,Lambeau Field,"Green Bay, WI",Outdoor,SISGrass,Rain,69.0,93,7,S-SW
33649,2019092202,20190922020898,home,6.95,34.01,1.42,1.6,0.15,109.04,186.66,2506789,Tramon Williams,38,2019,1,2,14:21:00,DEN,2,1,GB,7,0,2559947,SINGLEBACK,"1 RB, 1 TE, 3 WR",6,"2 DL, 3 LB, 6 DB",left,2019-09-22T17:38:14.000Z,2019-09-22T17:38:13.000Z,5-11,192,03/16/1983,Louisiana Tech,CB,GB,DEN,3,Lambeau Field,"Green Bay, WI",Outdoor,SISGrass,Rain,69.0,93,7,S-SW
33650,2019092202,20190922020898,home,10.62,30.03,2.42,0.67,0.24,60.38,194.25,2552276,Preston Smith,91,2019,1,2,14:21:00,DEN,2,1,GB,7,0,2559947,SINGLEBACK,"1 RB, 1 TE, 3 WR",6,"2 DL, 3 LB, 6 DB",left,2019-09-22T17:38:14.000Z,2019-09-22T17:38:13.000Z,6-5,265,11/17/1992,Mississippi State,OLB,GB,DEN,3,Lambeau Field,"Green Bay, WI",Outdoor,SISGrass,Rain,69.0,93,7,S-SW
33651,2019092202,20190922020898,home,12.62,25.14,2.37,1.96,0.24,60.38,117.79,2552279,Za'Darius Smith,55,2019,1,2,14:21:00,DEN,2,1,GB,7,0,2559947,SINGLEBACK,"1 RB, 1 TE, 3 WR",6,"2 DL, 3 LB, 6 DB",left,2019-09-22T17:38:14.000Z,2019-09-22T17:38:13.000Z,6-4,272,09/08/1992,Kentucky,OLB,GB,DEN,3,Lambeau Field,"Green Bay, WI",Outdoor,SISGrass,Rain,69.0,93,7,S-SW
33652,2019092202,20190922020898,home,12.04,35.74,2.45,1.94,0.25,191.91,102.16,2552385,Adrian Amos,31,2019,1,2,14:21:00,DEN,2,1,GB,7,0,2559947,SINGLEBACK,"1 RB, 1 TE, 3 WR",6,"2 DL, 3 LB, 6 DB",left,2019-09-22T17:38:14.000Z,2019-09-22T17:38:13.000Z,6-0,214,04/29/1993,Penn State,FS,GB,DEN,3,Lambeau Field,"Green Bay, WI",Outdoor,SISGrass,Rain,69.0,93,7,S-SW
33653,2019092202,20190922020898,home,9.19,28.37,1.51,2.02,0.16,82.4,167.54,2555161,Blake Martinez,50,2019,1,2,14:21:00,DEN,2,1,GB,7,0,2559947,SINGLEBACK,"1 RB, 1 TE, 3 WR",6,"2 DL, 3 LB, 6 DB",left,2019-09-22T17:38:14.000Z,2019-09-22T17:38:13.000Z,6-2,237,01/09/1994,Stanford,ILB,GB,DEN,3,Lambeau Field,"Green Bay, WI",Outdoor,SISGrass,Rain,69.0,93,7,S-SW
33654,2019092202,20190922020898,home,11.28,28.59,1.85,1.21,0.2,100.76,167.98,2555274,Dean Lowry,94,2019,1,2,14:21:00,DEN,2,1,GB,7,0,2559947,SINGLEBACK,"1 RB, 1 TE, 3 WR",6,"2 DL, 3 LB, 6 DB",left,2019-09-22T17:38:14.000Z,2019-09-22T17:38:13.000Z,6-6,296,06/09/1994,Northwestern,DE,GB,DEN,3,Lambeau Field,"Green Bay, WI",Outdoor,SISGrass,Rain,69.0,93,7,S-SW
33655,2019092202,20190922020898,home,11.36,27.56,1.39,1.72,0.14,85.91,174.0,2555282,Kenny Clark,97,2019,1,2,14:21:00,DEN,2,1,GB,7,0,2559947,SINGLEBACK,"1 RB, 1 TE, 3 WR",6,"2 DL, 3 LB, 6 DB",left,2019-09-22T17:38:14.000Z,2019-09-22T17:38:13.000Z,6-3,314,10/04/1995,UCLA,NT,GB,DEN,3,Lambeau Field,"Green Bay, WI",Outdoor,SISGrass,Rain,69.0,93,7,S-SW
33656,2019092202,20190922020898,home,9.1,34.41,1.18,1.48,0.11,75.33,343.46,2555545,Will Redmond,25,2019,1,2,14:21:00,DEN,2,1,GB,7,0,2559947,SINGLEBACK,"1 RB, 1 TE, 3 WR",6,"2 DL, 3 LB, 6 DB",left,2019-09-22T17:38:14.000Z,2019-09-22T17:38:13.000Z,5-11,186,12/28/1993,Mississippi State,CB,GB,DEN,3,Lambeau Field,"Green Bay, WI",Outdoor,SISGrass,Rain,69.0,93,7,S-SW
33657,2019092202,20190922020898,home,9.3,8.63,2.29,2.68,0.21,148.3,239.29,2557996,Kevin King,20,2019,1,2,14:21:00,DEN,2,1,GB,7,0,2559947,SINGLEBACK,"1 RB, 1 TE, 3 WR",6,"2 DL, 3 LB, 6 DB",left,2019-09-22T17:38:14.000Z,2019-09-22T17:38:13.000Z,6-3,200,05/05/1995,Washington,CB,GB,DEN,3,Lambeau Field,"Green Bay, WI",Outdoor,SISGrass,Rain,69.0,93,7,S-SW
33658,2019092202,20190922020898,home,9.4,14.42,3.45,4.66,0.33,93.45,182.95,2560952,Jaire Alexander,23,2019,1,2,14:21:00,DEN,2,1,GB,7,0,2559947,SINGLEBACK,"1 RB, 1 TE, 3 WR",6,"2 DL, 3 LB, 6 DB",left,2019-09-22T17:38:14.000Z,2019-09-22T17:38:13.000Z,5-10,196,02/09/1997,Louisville,CB,GB,DEN,3,Lambeau Field,"Green Bay, WI",Outdoor,SISGrass,Rain,69.0,93,7,S-SW
33659,2019092202,20190922020898,home,11.67,22.98,3.2,1.47,0.31,85.42,138.57,2562724,Darnell Savage,26,2019,1,2,14:21:00,DEN,2,1,GB,7,0,2559947,SINGLEBACK,"1 RB, 1 TE, 3 WR",6,"2 DL, 3 LB, 6 DB",left,2019-09-22T17:38:14.000Z,2019-09-22T17:38:13.000Z,5-11,200,07/30/1997,Maryland,DB,GB,DEN,3,Lambeau Field,"Green Bay, WI",Outdoor,SISGrass,Rain,69.0,93,7,S-SW
