,GameId,PlayId,Team,X,Y,S,A,Dis,Orientation,Dir,NflId,DisplayName,JerseyNumber,Season,YardLine,Quarter,GameClock,PossessionTeam,Down,Distance,FieldPosition,HomeScoreBeforePlay,VisitorScoreBeforePlay,NflIdRusher,OffenseFormation,OffensePersonnel,DefendersInTheBox,DefensePersonnel,PlayDirection,TimeHandoff,TimeSnap,PlayerHeight,PlayerWeight,PlayerBirthDate,PlayerCollegeName,Position,HomeTeamAbbr,VisitorTeamAbbr,Week,Stadium,Location,StadiumType,Turf,GameWeather,Temperature,Humidity,WindSpeed,WindDirection
25432,2019091509,20190915092746,away,55.88,34.8,1.73,1.88,0.16,61.67,20.46,2495435,Tyron Smith,77,2019,47,3,04:05:00,DAL,1,10,DAL,14,21,2562699,SHOTGUN,"1 RB, 1 TE, 3 WR",6,"2 DL, 4 LB, 5 DB",right,2019-09-15T19:02:35.000Z,2019-09-15T19:02:34.000Z,6-5,320,12/12/1990,Southern California,T,WAS,DAL,2,FedExField,"Landover, MD",Outdoor,Grass,Sunny,80.0,46,7,WNW
25433,2019091509,20190915092746,away,58.09,22.66,5.42,2.92,0.52,85.04,77.95,2495448,Randall Cobb,18,2019,47,3,04:05:00,DAL,1,10,DAL,14,21,2562699,SHOTGUN,"1 RB, 1 TE, 3 WR",6,"2 DL, 4 LB, 5 DB",right,2019-09-15T19:02:35.000Z,2019-09-15T19:02:34.000Z,5-10,192,08/22/1990,Kentucky,WR,WAS,DAL,2,FedExField,"Landover, MD",Outdoor,Grass,Sunny,80.0,46,7,WNW
25434,2019091509,20190915092746,away,59.31,38.29,4.64,1.77,0.46,92.73,92.8,2505629,Jason Witten,82,2019,47,3,04:05:00,DAL,1,10,DAL,14,21,2562699,SHOTGUN,"1 RB, 1 TE, 3 WR",6,"2 DL, 4 LB, 5 DB",right,2019-09-15T19:02:35.000Z,2019-09-15T19:02:34.000Z,6-6,263,05/06/1982,Tennessee,TE,WAS,DAL,2,FedExField,"Landover, MD",Outdoor,Grass,Sunny,80.0,46,7,WNW
25435,2019091509,20190915092746,away,56.43,30.82,1.08,0.9,0.12,153.25,348.39,2540161,Travis Frederick,72,2019,47,3,04:05:00,DAL,1,10,DAL,14,21,2562699,SHOTGUN,"1 RB, 1 TE, 3 WR",6,"2 DL, 4 LB, 5 DB",right,2019-09-15T19:02:35.000Z,2019-09-15T19:02:34.000Z,6-4,320,03/18/1991,Wisconsin,C,WAS,DAL,2,FedExField,"Landover, MD",Outdoor,Grass,Sunny,80.0,46,7,WNW
25436,2019091509,20190915092746,away,56.26,29.3,1.62,1.13,0.17,31.14,356.36,2543480,Zack Martin,70,2019,47,3,04:05:00,DAL,1,10,DAL,14,21,2562699,SHOTGUN,"1 RB, 1 TE, 3 WR",6,"2 DL, 4 LB, 5 DB",right,2019-09-15T19:02:35.000Z,2019-09-15T19:02:34.000Z,6-4,315,11/20/1990,Notre Dame,G,WAS,DAL,2,FedExField,"Landover, MD",Outdoor,Grass,Sunny,80.0,46,7,WNW
25437,2019091509,20190915092746,away,56.27,27.85,1.88,0.79,0.2,72.73,15.59,2553505,La'el Collins,71,2019,47,3,04:05:00,DAL,1,10,DAL,14,21,2562699,SHOTGUN,"1 RB, 1 TE, 3 WR",6,"2 DL, 4 LB, 5 DB",right,2019-09-15T19:02:35.000Z,2019-09-15T19:02:34.000Z,6-4,320,07/26/1993,Louisiana State,T,WAS,DAL,2,FedExField,"Landover, MD",Outdoor,Grass,Sunny,80.0,46,7,WNW
25438,2019091509,20190915092746,away,52.44,29.71,0.54,1.75,0.04,108.06,82.66,2555260,Dak Prescott,4,2019,47,3,04:05:00,DAL,1,10,DAL,14,21,2562699,SHOTGUN,"1 RB, 1 TE, 3 WR",6,"2 DL, 4 LB, 5 DB",right,2019-09-15T19:02:35.000Z,2019-09-15T19:02:34.000Z,6-2,238,07/29/1993,Mississippi State,QB,WAS,DAL,2,FedExField,"Landover, MD",Outdoor,Grass,Sunny,80.0,46,7,WNW
25439,2019091509,20190915092746,away,56.16,16.16,2.87,3.76,0.27,99.92,101.79,2560735,Michael Gallup,13,2019,47,3,04:05:00,DAL,1,10,DAL,14,21,2562699,SHOTGUN,"1 RB, 1 TE, 3 WR",6,"2 DL, 4 LB, 5 DB",right,2019-09-15T19:02:35.000Z,2019-09-15T19:02:34.000Z,6-1,200,03/04/1996,Colorado State,WR,WAS,DAL,2,FedExField,"Landover, MD",Outdoor,Grass,Sunny,80.0,46,7,WNW
25440,2019091509,20190915092746,away,57.02,32.59,1.77,1.06,0.18,28.86,25.05,2560934,Connor Williams,52,2019,47,3,04:05:00,DAL,1,10,DAL,14,21,2562699,SHOTGUN,"1 RB, 1 TE, 3 WR",6,"2 DL, 4 LB, 5 DB",right,2019-09-15T19:02:35.000Z,2019-09-15T19:02:34.000Z,6-5,298,05/12/1997,Texas,G,WAS,DAL,2,FedExField,"Landover, MD",Outdoor,Grass,Sunny,80.0,46,7,WNW
25441,2019091509,20190915092746,away,57.63,7.83,3.78,4.65,0.35,88.16,83.33,2560936,Ced Wilson,11,2019,47,3,04:05:00,DAL,1,10,DAL,14,21,2562699,SHOTGUN,"1 RB, 1 TE, 3 WR",6,"2 DL, 4 LB, 5 DB",right,2019-09-15T19:02:35.000Z,2019-09-15T19:02:34.000Z,6-2,188,03/10/1995,Boise State,WR,WAS,DAL,2,FedExField,"Landover, MD",Outdoor,Grass,Sunny,80.0,46,7,WNW
25442,2019091509,20190915092746,away,52.57,29.08,4.13,4.03,0.39,57.24,23.76,2562699,Tony Pollard,20,2019,47,3,04:05:00,DAL,1,10,DAL,14,21,2562699,SHOTGUN,"1 RB, 1 TE, 3 WR",6,"2 DL, 4 LB, 5 DB",right,2019-09-15T19:02:35.000Z,2019-09-15T19:02:34.000Z,6-0,209,04/30/1997,Memphis,RB,WAS,DAL,2,FedExField,"Landover, MD",Outdoor,Grass,Sunny,80.0,46,7,WNW
25443,2019091509,20190915092746,home,63.53,22.9,0.57,1.2,0.06,251.46,5.09,306,Dominique Rodgers-Cromartie,45,2019,47,3,04:05:00,DAL,1,10,DAL,14,21,2562699,SHOTGUN,"1 RB, 1 TE, 3 WR",6,"2 DL, 4 LB, 5 DB",right,2019-09-15T19:02:35.000Z,2019-09-15T19:02:34.000Z,6-2,205,04/07/1986,Tennessee State,CB,WAS,DAL,2,FedExField,"Landover, MD",Outdoor,Grass,Sunny,80.0,46,7,WNW
25444,2019091509,20190915092746,home,57.18,25.55,1.57,0.29,0.16,286.31,334.49,2495190,Ryan Kerrigan,91,2019,47,3,04:05:00,DAL,1,10,DAL,14,21,2562699,SHOTGUN,"1 RB, 1 TE, 3 WR",6,"2 DL, 4 LB, 5 DB",right,2019-09-15T19:02:35.000Z,2019-09-15T19:02:34.000Z,6-4,265,08/16/1988,Purdue,OLB,WAS,DAL,2,FedExField,"Landover, MD",Outdoor,Grass,Sunny,80.0,46,7,WNW
25445,2019091509,20190915092746,home,59.55,7.42,3.01,2.68,0.29,23.43,81.17,2532920,Josh Norman,24,2019,47,3,04:05:00,DAL,1,10,DAL,14,21,2562699,SHOTGUN,"1 RB, 1 TE, 3 WR",6,"2 DL, 4 LB, 5 DB",right,2019-09-15T19:02:35.000Z,2019-09-15T19:02:34.000Z,6-0,200,12/15/1987,Coastal Carolina,CB,WAS,DAL,2,FedExField,"Landover, MD",Outdoor,Grass,Sunny,80.0,46,7,WNW
25446,2019091509,20190915092746,home,65.0,38.08,1.88,0.7,0.19,268.73,94.86,2552454,Landon Collins,20,2019,47,3,04:05:00,DAL,1,10,DAL,14,21,2562699,SHOTGUN,"1 RB, 1 TE, 3 WR",6,"2 DL, 4 LB, 5 DB",right,2019-09-15T19:02:35.000Z,2019-09-15T19:02:34.000Z,6-0,218,01/10/1994,Alabama,SS,WAS,DAL,2,FedExField,"Landover, MD",Outdoor,Grass,Sunny,80.0,46,7,WNW
25447,2019091509,20190915092746,home,57.13,28.34,1.26,1.47,0.13,255.88,339.46,2555240,Matthew Ioannidis,98,2019,47,3,04:05:00,DAL,1,10,DAL,14,21,2562699,SHOTGUN,"1 RB, 1 TE, 3 WR",6,"2 DL, 4 LB, 5 DB",right,2019-09-15T19:02:35.000Z,2019-09-15T19:02:34.000Z,6-3,310,01/11/1994,Temple,DE,WAS,DAL,2,FedExField,"Landover, MD",Outdoor,Grass,Sunny,80.0,46,7,WNW
25448,2019091509,20190915092746,home,74.62,28.79,1.77,0.1,0.18,265.94,80.82,2558133,Montae Nicholson,35,2019,47,3,04:05:00,DAL,1,10,DAL,14,21,2562699,SHOTGUN,"1 RB, 1 TE, 3 WR",6,"2 DL, 4 LB, 5 DB",right,2019-09-15T19:02:35.000Z,2019-09-15T19:02:34.000Z,6-2,212,12/04/1995,Michigan State,FS,WAS,DAL,2,FedExField,"Landover, MD",Outdoor,Grass,Sunny,80.0,46,7,WNW
25449,2019091509,20190915092746,home,57.2,33.24,2.72,0.42,0.27,245.2,349.6,2560834,Daron Payne,94,2019,47,3,04:05:00,DAL,1,10,DAL,14,21,2562699,SHOTGUN,"1 RB, 1 TE, 3 WR",6,"2 DL, 4 LB, 5 DB",right,2019-09-15T19:02:35.000Z,2019-09-15T19:02:34.000Z,6-3,320,05/27/1997,Alabama,NT,WAS,DAL,2,FedExField,"Landover, MD",Outdoor,Grass,Sunny,80.0,46,7,WNW
25450,2019091509,20190915092746,home,59.54,29.7,4.16,2.28,0.41,276.58,327.38,2561003,Shaun Dion Hamilton,51,2019,47,3,04:05:00,DAL,1,10,DAL,14,21,2562699,SHOTGUN,"1 RB, 1 TE, 3 WR",6,"2 DL, 4 LB, 5 DB",right,2019-09-15T19:02:35.000Z,2019-09-15T19:02:34.000Z,6-0,235,09/11/1995,Alabama,LB,WAS,DAL,2,FedExField,"Landover, MD",Outdoor,Grass,Sunny,80.0,46,7,WNW
25451,2019091509,20190915092746,home,56.64,35.57,0.85,1.43,0.09,243.97,288.1,2562749,Montez Sweat,90,2019,47,3,04:05:00,DAL,1,10,DAL,14,21,2562699,SHOTGUN,"1 RB, 1 TE, 3 WR",6,"2 DL, 4 LB, 5 DB",right,2019-09-15T19:02:35.000Z,2019-09-15T19:02:34.000Z,6-6,262,09/04/1996,Mississippi State,LB,WAS,DAL,2,FedExField,"Landover, MD",Outdoor,Grass,Sunny,80.0,46,7,WNW
25452,2019091509,20190915092746,home,58.16,15.53,1.05,0.98,0.1,271.99,81.68,2562858,Jimmy Moreland,32,2019,47,3,04:05:00,DAL,1,10,DAL,14,21,2562699,SHOTGUN,"1 RB, 1 TE, 3 WR",6,"2 DL, 4 LB, 5 DB",right,2019-09-15T19:02:35.000Z,2019-09-15T19:02:34.000Z,5-11,182,08/26/1995,James Madison,DB,WAS,DAL,2,FedExField,"Landover, MD",Outdoor,Grass,Sunny,80.0,46,7,WNW
25453,2019091509,20190915092746,home,57.11,30.38,3.49,4.44,0.36,264.53,273.68,2562872,Cole Holcomb,55,2019,47,3,04:05:00,DAL,1,10,DAL,14,21,2562699,SHOTGUN,"1 RB, 1 TE, 3 WR",6,"2 DL, 4 LB, 5 DB",right,2019-09-15T19:02:35.000Z,2019-09-15T19:02:34.000Z,6-1,240,07/30/1996,North Carolina,LB,WAS,DAL,2,FedExField,"Landover, MD",Outdoor,Grass,Sunny,80.0,46,7,WNW
