,GameId,PlayId,Team,X,Y,S,A,Dis,Orientation,Dir,NflId,DisplayName,JerseyNumber,Season,YardLine,Quarter,GameClock,PossessionTeam,Down,Distance,FieldPosition,HomeScoreBeforePlay,VisitorScoreBeforePlay,NflIdRusher,OffenseFormation,OffensePersonnel,DefendersInTheBox,DefensePersonnel,PlayDirection,TimeHandoff,TimeSnap,PlayerHeight,PlayerWeight,PlayerBirthDate,PlayerCollegeName,Position,HomeTeamAbbr,VisitorTeamAbbr,Week,Stadium,Location,StadiumType,Turf,GameWeather,Temperature,Humidity,WindSpeed,WindDirection
68574,2019100606,20191006063048,away,93.31,28.46,1.03,0.84,0.12,182.19,44.45,2495655,Ryan Kalil,55,2019,19,4,14:40:00,NYJ,1,10,PHI,24,0,2561427,PISTOL,"2 RB, 1 TE, 2 WR",7,"4 DL, 2 LB, 5 DB",right,2019-10-06T19:27:29.000Z,2019-10-06T19:27:27.000Z,6-2,300,03/29/1985,Southern California,C,PHI,NYJ,5,Lincoln Financial Field,"Philadelphia, PA",Outdoor,Grass,Cloudy,68.0,68,10,S
68575,2019100606,20191006063048,away,92.05,30.85,2.34,1.35,0.24,198.56,193.86,2533442,Kelvin Beachum,68,2019,19,4,14:40:00,NYJ,1,10,PHI,24,0,2561427,PISTOL,"2 RB, 1 TE, 2 WR",7,"4 DL, 2 LB, 5 DB",right,2019-10-06T19:27:29.000Z,2019-10-06T19:27:27.000Z,6-3,308,06/08/1989,Southern Methodist,T,PHI,NYJ,5,Lincoln Financial Field,"Philadelphia, PA",Outdoor,Grass,Cloudy,68.0,68,10,S
68576,2019100606,20191006063048,away,87.49,26.95,2.06,1.79,0.22,173.55,214.08,2539247,Brian Winters,67,2019,19,4,14:40:00,NYJ,1,10,PHI,24,0,2561427,PISTOL,"2 RB, 1 TE, 2 WR",7,"4 DL, 2 LB, 5 DB",right,2019-10-06T19:27:29.000Z,2019-10-06T19:27:27.000Z,6-4,320,07/10/1991,Kent State,G,PHI,NYJ,5,Lincoln Financial Field,"Philadelphia, PA",Outdoor,Grass,Cloudy,68.0,68,10,S
68577,2019100606,20191006063048,away,88.76,33.34,5.23,2.09,0.52,33.73,33.9,2540175,Le'Veon Bell,26,2019,19,4,14:40:00,NYJ,1,10,PHI,24,0,2561427,PISTOL,"2 RB, 1 TE, 2 WR",7,"4 DL, 2 LB, 5 DB",right,2019-10-06T19:27:29.000Z,2019-10-06T19:27:27.000Z,6-1,225,02/18/1992,Michigan State,RB,PHI,NYJ,5,Lincoln Financial Field,"Philadelphia, PA",Outdoor,Grass,Cloudy,68.0,68,10,S
68578,2019100606,20191006063048,away,88.9,23.11,1.53,0.55,0.15,129.44,212.47,2541316,Ryan Griffin,84,2019,19,4,14:40:00,NYJ,1,10,PHI,24,0,2561427,PISTOL,"2 RB, 1 TE, 2 WR",7,"4 DL, 2 LB, 5 DB",right,2019-10-06T19:27:29.000Z,2019-10-06T19:27:27.000Z,6-6,255,01/11/1990,Connecticut,TE,PHI,NYJ,5,Lincoln Financial Field,"Philadelphia, PA",Outdoor,Grass,Cloudy,68.0,68,10,S
68579,2019100606,20191006063048,away,82.33,22.23,7.18,2.09,0.71,131.52,180.4,2552429,Ty Montgomery,88,2019,19,4,14:40:00,NYJ,1,10,PHI,24,0,2561427,PISTOL,"2 RB, 1 TE, 2 WR",7,"4 DL, 2 LB, 5 DB",right,2019-10-06T19:27:29.000Z,2019-10-06T19:27:27.000Z,6-0,216,01/22/1993,Stanford,RB,PHI,NYJ,5,Lincoln Financial Field,"Philadelphia, PA",Outdoor,Grass,Cloudy,68.0,68,10,S
68580,2019100606,20191006063048,away,90.03,27.99,3.09,0.5,0.32,156.99,168.6,2555353,Alex Lewis,71,2019,19,4,14:40:00,NYJ,1,10,PHI,24,0,2561427,PISTOL,"2 RB, 1 TE, 2 WR",7,"4 DL, 2 LB, 5 DB",right,2019-10-06T19:27:29.000Z,2019-10-06T19:27:27.000Z,6-6,305,04/21/1992,Nebraska,G,PHI,NYJ,5,Lincoln Financial Field,"Philadelphia, PA",Outdoor,Grass,Cloudy,68.0,68,10,S
68581,2019100606,20191006063048,away,95.71,33.05,5.73,2.66,0.58,134.92,142.83,2556462,Robby Anderson,11,2019,19,4,14:40:00,NYJ,1,10,PHI,24,0,2561427,PISTOL,"2 RB, 1 TE, 2 WR",7,"4 DL, 2 LB, 5 DB",right,2019-10-06T19:27:29.000Z,2019-10-06T19:27:27.000Z,6-3,190,05/09/1993,Temple,WR,PHI,NYJ,5,Lincoln Financial Field,"Philadelphia, PA",Outdoor,Grass,Cloudy,68.0,68,10,S
68582,2019100606,20191006063048,away,85.29,25.76,5.56,2.64,0.55,174.4,182.46,2560720,Luke Falk,8,2019,19,4,14:40:00,NYJ,1,10,PHI,24,0,2561427,PISTOL,"2 RB, 1 TE, 2 WR",7,"4 DL, 2 LB, 5 DB",right,2019-10-06T19:27:29.000Z,2019-10-06T19:27:27.000Z,6-4,215,12/28/1994,Washington State,QB,PHI,NYJ,5,Lincoln Financial Field,"Philadelphia, PA",Outdoor,Grass,Cloudy,68.0,68,10,S
68583,2019100606,20191006063048,away,85.47,21.72,7.04,1.49,0.71,331.8,324.69,2561427,Vyncint Smith,17,2019,19,4,14:40:00,NYJ,1,10,PHI,24,0,2561427,PISTOL,"2 RB, 1 TE, 2 WR",7,"4 DL, 2 LB, 5 DB",right,2019-10-06T19:27:29.000Z,2019-10-06T19:27:27.000Z,6-3,202,06/09/1996,Limestone,WR,PHI,NYJ,5,Lincoln Financial Field,"Philadelphia, PA",Outdoor,Grass,Cloudy,68.0,68,10,S
68584,2019100606,20191006063048,away,90.31,22.23,3.57,1.58,0.37,196.52,203.77,2562258,Chuma Edoga,75,2019,19,4,14:40:00,NYJ,1,10,PHI,24,0,2561427,PISTOL,"2 RB, 1 TE, 2 WR",7,"4 DL, 2 LB, 5 DB",right,2019-10-06T19:27:29.000Z,2019-10-06T19:27:27.000Z,6-3,308,05/25/1997,Southern California,T,PHI,NYJ,5,Lincoln Financial Field,"Philadelphia, PA",Outdoor,Grass,Cloudy,68.0,68,10,S
68585,2019100606,20191006063048,home,96.7,26.43,5.3,2.45,0.52,215.49,194.4,2307,Orlando Scandrick,38,2019,19,4,14:40:00,NYJ,1,10,PHI,24,0,2561427,PISTOL,"2 RB, 1 TE, 2 WR",7,"4 DL, 2 LB, 5 DB",right,2019-10-06T19:27:29.000Z,2019-10-06T19:27:27.000Z,5-10,196,02/10/1987,Boise State,CB,PHI,NYJ,5,Lincoln Financial Field,"Philadelphia, PA",Outdoor,Grass,Cloudy,68.0,68,10,S
68586,2019100606,20191006063048,home,90.04,20.64,4.76,0.44,0.47,263.12,216.88,79848,Malcolm Jenkins,27,2019,19,4,14:40:00,NYJ,1,10,PHI,24,0,2561427,PISTOL,"2 RB, 1 TE, 2 WR",7,"4 DL, 2 LB, 5 DB",right,2019-10-06T19:27:29.000Z,2019-10-06T19:27:27.000Z,6-0,204,12/20/1987,Ohio State,SS,PHI,NYJ,5,Lincoln Financial Field,"Philadelphia, PA",Outdoor,Grass,Cloudy,68.0,68,10,S
68587,2019100606,20191006063048,home,89.54,22.55,2.95,1.18,0.29,286.0,194.9,496788,Brandon Graham,55,2019,19,4,14:40:00,NYJ,1,10,PHI,24,0,2561427,PISTOL,"2 RB, 1 TE, 2 WR",7,"4 DL, 2 LB, 5 DB",right,2019-10-06T19:27:29.000Z,2019-10-06T19:27:27.000Z,6-2,265,04/03/1988,Michigan,DE,PHI,NYJ,5,Lincoln Financial Field,"Philadelphia, PA",Outdoor,Grass,Cloudy,68.0,68,10,S
68588,2019100606,20191006063048,home,100.4,22.3,4.69,1.57,0.47,255.46,210.38,2525323,Andrew Sendejo,42,2019,19,4,14:40:00,NYJ,1,10,PHI,24,0,2561427,PISTOL,"2 RB, 1 TE, 2 WR",7,"4 DL, 2 LB, 5 DB",right,2019-10-06T19:27:29.000Z,2019-10-06T19:27:27.000Z,6-1,210,09/09/1987,Rice,SS,PHI,NYJ,5,Lincoln Financial Field,"Philadelphia, PA",Outdoor,Grass,Cloudy,68.0,68,10,S
68589,2019100606,20191006063048,home,92.28,29.57,2.59,1.46,0.27,239.34,189.67,2532800,Nigel Bradham,53,2019,19,4,14:40:00,NYJ,1,10,PHI,24,0,2561427,PISTOL,"2 RB, 1 TE, 2 WR",7,"4 DL, 2 LB, 5 DB",right,2019-10-06T19:27:29.000Z,2019-10-06T19:27:27.000Z,6-2,241,09/04/1989,Florida State,OLB,PHI,NYJ,5,Lincoln Financial Field,"Philadelphia, PA",Outdoor,Grass,Cloudy,68.0,68,10,S
68590,2019100606,20191006063048,home,92.78,23.8,3.92,1.34,0.4,239.31,204.28,2532804,Zach Brown,52,2019,19,4,14:40:00,NYJ,1,10,PHI,24,0,2561427,PISTOL,"2 RB, 1 TE, 2 WR",7,"4 DL, 2 LB, 5 DB",right,2019-10-06T19:27:29.000Z,2019-10-06T19:27:27.000Z,6-1,251,10/23/1989,North Carolina,ILB,PHI,NYJ,5,Lincoln Financial Field,"Philadelphia, PA",Outdoor,Grass,Cloudy,68.0,68,10,S
68591,2019100606,20191006063048,home,87.36,25.96,2.89,2.4,0.3,281.98,212.47,2533051,Fletcher Cox,91,2019,19,4,14:40:00,NYJ,1,10,PHI,24,0,2561427,PISTOL,"2 RB, 1 TE, 2 WR",7,"4 DL, 2 LB, 5 DB",right,2019-10-06T19:27:29.000Z,2019-10-06T19:27:27.000Z,6-4,310,12/13/1990,Mississippi State,DT,PHI,NYJ,5,Lincoln Financial Field,"Philadelphia, PA",Outdoor,Grass,Cloudy,68.0,68,10,S
68592,2019100606,20191006063048,home,90.11,27.39,3.4,0.6,0.35,249.1,182.98,2555514,Hassan Ridgeway,98,2019,19,4,14:40:00,NYJ,1,10,PHI,24,0,2561427,PISTOL,"2 RB, 1 TE, 2 WR",7,"4 DL, 2 LB, 5 DB",right,2019-10-06T19:27:29.000Z,2019-10-06T19:27:27.000Z,6-3,305,11/02/1994,Texas,DT,PHI,NYJ,5,Lincoln Financial Field,"Philadelphia, PA",Outdoor,Grass,Cloudy,68.0,68,10,S
68593,2019100606,20191006063048,home,88.7,29.5,4.57,1.88,0.47,205.25,207.23,2557984,Derek Barnett,96,2019,19,4,14:40:00,NYJ,1,10,PHI,24,0,2561427,PISTOL,"2 RB, 1 TE, 2 WR",7,"4 DL, 2 LB, 5 DB",right,2019-10-06T19:27:29.000Z,2019-10-06T19:27:27.000Z,6-3,259,06/25/1996,Tennessee,DE,PHI,NYJ,5,Lincoln Financial Field,"Philadelphia, PA",Outdoor,Grass,Cloudy,68.0,68,10,S
68594,2019100606,20191006063048,home,96.2,36.66,3.59,0.35,0.37,196.22,114.83,2558168,Rasul Douglas,32,2019,19,4,14:40:00,NYJ,1,10,PHI,24,0,2561427,PISTOL,"2 RB, 1 TE, 2 WR",7,"4 DL, 2 LB, 5 DB",right,2019-10-06T19:27:29.000Z,2019-10-06T19:27:27.000Z,6-2,209,08/29/1995,West Virginia,CB,PHI,NYJ,5,Lincoln Financial Field,"Philadelphia, PA",Outdoor,Grass,Cloudy,68.0,68,10,S
68595,2019100606,20191006063048,home,97.86,17.1,1.47,2.91,0.15,291.51,306.94,2561486,Craig James,39,2019,19,4,14:40:00,NYJ,1,10,PHI,24,0,2561427,PISTOL,"2 RB, 1 TE, 2 WR",7,"4 DL, 2 LB, 5 DB",right,2019-10-06T19:27:29.000Z,2019-10-06T19:27:27.000Z,5-10,195,04/29/1996,Southern Illinois,CB,PHI,NYJ,5,Lincoln Financial Field,"Philadelphia, PA",Outdoor,Grass,Cloudy,68.0,68,10,S
