,GameId,PlayId,Team,X,Y,S,A,Dis,Orientation,Dir,NflId,DisplayName,JerseyNumber,Season,YardLine,Quarter,GameClock,PossessionTeam,Down,Distance,FieldPosition,HomeScoreBeforePlay,VisitorScoreBeforePlay,NflIdRusher,OffenseFormation,OffensePersonnel,DefendersInTheBox,DefensePersonnel,PlayDirection,TimeHandoff,TimeSnap,PlayerHeight,PlayerWeight,PlayerBirthDate,PlayerCollegeName,Position,HomeTeamAbbr,VisitorTeamAbbr,Week,Stadium,Location,StadiumType,Turf,GameWeather,Temperature,Humidity,WindSpeed,WindDirection
33308,2019092201,20190922014175,away,58.46,19.77,2.35,1.12,0.24,197.24,270.05,1037880,J'Marcus Webb,61,2019,48,4,02:00:00,MIA,1,10,DAL,31,6,2560967,SHOTGUN,"1 RB, 2 TE, 2 WR",5,"4 DL, 2 LB, 5 DB",right,2019-09-22T20:06:37.000Z,2019-09-22T20:06:35.000Z,6-7,320,08/08/1988,West Texas A&M,T,DAL,MIA,3,AT&T Stadium,"Arlington, Texas",indoor,Artificial,,,0,,
33309,2019092201,20190922014175,away,60.74,27.2,3.4,1.67,0.36,60.36,24.81,2495299,Daniel Kilgore,67,2019,48,4,02:00:00,MIA,1,10,DAL,31,6,2560967,SHOTGUN,"1 RB, 2 TE, 2 WR",5,"4 DL, 2 LB, 5 DB",right,2019-09-22T20:06:37.000Z,2019-09-22T20:06:35.000Z,6-3,291,12/18/1987,Appalachian State,C,DAL,MIA,3,AT&T Stadium,"Arlington, Texas",indoor,Artificial,,,0,,
33310,2019092201,20190922014175,away,60.92,14.34,6.31,1.07,0.63,213.59,160.29,2552403,Nick O'Leary,83,2019,48,4,02:00:00,MIA,1,10,DAL,31,6,2560967,SHOTGUN,"1 RB, 2 TE, 2 WR",5,"4 DL, 2 LB, 5 DB",right,2019-09-22T20:06:37.000Z,2019-09-22T20:06:35.000Z,6-3,252,08/31/1992,Florida State,TE,DAL,MIA,3,AT&T Stadium,"Arlington, Texas",indoor,Artificial,,,0,,
33311,2019092201,20190922014175,away,63.13,34.91,4.24,1.16,0.43,87.26,82.31,2552409,DeVante Parker,11,2019,48,4,02:00:00,MIA,1,10,DAL,31,6,2560967,SHOTGUN,"1 RB, 2 TE, 2 WR",5,"4 DL, 2 LB, 5 DB",right,2019-09-22T20:06:37.000Z,2019-09-22T20:06:35.000Z,6-3,216,01/20/1993,Louisville,WR,DAL,MIA,3,AT&T Stadium,"Arlington, Texas",indoor,Artificial,,,0,,
33312,2019092201,20190922014175,away,60.48,24.33,0.97,1.83,0.1,173.74,252.47,2555181,Evan Boehm,76,2019,48,4,02:00:00,MIA,1,10,DAL,31,6,2560967,SHOTGUN,"1 RB, 2 TE, 2 WR",5,"4 DL, 2 LB, 5 DB",right,2019-09-22T20:06:37.000Z,2019-09-22T20:06:35.000Z,6-3,321,08/19/1993,Missouri,G,DAL,MIA,3,AT&T Stadium,"Arlington, Texas",indoor,Artificial,,,0,,
33313,2019092201,20190922014175,away,57.07,24.45,0.42,1.51,0.05,130.01,304.66,2560858,Josh Rosen,3,2019,48,4,02:00:00,MIA,1,10,DAL,31,6,2560967,SHOTGUN,"1 RB, 2 TE, 2 WR",5,"4 DL, 2 LB, 5 DB",right,2019-09-22T20:06:37.000Z,2019-09-22T20:06:35.000Z,6-4,226,02/10/1997,UCLA,QB,DAL,MIA,3,AT&T Stadium,"Arlington, Texas",indoor,Artificial,,,0,,
33314,2019092201,20190922014175,away,58.22,25.23,5.57,2.44,0.55,60.58,35.89,2560967,Kalen Ballage,27,2019,48,4,02:00:00,MIA,1,10,DAL,31,6,2560967,SHOTGUN,"1 RB, 2 TE, 2 WR",5,"4 DL, 2 LB, 5 DB",right,2019-09-22T20:06:37.000Z,2019-09-22T20:06:35.000Z,6-2,230,12/22/1995,Arizona State,RB,DAL,MIA,3,AT&T Stadium,"Arlington, Texas",indoor,Artificial,,,0,,
33315,2019092201,20190922014175,away,64.71,17.28,4.09,2.02,0.41,24.16,88.46,2560994,Mike Gesicki,88,2019,48,4,02:00:00,MIA,1,10,DAL,31,6,2560967,SHOTGUN,"1 RB, 2 TE, 2 WR",5,"4 DL, 2 LB, 5 DB",right,2019-09-22T20:06:37.000Z,2019-09-22T20:06:35.000Z,6-6,252,10/03/1995,Penn State,TE,DAL,MIA,3,AT&T Stadium,"Arlington, Texas",indoor,Artificial,,,0,,
33316,2019092201,20190922014175,away,59.26,21.2,1.96,0.48,0.2,172.08,257.98,2562245,Shaq Calhoun,62,2019,48,4,02:00:00,MIA,1,10,DAL,31,6,2560967,SHOTGUN,"1 RB, 2 TE, 2 WR",5,"4 DL, 2 LB, 5 DB",right,2019-09-22T20:06:37.000Z,2019-09-22T20:06:35.000Z,6-3,310,02/20/1996,Mississippi State,G,DAL,MIA,3,AT&T Stadium,"Arlington, Texas",indoor,Artificial,,,0,,
33317,2019092201,20190922014175,away,59.32,29.98,2.0,2.82,0.2,305.78,276.17,2562255,Michael Deiter,63,2019,48,4,02:00:00,MIA,1,10,DAL,31,6,2560967,SHOTGUN,"1 RB, 2 TE, 2 WR",5,"4 DL, 2 LB, 5 DB",right,2019-09-22T20:06:37.000Z,2019-09-22T20:06:35.000Z,6-6,310,09/03/1996,Wisconsin,OG,DAL,MIA,3,AT&T Stadium,"Arlington, Texas",indoor,Artificial,,,0,,
33318,2019092201,20190922014175,away,64.3,43.26,5.21,1.3,0.51,81.03,106.68,2562805,Preston Williams,18,2019,48,4,02:00:00,MIA,1,10,DAL,31,6,2560967,SHOTGUN,"1 RB, 2 TE, 2 WR",5,"4 DL, 2 LB, 5 DB",right,2019-09-22T20:06:37.000Z,2019-09-22T20:06:35.000Z,6-5,218,03/27/1997,Colorado State,WR,DAL,MIA,3,AT&T Stadium,"Arlington, Texas",indoor,Artificial,,,0,,
33319,2019092201,20190922014175,home,67.06,28.55,3.19,2.98,0.31,285.8,340.84,2550262,Joe Thomas,48,2019,48,4,02:00:00,MIA,1,10,DAL,31,6,2560967,SHOTGUN,"1 RB, 2 TE, 2 WR",5,"4 DL, 2 LB, 5 DB",right,2019-09-22T20:06:37.000Z,2019-09-22T20:06:35.000Z,6-1,232,05/06/1991,South Carolina State,ILB,DAL,MIA,3,AT&T Stadium,"Arlington, Texas",indoor,Artificial,,,0,,
33320,2019092201,20190922014175,home,59.28,20.69,2.4,1.42,0.24,2.03,257.87,2550433,Kerry Hyder,51,2019,48,4,02:00:00,MIA,1,10,DAL,31,6,2560967,SHOTGUN,"1 RB, 2 TE, 2 WR",5,"4 DL, 2 LB, 5 DB",right,2019-09-22T20:06:37.000Z,2019-09-22T20:06:35.000Z,6-2,270,05/02/1991,Texas Tech,DE,DAL,MIA,3,AT&T Stadium,"Arlington, Texas",indoor,Artificial,,,0,,
33321,2019092201,20190922014175,home,71.15,12.48,3.13,0.9,0.31,345.06,85.26,2550767,C.J. Goodwin,29,2019,48,4,02:00:00,MIA,1,10,DAL,31,6,2560967,SHOTGUN,"1 RB, 2 TE, 2 WR",5,"4 DL, 2 LB, 5 DB",right,2019-09-22T20:06:37.000Z,2019-09-22T20:06:35.000Z,6-3,190,02/04/1990,"California, Pa.",CB,DAL,MIA,3,AT&T Stadium,"Arlington, Texas",indoor,Artificial,,,0,,
33322,2019092201,20190922014175,home,60.07,24.03,1.67,2.02,0.17,344.23,292.04,2552602,Christian Covington,95,2019,48,4,02:00:00,MIA,1,10,DAL,31,6,2560967,SHOTGUN,"1 RB, 2 TE, 2 WR",5,"4 DL, 2 LB, 5 DB",right,2019-09-22T20:06:37.000Z,2019-09-22T20:06:35.000Z,6-2,305,10/16/1993,Rice,DE,DAL,MIA,3,AT&T Stadium,"Arlington, Texas",indoor,Artificial,,,0,,
33323,2019092201,20190922014175,home,65.8,13.57,4.98,1.9,0.49,204.79,132.87,2553815,Justin March-Lillard,53,2019,48,4,02:00:00,MIA,1,10,DAL,31,6,2560967,SHOTGUN,"1 RB, 2 TE, 2 WR",5,"4 DL, 2 LB, 5 DB",right,2019-09-22T20:06:37.000Z,2019-09-22T20:06:35.000Z,5-11,222,07/05/1993,Akron,OLB,DAL,MIA,3,AT&T Stadium,"Arlington, Texas",indoor,Artificial,,,0,,
33324,2019092201,20190922014175,home,79.18,29.61,2.97,1.3,0.29,269.28,86.91,2555154,Darian Thompson,23,2019,48,4,02:00:00,MIA,1,10,DAL,31,6,2560967,SHOTGUN,"1 RB, 2 TE, 2 WR",5,"4 DL, 2 LB, 5 DB",right,2019-09-22T20:06:37.000Z,2019-09-22T20:06:35.000Z,6-2,213,09/22/1993,Boise State,FS,DAL,MIA,3,AT&T Stadium,"Arlington, Texas",indoor,Artificial,,,0,,
33325,2019092201,20190922014175,home,70.61,44.93,1.57,1.86,0.16,183.01,113.79,2555531,Anthony Brown,30,2019,48,4,02:00:00,MIA,1,10,DAL,31,6,2560967,SHOTGUN,"1 RB, 2 TE, 2 WR",5,"4 DL, 2 LB, 5 DB",right,2019-09-22T20:06:37.000Z,2019-09-22T20:06:35.000Z,5-11,196,12/15/1993,Purdue,CB,DAL,MIA,3,AT&T Stadium,"Arlington, Texas",indoor,Artificial,,,0,,
33326,2019092201,20190922014175,home,66.21,23.31,3.78,3.67,0.36,293.08,310.08,2555536,Kavon Frazier,35,2019,48,4,02:00:00,MIA,1,10,DAL,31,6,2560967,SHOTGUN,"1 RB, 2 TE, 2 WR",5,"4 DL, 2 LB, 5 DB",right,2019-09-22T20:06:37.000Z,2019-09-22T20:06:35.000Z,6-0,223,08/11/1994,Central Michigan,SS,DAL,MIA,3,AT&T Stadium,"Arlington, Texas",indoor,Artificial,,,0,,
33327,2019092201,20190922014175,home,67.79,35.41,1.05,3.64,0.12,259.11,340.31,2557920,Jourdan Lewis,27,2019,48,4,02:00:00,MIA,1,10,DAL,31,6,2560967,SHOTGUN,"1 RB, 2 TE, 2 WR",5,"4 DL, 2 LB, 5 DB",right,2019-09-22T20:06:37.000Z,2019-09-22T20:06:35.000Z,5-10,195,08/31/1995,Michigan,CB,DAL,MIA,3,AT&T Stadium,"Arlington, Texas",indoor,Artificial,,,0,,
33328,2019092201,20190922014175,home,58.7,30.37,1.78,3.02,0.17,198.94,284.42,2560959,Dorance Armstrong,92,2019,48,4,02:00:00,MIA,1,10,DAL,31,6,2560967,SHOTGUN,"1 RB, 2 TE, 2 WR",5,"4 DL, 2 LB, 5 DB",right,2019-09-22T20:06:37.000Z,2019-09-22T20:06:35.000Z,6-4,255,06/10/1997,Kansas,DE,DAL,MIA,3,AT&T Stadium,"Arlington, Texas",indoor,Artificial,,,0,,
33329,2019092201,20190922014175,home,58.26,18.64,3.66,1.93,0.37,320.5,273.19,2562432,Joe Jackson,56,2019,48,4,02:00:00,MIA,1,10,DAL,31,6,2560967,SHOTGUN,"1 RB, 2 TE, 2 WR",5,"4 DL, 2 LB, 5 DB",right,2019-09-22T20:06:37.000Z,2019-09-22T20:06:35.000Z,6-4,275,12/20/1996,Miami,DE,DAL,MIA,3,AT&T Stadium,"Arlington, Texas",indoor,Artificial,,,0,,
