,GameId,PlayId,Team,X,Y,S,A,Dis,Orientation,Dir,NflId,DisplayName,JerseyNumber,Season,YardLine,Quarter,GameClock,PossessionTeam,Down,Distance,FieldPosition,HomeScoreBeforePlay,VisitorScoreBeforePlay,NflIdRusher,OffenseFormation,OffensePersonnel,DefendersInTheBox,DefensePersonnel,PlayDirection,TimeHandoff,TimeSnap,PlayerHeight,PlayerWeight,PlayerBirthDate,PlayerCollegeName,Position,HomeTeamAbbr,VisitorTeamAbbr,Week,Stadium,Location,StadiumType,Turf,GameWeather,Temperature,Humidity,WindSpeed,WindDirection
57024,2019092910,20190929101291,away,83.99,23.97,1.45,1.83,0.15,318.6,359.39,2495438,Kyle Rudolph,82,2019,26,2,09:49:00,MIN,1,10,MIN,7,0,2557991,SINGLEBACK,"2 RB, 1 TE, 2 WR",8,"3 DL, 4 LB, 4 DB",left,2019-09-29T21:12:23.000Z,2019-09-29T21:12:22.000Z,6-6,265,11/09/1989,Notre Dame,TE,CHI,MIN,4,Soldier Field,"Chicago, IL",Outdoor,Natural Grass,Cloudy,67.0,89,8,East
57025,2019092910,20190929101291,away,88.42,27.5,4.18,2.1,0.41,10.76,81.58,2532820,Kirk Cousins,8,2019,26,2,09:49:00,MIN,1,10,MIN,7,0,2557991,SINGLEBACK,"2 RB, 1 TE, 2 WR",8,"3 DL, 4 LB, 4 DB",left,2019-09-29T21:12:23.000Z,2019-09-29T21:12:22.000Z,6-3,202,08/19/1988,Michigan State,QB,CHI,MIN,4,Soldier Field,"Chicago, IL",Outdoor,Natural Grass,Cloudy,67.0,89,8,East
57026,2019092910,20190929101291,away,83.65,25.82,2.45,0.89,0.26,275.74,341.07,2533042,Riley Reiff,71,2019,26,2,09:49:00,MIN,1,10,MIN,7,0,2557991,SINGLEBACK,"2 RB, 1 TE, 2 WR",8,"3 DL, 4 LB, 4 DB",left,2019-09-29T21:12:23.000Z,2019-09-29T21:12:22.000Z,6-6,305,12/01/1988,Iowa,T,CHI,MIN,4,Soldier Field,"Chicago, IL",Outdoor,Natural Grass,Cloudy,67.0,89,8,East
57027,2019092910,20190929101291,away,83.1,17.59,3.27,0.6,0.33,246.27,269.82,2541785,Adam Thielen,19,2019,26,2,09:49:00,MIN,1,10,MIN,7,0,2557991,SINGLEBACK,"2 RB, 1 TE, 2 WR",8,"3 DL, 4 LB, 4 DB",left,2019-09-29T21:12:23.000Z,2019-09-29T21:12:22.000Z,6-2,200,08/22/1990,Minn. State-Mankato,WR,CHI,MIN,4,Soldier Field,"Chicago, IL",Outdoor,Natural Grass,Cloudy,67.0,89,8,East
57028,2019092910,20190929101291,away,83.53,28.01,0.68,1.04,0.07,202.71,318.07,2543805,Dakota Dozier,78,2019,26,2,09:49:00,MIN,1,10,MIN,7,0,2557991,SINGLEBACK,"2 RB, 1 TE, 2 WR",8,"3 DL, 4 LB, 4 DB",left,2019-09-29T21:12:23.000Z,2019-09-29T21:12:22.000Z,6-4,313,04/30/1991,Furman,G,CHI,MIN,4,Soldier Field,"Chicago, IL",Outdoor,Natural Grass,Cloudy,67.0,89,8,East
57029,2019092910,20190929101291,away,82.96,30.77,3.55,3.41,0.35,178.09,184.07,2552608,Stefon Diggs,14,2019,26,2,09:49:00,MIN,1,10,MIN,7,0,2557991,SINGLEBACK,"2 RB, 1 TE, 2 WR",8,"3 DL, 4 LB, 4 DB",left,2019-09-29T21:12:23.000Z,2019-09-29T21:12:22.000Z,6-0,191,11/29/1993,Maryland,WR,CHI,MIN,4,Soldier Field,"Chicago, IL",Outdoor,Natural Grass,Cloudy,67.0,89,8,East
57030,2019092910,20190929101291,away,85.73,28.08,5.07,1.41,0.5,198.36,194.81,2556803,C.J. Ham,30,2019,26,2,09:49:00,MIN,1,10,MIN,7,0,2557991,SINGLEBACK,"2 RB, 1 TE, 2 WR",8,"3 DL, 4 LB, 4 DB",left,2019-09-29T21:12:23.000Z,2019-09-29T21:12:22.000Z,5-11,235,07/22/1993,"Augustana, S.D.",FB,CHI,MIN,4,Soldier Field,"Chicago, IL",Outdoor,Natural Grass,Cloudy,67.0,89,8,East
57031,2019092910,20190929101291,away,88.32,28.56,4.85,0.29,0.48,299.64,299.04,2557991,Dalvin Cook,33,2019,26,2,09:49:00,MIN,1,10,MIN,7,0,2557991,SINGLEBACK,"2 RB, 1 TE, 2 WR",8,"3 DL, 4 LB, 4 DB",left,2019-09-29T21:12:23.000Z,2019-09-29T21:12:22.000Z,5-10,210,08/10/1995,Florida State,RB,CHI,MIN,4,Soldier Field,"Chicago, IL",Outdoor,Natural Grass,Cloudy,67.0,89,8,East
57032,2019092910,20190929101291,away,82.65,26.48,2.38,0.78,0.23,271.19,317.0,2558848,Pat Elflein,65,2019,26,2,09:49:00,MIN,1,10,MIN,7,0,2557991,SINGLEBACK,"2 RB, 1 TE, 2 WR",8,"3 DL, 4 LB, 4 DB",left,2019-09-29T21:12:23.000Z,2019-09-29T21:12:22.000Z,6-3,303,07/06/1994,Ohio State,G,CHI,MIN,4,Soldier Field,"Chicago, IL",Outdoor,Natural Grass,Cloudy,67.0,89,8,East
57033,2019092910,20190929101291,away,84.48,31.23,1.06,1.04,0.11,321.84,310.69,2560831,Brian O'Neill,75,2019,26,2,09:49:00,MIN,1,10,MIN,7,0,2557991,SINGLEBACK,"2 RB, 1 TE, 2 WR",8,"3 DL, 4 LB, 4 DB",left,2019-09-29T21:12:23.000Z,2019-09-29T21:12:22.000Z,6-7,297,09/15/1995,Pittsburgh,T,CHI,MIN,4,Soldier Field,"Chicago, IL",Outdoor,Natural Grass,Cloudy,67.0,89,8,East
57034,2019092910,20190929101291,away,83.7,27.2,0.99,0.53,0.1,328.72,357.81,2562632,Garrett Bradbury,56,2019,26,2,09:49:00,MIN,1,10,MIN,7,0,2557991,SINGLEBACK,"2 RB, 1 TE, 2 WR",8,"3 DL, 4 LB, 4 DB",left,2019-09-29T21:12:23.000Z,2019-09-29T21:12:22.000Z,6-3,305,06/20/1995,North Carolina State,C,CHI,MIN,4,Soldier Field,"Chicago, IL",Outdoor,Natural Grass,Cloudy,67.0,89,8,East
57035,2019092910,20190929101291,home,82.11,16.29,1.34,0.79,0.13,24.2,260.21,2495108,Prince Amukamara,20,2019,26,2,09:49:00,MIN,1,10,MIN,7,0,2557991,SINGLEBACK,"2 RB, 1 TE, 2 WR",8,"3 DL, 4 LB, 4 DB",left,2019-09-29T21:12:23.000Z,2019-09-29T21:12:22.000Z,6-0,204,06/06/1989,Nebraska,CB,CHI,MIN,4,Soldier Field,"Chicago, IL",Outdoor,Natural Grass,Cloudy,67.0,89,8,East
57036,2019092910,20190929101291,home,80.81,28.17,1.49,0.86,0.15,99.5,36.44,2532961,Danny Trevathan,59,2019,26,2,09:49:00,MIN,1,10,MIN,7,0,2557991,SINGLEBACK,"2 RB, 1 TE, 2 WR",8,"3 DL, 4 LB, 4 DB",left,2019-09-29T21:12:23.000Z,2019-09-29T21:12:22.000Z,6-0,239,03/24/1990,Kentucky,ILB,CHI,MIN,4,Soldier Field,"Chicago, IL",Outdoor,Natural Grass,Cloudy,67.0,89,8,East
57037,2019092910,20190929101291,home,82.99,25.73,1.13,0.67,0.11,9.06,339.35,2541479,Nick Williams,97,2019,26,2,09:49:00,MIN,1,10,MIN,7,0,2557991,SINGLEBACK,"2 RB, 1 TE, 2 WR",8,"3 DL, 4 LB, 4 DB",left,2019-09-29T21:12:23.000Z,2019-09-29T21:12:22.000Z,6-4,309,02/21/1990,Samford,DT,CHI,MIN,4,Soldier Field,"Chicago, IL",Outdoor,Natural Grass,Cloudy,67.0,89,8,East
57038,2019092910,20190929101291,home,84.02,31.93,0.3,1.84,0.03,133.16,55.74,2543463,Khalil Mack,52,2019,26,2,09:49:00,MIN,1,10,MIN,7,0,2557991,SINGLEBACK,"2 RB, 1 TE, 2 WR",8,"3 DL, 4 LB, 4 DB",left,2019-09-29T21:12:23.000Z,2019-09-29T21:12:22.000Z,6-3,269,02/22/1991,Buffalo,OLB,CHI,MIN,4,Soldier Field,"Chicago, IL",Outdoor,Natural Grass,Cloudy,67.0,89,8,East
57039,2019092910,20190929101291,home,69.24,24.87,2.61,1.5,0.27,77.73,302.4,2543470,Ha Ha Clinton-Dix,21,2019,26,2,09:49:00,MIN,1,10,MIN,7,0,2557991,SINGLEBACK,"2 RB, 1 TE, 2 WR",8,"3 DL, 4 LB, 4 DB",left,2019-09-29T21:12:23.000Z,2019-09-29T21:12:22.000Z,6-1,211,12/21/1992,Alabama,FS,CHI,MIN,4,Soldier Field,"Chicago, IL",Outdoor,Natural Grass,Cloudy,67.0,89,8,East
57040,2019092910,20190929101291,home,74.77,36.24,0.67,3.9,0.08,128.12,237.04,2543681,Kyle Fuller,23,2019,26,2,09:49:00,MIN,1,10,MIN,7,0,2557991,SINGLEBACK,"2 RB, 1 TE, 2 WR",8,"3 DL, 4 LB, 4 DB",left,2019-09-29T21:12:23.000Z,2019-09-29T21:12:22.000Z,5-11,194,02/16/1992,Virginia Tech,CB,CHI,MIN,4,Soldier Field,"Chicago, IL",Outdoor,Natural Grass,Cloudy,67.0,89,8,East
57041,2019092910,20190929101291,home,80.1,25.01,1.12,2.43,0.11,68.78,78.19,2555288,Nick Kwiatkoski,44,2019,26,2,09:49:00,MIN,1,10,MIN,7,0,2557991,SINGLEBACK,"2 RB, 1 TE, 2 WR",8,"3 DL, 4 LB, 4 DB",left,2019-09-29T21:12:23.000Z,2019-09-29T21:12:22.000Z,6-2,242,05/26/1993,West Virginia,ILB,CHI,MIN,4,Soldier Field,"Chicago, IL",Outdoor,Natural Grass,Cloudy,67.0,89,8,East
57042,2019092910,20190929101291,home,83.2,29.95,3.93,1.57,0.39,98.96,141.55,2558176,Eddie Jackson,39,2019,26,2,09:49:00,MIN,1,10,MIN,7,0,2557991,SINGLEBACK,"2 RB, 1 TE, 2 WR",8,"3 DL, 4 LB, 4 DB",left,2019-09-29T21:12:23.000Z,2019-09-29T21:12:22.000Z,6-0,202,12/10/1993,Alabama,FS,CHI,MIN,4,Soldier Field,"Chicago, IL",Outdoor,Natural Grass,Cloudy,67.0,89,8,East
57043,2019092910,20190929101291,home,82.96,22.55,1.21,1.74,0.13,26.04,352.86,2559287,Isaiah Irving,47,2019,26,2,09:49:00,MIN,1,10,MIN,7,0,2557991,SINGLEBACK,"2 RB, 1 TE, 2 WR",8,"3 DL, 4 LB, 4 DB",left,2019-09-29T21:12:23.000Z,2019-09-29T21:12:22.000Z,6-3,254,06/09/1994,San Jose State,LB,CHI,MIN,4,Soldier Field,"Chicago, IL",Outdoor,Natural Grass,Cloudy,67.0,89,8,East
57044,2019092910,20190929101291,home,83.44,24.52,1.53,0.75,0.17,127.8,24.56,2561088,Abdullah Anderson,76,2019,26,2,09:49:00,MIN,1,10,MIN,7,0,2557991,SINGLEBACK,"2 RB, 1 TE, 2 WR",8,"3 DL, 4 LB, 4 DB",left,2019-09-29T21:12:23.000Z,2019-09-29T21:12:22.000Z,6-3,297,01/24/1996,Bucknell,DT,CHI,MIN,4,Soldier Field,"Chicago, IL",Outdoor,Natural Grass,Cloudy,67.0,89,8,East
57045,2019092910,20190929101291,home,83.21,27.36,0.38,1.55,0.04,129.84,349.7,2562945,Jonathan Harris,71,2019,26,2,09:49:00,MIN,1,10,MIN,7,0,2557991,SINGLEBACK,"2 RB, 1 TE, 2 WR",8,"3 DL, 4 LB, 4 DB",left,2019-09-29T21:12:23.000Z,2019-09-29T21:12:22.000Z,6-5,295,08/04/1996,Lindenwood,DE,CHI,MIN,4,Soldier Field,"Chicago, IL",Outdoor,Natural Grass,Cloudy,67.0,89,8,East
