,GameId,PlayId,Team,X,Y,S,A,Dis,Orientation,Dir,NflId,DisplayName,JerseyNumber,Season,YardLine,Quarter,GameClock,PossessionTeam,Down,Distance,FieldPosition,HomeScoreBeforePlay,VisitorScoreBeforePlay,NflIdRusher,OffenseFormation,OffensePersonnel,DefendersInTheBox,DefensePersonnel,PlayDirection,TimeHandoff,TimeSnap,PlayerHeight,PlayerWeight,PlayerBirthDate,PlayerCollegeName,Position,HomeTeamAbbr,VisitorTeamAbbr,Week,Stadium,Location,StadiumType,Turf,GameWeather,Temperature,Humidity,WindSpeed,WindDirection
3938,2019090803,20190908031900,away,16.7,27.15,5.57,1.52,0.55,227.76,223.68,2495466,Mark Ingram,21,2019,2,2,01:46:00,BLT,1,2,MIA,3,35,2495466,JUMBO,"2 RB, 3 TE, 0 WR",7,"5 DL, 4 LB, 2 DB",left,2019-09-08T18:25:20.000Z,2019-09-08T18:25:19.000Z,5-9,215,12/21/1989,Alabama,RB,MIA,BAL,1,Hard Rock Stadium,"Miami Gardens, FL",Outdoor,Natural grass,Mostly Cloudy,91.0,56,8,SSE
3939,2019090803,20190908031900,away,11.27,30.21,1.33,1.52,0.14,22.33,271.1,2507188,Marshal Yanda,73,2019,2,2,01:46:00,BLT,1,2,MIA,3,35,2495466,JUMBO,"2 RB, 3 TE, 0 WR",7,"5 DL, 4 LB, 2 DB",left,2019-09-08T18:25:20.000Z,2019-09-08T18:25:19.000Z,6-3,305,09/15/1984,Iowa,G,MIA,BAL,1,Hard Rock Stadium,"Miami Gardens, FL",Outdoor,Natural grass,Mostly Cloudy,91.0,56,8,SSE
3940,2019090803,20190908031900,away,12.74,24.34,2.08,1.29,0.21,290.35,190.23,2552402,Nick Boyle,86,2019,2,2,01:46:00,BLT,1,2,MIA,3,35,2495466,JUMBO,"2 RB, 3 TE, 0 WR",7,"5 DL, 4 LB, 2 DB",left,2019-09-08T18:25:20.000Z,2019-09-08T18:25:19.000Z,6-4,270,02/17/1993,Delaware,TE,MIA,BAL,1,Hard Rock Stadium,"Miami Gardens, FL",Outdoor,Natural grass,Mostly Cloudy,91.0,56,8,SSE
3941,2019090803,20190908031900,away,13.11,26.62,0.62,1.01,0.06,355.47,182.27,2555204,Ronnie Stanley,79,2019,2,2,01:46:00,BLT,1,2,MIA,3,35,2495466,JUMBO,"2 RB, 3 TE, 0 WR",7,"5 DL, 4 LB, 2 DB",left,2019-09-08T18:25:20.000Z,2019-09-08T18:25:19.000Z,6-6,315,03/18/1994,Notre Dame,T,MIA,BAL,1,Hard Rock Stadium,"Miami Gardens, FL",Outdoor,Natural grass,Mostly Cloudy,91.0,56,8,SSE
3942,2019090803,20190908031900,away,12.32,28.27,0.84,1.84,0.06,285.79,254.58,2556683,Matt Skura,68,2019,2,2,01:46:00,BLT,1,2,MIA,3,35,2495466,JUMBO,"2 RB, 3 TE, 0 WR",7,"5 DL, 4 LB, 2 DB",left,2019-09-08T18:25:20.000Z,2019-09-08T18:25:19.000Z,6-3,313,02/17/1993,Duke,C,MIA,BAL,1,Hard Rock Stadium,"Miami Gardens, FL",Outdoor,Natural grass,Mostly Cloudy,91.0,56,8,SSE
3943,2019090803,20190908031900,away,15.12,26.05,5.25,0.64,0.53,268.27,207.32,2558990,Patrick Ricard,42,2019,2,2,01:46:00,BLT,1,2,MIA,3,35,2495466,JUMBO,"2 RB, 3 TE, 0 WR",7,"5 DL, 4 LB, 2 DB",left,2019-09-08T18:25:20.000Z,2019-09-08T18:25:19.000Z,6-3,311,05/27/1994,Maine,FB,MIA,BAL,1,Hard Rock Stadium,"Miami Gardens, FL",Outdoor,Natural grass,Mostly Cloudy,91.0,56,8,SSE
3944,2019090803,20190908031900,away,14.5,25.02,3.48,0.97,0.35,157.4,166.85,2559827,Bradley Bozeman,77,2019,2,2,01:46:00,BLT,1,2,MIA,3,35,2495466,JUMBO,"2 RB, 3 TE, 0 WR",7,"5 DL, 4 LB, 2 DB",left,2019-09-08T18:25:20.000Z,2019-09-08T18:25:19.000Z,6-3,317,11/24/1994,Alabama,C,MIA,BAL,1,Hard Rock Stadium,"Miami Gardens, FL",Outdoor,Natural grass,Mostly Cloudy,91.0,56,8,SSE
3945,2019090803,20190908031900,away,14.2,31.92,2.94,1.01,0.29,256.29,165.16,2560747,Hayden Hurst,81,2019,2,2,01:46:00,BLT,1,2,MIA,3,35,2495466,JUMBO,"2 RB, 3 TE, 0 WR",7,"5 DL, 4 LB, 2 DB",left,2019-09-08T18:25:20.000Z,2019-09-08T18:25:19.000Z,6-4,245,08/24/1993,South Carolina,TE,MIA,BAL,1,Hard Rock Stadium,"Miami Gardens, FL",Outdoor,Natural grass,Mostly Cloudy,91.0,56,8,SSE
3946,2019090803,20190908031900,away,17.15,28.64,4.59,1.0,0.45,110.61,107.97,2560757,Lamar Jackson,8,2019,2,2,01:46:00,BLT,1,2,MIA,3,35,2495466,JUMBO,"2 RB, 3 TE, 0 WR",7,"5 DL, 4 LB, 2 DB",left,2019-09-08T18:25:20.000Z,2019-09-08T18:25:19.000Z,6-2,212,01/07/1997,Louisville,QB,MIA,BAL,1,Hard Rock Stadium,"Miami Gardens, FL",Outdoor,Natural grass,Mostly Cloudy,91.0,56,8,SSE
3947,2019090803,20190908031900,away,14.34,30.37,3.82,1.3,0.37,221.45,149.54,2560957,Mark Andrews,89,2019,2,2,01:46:00,BLT,1,2,MIA,3,35,2495466,JUMBO,"2 RB, 3 TE, 0 WR",7,"5 DL, 4 LB, 2 DB",left,2019-09-08T18:25:20.000Z,2019-09-08T18:25:19.000Z,6-4,255,09/06/1995,Oklahoma,TE,MIA,BAL,1,Hard Rock Stadium,"Miami Gardens, FL",Outdoor,Natural grass,Mostly Cloudy,91.0,56,8,SSE
3948,2019090803,20190908031900,away,14.28,29.2,3.06,0.72,0.32,209.72,157.62,2560981,Orlando Brown,78,2019,2,2,01:46:00,BLT,1,2,MIA,3,35,2495466,JUMBO,"2 RB, 3 TE, 0 WR",7,"5 DL, 4 LB, 2 DB",left,2019-09-08T18:25:20.000Z,2019-09-08T18:25:19.000Z,6-8,345,05/02/1996,Oklahoma,T,MIA,BAL,1,Hard Rock Stadium,"Miami Gardens, FL",Outdoor,Natural grass,Mostly Cloudy,91.0,56,8,SSE
3949,2019090803,20190908031900,home,12.04,28.52,1.14,1.64,0.1,93.63,233.54,2539231,John Jenkins,95,2019,2,2,01:46:00,BLT,1,2,MIA,3,35,2495466,JUMBO,"2 RB, 3 TE, 0 WR",7,"5 DL, 4 LB, 2 DB",left,2019-09-08T18:25:20.000Z,2019-09-08T18:25:19.000Z,6-3,327,07/11/1989,Georgia,NT,MIA,BAL,1,Hard Rock Stadium,"Miami Gardens, FL",Outdoor,Natural grass,Mostly Cloudy,91.0,56,8,SSE
3950,2019090803,20190908031900,home,10.48,32.91,3.18,1.4,0.31,99.89,178.12,2552255,Eric Rowe,21,2019,2,2,01:46:00,BLT,1,2,MIA,3,35,2495466,JUMBO,"2 RB, 3 TE, 0 WR",7,"5 DL, 4 LB, 2 DB",left,2019-09-08T18:25:20.000Z,2019-09-08T18:25:19.000Z,6-1,205,10/03/1992,Utah,CB,MIA,BAL,1,Hard Rock Stadium,"Miami Gardens, FL",Outdoor,Natural grass,Mostly Cloudy,91.0,56,8,SSE
3951,2019090803,20190908031900,home,12.77,25.13,1.48,1.13,0.17,81.34,170.95,2558001,Charles Harris,90,2019,2,2,01:46:00,BLT,1,2,MIA,3,35,2495466,JUMBO,"2 RB, 3 TE, 0 WR",7,"5 DL, 4 LB, 2 DB",left,2019-09-08T18:25:20.000Z,2019-09-08T18:25:19.000Z,6-3,250,03/06/1995,Missouri,DE,MIA,BAL,1,Hard Rock Stadium,"Miami Gardens, FL",Outdoor,Natural grass,Mostly Cloudy,91.0,56,8,SSE
3952,2019090803,20190908031900,home,13.34,29.81,1.53,1.67,0.16,133.99,152.37,2558012,Davon Godchaux,56,2019,2,2,01:46:00,BLT,1,2,MIA,3,35,2495466,JUMBO,"2 RB, 3 TE, 0 WR",7,"5 DL, 4 LB, 2 DB",left,2019-09-08T18:25:20.000Z,2019-09-08T18:25:19.000Z,6-3,311,11/11/1994,Louisiana State,DT,MIA,BAL,1,Hard Rock Stadium,"Miami Gardens, FL",Outdoor,Natural grass,Mostly Cloudy,91.0,56,8,SSE
3953,2019090803,20190908031900,home,13.76,32.46,2.87,2.61,0.28,98.65,144.73,2558031,Avery Moss,93,2019,2,2,01:46:00,BLT,1,2,MIA,3,35,2495466,JUMBO,"2 RB, 3 TE, 0 WR",7,"5 DL, 4 LB, 2 DB",left,2019-09-08T18:25:20.000Z,2019-09-08T18:25:19.000Z,6-3,271,09/16/1994,Youngstown State,OLB,MIA,BAL,1,Hard Rock Stadium,"Miami Gardens, FL",Outdoor,Natural grass,Mostly Cloudy,91.0,56,8,SSE
3954,2019090803,20190908031900,home,9.89,25.61,3.95,1.16,0.38,100.92,134.81,2558070,Raekwon McMillan,52,2019,2,2,01:46:00,BLT,1,2,MIA,3,35,2495466,JUMBO,"2 RB, 3 TE, 0 WR",7,"5 DL, 4 LB, 2 DB",left,2019-09-08T18:25:20.000Z,2019-09-08T18:25:19.000Z,6-2,242,11/17/1995,Ohio State,LB,MIA,BAL,1,Hard Rock Stadium,"Miami Gardens, FL",Outdoor,Natural grass,Mostly Cloudy,91.0,56,8,SSE
3955,2019090803,20190908031900,home,14.12,23.21,2.31,2.65,0.22,262.59,91.03,2560725,Minkah Fitzpatrick,29,2019,2,2,01:46:00,BLT,1,2,MIA,3,35,2495466,JUMBO,"2 RB, 3 TE, 0 WR",7,"5 DL, 4 LB, 2 DB",left,2019-09-08T18:25:20.000Z,2019-09-08T18:25:19.000Z,6-1,207,11/17/1996,Alabama,S,MIA,BAL,1,Hard Rock Stadium,"Miami Gardens, FL",Outdoor,Natural grass,Mostly Cloudy,91.0,56,8,SSE
3956,2019090803,20190908031900,home,10.18,28.69,5.12,1.01,0.51,137.17,150.36,2560966,Jerome Baker,55,2019,2,2,01:46:00,BLT,1,2,MIA,3,35,2495466,JUMBO,"2 RB, 3 TE, 0 WR",7,"5 DL, 4 LB, 2 DB",left,2019-09-08T18:25:20.000Z,2019-09-08T18:25:19.000Z,6-2,225,12/25/1996,Ohio State,LB,MIA,BAL,1,Hard Rock Stadium,"Miami Gardens, FL",Outdoor,Natural grass,Mostly Cloudy,91.0,56,8,SSE
3957,2019090803,20190908031900,home,12.78,34.27,2.47,2.35,0.25,133.12,178.28,2562038,Sam Eguavoen,49,2019,2,2,01:46:00,BLT,1,2,MIA,3,35,2495466,JUMBO,"2 RB, 3 TE, 0 WR",7,"5 DL, 4 LB, 2 DB",left,2019-09-08T18:25:20.000Z,2019-09-08T18:25:19.000Z,6-0,236,02/22/1993,Texas Tech,LB,MIA,BAL,1,Hard Rock Stadium,"Miami Gardens, FL",Outdoor,Natural grass,Mostly Cloudy,91.0,56,8,SSE
3958,2019090803,20190908031900,home,13.01,27.16,0.5,1.31,0.05,123.65,168.7,2562302,Jonathan Ledbetter,98,2019,2,2,01:46:00,BLT,1,2,MIA,3,35,2495466,JUMBO,"2 RB, 3 TE, 0 WR",7,"5 DL, 4 LB, 2 DB",left,2019-09-08T18:25:20.000Z,2019-09-08T18:25:19.000Z,6-4,280,09/12/1997,Georgia,DE,MIA,BAL,1,Hard Rock Stadium,"Miami Gardens, FL",Outdoor,Natural grass,Mostly Cloudy,91.0,56,8,SSE
3959,2019090803,20190908031900,home,14.09,29.9,3.08,1.43,0.33,358.24,149.68,2562782,Christian Wilkins,94,2019,2,2,01:46:00,BLT,1,2,MIA,3,35,2495466,JUMBO,"2 RB, 3 TE, 0 WR",7,"5 DL, 4 LB, 2 DB",left,2019-09-08T18:25:20.000Z,2019-09-08T18:25:19.000Z,6-4,315,12/20/1995,Clemson,DT,MIA,BAL,1,Hard Rock Stadium,"Miami Gardens, FL",Outdoor,Natural grass,Mostly Cloudy,91.0,56,8,SSE
