,GameId,PlayId,Team,X,Y,S,A,Dis,Orientation,Dir,NflId,DisplayName,JerseyNumber,Season,YardLine,Quarter,GameClock,PossessionTeam,Down,Distance,FieldPosition,HomeScoreBeforePlay,VisitorScoreBeforePlay,NflIdRusher,OffenseFormation,OffensePersonnel,DefendersInTheBox,DefensePersonnel,PlayDirection,TimeHandoff,TimeSnap,PlayerHeight,PlayerWeight,PlayerBirthDate,PlayerCollegeName,Position,HomeTeamAbbr,VisitorTeamAbbr,Week,Stadium,Location,StadiumType,Turf,GameWeather,Temperature,Humidity,WindSpeed,WindDirection
50534,2019092903,20190929033505,away,91.71,29.82,5.39,1.61,0.53,48.74,38.73,79607,LeSean McCoy,25,2019,13,4,14:15:00,KC,1,10,DET,23,20,79607,SINGLEBACK,"1 RB, 2 TE, 2 WR",7,"3 DL, 3 LB, 5 DB",right,2019-09-29T19:42:05.000Z,2019-09-29T19:42:04.000Z,5-11,210,07/12/1988,Pittsburgh,RB,DET,KC,4,Ford Field,Detroit,Indoors,Field Turf,Controlled Climate,68.0,70,,
50535,2019092903,20190929033505,away,96.67,27.55,3.74,1.13,0.38,105.67,6.34,2532945,Mitchell Schwartz,71,2019,13,4,14:15:00,KC,1,10,DET,23,20,79607,SINGLEBACK,"1 RB, 2 TE, 2 WR",7,"3 DL, 3 LB, 5 DB",right,2019-09-29T19:42:05.000Z,2019-09-29T19:42:04.000Z,6-5,320,06/08/1989,California,T,DET,KC,4,Ford Field,Detroit,Indoors,Field Turf,Controlled Climate,68.0,70,,
50536,2019092903,20190929033505,away,96.72,22.93,1.88,2.54,0.19,177.62,7.01,2540258,Travis Kelce,87,2019,13,4,14:15:00,KC,1,10,DET,23,20,79607,SINGLEBACK,"1 RB, 2 TE, 2 WR",7,"3 DL, 3 LB, 5 DB",right,2019-09-29T19:42:05.000Z,2019-09-29T19:42:04.000Z,6-5,260,10/05/1989,Cincinnati,TE,DET,KC,4,Ford Field,Detroit,Indoors,Field Turf,Controlled Climate,68.0,70,,
50537,2019092903,20190929033505,away,97.14,20.25,1.68,0.89,0.17,129.18,14.19,2543457,Sammy Watkins,14,2019,13,4,14:15:00,KC,1,10,DET,23,20,79607,SINGLEBACK,"1 RB, 2 TE, 2 WR",7,"3 DL, 3 LB, 5 DB",right,2019-09-29T19:42:05.000Z,2019-09-29T19:42:04.000Z,6-1,211,06/14/1993,Clemson,WR,DET,KC,4,Ford Field,Detroit,Indoors,Field Turf,Controlled Climate,68.0,70,,
50538,2019092903,20190929033505,away,98.86,28.7,4.08,2.26,0.41,27.75,21.04,2543816,Laurent Duvernay-Tardif,76,2019,13,4,14:15:00,KC,1,10,DET,23,20,79607,SINGLEBACK,"1 RB, 2 TE, 2 WR",7,"3 DL, 3 LB, 5 DB",right,2019-09-29T19:42:05.000Z,2019-09-29T19:42:04.000Z,6-5,321,02/11/1991,McGill,G,DET,KC,4,Ford Field,Detroit,Indoors,Field Turf,Controlled Climate,68.0,70,,
50539,2019092903,20190929033505,away,94.86,33.06,3.57,0.65,0.37,23.97,331.41,2552240,Cameron Erving,75,2019,13,4,14:15:00,KC,1,10,DET,23,20,79607,SINGLEBACK,"1 RB, 2 TE, 2 WR",7,"3 DL, 3 LB, 5 DB",right,2019-09-29T19:42:05.000Z,2019-09-29T19:42:04.000Z,6-5,313,08/23/1992,Florida State,G,DET,KC,4,Ford Field,Detroit,Indoors,Field Turf,Controlled Climate,68.0,70,,
50540,2019092903,20190929033505,away,97.5,24.68,4.38,1.5,0.43,87.41,54.8,2552478,Blake Bell,81,2019,13,4,14:15:00,KC,1,10,DET,23,20,79607,SINGLEBACK,"1 RB, 2 TE, 2 WR",7,"3 DL, 3 LB, 5 DB",right,2019-09-29T19:42:05.000Z,2019-09-29T19:42:04.000Z,6-6,252,08/07/1991,Oklahoma,TE,DET,KC,4,Ford Field,Detroit,Indoors,Field Turf,Controlled Climate,68.0,70,,
50541,2019092903,20190929033505,away,97.05,30.77,4.2,1.19,0.44,30.44,10.69,2553452,Austin Reiter,62,2019,13,4,14:15:00,KC,1,10,DET,23,20,79607,SINGLEBACK,"1 RB, 2 TE, 2 WR",7,"3 DL, 3 LB, 5 DB",right,2019-09-29T19:42:05.000Z,2019-09-29T19:42:04.000Z,6-3,300,11/27/1991,South Florida,C,DET,KC,4,Ford Field,Detroit,Indoors,Field Turf,Controlled Climate,68.0,70,,
50542,2019092903,20190929033505,away,98.6,36.72,5.34,2.7,0.53,76.79,45.29,2555478,Demarcus Robinson,11,2019,13,4,14:15:00,KC,1,10,DET,23,20,79607,SINGLEBACK,"1 RB, 2 TE, 2 WR",7,"3 DL, 3 LB, 5 DB",right,2019-09-29T19:42:05.000Z,2019-09-29T19:42:04.000Z,6-1,203,09/21/1994,Florida,WR,DET,KC,4,Ford Field,Detroit,Indoors,Field Turf,Controlled Climate,68.0,70,,
50543,2019092903,20190929033505,away,91.03,28.11,4.63,3.93,0.47,247.01,270.1,2558125,Patrick Mahomes,15,2019,13,4,14:15:00,KC,1,10,DET,23,20,79607,SINGLEBACK,"1 RB, 2 TE, 2 WR",7,"3 DL, 3 LB, 5 DB",right,2019-09-29T19:42:05.000Z,2019-09-29T19:42:04.000Z,6-3,230,09/17/1995,Texas Tech,QB,DET,KC,4,Ford Field,Detroit,Indoors,Field Turf,Controlled Climate,68.0,70,,
50544,2019092903,20190929033505,away,96.51,31.54,4.11,1.31,0.41,70.77,6.89,2559354,Andrew Wylie,77,2019,13,4,14:15:00,KC,1,10,DET,23,20,79607,SINGLEBACK,"1 RB, 2 TE, 2 WR",7,"3 DL, 3 LB, 5 DB",right,2019-09-29T19:42:05.000Z,2019-09-29T19:42:04.000Z,6-6,309,08/19/1994,Eastern Michigan,OT,DET,KC,4,Ford Field,Detroit,Indoors,Field Turf,Controlled Climate,68.0,70,,
50545,2019092903,20190929033505,home,99.67,23.89,3.42,3.66,0.34,288.94,348.79,2534830,Tavon Wilson,32,2019,13,4,14:15:00,KC,1,10,DET,23,20,79607,SINGLEBACK,"1 RB, 2 TE, 2 WR",7,"3 DL, 3 LB, 5 DB",right,2019-09-29T19:42:05.000Z,2019-09-29T19:42:04.000Z,6-0,208,03/19/1990,Illinois,SS,DET,KC,4,Ford Field,Detroit,Indoors,Field Turf,Controlled Climate,68.0,70,,
50546,2019092903,20190929033505,home,97.31,27.26,3.35,1.46,0.35,277.45,0.06,2535718,Damon Harrison,98,2019,13,4,14:15:00,KC,1,10,DET,23,20,79607,SINGLEBACK,"1 RB, 2 TE, 2 WR",7,"3 DL, 3 LB, 5 DB",right,2019-09-29T19:42:05.000Z,2019-09-29T19:42:04.000Z,6-3,350,11/29/1988,William Penn,DT,DET,KC,4,Ford Field,Detroit,Indoors,Field Turf,Controlled Climate,68.0,70,,
50547,2019092903,20190929033505,home,99.74,35.71,4.98,4.0,0.48,303.85,38.34,2541200,Rashaan Melvin,29,2019,13,4,14:15:00,KC,1,10,DET,23,20,79607,SINGLEBACK,"1 RB, 2 TE, 2 WR",7,"3 DL, 3 LB, 5 DB",right,2019-09-29T19:42:05.000Z,2019-09-29T19:42:04.000Z,6-2,196,10/02/1989,Northern Illinois,CB,DET,KC,4,Ford Field,Detroit,Indoors,Field Turf,Controlled Climate,68.0,70,,
50548,2019092903,20190929033505,home,96.03,22.08,3.48,1.64,0.34,322.68,298.34,2543869,Devon Kennard,42,2019,13,4,14:15:00,KC,1,10,DET,23,20,79607,SINGLEBACK,"1 RB, 2 TE, 2 WR",7,"3 DL, 3 LB, 5 DB",right,2019-09-29T19:42:05.000Z,2019-09-29T19:42:04.000Z,6-3,256,06/24/1991,Southern California,OLB,DET,KC,4,Ford Field,Detroit,Indoors,Field Turf,Controlled Climate,68.0,70,,
50549,2019092903,20190929033505,home,99.29,29.15,5.48,0.5,0.55,297.77,327.29,2550572,Christian Jones,52,2019,13,4,14:15:00,KC,1,10,DET,23,20,79607,SINGLEBACK,"1 RB, 2 TE, 2 WR",7,"3 DL, 3 LB, 5 DB",right,2019-09-29T19:42:05.000Z,2019-09-29T19:42:04.000Z,6-3,250,02/18/1991,Florida State,ILB,DET,KC,4,Ford Field,Detroit,Indoors,Field Turf,Controlled Climate,68.0,70,,
50550,2019092903,20190929033505,home,95.46,33.55,2.6,2.13,0.26,291.82,327.69,2552278,Trey Flowers,90,2019,13,4,14:15:00,KC,1,10,DET,23,20,79607,SINGLEBACK,"1 RB, 2 TE, 2 WR",7,"3 DL, 3 LB, 5 DB",right,2019-09-29T19:42:05.000Z,2019-09-29T19:42:04.000Z,6-2,265,08/16/1993,Arkansas,DE,DET,KC,4,Ford Field,Detroit,Indoors,Field Turf,Controlled Climate,68.0,70,,
50551,2019092903,20190929033505,home,97.74,19.74,1.4,0.39,0.14,300.23,8.34,2553637,Justin Coleman,27,2019,13,4,14:15:00,KC,1,10,DET,23,20,79607,SINGLEBACK,"1 RB, 2 TE, 2 WR",7,"3 DL, 3 LB, 5 DB",right,2019-09-29T19:42:05.000Z,2019-09-29T19:42:04.000Z,5-11,190,03/27/1993,Tennessee,CB,DET,KC,4,Ford Field,Detroit,Indoors,Field Turf,Controlled Climate,68.0,70,,
50552,2019092903,20190929033505,home,97.29,31.6,4.11,1.14,0.43,257.23,6.09,2555265,A'Shawn Robinson,91,2019,13,4,14:15:00,KC,1,10,DET,23,20,79607,SINGLEBACK,"1 RB, 2 TE, 2 WR",7,"3 DL, 3 LB, 5 DB",right,2019-09-29T19:42:05.000Z,2019-09-29T19:42:04.000Z,6-4,330,03/21/1995,Alabama,DT,DET,KC,4,Ford Field,Detroit,Indoors,Field Turf,Controlled Climate,68.0,70,,
50553,2019092903,20190929033505,home,100.81,30.42,4.78,2.39,0.46,281.17,337.62,2557855,Jarrad Davis,40,2019,13,4,14:15:00,KC,1,10,DET,23,20,79607,SINGLEBACK,"1 RB, 2 TE, 2 WR",7,"3 DL, 3 LB, 5 DB",right,2019-09-29T19:42:05.000Z,2019-09-29T19:42:04.000Z,6-1,245,11/16/1994,Florida,MLB,DET,KC,4,Ford Field,Detroit,Indoors,Field Turf,Controlled Climate,68.0,70,,
50554,2019092903,20190929033505,home,101.66,19.16,2.09,1.32,0.2,311.86,26.91,2560913,Tracy Walker,21,2019,13,4,14:15:00,KC,1,10,DET,23,20,79607,SINGLEBACK,"1 RB, 2 TE, 2 WR",7,"3 DL, 3 LB, 5 DB",right,2019-09-29T19:42:05.000Z,2019-09-29T19:42:04.000Z,6-1,210,02/01/1995,Louisiana-Lafayette,DB,DET,KC,4,Ford Field,Detroit,Indoors,Field Turf,Controlled Climate,68.0,70,,
50555,2019092903,20190929033505,home,107.48,26.39,3.16,2.89,0.3,272.5,348.1,2562395,Will Harris,25,2019,13,4,14:15:00,KC,1,10,DET,23,20,79607,SINGLEBACK,"1 RB, 2 TE, 2 WR",7,"3 DL, 3 LB, 5 DB",right,2019-09-29T19:42:05.000Z,2019-09-29T19:42:04.000Z,6-1,207,12/19/1995,Boston College,DB,DET,KC,4,Ford Field,Detroit,Indoors,Field Turf,Controlled Climate,68.0,70,,
