,GameId,PlayId,Team,X,Y,S,A,Dis,Orientation,Dir,NflId,DisplayName,JerseyNumber,Season,YardLine,Quarter,GameClock,PossessionTeam,Down,Distance,FieldPosition,HomeScoreBeforePlay,VisitorScoreBeforePlay,NflIdRusher,OffenseFormation,OffensePersonnel,DefendersInTheBox,DefensePersonnel,PlayDirection,TimeHandoff,TimeSnap,PlayerHeight,PlayerWeight,PlayerBirthDate,PlayerCollegeName,Position,HomeTeamAbbr,VisitorTeamAbbr,Week,Stadium,Location,StadiumType,Turf,GameWeather,Temperature,Humidity,WindSpeed,WindDirection
58498,2019092911,20190929113464,away,54.51,22.2,1.01,2.03,0.11,66.14,323.18,744,Calais Campbell,93,2019,44,4,10:52:00,DEN,1,10,JAX,17,20,2560733,SINGLEBACK,"1 RB, 1 TE, 3 WR",6,"3 DL, 3 LB, 5 DB",left,2019-09-29T23:03:40.000Z,2019-09-29T23:03:38.000Z,6-8,300,09/01/1986,Miami,DE,DEN,JAX,4,Empower Field at Mile High,"Denver, CO",Outdoor,Grass,Sunny,87.0,11,14 Gusting to 24,Southwest
58499,2019092911,20190929113464,away,53.51,24.16,0.71,2.03,0.08,58.88,105.01,2539230,Abry Jones,95,2019,44,4,10:52:00,DEN,1,10,JAX,17,20,2560733,SINGLEBACK,"1 RB, 1 TE, 3 WR",6,"3 DL, 3 LB, 5 DB",left,2019-09-29T23:03:40.000Z,2019-09-29T23:03:38.000Z,6-4,318,09/08/1991,Georgia,NT,DEN,JAX,4,Empower Field at Mile High,"Denver, CO",Outdoor,Grass,Sunny,87.0,11,14 Gusting to 24,Southwest
58500,2019092911,20190929113464,away,54.92,30.19,3.29,2.1,0.33,112.49,136.13,2539237,D.J. Hayden,25,2019,44,4,10:52:00,DEN,1,10,JAX,17,20,2560733,SINGLEBACK,"1 RB, 1 TE, 3 WR",6,"3 DL, 3 LB, 5 DB",left,2019-09-29T23:03:40.000Z,2019-09-29T23:03:38.000Z,5-11,190,06/27/1990,Houston,CB,DEN,JAX,4,Empower Field at Mile High,"Denver, CO",Outdoor,Grass,Sunny,87.0,11,14 Gusting to 24,Southwest
58501,2019092911,20190929113464,away,44.81,35.32,0.4,1.06,0.04,143.7,249.89,2541162,A.J. Bouye,21,2019,44,4,10:52:00,DEN,1,10,JAX,17,20,2560733,SINGLEBACK,"1 RB, 1 TE, 3 WR",6,"3 DL, 3 LB, 5 DB",left,2019-09-29T23:03:40.000Z,2019-09-29T23:03:38.000Z,6-0,191,08/16/1991,Central Florida,CB,DEN,JAX,4,Empower Field at Mile High,"Denver, CO",Outdoor,Grass,Sunny,87.0,11,14 Gusting to 24,Southwest
58502,2019092911,20190929113464,away,50.47,26.79,3.14,1.58,0.31,73.58,49.96,2555329,Myles Jack,44,2019,44,4,10:52:00,DEN,1,10,JAX,17,20,2560733,SINGLEBACK,"1 RB, 1 TE, 3 WR",6,"3 DL, 3 LB, 5 DB",left,2019-09-29T23:03:40.000Z,2019-09-29T23:03:38.000Z,6-1,244,09/03/1995,UCLA,OLB,DEN,JAX,4,Empower Field at Mile High,"Denver, CO",Outdoor,Grass,Sunny,87.0,11,14 Gusting to 24,Southwest
58503,2019092911,20190929113464,away,56.25,28.83,1.91,1.66,0.2,179.27,91.12,2555421,Yannick Ngakoue,91,2019,44,4,10:52:00,DEN,1,10,JAX,17,20,2560733,SINGLEBACK,"1 RB, 1 TE, 3 WR",6,"3 DL, 3 LB, 5 DB",left,2019-09-29T23:03:40.000Z,2019-09-29T23:03:38.000Z,6-2,246,03/31/1995,Maryland,DE,DEN,JAX,4,Empower Field at Mile High,"Denver, CO",Outdoor,Grass,Sunny,87.0,11,14 Gusting to 24,Southwest
58504,2019092911,20190929113464,away,48.49,32.49,1.21,0.09,0.12,118.01,33.37,2556711,Jarrod Wilson,26,2019,44,4,10:52:00,DEN,1,10,JAX,17,20,2560733,SINGLEBACK,"1 RB, 1 TE, 3 WR",6,"3 DL, 3 LB, 5 DB",left,2019-09-29T23:03:40.000Z,2019-09-29T23:03:38.000Z,6-2,210,02/09/1994,Michigan,SS,DEN,JAX,4,Empower Field at Mile High,"Denver, CO",Outdoor,Grass,Sunny,87.0,11,14 Gusting to 24,Southwest
58505,2019092911,20190929113464,away,38.07,24.27,1.94,1.46,0.2,83.09,282.91,2561008,Ronnie Harrison,36,2019,44,4,10:52:00,DEN,1,10,JAX,17,20,2560733,SINGLEBACK,"1 RB, 1 TE, 3 WR",6,"3 DL, 3 LB, 5 DB",left,2019-09-29T23:03:40.000Z,2019-09-29T23:03:38.000Z,6-3,214,04/18/1997,Alabama,DB,DEN,JAX,4,Empower Field at Mile High,"Denver, CO",Outdoor,Grass,Sunny,87.0,11,14 Gusting to 24,Southwest
58506,2019092911,20190929113464,away,50.9,10.77,2.56,1.23,0.25,84.21,288.23,2561340,Tre Herndon,37,2019,44,4,10:52:00,DEN,1,10,JAX,17,20,2560733,SINGLEBACK,"1 RB, 1 TE, 3 WR",6,"3 DL, 3 LB, 5 DB",left,2019-09-29T23:03:40.000Z,2019-09-29T23:03:38.000Z,5-11,185,03/05/1996,Vanderbilt,CB,DEN,JAX,4,Empower Field at Mile High,"Denver, CO",Outdoor,Grass,Sunny,87.0,11,14 Gusting to 24,Southwest
58507,2019092911,20190929113464,away,56.05,20.56,2.56,4.3,0.27,35.46,51.72,2562619,Josh Allen,41,2019,44,4,10:52:00,DEN,1,10,JAX,17,20,2560733,SINGLEBACK,"1 RB, 1 TE, 3 WR",6,"3 DL, 3 LB, 5 DB",left,2019-09-29T23:03:40.000Z,2019-09-29T23:03:38.000Z,6-5,262,07/13/1997,Kentucky,LB,DEN,JAX,4,Empower Field at Mile High,"Denver, CO",Outdoor,Grass,Sunny,87.0,11,14 Gusting to 24,Southwest
58508,2019092911,20190929113464,away,49.88,22.16,1.92,1.43,0.19,62.37,50.82,2562954,Quincy Williams,56,2019,44,4,10:52:00,DEN,1,10,JAX,17,20,2560733,SINGLEBACK,"1 RB, 1 TE, 3 WR",6,"3 DL, 3 LB, 5 DB",left,2019-09-29T23:03:40.000Z,2019-09-29T23:03:38.000Z,5-11,226,08/28/1996,Murray State,LB,DEN,JAX,4,Empower Field at Mile High,"Denver, CO",Outdoor,Grass,Sunny,87.0,11,14 Gusting to 24,Southwest
58509,2019092911,20190929113464,home,58.54,24.35,3.85,0.91,0.38,52.9,85.21,382,Joe Flacco,5,2019,44,4,10:52:00,DEN,1,10,JAX,17,20,2560733,SINGLEBACK,"1 RB, 1 TE, 3 WR",6,"3 DL, 3 LB, 5 DB",left,2019-09-29T23:03:40.000Z,2019-09-29T23:03:38.000Z,6-6,245,01/16/1985,Delaware,QB,DEN,JAX,4,Empower Field at Mile High,"Denver, CO",Outdoor,Grass,Sunny,87.0,11,14 Gusting to 24,Southwest
58510,2019092911,20190929113464,home,54.79,30.55,2.55,4.33,0.24,181.14,166.05,497322,Emmanuel Sanders,10,2019,44,4,10:52:00,DEN,1,10,JAX,17,20,2560733,SINGLEBACK,"1 RB, 1 TE, 3 WR",6,"3 DL, 3 LB, 5 DB",left,2019-09-29T23:03:40.000Z,2019-09-29T23:03:38.000Z,5-11,180,03/17/1987,Southern Methodist,WR,DEN,JAX,4,Empower Field at Mile High,"Denver, CO",Outdoor,Grass,Sunny,87.0,11,14 Gusting to 24,Southwest
58511,2019092911,20190929113464,home,54.23,24.77,0.48,1.4,0.05,237.78,41.41,2533454,Ronald Leary,65,2019,44,4,10:52:00,DEN,1,10,JAX,17,20,2560733,SINGLEBACK,"1 RB, 1 TE, 3 WR",6,"3 DL, 3 LB, 5 DB",left,2019-09-29T23:03:40.000Z,2019-09-29T23:03:38.000Z,6-3,320,04/29/1989,Memphis,G,DEN,JAX,4,Empower Field at Mile High,"Denver, CO",Outdoor,Grass,Sunny,87.0,11,14 Gusting to 24,Southwest
58512,2019092911,20190929113464,home,55.41,28.42,0.71,2.21,0.05,0.92,93.25,2552399,Jeff Heuerman,82,2019,44,4,10:52:00,DEN,1,10,JAX,17,20,2560733,SINGLEBACK,"1 RB, 1 TE, 3 WR",6,"3 DL, 3 LB, 5 DB",left,2019-09-29T23:03:40.000Z,2019-09-29T23:03:38.000Z,6-5,255,11/24/1992,Ohio State,TE,DEN,JAX,4,Empower Field at Mile High,"Denver, CO",Outdoor,Grass,Sunny,87.0,11,14 Gusting to 24,Southwest
58513,2019092911,20190929113464,home,55.17,22.48,0.43,3.15,0.04,230.92,8.55,2555133,Connor McGovern,60,2019,44,4,10:52:00,DEN,1,10,JAX,17,20,2560733,SINGLEBACK,"1 RB, 1 TE, 3 WR",6,"3 DL, 3 LB, 5 DB",left,2019-09-29T23:03:40.000Z,2019-09-29T23:03:38.000Z,6-4,306,04/27/1993,Missouri,G,DEN,JAX,4,Empower Field at Mile High,"Denver, CO",Outdoor,Grass,Sunny,87.0,11,14 Gusting to 24,Southwest
58514,2019092911,20190929113464,home,56.25,21.7,1.37,1.11,0.13,214.7,82.07,2558014,Garett Bolles,72,2019,44,4,10:52:00,DEN,1,10,JAX,17,20,2560733,SINGLEBACK,"1 RB, 1 TE, 3 WR",6,"3 DL, 3 LB, 5 DB",left,2019-09-29T23:03:40.000Z,2019-09-29T23:03:38.000Z,6-5,300,05/27/1992,Utah,T,DEN,JAX,4,Empower Field at Mile High,"Denver, CO",Outdoor,Grass,Sunny,87.0,11,14 Gusting to 24,Southwest
58515,2019092911,20190929113464,home,53.0,25.47,2.38,1.31,0.25,233.13,243.14,2559295,Elijah Wilkinson,68,2019,44,4,10:52:00,DEN,1,10,JAX,17,20,2560733,SINGLEBACK,"1 RB, 1 TE, 3 WR",6,"3 DL, 3 LB, 5 DB",left,2019-09-29T23:03:40.000Z,2019-09-29T23:03:38.000Z,6-6,329,02/10/1995,Massachusetts,T,DEN,JAX,4,Empower Field at Mile High,"Denver, CO",Outdoor,Grass,Sunny,87.0,11,14 Gusting to 24,Southwest
58516,2019092911,20190929113464,home,59.14,25.46,5.03,2.08,0.5,274.12,290.55,2560733,Royce Freeman,28,2019,44,4,10:52:00,DEN,1,10,JAX,17,20,2560733,SINGLEBACK,"1 RB, 1 TE, 3 WR",6,"3 DL, 3 LB, 5 DB",left,2019-09-29T23:03:40.000Z,2019-09-29T23:03:38.000Z,6-0,238,02/24/1996,Oregon,RB,DEN,JAX,4,Empower Field at Mile High,"Denver, CO",Outdoor,Grass,Sunny,87.0,11,14 Gusting to 24,Southwest
58517,2019092911,20190929113464,home,52.5,11.11,3.47,1.52,0.34,278.49,296.49,2560888,Courtland Sutton,14,2019,44,4,10:52:00,DEN,1,10,JAX,17,20,2560733,SINGLEBACK,"1 RB, 1 TE, 3 WR",6,"3 DL, 3 LB, 5 DB",left,2019-09-29T23:03:40.000Z,2019-09-29T23:03:38.000Z,6-4,216,10/10/1995,Southern Methodist,WR,DEN,JAX,4,Empower Field at Mile High,"Denver, CO",Outdoor,Grass,Sunny,87.0,11,14 Gusting to 24,Southwest
58518,2019092911,20190929113464,home,52.4,29.77,2.84,0.54,0.28,311.6,260.75,2561002,DaeSean Hamilton,17,2019,44,4,10:52:00,DEN,1,10,JAX,17,20,2560733,SINGLEBACK,"1 RB, 1 TE, 3 WR",6,"3 DL, 3 LB, 5 DB",left,2019-09-29T23:03:40.000Z,2019-09-29T23:03:38.000Z,6-1,206,03/10/1995,Penn State,WR,DEN,JAX,4,Empower Field at Mile High,"Denver, CO",Outdoor,Grass,Sunny,87.0,11,14 Gusting to 24,Southwest
58519,2019092911,20190929113464,home,56.16,26.08,4.55,0.14,0.45,1.23,19.83,2562714,Dalton Risner,66,2019,44,4,10:52:00,DEN,1,10,JAX,17,20,2560733,SINGLEBACK,"1 RB, 1 TE, 3 WR",6,"3 DL, 3 LB, 5 DB",left,2019-09-29T23:03:40.000Z,2019-09-29T23:03:38.000Z,6-5,312,07/13/1995,Kansas State,G,DEN,JAX,4,Empower Field at Mile High,"Denver, CO",Outdoor,Grass,Sunny,87.0,11,14 Gusting to 24,Southwest
