,GameId,PlayId,Team,X,Y,S,A,Dis,Orientation,Dir,NflId,DisplayName,JerseyNumber,Season,YardLine,Quarter,GameClock,PossessionTeam,Down,Distance,FieldPosition,HomeScoreBeforePlay,VisitorScoreBeforePlay,NflIdRusher,OffenseFormation,OffensePersonnel,DefendersInTheBox,DefensePersonnel,PlayDirection,TimeHandoff,TimeSnap,PlayerHeight,PlayerWeight,PlayerBirthDate,PlayerCollegeName,Position,HomeTeamAbbr,VisitorTeamAbbr,Week,Stadium,Location,StadiumType,Turf,GameWeather,Temperature,Humidity,WindSpeed,WindDirection
74316,2019100612,20191006124068,away,38.75,25.93,0.3,0.55,0.03,225.42,99.33,2495137,Anthony Castonzo,74,2019,27,4,04:23:00,IND,2,4,KC,10,16,2558123,SINGLEBACK,"1 RB, 2 TE, 2 WR",7,"4 DL, 3 LB, 4 DB",left,2019-10-07T03:18:22.000Z,2019-10-07T03:18:20.000Z,6-7,307,08/09/1988,Boston College,T,KC,IND,5,Arrowhead Stadium,"Kansas City, MO",Outdoor,Natural Grass,Cloudy,59.0,75,3,West
74317,2019100612,20191006124068,away,37.24,7.36,4.22,2.74,0.41,258.3,229.07,2532865,T.Y. Hilton,13,2019,27,4,04:23:00,IND,2,4,KC,10,16,2558123,SINGLEBACK,"1 RB, 2 TE, 2 WR",7,"4 DL, 3 LB, 4 DB",left,2019-10-07T03:18:22.000Z,2019-10-07T03:18:20.000Z,5-10,183,11/14/1989,Florida International,WR,KC,IND,5,Arrowhead Stadium,"Kansas City, MO",Outdoor,Natural Grass,Cloudy,59.0,75,3,West
74318,2019100612,20191006124068,away,37.89,33.75,1.88,2.97,0.2,329.16,203.83,2540232,Jack Doyle,84,2019,27,4,04:23:00,IND,2,4,KC,10,16,2558123,SINGLEBACK,"1 RB, 2 TE, 2 WR",7,"4 DL, 3 LB, 4 DB",left,2019-10-07T03:18:22.000Z,2019-10-07T03:18:20.000Z,6-6,262,05/05/1990,Western Kentucky,TE,KC,IND,5,Arrowhead Stadium,"Kansas City, MO",Outdoor,Natural Grass,Cloudy,59.0,75,3,West
74319,2019100612,20191006124068,away,37.36,29.95,1.44,0.28,0.15,219.54,203.85,2552467,Mark Glowinski,64,2019,27,4,04:23:00,IND,2,4,KC,10,16,2558123,SINGLEBACK,"1 RB, 2 TE, 2 WR",7,"4 DL, 3 LB, 4 DB",left,2019-10-07T03:18:22.000Z,2019-10-07T03:18:20.000Z,6-4,310,05/03/1992,West Virginia,G,KC,IND,5,Arrowhead Stadium,"Kansas City, MO",Outdoor,Natural Grass,Cloudy,59.0,75,3,West
74320,2019100612,20191006124068,away,37.19,26.98,3.0,1.6,0.31,157.23,169.94,2555191,Ryan Kelly,78,2019,27,4,04:23:00,IND,2,4,KC,10,16,2558123,SINGLEBACK,"1 RB, 2 TE, 2 WR",7,"4 DL, 3 LB, 4 DB",left,2019-10-07T03:18:22.000Z,2019-10-07T03:18:20.000Z,6-4,309,05/30/1993,Alabama,C,KC,IND,5,Arrowhead Stadium,"Kansas City, MO",Outdoor,Natural Grass,Cloudy,59.0,75,3,West
74321,2019100612,20191006124068,away,41.98,29.1,4.2,2.99,0.42,113.63,89.48,2555261,Jacoby Brissett,7,2019,27,4,04:23:00,IND,2,4,KC,10,16,2558123,SINGLEBACK,"1 RB, 2 TE, 2 WR",7,"4 DL, 3 LB, 4 DB",left,2019-10-07T03:18:22.000Z,2019-10-07T03:18:20.000Z,6-4,235,12/11/1992,North Carolina State,QB,KC,IND,5,Arrowhead Stadium,"Kansas City, MO",Outdoor,Natural Grass,Cloudy,59.0,75,3,West
74322,2019100612,20191006124068,away,42.12,28.33,4.03,2.72,0.39,254.76,244.1,2558123,Marlon Mack,25,2019,27,4,04:23:00,IND,2,4,KC,10,16,2558123,SINGLEBACK,"1 RB, 2 TE, 2 WR",7,"4 DL, 3 LB, 4 DB",left,2019-10-07T03:18:22.000Z,2019-10-07T03:18:20.000Z,6-0,210,03/07/1996,South Florida,RB,KC,IND,5,Arrowhead Stadium,"Kansas City, MO",Outdoor,Natural Grass,Cloudy,59.0,75,3,West
74323,2019100612,20191006124068,away,38.03,32.4,2.27,1.32,0.23,289.67,197.41,2558832,Mo Alie-Cox,81,2019,27,4,04:23:00,IND,2,4,KC,10,16,2558123,SINGLEBACK,"1 RB, 2 TE, 2 WR",7,"4 DL, 3 LB, 4 DB",left,2019-10-07T03:18:22.000Z,2019-10-07T03:18:20.000Z,6-5,267,09/19/1993,Virginia Commonwealth,TE,KC,IND,5,Arrowhead Stadium,"Kansas City, MO",Outdoor,Natural Grass,Cloudy,59.0,75,3,West
74324,2019100612,20191006124068,away,33.98,18.72,5.78,1.92,0.57,275.88,262.95,2558877,Zach Pascal,14,2019,27,4,04:23:00,IND,2,4,KC,10,16,2558123,SINGLEBACK,"1 RB, 2 TE, 2 WR",7,"4 DL, 3 LB, 4 DB",left,2019-10-07T03:18:22.000Z,2019-10-07T03:18:20.000Z,6-2,214,12/18/1994,Old Dominion,WR,KC,IND,5,Arrowhead Stadium,"Kansas City, MO",Outdoor,Natural Grass,Cloudy,59.0,75,3,West
74325,2019100612,20191006124068,away,37.53,25.71,2.31,1.18,0.24,230.79,180.94,2560820,Quenton Nelson,56,2019,27,4,04:23:00,IND,2,4,KC,10,16,2558123,SINGLEBACK,"1 RB, 2 TE, 2 WR",7,"4 DL, 3 LB, 4 DB",left,2019-10-07T03:18:22.000Z,2019-10-07T03:18:20.000Z,6-5,330,03/19/1996,Notre Dame,G,KC,IND,5,Arrowhead Stadium,"Kansas City, MO",Outdoor,Natural Grass,Cloudy,59.0,75,3,West
74326,2019100612,20191006124068,away,37.59,31.45,1.53,1.19,0.16,260.91,186.9,2560876,Braden Smith,72,2019,27,4,04:23:00,IND,2,4,KC,10,16,2558123,SINGLEBACK,"1 RB, 2 TE, 2 WR",7,"4 DL, 3 LB, 4 DB",left,2019-10-07T03:18:22.000Z,2019-10-07T03:18:20.000Z,6-6,315,03/25/1996,Auburn,G,KC,IND,5,Arrowhead Stadium,"Kansas City, MO",Outdoor,Natural Grass,Cloudy,59.0,75,3,West
74327,2019100612,20191006124068,home,32.25,33.45,3.53,2.41,0.34,139.25,158.8,2540180,Tyrann Mathieu,32,2019,27,4,04:23:00,IND,2,4,KC,10,16,2558123,SINGLEBACK,"1 RB, 2 TE, 2 WR",7,"4 DL, 3 LB, 4 DB",left,2019-10-07T03:18:22.000Z,2019-10-07T03:18:20.000Z,5-9,190,05/13/1992,Louisiana State,FS,KC,IND,5,Arrowhead Stadium,"Kansas City, MO",Outdoor,Natural Grass,Cloudy,59.0,75,3,West
74328,2019100612,20191006124068,home,33.21,37.88,3.09,2.19,0.3,139.36,175.36,2543571,Bashaud Breeland,21,2019,27,4,04:23:00,IND,2,4,KC,10,16,2558123,SINGLEBACK,"1 RB, 2 TE, 2 WR",7,"4 DL, 3 LB, 4 DB",left,2019-10-07T03:18:22.000Z,2019-10-07T03:18:20.000Z,5-11,195,01/30/1992,Clemson,CB,KC,IND,5,Arrowhead Stadium,"Kansas City, MO",Outdoor,Natural Grass,Cloudy,59.0,75,3,West
74329,2019100612,20191006124068,home,38.37,25.18,1.07,1.98,0.12,44.59,92.98,2552629,Frank Clark,55,2019,27,4,04:23:00,IND,2,4,KC,10,16,2558123,SINGLEBACK,"1 RB, 2 TE, 2 WR",7,"4 DL, 3 LB, 4 DB",left,2019-10-07T03:18:22.000Z,2019-10-07T03:18:20.000Z,6-3,260,06/14/1993,Michigan,DE,KC,IND,5,Arrowhead Stadium,"Kansas City, MO",Outdoor,Natural Grass,Cloudy,59.0,75,3,West
74330,2019100612,20191006124068,home,37.89,34.32,2.41,1.24,0.25,175.32,140.58,2552686,Damien Wilson,54,2019,27,4,04:23:00,IND,2,4,KC,10,16,2558123,SINGLEBACK,"1 RB, 2 TE, 2 WR",7,"4 DL, 3 LB, 4 DB",left,2019-10-07T03:18:22.000Z,2019-10-07T03:18:20.000Z,6-0,243,05/28/1993,Minnesota,OLB,KC,IND,5,Arrowhead Stadium,"Kansas City, MO",Outdoor,Natural Grass,Cloudy,59.0,75,3,West
74331,2019100612,20191006124068,home,37.0,31.29,2.08,1.72,0.21,82.68,174.43,2555278,Emmanuel Ogbah,90,2019,27,4,04:23:00,IND,2,4,KC,10,16,2558123,SINGLEBACK,"1 RB, 2 TE, 2 WR",7,"4 DL, 3 LB, 4 DB",left,2019-10-07T03:18:22.000Z,2019-10-07T03:18:20.000Z,6-4,275,11/06/1993,Oklahoma State,DE,KC,IND,5,Arrowhead Stadium,"Kansas City, MO",Outdoor,Natural Grass,Cloudy,59.0,75,3,West
74332,2019100612,20191006124068,home,37.67,26.56,3.08,1.13,0.31,40.82,147.37,2555322,Darron Lee,50,2019,27,4,04:23:00,IND,2,4,KC,10,16,2558123,SINGLEBACK,"1 RB, 2 TE, 2 WR",7,"4 DL, 3 LB, 4 DB",left,2019-10-07T03:18:22.000Z,2019-10-07T03:18:20.000Z,6-1,232,10/18/1994,Ohio State,ILB,KC,IND,5,Arrowhead Stadium,"Kansas City, MO",Outdoor,Natural Grass,Cloudy,59.0,75,3,West
74333,2019100612,20191006124068,home,36.93,29.4,1.93,1.77,0.18,76.95,184.8,2560823,Derrick Nnadi,91,2019,27,4,04:23:00,IND,2,4,KC,10,16,2558123,SINGLEBACK,"1 RB, 2 TE, 2 WR",7,"4 DL, 3 LB, 4 DB",left,2019-10-07T03:18:22.000Z,2019-10-07T03:18:20.000Z,6-1,310,05/09/1996,Florida State,NT,KC,IND,5,Arrowhead Stadium,"Kansas City, MO",Outdoor,Natural Grass,Cloudy,59.0,75,3,West
74334,2019100612,20191006124068,home,33.95,28.94,3.61,1.98,0.36,110.73,143.18,2561383,Ben Niemann,56,2019,27,4,04:23:00,IND,2,4,KC,10,16,2558123,SINGLEBACK,"1 RB, 2 TE, 2 WR",7,"4 DL, 3 LB, 4 DB",left,2019-10-07T03:18:22.000Z,2019-10-07T03:18:20.000Z,6-2,233,07/27/1995,Iowa,LB,KC,IND,5,Arrowhead Stadium,"Kansas City, MO",Outdoor,Natural Grass,Cloudy,59.0,75,3,West
74335,2019100612,20191006124068,home,35.77,8.27,3.09,4.11,0.29,129.1,224.4,2561417,Charvarius Ward,35,2019,27,4,04:23:00,IND,2,4,KC,10,16,2558123,SINGLEBACK,"1 RB, 2 TE, 2 WR",7,"4 DL, 3 LB, 4 DB",left,2019-10-07T03:18:22.000Z,2019-10-07T03:18:20.000Z,6-1,195,05/16/1996,Middle Tennessee,DB,KC,IND,5,Arrowhead Stadium,"Kansas City, MO",Outdoor,Natural Grass,Cloudy,59.0,75,3,West
74336,2019100612,20191006124068,home,36.94,25.71,2.1,0.72,0.22,94.72,162.13,2562723,Khalen Saunders,99,2019,27,4,04:23:00,IND,2,4,KC,10,16,2558123,SINGLEBACK,"1 RB, 2 TE, 2 WR",7,"4 DL, 3 LB, 4 DB",left,2019-10-07T03:18:22.000Z,2019-10-07T03:18:20.000Z,6-0,324,08/09/1996,Western Illinois,DT,KC,IND,5,Arrowhead Stadium,"Kansas City, MO",Outdoor,Natural Grass,Cloudy,59.0,75,3,West
74337,2019100612,20191006124068,home,29.71,19.63,3.48,1.26,0.34,84.75,261.89,2562761,Juan Thornhill,22,2019,27,4,04:23:00,IND,2,4,KC,10,16,2558123,SINGLEBACK,"1 RB, 2 TE, 2 WR",7,"4 DL, 3 LB, 4 DB",left,2019-10-07T03:18:22.000Z,2019-10-07T03:18:20.000Z,6-0,205,10/19/1995,Virginia,DB,KC,IND,5,Arrowhead Stadium,"Kansas City, MO",Outdoor,Natural Grass,Cloudy,59.0,75,3,West
