,GameId,PlayId,Team,X,Y,S,A,Dis,Orientation,Dir,NflId,DisplayName,JerseyNumber,Season,YardLine,Quarter,GameClock,PossessionTeam,Down,Distance,FieldPosition,HomeScoreBeforePlay,VisitorScoreBeforePlay,NflIdRusher,OffenseFormation,OffensePersonnel,DefendersInTheBox,DefensePersonnel,PlayDirection,TimeHandoff,TimeSnap,PlayerHeight,PlayerWeight,PlayerBirthDate,PlayerCollegeName,Position,HomeTeamAbbr,VisitorTeamAbbr,Week,Stadium,Location,StadiumType,Turf,GameWeather,Temperature,Humidity,WindSpeed,WindDirection
43164,2019092212,20190922121571,away,17.4,35.33,1.74,1.9,0.17,112.16,333.03,496733,Joe Haden,23,2019,16,2,07:28:00,SF,3,15,PIT,0,6,2553728,SHOTGUN,"1 RB, 1 TE, 3 WR",6,"2 DL, 4 LB, 5 DB",left,2019-09-22T21:27:05.000Z,2019-09-22T21:27:03.000Z,5-11,195,04/14/1989,Florida,CB,SF,PIT,3,Levis Stadium,"Santa Clara, CSA",Outdoor,Natural grass,partly cloudy,79.0,36,3,NW
43165,2019092212,20190922121571,away,24.94,24.2,1.12,0.54,0.13,150.64,187.19,496760,Tyson Alualu,94,2019,16,2,07:28:00,SF,3,15,PIT,0,6,2553728,SHOTGUN,"1 RB, 1 TE, 3 WR",6,"2 DL, 4 LB, 5 DB",left,2019-09-22T21:27:05.000Z,2019-09-22T21:27:03.000Z,6-3,304,05/12/1987,California,DE,SF,PIT,3,Levis Stadium,"Santa Clara, CSA",Outdoor,Natural grass,partly cloudy,79.0,36,3,NW
43166,2019092212,20190922121571,away,25.27,21.54,1.36,1.4,0.15,348.2,277.97,2508109,Cameron Heyward,97,2019,16,2,07:28:00,SF,3,15,PIT,0,6,2553728,SHOTGUN,"1 RB, 1 TE, 3 WR",6,"2 DL, 4 LB, 5 DB",left,2019-09-22T21:27:05.000Z,2019-09-22T21:27:03.000Z,6-5,295,05/06/1989,Ohio State,DT,SF,PIT,3,Levis Stadium,"Santa Clara, CSA",Outdoor,Natural grass,partly cloudy,79.0,36,3,NW
43167,2019092212,20190922121571,away,22.48,36.12,5.18,1.31,0.51,67.56,353.05,2532789,Mark Barron,26,2019,16,2,07:28:00,SF,3,15,PIT,0,6,2553728,SHOTGUN,"1 RB, 1 TE, 3 WR",6,"2 DL, 4 LB, 5 DB",left,2019-09-22T21:27:05.000Z,2019-09-22T21:27:03.000Z,6-2,230,10/27/1989,Alabama,ILB,SF,PIT,3,Levis Stadium,"Santa Clara, CSA",Outdoor,Natural grass,partly cloudy,79.0,36,3,NW
43168,2019092212,20190922121571,away,15.81,11.72,1.69,0.66,0.17,44.81,259.4,2552265,Steven Nelson,22,2019,16,2,07:28:00,SF,3,15,PIT,0,6,2553728,SHOTGUN,"1 RB, 1 TE, 3 WR",6,"2 DL, 4 LB, 5 DB",left,2019-09-22T21:27:05.000Z,2019-09-22T21:27:03.000Z,5-11,194,01/22/1993,Oregon State,CB,SF,PIT,3,Levis Stadium,"Santa Clara, CSA",Outdoor,Natural grass,partly cloudy,79.0,36,3,NW
43169,2019092212,20190922121571,away,28.38,19.76,1.4,2.77,0.1,333.9,79.54,2552289,Bud Dupree,48,2019,16,2,07:28:00,SF,3,15,PIT,0,6,2553728,SHOTGUN,"1 RB, 1 TE, 3 WR",6,"2 DL, 4 LB, 5 DB",left,2019-09-22T21:27:05.000Z,2019-09-22T21:27:03.000Z,6-4,269,02/12/1993,Kentucky,OLB,SF,PIT,3,Levis Stadium,"Santa Clara, CSA",Outdoor,Natural grass,partly cloudy,79.0,36,3,NW
43170,2019092212,20190922121571,away,32.5,27.39,5.04,4.36,0.51,196.65,137.98,2558064,T.J. Watt,90,2019,16,2,07:28:00,SF,3,15,PIT,0,6,2553728,SHOTGUN,"1 RB, 1 TE, 3 WR",6,"2 DL, 4 LB, 5 DB",left,2019-09-22T21:27:05.000Z,2019-09-22T21:27:03.000Z,6-4,252,10/11/1994,Wisconsin,OLB,SF,PIT,3,Levis Stadium,"Santa Clara, CSA",Outdoor,Natural grass,partly cloudy,79.0,36,3,NW
43171,2019092212,20190922121571,away,23.91,18.51,0.43,1.5,0.04,52.51,129.64,2558849,Cameron Sutton,20,2019,16,2,07:28:00,SF,3,15,PIT,0,6,2553728,SHOTGUN,"1 RB, 1 TE, 3 WR",6,"2 DL, 4 LB, 5 DB",left,2019-09-22T21:27:05.000Z,2019-09-22T21:27:03.000Z,5-11,188,02/27/1995,Tennessee,CB,SF,PIT,3,Levis Stadium,"Santa Clara, CSA",Outdoor,Natural grass,partly cloudy,79.0,36,3,NW
43172,2019092212,20190922121571,away,11.18,27.2,1.48,2.02,0.16,87.45,240.91,2560712,Terrell Edmunds,34,2019,16,2,07:28:00,SF,3,15,PIT,0,6,2553728,SHOTGUN,"1 RB, 1 TE, 3 WR",6,"2 DL, 4 LB, 5 DB",left,2019-09-22T21:27:05.000Z,2019-09-22T21:27:03.000Z,6-1,217,01/20/1997,Virginia Tech,S,SF,PIT,3,Levis Stadium,"Santa Clara, CSA",Outdoor,Natural grass,partly cloudy,79.0,36,3,NW
43173,2019092212,20190922121571,away,14.94,19.54,1.66,1.12,0.16,97.7,95.9,2560725,Minkah Fitzpatrick,29,2019,16,2,07:28:00,SF,3,15,PIT,0,6,2553728,SHOTGUN,"1 RB, 1 TE, 3 WR",6,"2 DL, 4 LB, 5 DB",left,2019-09-22T21:27:05.000Z,2019-09-22T21:27:03.000Z,6-1,207,11/17/1996,Alabama,S,SF,PIT,3,Levis Stadium,"Santa Clara, CSA",Outdoor,Natural grass,partly cloudy,79.0,36,3,NW
43174,2019092212,20190922121571,away,21.31,24.51,0.84,2.45,0.07,149.38,81.59,2562243,Devin Bush,55,2019,16,2,07:28:00,SF,3,15,PIT,0,6,2553728,SHOTGUN,"1 RB, 1 TE, 3 WR",6,"2 DL, 4 LB, 5 DB",left,2019-09-22T21:27:05.000Z,2019-09-22T21:27:03.000Z,5-11,233,07/18/1998,Michigan,LB,SF,PIT,3,Levis Stadium,"Santa Clara, CSA",Outdoor,Natural grass,partly cloudy,79.0,36,3,NW
43175,2019092212,20190922121571,home,24.43,23.86,2.19,1.11,0.23,346.26,252.33,2508140,Mike Person,68,2019,16,2,07:28:00,SF,3,15,PIT,0,6,2553728,SHOTGUN,"1 RB, 1 TE, 3 WR",6,"2 DL, 4 LB, 5 DB",left,2019-09-22T21:27:05.000Z,2019-09-22T21:27:03.000Z,6-4,299,06/17/1988,Montana State,C,SF,PIT,3,Levis Stadium,"Santa Clara, CSA",Outdoor,Natural grass,partly cloudy,79.0,36,3,NW
43176,2019092212,20190922121571,home,23.3,34.13,5.24,1.41,0.52,291.68,309.81,2539964,Marquise Goodwin,11,2019,16,2,07:28:00,SF,3,15,PIT,0,6,2553728,SHOTGUN,"1 RB, 1 TE, 3 WR",6,"2 DL, 4 LB, 5 DB",left,2019-09-22T21:27:05.000Z,2019-09-22T21:27:03.000Z,5-9,179,11/19/1990,Texas,WR,SF,PIT,3,Levis Stadium,"Santa Clara, CSA",Outdoor,Natural grass,partly cloudy,79.0,36,3,NW
43177,2019092212,20190922121571,home,25.56,22.05,1.28,0.43,0.13,218.8,276.22,2543705,Weston Richburg,58,2019,16,2,07:28:00,SF,3,15,PIT,0,6,2553728,SHOTGUN,"1 RB, 1 TE, 3 WR",6,"2 DL, 4 LB, 5 DB",left,2019-09-22T21:27:05.000Z,2019-09-22T21:27:03.000Z,6-4,290,07/09/1991,Colorado State,C,SF,PIT,3,Levis Stadium,"Santa Clara, CSA",Outdoor,Natural grass,partly cloudy,79.0,36,3,NW
43178,2019092212,20190922121571,home,32.14,23.12,2.23,1.51,0.22,355.85,63.7,2543801,Jimmy Garoppolo,10,2019,16,2,07:28:00,SF,3,15,PIT,0,6,2553728,SHOTGUN,"1 RB, 1 TE, 3 WR",6,"2 DL, 4 LB, 5 DB",left,2019-09-22T21:27:05.000Z,2019-09-22T21:27:03.000Z,6-2,225,11/02/1991,Eastern Illinois,QB,SF,PIT,3,Levis Stadium,"Santa Clara, CSA",Outdoor,Natural grass,partly cloudy,79.0,36,3,NW
43179,2019092212,20190922121571,home,26.71,25.34,3.93,2.83,0.41,298.4,311.19,2552345,Laken Tomlinson,75,2019,16,2,07:28:00,SF,3,15,PIT,0,6,2553728,SHOTGUN,"1 RB, 1 TE, 3 WR",6,"2 DL, 4 LB, 5 DB",left,2019-09-22T21:27:05.000Z,2019-09-22T21:27:03.000Z,6-3,312,02/09/1992,Duke,G,SF,PIT,3,Levis Stadium,"Santa Clara, CSA",Outdoor,Natural grass,partly cloudy,79.0,36,3,NW
43180,2019092212,20190922121571,home,30.59,24.28,3.41,5.72,0.32,246.89,262.14,2553728,Raheem Mostert,31,2019,16,2,07:28:00,SF,3,15,PIT,0,6,2553728,SHOTGUN,"1 RB, 1 TE, 3 WR",6,"2 DL, 4 LB, 5 DB",left,2019-09-22T21:27:05.000Z,2019-09-22T21:27:03.000Z,5-10,197,04/09/1992,Purdue,RB,SF,PIT,3,Levis Stadium,"Santa Clara, CSA",Outdoor,Natural grass,partly cloudy,79.0,36,3,NW
43181,2019092212,20190922121571,home,31.75,27.33,5.09,2.8,0.51,102.85,130.52,2558266,George Kittle,85,2019,16,2,07:28:00,SF,3,15,PIT,0,6,2553728,SHOTGUN,"1 RB, 1 TE, 3 WR",6,"2 DL, 4 LB, 5 DB",left,2019-09-22T21:27:05.000Z,2019-09-22T21:27:03.000Z,6-4,250,10/09/1993,Iowa,TE,SF,PIT,3,Levis Stadium,"Santa Clara, CSA",Outdoor,Natural grass,partly cloudy,79.0,36,3,NW
43182,2019092212,20190922121571,home,32.27,37.64,5.5,2.09,0.56,273.86,351.93,2560761,Richie James,13,2019,16,2,07:28:00,SF,3,15,PIT,0,6,2553728,SHOTGUN,"1 RB, 1 TE, 3 WR",6,"2 DL, 4 LB, 5 DB",left,2019-09-22T21:27:05.000Z,2019-09-22T21:27:03.000Z,5-9,185,09/05/1995,Middle Tennessee,WR,SF,PIT,3,Levis Stadium,"Santa Clara, CSA",Outdoor,Natural grass,partly cloudy,79.0,36,3,NW
43183,2019092212,20190922121571,home,25.13,24.41,1.02,1.66,0.1,264.64,240.88,2560805,Mike McGlinchey,69,2019,16,2,07:28:00,SF,3,15,PIT,0,6,2553728,SHOTGUN,"1 RB, 1 TE, 3 WR",6,"2 DL, 4 LB, 5 DB",left,2019-09-22T21:27:05.000Z,2019-09-22T21:27:03.000Z,6-8,315,01/12/1995,Notre Dame,OT,SF,PIT,3,Levis Stadium,"Santa Clara, CSA",Outdoor,Natural grass,partly cloudy,79.0,36,3,NW
43184,2019092212,20190922121571,home,22.89,13.97,4.69,0.55,0.47,288.93,245.87,2562721,Deebo Samuel,19,2019,16,2,07:28:00,SF,3,15,PIT,0,6,2553728,SHOTGUN,"1 RB, 1 TE, 3 WR",6,"2 DL, 4 LB, 5 DB",left,2019-09-22T21:27:05.000Z,2019-09-22T21:27:03.000Z,6-0,214,01/15/1996,South Carolina,WR,SF,PIT,3,Levis Stadium,"Santa Clara, CSA",Outdoor,Natural grass,partly cloudy,79.0,36,3,NW
43185,2019092212,20190922121571,home,28.15,20.47,0.62,1.31,0.06,174.55,72.54,2562927,Justin Skule,67,2019,16,2,07:28:00,SF,3,15,PIT,0,6,2553728,SHOTGUN,"1 RB, 1 TE, 3 WR",6,"2 DL, 4 LB, 5 DB",left,2019-09-22T21:27:05.000Z,2019-09-22T21:27:03.000Z,6-6,318,11/23/1996,Vanderbilt,T,SF,PIT,3,Levis Stadium,"Santa Clara, CSA",Outdoor,Natural grass,partly cloudy,79.0,36,3,NW
