,GameId,PlayId,Team,X,Y,S,A,Dis,Orientation,Dir,NflId,DisplayName,JerseyNumber,Season,YardLine,Quarter,GameClock,PossessionTeam,Down,Distance,FieldPosition,HomeScoreBeforePlay,VisitorScoreBeforePlay,NflIdRusher,OffenseFormation,OffensePersonnel,DefendersInTheBox,DefensePersonnel,PlayDirection,TimeHandoff,TimeSnap,PlayerHeight,PlayerWeight,PlayerBirthDate,PlayerCollegeName,Position,HomeTeamAbbr,VisitorTeamAbbr,Week,Stadium,Location,StadiumType,Turf,GameWeather,Temperature,Humidity,WindSpeed,WindDirection
61534,2019100300,20191003004401,away,61.98,17.01,4.87,2.72,0.48,164.82,157.41,1302,Aqib Talib,21,2019,43,4,01:57:00,SEA,3,2,LA,30,29,2552430,SHOTGUN,"6 OL, 1 RB, 2 TE, 1 WR",9,"4 DL, 4 LB, 3 DB",right,2019-10-04T03:40:17.000Z,2019-10-04T03:40:12.000Z,6-1,209,02/13/1986,Kansas,CB,SEA,LA,5,CenturyLink Field,Seattle,Outdoor,FieldTurf,Cloudy,57.0,56,7,SW
61535,2019100300,20191003004401,away,69.84,32.39,0.22,1.09,0.03,269.31,217.07,2495775,Eric Weddle,32,2019,43,4,01:57:00,SEA,3,2,LA,30,29,2552430,SHOTGUN,"6 OL, 1 RB, 2 TE, 1 WR",9,"4 DL, 4 LB, 3 DB",right,2019-10-04T03:40:17.000Z,2019-10-04T03:40:12.000Z,5-11,195,01/04/1985,Utah,FS,SEA,LA,5,CenturyLink Field,Seattle,Outdoor,FieldTurf,Cloudy,57.0,56,7,SW
61536,2019100300,20191003004401,away,64.33,26.99,5.19,1.2,0.53,189.38,175.44,2533050,Michael Brockers,90,2019,43,4,01:57:00,SEA,3,2,LA,30,29,2552430,SHOTGUN,"6 OL, 1 RB, 2 TE, 1 WR",9,"4 DL, 4 LB, 3 DB",right,2019-10-04T03:40:17.000Z,2019-10-04T03:40:12.000Z,6-5,305,12/21/1990,Louisiana State,DT,SEA,LA,5,CenturyLink Field,Seattle,Outdoor,FieldTurf,Cloudy,57.0,56,7,SW
61537,2019100300,20191003004401,away,68.52,32.43,1.0,1.15,0.1,156.4,123.2,2543485,Aaron Donald,99,2019,43,4,01:57:00,SEA,3,2,LA,30,29,2552430,SHOTGUN,"6 OL, 1 RB, 2 TE, 1 WR",9,"4 DL, 4 LB, 3 DB",right,2019-10-04T03:40:17.000Z,2019-10-04T03:40:12.000Z,6-1,280,05/23/1991,Pittsburgh,DT,SEA,LA,5,CenturyLink Field,Seattle,Outdoor,FieldTurf,Cloudy,57.0,56,7,SW
61538,2019100300,20191003004401,away,62.38,11.01,4.02,3.76,0.39,236.53,228.41,2552488,Marcus Peters,22,2019,43,4,01:57:00,SEA,3,2,LA,30,29,2552430,SHOTGUN,"6 OL, 1 RB, 2 TE, 1 WR",9,"4 DL, 4 LB, 3 DB",right,2019-10-04T03:40:17.000Z,2019-10-04T03:40:12.000Z,6-0,197,01/09/1993,Washington,CB,SEA,LA,5,CenturyLink Field,Seattle,Outdoor,FieldTurf,Cloudy,57.0,56,7,SW
61539,2019100300,20191003004401,away,66.79,18.85,6.7,1.11,0.7,180.58,179.13,2553431,Dante Fowler,56,2019,43,4,01:57:00,SEA,3,2,LA,30,29,2552430,SHOTGUN,"6 OL, 1 RB, 2 TE, 1 WR",9,"4 DL, 4 LB, 3 DB",right,2019-10-04T03:40:17.000Z,2019-10-04T03:40:12.000Z,6-3,255,08/03/1994,Florida,OLB,SEA,LA,5,CenturyLink Field,Seattle,Outdoor,FieldTurf,Cloudy,57.0,56,7,SW
61540,2019100300,20191003004401,away,67.42,32.27,0.13,0.47,0.01,217.0,306.11,2556529,Morgan Fox,97,2019,43,4,01:57:00,SEA,3,2,LA,30,29,2552430,SHOTGUN,"6 OL, 1 RB, 2 TE, 1 WR",9,"4 DL, 4 LB, 3 DB",right,2019-10-04T03:40:17.000Z,2019-10-04T03:40:12.000Z,6-3,275,09/12/1994,Colorado State-Pueblo,DE,SEA,LA,5,CenturyLink Field,Seattle,Outdoor,FieldTurf,Cloudy,57.0,56,7,SW
61541,2019100300,20191003004401,away,63.93,16.2,5.35,0.5,0.54,157.24,184.04,2556593,Cory Littleton,58,2019,43,4,01:57:00,SEA,3,2,LA,30,29,2552430,SHOTGUN,"6 OL, 1 RB, 2 TE, 1 WR",9,"4 DL, 4 LB, 3 DB",right,2019-10-04T03:40:17.000Z,2019-10-04T03:40:12.000Z,6-3,228,11/18/1993,Washington,ILB,SEA,LA,5,CenturyLink Field,Seattle,Outdoor,FieldTurf,Cloudy,57.0,56,7,SW
61542,2019100300,20191003004401,away,66.83,32.81,0.73,0.24,0.07,164.36,179.65,2558830,Samson Ebukam,50,2019,43,4,01:57:00,SEA,3,2,LA,30,29,2552430,SHOTGUN,"6 OL, 1 RB, 2 TE, 1 WR",9,"4 DL, 4 LB, 3 DB",right,2019-10-04T03:40:17.000Z,2019-10-04T03:40:12.000Z,6-3,245,05/09/1995,Eastern Washington,OLB,SEA,LA,5,CenturyLink Field,Seattle,Outdoor,FieldTurf,Cloudy,57.0,56,7,SW
61543,2019100300,20191003004401,away,65.01,31.88,0.03,0.32,0.01,240.16,123.12,2561079,Sebastian Joseph-Day,69,2019,43,4,01:57:00,SEA,3,2,LA,30,29,2552430,SHOTGUN,"6 OL, 1 RB, 2 TE, 1 WR",9,"4 DL, 4 LB, 3 DB",right,2019-10-04T03:40:17.000Z,2019-10-04T03:40:12.000Z,6-4,310,03/21/1995,Rutgers,DT,SEA,LA,5,CenturyLink Field,Seattle,Outdoor,FieldTurf,Cloudy,57.0,56,7,SW
61544,2019100300,20191003004401,away,64.91,32.37,4.33,2.22,0.42,196.45,193.22,2563313,Troy Reeder,51,2019,43,4,01:57:00,SEA,3,2,LA,30,29,2552430,SHOTGUN,"6 OL, 1 RB, 2 TE, 1 WR",9,"4 DL, 4 LB, 3 DB",right,2019-10-04T03:40:17.000Z,2019-10-04T03:40:12.000Z,6-3,245,09/13/1994,Delaware,LB,SEA,LA,5,CenturyLink Field,Seattle,Outdoor,FieldTurf,Cloudy,57.0,56,7,SW
61545,2019100300,20191003004401,home,62.67,31.72,2.95,0.46,0.3,198.04,206.83,808,Duane Brown,76,2019,43,4,01:57:00,SEA,3,2,LA,30,29,2552430,SHOTGUN,"6 OL, 1 RB, 2 TE, 1 WR",9,"4 DL, 4 LB, 3 DB",right,2019-10-04T03:40:17.000Z,2019-10-04T03:40:12.000Z,6-4,315,08/30/1985,Virginia Tech,T,SEA,LA,5,CenturyLink Field,Seattle,Outdoor,FieldTurf,Cloudy,57.0,56,7,SW
61546,2019100300,20191003004401,home,66.22,34.2,0.11,0.49,0.01,186.04,245.67,497016,Mike Iupati,70,2019,43,4,01:57:00,SEA,3,2,LA,30,29,2552430,SHOTGUN,"6 OL, 1 RB, 2 TE, 1 WR",9,"4 DL, 4 LB, 3 DB",right,2019-10-04T03:40:17.000Z,2019-10-04T03:40:12.000Z,6-5,331,05/12/1987,Idaho,OG,SEA,LA,5,CenturyLink Field,Seattle,Outdoor,FieldTurf,Cloudy,57.0,56,7,SW
61547,2019100300,20191003004401,home,64.5,15.76,4.95,2.03,0.5,88.56,169.3,2532975,Russell Wilson,3,2019,43,4,01:57:00,SEA,3,2,LA,30,29,2552430,SHOTGUN,"6 OL, 1 RB, 2 TE, 1 WR",9,"4 DL, 4 LB, 3 DB",right,2019-10-04T03:40:17.000Z,2019-10-04T03:40:12.000Z,5-11,215,11/29/1988,Wisconsin,QB,SEA,LA,5,CenturyLink Field,Seattle,Outdoor,FieldTurf,Cloudy,57.0,56,7,SW
61548,2019100300,20191003004401,home,69.15,31.06,0.38,1.08,0.04,351.44,88.63,2541199,Luke Willson,82,2019,43,4,01:57:00,SEA,3,2,LA,30,29,2552430,SHOTGUN,"6 OL, 1 RB, 2 TE, 1 WR",9,"4 DL, 4 LB, 3 DB",right,2019-10-04T03:40:17.000Z,2019-10-04T03:40:12.000Z,6-5,254,01/15/1990,Rice,TE,SEA,LA,5,CenturyLink Field,Seattle,Outdoor,FieldTurf,Cloudy,57.0,56,7,SW
61549,2019100300,20191003004401,home,67.51,32.64,0.69,0.53,0.07,170.33,123.9,2550135,Justin Britt,68,2019,43,4,01:57:00,SEA,3,2,LA,30,29,2552430,SHOTGUN,"6 OL, 1 RB, 2 TE, 1 WR",9,"4 DL, 4 LB, 3 DB",right,2019-10-04T03:40:17.000Z,2019-10-04T03:40:12.000Z,6-6,315,05/29/1991,Missouri,C,SEA,LA,5,CenturyLink Field,Seattle,Outdoor,FieldTurf,Cloudy,57.0,56,7,SW
61550,2019100300,20191003004401,home,59.99,10.28,2.97,1.29,0.29,67.06,188.98,2552430,Tyler Lockett,16,2019,43,4,01:57:00,SEA,3,2,LA,30,29,2552430,SHOTGUN,"6 OL, 1 RB, 2 TE, 1 WR",9,"4 DL, 4 LB, 3 DB",right,2019-10-04T03:40:17.000Z,2019-10-04T03:40:12.000Z,5-10,182,09/28/1992,Kansas State,WR,SEA,LA,5,CenturyLink Field,Seattle,Outdoor,FieldTurf,Cloudy,57.0,56,7,SW
61551,2019100300,20191003004401,home,65.59,31.45,0.26,0.39,0.03,10.48,196.61,2555395,Germain Ifedi,65,2019,43,4,01:57:00,SEA,3,2,LA,30,29,2552430,SHOTGUN,"6 OL, 1 RB, 2 TE, 1 WR",9,"4 DL, 4 LB, 3 DB",right,2019-10-04T03:40:17.000Z,2019-10-04T03:40:12.000Z,6-5,325,06/02/1994,Texas A&M,G,SEA,LA,5,CenturyLink Field,Seattle,Outdoor,FieldTurf,Cloudy,57.0,56,7,SW
61552,2019100300,20191003004401,home,66.0,32.98,0.23,0.53,0.02,137.56,302.9,2556524,George Fant,74,2019,43,4,01:57:00,SEA,3,2,LA,30,29,2552430,SHOTGUN,"6 OL, 1 RB, 2 TE, 1 WR",9,"4 DL, 4 LB, 3 DB",right,2019-10-04T03:40:17.000Z,2019-10-04T03:40:12.000Z,6-5,322,07/19/1992,Western Kentucky,OT,SEA,LA,5,CenturyLink Field,Seattle,Outdoor,FieldTurf,Cloudy,57.0,56,7,SW
61553,2019100300,20191003004401,home,63.76,31.22,1.13,0.1,0.11,174.99,167.78,2558865,Chris Carson,32,2019,43,4,01:57:00,SEA,3,2,LA,30,29,2552430,SHOTGUN,"6 OL, 1 RB, 2 TE, 1 WR",9,"4 DL, 4 LB, 3 DB",right,2019-10-04T03:40:17.000Z,2019-10-04T03:40:12.000Z,5-11,222,09/16/1994,Oklahoma State,RB,SEA,LA,5,CenturyLink Field,Seattle,Outdoor,FieldTurf,Cloudy,57.0,56,7,SW
61554,2019100300,20191003004401,home,65.24,26.95,3.95,0.99,0.42,175.63,176.64,2560768,Jamarco Jones,73,2019,43,4,01:57:00,SEA,3,2,LA,30,29,2552430,SHOTGUN,"6 OL, 1 RB, 2 TE, 1 WR",9,"4 DL, 4 LB, 3 DB",right,2019-10-04T03:40:17.000Z,2019-10-04T03:40:12.000Z,6-4,293,06/04/1996,Ohio State,T,SEA,LA,5,CenturyLink Field,Seattle,Outdoor,FieldTurf,Cloudy,57.0,56,7,SW
61555,2019100300,20191003004401,home,66.75,31.46,0.2,0.67,0.02,147.56,279.29,2561046,Will Dissly,88,2019,43,4,01:57:00,SEA,3,2,LA,30,29,2552430,SHOTGUN,"6 OL, 1 RB, 2 TE, 1 WR",9,"4 DL, 4 LB, 3 DB",right,2019-10-04T03:40:17.000Z,2019-10-04T03:40:12.000Z,6-4,267,07/08/1996,Washington,TE,SEA,LA,5,CenturyLink Field,Seattle,Outdoor,FieldTurf,Cloudy,57.0,56,7,SW
