,GameId,PlayId,Team,X,Y,S,A,Dis,Orientation,Dir,NflId,DisplayName,JerseyNumber,Season,YardLine,Quarter,GameClock,PossessionTeam,Down,Distance,FieldPosition,HomeScoreBeforePlay,VisitorScoreBeforePlay,NflIdRusher,OffenseFormation,OffensePersonnel,DefendersInTheBox,DefensePersonnel,PlayDirection,TimeHandoff,TimeSnap,PlayerHeight,PlayerWeight,PlayerBirthDate,PlayerCollegeName,Position,HomeTeamAbbr,VisitorTeamAbbr,Week,Stadium,Location,StadiumType,Turf,GameWeather,Temperature,Humidity,WindSpeed,WindDirection
20174,2019091504,20190915041328,away,53.52,25.4,1.0,1.32,0.11,336.85,334.9,2543729,Brandon Linder,65,2019,43,2,07:07:00,JAX,2,1,HST,3,0,2557973,SHOTGUN,"1 RB, 1 TE, 3 WR",7,"3 DL, 3 LB, 5 DB",left,2019-09-15T18:00:19.000Z,2019-09-15T18:00:17.000Z,6-6,315,01/25/1992,Miami,C,HOU,JAX,2,NRG Stadium,"Houston, TX",Retractable Roof,Artifical,Sunny,89.0,52,10mph,North East
20175,2019091504,20190915041328,away,53.86,22.89,0.58,1.12,0.04,252.04,318.61,2550589,Andrew Norwell,68,2019,43,2,07:07:00,JAX,2,1,HST,3,0,2557973,SHOTGUN,"1 RB, 1 TE, 3 WR",7,"3 DL, 3 LB, 5 DB",left,2019-09-15T18:00:19.000Z,2019-09-15T18:00:17.000Z,6-6,325,10/25/1991,Ohio State,G,HOU,JAX,2,NRG Stadium,"Houston, TX",Retractable Roof,Artifical,Sunny,89.0,52,10mph,North East
20176,2019091504,20190915041328,away,54.79,23.23,3.65,1.89,0.37,211.37,180.51,2552330,A.J. Cann,60,2019,43,2,07:07:00,JAX,2,1,HST,3,0,2557973,SHOTGUN,"1 RB, 1 TE, 3 WR",7,"3 DL, 3 LB, 5 DB",left,2019-09-15T18:00:19.000Z,2019-09-15T18:00:17.000Z,6-3,325,10/23/1991,South Carolina,G,HOU,JAX,2,NRG Stadium,"Houston, TX",Retractable Roof,Artifical,Sunny,89.0,52,10mph,North East
20177,2019091504,20190915041328,away,52.56,44.53,2.58,1.39,0.25,274.75,289.24,2552652,Chris Conley,18,2019,43,2,07:07:00,JAX,2,1,HST,3,0,2557973,SHOTGUN,"1 RB, 1 TE, 3 WR",7,"3 DL, 3 LB, 5 DB",left,2019-09-15T18:00:19.000Z,2019-09-15T18:00:17.000Z,6-3,205,10/25/1992,Georgia,WR,HOU,JAX,2,NRG Stadium,"Houston, TX",Retractable Roof,Artifical,Sunny,89.0,52,10mph,North East
20178,2019091504,20190915041328,away,54.71,17.59,2.69,2.49,0.26,123.58,144.39,2553454,Geoff Swaim,87,2019,43,2,07:07:00,JAX,2,1,HST,3,0,2557973,SHOTGUN,"1 RB, 1 TE, 3 WR",7,"3 DL, 3 LB, 5 DB",left,2019-09-15T18:00:19.000Z,2019-09-15T18:00:17.000Z,6-4,260,09/16/1993,Texas,TE,HOU,JAX,2,NRG Stadium,"Houston, TX",Retractable Roof,Artifical,Sunny,89.0,52,10mph,North East
20179,2019091504,20190915041328,away,54.99,34.3,3.06,3.94,0.29,264.42,17.95,2557895,Dede Westbrook,12,2019,43,2,07:07:00,JAX,2,1,HST,3,0,2557973,SHOTGUN,"1 RB, 1 TE, 3 WR",7,"3 DL, 3 LB, 5 DB",left,2019-09-15T18:00:19.000Z,2019-09-15T18:00:17.000Z,6-0,176,11/21/1993,Oklahoma,WR,HOU,JAX,2,NRG Stadium,"Houston, TX",Retractable Roof,Artifical,Sunny,89.0,52,10mph,North East
20180,2019091504,20190915041328,away,57.81,24.63,4.32,3.65,0.41,256.04,217.52,2557973,Leonard Fournette,27,2019,43,2,07:07:00,JAX,2,1,HST,3,0,2557973,SHOTGUN,"1 RB, 1 TE, 3 WR",7,"3 DL, 3 LB, 5 DB",left,2019-09-15T18:00:19.000Z,2019-09-15T18:00:17.000Z,6-0,228,01/18/1995,Louisiana State,RB,HOU,JAX,2,NRG Stadium,"Houston, TX",Retractable Roof,Artifical,Sunny,89.0,52,10mph,North East
20181,2019091504,20190915041328,away,53.94,21.61,1.38,1.22,0.13,270.0,346.43,2560853,Will Richardson,76,2019,43,2,07:07:00,JAX,2,1,HST,3,0,2557973,SHOTGUN,"1 RB, 1 TE, 3 WR",7,"3 DL, 3 LB, 5 DB",left,2019-09-15T18:00:19.000Z,2019-09-15T18:00:17.000Z,6-6,303,01/04/1996,North Carolina State,T,HOU,JAX,2,NRG Stadium,"Houston, TX",Retractable Roof,Artifical,Sunny,89.0,52,10mph,North East
20182,2019091504,20190915041328,away,53.85,10.56,3.67,2.9,0.36,276.31,251.03,2561018,D.J. Chark,17,2019,43,2,07:07:00,JAX,2,1,HST,3,0,2557973,SHOTGUN,"1 RB, 1 TE, 3 WR",7,"3 DL, 3 LB, 5 DB",left,2019-09-15T18:00:19.000Z,2019-09-15T18:00:17.000Z,6-4,198,09/23/1996,Louisiana State,WR,HOU,JAX,2,NRG Stadium,"Houston, TX",Retractable Roof,Artifical,Sunny,89.0,52,10mph,North East
20183,2019091504,20190915041328,away,54.61,26.09,1.15,1.69,0.12,325.04,103.36,2562756,Jawaan Taylor,75,2019,43,2,07:07:00,JAX,2,1,HST,3,0,2557973,SHOTGUN,"1 RB, 1 TE, 3 WR",7,"3 DL, 3 LB, 5 DB",left,2019-09-15T18:00:19.000Z,2019-09-15T18:00:17.000Z,6-5,312,11/25/1997,Florida,T,HOU,JAX,2,NRG Stadium,"Houston, TX",Retractable Roof,Artifical,Sunny,89.0,52,10mph,North East
20184,2019091504,20190915041328,away,57.9,23.78,0.26,1.2,0.03,322.95,346.86,2562796,Gardner Minshew,15,2019,43,2,07:07:00,JAX,2,1,HST,3,0,2557973,SHOTGUN,"1 RB, 1 TE, 3 WR",7,"3 DL, 3 LB, 5 DB",left,2019-09-15T18:00:19.000Z,2019-09-15T18:00:17.000Z,6-1,225,05/16/1996,Washington State,QB,HOU,JAX,2,NRG Stadium,"Houston, TX",Retractable Roof,Artifical,Sunny,89.0,52,10mph,North East
20185,2019091504,20190915041328,home,53.5,26.55,1.11,0.69,0.11,117.59,50.76,2495488,J.J. Watt,99,2019,43,2,07:07:00,JAX,2,1,HST,3,0,2557973,SHOTGUN,"1 RB, 1 TE, 3 WR",7,"3 DL, 3 LB, 5 DB",left,2019-09-15T18:00:19.000Z,2019-09-15T18:00:17.000Z,6-5,288,03/22/1989,Wisconsin,DE,HOU,JAX,2,NRG Stadium,"Houston, TX",Retractable Roof,Artifical,Sunny,89.0,52,10mph,North East
20186,2019091504,20190915041328,home,50.74,43.9,2.67,2.46,0.25,26.09,272.32,2495872,Johnathan Joseph,24,2019,43,2,07:07:00,JAX,2,1,HST,3,0,2557973,SHOTGUN,"1 RB, 1 TE, 3 WR",7,"3 DL, 3 LB, 5 DB",left,2019-09-15T18:00:19.000Z,2019-09-15T18:00:17.000Z,5-11,185,04/16/1984,South Carolina,CB,HOU,JAX,2,NRG Stadium,"Houston, TX",Retractable Roof,Artifical,Sunny,89.0,52,10mph,North East
20187,2019091504,20190915041328,home,39.1,26.41,0.94,1.2,0.09,103.87,186.48,2532848,Tashaun Gipson,39,2019,43,2,07:07:00,JAX,2,1,HST,3,0,2557973,SHOTGUN,"1 RB, 1 TE, 3 WR",7,"3 DL, 3 LB, 5 DB",left,2019-09-15T18:00:19.000Z,2019-09-15T18:00:17.000Z,6-1,212,08/07/1990,Wyoming,FS,HOU,JAX,2,NRG Stadium,"Houston, TX",Retractable Roof,Artifical,Sunny,89.0,52,10mph,North East
20188,2019091504,20190915041328,home,54.89,16.7,3.16,1.82,0.32,25.44,120.45,2533049,Whitney Mercilus,59,2019,43,2,07:07:00,JAX,2,1,HST,3,0,2557973,SHOTGUN,"1 RB, 1 TE, 3 WR",7,"3 DL, 3 LB, 5 DB",left,2019-09-15T18:00:19.000Z,2019-09-15T18:00:17.000Z,6-4,258,07/21/1990,Illinois,OLB,HOU,JAX,2,NRG Stadium,"Houston, TX",Retractable Roof,Artifical,Sunny,89.0,52,10mph,North East
20189,2019091504,20190915041328,home,52.0,18.26,1.28,1.82,0.13,83.23,140.02,2541958,Jahleel Addae,37,2019,43,2,07:07:00,JAX,2,1,HST,3,0,2557973,SHOTGUN,"1 RB, 1 TE, 3 WR",7,"3 DL, 3 LB, 5 DB",left,2019-09-15T18:00:19.000Z,2019-09-15T18:00:17.000Z,5-10,195,01/24/1990,Central Michigan,SS,HOU,JAX,2,NRG Stadium,"Houston, TX",Retractable Roof,Artifical,Sunny,89.0,52,10mph,North East
20190,2019091504,20190915041328,home,52.0,33.85,1.51,3.69,0.13,71.37,4.44,2543505,Bradley Roby,21,2019,43,2,07:07:00,JAX,2,1,HST,3,0,2557973,SHOTGUN,"1 RB, 1 TE, 3 WR",7,"3 DL, 3 LB, 5 DB",left,2019-09-15T18:00:19.000Z,2019-09-15T18:00:17.000Z,5-11,194,05/01/1992,Ohio State,CB,HOU,JAX,2,NRG Stadium,"Houston, TX",Retractable Roof,Artifical,Sunny,89.0,52,10mph,North East
20191,2019091504,20190915041328,home,53.01,22.82,0.92,1.81,0.08,102.57,125.15,2550559,Brandon Dunn,92,2019,43,2,07:07:00,JAX,2,1,HST,3,0,2557973,SHOTGUN,"1 RB, 1 TE, 3 WR",7,"3 DL, 3 LB, 5 DB",left,2019-09-15T18:00:19.000Z,2019-09-15T18:00:17.000Z,6-2,310,09/05/1992,Louisville,DT,HOU,JAX,2,NRG Stadium,"Houston, TX",Retractable Roof,Artifical,Sunny,89.0,52,10mph,North East
20192,2019091504,20190915041328,home,53.73,29.2,3.11,0.98,0.3,121.89,130.3,2552490,Benardrick McKinney,55,2019,43,2,07:07:00,JAX,2,1,HST,3,0,2557973,SHOTGUN,"1 RB, 1 TE, 3 WR",7,"3 DL, 3 LB, 5 DB",left,2019-09-15T18:00:19.000Z,2019-09-15T18:00:17.000Z,6-4,257,11/19/1992,Mississippi State,ILB,HOU,JAX,2,NRG Stadium,"Houston, TX",Retractable Roof,Artifical,Sunny,89.0,52,10mph,North East
20193,2019091504,20190915041328,home,53.12,21.7,1.33,1.02,0.13,47.4,46.29,2555388,D.J. Reader,98,2019,43,2,07:07:00,JAX,2,1,HST,3,0,2557973,SHOTGUN,"1 RB, 1 TE, 3 WR",7,"3 DL, 3 LB, 5 DB",left,2019-09-15T18:00:19.000Z,2019-09-15T18:00:17.000Z,6-3,347,07/01/1994,Clemson,DT,HOU,JAX,2,NRG Stadium,"Houston, TX",Retractable Roof,Artifical,Sunny,89.0,52,10mph,North East
20194,2019091504,20190915041328,home,51.32,23.6,2.02,1.86,0.2,100.49,85.98,2558094,Zach Cunningham,41,2019,43,2,07:07:00,JAX,2,1,HST,3,0,2557973,SHOTGUN,"1 RB, 1 TE, 3 WR",7,"3 DL, 3 LB, 5 DB",left,2019-09-15T18:00:19.000Z,2019-09-15T18:00:17.000Z,6-3,238,12/12/1994,Vanderbilt,ILB,HOU,JAX,2,NRG Stadium,"Houston, TX",Retractable Roof,Artifical,Sunny,89.0,52,10mph,North East
20195,2019091504,20190915041328,home,46.91,12.48,3.3,3.45,0.33,99.23,223.0,2562295,Lonnie Johnson,32,2019,43,2,07:07:00,JAX,2,1,HST,3,0,2557973,SHOTGUN,"1 RB, 1 TE, 3 WR",7,"3 DL, 3 LB, 5 DB",left,2019-09-15T18:00:19.000Z,2019-09-15T18:00:17.000Z,6-2,213,11/04/1995,Kentucky,DB,HOU,JAX,2,NRG Stadium,"Houston, TX",Retractable Roof,Artifical,Sunny,89.0,52,10mph,North East
