,GameId,PlayId,Team,X,Y,S,A,Dis,Orientation,Dir,NflId,DisplayName,JerseyNumber,Season,YardLine,Quarter,GameClock,PossessionTeam,Down,Distance,FieldPosition,HomeScoreBeforePlay,VisitorScoreBeforePlay,NflIdRusher,OffenseFormation,OffensePersonnel,DefendersInTheBox,DefensePersonnel,PlayDirection,TimeHandoff,TimeSnap,PlayerHeight,PlayerWeight,PlayerBirthDate,PlayerCollegeName,Position,HomeTeamAbbr,VisitorTeamAbbr,Week,Stadium,Location,StadiumType,Turf,GameWeather,Temperature,Humidity,WindSpeed,WindDirection
19844,2019091503,20190915034254,away,60.65,24.19,2.49,0.43,0.26,147.62,145.61,496790,Everson Griffen,97,2019,50,4,01:02:00,GB,3,7,,21,16,2558204,I_FORM,"2 RB, 2 TE, 1 WR",8,"4 DL, 3 LB, 4 DB",left,2019-09-15T20:17:07.000Z,2019-09-15T20:17:05.000Z,6-3,273,12/22/1987,Southern California,DE,GB,MIN,2,Lambeau Field,"Green Bay, WI",Outdoor,SISGrass,Cloudy,72.0,75,5,South
19845,2019091503,20190915034254,away,60.49,27.35,3.72,0.65,0.4,83.61,163.45,496802,Linval Joseph,98,2019,50,4,01:02:00,GB,3,7,,21,16,2558204,I_FORM,"2 RB, 2 TE, 1 WR",8,"4 DL, 3 LB, 4 DB",left,2019-09-15T20:17:07.000Z,2019-09-15T20:17:05.000Z,6-4,329,10/10/1988,East Carolina,DT,GB,MIN,2,Lambeau Field,"Green Bay, WI",Outdoor,SISGrass,Cloudy,72.0,75,5,South
19846,2019091503,20190915034254,away,51.65,35.87,4.47,2.64,0.43,149.95,197.2,2532948,Harrison Smith,22,2019,50,4,01:02:00,GB,3,7,,21,16,2558204,I_FORM,"2 RB, 2 TE, 1 WR",8,"4 DL, 3 LB, 4 DB",left,2019-09-15T20:17:07.000Z,2019-09-15T20:17:05.000Z,6-2,214,02/02/1989,Notre Dame,FS,GB,MIN,2,Lambeau Field,"Green Bay, WI",Outdoor,SISGrass,Cloudy,72.0,75,5,South
19847,2019091503,20190915034254,away,56.13,43.98,4.25,3.35,0.41,9.63,290.26,2540155,Xavier Rhodes,29,2019,50,4,01:02:00,GB,3,7,,21,16,2558204,I_FORM,"2 RB, 2 TE, 1 WR",8,"4 DL, 3 LB, 4 DB",left,2019-09-15T20:17:07.000Z,2019-09-15T20:17:05.000Z,6-1,218,06/19/1990,Florida State,CB,GB,MIN,2,Lambeau Field,"Green Bay, WI",Outdoor,SISGrass,Cloudy,72.0,75,5,South
19848,2019091503,20190915034254,away,58.29,29.46,5.59,2.48,0.55,148.2,181.36,2543459,Anthony Barr,55,2019,50,4,01:02:00,GB,3,7,,21,16,2558204,I_FORM,"2 RB, 2 TE, 1 WR",8,"4 DL, 3 LB, 4 DB",left,2019-09-15T20:17:07.000Z,2019-09-15T20:17:05.000Z,6-5,255,03/18/1992,UCLA,OLB,GB,MIN,2,Lambeau Field,"Green Bay, WI",Outdoor,SISGrass,Cloudy,72.0,75,5,South
19849,2019091503,20190915034254,away,58.93,24.55,4.33,1.07,0.43,92.1,187.25,2543706,Shamar Stephen,93,2019,50,4,01:02:00,GB,3,7,,21,16,2558204,I_FORM,"2 RB, 2 TE, 1 WR",8,"4 DL, 3 LB, 4 DB",left,2019-09-15T20:17:07.000Z,2019-09-15T20:17:05.000Z,6-5,310,02/25/1991,Connecticut,NT,GB,MIN,2,Lambeau Field,"Green Bay, WI",Outdoor,SISGrass,Cloudy,72.0,75,5,South
19850,2019091503,20190915034254,away,57.22,26.46,4.53,1.32,0.47,138.43,160.96,2552312,Eric Kendricks,54,2019,50,4,01:02:00,GB,3,7,,21,16,2558204,I_FORM,"2 RB, 2 TE, 1 WR",8,"4 DL, 3 LB, 4 DB",left,2019-09-15T20:17:07.000Z,2019-09-15T20:17:05.000Z,6-0,232,02/29/1992,UCLA,MLB,GB,MIN,2,Lambeau Field,"Green Bay, WI",Outdoor,SISGrass,Cloudy,72.0,75,5,South
19851,2019091503,20190915034254,away,56.2,21.98,1.64,3.22,0.15,88.59,167.49,2552448,Trae Waynes,26,2019,50,4,01:02:00,GB,3,7,,21,16,2558204,I_FORM,"2 RB, 2 TE, 1 WR",8,"4 DL, 3 LB, 4 DB",left,2019-09-15T20:17:07.000Z,2019-09-15T20:17:05.000Z,6-0,190,07/25/1992,Michigan State,CB,GB,MIN,2,Lambeau Field,"Green Bay, WI",Outdoor,SISGrass,Cloudy,72.0,75,5,South
19852,2019091503,20190915034254,away,59.67,31.54,4.47,0.76,0.46,134.71,169.72,2552603,Danielle Hunter,99,2019,50,4,01:02:00,GB,3,7,,21,16,2558204,I_FORM,"2 RB, 2 TE, 1 WR",8,"4 DL, 3 LB, 4 DB",left,2019-09-15T20:17:07.000Z,2019-09-15T20:17:05.000Z,6-5,252,10/29/1994,Louisiana State,DE,GB,MIN,2,Lambeau Field,"Green Bay, WI",Outdoor,SISGrass,Cloudy,72.0,75,5,South
19853,2019091503,20190915034254,away,59.27,20.9,2.75,2.75,0.26,39.49,134.45,2553655,Anthony Harris,41,2019,50,4,01:02:00,GB,3,7,,21,16,2558204,I_FORM,"2 RB, 2 TE, 1 WR",8,"4 DL, 3 LB, 4 DB",left,2019-09-15T20:17:07.000Z,2019-09-15T20:17:05.000Z,6-1,202,10/09/1991,Virginia,FS,GB,MIN,2,Lambeau Field,"Green Bay, WI",Outdoor,SISGrass,Cloudy,72.0,75,5,South
19854,2019091503,20190915034254,away,57.41,24.61,4.81,2.36,0.48,113.66,170.99,2559012,Eric Wilson,50,2019,50,4,01:02:00,GB,3,7,,21,16,2558204,I_FORM,"2 RB, 2 TE, 1 WR",8,"4 DL, 3 LB, 4 DB",left,2019-09-15T20:17:07.000Z,2019-09-15T20:17:05.000Z,6-1,230,09/26/1994,Cincinnati,OLB,GB,MIN,2,Lambeau Field,"Green Bay, WI",Outdoor,SISGrass,Cloudy,72.0,75,5,South
19855,2019091503,20190915034254,home,59.67,29.31,5.38,0.79,0.54,247.41,207.18,496988,Bryan Bulaga,75,2019,50,4,01:02:00,GB,3,7,,21,16,2558204,I_FORM,"2 RB, 2 TE, 1 WR",8,"4 DL, 3 LB, 4 DB",left,2019-09-15T20:17:07.000Z,2019-09-15T20:17:05.000Z,6-5,314,03/21/1989,Iowa,OT,GB,MIN,2,Lambeau Field,"Green Bay, WI",Outdoor,SISGrass,Cloudy,72.0,75,5,South
19856,2019091503,20190915034254,home,60.54,21.85,2.79,2.27,0.27,238.28,195.39,497236,Jimmy Graham,80,2019,50,4,01:02:00,GB,3,7,,21,16,2558204,I_FORM,"2 RB, 2 TE, 1 WR",8,"4 DL, 3 LB, 4 DB",left,2019-09-15T20:17:07.000Z,2019-09-15T20:17:05.000Z,6-7,265,11/24/1986,Miami,TE,GB,MIN,2,Lambeau Field,"Green Bay, WI",Outdoor,SISGrass,Cloudy,72.0,75,5,South
19857,2019091503,20190915034254,home,59.12,23.16,3.27,1.22,0.32,281.07,225.01,2495888,Marcedes Lewis,89,2019,50,4,01:02:00,GB,3,7,,21,16,2558204,I_FORM,"2 RB, 2 TE, 1 WR",8,"4 DL, 3 LB, 4 DB",left,2019-09-15T20:17:07.000Z,2019-09-15T20:17:05.000Z,6-6,267,05/19/1984,UCLA,TE,GB,MIN,2,Lambeau Field,"Green Bay, WI",Outdoor,SISGrass,Cloudy,72.0,75,5,South
19858,2019091503,20190915034254,home,64.05,27.12,4.71,0.45,0.47,142.09,129.41,2506363,Aaron Rodgers,12,2019,50,4,01:02:00,GB,3,7,,21,16,2558204,I_FORM,"2 RB, 2 TE, 1 WR",8,"4 DL, 3 LB, 4 DB",left,2019-09-15T20:17:07.000Z,2019-09-15T20:17:05.000Z,6-2,225,12/02/1983,California,QB,GB,MIN,2,Lambeau Field,"Green Bay, WI",Outdoor,SISGrass,Cloudy,72.0,75,5,South
19859,2019091503,20190915034254,home,61.01,23.67,2.82,0.6,0.28,311.58,172.36,2540183,David Bakhtiari,69,2019,50,4,01:02:00,GB,3,7,,21,16,2558204,I_FORM,"2 RB, 2 TE, 1 WR",8,"4 DL, 3 LB, 4 DB",left,2019-09-15T20:17:07.000Z,2019-09-15T20:17:05.000Z,6-4,310,09/30/1991,Colorado,T,GB,MIN,2,Lambeau Field,"Green Bay, WI",Outdoor,SISGrass,Cloudy,72.0,75,5,South
19860,2019091503,20190915034254,home,59.68,24.62,3.67,0.72,0.39,258.25,193.54,2541898,Lane Taylor,65,2019,50,4,01:02:00,GB,3,7,,21,16,2558204,I_FORM,"2 RB, 2 TE, 1 WR",8,"4 DL, 3 LB, 4 DB",left,2019-09-15T20:17:07.000Z,2019-09-15T20:17:05.000Z,6-3,324,11/22/1989,Oklahoma State,G,GB,MIN,2,Lambeau Field,"Green Bay, WI",Outdoor,SISGrass,Cloudy,72.0,75,5,South
19861,2019091503,20190915034254,home,57.79,45.46,5.43,0.94,0.54,269.58,302.26,2543495,Davante Adams,17,2019,50,4,01:02:00,GB,3,7,,21,16,2558204,I_FORM,"2 RB, 2 TE, 1 WR",8,"4 DL, 3 LB, 4 DB",left,2019-09-15T20:17:07.000Z,2019-09-15T20:17:05.000Z,6-1,215,12/24/1992,Fresno State,WR,GB,MIN,2,Lambeau Field,"Green Bay, WI",Outdoor,SISGrass,Cloudy,72.0,75,5,South
19862,2019091503,20190915034254,home,57.77,25.92,4.1,2.79,0.42,300.16,198.09,2543631,Corey Linsley,63,2019,50,4,01:02:00,GB,3,7,,21,16,2558204,I_FORM,"2 RB, 2 TE, 1 WR",8,"4 DL, 3 LB, 4 DB",left,2019-09-15T20:17:07.000Z,2019-09-15T20:17:05.000Z,6-3,301,07/27/1991,Ohio State,C,GB,MIN,2,Lambeau Field,"Green Bay, WI",Outdoor,SISGrass,Cloudy,72.0,75,5,South
19863,2019091503,20190915034254,home,60.91,27.5,3.88,0.83,0.39,259.82,168.47,2543740,Billy Turner,77,2019,50,4,01:02:00,GB,3,7,,21,16,2558204,I_FORM,"2 RB, 2 TE, 1 WR",8,"4 DL, 3 LB, 4 DB",left,2019-09-15T20:17:07.000Z,2019-09-15T20:17:05.000Z,6-5,310,10/17/1991,North Dakota State,OG,GB,MIN,2,Lambeau Field,"Green Bay, WI",Outdoor,SISGrass,Cloudy,72.0,75,5,South
19864,2019091503,20190915034254,home,64.04,25.02,6.64,1.98,0.66,176.44,192.62,2555218,Danny Vitale,45,2019,50,4,01:02:00,GB,3,7,,21,16,2558204,I_FORM,"2 RB, 2 TE, 1 WR",8,"4 DL, 3 LB, 4 DB",left,2019-09-15T20:17:07.000Z,2019-09-15T20:17:05.000Z,6-0,239,10/26/1993,Northwestern,RB,GB,MIN,2,Lambeau Field,"Green Bay, WI",Outdoor,SISGrass,Cloudy,72.0,75,5,South
19865,2019091503,20190915034254,home,65.0,26.29,5.69,2.01,0.56,200.02,209.22,2558204,Jamaal Williams,30,2019,50,4,01:02:00,GB,3,7,,21,16,2558204,I_FORM,"2 RB, 2 TE, 1 WR",8,"4 DL, 3 LB, 4 DB",left,2019-09-15T20:17:07.000Z,2019-09-15T20:17:05.000Z,6-0,213,04/03/1995,Brigham Young,RB,GB,MIN,2,Lambeau Field,"Green Bay, WI",Outdoor,SISGrass,Cloudy,72.0,75,5,South
