,GameId,PlayId,Team,X,Y,S,A,Dis,Orientation,Dir,NflId,DisplayName,JerseyNumber,Season,YardLine,Quarter,GameClock,PossessionTeam,Down,Distance,FieldPosition,HomeScoreBeforePlay,VisitorScoreBeforePlay,NflIdRusher,OffenseFormation,OffensePersonnel,DefendersInTheBox,DefensePersonnel,PlayDirection,TimeHandoff,TimeSnap,PlayerHeight,PlayerWeight,PlayerBirthDate,PlayerCollegeName,Position,HomeTeamAbbr,VisitorTeamAbbr,Week,Stadium,Location,StadiumType,Turf,GameWeather,Temperature,Humidity,WindSpeed,WindDirection
59224,2019092912,20190929122437,away,50.05,34.76,1.71,0.91,0.18,75.94,28.62,2495435,Tyron Smith,77,2019,41,3,11:00:00,DAL,1,10,DAL,9,3,2555224,SINGLEBACK,"1 RB, 2 TE, 2 WR",7,"4 DL, 3 LB, 4 DB",right,2019-09-30T02:07:21.000Z,2019-09-30T02:07:20.000Z,6-5,320,12/12/1990,Southern California,T,NO,DAL,4,Mercedes-Benz Superdome,"New Orleans, La.",Indoors,UBU Speed Series-S5-M,Sunny,87.0,62,10,E
59225,2019092912,20190929122437,away,51.5,28.03,3.11,2.3,0.32,24.67,30.81,2505629,Jason Witten,82,2019,41,3,11:00:00,DAL,1,10,DAL,9,3,2555224,SINGLEBACK,"1 RB, 2 TE, 2 WR",7,"4 DL, 3 LB, 4 DB",right,2019-09-30T02:07:21.000Z,2019-09-30T02:07:20.000Z,6-6,263,05/06/1982,Tennessee,TE,NO,DAL,4,Mercedes-Benz Superdome,"New Orleans, La.",Indoors,UBU Speed Series-S5-M,Sunny,87.0,62,10,E
59226,2019092912,20190929122437,away,52.39,43.7,4.18,1.68,0.41,74.96,87.16,2539336,Tavon Austin,10,2019,41,3,11:00:00,DAL,1,10,DAL,9,3,2555224,SINGLEBACK,"1 RB, 2 TE, 2 WR",7,"4 DL, 3 LB, 4 DB",right,2019-09-30T02:07:21.000Z,2019-09-30T02:07:20.000Z,5-8,179,03/15/1990,West Virginia,WR,NO,DAL,4,Mercedes-Benz Superdome,"New Orleans, La.",Indoors,UBU Speed Series-S5-M,Sunny,87.0,62,10,E
59227,2019092912,20190929122437,away,50.87,32.62,2.52,1.67,0.26,60.45,29.57,2540161,Travis Frederick,72,2019,41,3,11:00:00,DAL,1,10,DAL,9,3,2555224,SINGLEBACK,"1 RB, 2 TE, 2 WR",7,"4 DL, 3 LB, 4 DB",right,2019-09-30T02:07:21.000Z,2019-09-30T02:07:20.000Z,6-4,320,03/18/1991,Wisconsin,C,NO,DAL,4,Mercedes-Benz Superdome,"New Orleans, La.",Indoors,UBU Speed Series-S5-M,Sunny,87.0,62,10,E
59228,2019092912,20190929122437,away,50.09,30.49,1.82,0.51,0.19,45.63,7.55,2543480,Zack Martin,70,2019,41,3,11:00:00,DAL,1,10,DAL,9,3,2555224,SINGLEBACK,"1 RB, 2 TE, 2 WR",7,"4 DL, 3 LB, 4 DB",right,2019-09-30T02:07:21.000Z,2019-09-30T02:07:20.000Z,6-4,315,11/20/1990,Notre Dame,G,NO,DAL,4,Mercedes-Benz Superdome,"New Orleans, La.",Indoors,UBU Speed Series-S5-M,Sunny,87.0,62,10,E
59229,2019092912,20190929122437,away,50.16,19.85,4.37,2.64,0.43,72.68,61.75,2552487,Amari Cooper,19,2019,41,3,11:00:00,DAL,1,10,DAL,9,3,2555224,SINGLEBACK,"1 RB, 2 TE, 2 WR",7,"4 DL, 3 LB, 4 DB",right,2019-09-30T02:07:21.000Z,2019-09-30T02:07:20.000Z,6-1,211,06/17/1994,Alabama,WR,NO,DAL,4,Mercedes-Benz Superdome,"New Orleans, La.",Indoors,UBU Speed Series-S5-M,Sunny,87.0,62,10,E
59230,2019092912,20190929122437,away,50.4,28.67,2.73,0.61,0.3,61.34,26.36,2553505,La'el Collins,71,2019,41,3,11:00:00,DAL,1,10,DAL,9,3,2555224,SINGLEBACK,"1 RB, 2 TE, 2 WR",7,"4 DL, 3 LB, 4 DB",right,2019-09-30T02:07:21.000Z,2019-09-30T02:07:20.000Z,6-4,320,07/26/1993,Louisiana State,T,NO,DAL,4,Mercedes-Benz Superdome,"New Orleans, La.",Indoors,UBU Speed Series-S5-M,Sunny,87.0,62,10,E
59231,2019092912,20190929122437,away,45.58,31.94,4.44,3.24,0.44,63.67,67.45,2555224,Ezekiel Elliott,21,2019,41,3,11:00:00,DAL,1,10,DAL,9,3,2555224,SINGLEBACK,"1 RB, 2 TE, 2 WR",7,"4 DL, 3 LB, 4 DB",right,2019-09-30T02:07:21.000Z,2019-09-30T02:07:20.000Z,6-0,228,07/22/1995,Ohio State,RB,NO,DAL,4,Mercedes-Benz Superdome,"New Orleans, La.",Indoors,UBU Speed Series-S5-M,Sunny,87.0,62,10,E
59232,2019092912,20190929122437,away,45.18,31.04,4.61,1.62,0.46,286.97,281.21,2555260,Dak Prescott,4,2019,41,3,11:00:00,DAL,1,10,DAL,9,3,2555224,SINGLEBACK,"1 RB, 2 TE, 2 WR",7,"4 DL, 3 LB, 4 DB",right,2019-09-30T02:07:21.000Z,2019-09-30T02:07:20.000Z,6-2,238,07/29/1993,Mississippi State,QB,NO,DAL,4,Mercedes-Benz Superdome,"New Orleans, La.",Indoors,UBU Speed Series-S5-M,Sunny,87.0,62,10,E
59233,2019092912,20190929122437,away,50.49,25.58,2.21,0.86,0.22,164.99,34.05,2559193,Blake Jarwin,89,2019,41,3,11:00:00,DAL,1,10,DAL,9,3,2555224,SINGLEBACK,"1 RB, 2 TE, 2 WR",7,"4 DL, 3 LB, 4 DB",right,2019-09-30T02:07:21.000Z,2019-09-30T02:07:20.000Z,6-5,260,07/16/1994,Oklahoma State,TE,NO,DAL,4,Mercedes-Benz Superdome,"New Orleans, La.",Indoors,UBU Speed Series-S5-M,Sunny,87.0,62,10,E
59234,2019092912,20190929122437,away,49.55,33.38,1.91,0.93,0.19,8.93,331.1,2560934,Connor Williams,52,2019,41,3,11:00:00,DAL,1,10,DAL,9,3,2555224,SINGLEBACK,"1 RB, 2 TE, 2 WR",7,"4 DL, 3 LB, 4 DB",right,2019-09-30T02:07:21.000Z,2019-09-30T02:07:20.000Z,6-5,298,05/12/1997,Texas,G,NO,DAL,4,Mercedes-Benz Superdome,"New Orleans, La.",Indoors,UBU Speed Series-S5-M,Sunny,87.0,62,10,E
59235,2019092912,20190929122437,home,49.67,26.99,2.64,1.79,0.28,345.17,332.95,2495184,Cameron Jordan,94,2019,41,3,11:00:00,DAL,1,10,DAL,9,3,2555224,SINGLEBACK,"1 RB, 2 TE, 2 WR",7,"4 DL, 3 LB, 4 DB",right,2019-09-30T02:07:21.000Z,2019-09-30T02:07:20.000Z,6-4,287,07/10/1989,California,DE,NO,DAL,4,Mercedes-Benz Superdome,"New Orleans, La.",Indoors,UBU Speed Series-S5-M,Sunny,87.0,62,10,E
59236,2019092912,20190929122437,home,53.85,33.41,2.61,1.68,0.27,269.14,341.37,2533008,Demario Davis,56,2019,41,3,11:00:00,DAL,1,10,DAL,9,3,2555224,SINGLEBACK,"1 RB, 2 TE, 2 WR",7,"4 DL, 3 LB, 4 DB",right,2019-09-30T02:07:21.000Z,2019-09-30T02:07:20.000Z,6-2,248,01/11/1989,Arkansas State,ILB,NO,DAL,4,Mercedes-Benz Superdome,"New Orleans, La.",Indoors,UBU Speed Series-S5-M,Sunny,87.0,62,10,E
59237,2019092912,20190929122437,home,53.61,29.36,3.04,1.77,0.3,273.99,332.37,2539935,Kiko Alonso,54,2019,41,3,11:00:00,DAL,1,10,DAL,9,3,2555224,SINGLEBACK,"1 RB, 2 TE, 2 WR",7,"4 DL, 3 LB, 4 DB",right,2019-09-30T02:07:21.000Z,2019-09-30T02:07:20.000Z,6-3,239,08/14/1990,Oregon,OLB,NO,DAL,4,Mercedes-Benz Superdome,"New Orleans, La.",Indoors,UBU Speed Series-S5-M,Sunny,87.0,62,10,E
59238,2019092912,20190929122437,home,50.36,24.76,2.03,1.68,0.21,2.85,352.08,2539982,A.J. Klein,53,2019,41,3,11:00:00,DAL,1,10,DAL,9,3,2555224,SINGLEBACK,"1 RB, 2 TE, 2 WR",7,"4 DL, 3 LB, 4 DB",right,2019-09-30T02:07:21.000Z,2019-09-30T02:07:20.000Z,6-1,240,07/30/1991,Iowa State,OLB,NO,DAL,4,Mercedes-Benz Superdome,"New Orleans, La.",Indoors,UBU Speed Series-S5-M,Sunny,87.0,62,10,E
59239,2019092912,20190929122437,home,57.83,16.46,2.91,4.29,0.27,327.47,12.81,2555277,Eli Apple,25,2019,41,3,11:00:00,DAL,1,10,DAL,9,3,2555224,SINGLEBACK,"1 RB, 2 TE, 2 WR",7,"4 DL, 3 LB, 4 DB",right,2019-09-30T02:07:21.000Z,2019-09-30T02:07:20.000Z,6-1,203,08/09/1995,Ohio State,CB,NO,DAL,4,Mercedes-Benz Superdome,"New Orleans, La.",Indoors,UBU Speed Series-S5-M,Sunny,87.0,62,10,E
59240,2019092912,20190929122437,home,64.56,23.04,1.05,1.05,0.1,299.08,63.92,2555530,Vonn Bell,24,2019,41,3,11:00:00,DAL,1,10,DAL,9,3,2555224,SINGLEBACK,"1 RB, 2 TE, 2 WR",7,"4 DL, 3 LB, 4 DB",right,2019-09-30T02:07:21.000Z,2019-09-30T02:07:20.000Z,5-11,205,12/12/1994,Ohio State,FS,NO,DAL,4,Mercedes-Benz Superdome,"New Orleans, La.",Indoors,UBU Speed Series-S5-M,Sunny,87.0,62,10,E
59241,2019092912,20190929122437,home,48.88,34.28,3.19,1.03,0.32,268.1,314.74,2556274,David Onyemata,93,2019,41,3,11:00:00,DAL,1,10,DAL,9,3,2555224,SINGLEBACK,"1 RB, 2 TE, 2 WR",7,"4 DL, 3 LB, 4 DB",right,2019-09-30T02:07:21.000Z,2019-09-30T02:07:20.000Z,6-4,300,11/13/1992,"Manitoba, Can.",DT,NO,DAL,4,Mercedes-Benz Superdome,"New Orleans, La.",Indoors,UBU Speed Series-S5-M,Sunny,87.0,62,10,E
59242,2019092912,20190929122437,home,54.2,44.28,2.83,0.67,0.28,166.07,81.78,2558061,Marshon Lattimore,23,2019,41,3,11:00:00,DAL,1,10,DAL,9,3,2555224,SINGLEBACK,"1 RB, 2 TE, 2 WR",7,"4 DL, 3 LB, 4 DB",right,2019-09-30T02:07:21.000Z,2019-09-30T02:07:20.000Z,6-0,192,05/20/1996,Ohio State,CB,NO,DAL,4,Mercedes-Benz Superdome,"New Orleans, La.",Indoors,UBU Speed Series-S5-M,Sunny,87.0,62,10,E
59243,2019092912,20190929122437,home,64.11,35.99,0.93,2.56,0.09,281.15,333.59,2558847,Marcus Williams,43,2019,41,3,11:00:00,DAL,1,10,DAL,9,3,2555224,SINGLEBACK,"1 RB, 2 TE, 2 WR",7,"4 DL, 3 LB, 4 DB",right,2019-09-30T02:07:21.000Z,2019-09-30T02:07:20.000Z,6-1,195,09/08/1996,Utah,FS,NO,DAL,4,Mercedes-Benz Superdome,"New Orleans, La.",Indoors,UBU Speed Series-S5-M,Sunny,87.0,62,10,E
59244,2019092912,20190929122437,home,51.32,33.51,1.28,1.21,0.13,299.15,140.09,2562273,Carl Granderson,96,2019,41,3,11:00:00,DAL,1,10,DAL,9,3,2555224,SINGLEBACK,"1 RB, 2 TE, 2 WR",7,"4 DL, 3 LB, 4 DB",right,2019-09-30T02:07:21.000Z,2019-09-30T02:07:20.000Z,6-5,261,12/18/1996,Wyoming,DE,NO,DAL,4,Mercedes-Benz Superdome,"New Orleans, La.",Indoors,UBU Speed Series-S5-M,Sunny,87.0,62,10,E
59245,2019092912,20190929122437,home,50.77,30.9,2.09,1.26,0.21,265.53,358.62,2563242,Shy Tuttle,99,2019,41,3,11:00:00,DAL,1,10,DAL,9,3,2555224,SINGLEBACK,"1 RB, 2 TE, 2 WR",7,"4 DL, 3 LB, 4 DB",right,2019-09-30T02:07:21.000Z,2019-09-30T02:07:20.000Z,6-3,300,10/20/1995,Tennessee,DT,NO,DAL,4,Mercedes-Benz Superdome,"New Orleans, La.",Indoors,UBU Speed Series-S5-M,Sunny,87.0,62,10,E
