,GameId,PlayId,Team,X,Y,S,A,Dis,Orientation,Dir,NflId,DisplayName,JerseyNumber,Season,YardLine,Quarter,GameClock,PossessionTeam,Down,Distance,FieldPosition,HomeScoreBeforePlay,VisitorScoreBeforePlay,NflIdRusher,OffenseFormation,OffensePersonnel,DefendersInTheBox,DefensePersonnel,PlayDirection,TimeHandoff,TimeSnap,PlayerHeight,PlayerWeight,PlayerBirthDate,PlayerCollegeName,Position,HomeTeamAbbr,VisitorTeamAbbr,Week,Stadium,Location,StadiumType,Turf,GameWeather,Temperature,Humidity,WindSpeed,WindDirection
70444,2019100608,20191006083781,away,61.19,41.78,4.59,2.58,0.45,117.69,137.26,497320,Andre Roberts,18,2019,50,4,02:09:00,BUF,1,10,,7,14,2506404,I_FORM,"2 RB, 2 TE, 1 WR",8,"3 DL, 4 LB, 4 DB",right,2019-10-06T19:50:25.000Z,2019-10-06T19:50:24.000Z,5-11,195,01/09/1988,Citadel,WR,TEN,BUF,5,Nissan Stadium,"Nashville, TN",Outdoors,Grass,Cloudy,77.0,71,13,S
70445,2019100608,20191006083781,away,60.15,21.21,1.15,2.76,0.11,87.89,21.2,2495347,Lee Smith,85,2019,50,4,02:09:00,BUF,1,10,,7,14,2506404,I_FORM,"2 RB, 2 TE, 1 WR",8,"3 DL, 4 LB, 4 DB",right,2019-10-06T19:50:25.000Z,2019-10-06T19:50:24.000Z,6-6,265,11/21/1987,Marshall,TE,TEN,BUF,5,Nissan Stadium,"Nashville, TN",Outdoors,Grass,Cloudy,77.0,71,13,S
70446,2019100608,20191006083781,away,55.01,23.43,2.38,3.1,0.25,82.82,86.6,2506404,Frank Gore,20,2019,50,4,02:09:00,BUF,1,10,,7,14,2506404,I_FORM,"2 RB, 2 TE, 1 WR",8,"3 DL, 4 LB, 4 DB",right,2019-10-06T19:50:25.000Z,2019-10-06T19:50:24.000Z,5-9,212,05/14/1983,Miami,RB,TEN,BUF,5,Nissan Stadium,"Nashville, TN",Outdoors,Grass,Cloudy,77.0,71,13,S
70447,2019100608,20191006083781,away,58.6,18.88,4.77,0.52,0.47,107.83,127.46,2530763,Patrick DiMarco,42,2019,50,4,02:09:00,BUF,1,10,,7,14,2506404,I_FORM,"2 RB, 2 TE, 1 WR",8,"3 DL, 4 LB, 4 DB",right,2019-10-06T19:50:25.000Z,2019-10-06T19:50:24.000Z,6-1,234,04/30/1989,South Carolina,FB,TEN,BUF,5,Nissan Stadium,"Nashville, TN",Outdoors,Grass,Cloudy,77.0,71,13,S
70448,2019100608,20191006083781,away,60.06,22.29,1.19,1.98,0.14,147.55,179.97,2550140,Spencer Long,61,2019,50,4,02:09:00,BUF,1,10,,7,14,2506404,I_FORM,"2 RB, 2 TE, 1 WR",8,"3 DL, 4 LB, 4 DB",right,2019-10-06T19:50:25.000Z,2019-10-06T19:50:24.000Z,6-5,318,11/08/1990,Nebraska,C,TEN,BUF,5,Nissan Stadium,"Nashville, TN",Outdoors,Grass,Cloudy,77.0,71,13,S
70449,2019100608,20191006083781,away,58.51,23.87,1.43,1.13,0.14,324.31,205.68,2552343,Jon Feliciano,76,2019,50,4,02:09:00,BUF,1,10,,7,14,2506404,I_FORM,"2 RB, 2 TE, 1 WR",8,"3 DL, 4 LB, 4 DB",right,2019-10-06T19:50:25.000Z,2019-10-06T19:50:24.000Z,6-4,323,02/10/1992,Miami,G,TEN,BUF,5,Nissan Stadium,"Nashville, TN",Outdoors,Grass,Cloudy,77.0,71,13,S
70450,2019100608,20191006083781,away,57.39,23.18,3.31,0.83,0.34,152.37,206.78,2553824,Quinton Spain,67,2019,50,4,02:09:00,BUF,1,10,,7,14,2506404,I_FORM,"2 RB, 2 TE, 1 WR",8,"3 DL, 4 LB, 4 DB",right,2019-10-06T19:50:25.000Z,2019-10-06T19:50:24.000Z,6-4,330,08/07/1991,West Virginia,G,TEN,BUF,5,Nissan Stadium,"Nashville, TN",Outdoors,Grass,Cloudy,77.0,71,13,S
70451,2019100608,20191006083781,away,57.93,24.52,2.49,0.62,0.26,134.44,198.16,2557875,Dion Dawkins,73,2019,50,4,02:09:00,BUF,1,10,,7,14,2506404,I_FORM,"2 RB, 2 TE, 1 WR",8,"3 DL, 4 LB, 4 DB",right,2019-10-06T19:50:25.000Z,2019-10-06T19:50:24.000Z,6-5,320,04/26/1994,Temple,T,TEN,BUF,5,Nissan Stadium,"Nashville, TN",Outdoors,Grass,Cloudy,77.0,71,13,S
70452,2019100608,20191006083781,away,55.25,24.06,4.73,2.7,0.47,278.23,285.92,2560955,Josh Allen,17,2019,50,4,02:09:00,BUF,1,10,,7,14,2506404,I_FORM,"2 RB, 2 TE, 1 WR",8,"3 DL, 4 LB, 4 DB",right,2019-10-06T19:50:25.000Z,2019-10-06T19:50:24.000Z,6-5,237,05/21/1996,Wyoming,QB,TEN,BUF,5,Nissan Stadium,"Nashville, TN",Outdoors,Grass,Cloudy,77.0,71,13,S
70453,2019100608,20191006083781,away,59.35,19.7,1.38,1.33,0.14,86.91,43.61,2562681,Dawson Knox,88,2019,50,4,02:09:00,BUF,1,10,,7,14,2506404,I_FORM,"2 RB, 2 TE, 1 WR",8,"3 DL, 4 LB, 4 DB",right,2019-10-06T19:50:25.000Z,2019-10-06T19:50:24.000Z,6-4,254,11/14/1996,Mississippi,TE,TEN,BUF,5,Nissan Stadium,"Nashville, TN",Outdoors,Grass,Cloudy,77.0,71,13,S
70454,2019100608,20191006083781,away,58.79,21.81,0.56,1.42,0.05,107.44,270.44,2563364,Ryan Bates,71,2019,50,4,02:09:00,BUF,1,10,,7,14,2506404,I_FORM,"2 RB, 2 TE, 1 WR",8,"3 DL, 4 LB, 4 DB",right,2019-10-06T19:50:25.000Z,2019-10-06T19:50:24.000Z,6-4,300,02/14/1997,Penn State,T,TEN,BUF,5,Nissan Stadium,"Nashville, TN",Outdoors,Grass,Cloudy,77.0,71,13,S
70455,2019100608,20191006083781,home,58.39,23.72,1.87,1.83,0.24,135.52,206.14,2495476,Jurrell Casey,99,2019,50,4,02:09:00,BUF,1,10,,7,14,2506404,I_FORM,"2 RB, 2 TE, 1 WR",8,"3 DL, 4 LB, 4 DB",right,2019-10-06T19:50:25.000Z,2019-10-06T19:50:24.000Z,6-1,305,12/05/1989,Southern California,DT,TEN,BUF,5,Nissan Stadium,"Nashville, TN",Outdoors,Grass,Cloudy,77.0,71,13,S
70456,2019100608,20191006083781,home,66.18,18.84,3.5,1.57,0.35,252.48,229.4,2539320,Kenny Vaccaro,24,2019,50,4,02:09:00,BUF,1,10,,7,14,2506404,I_FORM,"2 RB, 2 TE, 1 WR",8,"3 DL, 4 LB, 4 DB",right,2019-10-06T19:50:25.000Z,2019-10-06T19:50:24.000Z,6-0,214,02/15/1991,Texas,SS,TEN,BUF,5,Nissan Stadium,"Nashville, TN",Outdoors,Grass,Cloudy,77.0,71,13,S
70457,2019100608,20191006083781,home,65.4,40.94,2.74,1.83,0.26,257.65,173.53,2540162,Logan Ryan,26,2019,50,4,02:09:00,BUF,1,10,,7,14,2506404,I_FORM,"2 RB, 2 TE, 1 WR",8,"3 DL, 4 LB, 4 DB",right,2019-10-06T19:50:25.000Z,2019-10-06T19:50:24.000Z,5-11,195,02/09/1991,Rutgers,CB,TEN,BUF,5,Nissan Stadium,"Nashville, TN",Outdoors,Grass,Cloudy,77.0,71,13,S
70458,2019100608,20191006083781,home,59.62,21.65,1.6,0.33,0.17,307.26,214.03,2543504,DaQuan Jones,90,2019,50,4,02:09:00,BUF,1,10,,7,14,2506404,I_FORM,"2 RB, 2 TE, 1 WR",8,"3 DL, 4 LB, 4 DB",right,2019-10-06T19:50:25.000Z,2019-10-06T19:50:24.000Z,6-4,322,12/27/1991,Penn State,DE,TEN,BUF,5,Nissan Stadium,"Nashville, TN",Outdoors,Grass,Cloudy,77.0,71,13,S
70459,2019100608,20191006083781,home,61.49,16.25,0.85,2.15,0.08,336.49,37.86,2550613,Malcolm Butler,21,2019,50,4,02:09:00,BUF,1,10,,7,14,2506404,I_FORM,"2 RB, 2 TE, 1 WR",8,"3 DL, 4 LB, 4 DB",right,2019-10-06T19:50:25.000Z,2019-10-06T19:50:24.000Z,5-11,190,03/02/1990,West Alabama,CB,TEN,BUF,5,Nissan Stadium,"Nashville, TN",Outdoors,Grass,Cloudy,77.0,71,13,S
70460,2019100608,20191006083781,home,61.06,21.05,1.18,1.51,0.13,289.59,349.41,2555158,Kevin Byard,31,2019,50,4,02:09:00,BUF,1,10,,7,14,2506404,I_FORM,"2 RB, 2 TE, 1 WR",8,"3 DL, 4 LB, 4 DB",right,2019-10-06T19:50:25.000Z,2019-10-06T19:50:24.000Z,5-11,212,08/17/1993,Middle Tennessee,FS,TEN,BUF,5,Nissan Stadium,"Nashville, TN",Outdoors,Grass,Cloudy,77.0,71,13,S
70461,2019100608,20191006083781,home,59.03,21.41,1.71,1.49,0.17,313.9,245.07,2556368,Austin Johnson,94,2019,50,4,02:09:00,BUF,1,10,,7,14,2506404,I_FORM,"2 RB, 2 TE, 1 WR",8,"3 DL, 4 LB, 4 DB",right,2019-10-06T19:50:25.000Z,2019-10-06T19:50:24.000Z,6-4,314,05/08/1994,Penn State,NT,TEN,BUF,5,Nissan Stadium,"Nashville, TN",Outdoors,Grass,Cloudy,77.0,71,13,S
70462,2019100608,20191006083781,home,59.94,19.43,1.38,2.15,0.14,283.85,13.76,2556537,Reggie Gilbert,93,2019,50,4,02:09:00,BUF,1,10,,7,14,2506404,I_FORM,"2 RB, 2 TE, 1 WR",8,"3 DL, 4 LB, 4 DB",right,2019-10-06T19:50:25.000Z,2019-10-06T19:50:24.000Z,6-4,261,04/01/1993,Arizona,LB,TEN,BUF,5,Nissan Stadium,"Nashville, TN",Outdoors,Grass,Cloudy,77.0,71,13,S
70463,2019100608,20191006083781,home,58.33,22.89,4.28,2.38,0.43,264.23,223.58,2558005,Jayon Brown,55,2019,50,4,02:09:00,BUF,1,10,,7,14,2506404,I_FORM,"2 RB, 2 TE, 1 WR",8,"3 DL, 4 LB, 4 DB",right,2019-10-06T19:50:25.000Z,2019-10-06T19:50:24.000Z,6-0,226,02/26/1995,UCLA,ILB,TEN,BUF,5,Nissan Stadium,"Nashville, TN",Outdoors,Grass,Cloudy,77.0,71,13,S
70464,2019100608,20191006083781,home,62.56,20.33,3.82,1.42,0.37,274.76,220.4,2560718,Rashaan Evans,54,2019,50,4,02:09:00,BUF,1,10,,7,14,2506404,I_FORM,"2 RB, 2 TE, 1 WR",8,"3 DL, 4 LB, 4 DB",right,2019-10-06T19:50:25.000Z,2019-10-06T19:50:24.000Z,6-2,234,11/08/1995,Alabama,LB,TEN,BUF,5,Nissan Stadium,"Nashville, TN",Outdoors,Grass,Cloudy,77.0,71,13,S
70465,2019100608,20191006083781,home,56.92,24.87,5.82,1.47,0.58,245.52,212.78,2560784,Harold Landry,58,2019,50,4,02:09:00,BUF,1,10,,7,14,2506404,I_FORM,"2 RB, 2 TE, 1 WR",8,"3 DL, 4 LB, 4 DB",right,2019-10-06T19:50:25.000Z,2019-10-06T19:50:24.000Z,6-2,250,06/05/1996,Boston College,OLB,TEN,BUF,5,Nissan Stadium,"Nashville, TN",Outdoors,Grass,Cloudy,77.0,71,13,S
