,GameId,PlayId,Team,X,Y,S,A,Dis,Orientation,Dir,NflId,DisplayName,JerseyNumber,Season,YardLine,Quarter,GameClock,PossessionTeam,Down,Distance,FieldPosition,HomeScoreBeforePlay,VisitorScoreBeforePlay,NflIdRusher,OffenseFormation,OffensePersonnel,DefendersInTheBox,DefensePersonnel,PlayDirection,TimeHandoff,TimeSnap,PlayerHeight,PlayerWeight,PlayerBirthDate,PlayerCollegeName,Position,HomeTeamAbbr,VisitorTeamAbbr,Week,Stadium,Location,StadiumType,Turf,GameWeather,Temperature,Humidity,WindSpeed,WindDirection
28820,2019091513,20190915130345,away,73.03,36.81,2.94,2.84,0.29,266.04,264.81,1581,DeSean Jackson,10,2019,37,1,08:43:00,PHI,2,2,PHI,3,0,2562722,SHOTGUN,"1 RB, 1 TE, 3 WR",7,"3 DL, 3 LB, 5 DB",left,2019-09-16T00:33:55.000Z,2019-09-16T00:33:54.000Z,5-10,175,12/01/1986,California,WR,ATL,PHI,2,Mercedes-Benz Stadium,"Atlanta, GA","Indoor, roof open",FieldTurf,,,0,,
28821,2019091513,20190915130345,away,73.61,24.2,0.72,0.36,0.07,247.43,290.89,2495298,Jason Kelce,62,2019,37,1,08:43:00,PHI,2,2,PHI,3,0,2562722,SHOTGUN,"1 RB, 1 TE, 3 WR",7,"3 DL, 3 LB, 5 DB",left,2019-09-16T00:33:55.000Z,2019-09-16T00:33:54.000Z,6-3,295,11/05/1987,Cincinnati,C,ATL,PHI,2,Mercedes-Benz Stadium,"Atlanta, GA","Indoor, roof open",FieldTurf,,,0,,
28822,2019091513,20190915130345,away,73.23,21.69,1.72,1.42,0.18,260.89,313.4,2505827,Jason Peters,71,2019,37,1,08:43:00,PHI,2,2,PHI,3,0,2562722,SHOTGUN,"1 RB, 1 TE, 3 WR",7,"3 DL, 3 LB, 5 DB",left,2019-09-16T00:33:55.000Z,2019-09-16T00:33:54.000Z,6-4,328,01/22/1982,Arkansas,OT,ATL,PHI,2,Mercedes-Benz Stadium,"Atlanta, GA","Indoor, roof open",FieldTurf,,,0,,
28823,2019091513,20190915130345,away,70.54,43.38,5.24,1.77,0.52,255.45,259.77,2533039,Alshon Jeffery,17,2019,37,1,08:43:00,PHI,2,2,PHI,3,0,2562722,SHOTGUN,"1 RB, 1 TE, 3 WR",7,"3 DL, 3 LB, 5 DB",left,2019-09-16T00:33:55.000Z,2019-09-16T00:33:54.000Z,6-3,218,02/14/1990,South Carolina,WR,ATL,PHI,2,Mercedes-Benz Stadium,"Atlanta, GA","Indoor, roof open",FieldTurf,,,0,,
28824,2019091513,20190915130345,away,73.31,25.09,1.42,1.14,0.15,247.34,289.71,2534434,Brandon Brooks,79,2019,37,1,08:43:00,PHI,2,2,PHI,3,0,2562722,SHOTGUN,"1 RB, 1 TE, 3 WR",7,"3 DL, 3 LB, 5 DB",left,2019-09-16T00:33:55.000Z,2019-09-16T00:33:54.000Z,6-5,335,08/19/1989,"Miami, O.",G,ATL,PHI,2,Mercedes-Benz Stadium,"Atlanta, GA","Indoor, roof open",FieldTurf,,,0,,
28825,2019091513,20190915130345,away,74.57,27.42,0.61,1.51,0.06,317.27,280.28,2539286,Lane Johnson,65,2019,37,1,08:43:00,PHI,2,2,PHI,3,0,2562722,SHOTGUN,"1 RB, 1 TE, 3 WR",7,"3 DL, 3 LB, 5 DB",left,2019-09-16T00:33:55.000Z,2019-09-16T00:33:54.000Z,6-6,317,05/08/1990,Oklahoma,T,ATL,PHI,2,Mercedes-Benz Stadium,"Atlanta, GA","Indoor, roof open",FieldTurf,,,0,,
28826,2019091513,20190915130345,away,74.39,19.8,1.86,1.81,0.18,262.42,331.67,2540158,Zach Ertz,86,2019,37,1,08:43:00,PHI,2,2,PHI,3,0,2562722,SHOTGUN,"1 RB, 1 TE, 3 WR",7,"3 DL, 3 LB, 5 DB",left,2019-09-16T00:33:55.000Z,2019-09-16T00:33:54.000Z,6-5,250,11/10/1990,Stanford,TE,ATL,PHI,2,Mercedes-Benz Stadium,"Atlanta, GA","Indoor, roof open",FieldTurf,,,0,,
28827,2019091513,20190915130345,away,72.05,17.76,4.11,1.48,0.4,285.94,307.99,2552600,Nelson Agholor,13,2019,37,1,08:43:00,PHI,2,2,PHI,3,0,2562722,SHOTGUN,"1 RB, 1 TE, 3 WR",7,"3 DL, 3 LB, 5 DB",left,2019-09-16T00:33:55.000Z,2019-09-16T00:33:54.000Z,6-0,198,05/24/1993,Southern California,WR,ATL,PHI,2,Mercedes-Benz Stadium,"Atlanta, GA","Indoor, roof open",FieldTurf,,,0,,
28828,2019091513,20190915130345,away,78.81,24.36,2.43,2.52,0.23,326.2,33.9,2555259,Carson Wentz,11,2019,37,1,08:43:00,PHI,2,2,PHI,3,0,2562722,SHOTGUN,"1 RB, 1 TE, 3 WR",7,"3 DL, 3 LB, 5 DB",left,2019-09-16T00:33:55.000Z,2019-09-16T00:33:54.000Z,6-5,237,12/30/1992,North Dakota State,QB,ATL,PHI,2,Mercedes-Benz Stadium,"Atlanta, GA","Indoor, roof open",FieldTurf,,,0,,
28829,2019091513,20190915130345,away,72.26,22.42,2.64,1.54,0.26,245.87,293.32,2555495,Isaac Seumalo,73,2019,37,1,08:43:00,PHI,2,2,PHI,3,0,2562722,SHOTGUN,"1 RB, 1 TE, 3 WR",7,"3 DL, 3 LB, 5 DB",left,2019-09-16T00:33:55.000Z,2019-09-16T00:33:54.000Z,6-4,303,10/29/1993,Oregon State,G,ATL,PHI,2,Mercedes-Benz Stadium,"Atlanta, GA","Indoor, roof open",FieldTurf,,,0,,
28830,2019091513,20190915130345,away,78.42,24.95,2.89,3.08,0.27,268.21,238.3,2562722,Miles Sanders,26,2019,37,1,08:43:00,PHI,2,2,PHI,3,0,2562722,SHOTGUN,"1 RB, 1 TE, 3 WR",7,"3 DL, 3 LB, 5 DB",left,2019-09-16T00:33:55.000Z,2019-09-16T00:33:54.000Z,5-11,211,05/01/1997,Penn State,RB,ATL,PHI,2,Mercedes-Benz Stadium,"Atlanta, GA","Indoor, roof open",FieldTurf,,,0,,
28831,2019091513,20190915130345,home,72.8,24.28,0.42,0.71,0.04,91.05,227.25,2532992,Jack Crawford,95,2019,37,1,08:43:00,PHI,2,2,PHI,3,0,2562722,SHOTGUN,"1 RB, 1 TE, 3 WR",7,"3 DL, 3 LB, 5 DB",left,2019-09-16T00:33:55.000Z,2019-09-16T00:33:54.000Z,6-5,288,09/07/1988,Penn State,DE,ATL,PHI,2,Mercedes-Benz Stadium,"Atlanta, GA","Indoor, roof open",FieldTurf,,,0,,
28832,2019091513,20190915130345,home,66.41,44.18,3.65,1.71,0.36,184.02,256.41,2539334,Desmond Trufant,21,2019,37,1,08:43:00,PHI,2,2,PHI,3,0,2562722,SHOTGUN,"1 RB, 1 TE, 3 WR",7,"3 DL, 3 LB, 5 DB",left,2019-09-16T00:33:55.000Z,2019-09-16T00:33:54.000Z,6-0,190,09/10/1990,Washington,CB,ATL,PHI,2,Mercedes-Benz Stadium,"Atlanta, GA","Indoor, roof open",FieldTurf,,,0,,
28833,2019091513,20190915130345,home,55.59,29.33,1.53,1.42,0.16,78.65,255.65,2543850,Ricardo Allen,37,2019,37,1,08:43:00,PHI,2,2,PHI,3,0,2562722,SHOTGUN,"1 RB, 1 TE, 3 WR",7,"3 DL, 3 LB, 5 DB",left,2019-09-16T00:33:55.000Z,2019-09-16T00:33:54.000Z,5-9,186,12/18/1991,Purdue,SS,ATL,PHI,2,Mercedes-Benz Stadium,"Atlanta, GA","Indoor, roof open",FieldTurf,,,0,,
28834,2019091513,20190915130345,home,73.82,27.88,0.87,3.32,0.11,130.12,152.49,2552301,Vic Beasley,44,2019,37,1,08:43:00,PHI,2,2,PHI,3,0,2562722,SHOTGUN,"1 RB, 1 TE, 3 WR",7,"3 DL, 3 LB, 5 DB",left,2019-09-16T00:33:55.000Z,2019-09-16T00:33:54.000Z,6-3,246,07/08/1992,Clemson,OLB,ATL,PHI,2,Mercedes-Benz Stadium,"Atlanta, GA","Indoor, roof open",FieldTurf,,,0,,
28835,2019091513,20190915130345,home,72.47,21.77,1.19,0.87,0.13,5.3,331.53,2552327,Grady Jarrett,97,2019,37,1,08:43:00,PHI,2,2,PHI,3,0,2562722,SHOTGUN,"1 RB, 1 TE, 3 WR",7,"3 DL, 3 LB, 5 DB",left,2019-09-16T00:33:55.000Z,2019-09-16T00:33:54.000Z,6-0,305,04/28/1993,Clemson,DT,ATL,PHI,2,Mercedes-Benz Stadium,"Atlanta, GA","Indoor, roof open",FieldTurf,,,0,,
28836,2019091513,20190915130345,home,70.8,26.86,1.85,1.69,0.18,117.35,120.88,2555162,Deion Jones,45,2019,37,1,08:43:00,PHI,2,2,PHI,3,0,2562722,SHOTGUN,"1 RB, 1 TE, 3 WR",7,"3 DL, 3 LB, 5 DB",left,2019-09-16T00:33:55.000Z,2019-09-16T00:33:54.000Z,6-1,227,11/04/1994,Louisiana State,MLB,ATL,PHI,2,Mercedes-Benz Stadium,"Atlanta, GA","Indoor, roof open",FieldTurf,,,0,,
28837,2019091513,20190915130345,home,69.08,22.82,2.48,2.36,0.24,105.08,64.62,2555255,De'Vondre Campbell,59,2019,37,1,08:43:00,PHI,2,2,PHI,3,0,2562722,SHOTGUN,"1 RB, 1 TE, 3 WR",7,"3 DL, 3 LB, 5 DB",left,2019-09-16T00:33:55.000Z,2019-09-16T00:33:54.000Z,6-3,232,07/01/1993,Minnesota,OLB,ATL,PHI,2,Mercedes-Benz Stadium,"Atlanta, GA","Indoor, roof open",FieldTurf,,,0,,
28838,2019091513,20190915130345,home,69.26,18.2,2.53,2.78,0.24,68.43,31.7,2555543,Keanu Neal,22,2019,37,1,08:43:00,PHI,2,2,PHI,3,0,2562722,SHOTGUN,"1 RB, 1 TE, 3 WR",7,"3 DL, 3 LB, 5 DB",left,2019-09-16T00:33:55.000Z,2019-09-16T00:33:54.000Z,6-0,211,07/26/1995,Florida,FS,ATL,PHI,2,Mercedes-Benz Stadium,"Atlanta, GA","Indoor, roof open",FieldTurf,,,0,,
28839,2019091513,20190915130345,home,73.51,19.73,2.96,1.71,0.31,71.09,357.58,2557872,Takkarist McKinley,98,2019,37,1,08:43:00,PHI,2,2,PHI,3,0,2562722,SHOTGUN,"1 RB, 1 TE, 3 WR",7,"3 DL, 3 LB, 5 DB",left,2019-09-16T00:33:55.000Z,2019-09-16T00:33:54.000Z,6-2,265,11/02/1995,UCLA,DE,ATL,PHI,2,Mercedes-Benz Stadium,"Atlanta, GA","Indoor, roof open",FieldTurf,,,0,,
28840,2019091513,20190915130345,home,71.43,36.68,0.9,1.74,0.09,93.58,303.52,2558184,Damontae Kazee,27,2019,37,1,08:43:00,PHI,2,2,PHI,3,0,2562722,SHOTGUN,"1 RB, 1 TE, 3 WR",7,"3 DL, 3 LB, 5 DB",left,2019-09-16T00:33:55.000Z,2019-09-16T00:33:54.000Z,5-11,190,06/05/1993,San Diego State,SS,ATL,PHI,2,Mercedes-Benz Stadium,"Atlanta, GA","Indoor, roof open",FieldTurf,,,0,,
28841,2019091513,20190915130345,home,65.32,14.04,1.76,2.21,0.17,40.32,56.51,2560830,Isaiah Oliver,26,2019,37,1,08:43:00,PHI,2,2,PHI,3,0,2562722,SHOTGUN,"1 RB, 1 TE, 3 WR",7,"3 DL, 3 LB, 5 DB",left,2019-09-16T00:33:55.000Z,2019-09-16T00:33:54.000Z,6-0,210,09/30/1996,Colorado,CB,ATL,PHI,2,Mercedes-Benz Stadium,"Atlanta, GA","Indoor, roof open",FieldTurf,,,0,,
