,GameId,PlayId,Team,X,Y,S,A,Dis,Orientation,Dir,NflId,DisplayName,JerseyNumber,Season,YardLine,Quarter,GameClock,PossessionTeam,Down,Distance,FieldPosition,HomeScoreBeforePlay,VisitorScoreBeforePlay,NflIdRusher,OffenseFormation,OffensePersonnel,DefendersInTheBox,DefensePersonnel,PlayDirection,TimeHandoff,TimeSnap,PlayerHeight,PlayerWeight,PlayerBirthDate,PlayerCollegeName,Position,HomeTeamAbbr,VisitorTeamAbbr,Week,Stadium,Location,StadiumType,Turf,GameWeather,Temperature,Humidity,WindSpeed,WindDirection
59686,2019093000,20190930000079,away,86.24,28.48,3.29,0.51,0.33,287.21,348.75,71465,Andre Smith,71,2019,25,1,14:17:00,CIN,2,6,CIN,0,0,2557976,SHOTGUN,"1 RB, 2 TE, 2 WR",7,"3 DL, 4 LB, 4 DB",left,2019-10-01T00:16:59.000Z,2019-10-01T00:16:58.000Z,6-4,330,01/25/1987,Alabama,T,PIT,CIN,4,Heinz Field,Pittsburgh,Outdoor,Grass,Clear,76.0,72,1,From S
59687,2019093000,20190930000079,away,89.92,29.84,0.55,2.33,0.05,252.25,109.05,2495143,Andy Dalton,14,2019,25,1,14:17:00,CIN,2,6,CIN,0,0,2557976,SHOTGUN,"1 RB, 2 TE, 2 WR",7,"3 DL, 4 LB, 4 DB",left,2019-10-01T00:16:59.000Z,2019-10-01T00:16:58.000Z,6-2,220,10/29/1987,Texas Christian,QB,PIT,CIN,4,Heinz Field,Pittsburgh,Outdoor,Grass,Clear,76.0,72,1,From S
59688,2019093000,20190930000079,away,85.4,30.19,0.8,0.24,0.08,240.07,311.72,2550208,Trey Hopkins,66,2019,25,1,14:17:00,CIN,2,6,CIN,0,0,2557976,SHOTGUN,"1 RB, 2 TE, 2 WR",7,"3 DL, 4 LB, 4 DB",left,2019-10-01T00:16:59.000Z,2019-10-01T00:16:58.000Z,6-3,316,07/06/1992,Texas,G,PIT,CIN,4,Heinz Field,Pittsburgh,Outdoor,Grass,Clear,76.0,72,1,From S
59689,2019093000,20190930000079,away,86.4,33.67,1.74,2.93,0.16,298.16,344.53,2552335,Bobby Hart,68,2019,25,1,14:17:00,CIN,2,6,CIN,0,0,2557976,SHOTGUN,"1 RB, 2 TE, 2 WR",7,"3 DL, 4 LB, 4 DB",left,2019-10-01T00:16:59.000Z,2019-10-01T00:16:58.000Z,6-5,310,08/21/1994,Florida State,OT,PIT,CIN,4,Heinz Field,Pittsburgh,Outdoor,Grass,Clear,76.0,72,1,From S
59690,2019093000,20190930000079,away,86.09,36.86,3.31,3.82,0.32,271.89,295.94,2552559,C.J. Uzomah,87,2019,25,1,14:17:00,CIN,2,6,CIN,0,0,2557976,SHOTGUN,"1 RB, 2 TE, 2 WR",7,"3 DL, 4 LB, 4 DB",left,2019-10-01T00:16:59.000Z,2019-10-01T00:16:58.000Z,6-6,260,01/14/1993,Auburn,TE,PIT,CIN,4,Heinz Field,Pittsburgh,Outdoor,Grass,Clear,76.0,72,1,From S
59691,2019093000,20190930000079,away,85.46,30.9,1.57,0.75,0.16,254.67,254.37,2553436,John Miller,67,2019,25,1,14:17:00,CIN,2,6,CIN,0,0,2557976,SHOTGUN,"1 RB, 2 TE, 2 WR",7,"3 DL, 4 LB, 4 DB",left,2019-10-01T00:16:59.000Z,2019-10-01T00:16:58.000Z,6-3,315,08/12/1993,Louisville,G,PIT,CIN,4,Heinz Field,Pittsburgh,Outdoor,Grass,Clear,76.0,72,1,From S
59692,2019093000,20190930000079,away,85.88,44.91,3.55,3.42,0.34,260.81,241.49,2555466,Tyler Boyd,83,2019,25,1,14:17:00,CIN,2,6,CIN,0,0,2557976,SHOTGUN,"1 RB, 2 TE, 2 WR",7,"3 DL, 4 LB, 4 DB",left,2019-10-01T00:16:59.000Z,2019-10-01T00:16:58.000Z,6-2,203,11/15/1994,Pittsburgh,WR,PIT,CIN,4,Heinz Field,Pittsburgh,Outdoor,Grass,Clear,76.0,72,1,From S
59693,2019093000,20190930000079,away,89.2,29.17,3.55,3.22,0.34,276.79,313.04,2557976,Joe Mixon,28,2019,25,1,14:17:00,CIN,2,6,CIN,0,0,2557976,SHOTGUN,"1 RB, 2 TE, 2 WR",7,"3 DL, 4 LB, 4 DB",left,2019-10-01T00:16:59.000Z,2019-10-01T00:16:58.000Z,6-1,220,07/24/1996,Oklahoma,HB,PIT,CIN,4,Heinz Field,Pittsburgh,Outdoor,Grass,Clear,76.0,72,1,From S
59694,2019093000,20190930000079,away,83.99,10.49,3.49,2.29,0.34,232.29,258.44,2558010,John Ross,11,2019,25,1,14:17:00,CIN,2,6,CIN,0,0,2557976,SHOTGUN,"1 RB, 2 TE, 2 WR",7,"3 DL, 4 LB, 4 DB",left,2019-10-01T00:16:59.000Z,2019-10-01T00:16:58.000Z,5-11,194,11/27/1995,Washington,WR,PIT,CIN,4,Heinz Field,Pittsburgh,Outdoor,Grass,Clear,76.0,72,1,From S
59695,2019093000,20190930000079,away,86.75,30.17,3.48,1.27,0.34,311.74,352.49,2562679,Mike Jordan,60,2019,25,1,14:17:00,CIN,2,6,CIN,0,0,2557976,SHOTGUN,"1 RB, 2 TE, 2 WR",7,"3 DL, 4 LB, 4 DB",left,2019-10-01T00:16:59.000Z,2019-10-01T00:16:58.000Z,6-6,315,01/25/1998,Ohio State,OG,PIT,CIN,4,Heinz Field,Pittsburgh,Outdoor,Grass,Clear,76.0,72,1,From S
59696,2019093000,20190930000079,away,85.24,33.63,3.24,1.19,0.31,281.91,239.57,2562720,Drew Sample,89,2019,25,1,14:17:00,CIN,2,6,CIN,0,0,2557976,SHOTGUN,"1 RB, 2 TE, 2 WR",7,"3 DL, 4 LB, 4 DB",left,2019-10-01T00:16:59.000Z,2019-10-01T00:16:58.000Z,6-5,259,04/16/1996,Washington,TE,PIT,CIN,4,Heinz Field,Pittsburgh,Outdoor,Grass,Clear,76.0,72,1,From S
59697,2019093000,20190930000079,home,82.42,43.88,1.94,1.66,0.18,123.59,191.85,496733,Joe Haden,23,2019,25,1,14:17:00,CIN,2,6,CIN,0,0,2557976,SHOTGUN,"1 RB, 2 TE, 2 WR",7,"3 DL, 4 LB, 4 DB",left,2019-10-01T00:16:59.000Z,2019-10-01T00:16:58.000Z,5-11,195,04/14/1989,Florida,CB,PIT,CIN,4,Heinz Field,Pittsburgh,Outdoor,Grass,Clear,76.0,72,1,From S
59698,2019093000,20190930000079,home,85.27,28.95,2.97,0.44,0.29,91.47,17.72,2508109,Cameron Heyward,97,2019,25,1,14:17:00,CIN,2,6,CIN,0,0,2557976,SHOTGUN,"1 RB, 2 TE, 2 WR",7,"3 DL, 4 LB, 4 DB",left,2019-10-01T00:16:59.000Z,2019-10-01T00:16:58.000Z,6-5,295,05/06/1989,Ohio State,DT,PIT,CIN,4,Heinz Field,Pittsburgh,Outdoor,Grass,Clear,76.0,72,1,From S
59699,2019093000,20190930000079,home,82.31,29.39,3.26,1.89,0.31,92.1,23.19,2532789,Mark Barron,26,2019,25,1,14:17:00,CIN,2,6,CIN,0,0,2557976,SHOTGUN,"1 RB, 2 TE, 2 WR",7,"3 DL, 4 LB, 4 DB",left,2019-10-01T00:16:59.000Z,2019-10-01T00:16:58.000Z,6-2,230,10/27/1989,Alabama,ILB,PIT,CIN,4,Heinz Field,Pittsburgh,Outdoor,Grass,Clear,76.0,72,1,From S
59700,2019093000,20190930000079,home,85.76,32.57,1.99,0.58,0.19,118.84,113.88,2543483,Stephon Tuitt,91,2019,25,1,14:17:00,CIN,2,6,CIN,0,0,2557976,SHOTGUN,"1 RB, 2 TE, 2 WR",7,"3 DL, 4 LB, 4 DB",left,2019-10-01T00:16:59.000Z,2019-10-01T00:16:58.000Z,6-6,303,05/23/1993,Notre Dame,DE,PIT,CIN,4,Heinz Field,Pittsburgh,Outdoor,Grass,Clear,76.0,72,1,From S
59701,2019093000,20190930000079,home,82.45,10.66,1.67,3.02,0.15,96.59,274.07,2552265,Steven Nelson,22,2019,25,1,14:17:00,CIN,2,6,CIN,0,0,2557976,SHOTGUN,"1 RB, 2 TE, 2 WR",7,"3 DL, 4 LB, 4 DB",left,2019-10-01T00:16:59.000Z,2019-10-01T00:16:58.000Z,5-11,194,01/22/1993,Oregon State,CB,PIT,CIN,4,Heinz Field,Pittsburgh,Outdoor,Grass,Clear,76.0,72,1,From S
59702,2019093000,20190930000079,home,86.25,26.21,5.02,3.73,0.49,21.36,27.23,2552289,Bud Dupree,48,2019,25,1,14:17:00,CIN,2,6,CIN,0,0,2557976,SHOTGUN,"1 RB, 2 TE, 2 WR",7,"3 DL, 4 LB, 4 DB",left,2019-10-01T00:16:59.000Z,2019-10-01T00:16:58.000Z,6-4,269,02/12/1993,Kentucky,OLB,PIT,CIN,4,Heinz Field,Pittsburgh,Outdoor,Grass,Clear,76.0,72,1,From S
59703,2019093000,20190930000079,home,85.04,30.7,0.97,3.17,0.08,154.92,272.98,2555239,Javon Hargrave,79,2019,25,1,14:17:00,CIN,2,6,CIN,0,0,2557976,SHOTGUN,"1 RB, 2 TE, 2 WR",7,"3 DL, 4 LB, 4 DB",left,2019-10-01T00:16:59.000Z,2019-10-01T00:16:58.000Z,6-2,305,02/07/1993,South Carolina State,NT,PIT,CIN,4,Heinz Field,Pittsburgh,Outdoor,Grass,Clear,76.0,72,1,From S
59704,2019093000,20190930000079,home,84.55,35.85,2.59,2.14,0.25,69.29,344.5,2558064,T.J. Watt,90,2019,25,1,14:17:00,CIN,2,6,CIN,0,0,2557976,SHOTGUN,"1 RB, 2 TE, 2 WR",7,"3 DL, 4 LB, 4 DB",left,2019-10-01T00:16:59.000Z,2019-10-01T00:16:58.000Z,6-4,252,10/11/1994,Wisconsin,OLB,PIT,CIN,4,Heinz Field,Pittsburgh,Outdoor,Grass,Clear,76.0,72,1,From S
59705,2019093000,20190930000079,home,71.93,37.75,2.85,0.84,0.28,98.65,289.58,2560712,Terrell Edmunds,34,2019,25,1,14:17:00,CIN,2,6,CIN,0,0,2557976,SHOTGUN,"1 RB, 2 TE, 2 WR",7,"3 DL, 4 LB, 4 DB",left,2019-10-01T00:16:59.000Z,2019-10-01T00:16:58.000Z,6-1,217,01/20/1997,Virginia Tech,S,PIT,CIN,4,Heinz Field,Pittsburgh,Outdoor,Grass,Clear,76.0,72,1,From S
59706,2019093000,20190930000079,home,76.46,22.37,2.62,0.98,0.26,127.14,247.77,2560725,Minkah Fitzpatrick,39,2019,25,1,14:17:00,CIN,2,6,CIN,0,0,2557976,SHOTGUN,"1 RB, 2 TE, 2 WR",7,"3 DL, 4 LB, 4 DB",left,2019-10-01T00:16:59.000Z,2019-10-01T00:16:58.000Z,6-1,207,11/17/1996,Alabama,S,PIT,CIN,4,Heinz Field,Pittsburgh,Outdoor,Grass,Clear,76.0,72,1,From S
59707,2019093000,20190930000079,home,81.91,33.31,1.53,2.42,0.16,76.96,75.8,2562243,Devin Bush,55,2019,25,1,14:17:00,CIN,2,6,CIN,0,0,2557976,SHOTGUN,"1 RB, 2 TE, 2 WR",7,"3 DL, 4 LB, 4 DB",left,2019-10-01T00:16:59.000Z,2019-10-01T00:16:58.000Z,5-11,233,07/18/1998,Michigan,LB,PIT,CIN,4,Heinz Field,Pittsburgh,Outdoor,Grass,Clear,76.0,72,1,From S
