,GameId,PlayId,Team,X,Y,S,A,Dis,Orientation,Dir,NflId,DisplayName,JerseyNumber,Season,YardLine,Quarter,GameClock,PossessionTeam,Down,Distance,FieldPosition,HomeScoreBeforePlay,VisitorScoreBeforePlay,NflIdRusher,OffenseFormation,OffensePersonnel,DefendersInTheBox,DefensePersonnel,PlayDirection,TimeHandoff,TimeSnap,PlayerHeight,PlayerWeight,PlayerBirthDate,PlayerCollegeName,Position,HomeTeamAbbr,VisitorTeamAbbr,Week,Stadium,Location,StadiumType,Turf,GameWeather,Temperature,Humidity,WindSpeed,WindDirection
6820,2019090806,20190908062488,away,32.81,24.36,4.26,3.39,0.44,88.11,45.27,2495826,Vernon Davis,85,2019,20,3,06:52:00,WAS,2,15,WAS,14,20,2561000,SHOTGUN,"1 RB, 1 TE, 3 WR",4,"4 DL, 2 LB, 5 DB",right,2019-09-08T19:06:40.000Z,2019-09-08T19:06:39.000Z,6-3,248,01/31/1984,Maryland,TE,PHI,WAS,1,Lincoln Financial Field,"Philadelphia, Pa.",Outdoor,Grass,Sunny,79.0,49,4,W
6821,2019090806,20190908062488,away,28.22,32.71,1.88,1.28,0.18,53.38,171.04,2506706,Donald Penn,72,2019,20,3,06:52:00,WAS,2,15,WAS,14,20,2561000,SHOTGUN,"1 RB, 1 TE, 3 WR",4,"4 DL, 2 LB, 5 DB",right,2019-09-08T19:06:40.000Z,2019-09-08T19:06:39.000Z,6-4,315,04/27/1983,Utah State,T,PHI,WAS,1,Lincoln Financial Field,"Philadelphia, Pa.",Outdoor,Grass,Sunny,79.0,49,4,W
6822,2019090806,20190908062488,away,24.9,29.73,1.17,1.36,0.11,172.53,260.47,2532888,Case Keenum,8,2019,20,3,06:52:00,WAS,2,15,WAS,14,20,2561000,SHOTGUN,"1 RB, 1 TE, 3 WR",4,"4 DL, 2 LB, 5 DB",right,2019-09-08T19:06:40.000Z,2019-09-08T19:06:39.000Z,6-1,215,02/17/1988,Houston,QB,PHI,WAS,1,Lincoln Financial Field,"Philadelphia, Pa.",Outdoor,Grass,Sunny,79.0,49,4,W
6823,2019090806,20190908062488,away,27.45,27.36,2.55,0.67,0.26,41.54,334.61,2543489,Morgan Moses,76,2019,20,3,06:52:00,WAS,2,15,WAS,14,20,2561000,SHOTGUN,"1 RB, 1 TE, 3 WR",4,"4 DL, 2 LB, 5 DB",right,2019-09-08T19:06:40.000Z,2019-09-08T19:06:39.000Z,6-6,330,03/03/1991,Virginia,T,PHI,WAS,1,Lincoln Financial Field,"Philadelphia, Pa.",Outdoor,Grass,Sunny,79.0,49,4,W
6824,2019090806,20190908062488,away,33.7,9.06,4.47,2.69,0.45,95.93,88.07,2543491,Paul Richardson,10,2019,20,3,06:52:00,WAS,2,15,WAS,14,20,2561000,SHOTGUN,"1 RB, 1 TE, 3 WR",4,"4 DL, 2 LB, 5 DB",right,2019-09-08T19:06:40.000Z,2019-09-08T19:06:39.000Z,6-0,180,04/13/1992,Colorado,WR,PHI,WAS,1,Lincoln Financial Field,"Philadelphia, Pa.",Outdoor,Grass,Sunny,79.0,49,4,W
6825,2019090806,20190908062488,away,28.39,27.8,1.6,0.79,0.16,258.11,268.5,2552032,Brandon Scherff,75,2019,20,3,06:52:00,WAS,2,15,WAS,14,20,2561000,SHOTGUN,"1 RB, 1 TE, 3 WR",4,"4 DL, 2 LB, 5 DB",right,2019-09-08T19:06:40.000Z,2019-09-08T19:06:39.000Z,6-5,315,12/26/1991,Iowa,G,PHI,WAS,1,Lincoln Financial Field,"Philadelphia, Pa.",Outdoor,Grass,Sunny,79.0,49,4,W
6826,2019090806,20190908062488,away,29.7,31.01,0.86,1.15,0.08,53.58,82.44,2552452,Ereck Flowers,77,2019,20,3,06:52:00,WAS,2,15,WAS,14,20,2561000,SHOTGUN,"1 RB, 1 TE, 3 WR",4,"4 DL, 2 LB, 5 DB",right,2019-09-08T19:06:40.000Z,2019-09-08T19:06:39.000Z,6-6,329,04/25/1994,Miami,T,PHI,WAS,1,Lincoln Financial Field,"Philadelphia, Pa.",Outdoor,Grass,Sunny,79.0,49,4,W
6827,2019090806,20190908062488,away,31.37,30.69,2.1,1.82,0.22,85.19,109.22,2558037,Chase Roullier,73,2019,20,3,06:52:00,WAS,2,15,WAS,14,20,2561000,SHOTGUN,"1 RB, 1 TE, 3 WR",4,"4 DL, 2 LB, 5 DB",right,2019-09-08T19:06:40.000Z,2019-09-08T19:06:39.000Z,6-4,312,08/23/1993,Wyoming,C,PHI,WAS,1,Lincoln Financial Field,"Philadelphia, Pa.",Outdoor,Grass,Sunny,79.0,49,4,W
6828,2019090806,20190908062488,away,34.63,39.14,6.68,1.4,0.66,97.71,90.52,2560847,Trey Quinn,18,2019,20,3,06:52:00,WAS,2,15,WAS,14,20,2561000,SHOTGUN,"1 RB, 1 TE, 3 WR",4,"4 DL, 2 LB, 5 DB",right,2019-09-08T19:06:40.000Z,2019-09-08T19:06:39.000Z,6-0,202,12/07/1995,Southern Methodist,WR,PHI,WAS,1,Lincoln Financial Field,"Philadelphia, Pa.",Outdoor,Grass,Sunny,79.0,49,4,W
6829,2019090806,20190908062488,away,25.25,28.76,0.25,2.39,0.03,101.49,84.67,2561000,Derrius Guice,29,2019,20,3,06:52:00,WAS,2,15,WAS,14,20,2561000,SHOTGUN,"1 RB, 1 TE, 3 WR",4,"4 DL, 2 LB, 5 DB",right,2019-09-08T19:06:40.000Z,2019-09-08T19:06:39.000Z,5-11,225,06/21/1997,LSU,RB,PHI,WAS,1,Lincoln Financial Field,"Philadelphia, Pa.",Outdoor,Grass,Sunny,79.0,49,4,W
6830,2019090806,20190908062488,away,33.74,45.03,4.25,1.18,0.43,98.26,79.27,2562489,Terry McLaurin,17,2019,20,3,06:52:00,WAS,2,15,WAS,14,20,2561000,SHOTGUN,"1 RB, 1 TE, 3 WR",4,"4 DL, 2 LB, 5 DB",right,2019-09-08T19:06:40.000Z,2019-09-08T19:06:39.000Z,6-0,210,09/15/1995,Ohio State,WR,PHI,WAS,1,Lincoln Financial Field,"Philadelphia, Pa.",Outdoor,Grass,Sunny,79.0,49,4,W
6831,2019090806,20190908062488,home,51.27,38.19,1.17,1.27,0.12,254.71,65.71,79848,Malcolm Jenkins,27,2019,20,3,06:52:00,WAS,2,15,WAS,14,20,2561000,SHOTGUN,"1 RB, 1 TE, 3 WR",4,"4 DL, 2 LB, 5 DB",right,2019-09-08T19:06:40.000Z,2019-09-08T19:06:39.000Z,6-0,204,12/20/1987,Ohio State,SS,PHI,WAS,1,Lincoln Financial Field,"Philadelphia, Pa.",Outdoor,Grass,Sunny,79.0,49,4,W
6832,2019090806,20190908062488,home,27.67,27.93,3.53,1.05,0.36,256.54,328.01,496788,Brandon Graham,55,2019,20,3,06:52:00,WAS,2,15,WAS,14,20,2561000,SHOTGUN,"1 RB, 1 TE, 3 WR",4,"4 DL, 2 LB, 5 DB",right,2019-09-08T19:06:40.000Z,2019-09-08T19:06:39.000Z,6-2,265,04/03/1988,Michigan,DE,PHI,WAS,1,Lincoln Financial Field,"Philadelphia, Pa.",Outdoor,Grass,Sunny,79.0,49,4,W
6833,2019090806,20190908062488,home,37.17,29.76,1.65,2.61,0.16,275.51,267.6,2532800,Nigel Bradham,53,2019,20,3,06:52:00,WAS,2,15,WAS,14,20,2561000,SHOTGUN,"1 RB, 1 TE, 3 WR",4,"4 DL, 2 LB, 5 DB",right,2019-09-08T19:06:40.000Z,2019-09-08T19:06:39.000Z,6-2,241,09/04/1989,Florida State,OLB,PHI,WAS,1,Lincoln Financial Field,"Philadelphia, Pa.",Outdoor,Grass,Sunny,79.0,49,4,W
6834,2019090806,20190908062488,home,35.1,24.06,2.73,2.23,0.27,281.19,308.92,2532804,Zach Brown,52,2019,20,3,06:52:00,WAS,2,15,WAS,14,20,2561000,SHOTGUN,"1 RB, 1 TE, 3 WR",4,"4 DL, 2 LB, 5 DB",right,2019-09-08T19:06:40.000Z,2019-09-08T19:06:39.000Z,6-1,251,10/23/1989,North Carolina,ILB,PHI,WAS,1,Lincoln Financial Field,"Philadelphia, Pa.",Outdoor,Grass,Sunny,79.0,49,4,W
6835,2019090806,20190908062488,home,30.04,31.85,0.65,1.65,0.06,228.36,61.35,2532873,Malik Jackson,97,2019,20,3,06:52:00,WAS,2,15,WAS,14,20,2561000,SHOTGUN,"1 RB, 1 TE, 3 WR",4,"4 DL, 2 LB, 5 DB",right,2019-09-08T19:06:40.000Z,2019-09-08T19:06:39.000Z,6-5,290,01/11/1990,Tennessee,DT,PHI,WAS,1,Lincoln Financial Field,"Philadelphia, Pa.",Outdoor,Grass,Sunny,79.0,49,4,W
6836,2019090806,20190908062488,home,28.01,27.16,3.46,0.76,0.37,284.02,267.7,2533051,Fletcher Cox,91,2019,20,3,06:52:00,WAS,2,15,WAS,14,20,2561000,SHOTGUN,"1 RB, 1 TE, 3 WR",4,"4 DL, 2 LB, 5 DB",right,2019-09-08T19:06:40.000Z,2019-09-08T19:06:39.000Z,6-4,310,12/13/1990,Mississippi State,DT,PHI,WAS,1,Lincoln Financial Field,"Philadelphia, Pa.",Outdoor,Grass,Sunny,79.0,49,4,W
6837,2019090806,20190908062488,home,52.72,16.36,3.22,0.69,0.33,260.44,115.68,2534832,Rodney McLeod,23,2019,20,3,06:52:00,WAS,2,15,WAS,14,20,2561000,SHOTGUN,"1 RB, 1 TE, 3 WR",4,"4 DL, 2 LB, 5 DB",right,2019-09-08T19:06:40.000Z,2019-09-08T19:06:39.000Z,5-10,195,06/23/1990,Virginia,FS,PHI,WAS,1,Lincoln Financial Field,"Philadelphia, Pa.",Outdoor,Grass,Sunny,79.0,49,4,W
6838,2019090806,20190908062488,home,38.48,10.23,1.16,3.59,0.11,326.03,11.92,2552689,Ronald Darby,21,2019,20,3,06:52:00,WAS,2,15,WAS,14,20,2561000,SHOTGUN,"1 RB, 1 TE, 3 WR",4,"4 DL, 2 LB, 5 DB",right,2019-09-08T19:06:40.000Z,2019-09-08T19:06:39.000Z,5-11,193,01/02/1994,Florida State,CB,PHI,WAS,1,Lincoln Financial Field,"Philadelphia, Pa.",Outdoor,Grass,Sunny,79.0,49,4,W
6839,2019090806,20190908062488,home,38.51,45.59,0.63,1.62,0.06,232.16,175.31,2557958,Sidney Jones,22,2019,20,3,06:52:00,WAS,2,15,WAS,14,20,2561000,SHOTGUN,"1 RB, 1 TE, 3 WR",4,"4 DL, 2 LB, 5 DB",right,2019-09-08T19:06:40.000Z,2019-09-08T19:06:39.000Z,6-0,181,05/21/1996,Washington,CB,PHI,WAS,1,Lincoln Financial Field,"Philadelphia, Pa.",Outdoor,Grass,Sunny,79.0,49,4,W
6840,2019090806,20190908062488,home,28.59,33.58,2.04,3.04,0.21,221.0,173.31,2557984,Derek Barnett,96,2019,20,3,06:52:00,WAS,2,15,WAS,14,20,2561000,SHOTGUN,"1 RB, 1 TE, 3 WR",4,"4 DL, 2 LB, 5 DB",right,2019-09-08T19:06:40.000Z,2019-09-08T19:06:39.000Z,6-3,259,06/25/1996,Tennessee,DE,PHI,WAS,1,Lincoln Financial Field,"Philadelphia, Pa.",Outdoor,Grass,Sunny,79.0,49,4,W
6841,2019090806,20190908062488,home,35.26,35.47,1.83,2.91,0.16,250.45,210.61,2560795,Avonte Maddox,29,2019,20,3,06:52:00,WAS,2,15,WAS,14,20,2561000,SHOTGUN,"1 RB, 1 TE, 3 WR",4,"4 DL, 2 LB, 5 DB",right,2019-09-08T19:06:40.000Z,2019-09-08T19:06:39.000Z,5-9,184,03/31/1996,Pittsburgh,CB,PHI,WAS,1,Lincoln Financial Field,"Philadelphia, Pa.",Outdoor,Grass,Sunny,79.0,49,4,W
