,GameId,PlayId,Team,X,Y,S,A,Dis,Orientation,Dir,NflId,DisplayName,JerseyNumber,Season,YardLine,Quarter,GameClock,PossessionTeam,Down,Distance,FieldPosition,HomeScoreBeforePlay,VisitorScoreBeforePlay,NflIdRusher,OffenseFormation,OffensePersonnel,DefendersInTheBox,DefensePersonnel,PlayDirection,TimeHandoff,TimeSnap,PlayerHeight,PlayerWeight,PlayerBirthDate,PlayerCollegeName,Position,HomeTeamAbbr,VisitorTeamAbbr,Week,Stadium,Location,StadiumType,Turf,GameWeather,Temperature,Humidity,WindSpeed,WindDirection
32076,2019092200,20190922004006,away,68.35,22.95,1.75,1.02,0.19,264.86,335.94,71465,Andre Smith,71,2019,42,4,07:44:00,CIN,1,10,CIN,14,14,2557976,SINGLEBACK,"1 RB, 1 TE, 3 WR",7,"4 DL, 2 LB, 5 DB",left,2019-09-22T19:52:54.000Z,2019-09-22T19:52:53.000Z,6-4,330,01/25/1987,Alabama,T,BUF,CIN,3,New Era Field,Orchard Park NY,Outdoors,A-Turf Titan,Mostly sunny,83.0,53,13,WSW
32077,2019092200,20190922004006,away,73.17,22.97,4.23,1.8,0.41,77.21,113.94,2495143,Andy Dalton,14,2019,42,4,07:44:00,CIN,1,10,CIN,14,14,2557976,SINGLEBACK,"1 RB, 1 TE, 3 WR",7,"4 DL, 2 LB, 5 DB",left,2019-09-22T19:52:54.000Z,2019-09-22T19:52:53.000Z,6-2,220,10/29/1987,Texas Christian,QB,BUF,CIN,3,New Era Field,Orchard Park NY,Outdoors,A-Turf Titan,Mostly sunny,83.0,53,13,WSW
32078,2019092200,20190922004006,away,67.65,24.97,2.05,0.27,0.21,278.84,319.83,2550208,Trey Hopkins,66,2019,42,4,07:44:00,CIN,1,10,CIN,14,14,2557976,SINGLEBACK,"1 RB, 1 TE, 3 WR",7,"4 DL, 2 LB, 5 DB",left,2019-09-22T19:52:54.000Z,2019-09-22T19:52:53.000Z,6-3,316,07/06/1992,Texas,G,BUF,CIN,3,New Era Field,Orchard Park NY,Outdoors,A-Turf Titan,Mostly sunny,83.0,53,13,WSW
32079,2019092200,20190922004006,away,67.2,27.63,2.98,1.74,0.29,265.04,294.51,2552335,Bobby Hart,68,2019,42,4,07:44:00,CIN,1,10,CIN,14,14,2557976,SINGLEBACK,"1 RB, 1 TE, 3 WR",7,"4 DL, 2 LB, 5 DB",left,2019-09-22T19:52:54.000Z,2019-09-22T19:52:53.000Z,6-5,310,08/21/1994,Florida State,OT,BUF,CIN,3,New Era Field,Orchard Park NY,Outdoors,A-Turf Titan,Mostly sunny,83.0,53,13,WSW
32080,2019092200,20190922004006,away,68.76,26.69,0.89,0.23,0.1,273.87,335.39,2553436,John Miller,67,2019,42,4,07:44:00,CIN,1,10,CIN,14,14,2557976,SINGLEBACK,"1 RB, 1 TE, 3 WR",7,"4 DL, 2 LB, 5 DB",left,2019-09-22T19:52:54.000Z,2019-09-22T19:52:53.000Z,6-3,315,08/12/1993,Louisville,G,BUF,CIN,3,New Era Field,Orchard Park NY,Outdoors,A-Turf Titan,Mostly sunny,83.0,53,13,WSW
32081,2019092200,20190922004006,away,66.42,29.8,2.61,0.62,0.25,238.73,248.27,2555466,Tyler Boyd,83,2019,42,4,07:44:00,CIN,1,10,CIN,14,14,2557976,SINGLEBACK,"1 RB, 1 TE, 3 WR",7,"4 DL, 2 LB, 5 DB",left,2019-09-22T19:52:54.000Z,2019-09-22T19:52:53.000Z,6-2,203,11/15/1994,Pittsburgh,WR,BUF,CIN,3,New Era Field,Orchard Park NY,Outdoors,A-Turf Titan,Mostly sunny,83.0,53,13,WSW
32082,2019092200,20190922004006,away,73.62,24.27,3.55,4.07,0.34,314.5,299.75,2557976,Joe Mixon,28,2019,42,4,07:44:00,CIN,1,10,CIN,14,14,2557976,SINGLEBACK,"1 RB, 1 TE, 3 WR",7,"4 DL, 2 LB, 5 DB",left,2019-09-22T19:52:54.000Z,2019-09-22T19:52:53.000Z,6-1,220,07/24/1996,Oklahoma,HB,BUF,CIN,3,New Era Field,Orchard Park NY,Outdoors,A-Turf Titan,Mostly sunny,83.0,53,13,WSW
32083,2019092200,20190922004006,away,65.54,8.84,4.62,1.53,0.46,269.88,270.69,2558010,John Ross,11,2019,42,4,07:44:00,CIN,1,10,CIN,14,14,2557976,SINGLEBACK,"1 RB, 1 TE, 3 WR",7,"4 DL, 2 LB, 5 DB",left,2019-09-22T19:52:54.000Z,2019-09-22T19:52:53.000Z,5-11,194,11/27/1995,Washington,WR,BUF,CIN,3,New Era Field,Orchard Park NY,Outdoors,A-Turf Titan,Mostly sunny,83.0,53,13,WSW
32084,2019092200,20190922004006,away,68.34,24.54,1.52,1.27,0.16,235.53,337.99,2560843,Billy Price,53,2019,42,4,07:44:00,CIN,1,10,CIN,14,14,2557976,SINGLEBACK,"1 RB, 1 TE, 3 WR",7,"4 DL, 2 LB, 5 DB",left,2019-09-22T19:52:54.000Z,2019-09-22T19:52:53.000Z,6-4,312,10/11/1994,Ohio State,C,BUF,CIN,3,New Era Field,Orchard Park NY,Outdoors,A-Turf Titan,Mostly sunny,83.0,53,13,WSW
32085,2019092200,20190922004006,away,66.74,31.25,3.38,4.14,0.34,222.08,221.65,2560890,Auden Tate,19,2019,42,4,07:44:00,CIN,1,10,CIN,14,14,2557976,SINGLEBACK,"1 RB, 1 TE, 3 WR",7,"4 DL, 2 LB, 5 DB",left,2019-09-22T19:52:54.000Z,2019-09-22T19:52:53.000Z,6-5,228,02/03/1997,Florida State,WR,BUF,CIN,3,New Era Field,Orchard Park NY,Outdoors,A-Turf Titan,Mostly sunny,83.0,53,13,WSW
32086,2019092200,20190922004006,away,68.89,27.98,0.69,2.97,0.07,250.81,325.57,2562720,Drew Sample,89,2019,42,4,07:44:00,CIN,1,10,CIN,14,14,2557976,SINGLEBACK,"1 RB, 1 TE, 3 WR",7,"4 DL, 2 LB, 5 DB",left,2019-09-22T19:52:54.000Z,2019-09-22T19:52:53.000Z,6-5,259,04/16/1996,Washington,TE,BUF,CIN,3,New Era Field,Orchard Park NY,Outdoors,A-Turf Titan,Mostly sunny,83.0,53,13,WSW
32087,2019092200,20190922004006,home,67.84,22.89,2.35,2.19,0.24,65.16,356.28,496796,Jerry Hughes,55,2019,42,4,07:44:00,CIN,1,10,CIN,14,14,2557976,SINGLEBACK,"1 RB, 1 TE, 3 WR",7,"4 DL, 2 LB, 5 DB",left,2019-09-22T19:52:54.000Z,2019-09-22T19:52:53.000Z,6-2,254,08/13/1988,Texas Christian,DE,BUF,CIN,3,New Era Field,Orchard Park NY,Outdoors,A-Turf Titan,Mostly sunny,83.0,53,13,WSW
32088,2019092200,20190922004006,home,69.67,21.4,6.3,4.05,0.62,31.63,29.63,2539240,Micah Hyde,23,2019,42,4,07:44:00,CIN,1,10,CIN,14,14,2557976,SINGLEBACK,"1 RB, 1 TE, 3 WR",7,"4 DL, 2 LB, 5 DB",left,2019-09-22T19:52:54.000Z,2019-09-22T19:52:53.000Z,6-0,197,12/31/1990,Iowa,SS,BUF,CIN,3,New Era Field,Orchard Park NY,Outdoors,A-Turf Titan,Mostly sunny,83.0,53,13,WSW
32089,2019092200,20190922004006,home,49.72,26.1,2.12,0.44,0.21,80.27,232.9,2539290,Jordan Poyer,21,2019,42,4,07:44:00,CIN,1,10,CIN,14,14,2557976,SINGLEBACK,"1 RB, 1 TE, 3 WR",7,"4 DL, 2 LB, 5 DB",left,2019-09-22T19:52:54.000Z,2019-09-22T19:52:53.000Z,6-0,191,04/25/1991,Oregon State,FS,BUF,CIN,3,New Era Field,Orchard Park NY,Outdoors,A-Turf Titan,Mostly sunny,83.0,53,13,WSW
32090,2019092200,20190922004006,home,68.2,27.94,0.44,1.84,0.04,118.98,123.8,2543503,Trent Murphy,93,2019,42,4,07:44:00,CIN,1,10,CIN,14,14,2557976,SINGLEBACK,"1 RB, 1 TE, 3 WR",7,"4 DL, 2 LB, 5 DB",left,2019-09-22T19:52:54.000Z,2019-09-22T19:52:53.000Z,6-6,259,12/22/1990,Stanford,DE,BUF,CIN,3,New Era Field,Orchard Park NY,Outdoors,A-Turf Titan,Mostly sunny,83.0,53,13,WSW
32091,2019092200,20190922004006,home,68.01,26.65,1.25,1.59,0.14,120.87,344.71,2552492,Jordan Phillips,97,2019,42,4,07:44:00,CIN,1,10,CIN,14,14,2557976,SINGLEBACK,"1 RB, 1 TE, 3 WR",7,"4 DL, 2 LB, 5 DB",left,2019-09-22T19:52:54.000Z,2019-09-22T19:52:53.000Z,6-6,341,09/21/1992,Oklahoma,DT,BUF,CIN,3,New Era Field,Orchard Park NY,Outdoors,A-Turf Titan,Mostly sunny,83.0,53,13,WSW
32092,2019092200,20190922004006,home,63.02,34.22,3.37,2.92,0.33,125.45,117.22,2557867,Tre'Davious White,27,2019,42,4,07:44:00,CIN,1,10,CIN,14,14,2557976,SINGLEBACK,"1 RB, 1 TE, 3 WR",7,"4 DL, 2 LB, 5 DB",left,2019-09-22T19:52:54.000Z,2019-09-22T19:52:53.000Z,5-11,192,01/16/1995,Louisiana State,CB,BUF,CIN,3,New Era Field,Orchard Park NY,Outdoors,A-Turf Titan,Mostly sunny,83.0,53,13,WSW
32093,2019092200,20190922004006,home,66.51,25.34,1.84,2.18,0.18,89.25,15.35,2557969,Matt Milano,58,2019,42,4,07:44:00,CIN,1,10,CIN,14,14,2557976,SINGLEBACK,"1 RB, 1 TE, 3 WR",7,"4 DL, 2 LB, 5 DB",left,2019-09-22T19:52:54.000Z,2019-09-22T19:52:53.000Z,6-0,223,07/28/1994,Boston College,OLB,BUF,CIN,3,New Era Field,Orchard Park NY,Outdoors,A-Turf Titan,Mostly sunny,83.0,53,13,WSW
32094,2019092200,20190922004006,home,64.16,27.91,0.94,1.66,0.09,98.5,262.56,2560713,Tremaine Edmunds,49,2019,42,4,07:44:00,CIN,1,10,CIN,14,14,2557976,SINGLEBACK,"1 RB, 1 TE, 3 WR",7,"4 DL, 2 LB, 5 DB",left,2019-09-22T19:52:54.000Z,2019-09-22T19:52:53.000Z,6-5,250,05/02/1998,Virginia Tech,LB,BUF,CIN,3,New Era Field,Orchard Park NY,Outdoors,A-Turf Titan,Mostly sunny,83.0,53,13,WSW
32095,2019092200,20190922004006,home,65.43,30.01,1.7,1.82,0.16,110.5,140.63,2560818,Siran Neal,33,2019,42,4,07:44:00,CIN,1,10,CIN,14,14,2557976,SINGLEBACK,"1 RB, 1 TE, 3 WR",7,"4 DL, 2 LB, 5 DB",left,2019-09-22T19:52:54.000Z,2019-09-22T19:52:53.000Z,6-0,205,08/04/1994,Jacksonville State,DB,BUF,CIN,3,New Era Field,Orchard Park NY,Outdoors,A-Turf Titan,Mostly sunny,83.0,53,13,WSW
32096,2019092200,20190922004006,home,67.82,23.8,1.29,1.11,0.15,53.12,352.14,2560840,Harrison Phillips,99,2019,42,4,07:44:00,CIN,1,10,CIN,14,14,2557976,SINGLEBACK,"1 RB, 1 TE, 3 WR",7,"4 DL, 2 LB, 5 DB",left,2019-09-22T19:52:54.000Z,2019-09-22T19:52:53.000Z,6-3,307,01/25/1996,Stanford,DT,BUF,CIN,3,New Era Field,Orchard Park NY,Outdoors,A-Turf Titan,Mostly sunny,83.0,53,13,WSW
32097,2019092200,20190922004006,home,61.01,8.45,3.33,1.72,0.33,342.99,283.35,2560914,Levi Wallace,39,2019,42,4,07:44:00,CIN,1,10,CIN,14,14,2557976,SINGLEBACK,"1 RB, 1 TE, 3 WR",7,"4 DL, 2 LB, 5 DB",left,2019-09-22T19:52:54.000Z,2019-09-22T19:52:53.000Z,6-0,179,06/12/1995,Alabama,CB,BUF,CIN,3,New Era Field,Orchard Park NY,Outdoors,A-Turf Titan,Mostly sunny,83.0,53,13,WSW
