,GameId,PlayId,Team,X,Y,S,A,Dis,Orientation,Dir,NflId,DisplayName,JerseyNumber,Season,YardLine,Quarter,GameClock,PossessionTeam,Down,Distance,FieldPosition,HomeScoreBeforePlay,VisitorScoreBeforePlay,NflIdRusher,OffenseFormation,OffensePersonnel,DefendersInTheBox,DefensePersonnel,PlayDirection,TimeHandoff,TimeSnap,PlayerHeight,PlayerWeight,PlayerBirthDate,PlayerCollegeName,Position,HomeTeamAbbr,VisitorTeamAbbr,Week,Stadium,Location,StadiumType,Turf,GameWeather,Temperature,Humidity,WindSpeed,WindDirection
17842,2019091502,20190915020837,away,34.17,26.6,1.67,1.31,0.16,269.59,35.33,2495677,Brandon Mebane,92,2019,23,1,01:15:00,DET,2,1,DET,6,7,2560765,SHOTGUN,"1 RB, 1 TE, 3 WR",6,"4 DL, 2 LB, 5 DB",right,2019-09-15T17:36:40.000Z,2019-09-15T17:36:39.000Z,6-1,311,01/15/1985,California,NT,DET,LAC,2,Ford Field,Detroit,Indoors,Field Turf,Controlled Climate,68.0,70,,
17843,2019091502,20190915020837,away,38.42,24.91,2.21,1.73,0.22,286.07,348.43,2506352,Thomas Davis,58,2019,23,1,01:15:00,DET,2,1,DET,6,7,2560765,SHOTGUN,"1 RB, 1 TE, 3 WR",6,"4 DL, 2 LB, 5 DB",right,2019-09-15T17:36:40.000Z,2019-09-15T17:36:39.000Z,6-1,235,03/22/1983,Georgia,OLB,DET,LAC,2,Ford Field,Detroit,Indoors,Field Turf,Controlled Climate,68.0,70,,
17844,2019091502,20190915020837,away,38.41,8.74,2.0,0.2,0.19,346.4,86.19,2532861,Casey Hayward,26,2019,23,1,01:15:00,DET,2,1,DET,6,7,2560765,SHOTGUN,"1 RB, 1 TE, 3 WR",6,"4 DL, 2 LB, 5 DB",right,2019-09-15T17:36:40.000Z,2019-09-15T17:36:39.000Z,5-11,192,09/09/1989,Vanderbilt,CB,DET,LAC,2,Ford Field,Detroit,Indoors,Field Turf,Controlled Climate,68.0,70,,
17845,2019091502,20190915020837,away,35.33,18.48,4.6,4.04,0.44,300.79,342.27,2550842,Adrian Phillips,31,2019,23,1,01:15:00,DET,2,1,DET,6,7,2560765,SHOTGUN,"1 RB, 1 TE, 3 WR",6,"4 DL, 2 LB, 5 DB",right,2019-09-15T17:36:40.000Z,2019-09-15T17:36:39.000Z,5-11,210,03/28/1992,Texas,SS,DET,LAC,2,Ford Field,Detroit,Indoors,Field Turf,Controlled Climate,68.0,70,,
17846,2019091502,20190915020837,away,32.84,29.13,1.55,2.04,0.16,282.65,184.19,2555249,Joey Bosa,97,2019,23,1,01:15:00,DET,2,1,DET,6,7,2560765,SHOTGUN,"1 RB, 1 TE, 3 WR",6,"4 DL, 2 LB, 5 DB",right,2019-09-15T17:36:40.000Z,2019-09-15T17:36:39.000Z,6-5,280,07/11/1995,Ohio State,DE,DET,LAC,2,Ford Field,Detroit,Indoors,Field Turf,Controlled Climate,68.0,70,,
17847,2019091502,20190915020837,away,33.45,23.34,3.42,1.22,0.34,303.0,3.11,2557860,Isaac Rochell,98,2019,23,1,01:15:00,DET,2,1,DET,6,7,2560765,SHOTGUN,"1 RB, 1 TE, 3 WR",6,"4 DL, 2 LB, 5 DB",right,2019-09-15T17:36:40.000Z,2019-09-15T17:36:39.000Z,6-4,280,04/22/1995,Notre Dame,DE,DET,LAC,2,Ford Field,Detroit,Indoors,Field Turf,Controlled Climate,68.0,70,,
17848,2019091502,20190915020837,away,37.72,34.45,2.2,1.24,0.21,265.02,17.27,2557927,Desmond King,20,2019,23,1,01:15:00,DET,2,1,DET,6,7,2560765,SHOTGUN,"1 RB, 1 TE, 3 WR",6,"4 DL, 2 LB, 5 DB",right,2019-09-15T17:36:40.000Z,2019-09-15T17:36:39.000Z,5-10,201,12/14/1994,Iowa,CB,DET,LAC,2,Ford Field,Detroit,Indoors,Field Turf,Controlled Climate,68.0,70,,
17849,2019091502,20190915020837,away,50.32,30.16,2.32,3.74,0.21,269.67,97.05,2558182,Rayshawn Jenkins,23,2019,23,1,01:15:00,DET,2,1,DET,6,7,2560765,SHOTGUN,"1 RB, 1 TE, 3 WR",6,"4 DL, 2 LB, 5 DB",right,2019-09-15T17:36:40.000Z,2019-09-15T17:36:39.000Z,6-2,220,01/25/1994,Miami,SS,DET,LAC,2,Ford Field,Detroit,Indoors,Field Turf,Controlled Climate,68.0,70,,
17850,2019091502,20190915020837,away,38.46,44.1,2.9,1.8,0.28,175.88,84.41,2560719,Brandon Facyson,28,2019,23,1,01:15:00,DET,2,1,DET,6,7,2560765,SHOTGUN,"1 RB, 1 TE, 3 WR",6,"4 DL, 2 LB, 5 DB",right,2019-09-15T17:36:40.000Z,2019-09-15T17:36:39.000Z,6-2,197,09/08/1994,Virginia Tech,CB,DET,LAC,2,Ford Field,Detroit,Indoors,Field Turf,Controlled Climate,68.0,70,,
17851,2019091502,20190915020837,away,34.28,25.25,3.08,1.41,0.3,264.65,24.69,2560769,Justin Jones,93,2019,23,1,01:15:00,DET,2,1,DET,6,7,2560765,SHOTGUN,"1 RB, 1 TE, 3 WR",6,"4 DL, 2 LB, 5 DB",right,2019-09-15T17:36:40.000Z,2019-09-15T17:36:39.000Z,6-3,309,08/28/1996,North Carolina State,DT,DET,LAC,2,Ford Field,Detroit,Indoors,Field Turf,Controlled Climate,68.0,70,,
17852,2019091502,20190915020837,away,37.27,27.92,2.47,1.54,0.25,265.81,301.07,2560928,Kyzir White,44,2019,23,1,01:15:00,DET,2,1,DET,6,7,2560765,SHOTGUN,"1 RB, 1 TE, 3 WR",6,"4 DL, 2 LB, 5 DB",right,2019-09-15T17:36:40.000Z,2019-09-15T17:36:39.000Z,6-2,216,03/24/1996,West Virginia,LB,DET,LAC,2,Ford Field,Detroit,Indoors,Field Turf,Controlled Climate,68.0,70,,
17853,2019091502,20190915020837,home,30.99,36.54,4.07,2.18,0.4,92.67,351.16,2649,Danny Amendola,80,2019,23,1,01:15:00,DET,2,1,DET,6,7,2560765,SHOTGUN,"1 RB, 1 TE, 3 WR",6,"4 DL, 2 LB, 5 DB",right,2019-09-15T17:36:40.000Z,2019-09-15T17:36:39.000Z,5-11,185,11/02/1985,Texas Tech,WR,DET,LAC,2,Ford Field,Detroit,Indoors,Field Turf,Controlled Climate,68.0,70,,
17854,2019091502,20190915020837,home,28.66,24.76,1.16,1.36,0.11,102.16,162.71,79860,Matthew Stafford,9,2019,23,1,01:15:00,DET,2,1,DET,6,7,2560765,SHOTGUN,"1 RB, 1 TE, 3 WR",6,"4 DL, 2 LB, 5 DB",right,2019-09-15T17:36:40.000Z,2019-09-15T17:36:39.000Z,6-3,220,02/07/1988,Georgia,QB,DET,LAC,2,Ford Field,Detroit,Indoors,Field Turf,Controlled Climate,68.0,70,,
17855,2019091502,20190915020837,home,33.63,9.0,3.52,2.75,0.34,83.76,112.46,2532884,Marvin Jones,11,2019,23,1,01:15:00,DET,2,1,DET,6,7,2560765,SHOTGUN,"1 RB, 1 TE, 3 WR",6,"4 DL, 2 LB, 5 DB",right,2019-09-15T17:36:40.000Z,2019-09-15T17:36:39.000Z,6-2,198,03/12/1990,California,WR,DET,LAC,2,Ford Field,Detroit,Indoors,Field Turf,Controlled Climate,68.0,70,,
17856,2019091502,20190915020837,home,33.82,24.52,3.5,1.47,0.36,355.17,34.98,2539340,Rick Wagner,71,2019,23,1,01:15:00,DET,2,1,DET,6,7,2560765,SHOTGUN,"1 RB, 1 TE, 3 WR",6,"4 DL, 2 LB, 5 DB",right,2019-09-15T17:36:40.000Z,2019-09-15T17:36:39.000Z,6-6,315,10/21/1989,Wisconsin,T,DET,LAC,2,Ford Field,Detroit,Indoors,Field Turf,Controlled Climate,68.0,70,,
17857,2019091502,20190915020837,home,33.8,27.65,2.77,1.18,0.29,96.07,43.51,2555136,Joe Dahl,66,2019,23,1,01:15:00,DET,2,1,DET,6,7,2560765,SHOTGUN,"1 RB, 1 TE, 3 WR",6,"4 DL, 2 LB, 5 DB",right,2019-09-15T17:36:40.000Z,2019-09-15T17:36:39.000Z,6-4,310,04/09/1993,Washington State,G,DET,LAC,2,Ford Field,Detroit,Indoors,Field Turf,Controlled Climate,68.0,70,,
17858,2019091502,20190915020837,home,33.41,25.15,2.35,0.34,0.24,71.18,35.1,2555182,Graham Glasgow,60,2019,23,1,01:15:00,DET,2,1,DET,6,7,2560765,SHOTGUN,"1 RB, 1 TE, 3 WR",6,"4 DL, 2 LB, 5 DB",right,2019-09-15T17:36:40.000Z,2019-09-15T17:36:39.000Z,6-6,310,08/19/1992,Michigan,C,DET,LAC,2,Ford Field,Detroit,Indoors,Field Turf,Controlled Climate,68.0,70,,
17859,2019091502,20190915020837,home,33.81,44.05,2.6,2.9,0.25,270.71,80.24,2558052,Kenny Golladay,19,2019,23,1,01:15:00,DET,2,1,DET,6,7,2560765,SHOTGUN,"1 RB, 1 TE, 3 WR",6,"4 DL, 2 LB, 5 DB",right,2019-09-15T17:36:40.000Z,2019-09-15T17:36:39.000Z,6-4,213,11/03/1993,Northern Illinois,WR,DET,LAC,2,Ford Field,Detroit,Indoors,Field Turf,Controlled Climate,68.0,70,,
17860,2019091502,20190915020837,home,28.68,23.3,3.58,3.8,0.35,40.82,32.69,2560765,Kerryon Johnson,33,2019,23,1,01:15:00,DET,2,1,DET,6,7,2560765,SHOTGUN,"1 RB, 1 TE, 3 WR",6,"4 DL, 2 LB, 5 DB",right,2019-09-15T17:36:40.000Z,2019-09-15T17:36:39.000Z,5-11,212,06/30/1997,Auburn,RB,DET,LAC,2,Ford Field,Detroit,Indoors,Field Turf,Controlled Climate,68.0,70,,
17861,2019091502,20190915020837,home,32.03,28.85,0.35,2.12,0.03,78.61,92.48,2561032,Tyrell Crosby,65,2019,23,1,01:15:00,DET,2,1,DET,6,7,2560765,SHOTGUN,"1 RB, 1 TE, 3 WR",6,"4 DL, 2 LB, 5 DB",right,2019-09-15T17:36:40.000Z,2019-09-15T17:36:39.000Z,6-4,310,09/05/1995,Oregon,T,DET,LAC,2,Ford Field,Detroit,Indoors,Field Turf,Controlled Climate,68.0,70,,
17862,2019091502,20190915020837,home,33.4,26.58,1.99,1.0,0.2,74.87,43.93,2561142,Frank Ragnow,77,2019,23,1,01:15:00,DET,2,1,DET,6,7,2560765,SHOTGUN,"1 RB, 1 TE, 3 WR",6,"4 DL, 2 LB, 5 DB",right,2019-09-15T17:36:40.000Z,2019-09-15T17:36:39.000Z,6-5,311,05/17/1996,Arkansas,C,DET,LAC,2,Ford Field,Detroit,Indoors,Field Turf,Controlled Climate,68.0,70,,
17863,2019091502,20190915020837,home,32.68,23.51,3.77,0.46,0.37,59.8,10.7,2562378,T.J. Hockenson,88,2019,23,1,01:15:00,DET,2,1,DET,6,7,2560765,SHOTGUN,"1 RB, 1 TE, 3 WR",6,"4 DL, 2 LB, 5 DB",right,2019-09-15T17:36:40.000Z,2019-09-15T17:36:39.000Z,6-5,248,07/03/1997,Iowa,TE,DET,LAC,2,Ford Field,Detroit,Indoors,Field Turf,Controlled Climate,68.0,70,,
