,GameId,PlayId,Team,X,Y,S,A,Dis,Orientation,Dir,NflId,DisplayName,JerseyNumber,Season,YardLine,Quarter,GameClock,PossessionTeam,Down,Distance,FieldPosition,HomeScoreBeforePlay,VisitorScoreBeforePlay,NflIdRusher,OffenseFormation,OffensePersonnel,DefendersInTheBox,DefensePersonnel,PlayDirection,TimeHandoff,TimeSnap,PlayerHeight,PlayerWeight,PlayerBirthDate,PlayerCollegeName,Position,HomeTeamAbbr,VisitorTeamAbbr,Week,Stadium,Location,StadiumType,Turf,GameWeather,Temperature,Humidity,WindSpeed,WindDirection
7722,2019090807,20190908072382,away,90.94,23.31,3.44,0.37,0.35,265.18,333.49,2495137,Anthony Castonzo,74,2019,19,3,03:27:00,IND,2,1,IND,24,16,2558123,SINGLEBACK,"1 RB, 2 TE, 2 WR",7,"4 DL, 2 LB, 5 DB",left,2019-09-08T22:02:54.000Z,2019-09-08T22:02:52.000Z,6-7,307,08/09/1988,Boston College,T,LAC,IND,1,Dignity Health Sports Park,"Carson, CA",,Grass,Sunny,77.0,52,10,SW
7723,2019090807,20190908072382,away,90.12,35.43,3.94,0.72,0.4,270.59,261.47,2532865,T.Y. Hilton,13,2019,19,3,03:27:00,IND,2,1,IND,24,16,2558123,SINGLEBACK,"1 RB, 2 TE, 2 WR",7,"4 DL, 2 LB, 5 DB",left,2019-09-08T22:02:54.000Z,2019-09-08T22:02:52.000Z,5-10,183,11/14/1989,Florida International,WR,LAC,IND,1,Dignity Health Sports Park,"Carson, CA",,Grass,Sunny,77.0,52,10,SW
7724,2019090807,20190908072382,away,90.5,20.02,3.25,1.52,0.33,270.2,319.02,2540232,Jack Doyle,84,2019,19,3,03:27:00,IND,2,1,IND,24,16,2558123,SINGLEBACK,"1 RB, 2 TE, 2 WR",7,"4 DL, 2 LB, 5 DB",left,2019-09-08T22:02:54.000Z,2019-09-08T22:02:52.000Z,6-6,262,05/05/1990,Western Kentucky,TE,LAC,IND,1,Dignity Health Sports Park,"Carson, CA",,Grass,Sunny,77.0,52,10,SW
7725,2019090807,20190908072382,away,89.28,42.86,4.85,1.62,0.48,274.02,260.13,2552458,Devin Funchess,17,2019,19,3,03:27:00,IND,2,1,IND,24,16,2558123,SINGLEBACK,"1 RB, 2 TE, 2 WR",7,"4 DL, 2 LB, 5 DB",left,2019-09-08T22:02:54.000Z,2019-09-08T22:02:52.000Z,6-4,225,05/21/1994,Michigan,WR,LAC,IND,1,Dignity Health Sports Park,"Carson, CA",,Grass,Sunny,77.0,52,10,SW
7726,2019090807,20190908072382,away,90.27,27.26,3.47,0.21,0.37,288.28,310.66,2552467,Mark Glowinski,64,2019,19,3,03:27:00,IND,2,1,IND,24,16,2558123,SINGLEBACK,"1 RB, 2 TE, 2 WR",7,"4 DL, 2 LB, 5 DB",left,2019-09-08T22:02:54.000Z,2019-09-08T22:02:52.000Z,6-4,310,05/03/1992,West Virginia,G,LAC,IND,1,Dignity Health Sports Park,"Carson, CA",,Grass,Sunny,77.0,52,10,SW
7727,2019090807,20190908072382,away,91.73,25.95,2.63,0.57,0.27,48.92,3.75,2555191,Ryan Kelly,78,2019,19,3,03:27:00,IND,2,1,IND,24,16,2558123,SINGLEBACK,"1 RB, 2 TE, 2 WR",7,"4 DL, 2 LB, 5 DB",left,2019-09-08T22:02:54.000Z,2019-09-08T22:02:52.000Z,6-4,309,05/30/1993,Alabama,C,LAC,IND,1,Dignity Health Sports Park,"Carson, CA",,Grass,Sunny,77.0,52,10,SW
7728,2019090807,20190908072382,away,95.75,24.62,5.14,1.49,0.49,77.66,78.55,2555261,Jacoby Brissett,7,2019,19,3,03:27:00,IND,2,1,IND,24,16,2558123,SINGLEBACK,"1 RB, 2 TE, 2 WR",7,"4 DL, 2 LB, 5 DB",left,2019-09-08T22:02:54.000Z,2019-09-08T22:02:52.000Z,6-4,235,12/11/1992,North Carolina State,QB,LAC,IND,1,Dignity Health Sports Park,"Carson, CA",,Grass,Sunny,77.0,52,10,SW
7729,2019090807,20190908072382,away,97.0,25.21,4.3,2.46,0.42,280.54,308.72,2558123,Marlon Mack,25,2019,19,3,03:27:00,IND,2,1,IND,24,16,2558123,SINGLEBACK,"1 RB, 2 TE, 2 WR",7,"4 DL, 2 LB, 5 DB",left,2019-09-08T22:02:54.000Z,2019-09-08T22:02:52.000Z,6-0,210,03/07/1996,South Florida,RB,LAC,IND,1,Dignity Health Sports Park,"Carson, CA",,Grass,Sunny,77.0,52,10,SW
7730,2019090807,20190908072382,away,91.46,21.43,2.91,0.51,0.29,247.23,329.83,2558832,Mo Alie-Cox,81,2019,19,3,03:27:00,IND,2,1,IND,24,16,2558123,SINGLEBACK,"1 RB, 2 TE, 2 WR",7,"4 DL, 2 LB, 5 DB",left,2019-09-08T22:02:54.000Z,2019-09-08T22:02:52.000Z,6-5,267,09/19/1993,Virginia Commonwealth,TE,LAC,IND,1,Dignity Health Sports Park,"Carson, CA",,Grass,Sunny,77.0,52,10,SW
7731,2019090807,20190908072382,away,90.31,23.99,3.43,0.74,0.35,278.92,321.83,2560820,Quenton Nelson,56,2019,19,3,03:27:00,IND,2,1,IND,24,16,2558123,SINGLEBACK,"1 RB, 2 TE, 2 WR",7,"4 DL, 2 LB, 5 DB",left,2019-09-08T22:02:54.000Z,2019-09-08T22:02:52.000Z,6-5,330,03/19/1996,Notre Dame,G,LAC,IND,1,Dignity Health Sports Park,"Carson, CA",,Grass,Sunny,77.0,52,10,SW
7732,2019090807,20190908072382,away,92.14,28.63,1.85,1.48,0.18,353.87,8.86,2560876,Braden Smith,72,2019,19,3,03:27:00,IND,2,1,IND,24,16,2558123,SINGLEBACK,"1 RB, 2 TE, 2 WR",7,"4 DL, 2 LB, 5 DB",left,2019-09-08T22:02:54.000Z,2019-09-08T22:02:52.000Z,6-6,315,03/25/1996,Auburn,G,LAC,IND,1,Dignity Health Sports Park,"Carson, CA",,Grass,Sunny,77.0,52,10,SW
7733,2019090807,20190908072382,home,87.03,24.52,2.58,0.39,0.26,106.43,11.48,2506352,Thomas Davis,58,2019,19,3,03:27:00,IND,2,1,IND,24,16,2558123,SINGLEBACK,"1 RB, 2 TE, 2 WR",7,"4 DL, 2 LB, 5 DB",left,2019-09-08T22:02:54.000Z,2019-09-08T22:02:52.000Z,6-1,235,03/22/1983,Georgia,OLB,LAC,IND,1,Dignity Health Sports Park,"Carson, CA",,Grass,Sunny,77.0,52,10,SW
7734,2019090807,20190908072382,home,84.22,43.93,3.62,1.68,0.35,184.29,259.63,2532861,Casey Hayward,26,2019,19,3,03:27:00,IND,2,1,IND,24,16,2558123,SINGLEBACK,"1 RB, 2 TE, 2 WR",7,"4 DL, 2 LB, 5 DB",left,2019-09-08T22:02:54.000Z,2019-09-08T22:02:52.000Z,5-11,192,09/09/1989,Vanderbilt,CB,LAC,IND,1,Dignity Health Sports Park,"Carson, CA",,Grass,Sunny,77.0,52,10,SW
7735,2019090807,20190908072382,home,91.99,29.79,2.73,0.71,0.26,106.94,57.28,2532870,Melvin Ingram,54,2019,19,3,03:27:00,IND,2,1,IND,24,16,2558123,SINGLEBACK,"1 RB, 2 TE, 2 WR",7,"4 DL, 2 LB, 5 DB",left,2019-09-08T22:02:54.000Z,2019-09-08T22:02:52.000Z,6-2,247,04/26/1989,South Carolina,DE,LAC,IND,1,Dignity Health Sports Park,"Carson, CA",,Grass,Sunny,77.0,52,10,SW
7736,2019090807,20190908072382,home,91.84,26.61,2.29,1.61,0.24,127.2,15.96,2540003,Damion Square,71,2019,19,3,03:27:00,IND,2,1,IND,24,16,2558123,SINGLEBACK,"1 RB, 2 TE, 2 WR",7,"4 DL, 2 LB, 5 DB",left,2019-09-08T22:02:54.000Z,2019-09-08T22:02:52.000Z,6-2,293,02/06/1989,Alabama,NT,LAC,IND,1,Dignity Health Sports Park,"Carson, CA",,Grass,Sunny,77.0,52,10,SW
7737,2019090807,20190908072382,home,89.6,20.1,3.35,1.37,0.33,82.98,355.38,2550842,Adrian Phillips,31,2019,19,3,03:27:00,IND,2,1,IND,24,16,2558123,SINGLEBACK,"1 RB, 2 TE, 2 WR",7,"4 DL, 2 LB, 5 DB",left,2019-09-08T22:02:54.000Z,2019-09-08T22:02:52.000Z,5-11,210,03/28/1992,Texas,SS,LAC,IND,1,Dignity Health Sports Park,"Carson, CA",,Grass,Sunny,77.0,52,10,SW
7738,2019090807,20190908072382,home,90.8,21.35,1.49,2.47,0.14,88.02,347.29,2555249,Joey Bosa,97,2019,19,3,03:27:00,IND,2,1,IND,24,16,2558123,SINGLEBACK,"1 RB, 2 TE, 2 WR",7,"4 DL, 2 LB, 5 DB",left,2019-09-08T22:02:54.000Z,2019-09-08T22:02:52.000Z,6-5,280,07/11/1995,Ohio State,DE,LAC,IND,1,Dignity Health Sports Park,"Carson, CA",,Grass,Sunny,77.0,52,10,SW
7739,2019090807,20190908072382,home,86.56,34.7,0.89,0.42,0.08,85.62,299.55,2557927,Desmond King,20,2019,19,3,03:27:00,IND,2,1,IND,24,16,2558123,SINGLEBACK,"1 RB, 2 TE, 2 WR",7,"4 DL, 2 LB, 5 DB",left,2019-09-08T22:02:54.000Z,2019-09-08T22:02:52.000Z,5-10,201,12/14/1994,Iowa,CB,LAC,IND,1,Dignity Health Sports Park,"Carson, CA",,Grass,Sunny,77.0,52,10,SW
7740,2019090807,20190908072382,home,73.87,29.29,1.79,1.68,0.17,87.56,279.81,2558182,Rayshawn Jenkins,23,2019,19,3,03:27:00,IND,2,1,IND,24,16,2558123,SINGLEBACK,"1 RB, 2 TE, 2 WR",7,"4 DL, 2 LB, 5 DB",left,2019-09-08T22:02:54.000Z,2019-09-08T22:02:52.000Z,6-2,220,01/25/1994,Miami,SS,LAC,IND,1,Dignity Health Sports Park,"Carson, CA",,Grass,Sunny,77.0,52,10,SW
7741,2019090807,20190908072382,home,88.18,15.27,1.98,3.94,0.19,39.9,357.08,2560719,Brandon Facyson,28,2019,19,3,03:27:00,IND,2,1,IND,24,16,2558123,SINGLEBACK,"1 RB, 2 TE, 2 WR",7,"4 DL, 2 LB, 5 DB",left,2019-09-08T22:02:54.000Z,2019-09-08T22:02:52.000Z,6-2,197,09/08/1994,Virginia Tech,CB,LAC,IND,1,Dignity Health Sports Park,"Carson, CA",,Grass,Sunny,77.0,52,10,SW
7742,2019090807,20190908072382,home,90.24,23.09,2.54,0.95,0.27,294.51,335.0,2560769,Justin Jones,93,2019,19,3,03:27:00,IND,2,1,IND,24,16,2558123,SINGLEBACK,"1 RB, 2 TE, 2 WR",7,"4 DL, 2 LB, 5 DB",left,2019-09-08T22:02:54.000Z,2019-09-08T22:02:52.000Z,6-3,309,08/28/1996,North Carolina State,DT,LAC,IND,1,Dignity Health Sports Park,"Carson, CA",,Grass,Sunny,77.0,52,10,SW
7743,2019090807,20190908072382,home,87.24,28.49,3.16,1.27,0.3,77.98,15.99,2560928,Kyzir White,44,2019,19,3,03:27:00,IND,2,1,IND,24,16,2558123,SINGLEBACK,"1 RB, 2 TE, 2 WR",7,"4 DL, 2 LB, 5 DB",left,2019-09-08T22:02:54.000Z,2019-09-08T22:02:52.000Z,6-2,216,03/24/1996,West Virginia,LB,LAC,IND,1,Dignity Health Sports Park,"Carson, CA",,Grass,Sunny,77.0,52,10,SW
