,GameId,PlayId,Team,X,Y,S,A,Dis,Orientation,Dir,NflId,DisplayName,JerseyNumber,Season,YardLine,Quarter,GameClock,PossessionTeam,Down,Distance,FieldPosition,HomeScoreBeforePlay,VisitorScoreBeforePlay,NflIdRusher,OffenseFormation,OffensePersonnel,DefendersInTheBox,DefensePersonnel,PlayDirection,TimeHandoff,TimeSnap,PlayerHeight,PlayerWeight,PlayerBirthDate,PlayerCollegeName,Position,HomeTeamAbbr,VisitorTeamAbbr,Week,Stadium,Location,StadiumType,Turf,GameWeather,Temperature,Humidity,WindSpeed,WindDirection
50644,2019092903,20190929033928,away,50.67,27.26,0.78,0.49,0.08,95.55,343.13,2532945,Mitchell Schwartz,71,2019,42,4,07:46:00,KC,2,10,KC,23,27,2560935,SHOTGUN,"1 RB, 1 TE, 3 WR",5,"2 DL, 3 LB, 6 DB",right,2019-09-29T19:59:42.000Z,2019-09-29T19:59:41.000Z,6-5,320,06/08/1989,California,T,DET,KC,4,Ford Field,Detroit,Indoors,Field Turf,Controlled Climate,68.0,70,,
50645,2019092903,20190929033928,away,52.81,21.82,2.93,3.33,0.29,75.4,60.71,2543457,Sammy Watkins,14,2019,42,4,07:46:00,KC,2,10,KC,23,27,2560935,SHOTGUN,"1 RB, 1 TE, 3 WR",5,"2 DL, 3 LB, 6 DB",right,2019-09-29T19:59:42.000Z,2019-09-29T19:59:41.000Z,6-1,211,06/14/1993,Clemson,WR,DET,KC,4,Ford Field,Detroit,Indoors,Field Turf,Controlled Climate,68.0,70,,
50646,2019092903,20190929033928,away,50.72,30.21,1.8,0.38,0.19,122.88,349.43,2543816,Laurent Duvernay-Tardif,76,2019,42,4,07:46:00,KC,2,10,KC,23,27,2560935,SHOTGUN,"1 RB, 1 TE, 3 WR",5,"2 DL, 3 LB, 6 DB",right,2019-09-29T19:59:42.000Z,2019-09-29T19:59:41.000Z,6-5,321,02/11/1991,McGill,G,DET,KC,4,Ford Field,Detroit,Indoors,Field Turf,Controlled Climate,68.0,70,,
50647,2019092903,20190929033928,away,50.49,34.92,1.85,1.97,0.19,29.0,351.89,2552240,Cameron Erving,75,2019,42,4,07:46:00,KC,2,10,KC,23,27,2560935,SHOTGUN,"1 RB, 1 TE, 3 WR",5,"2 DL, 3 LB, 6 DB",right,2019-09-29T19:59:42.000Z,2019-09-29T19:59:41.000Z,6-5,313,08/23/1992,Florida State,G,DET,KC,4,Ford Field,Detroit,Indoors,Field Turf,Controlled Climate,68.0,70,,
50648,2019092903,20190929033928,away,51.81,16.03,4.01,3.52,0.38,134.01,144.86,2552478,Blake Bell,81,2019,42,4,07:46:00,KC,2,10,KC,23,27,2560935,SHOTGUN,"1 RB, 1 TE, 3 WR",5,"2 DL, 3 LB, 6 DB",right,2019-09-29T19:59:42.000Z,2019-09-29T19:59:41.000Z,6-6,252,08/07/1991,Oklahoma,TE,DET,KC,4,Ford Field,Detroit,Indoors,Field Turf,Controlled Climate,68.0,70,,
50649,2019092903,20190929033928,away,52.59,31.01,2.0,0.59,0.22,141.96,46.39,2553452,Austin Reiter,62,2019,42,4,07:46:00,KC,2,10,KC,23,27,2560935,SHOTGUN,"1 RB, 1 TE, 3 WR",5,"2 DL, 3 LB, 6 DB",right,2019-09-29T19:59:42.000Z,2019-09-29T19:59:41.000Z,6-3,300,11/27/1991,South Florida,C,DET,KC,4,Ford Field,Detroit,Indoors,Field Turf,Controlled Climate,68.0,70,,
50650,2019092903,20190929033928,away,52.85,44.96,3.32,1.57,0.32,113.07,49.78,2555478,Demarcus Robinson,11,2019,42,4,07:46:00,KC,2,10,KC,23,27,2560935,SHOTGUN,"1 RB, 1 TE, 3 WR",5,"2 DL, 3 LB, 6 DB",right,2019-09-29T19:59:42.000Z,2019-09-29T19:59:41.000Z,6-1,203,09/21/1994,Florida,WR,DET,KC,4,Ford Field,Detroit,Indoors,Field Turf,Controlled Climate,68.0,70,,
50651,2019092903,20190929033928,away,47.59,29.41,1.8,2.37,0.17,126.81,200.76,2558125,Patrick Mahomes,15,2019,42,4,07:46:00,KC,2,10,KC,23,27,2560935,SHOTGUN,"1 RB, 1 TE, 3 WR",5,"2 DL, 3 LB, 6 DB",right,2019-09-29T19:59:42.000Z,2019-09-29T19:59:41.000Z,6-3,230,09/17/1995,Texas Tech,QB,DET,KC,4,Ford Field,Detroit,Indoors,Field Turf,Controlled Climate,68.0,70,,
50652,2019092903,20190929033928,away,52.29,33.43,2.5,1.45,0.25,126.03,27.66,2559354,Andrew Wylie,77,2019,42,4,07:46:00,KC,2,10,KC,23,27,2560935,SHOTGUN,"1 RB, 1 TE, 3 WR",5,"2 DL, 3 LB, 6 DB",right,2019-09-29T19:59:42.000Z,2019-09-29T19:59:41.000Z,6-6,309,08/19/1994,Eastern Michigan,OT,DET,KC,4,Ford Field,Detroit,Indoors,Field Turf,Controlled Climate,68.0,70,,
50653,2019092903,20190929033928,away,48.18,30.35,5.47,1.77,0.54,40.17,12.06,2560935,Darrel Williams,31,2019,42,4,07:46:00,KC,2,10,KC,23,27,2560935,SHOTGUN,"1 RB, 1 TE, 3 WR",5,"2 DL, 3 LB, 6 DB",right,2019-09-29T19:59:42.000Z,2019-09-29T19:59:41.000Z,5-11,224,04/15/1995,Louisiana State,RB,DET,KC,4,Ford Field,Detroit,Indoors,Field Turf,Controlled Climate,68.0,70,,
50654,2019092903,20190929033928,away,52.25,8.94,2.63,1.21,0.26,78.7,94.9,2562580,Mecole Hardman,17,2019,42,4,07:46:00,KC,2,10,KC,23,27,2560935,SHOTGUN,"1 RB, 1 TE, 3 WR",5,"2 DL, 3 LB, 6 DB",right,2019-09-29T19:59:42.000Z,2019-09-29T19:59:41.000Z,5-10,187,03/12/1998,Georgia,WR,DET,KC,4,Ford Field,Detroit,Indoors,Field Turf,Controlled Climate,68.0,70,,
50655,2019092903,20190929033928,home,61.85,35.83,3.43,4.32,0.33,233.41,264.02,2534830,Tavon Wilson,32,2019,42,4,07:46:00,KC,2,10,KC,23,27,2560935,SHOTGUN,"1 RB, 1 TE, 3 WR",5,"2 DL, 3 LB, 6 DB",right,2019-09-29T19:59:42.000Z,2019-09-29T19:59:41.000Z,6-0,208,03/19/1990,Illinois,SS,DET,KC,4,Ford Field,Detroit,Indoors,Field Turf,Controlled Climate,68.0,70,,
50656,2019092903,20190929033928,home,54.32,44.44,2.8,2.59,0.27,291.08,48.25,2541200,Rashaan Melvin,29,2019,42,4,07:46:00,KC,2,10,KC,23,27,2560935,SHOTGUN,"1 RB, 1 TE, 3 WR",5,"2 DL, 3 LB, 6 DB",right,2019-09-29T19:59:42.000Z,2019-09-29T19:59:41.000Z,6-2,196,10/02/1989,Northern Illinois,CB,DET,KC,4,Ford Field,Detroit,Indoors,Field Turf,Controlled Climate,68.0,70,,
50657,2019092903,20190929033928,home,52.08,32.8,2.0,1.59,0.2,331.92,325.11,2543869,Devon Kennard,42,2019,42,4,07:46:00,KC,2,10,KC,23,27,2560935,SHOTGUN,"1 RB, 1 TE, 3 WR",5,"2 DL, 3 LB, 6 DB",right,2019-09-29T19:59:42.000Z,2019-09-29T19:59:41.000Z,6-3,256,06/24/1991,Southern California,OLB,DET,KC,4,Ford Field,Detroit,Indoors,Field Turf,Controlled Climate,68.0,70,,
50658,2019092903,20190929033928,home,50.96,26.0,2.52,1.2,0.26,323.71,308.4,2552278,Trey Flowers,90,2019,42,4,07:46:00,KC,2,10,KC,23,27,2560935,SHOTGUN,"1 RB, 1 TE, 3 WR",5,"2 DL, 3 LB, 6 DB",right,2019-09-29T19:59:42.000Z,2019-09-29T19:59:41.000Z,6-2,265,08/16/1993,Arkansas,DE,DET,KC,4,Ford Field,Detroit,Indoors,Field Turf,Controlled Climate,68.0,70,,
50659,2019092903,20190929033928,home,53.56,21.23,1.05,2.11,0.1,293.12,72.95,2553637,Justin Coleman,27,2019,42,4,07:46:00,KC,2,10,KC,23,27,2560935,SHOTGUN,"1 RB, 1 TE, 3 WR",5,"2 DL, 3 LB, 6 DB",right,2019-09-29T19:59:42.000Z,2019-09-29T19:59:41.000Z,5-11,190,03/27/1993,Tennessee,CB,DET,KC,4,Ford Field,Detroit,Indoors,Field Turf,Controlled Climate,68.0,70,,
50660,2019092903,20190929033928,home,51.17,35.65,1.74,2.64,0.17,210.87,318.03,2556641,Romeo Okwara,95,2019,42,4,07:46:00,KC,2,10,KC,23,27,2560935,SHOTGUN,"1 RB, 1 TE, 3 WR",5,"2 DL, 3 LB, 6 DB",right,2019-09-29T19:59:42.000Z,2019-09-29T19:59:41.000Z,6-4,263,06/17/1995,Notre Dame,OLB,DET,KC,4,Ford Field,Detroit,Indoors,Field Turf,Controlled Climate,68.0,70,,
50661,2019092903,20190929033928,home,55.52,27.0,3.23,3.89,0.3,312.29,17.76,2557855,Jarrad Davis,40,2019,42,4,07:46:00,KC,2,10,KC,23,27,2560935,SHOTGUN,"1 RB, 1 TE, 3 WR",5,"2 DL, 3 LB, 6 DB",right,2019-09-29T19:59:42.000Z,2019-09-29T19:59:41.000Z,6-1,245,11/16/1994,Florida,MLB,DET,KC,4,Ford Field,Detroit,Indoors,Field Turf,Controlled Climate,68.0,70,,
50662,2019092903,20190929033928,home,55.41,16.45,2.55,5.12,0.23,243.96,156.54,2560913,Tracy Walker,21,2019,42,4,07:46:00,KC,2,10,KC,23,27,2560935,SHOTGUN,"1 RB, 1 TE, 3 WR",5,"2 DL, 3 LB, 6 DB",right,2019-09-29T19:59:42.000Z,2019-09-29T19:59:41.000Z,6-1,210,02/01/1995,Louisiana-Lafayette,DB,DET,KC,4,Ford Field,Detroit,Indoors,Field Turf,Controlled Climate,68.0,70,,
50663,2019092903,20190929033928,home,53.55,9.19,2.29,1.52,0.22,231.51,112.33,2561527,Mike Ford,38,2019,42,4,07:46:00,KC,2,10,KC,23,27,2560935,SHOTGUN,"1 RB, 1 TE, 3 WR",5,"2 DL, 3 LB, 6 DB",right,2019-09-29T19:59:42.000Z,2019-09-29T19:59:41.000Z,6-0,196,08/04/1995,Southeast Missouri,CB,DET,KC,4,Ford Field,Detroit,Indoors,Field Turf,Controlled Climate,68.0,70,,
50664,2019092903,20190929033928,home,71.92,22.5,2.71,0.9,0.27,288.97,112.18,2562395,Will Harris,25,2019,42,4,07:46:00,KC,2,10,KC,23,27,2560935,SHOTGUN,"1 RB, 1 TE, 3 WR",5,"2 DL, 3 LB, 6 DB",right,2019-09-29T19:59:42.000Z,2019-09-29T19:59:41.000Z,6-1,207,12/19/1995,Boston College,DB,DET,KC,4,Ford Field,Detroit,Indoors,Field Turf,Controlled Climate,68.0,70,,
50665,2019092903,20190929033928,home,51.56,29.98,1.68,2.32,0.17,281.08,326.93,2563197,Kevin Strong,92,2019,42,4,07:46:00,KC,2,10,KC,23,27,2560935,SHOTGUN,"1 RB, 1 TE, 3 WR",5,"2 DL, 3 LB, 6 DB",right,2019-09-29T19:59:42.000Z,2019-09-29T19:59:41.000Z,6-4,285,08/05/1996,Texas-San Antonio,DT,DET,KC,4,Ford Field,Detroit,Indoors,Field Turf,Controlled Climate,68.0,70,,
