,GameId,PlayId,Team,X,Y,S,A,Dis,Orientation,Dir,NflId,DisplayName,JerseyNumber,Season,YardLine,Quarter,GameClock,PossessionTeam,Down,Distance,FieldPosition,HomeScoreBeforePlay,VisitorScoreBeforePlay,NflIdRusher,OffenseFormation,OffensePersonnel,DefendersInTheBox,DefensePersonnel,PlayDirection,TimeHandoff,TimeSnap,PlayerHeight,PlayerWeight,PlayerBirthDate,PlayerCollegeName,Position,HomeTeamAbbr,VisitorTeamAbbr,Week,Stadium,Location,StadiumType,Turf,GameWeather,Temperature,Humidity,WindSpeed,WindDirection
62304,2019100600,20191006003334,away,67.21,30.99,3.12,1.37,0.33,289.55,357.82,744,Calais Campbell,93,2019,43,4,15:00:00,CAR,1,10,JAX,28,24,2557997,SINGLEBACK,"1 RB, 1 TE, 3 WR",6,"3 DL, 3 LB, 5 DB",right,2019-10-06T19:42:02.000Z,2019-10-06T19:42:01.000Z,6-8,300,09/01/1986,Miami,DE,CAR,JAX,5,Bank of America Stadium,"Charlotte, NC",Outdoors,Natural Grass,Cloudy,72.0,59,4,ESE
62305,2019100600,20191006003334,away,67.47,33.02,2.76,0.77,0.27,272.09,357.16,2495478,Marcell Dareus,99,2019,43,4,15:00:00,CAR,1,10,JAX,28,24,2557997,SINGLEBACK,"1 RB, 1 TE, 3 WR",6,"3 DL, 3 LB, 5 DB",right,2019-10-06T19:42:02.000Z,2019-10-06T19:42:01.000Z,6-3,331,03/13/1990,Alabama,DT,CAR,JAX,5,Bank of America Stadium,"Charlotte, NC",Outdoors,Natural Grass,Cloudy,72.0,59,4,ESE
62306,2019100600,20191006003334,away,70.64,32.24,2.45,1.71,0.24,265.9,200.17,2533016,Najee Goode,52,2019,43,4,15:00:00,CAR,1,10,JAX,28,24,2557997,SINGLEBACK,"1 RB, 1 TE, 3 WR",6,"3 DL, 3 LB, 5 DB",right,2019-10-06T19:42:02.000Z,2019-10-06T19:42:01.000Z,6-0,244,06/04/1989,West Virginia,OLB,CAR,JAX,5,Bank of America Stadium,"Charlotte, NC",Outdoors,Natural Grass,Cloudy,72.0,59,4,ESE
62307,2019100600,20191006003334,away,66.56,23.04,6.64,0.86,0.66,348.15,323.96,2539237,D.J. Hayden,25,2019,43,4,15:00:00,CAR,1,10,JAX,28,24,2557997,SINGLEBACK,"1 RB, 1 TE, 3 WR",6,"3 DL, 3 LB, 5 DB",right,2019-10-06T19:42:02.000Z,2019-10-06T19:42:01.000Z,5-11,190,06/27/1990,Houston,CB,CAR,JAX,5,Bank of America Stadium,"Charlotte, NC",Outdoors,Natural Grass,Cloudy,72.0,59,4,ESE
62308,2019100600,20191006003334,away,72.7,38.41,2.63,2.95,0.25,152.61,271.47,2541162,A.J. Bouye,21,2019,43,4,15:00:00,CAR,1,10,JAX,28,24,2557997,SINGLEBACK,"1 RB, 1 TE, 3 WR",6,"3 DL, 3 LB, 5 DB",right,2019-10-06T19:42:02.000Z,2019-10-06T19:42:01.000Z,6-0,191,08/16/1991,Central Florida,CB,CAR,JAX,5,Bank of America Stadium,"Charlotte, NC",Outdoors,Natural Grass,Cloudy,72.0,59,4,ESE
62309,2019100600,20191006003334,away,69.68,27.61,3.25,1.14,0.32,261.59,244.63,2555329,Myles Jack,44,2019,43,4,15:00:00,CAR,1,10,JAX,28,24,2557997,SINGLEBACK,"1 RB, 1 TE, 3 WR",6,"3 DL, 3 LB, 5 DB",right,2019-10-06T19:42:02.000Z,2019-10-06T19:42:01.000Z,6-1,244,09/03/1995,UCLA,OLB,CAR,JAX,5,Bank of America Stadium,"Charlotte, NC",Outdoors,Natural Grass,Cloudy,72.0,59,4,ESE
62310,2019100600,20191006003334,away,65.99,35.05,2.37,1.84,0.23,198.73,329.53,2555421,Yannick Ngakoue,91,2019,43,4,15:00:00,CAR,1,10,JAX,28,24,2557997,SINGLEBACK,"1 RB, 1 TE, 3 WR",6,"3 DL, 3 LB, 5 DB",right,2019-10-06T19:42:02.000Z,2019-10-06T19:42:01.000Z,6-2,246,03/31/1995,Maryland,DE,CAR,JAX,5,Bank of America Stadium,"Charlotte, NC",Outdoors,Natural Grass,Cloudy,72.0,59,4,ESE
62311,2019100600,20191006003334,away,76.71,17.91,2.26,0.79,0.23,244.8,237.85,2556711,Jarrod Wilson,26,2019,43,4,15:00:00,CAR,1,10,JAX,28,24,2557997,SINGLEBACK,"1 RB, 1 TE, 3 WR",6,"3 DL, 3 LB, 5 DB",right,2019-10-06T19:42:02.000Z,2019-10-06T19:42:01.000Z,6-2,210,02/09/1994,Michigan,SS,CAR,JAX,5,Bank of America Stadium,"Charlotte, NC",Outdoors,Natural Grass,Cloudy,72.0,59,4,ESE
62312,2019100600,20191006003334,away,69.46,8.93,1.63,0.38,0.16,257.12,106.39,2561340,Tre Herndon,37,2019,43,4,15:00:00,CAR,1,10,JAX,28,24,2557997,SINGLEBACK,"1 RB, 1 TE, 3 WR",6,"3 DL, 3 LB, 5 DB",right,2019-10-06T19:42:02.000Z,2019-10-06T19:42:01.000Z,5-11,185,03/05/1996,Vanderbilt,CB,CAR,JAX,5,Bank of America Stadium,"Charlotte, NC",Outdoors,Natural Grass,Cloudy,72.0,59,4,ESE
62313,2019100600,20191006003334,away,81.88,28.12,3.38,2.54,0.34,319.17,100.79,2562606,Andrew Wingard,42,2019,43,4,15:00:00,CAR,1,10,JAX,28,24,2557997,SINGLEBACK,"1 RB, 1 TE, 3 WR",6,"3 DL, 3 LB, 5 DB",right,2019-10-06T19:42:02.000Z,2019-10-06T19:42:01.000Z,6-0,209,12/05/1996,Wyoming,DB,CAR,JAX,5,Bank of America Stadium,"Charlotte, NC",Outdoors,Natural Grass,Cloudy,72.0,59,4,ESE
62314,2019100600,20191006003334,away,66.57,29.3,4.76,1.48,0.47,331.85,337.02,2562619,Josh Allen,41,2019,43,4,15:00:00,CAR,1,10,JAX,28,24,2557997,SINGLEBACK,"1 RB, 1 TE, 3 WR",6,"3 DL, 3 LB, 5 DB",right,2019-10-06T19:42:02.000Z,2019-10-06T19:42:01.000Z,6-5,262,07/13/1997,Kentucky,LB,CAR,JAX,5,Bank of America Stadium,"Charlotte, NC",Outdoors,Natural Grass,Cloudy,72.0,59,4,ESE
62315,2019100600,20191006003334,home,64.49,30.91,3.45,1.34,0.34,127.41,157.7,2495700,Greg Olsen,88,2019,43,4,15:00:00,CAR,1,10,JAX,28,24,2557997,SINGLEBACK,"1 RB, 1 TE, 3 WR",6,"3 DL, 3 LB, 5 DB",right,2019-10-06T19:42:02.000Z,2019-10-06T19:42:01.000Z,6-5,255,03/11/1985,Miami,TE,CAR,JAX,5,Bank of America Stadium,"Charlotte, NC",Outdoors,Natural Grass,Cloudy,72.0,59,4,ESE
62316,2019100600,20191006003334,home,65.9,17.81,2.26,1.04,0.22,24.53,82.5,2532978,Jarius Wright,13,2019,43,4,15:00:00,CAR,1,10,JAX,28,24,2557997,SINGLEBACK,"1 RB, 1 TE, 3 WR",6,"3 DL, 3 LB, 5 DB",right,2019-10-06T19:42:02.000Z,2019-10-06T19:42:01.000Z,5-10,191,11/25/1989,Arkansas,WR,CAR,JAX,5,Bank of America Stadium,"Charlotte, NC",Outdoors,Natural Grass,Cloudy,72.0,59,4,ESE
62317,2019100600,20191006003334,home,66.32,33.65,2.91,1.48,0.32,86.2,28.75,2538145,Greg Van Roten,73,2019,43,4,15:00:00,CAR,1,10,JAX,28,24,2557997,SINGLEBACK,"1 RB, 1 TE, 3 WR",6,"3 DL, 3 LB, 5 DB",right,2019-10-06T19:42:02.000Z,2019-10-06T19:42:01.000Z,6-3,305,02/26/1990,Pennsylvania,G,CAR,JAX,5,Bank of America Stadium,"Charlotte, NC",Outdoors,Natural Grass,Cloudy,72.0,59,4,ESE
62318,2019100600,20191006003334,home,66.21,33.01,3.34,1.21,0.35,83.77,4.76,2550155,Matt Paradis,61,2019,43,4,15:00:00,CAR,1,10,JAX,28,24,2557997,SINGLEBACK,"1 RB, 1 TE, 3 WR",6,"3 DL, 3 LB, 5 DB",right,2019-10-06T19:42:02.000Z,2019-10-06T19:42:01.000Z,6-3,300,10/12/1989,Boise State,C,CAR,JAX,5,Bank of America Stadium,"Charlotte, NC",Outdoors,Natural Grass,Cloudy,72.0,59,4,ESE
62319,2019100600,20191006003334,home,66.08,31.22,3.19,0.48,0.36,91.64,2.38,2552357,Daryl Williams,60,2019,43,4,15:00:00,CAR,1,10,JAX,28,24,2557997,SINGLEBACK,"1 RB, 1 TE, 3 WR",6,"3 DL, 3 LB, 5 DB",right,2019-10-06T19:42:02.000Z,2019-10-06T19:42:01.000Z,6-6,330,08/31/1992,Oklahoma,T,CAR,JAX,5,Bank of America Stadium,"Charlotte, NC",Outdoors,Natural Grass,Cloudy,72.0,59,4,ESE
62320,2019100600,20191006003334,home,65.68,30.4,3.92,0.84,0.4,9.75,4.8,2557871,Taylor Moton,72,2019,43,4,15:00:00,CAR,1,10,JAX,28,24,2557997,SINGLEBACK,"1 RB, 1 TE, 3 WR",6,"3 DL, 3 LB, 5 DB",right,2019-10-06T19:42:02.000Z,2019-10-06T19:42:01.000Z,6-5,325,03/18/1994,Western Michigan,T,CAR,JAX,5,Bank of America Stadium,"Charlotte, NC",Outdoors,Natural Grass,Cloudy,72.0,59,4,ESE
62321,2019100600,20191006003334,home,61.43,31.76,5.03,3.83,0.48,57.91,46.63,2557997,Christian McCaffrey,22,2019,43,4,15:00:00,CAR,1,10,JAX,28,24,2557997,SINGLEBACK,"1 RB, 1 TE, 3 WR",6,"3 DL, 3 LB, 5 DB",right,2019-10-06T19:42:02.000Z,2019-10-06T19:42:01.000Z,5-11,205,06/07/1996,Stanford,RB,CAR,JAX,5,Bank of America Stadium,"Charlotte, NC",Outdoors,Natural Grass,Cloudy,72.0,59,4,ESE
62322,2019100600,20191006003334,home,62.54,34.45,6.0,3.87,0.58,202.92,230.73,2558066,Curtis Samuel,10,2019,43,4,15:00:00,CAR,1,10,JAX,28,24,2557997,SINGLEBACK,"1 RB, 1 TE, 3 WR",6,"3 DL, 3 LB, 5 DB",right,2019-10-06T19:42:02.000Z,2019-10-06T19:42:01.000Z,5-11,195,08/11/1996,Ohio State,WR,CAR,JAX,5,Bank of America Stadium,"Charlotte, NC",Outdoors,Natural Grass,Cloudy,72.0,59,4,ESE
62323,2019100600,20191006003334,home,67.56,8.79,3.34,1.81,0.34,74.4,101.26,2560813,D.J. Moore,12,2019,43,4,15:00:00,CAR,1,10,JAX,28,24,2557997,SINGLEBACK,"1 RB, 1 TE, 3 WR",6,"3 DL, 3 LB, 5 DB",right,2019-10-06T19:42:02.000Z,2019-10-06T19:42:01.000Z,6-0,215,04/14/1997,Maryland,WR,CAR,JAX,5,Bank of America Stadium,"Charlotte, NC",Outdoors,Natural Grass,Cloudy,72.0,59,4,ESE
62324,2019100600,20191006003334,home,62.59,30.95,3.81,1.21,0.38,307.92,297.04,2561177,Kyle Allen,7,2019,43,4,15:00:00,CAR,1,10,JAX,28,24,2557997,SINGLEBACK,"1 RB, 1 TE, 3 WR",6,"3 DL, 3 LB, 5 DB",right,2019-10-06T19:42:02.000Z,2019-10-06T19:42:01.000Z,6-3,211,03/08/1996,Houston,QB,CAR,JAX,5,Bank of America Stadium,"Charlotte, NC",Outdoors,Natural Grass,Cloudy,72.0,59,4,ESE
62325,2019100600,20191006003334,home,65.83,34.47,1.96,0.6,0.2,7.69,358.5,2562251,Dennis Daley,65,2019,43,4,15:00:00,CAR,1,10,JAX,28,24,2557997,SINGLEBACK,"1 RB, 1 TE, 3 WR",6,"3 DL, 3 LB, 5 DB",right,2019-10-06T19:42:02.000Z,2019-10-06T19:42:01.000Z,6-6,324,08/07/1996,South Carolina,T,CAR,JAX,5,Bank of America Stadium,"Charlotte, NC",Outdoors,Natural Grass,Cloudy,72.0,59,4,ESE
