,GameId,PlayId,Team,X,Y,S,A,Dis,Orientation,Dir,NflId,DisplayName,JerseyNumber,Season,YardLine,Quarter,GameClock,PossessionTeam,Down,Distance,FieldPosition,HomeScoreBeforePlay,VisitorScoreBeforePlay,NflIdRusher,OffenseFormation,OffensePersonnel,DefendersInTheBox,DefensePersonnel,PlayDirection,TimeHandoff,TimeSnap,PlayerHeight,PlayerWeight,PlayerBirthDate,PlayerCollegeName,Position,HomeTeamAbbr,VisitorTeamAbbr,Week,Stadium,Location,StadiumType,Turf,GameWeather,Temperature,Humidity,WindSpeed,WindDirection
9262,2019090809,20190908091164,away,53.1,23.61,4.7,0.69,0.47,301.36,263.01,79860,Matthew Stafford,9,2019,49,2,13:10:00,DET,1,10,DET,0,3,2560765,I_FORM,"2 RB, 1 TE, 2 WR",7,"4 DL, 3 LB, 4 DB",right,2019-09-08T21:13:26.000Z,2019-09-08T21:13:24.000Z,6-3,220,02/07/1988,Georgia,QB,ARI,DET,1,State Farm Stadium,"Glendale, AZ",Dome,Grass,,,0,,
9263,2019090809,20190908091164,away,60.13,10.44,2.88,1.06,0.29,99.77,70.55,2532884,Marvin Jones,11,2019,49,2,13:10:00,DET,1,10,DET,0,3,2560765,I_FORM,"2 RB, 1 TE, 2 WR",7,"4 DL, 3 LB, 4 DB",right,2019-09-08T21:13:26.000Z,2019-09-08T21:13:24.000Z,6-2,198,03/12/1990,California,WR,ARI,DET,1,State Farm Stadium,"Glendale, AZ",Dome,Grass,,,0,,
9264,2019090809,20190908091164,away,59.4,19.9,2.2,0.7,0.22,144.49,100.68,2539340,Rick Wagner,71,2019,49,2,13:10:00,DET,1,10,DET,0,3,2560765,I_FORM,"2 RB, 1 TE, 2 WR",7,"4 DL, 3 LB, 4 DB",right,2019-09-08T21:13:26.000Z,2019-09-08T21:13:24.000Z,6-6,315,10/21/1989,Wisconsin,T,ARI,DET,1,State Farm Stadium,"Glendale, AZ",Dome,Grass,,,0,,
9265,2019090809,20190908091164,away,58.05,28.01,0.57,1.77,0.06,56.08,185.11,2552633,Jesse James,83,2019,49,2,13:10:00,DET,1,10,DET,0,3,2560765,I_FORM,"2 RB, 1 TE, 2 WR",7,"4 DL, 3 LB, 4 DB",right,2019-09-08T21:13:26.000Z,2019-09-08T21:13:24.000Z,6-7,250,06/04/1994,Penn State,TE,ARI,DET,1,State Farm Stadium,"Glendale, AZ",Dome,Grass,,,0,,
9266,2019090809,20190908091164,away,58.53,24.72,1.02,1.03,0.11,83.86,143.3,2555136,Joe Dahl,66,2019,49,2,13:10:00,DET,1,10,DET,0,3,2560765,I_FORM,"2 RB, 1 TE, 2 WR",7,"4 DL, 3 LB, 4 DB",right,2019-09-08T21:13:26.000Z,2019-09-08T21:13:24.000Z,6-4,310,04/09/1993,Washington State,G,ARI,DET,1,State Farm Stadium,"Glendale, AZ",Dome,Grass,,,0,,
9267,2019090809,20190908091164,away,58.2,21.99,0.19,0.54,0.03,178.21,7.11,2555182,Graham Glasgow,60,2019,49,2,13:10:00,DET,1,10,DET,0,3,2560765,I_FORM,"2 RB, 1 TE, 2 WR",7,"4 DL, 3 LB, 4 DB",right,2019-09-08T21:13:26.000Z,2019-09-08T21:13:24.000Z,6-6,310,08/19/1992,Michigan,C,ARI,DET,1,State Farm Stadium,"Glendale, AZ",Dome,Grass,,,0,,
9268,2019090809,20190908091164,away,58.65,25.7,1.01,0.73,0.11,122.31,140.28,2555206,Taylor Decker,68,2019,49,2,13:10:00,DET,1,10,DET,0,3,2560765,I_FORM,"2 RB, 1 TE, 2 WR",7,"4 DL, 3 LB, 4 DB",right,2019-09-08T21:13:26.000Z,2019-09-08T21:13:24.000Z,6-7,318,08/23/1993,Ohio State,T,ARI,DET,1,State Farm Stadium,"Glendale, AZ",Dome,Grass,,,0,,
9269,2019090809,20190908091164,away,60.28,34.48,2.73,0.77,0.28,228.39,80.27,2558052,Kenny Golladay,19,2019,49,2,13:10:00,DET,1,10,DET,0,3,2560765,I_FORM,"2 RB, 1 TE, 2 WR",7,"4 DL, 3 LB, 4 DB",right,2019-09-08T21:13:26.000Z,2019-09-08T21:13:24.000Z,6-4,213,11/03/1993,Northern Illinois,WR,ARI,DET,1,State Farm Stadium,"Glendale, AZ",Dome,Grass,,,0,,
9270,2019090809,20190908091164,away,53.52,24.72,4.44,3.23,0.43,82.7,68.11,2560765,Kerryon Johnson,33,2019,49,2,13:10:00,DET,1,10,DET,0,3,2560765,I_FORM,"2 RB, 1 TE, 2 WR",7,"4 DL, 3 LB, 4 DB",right,2019-09-08T21:13:26.000Z,2019-09-08T21:13:24.000Z,5-11,212,06/30/1997,Auburn,RB,ARI,DET,1,State Farm Stadium,"Glendale, AZ",Dome,Grass,,,0,,
9271,2019090809,20190908091164,away,57.54,26.5,4.34,2.79,0.45,99.56,67.69,2560972,Nick Bawden,46,2019,49,2,13:10:00,DET,1,10,DET,0,3,2560765,I_FORM,"2 RB, 1 TE, 2 WR",7,"4 DL, 3 LB, 4 DB",right,2019-09-08T21:13:26.000Z,2019-09-08T21:13:24.000Z,6-2,245,06/22/1996,San Diego State,RB,ARI,DET,1,State Farm Stadium,"Glendale, AZ",Dome,Grass,,,0,,
9272,2019090809,20190908091164,away,60.05,23.32,1.96,0.46,0.2,118.54,106.66,2561142,Frank Ragnow,77,2019,49,2,13:10:00,DET,1,10,DET,0,3,2560765,I_FORM,"2 RB, 1 TE, 2 WR",7,"4 DL, 3 LB, 4 DB",right,2019-09-08T21:13:26.000Z,2019-09-08T21:13:24.000Z,6-5,311,05/17/1996,Arkansas,C,ARI,DET,1,State Farm Stadium,"Glendale, AZ",Dome,Grass,,,0,,
9273,2019090809,20190908091164,home,59.31,24.63,1.49,0.49,0.15,290.14,158.72,496841,Corey Peters,98,2019,49,2,13:10:00,DET,1,10,DET,0,3,2560765,I_FORM,"2 RB, 1 TE, 2 WR",7,"4 DL, 3 LB, 4 DB",right,2019-09-08T21:13:26.000Z,2019-09-08T21:13:24.000Z,6-3,335,06/08/1988,Kentucky,DT,ARI,DET,1,State Farm Stadium,"Glendale, AZ",Dome,Grass,,,0,,
9274,2019090809,20190908091164,home,58.77,28.37,1.41,2.18,0.15,234.19,252.88,2505660,Terrell Suggs,56,2019,49,2,13:10:00,DET,1,10,DET,0,3,2560765,I_FORM,"2 RB, 1 TE, 2 WR",7,"4 DL, 3 LB, 4 DB",right,2019-09-08T21:13:26.000Z,2019-09-08T21:13:24.000Z,6-3,265,10/11/1982,Arizona State,OLB,ARI,DET,1,State Farm Stadium,"Glendale, AZ",Dome,Grass,,,0,,
9275,2019090809,20190908091164,home,61.14,10.51,2.58,3.0,0.24,267.79,26.33,2507917,Tramaine Brock,20,2019,49,2,13:10:00,DET,1,10,DET,0,3,2560765,I_FORM,"2 RB, 1 TE, 2 WR",7,"4 DL, 3 LB, 4 DB",right,2019-09-08T21:13:26.000Z,2019-09-08T21:13:24.000Z,6-0,188,08/20/1988,Belhaven,CB,ARI,DET,1,State Farm Stadium,"Glendale, AZ",Dome,Grass,,,0,,
9276,2019090809,20190908091164,home,60.22,18.86,0.54,0.24,0.06,323.02,65.65,2533538,Chandler Jones,55,2019,49,2,13:10:00,DET,1,10,DET,0,3,2560765,I_FORM,"2 RB, 1 TE, 2 WR",7,"4 DL, 3 LB, 4 DB",right,2019-09-08T21:13:26.000Z,2019-09-08T21:13:24.000Z,6-5,265,02/27/1990,Syracuse,OLB,ARI,DET,1,State Farm Stadium,"Glendale, AZ",Dome,Grass,,,0,,
9277,2019090809,20190908091164,home,73.91,18.13,1.27,2.1,0.13,233.06,92.81,2539943,D.J. Swearinger,36,2019,49,2,13:10:00,DET,1,10,DET,0,3,2560765,I_FORM,"2 RB, 1 TE, 2 WR",7,"4 DL, 3 LB, 4 DB",right,2019-09-08T21:13:26.000Z,2019-09-08T21:13:24.000Z,5-10,205,09/01/1991,South Carolina,FS,ARI,DET,1,State Farm Stadium,"Glendale, AZ",Dome,Grass,,,0,,
9278,2019090809,20190908091164,home,60.97,26.74,2.3,0.58,0.23,228.4,280.43,2552315,Jordan Hicks,58,2019,49,2,13:10:00,DET,1,10,DET,0,3,2560765,I_FORM,"2 RB, 1 TE, 2 WR",7,"4 DL, 3 LB, 4 DB",right,2019-09-08T21:13:26.000Z,2019-09-08T21:13:24.000Z,6-1,236,06/27/1992,Texas,MLB,ARI,DET,1,State Farm Stadium,"Glendale, AZ",Dome,Grass,,,0,,
9279,2019090809,20190908091164,home,58.35,21.55,0.6,0.81,0.06,323.57,290.62,2553437,Rodney Gunter,95,2019,49,2,13:10:00,DET,1,10,DET,0,3,2560765,I_FORM,"2 RB, 1 TE, 2 WR",7,"4 DL, 3 LB, 4 DB",right,2019-09-08T21:13:26.000Z,2019-09-08T21:13:24.000Z,6-5,305,01/19/1992,Delaware State,DT,ARI,DET,1,State Farm Stadium,"Glendale, AZ",Dome,Grass,,,0,,
9280,2019090809,20190908091164,home,60.62,22.7,0.39,3.49,0.06,306.1,311.15,2556192,Joe Walker,59,2019,49,2,13:10:00,DET,1,10,DET,0,3,2560765,I_FORM,"2 RB, 1 TE, 2 WR",7,"4 DL, 3 LB, 4 DB",right,2019-09-08T21:13:26.000Z,2019-09-08T21:13:24.000Z,6-2,236,12/11/1992,Oregon,MLB,ARI,DET,1,State Farm Stadium,"Glendale, AZ",Dome,Grass,,,0,,
9281,2019090809,20190908091164,home,70.88,31.29,0.94,3.1,0.11,248.37,69.3,2558009,Budda Baker,32,2019,49,2,13:10:00,DET,1,10,DET,0,3,2560765,I_FORM,"2 RB, 1 TE, 2 WR",7,"4 DL, 3 LB, 4 DB",right,2019-09-08T21:13:26.000Z,2019-09-08T21:13:24.000Z,5-10,195,01/10/1996,Washington,FS,ARI,DET,1,State Farm Stadium,"Glendale, AZ",Dome,Grass,,,0,,
9282,2019090809,20190908091164,home,59.06,25.76,0.49,1.45,0.05,272.73,140.34,2562219,Zach Allen,97,2019,49,2,13:10:00,DET,1,10,DET,0,3,2560765,I_FORM,"2 RB, 1 TE, 2 WR",7,"4 DL, 3 LB, 4 DB",right,2019-09-08T21:13:26.000Z,2019-09-08T21:13:24.000Z,6-5,281,08/20/1997,Boston College,DE,ARI,DET,1,State Farm Stadium,"Glendale, AZ",Dome,Grass,,,0,,
9283,2019090809,20190908091164,home,64.52,36.34,3.16,2.25,0.31,205.06,254.83,2562318,Byron Murphy,33,2019,49,2,13:10:00,DET,1,10,DET,0,3,2560765,I_FORM,"2 RB, 1 TE, 2 WR",7,"4 DL, 3 LB, 4 DB",right,2019-09-08T21:13:26.000Z,2019-09-08T21:13:24.000Z,5-11,190,01/18/1998,Washington,DB,ARI,DET,1,State Farm Stadium,"Glendale, AZ",Dome,Grass,,,0,,
