,GameId,PlayId,Team,X,Y,S,A,Dis,Orientation,Dir,NflId,DisplayName,JerseyNumber,Season,YardLine,Quarter,GameClock,PossessionTeam,Down,Distance,FieldPosition,HomeScoreBeforePlay,VisitorScoreBeforePlay,NflIdRusher,OffenseFormation,OffensePersonnel,DefendersInTheBox,DefensePersonnel,PlayDirection,TimeHandoff,TimeSnap,PlayerHeight,PlayerWeight,PlayerBirthDate,PlayerCollegeName,Position,HomeTeamAbbr,VisitorTeamAbbr,Week,Stadium,Location,StadiumType,Turf,GameWeather,Temperature,Humidity,WindSpeed,WindDirection
43780,2019092212,20190922123444,away,39.95,15.38,4.24,3.21,0.41,324.86,213.68,496733,Joe Haden,23,2019,25,4,10:22:00,SF,1,10,SF,17,20,2558918,SINGLEBACK,"2 RB, 1 TE, 2 WR",7,"3 DL, 4 LB, 4 DB",right,2019-09-22T22:56:45.000Z,2019-09-22T22:56:44.000Z,5-11,195,04/14/1989,Florida,CB,SF,PIT,3,Levis Stadium,"Santa Clara, CSA",Outdoor,Natural grass,partly cloudy,79.0,36,3,NW
43781,2019092212,20190922123444,away,35.51,26.11,3.79,1.2,0.42,194.01,171.23,2508109,Cameron Heyward,97,2019,25,4,10:22:00,SF,1,10,SF,17,20,2558918,SINGLEBACK,"2 RB, 1 TE, 2 WR",7,"3 DL, 4 LB, 4 DB",right,2019-09-22T22:56:45.000Z,2019-09-22T22:56:44.000Z,6-5,295,05/06/1989,Ohio State,DT,SF,PIT,3,Levis Stadium,"Santa Clara, CSA",Outdoor,Natural grass,partly cloudy,79.0,36,3,NW
43782,2019092212,20190922123444,away,38.03,23.85,6.34,3.03,0.62,176.31,190.79,2532789,Mark Barron,26,2019,25,4,10:22:00,SF,1,10,SF,17,20,2558918,SINGLEBACK,"2 RB, 1 TE, 2 WR",7,"3 DL, 4 LB, 4 DB",right,2019-09-22T22:56:45.000Z,2019-09-22T22:56:44.000Z,6-2,230,10/27/1989,Alabama,ILB,SF,PIT,3,Levis Stadium,"Santa Clara, CSA",Outdoor,Natural grass,partly cloudy,79.0,36,3,NW
43783,2019092212,20190922123444,away,35.14,22.05,2.01,1.38,0.23,214.23,179.65,2543483,Stephon Tuitt,91,2019,25,4,10:22:00,SF,1,10,SF,17,20,2558918,SINGLEBACK,"2 RB, 1 TE, 2 WR",7,"3 DL, 4 LB, 4 DB",right,2019-09-22T22:56:45.000Z,2019-09-22T22:56:44.000Z,6-6,303,05/23/1993,Notre Dame,DE,SF,PIT,3,Levis Stadium,"Santa Clara, CSA",Outdoor,Natural grass,partly cloudy,79.0,36,3,NW
43784,2019092212,20190922123444,away,35.1,23.44,3.45,0.68,0.36,252.62,184.1,2550154,Dan McCullers,93,2019,25,4,10:22:00,SF,1,10,SF,17,20,2558918,SINGLEBACK,"2 RB, 1 TE, 2 WR",7,"3 DL, 4 LB, 4 DB",right,2019-09-22T22:56:45.000Z,2019-09-22T22:56:44.000Z,6-7,352,08/11/1992,Tennessee,DT,SF,PIT,3,Levis Stadium,"Santa Clara, CSA",Outdoor,Natural grass,partly cloudy,79.0,36,3,NW
43785,2019092212,20190922123444,away,43.23,37.74,2.52,2.34,0.25,172.22,143.79,2552265,Steven Nelson,22,2019,25,4,10:22:00,SF,1,10,SF,17,20,2558918,SINGLEBACK,"2 RB, 1 TE, 2 WR",7,"3 DL, 4 LB, 4 DB",right,2019-09-22T22:56:45.000Z,2019-09-22T22:56:44.000Z,5-11,194,01/22/1993,Oregon State,CB,SF,PIT,3,Levis Stadium,"Santa Clara, CSA",Outdoor,Natural grass,partly cloudy,79.0,36,3,NW
43786,2019092212,20190922123444,away,32.87,29.48,5.6,2.91,0.55,160.52,207.97,2552289,Bud Dupree,48,2019,25,4,10:22:00,SF,1,10,SF,17,20,2558918,SINGLEBACK,"2 RB, 1 TE, 2 WR",7,"3 DL, 4 LB, 4 DB",right,2019-09-22T22:56:45.000Z,2019-09-22T22:56:44.000Z,6-4,269,02/12/1993,Kentucky,OLB,SF,PIT,3,Levis Stadium,"Santa Clara, CSA",Outdoor,Natural grass,partly cloudy,79.0,36,3,NW
43787,2019092212,20190922123444,away,33.56,18.87,3.48,2.69,0.34,287.37,223.32,2558064,T.J. Watt,90,2019,25,4,10:22:00,SF,1,10,SF,17,20,2558918,SINGLEBACK,"2 RB, 1 TE, 2 WR",7,"3 DL, 4 LB, 4 DB",right,2019-09-22T22:56:45.000Z,2019-09-22T22:56:44.000Z,6-4,252,10/11/1994,Wisconsin,OLB,SF,PIT,3,Levis Stadium,"Santa Clara, CSA",Outdoor,Natural grass,partly cloudy,79.0,36,3,NW
43788,2019092212,20190922123444,away,40.95,32.31,3.33,3.13,0.32,277.35,184.4,2560712,Terrell Edmunds,34,2019,25,4,10:22:00,SF,1,10,SF,17,20,2558918,SINGLEBACK,"2 RB, 1 TE, 2 WR",7,"3 DL, 4 LB, 4 DB",right,2019-09-22T22:56:45.000Z,2019-09-22T22:56:44.000Z,6-1,217,01/20/1997,Virginia Tech,S,SF,PIT,3,Levis Stadium,"Santa Clara, CSA",Outdoor,Natural grass,partly cloudy,79.0,36,3,NW
43789,2019092212,20190922123444,away,49.58,26.03,2.58,1.59,0.27,259.35,169.81,2560725,Minkah Fitzpatrick,39,2019,25,4,10:22:00,SF,1,10,SF,17,20,2558918,SINGLEBACK,"2 RB, 1 TE, 2 WR",7,"3 DL, 4 LB, 4 DB",right,2019-09-22T22:56:45.000Z,2019-09-22T22:56:44.000Z,6-1,207,11/17/1996,Alabama,S,SF,PIT,3,Levis Stadium,"Santa Clara, CSA",Outdoor,Natural grass,partly cloudy,79.0,36,3,NW
43790,2019092212,20190922123444,away,38.46,20.69,4.53,3.96,0.43,135.68,194.05,2562243,Devin Bush,55,2019,25,4,10:22:00,SF,1,10,SF,17,20,2558918,SINGLEBACK,"2 RB, 1 TE, 2 WR",7,"3 DL, 4 LB, 4 DB",right,2019-09-22T22:56:45.000Z,2019-09-22T22:56:44.000Z,5-11,233,07/18/1998,Michigan,LB,SF,PIT,3,Levis Stadium,"Santa Clara, CSA",Outdoor,Natural grass,partly cloudy,79.0,36,3,NW
43791,2019092212,20190922123444,home,32.5,20.78,4.63,0.82,0.48,150.95,191.41,2508140,Mike Person,68,2019,25,4,10:22:00,SF,1,10,SF,17,20,2558918,SINGLEBACK,"2 RB, 1 TE, 2 WR",7,"3 DL, 4 LB, 4 DB",right,2019-09-22T22:56:45.000Z,2019-09-22T22:56:44.000Z,6-4,299,06/17/1988,Montana State,C,SF,PIT,3,Levis Stadium,"Santa Clara, CSA",Outdoor,Natural grass,partly cloudy,79.0,36,3,NW
43792,2019092212,20190922123444,home,35.75,32.83,4.91,2.44,0.48,152.36,151.43,2539964,Marquise Goodwin,11,2019,25,4,10:22:00,SF,1,10,SF,17,20,2558918,SINGLEBACK,"2 RB, 1 TE, 2 WR",7,"3 DL, 4 LB, 4 DB",right,2019-09-22T22:56:45.000Z,2019-09-22T22:56:44.000Z,5-9,179,11/19/1990,Texas,WR,SF,PIT,3,Levis Stadium,"Santa Clara, CSA",Outdoor,Natural grass,partly cloudy,79.0,36,3,NW
43793,2019092212,20190922123444,home,35.47,16.81,4.38,3.0,0.42,141.35,147.8,2540230,Kyle Juszczyk,44,2019,25,4,10:22:00,SF,1,10,SF,17,20,2558918,SINGLEBACK,"2 RB, 1 TE, 2 WR",7,"3 DL, 4 LB, 4 DB",right,2019-09-22T22:56:45.000Z,2019-09-22T22:56:44.000Z,6-1,240,04/23/1991,Harvard,RB,SF,PIT,3,Levis Stadium,"Santa Clara, CSA",Outdoor,Natural grass,partly cloudy,79.0,36,3,NW
43794,2019092212,20190922123444,home,34.34,23.08,3.05,0.93,0.32,76.05,187.07,2543705,Weston Richburg,58,2019,25,4,10:22:00,SF,1,10,SF,17,20,2558918,SINGLEBACK,"2 RB, 1 TE, 2 WR",7,"3 DL, 4 LB, 4 DB",right,2019-09-22T22:56:45.000Z,2019-09-22T22:56:44.000Z,6-4,290,07/09/1991,Colorado State,C,SF,PIT,3,Levis Stadium,"Santa Clara, CSA",Outdoor,Natural grass,partly cloudy,79.0,36,3,NW
43795,2019092212,20190922123444,home,31.1,25.49,2.75,3.59,0.27,318.64,288.95,2543801,Jimmy Garoppolo,10,2019,25,4,10:22:00,SF,1,10,SF,17,20,2558918,SINGLEBACK,"2 RB, 1 TE, 2 WR",7,"3 DL, 4 LB, 4 DB",right,2019-09-22T22:56:45.000Z,2019-09-22T22:56:44.000Z,6-2,225,11/02/1991,Eastern Illinois,QB,SF,PIT,3,Levis Stadium,"Santa Clara, CSA",Outdoor,Natural grass,partly cloudy,79.0,36,3,NW
43796,2019092212,20190922123444,home,36.32,24.13,5.12,2.42,0.53,133.69,163.0,2552345,Laken Tomlinson,75,2019,25,4,10:22:00,SF,1,10,SF,17,20,2558918,SINGLEBACK,"2 RB, 1 TE, 2 WR",7,"3 DL, 4 LB, 4 DB",right,2019-09-22T22:56:45.000Z,2019-09-22T22:56:44.000Z,6-3,312,02/09/1992,Duke,G,SF,PIT,3,Levis Stadium,"Santa Clara, CSA",Outdoor,Natural grass,partly cloudy,79.0,36,3,NW
43797,2019092212,20190922123444,home,34.83,21.29,2.16,2.26,0.22,45.38,159.15,2558266,George Kittle,85,2019,25,4,10:22:00,SF,1,10,SF,17,20,2558918,SINGLEBACK,"2 RB, 1 TE, 2 WR",7,"3 DL, 4 LB, 4 DB",right,2019-09-22T22:56:45.000Z,2019-09-22T22:56:44.000Z,6-4,250,10/09/1993,Iowa,TE,SF,PIT,3,Levis Stadium,"Santa Clara, CSA",Outdoor,Natural grass,partly cloudy,79.0,36,3,NW
43798,2019092212,20190922123444,home,28.57,22.23,6.09,1.54,0.6,109.76,159.72,2558918,Matt Breida,22,2019,25,4,10:22:00,SF,1,10,SF,17,20,2558918,SINGLEBACK,"2 RB, 1 TE, 2 WR",7,"3 DL, 4 LB, 4 DB",right,2019-09-22T22:56:45.000Z,2019-09-22T22:56:44.000Z,5-11,190,02/28/1995,Georgia Southern,RB,SF,PIT,3,Levis Stadium,"Santa Clara, CSA",Outdoor,Natural grass,partly cloudy,79.0,36,3,NW
43799,2019092212,20190922123444,home,32.75,19.54,4.65,0.97,0.46,180.47,187.3,2560805,Mike McGlinchey,69,2019,25,4,10:22:00,SF,1,10,SF,17,20,2558918,SINGLEBACK,"2 RB, 1 TE, 2 WR",7,"3 DL, 4 LB, 4 DB",right,2019-09-22T22:56:45.000Z,2019-09-22T22:56:44.000Z,6-8,315,01/12/1995,Notre Dame,OT,SF,PIT,3,Levis Stadium,"Santa Clara, CSA",Outdoor,Natural grass,partly cloudy,79.0,36,3,NW
43800,2019092212,20190922123444,home,35.22,35.5,3.82,2.33,0.37,115.56,118.89,2562721,Deebo Samuel,19,2019,25,4,10:22:00,SF,1,10,SF,17,20,2558918,SINGLEBACK,"2 RB, 1 TE, 2 WR",7,"3 DL, 4 LB, 4 DB",right,2019-09-22T22:56:45.000Z,2019-09-22T22:56:44.000Z,6-0,214,01/15/1996,South Carolina,WR,SF,PIT,3,Levis Stadium,"Santa Clara, CSA",Outdoor,Natural grass,partly cloudy,79.0,36,3,NW
43801,2019092212,20190922123444,home,34.53,25.5,4.06,1.67,0.43,108.37,169.65,2562927,Justin Skule,67,2019,25,4,10:22:00,SF,1,10,SF,17,20,2558918,SINGLEBACK,"2 RB, 1 TE, 2 WR",7,"3 DL, 4 LB, 4 DB",right,2019-09-22T22:56:45.000Z,2019-09-22T22:56:44.000Z,6-6,318,11/23/1996,Vanderbilt,T,SF,PIT,3,Levis Stadium,"Santa Clara, CSA",Outdoor,Natural grass,partly cloudy,79.0,36,3,NW
