,GameId,PlayId,Team,X,Y,S,A,Dis,Orientation,Dir,NflId,DisplayName,JerseyNumber,Season,YardLine,Quarter,GameClock,PossessionTeam,Down,Distance,FieldPosition,HomeScoreBeforePlay,VisitorScoreBeforePlay,NflIdRusher,OffenseFormation,OffensePersonnel,DefendersInTheBox,DefensePersonnel,PlayDirection,TimeHandoff,TimeSnap,PlayerHeight,PlayerWeight,PlayerBirthDate,PlayerCollegeName,Position,HomeTeamAbbr,VisitorTeamAbbr,Week,Stadium,Location,StadiumType,Turf,GameWeather,Temperature,Humidity,WindSpeed,WindDirection
8756,2019090808,20190908082733,away,102.39,23.34,3.58,0.67,0.38,223.23,187.29,71465,Andre Smith,71,2019,8,3,05:30:00,CIN,1,10,CIN,14,17,2540156,SINGLEBACK,"1 RB, 1 TE, 3 WR",7,"4 DL, 3 LB, 4 DB",left,2019-09-08T22:15:50.000Z,2019-09-08T22:15:49.000Z,6-4,330,01/25/1987,Alabama,T,SEA,CIN,1,CenturyLink Field,"Seattle, WA",Outdoor,FieldTurf,Cloudy,64.0,82,7,S
8757,2019090808,20190908082733,away,106.84,27.83,4.65,3.77,0.46,118.99,105.18,2495143,Andy Dalton,14,2019,8,3,05:30:00,CIN,1,10,CIN,14,17,2540156,SINGLEBACK,"1 RB, 1 TE, 3 WR",7,"4 DL, 3 LB, 4 DB",left,2019-09-08T22:15:50.000Z,2019-09-08T22:15:49.000Z,6-2,220,10/29/1987,Texas Christian,QB,SEA,CIN,1,CenturyLink Field,"Seattle, WA",Outdoor,FieldTurf,Cloudy,64.0,82,7,S
8758,2019090808,20190908082733,away,107.47,26.78,5.62,2.75,0.56,205.77,213.61,2540156,Giovani Bernard,25,2019,8,3,05:30:00,CIN,1,10,CIN,14,17,2540156,SINGLEBACK,"1 RB, 1 TE, 3 WR",7,"4 DL, 3 LB, 4 DB",left,2019-09-08T22:15:50.000Z,2019-09-08T22:15:49.000Z,5-9,205,11/22/1991,North Carolina,HB,SEA,CIN,1,CenturyLink Field,"Seattle, WA",Outdoor,FieldTurf,Cloudy,64.0,82,7,S
8759,2019090808,20190908082733,away,102.07,25.56,3.98,1.34,0.43,216.82,196.46,2550208,Trey Hopkins,66,2019,8,3,05:30:00,CIN,1,10,CIN,14,17,2540156,SINGLEBACK,"1 RB, 1 TE, 3 WR",7,"4 DL, 3 LB, 4 DB",left,2019-09-08T22:15:50.000Z,2019-09-08T22:15:49.000Z,6-3,316,07/06/1992,Texas,G,SEA,CIN,1,CenturyLink Field,"Seattle, WA",Outdoor,FieldTurf,Cloudy,64.0,82,7,S
8760,2019090808,20190908082733,away,103.72,29.44,3.02,0.92,0.3,295.38,173.57,2552335,Bobby Hart,68,2019,8,3,05:30:00,CIN,1,10,CIN,14,17,2540156,SINGLEBACK,"1 RB, 1 TE, 3 WR",7,"4 DL, 3 LB, 4 DB",left,2019-09-08T22:15:50.000Z,2019-09-08T22:15:49.000Z,6-5,310,08/21/1994,Florida State,OT,SEA,CIN,1,CenturyLink Field,"Seattle, WA",Outdoor,FieldTurf,Cloudy,64.0,82,7,S
8761,2019090808,20190908082733,away,102.39,20.26,4.36,1.46,0.44,243.53,203.33,2552559,C.J. Uzomah,87,2019,8,3,05:30:00,CIN,1,10,CIN,14,17,2540156,SINGLEBACK,"1 RB, 1 TE, 3 WR",7,"4 DL, 3 LB, 4 DB",left,2019-09-08T22:15:50.000Z,2019-09-08T22:15:49.000Z,6-6,260,01/14/1993,Auburn,TE,SEA,CIN,1,CenturyLink Field,"Seattle, WA",Outdoor,FieldTurf,Cloudy,64.0,82,7,S
8762,2019090808,20190908082733,away,102.56,27.65,3.81,1.15,0.41,225.89,191.61,2553436,John Miller,67,2019,8,3,05:30:00,CIN,1,10,CIN,14,17,2540156,SINGLEBACK,"1 RB, 1 TE, 3 WR",7,"4 DL, 3 LB, 4 DB",left,2019-09-08T22:15:50.000Z,2019-09-08T22:15:49.000Z,6-3,315,08/12/1993,Louisville,G,SEA,CIN,1,CenturyLink Field,"Seattle, WA",Outdoor,FieldTurf,Cloudy,64.0,82,7,S
8763,2019090808,20190908082733,away,102.78,32.09,3.45,0.78,0.35,259.56,188.68,2555466,Tyler Boyd,83,2019,8,3,05:30:00,CIN,1,10,CIN,14,17,2540156,SINGLEBACK,"1 RB, 1 TE, 3 WR",7,"4 DL, 3 LB, 4 DB",left,2019-09-08T22:15:50.000Z,2019-09-08T22:15:49.000Z,6-2,203,11/15/1994,Pittsburgh,WR,SEA,CIN,1,CenturyLink Field,"Seattle, WA",Outdoor,FieldTurf,Cloudy,64.0,82,7,S
8764,2019090808,20190908082733,away,100.83,37.24,4.66,2.04,0.46,239.61,266.65,2558010,John Ross,11,2019,8,3,05:30:00,CIN,1,10,CIN,14,17,2540156,SINGLEBACK,"1 RB, 1 TE, 3 WR",7,"4 DL, 3 LB, 4 DB",left,2019-09-08T22:15:50.000Z,2019-09-08T22:15:49.000Z,5-11,194,11/27/1995,Washington,WR,SEA,CIN,1,CenturyLink Field,"Seattle, WA",Outdoor,FieldTurf,Cloudy,64.0,82,7,S
8765,2019090808,20190908082733,away,102.54,24.88,4.12,1.2,0.4,184.37,189.74,2562679,Mike Jordan,60,2019,8,3,05:30:00,CIN,1,10,CIN,14,17,2540156,SINGLEBACK,"1 RB, 1 TE, 3 WR",7,"4 DL, 3 LB, 4 DB",left,2019-09-08T22:15:50.000Z,2019-09-08T22:15:49.000Z,6-6,315,01/25/1998,Ohio State,OG,SEA,CIN,1,CenturyLink Field,"Seattle, WA",Outdoor,FieldTurf,Cloudy,64.0,82,7,S
8766,2019090808,20190908082733,away,99.83,8.29,5.62,2.59,0.56,230.63,233.57,2563238,Damion Willis,15,2019,8,3,05:30:00,CIN,1,10,CIN,14,17,2540156,SINGLEBACK,"1 RB, 1 TE, 3 WR",7,"4 DL, 3 LB, 4 DB",left,2019-09-08T22:15:50.000Z,2019-09-08T22:15:49.000Z,6-3,204,06/20/1997,Troy,WR,SEA,CIN,1,CenturyLink Field,"Seattle, WA",Outdoor,FieldTurf,Cloudy,64.0,82,7,S
8767,2019090808,20190908082733,home,101.83,27.16,4.08,1.43,0.42,108.71,188.13,496881,Al Woods,72,2019,8,3,05:30:00,CIN,1,10,CIN,14,17,2540156,SINGLEBACK,"1 RB, 1 TE, 3 WR",7,"4 DL, 3 LB, 4 DB",left,2019-09-08T22:15:50.000Z,2019-09-08T22:15:49.000Z,6-4,330,03/25/1987,Louisiana State,DT,SEA,CIN,1,CenturyLink Field,"Seattle, WA",Outdoor,FieldTurf,Cloudy,64.0,82,7,S
8768,2019090808,20190908082733,home,101.05,34.26,1.64,1.43,0.16,97.25,185.96,2495252,K.J. Wright,50,2019,8,3,05:30:00,CIN,1,10,CIN,14,17,2540156,SINGLEBACK,"1 RB, 1 TE, 3 WR",7,"4 DL, 3 LB, 4 DB",left,2019-09-08T22:15:50.000Z,2019-09-08T22:15:49.000Z,6-4,246,07/23/1989,Mississippi State,OLB,SEA,CIN,1,CenturyLink Field,"Seattle, WA",Outdoor,FieldTurf,Cloudy,64.0,82,7,S
8769,2019090808,20190908082733,home,101.44,20.12,4.02,2.02,0.4,82.74,187.35,2532890,Mychal Kendricks,56,2019,8,3,05:30:00,CIN,1,10,CIN,14,17,2540156,SINGLEBACK,"1 RB, 1 TE, 3 WR",7,"4 DL, 3 LB, 4 DB",left,2019-09-08T22:15:50.000Z,2019-09-08T22:15:49.000Z,5-11,240,09/28/1990,California,OLB,SEA,CIN,1,CenturyLink Field,"Seattle, WA",Outdoor,FieldTurf,Cloudy,64.0,82,7,S
8770,2019090808,20190908082733,home,99.58,25.78,3.9,0.64,0.39,127.61,173.35,2532966,Bobby Wagner,54,2019,8,3,05:30:00,CIN,1,10,CIN,14,17,2540156,SINGLEBACK,"1 RB, 1 TE, 3 WR",7,"4 DL, 3 LB, 4 DB",left,2019-09-08T22:15:50.000Z,2019-09-08T22:15:49.000Z,6-0,242,06/27/1990,Utah State,MLB,SEA,CIN,1,CenturyLink Field,"Seattle, WA",Outdoor,FieldTurf,Cloudy,64.0,82,7,S
8771,2019090808,20190908082733,home,93.46,30.7,3.28,1.45,0.32,106.04,178.3,2539243,Bradley McDougald,30,2019,8,3,05:30:00,CIN,1,10,CIN,14,17,2540156,SINGLEBACK,"1 RB, 1 TE, 3 WR",7,"4 DL, 3 LB, 4 DB",left,2019-09-08T22:15:50.000Z,2019-09-08T22:15:49.000Z,6-1,215,11/15/1990,Kansas,SS,SEA,CIN,1,CenturyLink Field,"Seattle, WA",Outdoor,FieldTurf,Cloudy,64.0,82,7,S
8772,2019090808,20190908082733,home,102.93,30.15,2.65,1.87,0.28,136.56,169.16,2543456,Jadeveon Clowney,90,2019,8,3,05:30:00,CIN,1,10,CIN,14,17,2540156,SINGLEBACK,"1 RB, 1 TE, 3 WR",7,"4 DL, 3 LB, 4 DB",left,2019-09-08T22:15:50.000Z,2019-09-08T22:15:49.000Z,6-5,255,02/14/1993,South Carolina,OLB,SEA,CIN,1,CenturyLink Field,"Seattle, WA",Outdoor,FieldTurf,Cloudy,64.0,82,7,S
8773,2019090808,20190908082733,home,102.06,22.78,4.16,0.71,0.43,23.57,171.09,2556880,Branden Jackson,93,2019,8,3,05:30:00,CIN,1,10,CIN,14,17,2540156,SINGLEBACK,"1 RB, 1 TE, 3 WR",7,"4 DL, 3 LB, 4 DB",left,2019-09-08T22:15:50.000Z,2019-09-08T22:15:49.000Z,6-4,295,11/11/1992,Texas Tech,DE,SEA,CIN,1,CenturyLink Field,"Seattle, WA",Outdoor,FieldTurf,Cloudy,64.0,82,7,S
8774,2019090808,20190908082733,home,88.71,24.38,2.24,1.04,0.22,107.4,239.66,2557881,Tedric Thompson,33,2019,8,3,05:30:00,CIN,1,10,CIN,14,17,2540156,SINGLEBACK,"1 RB, 1 TE, 3 WR",7,"4 DL, 3 LB, 4 DB",left,2019-09-08T22:15:50.000Z,2019-09-08T22:15:49.000Z,6-0,204,01/20/1995,Colorado,FS,SEA,CIN,1,CenturyLink Field,"Seattle, WA",Outdoor,FieldTurf,Cloudy,64.0,82,7,S
8775,2019090808,20190908082733,home,94.67,40.58,1.71,1.76,0.17,164.14,298.23,2558259,Shaquill Griffin,26,2019,8,3,05:30:00,CIN,1,10,CIN,14,17,2540156,SINGLEBACK,"1 RB, 1 TE, 3 WR",7,"4 DL, 3 LB, 4 DB",left,2019-09-08T22:15:50.000Z,2019-09-08T22:15:49.000Z,6-0,198,07/20/1995,Central Florida,CB,SEA,CIN,1,CenturyLink Field,"Seattle, WA",Outdoor,FieldTurf,Cloudy,64.0,82,7,S
8776,2019090808,20190908082733,home,98.16,8.94,3.82,3.01,0.37,182.65,234.85,2560728,Tre Flowers,21,2019,8,3,05:30:00,CIN,1,10,CIN,14,17,2540156,SINGLEBACK,"1 RB, 1 TE, 3 WR",7,"4 DL, 3 LB, 4 DB",left,2019-09-08T22:15:50.000Z,2019-09-08T22:15:49.000Z,6-3,203,06/02/1995,Oklahoma State,CB,SEA,CIN,1,CenturyLink Field,"Seattle, WA",Outdoor,FieldTurf,Cloudy,64.0,82,7,S
8777,2019090808,20190908082733,home,101.66,24.56,4.51,1.56,0.44,140.01,185.18,2562914,Bryan Mone,79,2019,8,3,05:30:00,CIN,1,10,CIN,14,17,2540156,SINGLEBACK,"1 RB, 1 TE, 3 WR",7,"4 DL, 3 LB, 4 DB",left,2019-09-08T22:15:50.000Z,2019-09-08T22:15:49.000Z,6-3,345,10/20/1995,Michigan,NT,SEA,CIN,1,CenturyLink Field,"Seattle, WA",Outdoor,FieldTurf,Cloudy,64.0,82,7,S
