,GameId,PlayId,Team,X,Y,S,A,Dis,Orientation,Dir,NflId,DisplayName,JerseyNumber,Season,YardLine,Quarter,GameClock,PossessionTeam,Down,Distance,FieldPosition,HomeScoreBeforePlay,VisitorScoreBeforePlay,NflIdRusher,OffenseFormation,OffensePersonnel,DefendersInTheBox,DefensePersonnel,PlayDirection,TimeHandoff,TimeSnap,PlayerHeight,PlayerWeight,PlayerBirthDate,PlayerCollegeName,Position,HomeTeamAbbr,VisitorTeamAbbr,Week,Stadium,Location,StadiumType,Turf,GameWeather,Temperature,Humidity,WindSpeed,WindDirection
53306,2019092906,20190929062291,away,35.61,30.54,0.55,0.92,0.05,249.95,131.45,2495677,Brandon Mebane,92,2019,26,3,14:21:00,MIA,2,2,MIA,10,17,2555230,SINGLEBACK,"1 RB, 3 TE, 1 WR",6,"3 DL, 4 LB, 4 DB",right,2019-09-29T18:41:41.000Z,2019-09-29T18:41:40.000Z,6-1,311,01/15/1985,California,NT,MIA,LAC,4,Hard Rock Stadium,"Miami Gardens, FL",Outdoor,Natural Grass,Mostly Cloudy,88.0,53,15,ENE
53307,2019092906,20190929062291,away,39.02,28.71,1.68,2.3,0.16,271.25,291.65,2506352,Thomas Davis,58,2019,26,3,14:21:00,MIA,2,2,MIA,10,17,2555230,SINGLEBACK,"1 RB, 3 TE, 1 WR",6,"3 DL, 4 LB, 4 DB",right,2019-09-29T18:41:41.000Z,2019-09-29T18:41:40.000Z,6-1,235,03/22/1983,Georgia,OLB,MIA,LAC,4,Hard Rock Stadium,"Miami Gardens, FL",Outdoor,Natural Grass,Mostly Cloudy,88.0,53,15,ENE
53308,2019092906,20190929062291,away,42.25,10.88,3.12,2.08,0.3,6.79,67.52,2532861,Casey Hayward,26,2019,26,3,14:21:00,MIA,2,2,MIA,10,17,2555230,SINGLEBACK,"1 RB, 3 TE, 1 WR",6,"3 DL, 4 LB, 4 DB",right,2019-09-29T18:41:41.000Z,2019-09-29T18:41:40.000Z,5-11,192,09/09/1989,Vanderbilt,CB,MIA,LAC,4,Hard Rock Stadium,"Miami Gardens, FL",Outdoor,Natural Grass,Mostly Cloudy,88.0,53,15,ENE
53309,2019092906,20190929062291,away,37.86,31.57,3.02,1.29,0.31,258.16,256.25,2552310,Denzel Perryman,52,2019,26,3,14:21:00,MIA,2,2,MIA,10,17,2555230,SINGLEBACK,"1 RB, 3 TE, 1 WR",6,"3 DL, 4 LB, 4 DB",right,2019-09-29T18:41:41.000Z,2019-09-29T18:41:40.000Z,5-11,240,12/05/1992,Miami,ILB,MIA,LAC,4,Hard Rock Stadium,"Miami Gardens, FL",Outdoor,Natural Grass,Mostly Cloudy,88.0,53,15,ENE
53310,2019092906,20190929062291,away,35.35,33.7,0.09,0.98,0.01,206.63,148.85,2555249,Joey Bosa,97,2019,26,3,14:21:00,MIA,2,2,MIA,10,17,2555230,SINGLEBACK,"1 RB, 3 TE, 1 WR",6,"3 DL, 4 LB, 4 DB",right,2019-09-29T18:41:41.000Z,2019-09-29T18:41:40.000Z,6-5,280,07/11/1995,Ohio State,DE,MIA,LAC,4,Hard Rock Stadium,"Miami Gardens, FL",Outdoor,Natural Grass,Mostly Cloudy,88.0,53,15,ENE
53311,2019092906,20190929062291,away,52.14,28.48,2.72,1.18,0.27,282.76,122.05,2558182,Rayshawn Jenkins,23,2019,26,3,14:21:00,MIA,2,2,MIA,10,17,2555230,SINGLEBACK,"1 RB, 3 TE, 1 WR",6,"3 DL, 4 LB, 4 DB",right,2019-09-29T18:41:41.000Z,2019-09-29T18:41:40.000Z,6-2,220,01/25/1994,Miami,SS,MIA,LAC,4,Hard Rock Stadium,"Miami Gardens, FL",Outdoor,Natural Grass,Mostly Cloudy,88.0,53,15,ENE
53312,2019092906,20190929062291,away,38.97,33.91,4.02,1.63,0.39,254.85,238.21,2559164,Michael Davis,43,2019,26,3,14:21:00,MIA,2,2,MIA,10,17,2555230,SINGLEBACK,"1 RB, 3 TE, 1 WR",6,"3 DL, 4 LB, 4 DB",right,2019-09-29T18:41:41.000Z,2019-09-29T18:41:40.000Z,6-2,196,01/06/1995,Brigham Young,CB,MIA,LAC,4,Hard Rock Stadium,"Miami Gardens, FL",Outdoor,Natural Grass,Mostly Cloudy,88.0,53,15,ENE
53313,2019092906,20190929062291,away,36.0,28.25,0.9,0.79,0.09,288.6,76.97,2560769,Justin Jones,93,2019,26,3,14:21:00,MIA,2,2,MIA,10,17,2555230,SINGLEBACK,"1 RB, 3 TE, 1 WR",6,"3 DL, 4 LB, 4 DB",right,2019-09-29T18:41:41.000Z,2019-09-29T18:41:40.000Z,6-3,309,08/28/1996,North Carolina State,DT,MIA,LAC,4,Hard Rock Stadium,"Miami Gardens, FL",Outdoor,Natural Grass,Mostly Cloudy,88.0,53,15,ENE
53314,2019092906,20190929062291,away,35.99,25.06,0.96,2.07,0.09,313.08,135.98,2560826,Uchenna Nwosu,42,2019,26,3,14:21:00,MIA,2,2,MIA,10,17,2555230,SINGLEBACK,"1 RB, 3 TE, 1 WR",6,"3 DL, 4 LB, 4 DB",right,2019-09-29T18:41:41.000Z,2019-09-29T18:41:40.000Z,6-2,251,12/28/1996,Southern California,LB,MIA,LAC,4,Hard Rock Stadium,"Miami Gardens, FL",Outdoor,Natural Grass,Mostly Cloudy,88.0,53,15,ENE
53315,2019092906,20190929062291,away,36.32,35.65,0.56,1.94,0.05,231.5,164.76,2560928,Kyzir White,44,2019,26,3,14:21:00,MIA,2,2,MIA,10,17,2555230,SINGLEBACK,"1 RB, 3 TE, 1 WR",6,"3 DL, 4 LB, 4 DB",right,2019-09-29T18:41:41.000Z,2019-09-29T18:41:40.000Z,6-2,216,03/24/1996,West Virginia,LB,MIA,LAC,4,Hard Rock Stadium,"Miami Gardens, FL",Outdoor,Natural Grass,Mostly Cloudy,88.0,53,15,ENE
53316,2019092906,20190929062291,away,38.97,20.27,1.2,1.25,0.11,315.62,139.89,2562981,Roderic Teamer,36,2019,26,3,14:21:00,MIA,2,2,MIA,10,17,2555230,SINGLEBACK,"1 RB, 3 TE, 1 WR",6,"3 DL, 4 LB, 4 DB",right,2019-09-29T18:41:41.000Z,2019-09-29T18:41:40.000Z,5-11,205,05/12/1997,Tulane,DB,MIA,LAC,4,Hard Rock Stadium,"Miami Gardens, FL",Outdoor,Natural Grass,Mostly Cloudy,88.0,53,15,ENE
53317,2019092906,20190929062291,home,34.69,33.01,0.43,1.03,0.04,49.2,83.5,1037880,J'Marcus Webb,61,2019,26,3,14:21:00,MIA,2,2,MIA,10,17,2555230,SINGLEBACK,"1 RB, 3 TE, 1 WR",6,"3 DL, 4 LB, 4 DB",right,2019-09-29T18:41:41.000Z,2019-09-29T18:41:40.000Z,6-7,320,08/08/1988,West Texas A&M,T,MIA,LAC,4,Hard Rock Stadium,"Miami Gardens, FL",Outdoor,Natural Grass,Mostly Cloudy,88.0,53,15,ENE
53318,2019092906,20190929062291,home,35.4,30.14,0.67,0.53,0.07,82.57,110.71,2495299,Daniel Kilgore,67,2019,26,3,14:21:00,MIA,2,2,MIA,10,17,2555230,SINGLEBACK,"1 RB, 3 TE, 1 WR",6,"3 DL, 4 LB, 4 DB",right,2019-09-29T18:41:41.000Z,2019-09-29T18:41:40.000Z,6-3,291,12/18/1987,Appalachian State,C,MIA,LAC,4,Hard Rock Stadium,"Miami Gardens, FL",Outdoor,Natural Grass,Mostly Cloudy,88.0,53,15,ENE
53319,2019092906,20190929062291,home,34.84,31.86,3.15,2.76,0.31,103.18,108.3,2552403,Nick O'Leary,83,2019,26,3,14:21:00,MIA,2,2,MIA,10,17,2555230,SINGLEBACK,"1 RB, 3 TE, 1 WR",6,"3 DL, 4 LB, 4 DB",right,2019-09-29T18:41:41.000Z,2019-09-29T18:41:40.000Z,6-3,252,08/31/1992,Florida State,TE,MIA,LAC,4,Hard Rock Stadium,"Miami Gardens, FL",Outdoor,Natural Grass,Mostly Cloudy,88.0,53,15,ENE
53320,2019092906,20190929062291,home,35.39,28.63,0.8,0.78,0.08,96.65,91.69,2555181,Evan Boehm,76,2019,26,3,14:21:00,MIA,2,2,MIA,10,17,2555230,SINGLEBACK,"1 RB, 3 TE, 1 WR",6,"3 DL, 4 LB, 4 DB",right,2019-09-29T18:41:41.000Z,2019-09-29T18:41:40.000Z,6-3,321,08/19/1993,Missouri,G,MIA,LAC,4,Hard Rock Stadium,"Miami Gardens, FL",Outdoor,Natural Grass,Mostly Cloudy,88.0,53,15,ENE
53321,2019092906,20190929062291,home,31.0,30.3,4.17,2.47,0.4,100.11,89.28,2555230,Kenyan Drake,32,2019,26,3,14:21:00,MIA,2,2,MIA,10,17,2555230,SINGLEBACK,"1 RB, 3 TE, 1 WR",6,"3 DL, 4 LB, 4 DB",right,2019-09-29T18:41:41.000Z,2019-09-29T18:41:40.000Z,6-1,211,01/26/1994,Alabama,RB,MIA,LAC,4,Hard Rock Stadium,"Miami Gardens, FL",Outdoor,Natural Grass,Mostly Cloudy,88.0,53,15,ENE
53322,2019092906,20190929062291,home,30.78,29.53,3.43,0.64,0.34,289.57,268.23,2560858,Josh Rosen,3,2019,26,3,14:21:00,MIA,2,2,MIA,10,17,2555230,SINGLEBACK,"1 RB, 3 TE, 1 WR",6,"3 DL, 4 LB, 4 DB",right,2019-09-29T18:41:41.000Z,2019-09-29T18:41:40.000Z,6-4,226,02/10/1997,UCLA,QB,MIA,LAC,4,Hard Rock Stadium,"Miami Gardens, FL",Outdoor,Natural Grass,Mostly Cloudy,88.0,53,15,ENE
53323,2019092906,20190929062291,home,36.13,34.89,0.96,1.98,0.1,44.98,133.91,2560880,Durham Smythe,81,2019,26,3,14:21:00,MIA,2,2,MIA,10,17,2555230,SINGLEBACK,"1 RB, 3 TE, 1 WR",6,"3 DL, 4 LB, 4 DB",right,2019-09-29T18:41:41.000Z,2019-09-29T18:41:40.000Z,6-6,260,08/09/1995,Notre Dame,TE,MIA,LAC,4,Hard Rock Stadium,"Miami Gardens, FL",Outdoor,Natural Grass,Mostly Cloudy,88.0,53,15,ENE
53324,2019092906,20190929062291,home,36.62,22.41,4.65,1.98,0.46,129.05,120.08,2560994,Mike Gesicki,88,2019,26,3,14:21:00,MIA,2,2,MIA,10,17,2555230,SINGLEBACK,"1 RB, 3 TE, 1 WR",6,"3 DL, 4 LB, 4 DB",right,2019-09-29T18:41:41.000Z,2019-09-29T18:41:40.000Z,6-6,252,10/03/1995,Penn State,TE,MIA,LAC,4,Hard Rock Stadium,"Miami Gardens, FL",Outdoor,Natural Grass,Mostly Cloudy,88.0,53,15,ENE
53325,2019092906,20190929062291,home,35.29,30.78,0.44,0.8,0.05,114.5,165.5,2562255,Michael Deiter,63,2019,26,3,14:21:00,MIA,2,2,MIA,10,17,2555230,SINGLEBACK,"1 RB, 3 TE, 1 WR",6,"3 DL, 4 LB, 4 DB",right,2019-09-29T18:41:41.000Z,2019-09-29T18:41:40.000Z,6-6,310,09/03/1996,Wisconsin,OG,MIA,LAC,4,Hard Rock Stadium,"Miami Gardens, FL",Outdoor,Natural Grass,Mostly Cloudy,88.0,53,15,ENE
53326,2019092906,20190929062291,home,35.52,25.66,1.44,0.16,0.15,146.4,112.63,2562705,Isaiah Prince,72,2019,26,3,14:21:00,MIA,2,2,MIA,10,17,2555230,SINGLEBACK,"1 RB, 3 TE, 1 WR",6,"3 DL, 4 LB, 4 DB",right,2019-09-29T18:41:41.000Z,2019-09-29T18:41:40.000Z,6-7,305,07/29/1997,Ohio State,T,MIA,LAC,4,Hard Rock Stadium,"Miami Gardens, FL",Outdoor,Natural Grass,Mostly Cloudy,88.0,53,15,ENE
53327,2019092906,20190929062291,home,36.12,11.95,5.17,1.98,0.5,72.06,68.41,2562805,Preston Williams,18,2019,26,3,14:21:00,MIA,2,2,MIA,10,17,2555230,SINGLEBACK,"1 RB, 3 TE, 1 WR",6,"3 DL, 4 LB, 4 DB",right,2019-09-29T18:41:41.000Z,2019-09-29T18:41:40.000Z,6-5,218,03/27/1997,Colorado State,WR,MIA,LAC,4,Hard Rock Stadium,"Miami Gardens, FL",Outdoor,Natural Grass,Mostly Cloudy,88.0,53,15,ENE
