,GameId,PlayId,Team,X,Y,S,A,Dis,Orientation,Dir,NflId,DisplayName,JerseyNumber,Season,YardLine,Quarter,GameClock,PossessionTeam,Down,Distance,FieldPosition,HomeScoreBeforePlay,VisitorScoreBeforePlay,NflIdRusher,OffenseFormation,OffensePersonnel,DefendersInTheBox,DefensePersonnel,PlayDirection,TimeHandoff,TimeSnap,PlayerHeight,PlayerWeight,PlayerBirthDate,PlayerCollegeName,Position,HomeTeamAbbr,VisitorTeamAbbr,Week,Stadium,Location,StadiumType,Turf,GameWeather,Temperature,Humidity,WindSpeed,WindDirection
4598,2019090804,20190908040525,away,89.23,29.32,2.93,1.05,0.29,120.96,98.94,310,Matt Ryan,2,2019,25,1,08:22:00,ATL,1,10,ATL,14,0,2543583,SINGLEBACK,"1 RB, 1 TE, 3 WR",7,"4 DL, 2 LB, 5 DB",left,2019-09-08T17:27:21.000Z,2019-09-08T17:27:20.000Z,6-4,217,05/17/1985,Boston College,QB,MIN,ATL,1,U.S. Bank Stadium,"Minneapolis, MN",Indoors,Field Turf,N/A (Indoors),,0,,
4599,2019090804,20190908040525,away,83.44,26.11,4.17,1.72,0.42,273.55,204.01,71375,Alex Mack,51,2019,25,1,08:22:00,ATL,1,10,ATL,14,0,2543583,SINGLEBACK,"1 RB, 1 TE, 3 WR",7,"4 DL, 2 LB, 5 DB",left,2019-09-08T17:27:21.000Z,2019-09-08T17:27:20.000Z,6-4,311,11/19/1985,California,C,MIN,ATL,1,U.S. Bank Stadium,"Minneapolis, MN",Indoors,Field Turf,N/A (Indoors),,0,,
4600,2019090804,20190908040525,away,85.6,25.04,3.51,0.75,0.36,277.31,186.91,2495134,James Carpenter,77,2019,25,1,08:22:00,ATL,1,10,ATL,14,0,2543583,SINGLEBACK,"1 RB, 1 TE, 3 WR",7,"4 DL, 2 LB, 5 DB",left,2019-09-08T17:27:21.000Z,2019-09-08T17:27:20.000Z,6-5,321,03/22/1989,Alabama,G,MIN,ATL,1,U.S. Bank Stadium,"Minneapolis, MN",Indoors,Field Turf,N/A (Indoors),,0,,
4601,2019090804,20190908040525,away,92.12,26.59,5.66,2.94,0.55,219.45,183.06,2543583,Devonta Freeman,24,2019,25,1,08:22:00,ATL,1,10,ATL,14,0,2543583,SINGLEBACK,"1 RB, 1 TE, 3 WR",7,"4 DL, 2 LB, 5 DB",left,2019-09-08T17:27:21.000Z,2019-09-08T17:27:20.000Z,5-8,206,03/15/1992,Florida State,RB,MIN,ATL,1,U.S. Bank Stadium,"Minneapolis, MN",Indoors,Field Turf,N/A (Indoors),,0,,
4602,2019090804,20190908040525,away,87.1,22.61,4.78,1.78,0.5,223.52,186.67,2543758,Jake Matthews,70,2019,25,1,08:22:00,ATL,1,10,ATL,14,0,2543583,SINGLEBACK,"1 RB, 1 TE, 3 WR",7,"4 DL, 2 LB, 5 DB",left,2019-09-08T17:27:21.000Z,2019-09-08T17:27:20.000Z,6-5,309,02/11/1992,Texas A&M,T,MIN,ATL,1,U.S. Bank Stadium,"Minneapolis, MN",Indoors,Field Turf,N/A (Indoors),,0,,
4603,2019090804,20190908040525,away,83.58,29.87,5.02,1.03,0.57,265.47,224.11,2552366,Ty Sambrailo,74,2019,25,1,08:22:00,ATL,1,10,ATL,14,0,2543583,SINGLEBACK,"1 RB, 1 TE, 3 WR",7,"4 DL, 2 LB, 5 DB",left,2019-09-08T17:27:21.000Z,2019-09-08T17:27:20.000Z,6-5,315,03/10/1992,Colorado State,T,MIN,ATL,1,U.S. Bank Stadium,"Minneapolis, MN",Indoors,Field Turf,N/A (Indoors),,0,,
4604,2019090804,20190908040525,away,85.37,23.54,0.65,2.33,0.05,292.81,224.52,2552418,Justin Hardy,14,2019,25,1,08:22:00,ATL,1,10,ATL,14,0,2543583,SINGLEBACK,"1 RB, 1 TE, 3 WR",7,"4 DL, 2 LB, 5 DB",left,2019-09-08T17:27:21.000Z,2019-09-08T17:27:20.000Z,5-10,192,12/18/1991,East Carolina,WR,MIN,ATL,1,U.S. Bank Stadium,"Minneapolis, MN",Indoors,Field Turf,N/A (Indoors),,0,,
4605,2019090804,20190908040525,away,86.79,20.89,5.83,2.56,0.57,220.31,194.49,2555415,Austin Hooper,81,2019,25,1,08:22:00,ATL,1,10,ATL,14,0,2543583,SINGLEBACK,"1 RB, 1 TE, 3 WR",7,"4 DL, 2 LB, 5 DB",left,2019-09-08T17:27:21.000Z,2019-09-08T17:27:20.000Z,6-4,254,10/29/1994,Stanford,TE,MIN,ATL,1,U.S. Bank Stadium,"Minneapolis, MN",Indoors,Field Turf,N/A (Indoors),,0,,
4606,2019090804,20190908040525,away,90.04,33.69,7.28,2.24,0.74,343.92,7.13,2560854,Calvin Ridley,18,2019,25,1,08:22:00,ATL,1,10,ATL,14,0,2543583,SINGLEBACK,"1 RB, 1 TE, 3 WR",7,"4 DL, 2 LB, 5 DB",left,2019-09-08T17:27:21.000Z,2019-09-08T17:27:20.000Z,6-1,190,12/20/1994,Alabama,WR,MIN,ATL,1,U.S. Bank Stadium,"Minneapolis, MN",Indoors,Field Turf,N/A (Indoors),,0,,
4607,2019090804,20190908040525,away,82.85,46.15,5.27,2.66,0.52,264.11,294.0,2561061,Russell Gage,83,2019,25,1,08:22:00,ATL,1,10,ATL,14,0,2543583,SINGLEBACK,"1 RB, 1 TE, 3 WR",7,"4 DL, 2 LB, 5 DB",left,2019-09-08T17:27:21.000Z,2019-09-08T17:27:20.000Z,6-0,184,01/22/1996,Louisiana State,WR,MIN,ATL,1,U.S. Bank Stadium,"Minneapolis, MN",Indoors,Field Turf,N/A (Indoors),,0,,
4608,2019090804,20190908040525,away,85.88,27.8,3.81,0.77,0.39,212.57,177.02,2562303,Chris Lindstrom,63,2019,25,1,08:22:00,ATL,1,10,ATL,14,0,2543583,SINGLEBACK,"1 RB, 1 TE, 3 WR",7,"4 DL, 2 LB, 5 DB",left,2019-09-08T17:27:21.000Z,2019-09-08T17:27:20.000Z,6-4,307,02/08/1997,Boston College,G,MIN,ATL,1,U.S. Bank Stadium,"Minneapolis, MN",Indoors,Field Turf,N/A (Indoors),,0,,
4609,2019090804,20190908040525,home,84.92,23.62,1.48,1.38,0.16,77.73,182.07,496790,Everson Griffen,97,2019,25,1,08:22:00,ATL,1,10,ATL,14,0,2543583,SINGLEBACK,"1 RB, 1 TE, 3 WR",7,"4 DL, 2 LB, 5 DB",left,2019-09-08T17:27:21.000Z,2019-09-08T17:27:20.000Z,6-3,273,12/22/1987,Southern California,DE,MIN,ATL,1,U.S. Bank Stadium,"Minneapolis, MN",Indoors,Field Turf,N/A (Indoors),,0,,
4610,2019090804,20190908040525,home,85.01,27.46,3.4,0.94,0.35,104.35,172.99,496802,Linval Joseph,98,2019,25,1,08:22:00,ATL,1,10,ATL,14,0,2543583,SINGLEBACK,"1 RB, 1 TE, 3 WR",7,"4 DL, 2 LB, 5 DB",left,2019-09-08T17:27:21.000Z,2019-09-08T17:27:20.000Z,6-4,329,10/10/1988,East Carolina,DT,MIN,ATL,1,U.S. Bank Stadium,"Minneapolis, MN",Indoors,Field Turf,N/A (Indoors),,0,,
4611,2019090804,20190908040525,home,74.17,38.12,1.05,2.43,0.12,99.41,331.88,2532948,Harrison Smith,22,2019,25,1,08:22:00,ATL,1,10,ATL,14,0,2543583,SINGLEBACK,"1 RB, 1 TE, 3 WR",7,"4 DL, 2 LB, 5 DB",left,2019-09-08T17:27:21.000Z,2019-09-08T17:27:20.000Z,6-2,214,02/02/1989,Notre Dame,FS,MIN,ATL,1,U.S. Bank Stadium,"Minneapolis, MN",Indoors,Field Turf,N/A (Indoors),,0,,
4612,2019090804,20190908040525,home,80.76,19.48,4.02,5.12,0.37,100.51,137.67,2540155,Xavier Rhodes,29,2019,25,1,08:22:00,ATL,1,10,ATL,14,0,2543583,SINGLEBACK,"1 RB, 1 TE, 3 WR",7,"4 DL, 2 LB, 5 DB",left,2019-09-08T17:27:21.000Z,2019-09-08T17:27:20.000Z,6-1,218,06/19/1990,Florida State,CB,MIN,ATL,1,U.S. Bank Stadium,"Minneapolis, MN",Indoors,Field Turf,N/A (Indoors),,0,,
4613,2019090804,20190908040525,home,81.79,33.92,0.81,3.01,0.09,99.53,54.18,2543459,Anthony Barr,55,2019,25,1,08:22:00,ATL,1,10,ATL,14,0,2543583,SINGLEBACK,"1 RB, 1 TE, 3 WR",7,"4 DL, 2 LB, 5 DB",left,2019-09-08T17:27:21.000Z,2019-09-08T17:27:20.000Z,6-5,255,03/18/1992,UCLA,OLB,MIN,ATL,1,U.S. Bank Stadium,"Minneapolis, MN",Indoors,Field Turf,N/A (Indoors),,0,,
4614,2019090804,20190908040525,home,84.71,25.15,3.68,0.39,0.37,97.1,178.7,2543706,Shamar Stephen,93,2019,25,1,08:22:00,ATL,1,10,ATL,14,0,2543583,SINGLEBACK,"1 RB, 1 TE, 3 WR",7,"4 DL, 2 LB, 5 DB",left,2019-09-08T17:27:21.000Z,2019-09-08T17:27:20.000Z,6-5,310,02/25/1991,Connecticut,NT,MIN,ATL,1,U.S. Bank Stadium,"Minneapolis, MN",Indoors,Field Turf,N/A (Indoors),,0,,
4615,2019090804,20190908040525,home,82.66,27.4,3.19,2.56,0.31,101.99,136.31,2552312,Eric Kendricks,54,2019,25,1,08:22:00,ATL,1,10,ATL,14,0,2543583,SINGLEBACK,"1 RB, 1 TE, 3 WR",7,"4 DL, 2 LB, 5 DB",left,2019-09-08T17:27:21.000Z,2019-09-08T17:27:20.000Z,6-0,232,02/29/1992,UCLA,MLB,MIN,ATL,1,U.S. Bank Stadium,"Minneapolis, MN",Indoors,Field Turf,N/A (Indoors),,0,,
4616,2019090804,20190908040525,home,81.57,45.15,4.89,5.87,0.46,30.51,294.17,2552448,Trae Waynes,26,2019,25,1,08:22:00,ATL,1,10,ATL,14,0,2543583,SINGLEBACK,"1 RB, 1 TE, 3 WR",7,"4 DL, 2 LB, 5 DB",left,2019-09-08T17:27:21.000Z,2019-09-08T17:27:20.000Z,6-0,190,07/25/1992,Michigan State,CB,MIN,ATL,1,U.S. Bank Stadium,"Minneapolis, MN",Indoors,Field Turf,N/A (Indoors),,0,,
4617,2019090804,20190908040525,home,84.35,32.31,4.81,1.29,0.49,111.23,181.35,2552603,Danielle Hunter,99,2019,25,1,08:22:00,ATL,1,10,ATL,14,0,2543583,SINGLEBACK,"1 RB, 1 TE, 3 WR",7,"4 DL, 2 LB, 5 DB",left,2019-09-08T17:27:21.000Z,2019-09-08T17:27:20.000Z,6-5,252,10/29/1994,Louisiana State,DE,MIN,ATL,1,U.S. Bank Stadium,"Minneapolis, MN",Indoors,Field Turf,N/A (Indoors),,0,,
4618,2019090804,20190908040525,home,74.33,22.96,2.51,3.44,0.24,106.13,162.92,2553655,Anthony Harris,41,2019,25,1,08:22:00,ATL,1,10,ATL,14,0,2543583,SINGLEBACK,"1 RB, 1 TE, 3 WR",7,"4 DL, 2 LB, 5 DB",left,2019-09-08T17:27:21.000Z,2019-09-08T17:27:20.000Z,6-1,202,10/09/1991,Virginia,FS,MIN,ATL,1,U.S. Bank Stadium,"Minneapolis, MN",Indoors,Field Turf,N/A (Indoors),,0,,
4619,2019090804,20190908040525,home,83.9,22.86,4.0,4.44,0.38,121.04,165.16,2555156,Jayron Kearse,27,2019,25,1,08:22:00,ATL,1,10,ATL,14,0,2543583,SINGLEBACK,"1 RB, 1 TE, 3 WR",7,"4 DL, 2 LB, 5 DB",left,2019-09-08T17:27:21.000Z,2019-09-08T17:27:20.000Z,6-4,215,02/11/1994,Clemson,SS,MIN,ATL,1,U.S. Bank Stadium,"Minneapolis, MN",Indoors,Field Turf,N/A (Indoors),,0,,
