,GameId,PlayId,Team,X,Y,S,A,Dis,Orientation,Dir,NflId,DisplayName,JerseyNumber,Season,YardLine,Quarter,GameClock,PossessionTeam,Down,Distance,FieldPosition,HomeScoreBeforePlay,VisitorScoreBeforePlay,NflIdRusher,OffenseFormation,OffensePersonnel,DefendersInTheBox,DefensePersonnel,PlayDirection,TimeHandoff,TimeSnap,PlayerHeight,PlayerWeight,PlayerBirthDate,PlayerCollegeName,Position,HomeTeamAbbr,VisitorTeamAbbr,Week,Stadium,Location,StadiumType,Turf,GameWeather,Temperature,Humidity,WindSpeed,WindDirection
36960,2019092205,20190922051634,away,101.41,22.2,1.38,0.42,0.14,216.03,176.61,2495171,Rodney Hudson,61,2019,9,2,05:10:00,OAK,1,10,OAK,21,7,2555464,SHOTGUN,"1 RB, 3 TE, 1 WR",6,"4 DL, 3 LB, 4 DB",left,2019-09-22T18:12:14.000Z,2019-09-22T18:12:13.000Z,6-2,315,07/12/1989,Florida State,C,MIN,OAK,3,U.S. Bank Stadium,"Minneapolis, MN",Indoors,Field Turf,N/A (Indoors),,0,,
36961,2019092205,20190922051634,away,100.73,20.01,3.08,0.67,0.31,236.21,215.76,2506420,Richie Incognito,64,2019,9,2,05:10:00,OAK,1,10,OAK,21,7,2555464,SHOTGUN,"1 RB, 3 TE, 1 WR",6,"4 DL, 3 LB, 4 DB",left,2019-09-22T18:12:14.000Z,2019-09-22T18:12:13.000Z,6-3,325,07/05/1983,Nebraska,G,MIN,OAK,3,U.S. Bank Stadium,"Minneapolis, MN",Indoors,Field Turf,N/A (Indoors),,0,,
36962,2019092205,20190922051634,away,100.1,30.95,2.59,1.3,0.25,281.83,272.51,2534241,Derek Carrier,85,2019,9,2,05:10:00,OAK,1,10,OAK,21,7,2555464,SHOTGUN,"1 RB, 3 TE, 1 WR",6,"4 DL, 3 LB, 4 DB",left,2019-09-22T18:12:14.000Z,2019-09-22T18:12:13.000Z,6-3,240,07/25/1990,Beloit,TE,MIN,OAK,3,U.S. Bank Stadium,"Minneapolis, MN",Indoors,Field Turf,N/A (Indoors),,0,,
36963,2019092205,20190922051634,away,101.1,24.97,0.43,1.06,0.04,280.94,228.42,2540247,Jordan Devey,65,2019,9,2,05:10:00,OAK,1,10,OAK,21,7,2555464,SHOTGUN,"1 RB, 3 TE, 1 WR",6,"4 DL, 3 LB, 4 DB",left,2019-09-22T18:12:14.000Z,2019-09-22T18:12:13.000Z,6-6,320,01/11/1988,Memphis,T,MIN,OAK,3,U.S. Bank Stadium,"Minneapolis, MN",Indoors,Field Turf,N/A (Indoors),,0,,
36964,2019092205,20190922051634,away,105.79,23.77,1.25,2.09,0.12,314.65,0.84,2543499,Derek Carr,4,2019,9,2,05:10:00,OAK,1,10,OAK,21,7,2555464,SHOTGUN,"1 RB, 3 TE, 1 WR",6,"4 DL, 3 LB, 4 DB",left,2019-09-22T18:12:14.000Z,2019-09-22T18:12:13.000Z,6-3,210,03/28/1991,Fresno State,QB,MIN,OAK,3,U.S. Bank Stadium,"Minneapolis, MN",Indoors,Field Turf,N/A (Indoors),,0,,
36965,2019092205,20190922051634,away,101.86,27.29,0.51,0.69,0.05,308.03,315.36,2552350,Trent Brown,77,2019,9,2,05:10:00,OAK,1,10,OAK,21,7,2555464,SHOTGUN,"1 RB, 3 TE, 1 WR",6,"4 DL, 3 LB, 4 DB",left,2019-09-22T18:12:14.000Z,2019-09-22T18:12:13.000Z,6-8,380,04/13/1993,Florida,T,MIN,OAK,3,U.S. Bank Stadium,"Minneapolis, MN",Indoors,Field Turf,N/A (Indoors),,0,,
36966,2019092205,20190922051634,away,100.94,10.09,3.01,3.36,0.29,277.8,276.33,2552408,Darren Waller,83,2019,9,2,05:10:00,OAK,1,10,OAK,21,7,2555464,SHOTGUN,"1 RB, 3 TE, 1 WR",6,"4 DL, 3 LB, 4 DB",left,2019-09-22T18:12:14.000Z,2019-09-22T18:12:13.000Z,6-6,255,09/13/1992,Georgia Tech,TE,MIN,OAK,3,U.S. Bank Stadium,"Minneapolis, MN",Indoors,Field Turf,N/A (Indoors),,0,,
36967,2019092205,20190922051634,away,100.94,32.53,4.08,3.36,0.39,271.72,271.23,2553913,Tyrell Williams,16,2019,9,2,05:10:00,OAK,1,10,OAK,21,7,2555464,SHOTGUN,"1 RB, 3 TE, 1 WR",6,"4 DL, 3 LB, 4 DB",left,2019-09-22T18:12:14.000Z,2019-09-22T18:12:13.000Z,6-4,205,02/12/1992,Western Oregon,WR,MIN,OAK,3,U.S. Bank Stadium,"Minneapolis, MN",Indoors,Field Turf,N/A (Indoors),,0,,
36968,2019092205,20190922051634,away,105.2,24.5,3.87,3.39,0.37,262.64,218.8,2555464,DeAndre Washington,33,2019,9,2,05:10:00,OAK,1,10,OAK,21,7,2555464,SHOTGUN,"1 RB, 3 TE, 1 WR",6,"4 DL, 3 LB, 4 DB",left,2019-09-22T18:12:14.000Z,2019-09-22T18:12:13.000Z,5-8,210,02/22/1993,Texas Tech,RB,MIN,OAK,3,U.S. Bank Stadium,"Minneapolis, MN",Indoors,Field Turf,N/A (Indoors),,0,,
36969,2019092205,20190922051634,away,102.98,19.47,1.67,1.34,0.16,253.79,130.73,2560811,Kolton Miller,74,2019,9,2,05:10:00,OAK,1,10,OAK,21,7,2555464,SHOTGUN,"1 RB, 3 TE, 1 WR",6,"4 DL, 3 LB, 4 DB",left,2019-09-22T18:12:14.000Z,2019-09-22T18:12:13.000Z,6-8,325,10/09/1995,UCLA,T,MIN,OAK,3,U.S. Bank Stadium,"Minneapolis, MN",Indoors,Field Turf,N/A (Indoors),,0,,
36970,2019092205,20190922051634,away,102.43,28.01,0.22,1.12,0.02,274.89,285.91,2562317,Foster Moreau,87,2019,9,2,05:10:00,OAK,1,10,OAK,21,7,2555464,SHOTGUN,"1 RB, 3 TE, 1 WR",6,"4 DL, 3 LB, 4 DB",left,2019-09-22T18:12:14.000Z,2019-09-22T18:12:13.000Z,6-4,250,05/06/1997,Louisiana State,TE,MIN,OAK,3,U.S. Bank Stadium,"Minneapolis, MN",Indoors,Field Turf,N/A (Indoors),,0,,
36971,2019092205,20190922051634,home,100.95,21.68,1.42,1.68,0.14,42.09,172.0,496802,Linval Joseph,98,2019,9,2,05:10:00,OAK,1,10,OAK,21,7,2555464,SHOTGUN,"1 RB, 3 TE, 1 WR",6,"4 DL, 3 LB, 4 DB",left,2019-09-22T18:12:14.000Z,2019-09-22T18:12:13.000Z,6-4,329,10/10/1988,East Carolina,DT,MIN,OAK,3,U.S. Bank Stadium,"Minneapolis, MN",Indoors,Field Turf,N/A (Indoors),,0,,
36972,2019092205,20190922051634,home,93.18,15.7,0.77,2.42,0.07,69.65,34.11,2532948,Harrison Smith,22,2019,9,2,05:10:00,OAK,1,10,OAK,21,7,2555464,SHOTGUN,"1 RB, 3 TE, 1 WR",6,"4 DL, 3 LB, 4 DB",left,2019-09-22T18:12:14.000Z,2019-09-22T18:12:13.000Z,6-2,214,02/02/1989,Notre Dame,FS,MIN,OAK,3,U.S. Bank Stadium,"Minneapolis, MN",Indoors,Field Turf,N/A (Indoors),,0,,
36973,2019092205,20190922051634,home,93.16,10.56,1.58,0.39,0.16,101.84,273.06,2540155,Xavier Rhodes,29,2019,9,2,05:10:00,OAK,1,10,OAK,21,7,2555464,SHOTGUN,"1 RB, 3 TE, 1 WR",6,"4 DL, 3 LB, 4 DB",left,2019-09-22T18:12:14.000Z,2019-09-22T18:12:13.000Z,6-1,218,06/19/1990,Florida State,CB,MIN,OAK,3,U.S. Bank Stadium,"Minneapolis, MN",Indoors,Field Turf,N/A (Indoors),,0,,
36974,2019092205,20190922051634,home,100.45,25.5,0.2,1.36,0.01,108.65,226.73,2543706,Shamar Stephen,93,2019,9,2,05:10:00,OAK,1,10,OAK,21,7,2555464,SHOTGUN,"1 RB, 3 TE, 1 WR",6,"4 DL, 3 LB, 4 DB",left,2019-09-22T18:12:14.000Z,2019-09-22T18:12:13.000Z,6-5,310,02/25/1991,Connecticut,NT,MIN,OAK,3,U.S. Bank Stadium,"Minneapolis, MN",Indoors,Field Turf,N/A (Indoors),,0,,
36975,2019092205,20190922051634,home,99.22,24.05,3.09,1.78,0.3,86.84,120.77,2552312,Eric Kendricks,54,2019,9,2,05:10:00,OAK,1,10,OAK,21,7,2555464,SHOTGUN,"1 RB, 3 TE, 1 WR",6,"4 DL, 3 LB, 4 DB",left,2019-09-22T18:12:14.000Z,2019-09-22T18:12:13.000Z,6-0,232,02/29/1992,UCLA,MLB,MIN,OAK,3,U.S. Bank Stadium,"Minneapolis, MN",Indoors,Field Turf,N/A (Indoors),,0,,
36976,2019092205,20190922051634,home,94.31,35.27,0.57,0.53,0.05,103.31,272.31,2552448,Trae Waynes,26,2019,9,2,05:10:00,OAK,1,10,OAK,21,7,2555464,SHOTGUN,"1 RB, 3 TE, 1 WR",6,"4 DL, 3 LB, 4 DB",left,2019-09-22T18:12:14.000Z,2019-09-22T18:12:13.000Z,6-0,190,07/25/1992,Michigan State,CB,MIN,OAK,3,U.S. Bank Stadium,"Minneapolis, MN",Indoors,Field Turf,N/A (Indoors),,0,,
36977,2019092205,20190922051634,home,90.6,30.78,0.38,1.62,0.04,108.79,191.72,2553655,Anthony Harris,41,2019,9,2,05:10:00,OAK,1,10,OAK,21,7,2555464,SHOTGUN,"1 RB, 3 TE, 1 WR",6,"4 DL, 3 LB, 4 DB",left,2019-09-22T18:12:14.000Z,2019-09-22T18:12:13.000Z,6-1,202,10/09/1991,Virginia,FS,MIN,OAK,3,U.S. Bank Stadium,"Minneapolis, MN",Indoors,Field Turf,N/A (Indoors),,0,,
36978,2019092205,20190922051634,home,101.34,28.35,1.03,2.22,0.11,135.86,112.66,2555529,Stephen Weatherly,91,2019,9,2,05:10:00,OAK,1,10,OAK,21,7,2555464,SHOTGUN,"1 RB, 3 TE, 1 WR",6,"4 DL, 3 LB, 4 DB",left,2019-09-22T18:12:14.000Z,2019-09-22T18:12:13.000Z,6-5,265,03/19/1994,Vanderbilt,DE,MIN,OAK,3,U.S. Bank Stadium,"Minneapolis, MN",Indoors,Field Turf,N/A (Indoors),,0,,
36979,2019092205,20190922051634,home,98.95,31.61,0.54,0.36,0.05,119.8,177.85,2558033,Ben Gedeon,42,2019,9,2,05:10:00,OAK,1,10,OAK,21,7,2555464,SHOTGUN,"1 RB, 3 TE, 1 WR",6,"4 DL, 3 LB, 4 DB",left,2019-09-22T18:12:14.000Z,2019-09-22T18:12:13.000Z,6-2,244,10/16/1994,Michigan,OLB,MIN,OAK,3,U.S. Bank Stadium,"Minneapolis, MN",Indoors,Field Turf,N/A (Indoors),,0,,
36980,2019092205,20190922051634,home,102.5,18.66,2.68,2.28,0.27,24.14,107.47,2558278,Ifeadi Odenigbo,95,2019,9,2,05:10:00,OAK,1,10,OAK,21,7,2555464,SHOTGUN,"1 RB, 3 TE, 1 WR",6,"4 DL, 3 LB, 4 DB",left,2019-09-22T18:12:14.000Z,2019-09-22T18:12:13.000Z,6-3,258,04/08/1994,Northwestern,DE,MIN,OAK,3,U.S. Bank Stadium,"Minneapolis, MN",Indoors,Field Turf,N/A (Indoors),,0,,
36981,2019092205,20190922051634,home,99.06,19.92,1.68,3.05,0.15,75.11,153.24,2559012,Eric Wilson,50,2019,9,2,05:10:00,OAK,1,10,OAK,21,7,2555464,SHOTGUN,"1 RB, 3 TE, 1 WR",6,"4 DL, 3 LB, 4 DB",left,2019-09-22T18:12:14.000Z,2019-09-22T18:12:13.000Z,6-1,230,09/26/1994,Cincinnati,OLB,MIN,OAK,3,U.S. Bank Stadium,"Minneapolis, MN",Indoors,Field Turf,N/A (Indoors),,0,,
