,GameId,PlayId,Team,X,Y,S,A,Dis,Orientation,Dir,NflId,DisplayName,JerseyNumber,Season,YardLine,Quarter,GameClock,PossessionTeam,Down,Distance,FieldPosition,HomeScoreBeforePlay,VisitorScoreBeforePlay,NflIdRusher,OffenseFormation,OffensePersonnel,DefendersInTheBox,DefensePersonnel,PlayDirection,TimeHandoff,TimeSnap,PlayerHeight,PlayerWeight,PlayerBirthDate,PlayerCollegeName,Position,HomeTeamAbbr,VisitorTeamAbbr,Week,Stadium,Location,StadiumType,Turf,GameWeather,Temperature,Humidity,WindSpeed,WindDirection
30448,2019091900,20190919000356,away,34.18,24.9,0.82,0.89,0.07,85.38,189.99,497048,Rodger Saffold,76,2019,25,1,11:00:00,TEN,2,20,TEN,7,0,2495469,SHOTGUN,"1 RB, 1 TE, 3 WR",6,"3 DL, 3 LB, 5 DB",right,2019-09-20T00:34:33.000Z,2019-09-20T00:34:32.000Z,6-5,325,06/06/1988,Indiana,G,JAX,TEN,3,TIAA Bank Field,"Jacksonville, FL",Outdoor,Grass,Light rain,73.0,87,9mph,NE
30449,2019091900,20190919000356,away,30.89,23.57,4.57,2.87,0.45,79.38,41.4,2495469,Dion Lewis,33,2019,25,1,11:00:00,TEN,2,20,TEN,7,0,2495469,SHOTGUN,"1 RB, 1 TE, 3 WR",6,"3 DL, 3 LB, 5 DB",right,2019-09-20T00:34:33.000Z,2019-09-20T00:34:32.000Z,5-8,195,09/27/1990,Pittsburgh,RB,JAX,TEN,3,TIAA Bank Field,"Jacksonville, FL",Outdoor,Grass,Light rain,73.0,87,9mph,NE
30450,2019091900,20190919000356,away,34.04,21.6,2.35,0.13,0.23,75.7,350.49,2495966,Delanie Walker,82,2019,25,1,11:00:00,TEN,2,20,TEN,7,0,2495469,SHOTGUN,"1 RB, 1 TE, 3 WR",6,"3 DL, 3 LB, 5 DB",right,2019-09-20T00:34:33.000Z,2019-09-20T00:34:32.000Z,6-2,248,08/12/1984,Central Missouri,TE,JAX,TEN,3,TIAA Bank Field,"Jacksonville, FL",Outdoor,Grass,Light rain,73.0,87,9mph,NE
30451,2019091900,20190919000356,away,35.47,24.64,1.38,0.39,0.14,96.15,64.99,2532883,Ben Jones,60,2019,25,1,11:00:00,TEN,2,20,TEN,7,0,2495469,SHOTGUN,"1 RB, 1 TE, 3 WR",6,"3 DL, 3 LB, 5 DB",right,2019-09-20T00:34:33.000Z,2019-09-20T00:34:32.000Z,6-3,308,07/02/1989,Georgia,C,JAX,TEN,3,TIAA Bank Field,"Jacksonville, FL",Outdoor,Grass,Light rain,73.0,87,9mph,NE
30452,2019091900,20190919000356,away,33.52,28.75,3.18,1.2,0.31,64.11,1.32,2535131,Dennis Kelly,71,2019,25,1,11:00:00,TEN,2,20,TEN,7,0,2495469,SHOTGUN,"1 RB, 1 TE, 3 WR",6,"3 DL, 3 LB, 5 DB",right,2019-09-20T00:34:33.000Z,2019-09-20T00:34:32.000Z,6-8,321,01/16/1990,Purdue,OT,JAX,TEN,3,TIAA Bank Field,"Jacksonville, FL",Outdoor,Grass,Light rain,73.0,87,9mph,NE
30453,2019091900,20190919000356,away,35.25,24.03,1.89,1.2,0.19,52.72,52.63,2552339,Jamil Douglas,75,2019,25,1,11:00:00,TEN,2,20,TEN,7,0,2495469,SHOTGUN,"1 RB, 1 TE, 3 WR",6,"3 DL, 3 LB, 5 DB",right,2019-09-20T00:34:33.000Z,2019-09-20T00:34:32.000Z,6-4,308,02/28/1992,Arizona State,OG,JAX,TEN,3,TIAA Bank Field,"Jacksonville, FL",Outdoor,Grass,Light rain,73.0,87,9mph,NE
30454,2019091900,20190919000356,away,29.87,23.83,0.99,2.36,0.1,108.43,157.39,2552466,Marcus Mariota,8,2019,25,1,11:00:00,TEN,2,20,TEN,7,0,2495469,SHOTGUN,"1 RB, 1 TE, 3 WR",6,"3 DL, 3 LB, 5 DB",right,2019-09-20T00:34:33.000Z,2019-09-20T00:34:32.000Z,6-4,222,10/30/1993,Oregon,QB,JAX,TEN,3,TIAA Bank Field,"Jacksonville, FL",Outdoor,Grass,Light rain,73.0,87,9mph,NE
30455,2019091900,20190919000356,away,34.7,32.74,4.19,3.27,0.41,138.35,161.34,2553895,Adam Humphries,10,2019,25,1,11:00:00,TEN,2,20,TEN,7,0,2495469,SHOTGUN,"1 RB, 1 TE, 3 WR",6,"3 DL, 3 LB, 5 DB",right,2019-09-20T00:34:33.000Z,2019-09-20T00:34:32.000Z,5-11,195,06/24/1993,Clemson,WR,JAX,TEN,3,TIAA Bank Field,"Jacksonville, FL",Outdoor,Grass,Light rain,73.0,87,9mph,NE
30456,2019091900,20190919000356,away,35.01,22.59,3.24,0.65,0.32,92.16,39.86,2555279,Jack Conklin,78,2019,25,1,11:00:00,TEN,2,20,TEN,7,0,2495469,SHOTGUN,"1 RB, 1 TE, 3 WR",6,"3 DL, 3 LB, 5 DB",right,2019-09-20T00:34:33.000Z,2019-09-20T00:34:32.000Z,6-6,308,08/17/1994,Michigan State,T,JAX,TEN,3,TIAA Bank Field,"Jacksonville, FL",Outdoor,Grass,Light rain,73.0,87,9mph,NE
30457,2019091900,20190919000356,away,35.73,42.16,4.55,2.51,0.44,114.88,126.81,2555317,Tajae Sharpe,19,2019,25,1,11:00:00,TEN,2,20,TEN,7,0,2495469,SHOTGUN,"1 RB, 1 TE, 3 WR",6,"3 DL, 3 LB, 5 DB",right,2019-09-20T00:34:33.000Z,2019-09-20T00:34:32.000Z,6-2,194,12/23/1994,Massachusetts,WR,JAX,TEN,3,TIAA Bank Field,"Jacksonville, FL",Outdoor,Grass,Light rain,73.0,87,9mph,NE
30458,2019091900,20190919000356,away,34.68,15.87,4.38,3.51,0.43,74.4,54.19,2557848,Corey Davis,84,2019,25,1,11:00:00,TEN,2,20,TEN,7,0,2495469,SHOTGUN,"1 RB, 1 TE, 3 WR",6,"3 DL, 3 LB, 5 DB",right,2019-09-20T00:34:33.000Z,2019-09-20T00:34:32.000Z,6-3,209,01/11/1995,Western Michigan,WR,JAX,TEN,3,TIAA Bank Field,"Jacksonville, FL",Outdoor,Grass,Light rain,73.0,87,9mph,NE
30459,2019091900,20190919000356,home,34.76,24.74,1.16,1.49,0.11,238.83,210.22,744,Calais Campbell,93,2019,25,1,11:00:00,TEN,2,20,TEN,7,0,2495469,SHOTGUN,"1 RB, 1 TE, 3 WR",6,"3 DL, 3 LB, 5 DB",right,2019-09-20T00:34:33.000Z,2019-09-20T00:34:32.000Z,6-8,300,09/01/1986,Miami,DE,JAX,TEN,3,TIAA Bank Field,"Jacksonville, FL",Outdoor,Grass,Light rain,73.0,87,9mph,NE
30460,2019091900,20190919000356,home,36.11,24.05,1.27,0.92,0.14,253.35,32.33,2495478,Marcell Dareus,99,2019,25,1,11:00:00,TEN,2,20,TEN,7,0,2495469,SHOTGUN,"1 RB, 1 TE, 3 WR",6,"3 DL, 3 LB, 5 DB",right,2019-09-20T00:34:33.000Z,2019-09-20T00:34:32.000Z,6-3,331,03/13/1990,Alabama,DT,JAX,TEN,3,TIAA Bank Field,"Jacksonville, FL",Outdoor,Grass,Light rain,73.0,87,9mph,NE
30461,2019091900,20190919000356,home,37.53,30.24,4.44,2.61,0.43,258.11,223.21,2539237,D.J. Hayden,25,2019,25,1,11:00:00,TEN,2,20,TEN,7,0,2495469,SHOTGUN,"1 RB, 1 TE, 3 WR",6,"3 DL, 3 LB, 5 DB",right,2019-09-20T00:34:33.000Z,2019-09-20T00:34:32.000Z,5-11,190,06/27/1990,Houston,CB,JAX,TEN,3,TIAA Bank Field,"Jacksonville, FL",Outdoor,Grass,Light rain,73.0,87,9mph,NE
30462,2019091900,20190919000356,home,44.02,42.88,2.08,2.18,0.2,226.09,124.53,2541162,A.J. Bouye,21,2019,25,1,11:00:00,TEN,2,20,TEN,7,0,2495469,SHOTGUN,"1 RB, 1 TE, 3 WR",6,"3 DL, 3 LB, 5 DB",right,2019-09-20T00:34:33.000Z,2019-09-20T00:34:32.000Z,6-0,191,08/16/1991,Central Florida,CB,JAX,TEN,3,TIAA Bank Field,"Jacksonville, FL",Outdoor,Grass,Light rain,73.0,87,9mph,NE
30463,2019091900,20190919000356,home,41.64,14.63,2.24,2.84,0.22,281.41,10.58,2555280,Jalen Ramsey,20,2019,25,1,11:00:00,TEN,2,20,TEN,7,0,2495469,SHOTGUN,"1 RB, 1 TE, 3 WR",6,"3 DL, 3 LB, 5 DB",right,2019-09-20T00:34:33.000Z,2019-09-20T00:34:32.000Z,6-1,208,10/24/1994,Florida State,CB,JAX,TEN,3,TIAA Bank Field,"Jacksonville, FL",Outdoor,Grass,Light rain,73.0,87,9mph,NE
30464,2019091900,20190919000356,home,38.53,24.23,2.12,1.81,0.2,262.37,320.79,2555329,Myles Jack,44,2019,25,1,11:00:00,TEN,2,20,TEN,7,0,2495469,SHOTGUN,"1 RB, 1 TE, 3 WR",6,"3 DL, 3 LB, 5 DB",right,2019-09-20T00:34:33.000Z,2019-09-20T00:34:32.000Z,6-1,244,09/03/1995,UCLA,OLB,JAX,TEN,3,TIAA Bank Field,"Jacksonville, FL",Outdoor,Grass,Light rain,73.0,87,9mph,NE
30465,2019091900,20190919000356,home,33.77,29.85,2.35,1.34,0.26,229.48,319.76,2555421,Yannick Ngakoue,91,2019,25,1,11:00:00,TEN,2,20,TEN,7,0,2495469,SHOTGUN,"1 RB, 1 TE, 3 WR",6,"3 DL, 3 LB, 5 DB",right,2019-09-20T00:34:33.000Z,2019-09-20T00:34:32.000Z,6-2,246,03/31/1995,Maryland,DE,JAX,TEN,3,TIAA Bank Field,"Jacksonville, FL",Outdoor,Grass,Light rain,73.0,87,9mph,NE
30466,2019091900,20190919000356,home,47.8,32.53,1.11,3.03,0.1,278.48,233.43,2556711,Jarrod Wilson,26,2019,25,1,11:00:00,TEN,2,20,TEN,7,0,2495469,SHOTGUN,"1 RB, 1 TE, 3 WR",6,"3 DL, 3 LB, 5 DB",right,2019-09-20T00:34:33.000Z,2019-09-20T00:34:32.000Z,6-2,210,02/09/1994,Michigan,SS,JAX,TEN,3,TIAA Bank Field,"Jacksonville, FL",Outdoor,Grass,Light rain,73.0,87,9mph,NE
30467,2019091900,20190919000356,home,46.62,20.23,1.37,1.53,0.13,253.58,46.63,2561008,Ronnie Harrison,36,2019,25,1,11:00:00,TEN,2,20,TEN,7,0,2495469,SHOTGUN,"1 RB, 1 TE, 3 WR",6,"3 DL, 3 LB, 5 DB",right,2019-09-20T00:34:33.000Z,2019-09-20T00:34:32.000Z,6-3,214,04/18/1997,Alabama,DB,JAX,TEN,3,TIAA Bank Field,"Jacksonville, FL",Outdoor,Grass,Light rain,73.0,87,9mph,NE
30468,2019091900,20190919000356,home,34.81,21.37,2.99,2.97,0.29,291.14,341.67,2562619,Josh Allen,41,2019,25,1,11:00:00,TEN,2,20,TEN,7,0,2495469,SHOTGUN,"1 RB, 1 TE, 3 WR",6,"3 DL, 3 LB, 5 DB",right,2019-09-20T00:34:33.000Z,2019-09-20T00:34:32.000Z,6-5,262,07/13/1997,Kentucky,LB,JAX,TEN,3,TIAA Bank Field,"Jacksonville, FL",Outdoor,Grass,Light rain,73.0,87,9mph,NE
30469,2019091900,20190919000356,home,38.82,21.11,2.24,2.55,0.21,282.22,331.5,2562954,Quincy Williams,56,2019,25,1,11:00:00,TEN,2,20,TEN,7,0,2495469,SHOTGUN,"1 RB, 1 TE, 3 WR",6,"3 DL, 3 LB, 5 DB",right,2019-09-20T00:34:33.000Z,2019-09-20T00:34:32.000Z,5-11,226,08/28/1996,Murray State,LB,JAX,TEN,3,TIAA Bank Field,"Jacksonville, FL",Outdoor,Grass,Light rain,73.0,87,9mph,NE
