,GameId,PlayId,Team,X,Y,S,A,Dis,Orientation,Dir,NflId,DisplayName,JerseyNumber,Season,YardLine,Quarter,GameClock,PossessionTeam,Down,Distance,FieldPosition,HomeScoreBeforePlay,VisitorScoreBeforePlay,NflIdRusher,OffenseFormation,OffensePersonnel,DefendersInTheBox,DefensePersonnel,PlayDirection,TimeHandoff,TimeSnap,PlayerHeight,PlayerWeight,PlayerBirthDate,PlayerCollegeName,Position,HomeTeamAbbr,VisitorTeamAbbr,Week,Stadium,Location,StadiumType,Turf,GameWeather,Temperature,Humidity,WindSpeed,WindDirection
40612,2019092209,20190922090213,away,99.75,32.9,1.69,1.21,0.18,265.7,121.77,2495807,Antoine Bethea,41,2019,25,1,10:39:00,TB,1,10,NYG,0,0,2556466,SINGLEBACK,"1 RB, 2 TE, 2 WR",6,"2 DL, 4 LB, 5 DB",right,2019-09-22T20:11:09.000Z,2019-09-22T20:11:08.000Z,5-11,206,07/27/1984,Howard,FS,TB,NYG,3,Raymond James Stadium,"Tampa, FL",Outdoor,Natural Grass,Cloudy,88.0,46,11,E
40613,2019092209,20190922090213,away,91.81,43.83,2.77,1.94,0.29,161.73,96.54,2532875,Janoris Jenkins,20,2019,25,1,10:39:00,TB,1,10,NYG,0,0,2556466,SINGLEBACK,"1 RB, 2 TE, 2 WR",6,"2 DL, 4 LB, 5 DB",right,2019-09-22T20:11:09.000Z,2019-09-22T20:11:08.000Z,5-10,190,10/29/1988,North Alabama,CB,TB,NYG,3,Raymond James Stadium,"Tampa, FL",Outdoor,Natural Grass,Cloudy,88.0,46,11,E
40614,2019092209,20190922090213,away,86.08,29.03,2.01,2.7,0.2,276.99,338.33,2540143,Alec Ogletree,47,2019,25,1,10:39:00,TB,1,10,NYG,0,0,2556466,SINGLEBACK,"1 RB, 2 TE, 2 WR",6,"2 DL, 4 LB, 5 DB",right,2019-09-22T20:11:09.000Z,2019-09-22T20:11:08.000Z,6-3,235,09/25/1991,Georgia,LB,TB,NYG,3,Raymond James Stadium,"Tampa, FL",Outdoor,Natural Grass,Cloudy,88.0,46,11,E
40615,2019092209,20190922090213,away,84.53,26.22,1.9,0.75,0.2,281.4,197.8,2557846,Dalvin Tomlinson,94,2019,25,1,10:39:00,TB,1,10,NYG,0,0,2556466,SINGLEBACK,"1 RB, 2 TE, 2 WR",6,"2 DL, 4 LB, 5 DB",right,2019-09-22T20:11:09.000Z,2019-09-22T20:11:08.000Z,6-3,318,02/28/1994,Alabama,DT,TB,NYG,3,Raymond James Stadium,"Tampa, FL",Outdoor,Natural Grass,Cloudy,88.0,46,11,E
40616,2019092209,20190922090213,away,93.02,25.36,3.24,2.73,0.31,255.07,302.38,2557980,Jabrill Peppers,21,2019,25,1,10:39:00,TB,1,10,NYG,0,0,2556466,SINGLEBACK,"1 RB, 2 TE, 2 WR",6,"2 DL, 4 LB, 5 DB",right,2019-09-22T20:11:09.000Z,2019-09-22T20:11:08.000Z,5-11,213,10/04/1995,Michigan,FS,TB,NYG,3,Raymond James Stadium,"Tampa, FL",Outdoor,Natural Grass,Cloudy,88.0,46,11,E
40617,2019092209,20190922090213,away,84.1,32.27,4.13,2.12,0.41,245.76,191.74,2561015,Lorenzo Carter,59,2019,25,1,10:39:00,TB,1,10,NYG,0,0,2556466,SINGLEBACK,"1 RB, 2 TE, 2 WR",6,"2 DL, 4 LB, 5 DB",right,2019-09-22T20:11:09.000Z,2019-09-22T20:11:08.000Z,6-5,250,12/10/1995,Georgia,OLB,TB,NYG,3,Raymond James Stadium,"Tampa, FL",Outdoor,Natural Grass,Cloudy,88.0,46,11,E
40618,2019092209,20190922090213,away,87.25,24.68,1.95,0.59,0.19,274.59,358.59,2561017,Sean Chandler,36,2019,25,1,10:39:00,TB,1,10,NYG,0,0,2556466,SINGLEBACK,"1 RB, 2 TE, 2 WR",6,"2 DL, 4 LB, 5 DB",right,2019-09-22T20:11:09.000Z,2019-09-22T20:11:08.000Z,5-11,205,04/27/1996,Temple,DB,TB,NYG,3,Raymond James Stadium,"Tampa, FL",Outdoor,Natural Grass,Cloudy,88.0,46,11,E
40619,2019092209,20190922090213,away,91.03,19.44,0.74,0.66,0.07,274.32,157.0,2562227,Deandre Baker,27,2019,25,1,10:39:00,TB,1,10,NYG,0,0,2556466,SINGLEBACK,"1 RB, 2 TE, 2 WR",6,"2 DL, 4 LB, 5 DB",right,2019-09-22T20:11:09.000Z,2019-09-22T20:11:08.000Z,5-11,180,09/04/1997,Georgia,CB,TB,NYG,3,Raymond James Stadium,"Tampa, FL",Outdoor,Natural Grass,Cloudy,88.0,46,11,E
40620,2019092209,20190922090213,away,85.3,27.75,2.38,1.24,0.24,257.74,181.88,2562301,Dexter Lawrence,97,2019,25,1,10:39:00,TB,1,10,NYG,0,0,2556466,SINGLEBACK,"1 RB, 2 TE, 2 WR",6,"2 DL, 4 LB, 5 DB",right,2019-09-22T20:11:09.000Z,2019-09-22T20:11:08.000Z,6-4,342,11/12/1997,Clemson,DT,TB,NYG,3,Raymond James Stadium,"Tampa, FL",Outdoor,Natural Grass,Cloudy,88.0,46,11,E
40621,2019092209,20190922090213,away,84.0,23.93,3.2,1.8,0.32,239.43,214.2,2562613,Oshane Ximines,53,2019,25,1,10:39:00,TB,1,10,NYG,0,0,2556466,SINGLEBACK,"1 RB, 2 TE, 2 WR",6,"2 DL, 4 LB, 5 DB",right,2019-09-22T20:11:09.000Z,2019-09-22T20:11:08.000Z,6-4,250,12/07/1996,Old Dominion,LB,TB,NYG,3,Raymond James Stadium,"Tampa, FL",Outdoor,Natural Grass,Cloudy,88.0,46,11,E
40622,2019092209,20190922090213,away,86.62,31.27,2.4,2.72,0.24,232.58,285.92,2562638,Ryan Connelly,57,2019,25,1,10:39:00,TB,1,10,NYG,0,0,2556466,SINGLEBACK,"1 RB, 2 TE, 2 WR",6,"2 DL, 4 LB, 5 DB",right,2019-09-22T20:11:09.000Z,2019-09-22T20:11:08.000Z,6-2,236,10/03/1995,Wisconsin,LB,TB,NYG,3,Raymond James Stadium,"Tampa, FL",Outdoor,Natural Grass,Cloudy,88.0,46,11,E
40623,2019092209,20190922090213,home,83.43,24.79,2.65,1.17,0.26,228.32,211.67,2507716,Demar Dotson,69,2019,25,1,10:39:00,TB,1,10,NYG,0,0,2556466,SINGLEBACK,"1 RB, 2 TE, 2 WR",6,"2 DL, 4 LB, 5 DB",right,2019-09-22T20:11:09.000Z,2019-09-22T20:11:08.000Z,6-9,315,10/11/1985,Southern Mississippi,OT,TB,NYG,3,Raymond James Stadium,"Tampa, FL",Outdoor,Natural Grass,Cloudy,88.0,46,11,E
40624,2019092209,20190922090213,home,84.49,28.48,1.12,0.39,0.13,111.96,186.73,2541159,Ryan Jensen,66,2019,25,1,10:39:00,TB,1,10,NYG,0,0,2556466,SINGLEBACK,"1 RB, 2 TE, 2 WR",6,"2 DL, 4 LB, 5 DB",right,2019-09-22T20:11:09.000Z,2019-09-22T20:11:08.000Z,6-4,319,05/27/1991,Colorado State-Pueblo,C,TB,NYG,3,Raymond James Stadium,"Tampa, FL",Outdoor,Natural Grass,Cloudy,88.0,46,11,E
40625,2019092209,20190922090213,home,86.65,43.26,4.12,1.81,0.41,92.78,107.51,2543468,Mike Evans,13,2019,25,1,10:39:00,TB,1,10,NYG,0,0,2556466,SINGLEBACK,"1 RB, 2 TE, 2 WR",6,"2 DL, 4 LB, 5 DB",right,2019-09-22T20:11:09.000Z,2019-09-22T20:11:08.000Z,6-5,231,08/21/1993,Texas A&M,WR,TB,NYG,3,Raymond James Stadium,"Tampa, FL",Outdoor,Natural Grass,Cloudy,88.0,46,11,E
40626,2019092209,20190922090213,home,80.15,28.82,4.28,1.23,0.43,254.13,240.18,2552033,Jameis Winston,3,2019,25,1,10:39:00,TB,1,10,NYG,0,0,2556466,SINGLEBACK,"1 RB, 2 TE, 2 WR",6,"2 DL, 4 LB, 5 DB",right,2019-09-22T20:11:09.000Z,2019-09-22T20:11:08.000Z,6-4,231,01/06/1994,Florida State,QB,TB,NYG,3,Raymond James Stadium,"Tampa, FL",Outdoor,Natural Grass,Cloudy,88.0,46,11,E
40627,2019092209,20190922090213,home,85.26,28.43,2.33,2.0,0.24,127.83,172.95,2552332,Ali Marpet,74,2019,25,1,10:39:00,TB,1,10,NYG,0,0,2556466,SINGLEBACK,"1 RB, 2 TE, 2 WR",6,"2 DL, 4 LB, 5 DB",right,2019-09-22T20:11:09.000Z,2019-09-22T20:11:08.000Z,6-4,307,04/17/1993,Hobart,G,TB,NYG,3,Raymond James Stadium,"Tampa, FL",Outdoor,Natural Grass,Cloudy,88.0,46,11,E
40628,2019092209,20190922090213,home,85.17,31.02,2.57,3.02,0.22,84.23,142.03,2552460,Donovan Smith,76,2019,25,1,10:39:00,TB,1,10,NYG,0,0,2556466,SINGLEBACK,"1 RB, 2 TE, 2 WR",6,"2 DL, 4 LB, 5 DB",right,2019-09-22T20:11:09.000Z,2019-09-22T20:11:08.000Z,6-6,338,06/23/1993,Penn State,T,TB,NYG,3,Raymond James Stadium,"Tampa, FL",Outdoor,Natural Grass,Cloudy,88.0,46,11,E
40629,2019092209,20190922090213,home,80.5,28.12,4.31,2.9,0.43,85.66,109.45,2556466,Peyton Barber,25,2019,25,1,10:39:00,TB,1,10,NYG,0,0,2556466,SINGLEBACK,"1 RB, 2 TE, 2 WR",6,"2 DL, 4 LB, 5 DB",right,2019-09-22T20:11:09.000Z,2019-09-22T20:11:08.000Z,5-11,225,02/27/1994,Auburn,RB,TB,NYG,3,Raymond James Stadium,"Tampa, FL",Outdoor,Natural Grass,Cloudy,88.0,46,11,E
40630,2019092209,20190922090213,home,86.2,24.54,1.82,2.11,0.18,86.1,51.69,2557856,O.J. Howard,80,2019,25,1,10:39:00,TB,1,10,NYG,0,0,2556466,SINGLEBACK,"1 RB, 2 TE, 2 WR",6,"2 DL, 4 LB, 5 DB",right,2019-09-22T20:11:09.000Z,2019-09-22T20:11:08.000Z,6-6,250,11/18/1994,Alabama,TE,TB,NYG,3,Raymond James Stadium,"Tampa, FL",Outdoor,Natural Grass,Cloudy,88.0,46,11,E
40631,2019092209,20190922090213,home,79.62,26.28,6.83,2.78,0.67,326.15,323.0,2558105,Chris Godwin,12,2019,25,1,10:39:00,TB,1,10,NYG,0,0,2556466,SINGLEBACK,"1 RB, 2 TE, 2 WR",6,"2 DL, 4 LB, 5 DB",right,2019-09-22T20:11:09.000Z,2019-09-22T20:11:08.000Z,6-1,209,02/27/1996,Penn State,WR,TB,NYG,3,Raymond James Stadium,"Tampa, FL",Outdoor,Natural Grass,Cloudy,88.0,46,11,E
40632,2019092209,20190922090213,home,83.69,28.87,3.92,0.73,0.35,56.13,24.99,2559044,Antony Auclair,82,2019,25,1,10:39:00,TB,1,10,NYG,0,0,2556466,SINGLEBACK,"1 RB, 2 TE, 2 WR",6,"2 DL, 4 LB, 5 DB",right,2019-09-22T20:11:09.000Z,2019-09-22T20:11:08.000Z,6-6,256,05/28/1993,"Laval, Can.",TE,TB,NYG,3,Raymond James Stadium,"Tampa, FL",Outdoor,Natural Grass,Cloudy,88.0,46,11,E
40633,2019092209,20190922090213,home,84.21,26.89,1.21,0.41,0.14,111.48,183.11,2560991,Alex Cappa,65,2019,25,1,10:39:00,TB,1,10,NYG,0,0,2556466,SINGLEBACK,"1 RB, 2 TE, 2 WR",6,"2 DL, 4 LB, 5 DB",right,2019-09-22T20:11:09.000Z,2019-09-22T20:11:08.000Z,6-6,305,01/27/1995,Humboldt State,G,TB,NYG,3,Raymond James Stadium,"Tampa, FL",Outdoor,Natural Grass,Cloudy,88.0,46,11,E
