,GameId,PlayId,Team,X,Y,S,A,Dis,Orientation,Dir,NflId,DisplayName,JerseyNumber,Season,YardLine,Quarter,GameClock,PossessionTeam,Down,Distance,FieldPosition,HomeScoreBeforePlay,VisitorScoreBeforePlay,NflIdRusher,OffenseFormation,OffensePersonnel,DefendersInTheBox,DefensePersonnel,PlayDirection,TimeHandoff,TimeSnap,PlayerHeight,PlayerWeight,PlayerBirthDate,PlayerCollegeName,Position,HomeTeamAbbr,VisitorTeamAbbr,Week,Stadium,Location,StadiumType,Turf,GameWeather,Temperature,Humidity,WindSpeed,WindDirection
902,2019090800,20190908000984,away,81.74,33.77,1.53,0.98,0.16,8.2,333.04,2495977,Andrew Whitworth,77,2019,27,2,14:35:00,LA,2,4,CAR,0,0,2540169,SINGLEBACK,"1 RB, 0 TE, 4 WR",6,"4 DL, 2 LB, 5 DB",right,2019-09-08T17:42:55.000Z,2019-09-08T17:42:55.000Z,6-7,330,12/12/1981,Louisiana State,T,CAR,LA,1,Bank of America Stadium,Charlotte North Carolina,Outdoor,Grass,Sunny,87.0,53,3,NNE
903,2019090800,20190908000984,away,79.7,31.14,7.44,0.03,0.75,189.94,186.98,2540169,Robert Woods,17,2019,27,2,14:35:00,LA,2,4,CAR,0,0,2540169,SINGLEBACK,"1 RB, 0 TE, 4 WR",6,"4 DL, 2 LB, 5 DB",right,2019-09-08T17:42:55.000Z,2019-09-08T17:42:55.000Z,6-0,193,04/10/1992,Southern California,WR,CAR,LA,1,Bank of America Stadium,Charlotte North Carolina,Outdoor,Grass,Sunny,87.0,53,3,NNE
904,2019090800,20190908000984,away,82.56,37.6,2.02,3.63,0.19,115.69,122.09,2543498,Brandin Cooks,12,2019,27,2,14:35:00,LA,2,4,CAR,0,0,2540169,SINGLEBACK,"1 RB, 0 TE, 4 WR",6,"4 DL, 2 LB, 5 DB",right,2019-09-08T17:42:55.000Z,2019-09-08T17:42:55.000Z,5-10,183,09/25/1993,Oregon State,WR,CAR,LA,1,Bank of America Stadium,Charlotte North Carolina,Outdoor,Grass,Sunny,87.0,53,3,NNE
905,2019090800,20190908000984,away,82.69,25.53,2.22,2.4,0.24,152.19,144.26,2552363,Rob Havenstein,79,2019,27,2,14:35:00,LA,2,4,CAR,0,0,2540169,SINGLEBACK,"1 RB, 0 TE, 4 WR",6,"4 DL, 2 LB, 5 DB",right,2019-09-08T17:42:55.000Z,2019-09-08T17:42:55.000Z,6-8,328,05/13/1992,Wisconsin,T,CAR,LA,1,Bank of America Stadium,Charlotte North Carolina,Outdoor,Grass,Sunny,87.0,53,3,NNE
906,2019090800,20190908000984,away,75.55,30.24,1.34,3.32,0.12,88.65,31.29,2552475,Todd Gurley,30,2019,27,2,14:35:00,LA,2,4,CAR,0,0,2540169,SINGLEBACK,"1 RB, 0 TE, 4 WR",6,"4 DL, 2 LB, 5 DB",right,2019-09-08T17:42:55.000Z,2019-09-08T17:42:55.000Z,6-1,224,08/03/1994,Georgia,RB,CAR,LA,1,Bank of America Stadium,Charlotte North Carolina,Outdoor,Grass,Sunny,87.0,53,3,NNE
907,2019090800,20190908000984,away,82.57,27.92,1.44,1.4,0.15,90.58,129.86,2555180,Austin Blythe,66,2019,27,2,14:35:00,LA,2,4,CAR,0,0,2540169,SINGLEBACK,"1 RB, 0 TE, 4 WR",6,"4 DL, 2 LB, 5 DB",right,2019-09-08T17:42:55.000Z,2019-09-08T17:42:55.000Z,6-3,300,06/16/1992,Iowa,C,CAR,LA,1,Bank of America Stadium,Charlotte North Carolina,Outdoor,Grass,Sunny,87.0,53,3,NNE
908,2019090800,20190908000984,away,80.63,30.1,1.68,2.2,0.17,356.44,282.25,2555334,Jared Goff,16,2019,27,2,14:35:00,LA,2,4,CAR,0,0,2540169,SINGLEBACK,"1 RB, 0 TE, 4 WR",6,"4 DL, 2 LB, 5 DB",right,2019-09-08T17:42:55.000Z,2019-09-08T17:42:55.000Z,6-4,223,10/14/1994,California,QB,CAR,LA,1,Bank of America Stadium,Charlotte North Carolina,Outdoor,Grass,Sunny,87.0,53,3,NNE
909,2019090800,20190908000984,away,81.67,23.16,2.52,3.15,0.27,91.56,163.07,2557898,Cooper Kupp,18,2019,27,2,14:35:00,LA,2,4,CAR,0,0,2540169,SINGLEBACK,"1 RB, 0 TE, 4 WR",6,"4 DL, 2 LB, 5 DB",right,2019-09-08T17:42:55.000Z,2019-09-08T17:42:55.000Z,6-2,208,06/15/1993,Eastern Washington,WR,CAR,LA,1,Bank of America Stadium,Charlotte North Carolina,Outdoor,Grass,Sunny,87.0,53,3,NNE
910,2019090800,20190908000984,away,82.7,19.25,3.19,4.82,0.3,151.7,144.5,2558194,Josh Reynolds,83,2019,27,2,14:35:00,LA,2,4,CAR,0,0,2540169,SINGLEBACK,"1 RB, 0 TE, 4 WR",6,"4 DL, 2 LB, 5 DB",right,2019-09-08T17:42:55.000Z,2019-09-08T17:42:55.000Z,6-3,196,02/16/1995,Texas A&M,WR,CAR,LA,1,Bank of America Stadium,Charlotte North Carolina,Outdoor,Grass,Sunny,87.0,53,3,NNE
911,2019090800,20190908000984,away,82.54,31.71,1.55,1.4,0.16,104.6,83.82,2560825,Joe Noteboom,70,2019,27,2,14:35:00,LA,2,4,CAR,0,0,2540169,SINGLEBACK,"1 RB, 0 TE, 4 WR",6,"4 DL, 2 LB, 5 DB",right,2019-09-08T17:42:55.000Z,2019-09-08T17:42:55.000Z,6-5,321,06/19/1995,Texas Christian,T,CAR,LA,1,Bank of America Stadium,Charlotte North Carolina,Outdoor,Grass,Sunny,87.0,53,3,NNE
912,2019090800,20190908000984,away,82.21,30.7,1.1,0.24,0.11,51.86,342.75,2560954,Brian Allen,55,2019,27,2,14:35:00,LA,2,4,CAR,0,0,2540169,SINGLEBACK,"1 RB, 0 TE, 4 WR",6,"4 DL, 2 LB, 5 DB",right,2019-09-08T17:42:55.000Z,2019-09-08T17:42:55.000Z,6-2,302,10/11/1995,Michigan State,C,CAR,LA,1,Bank of America Stadium,Charlotte North Carolina,Outdoor,Grass,Sunny,87.0,53,3,NNE
913,2019090800,20190908000984,home,82.59,27.22,2.12,1.11,0.23,277.72,283.97,496816,Gerald McCoy,93,2019,27,2,14:35:00,LA,2,4,CAR,0,0,2540169,SINGLEBACK,"1 RB, 0 TE, 4 WR",6,"4 DL, 2 LB, 5 DB",right,2019-09-08T17:42:55.000Z,2019-09-08T17:42:55.000Z,6-4,300,02/25/1988,Oklahoma,DT,CAR,LA,1,Bank of America Stadium,Charlotte North Carolina,Outdoor,Grass,Sunny,87.0,53,3,NNE
914,2019090800,20190908000984,home,82.36,35.15,2.78,1.1,0.29,224.01,281.69,2530474,Mario Addison,97,2019,27,2,14:35:00,LA,2,4,CAR,0,0,2540169,SINGLEBACK,"1 RB, 0 TE, 4 WR",6,"4 DL, 2 LB, 5 DB",right,2019-09-08T17:42:55.000Z,2019-09-08T17:42:55.000Z,6-3,260,09/06/1987,Troy,DE,CAR,LA,1,Bank of America Stadium,Charlotte North Carolina,Outdoor,Grass,Sunny,87.0,53,3,NNE
915,2019090800,20190908000984,home,85.09,28.4,2.21,1.54,0.22,287.56,210.04,2533056,Luke Kuechly,59,2019,27,2,14:35:00,LA,2,4,CAR,0,0,2540169,SINGLEBACK,"1 RB, 0 TE, 4 WR",6,"4 DL, 2 LB, 5 DB",right,2019-09-08T17:42:55.000Z,2019-09-08T17:42:55.000Z,6-3,238,04/20/1991,Boston College,MLB,CAR,LA,1,Bank of America Stadium,Charlotte North Carolina,Outdoor,Grass,Sunny,87.0,53,3,NNE
916,2019090800,20190908000984,home,83.14,30.86,1.24,1.28,0.13,232.61,324.29,2533435,Dontari Poe,95,2019,27,2,14:35:00,LA,2,4,CAR,0,0,2540169,SINGLEBACK,"1 RB, 0 TE, 4 WR",6,"4 DL, 2 LB, 5 DB",right,2019-09-08T17:42:55.000Z,2019-09-08T17:42:55.000Z,6-3,346,08/18/1990,Memphis,NT,CAR,LA,1,Bank of America Stadium,Charlotte North Carolina,Outdoor,Grass,Sunny,87.0,53,3,NNE
917,2019090800,20190908000984,home,93.38,33.49,2.5,1.52,0.25,288.45,190.38,2540152,Eric Reid,25,2019,27,2,14:35:00,LA,2,4,CAR,0,0,2540169,SINGLEBACK,"1 RB, 0 TE, 4 WR",6,"4 DL, 2 LB, 5 DB",right,2019-09-08T17:42:55.000Z,2019-09-08T17:42:55.000Z,6-1,213,12/10/1991,Louisiana State,SS,CAR,LA,1,Bank of America Stadium,Charlotte North Carolina,Outdoor,Grass,Sunny,87.0,53,3,NNE
918,2019090800,20190908000984,home,95.95,22.24,2.11,1.31,0.21,291.29,161.52,2543830,Tre Boston,33,2019,27,2,14:35:00,LA,2,4,CAR,0,0,2540169,SINGLEBACK,"1 RB, 0 TE, 4 WR",6,"4 DL, 2 LB, 5 DB",right,2019-09-08T17:42:55.000Z,2019-09-08T17:42:55.000Z,6-1,205,06/25/1992,North Carolina,FS,CAR,LA,1,Bank of America Stadium,Charlotte North Carolina,Outdoor,Grass,Sunny,87.0,53,3,NNE
919,2019090800,20190908000984,home,86.01,33.32,0.94,2.0,0.09,274.73,293.49,2552447,Shaq Thompson,54,2019,27,2,14:35:00,LA,2,4,CAR,0,0,2540169,SINGLEBACK,"1 RB, 0 TE, 4 WR",6,"4 DL, 2 LB, 5 DB",right,2019-09-08T17:42:55.000Z,2019-09-08T17:42:55.000Z,6-0,230,04/21/1994,Washington,OLB,CAR,LA,1,Bank of America Stadium,Charlotte North Carolina,Outdoor,Grass,Sunny,87.0,53,3,NNE
920,2019090800,20190908000984,home,89.72,15.62,2.9,1.72,0.29,213.99,226.16,2555175,James Bradberry,24,2019,27,2,14:35:00,LA,2,4,CAR,0,0,2540169,SINGLEBACK,"1 RB, 0 TE, 4 WR",6,"4 DL, 2 LB, 5 DB",right,2019-09-08T17:42:55.000Z,2019-09-08T17:42:55.000Z,6-1,212,08/04/1993,Samford,CB,CAR,LA,1,Bank of America Stadium,Charlotte North Carolina,Outdoor,Grass,Sunny,87.0,53,3,NNE
921,2019090800,20190908000984,home,86.05,22.51,2.76,1.55,0.29,309.86,203.24,2556934,Javien Elliott,23,2019,27,2,14:35:00,LA,2,4,CAR,0,0,2540169,SINGLEBACK,"1 RB, 0 TE, 4 WR",6,"4 DL, 2 LB, 5 DB",right,2019-09-08T17:42:55.000Z,2019-09-08T17:42:55.000Z,5-11,176,07/18/1993,Florida State,CB,CAR,LA,1,Bank of America Stadium,Charlotte North Carolina,Outdoor,Grass,Sunny,87.0,53,3,NNE
922,2019090800,20190908000984,home,88.3,40.34,0.47,0.47,0.05,187.72,128.49,2560753,Donte Jackson,26,2019,27,2,14:35:00,LA,2,4,CAR,0,0,2540169,SINGLEBACK,"1 RB, 0 TE, 4 WR",6,"4 DL, 2 LB, 5 DB",right,2019-09-08T17:42:55.000Z,2019-09-08T17:42:55.000Z,5-10,180,11/08/1995,Louisiana State,DB,CAR,LA,1,Bank of America Stadium,Charlotte North Carolina,Outdoor,Grass,Sunny,87.0,53,3,NNE
923,2019090800,20190908000984,home,82.23,24.71,3.49,1.94,0.38,320.24,290.77,2562242,Brian Burns,53,2019,27,2,14:35:00,LA,2,4,CAR,0,0,2540169,SINGLEBACK,"1 RB, 0 TE, 4 WR",6,"4 DL, 2 LB, 5 DB",right,2019-09-08T17:42:55.000Z,2019-09-08T17:42:55.000Z,6-5,250,04/23/1998,Florida State,DL,CAR,LA,1,Bank of America Stadium,Charlotte North Carolina,Outdoor,Grass,Sunny,87.0,53,3,NNE
