,GameId,PlayId,Team,X,Y,S,A,Dis,Orientation,Dir,NflId,DisplayName,JerseyNumber,Season,YardLine,Quarter,GameClock,PossessionTeam,Down,Distance,FieldPosition,HomeScoreBeforePlay,VisitorScoreBeforePlay,NflIdRusher,OffenseFormation,OffensePersonnel,DefendersInTheBox,DefensePersonnel,PlayDirection,TimeHandoff,TimeSnap,PlayerHeight,PlayerWeight,PlayerBirthDate,PlayerCollegeName,Position,HomeTeamAbbr,VisitorTeamAbbr,Week,Stadium,Location,StadiumType,Turf,GameWeather,Temperature,Humidity,WindSpeed,WindDirection
3542,2019090803,20190908030217,away,107.5,22.23,1.08,0.95,0.11,94.95,151.29,2507188,Marshal Yanda,73,2019,2,1,11:10:00,BLT,2,2,MIA,0,0,2561324,PISTOL,"1 RB, 2 TE, 2 WR",6,"4 DL, 2 LB, 5 DB",right,2019-09-08T17:10:14.000Z,2019-09-08T17:10:13.000Z,6-3,305,09/15/1984,Iowa,G,MIA,BAL,1,Hard Rock Stadium,"Miami Gardens, FL",Outdoor,Natural grass,Mostly Cloudy,91.0,56,8,SSE
3543,2019090803,20190908030217,away,106.9,12.49,4.68,2.24,0.46,102.11,123.3,2550256,Willie Snead,83,2019,2,1,11:10:00,BLT,2,2,MIA,0,0,2561324,PISTOL,"1 RB, 2 TE, 2 WR",6,"4 DL, 2 LB, 5 DB",right,2019-09-08T17:10:14.000Z,2019-09-08T17:10:13.000Z,5-11,205,10/17/1992,Ball State,WR,MIA,BAL,1,Hard Rock Stadium,"Miami Gardens, FL",Outdoor,Natural grass,Mostly Cloudy,91.0,56,8,SSE
3544,2019090803,20190908030217,away,106.33,15.78,3.4,1.33,0.34,81.48,202.88,2552402,Nick Boyle,86,2019,2,1,11:10:00,BLT,2,2,MIA,0,0,2561324,PISTOL,"1 RB, 2 TE, 2 WR",6,"4 DL, 2 LB, 5 DB",right,2019-09-08T17:10:14.000Z,2019-09-08T17:10:13.000Z,6-4,270,02/17/1993,Delaware,TE,MIA,BAL,1,Hard Rock Stadium,"Miami Gardens, FL",Outdoor,Natural grass,Mostly Cloudy,91.0,56,8,SSE
3545,2019090803,20190908030217,away,107.72,25.31,1.49,0.75,0.15,100.13,146.98,2555204,Ronnie Stanley,79,2019,2,1,11:10:00,BLT,2,2,MIA,0,0,2561324,PISTOL,"1 RB, 2 TE, 2 WR",6,"4 DL, 2 LB, 5 DB",right,2019-09-08T17:10:14.000Z,2019-09-08T17:10:13.000Z,6-6,315,03/18/1994,Notre Dame,T,MIA,BAL,1,Hard Rock Stadium,"Miami Gardens, FL",Outdoor,Natural grass,Mostly Cloudy,91.0,56,8,SSE
3546,2019090803,20190908030217,away,107.93,23.01,1.14,1.21,0.12,130.25,158.77,2556683,Matt Skura,68,2019,2,1,11:10:00,BLT,2,2,MIA,0,0,2561324,PISTOL,"1 RB, 2 TE, 2 WR",6,"4 DL, 2 LB, 5 DB",right,2019-09-08T17:10:14.000Z,2019-09-08T17:10:13.000Z,6-3,313,02/17/1993,Duke,C,MIA,BAL,1,Hard Rock Stadium,"Miami Gardens, FL",Outdoor,Natural grass,Mostly Cloudy,91.0,56,8,SSE
3547,2019090803,20190908030217,away,109.29,24.26,2.0,1.99,0.21,84.87,99.48,2559827,Bradley Bozeman,77,2019,2,1,11:10:00,BLT,2,2,MIA,0,0,2561324,PISTOL,"1 RB, 2 TE, 2 WR",6,"4 DL, 2 LB, 5 DB",right,2019-09-08T17:10:14.000Z,2019-09-08T17:10:13.000Z,6-3,317,11/24/1994,Alabama,C,MIA,BAL,1,Hard Rock Stadium,"Miami Gardens, FL",Outdoor,Natural grass,Mostly Cloudy,91.0,56,8,SSE
3548,2019090803,20190908030217,away,106.81,18.45,4.38,2.31,0.41,72.95,137.39,2560747,Hayden Hurst,81,2019,2,1,11:10:00,BLT,2,2,MIA,0,0,2561324,PISTOL,"1 RB, 2 TE, 2 WR",6,"4 DL, 2 LB, 5 DB",right,2019-09-08T17:10:14.000Z,2019-09-08T17:10:13.000Z,6-4,245,08/24/1993,South Carolina,TE,MIA,BAL,1,Hard Rock Stadium,"Miami Gardens, FL",Outdoor,Natural grass,Mostly Cloudy,91.0,56,8,SSE
3549,2019090803,20190908030217,away,103.15,23.75,1.01,1.82,0.09,149.45,157.82,2560757,Lamar Jackson,8,2019,2,1,11:10:00,BLT,2,2,MIA,0,0,2561324,PISTOL,"1 RB, 2 TE, 2 WR",6,"4 DL, 2 LB, 5 DB",right,2019-09-08T17:10:14.000Z,2019-09-08T17:10:13.000Z,6-2,212,01/07/1997,Louisville,QB,MIA,BAL,1,Hard Rock Stadium,"Miami Gardens, FL",Outdoor,Natural grass,Mostly Cloudy,91.0,56,8,SSE
3550,2019090803,20190908030217,away,107.27,21.47,0.81,1.46,0.09,68.43,86.87,2560981,Orlando Brown,78,2019,2,1,11:10:00,BLT,2,2,MIA,0,0,2561324,PISTOL,"1 RB, 2 TE, 2 WR",6,"4 DL, 2 LB, 5 DB",right,2019-09-08T17:10:14.000Z,2019-09-08T17:10:13.000Z,6-8,345,05/02/1996,Oklahoma,T,MIA,BAL,1,Hard Rock Stadium,"Miami Gardens, FL",Outdoor,Natural grass,Mostly Cloudy,91.0,56,8,SSE
3551,2019090803,20190908030217,away,103.33,23.22,4.98,2.92,0.48,78.77,98.91,2561324,Gus Edwards,35,2019,2,1,11:10:00,BLT,2,2,MIA,0,0,2561324,PISTOL,"1 RB, 2 TE, 2 WR",6,"4 DL, 2 LB, 5 DB",right,2019-09-08T17:10:14.000Z,2019-09-08T17:10:13.000Z,6-1,238,04/13/1995,Rutgers,RB,MIA,BAL,1,Hard Rock Stadium,"Miami Gardens, FL",Outdoor,Natural grass,Mostly Cloudy,91.0,56,8,SSE
3552,2019090803,20190908030217,away,109.79,42.36,4.21,0.55,0.42,86.76,78.3,2562631,Miles Boykin,80,2019,2,1,11:10:00,BLT,2,2,MIA,0,0,2561324,PISTOL,"1 RB, 2 TE, 2 WR",6,"4 DL, 2 LB, 5 DB",right,2019-09-08T17:10:14.000Z,2019-09-08T17:10:13.000Z,6-4,220,10/12/1996,Notre Dame,WR,MIA,BAL,1,Hard Rock Stadium,"Miami Gardens, FL",Outdoor,Natural grass,Mostly Cloudy,91.0,56,8,SSE
3553,2019090803,20190908030217,home,106.69,26.82,5.21,3.52,0.51,183.65,201.02,496739,Reshad Jones,20,2019,2,1,11:10:00,BLT,2,2,MIA,0,0,2561324,PISTOL,"1 RB, 2 TE, 2 WR",6,"4 DL, 2 LB, 5 DB",right,2019-09-08T17:10:14.000Z,2019-09-08T17:10:13.000Z,6-1,215,02/25/1988,Georgia,SS,MIA,BAL,1,Hard Rock Stadium,"Miami Gardens, FL",Outdoor,Natural grass,Mostly Cloudy,91.0,56,8,SSE
3554,2019090803,20190908030217,home,110.88,13.74,4.17,1.93,0.42,245.76,174.33,2552255,Eric Rowe,21,2019,2,1,11:10:00,BLT,2,2,MIA,0,0,2561324,PISTOL,"1 RB, 2 TE, 2 WR",6,"4 DL, 2 LB, 5 DB",right,2019-09-08T17:10:14.000Z,2019-09-08T17:10:13.000Z,6-1,205,10/03/1992,Utah,CB,MIA,BAL,1,Hard Rock Stadium,"Miami Gardens, FL",Outdoor,Natural grass,Mostly Cloudy,91.0,56,8,SSE
3555,2019090803,20190908030217,home,111.76,17.77,2.55,0.86,0.26,257.94,182.98,2552434,Bobby McCain,28,2019,2,1,11:10:00,BLT,2,2,MIA,0,0,2561324,PISTOL,"1 RB, 2 TE, 2 WR",6,"4 DL, 2 LB, 5 DB",right,2019-09-08T17:10:14.000Z,2019-09-08T17:10:13.000Z,5-11,192,08/18/1993,Memphis,CB,MIA,BAL,1,Hard Rock Stadium,"Miami Gardens, FL",Outdoor,Natural grass,Mostly Cloudy,91.0,56,8,SSE
3556,2019090803,20190908030217,home,110.7,42.08,3.24,2.09,0.31,267.33,74.04,2555539,Xavien Howard,25,2019,2,1,11:10:00,BLT,2,2,MIA,0,0,2561324,PISTOL,"1 RB, 2 TE, 2 WR",6,"4 DL, 2 LB, 5 DB",right,2019-09-08T17:10:14.000Z,2019-09-08T17:10:13.000Z,6-1,200,07/04/1993,Baylor,CB,MIA,BAL,1,Hard Rock Stadium,"Miami Gardens, FL",Outdoor,Natural grass,Mostly Cloudy,91.0,56,8,SSE
3557,2019090803,20190908030217,home,108.24,24.92,1.88,0.75,0.19,263.06,164.75,2558001,Charles Harris,90,2019,2,1,11:10:00,BLT,2,2,MIA,0,0,2561324,PISTOL,"1 RB, 2 TE, 2 WR",6,"4 DL, 2 LB, 5 DB",right,2019-09-08T17:10:14.000Z,2019-09-08T17:10:13.000Z,6-3,250,03/06/1995,Missouri,DE,MIA,BAL,1,Hard Rock Stadium,"Miami Gardens, FL",Outdoor,Natural grass,Mostly Cloudy,91.0,56,8,SSE
3558,2019090803,20190908030217,home,108.04,21.39,0.98,0.66,0.11,250.06,178.48,2558012,Davon Godchaux,56,2019,2,1,11:10:00,BLT,2,2,MIA,0,0,2561324,PISTOL,"1 RB, 2 TE, 2 WR",6,"4 DL, 2 LB, 5 DB",right,2019-09-08T17:10:14.000Z,2019-09-08T17:10:13.000Z,6-3,311,11/11/1994,Louisiana State,DT,MIA,BAL,1,Hard Rock Stadium,"Miami Gardens, FL",Outdoor,Natural grass,Mostly Cloudy,91.0,56,8,SSE
3559,2019090803,20190908030217,home,109.25,17.83,1.65,0.75,0.16,77.49,227.99,2560725,Minkah Fitzpatrick,29,2019,2,1,11:10:00,BLT,2,2,MIA,0,0,2561324,PISTOL,"1 RB, 2 TE, 2 WR",6,"4 DL, 2 LB, 5 DB",right,2019-09-08T17:10:14.000Z,2019-09-08T17:10:13.000Z,6-1,207,11/17/1996,Alabama,S,MIA,BAL,1,Hard Rock Stadium,"Miami Gardens, FL",Outdoor,Natural grass,Mostly Cloudy,91.0,56,8,SSE
3560,2019090803,20190908030217,home,110.41,23.94,1.4,3.8,0.15,270.47,242.3,2560966,Jerome Baker,55,2019,2,1,11:10:00,BLT,2,2,MIA,0,0,2561324,PISTOL,"1 RB, 2 TE, 2 WR",6,"4 DL, 2 LB, 5 DB",right,2019-09-08T17:10:14.000Z,2019-09-08T17:10:13.000Z,6-2,225,12/25/1996,Ohio State,LB,MIA,BAL,1,Hard Rock Stadium,"Miami Gardens, FL",Outdoor,Natural grass,Mostly Cloudy,91.0,56,8,SSE
3561,2019090803,20190908030217,home,107.25,14.82,2.37,1.14,0.24,293.97,263.2,2562038,Sam Eguavoen,49,2019,2,1,11:10:00,BLT,2,2,MIA,0,0,2561324,PISTOL,"1 RB, 2 TE, 2 WR",6,"4 DL, 2 LB, 5 DB",right,2019-09-08T17:10:14.000Z,2019-09-08T17:10:13.000Z,6-0,236,02/22/1993,Texas Tech,LB,MIA,BAL,1,Hard Rock Stadium,"Miami Gardens, FL",Outdoor,Natural grass,Mostly Cloudy,91.0,56,8,SSE
3562,2019090803,20190908030217,home,107.23,20.45,1.59,0.4,0.16,277.91,257.62,2562302,Jonathan Ledbetter,98,2019,2,1,11:10:00,BLT,2,2,MIA,0,0,2561324,PISTOL,"1 RB, 2 TE, 2 WR",6,"4 DL, 2 LB, 5 DB",right,2019-09-08T17:10:14.000Z,2019-09-08T17:10:13.000Z,6-4,280,09/12/1997,Georgia,DE,MIA,BAL,1,Hard Rock Stadium,"Miami Gardens, FL",Outdoor,Natural grass,Mostly Cloudy,91.0,56,8,SSE
3563,2019090803,20190908030217,home,108.2,22.54,1.24,1.79,0.12,94.37,181.03,2562782,Christian Wilkins,94,2019,2,1,11:10:00,BLT,2,2,MIA,0,0,2561324,PISTOL,"1 RB, 2 TE, 2 WR",6,"4 DL, 2 LB, 5 DB",right,2019-09-08T17:10:14.000Z,2019-09-08T17:10:13.000Z,6-4,315,12/20/1995,Clemson,DT,MIA,BAL,1,Hard Rock Stadium,"Miami Gardens, FL",Outdoor,Natural grass,Mostly Cloudy,91.0,56,8,SSE
