,GameId,PlayId,Team,X,Y,S,A,Dis,Orientation,Dir,NflId,DisplayName,JerseyNumber,Season,YardLine,Quarter,GameClock,PossessionTeam,Down,Distance,FieldPosition,HomeScoreBeforePlay,VisitorScoreBeforePlay,NflIdRusher,OffenseFormation,OffensePersonnel,DefendersInTheBox,DefensePersonnel,PlayDirection,TimeHandoff,TimeSnap,PlayerHeight,PlayerWeight,PlayerBirthDate,PlayerCollegeName,Position,HomeTeamAbbr,VisitorTeamAbbr,Week,Stadium,Location,StadiumType,Turf,GameWeather,Temperature,Humidity,WindSpeed,WindDirection
64284,2019100602,20191006021795,away,60.9,40.85,1.34,2.14,0.13,226.14,83.17,310,Matt Ryan,2,2019,47,2,01:12:00,ATL,3,1,HST,16,10,2543583,WILDCAT,"2 RB, 0 TE, 3 WR",6,"2 DL, 3 LB, 6 DB",left,2019-10-06T18:10:34.000Z,2019-10-06T18:10:33.000Z,6-4,217,05/17/1985,Boston College,QB,HOU,ATL,5,NRG Stadium,"Houston, Texas",Retractable Roof,Artificial,Partly Cloudy,86.0,63,4,E
64285,2019100602,20191006021795,away,56.1,24.41,1.54,0.52,0.16,268.51,312.06,71375,Alex Mack,51,2019,47,2,01:12:00,ATL,3,1,HST,16,10,2543583,WILDCAT,"2 RB, 0 TE, 3 WR",6,"2 DL, 3 LB, 6 DB",left,2019-10-06T18:10:34.000Z,2019-10-06T18:10:33.000Z,6-4,311,11/19/1985,California,C,HOU,ATL,5,NRG Stadium,"Houston, Texas",Retractable Roof,Artificial,Partly Cloudy,86.0,63,4,E
64286,2019100602,20191006021795,away,56.79,22.63,1.99,0.98,0.2,257.46,299.55,2495134,James Carpenter,77,2019,47,2,01:12:00,ATL,3,1,HST,16,10,2543583,WILDCAT,"2 RB, 0 TE, 3 WR",6,"2 DL, 3 LB, 6 DB",left,2019-10-06T18:10:34.000Z,2019-10-06T18:10:33.000Z,6-5,321,03/22/1989,Alabama,G,HOU,ATL,5,NRG Stadium,"Houston, Texas",Retractable Roof,Artificial,Partly Cloudy,86.0,63,4,E
64287,2019100602,20191006021795,away,57.16,16.55,1.82,2.91,0.17,285.36,298.74,2495454,Julio Jones,11,2019,47,2,01:12:00,ATL,3,1,HST,16,10,2543583,WILDCAT,"2 RB, 0 TE, 3 WR",6,"2 DL, 3 LB, 6 DB",left,2019-10-06T18:10:34.000Z,2019-10-06T18:10:33.000Z,6-3,220,02/08/1989,Alabama,WR,HOU,ATL,5,NRG Stadium,"Houston, Texas",Retractable Roof,Artificial,Partly Cloudy,86.0,63,4,E
64288,2019100602,20191006021795,away,61.5,23.76,0.14,0.65,0.02,252.96,271.0,2533040,Mohamed Sanu,12,2019,47,2,01:12:00,ATL,3,1,HST,16,10,2543583,WILDCAT,"2 RB, 0 TE, 3 WR",6,"2 DL, 3 LB, 6 DB",left,2019-10-06T18:10:34.000Z,2019-10-06T18:10:33.000Z,6-2,215,08/22/1989,Rutgers,WR,HOU,ATL,5,NRG Stadium,"Houston, Texas",Retractable Roof,Artificial,Partly Cloudy,86.0,63,4,E
64289,2019100602,20191006021795,away,61.41,22.13,2.69,4.13,0.26,288.93,338.64,2543583,Devonta Freeman,24,2019,47,2,01:12:00,ATL,3,1,HST,16,10,2543583,WILDCAT,"2 RB, 0 TE, 3 WR",6,"2 DL, 3 LB, 6 DB",left,2019-10-06T18:10:34.000Z,2019-10-06T18:10:33.000Z,5-8,206,03/15/1992,Florida State,RB,HOU,ATL,5,NRG Stadium,"Houston, Texas",Retractable Roof,Artificial,Partly Cloudy,86.0,63,4,E
64290,2019100602,20191006021795,away,56.72,21.3,2.3,0.14,0.23,275.16,311.28,2543758,Jake Matthews,70,2019,47,2,01:12:00,ATL,3,1,HST,16,10,2543583,WILDCAT,"2 RB, 0 TE, 3 WR",6,"2 DL, 3 LB, 6 DB",left,2019-10-06T18:10:34.000Z,2019-10-06T18:10:33.000Z,6-5,309,02/11/1992,Texas A&M,T,HOU,ATL,5,NRG Stadium,"Houston, Texas",Retractable Roof,Artificial,Partly Cloudy,86.0,63,4,E
64291,2019100602,20191006021795,away,57.03,25.49,0.65,0.62,0.07,286.02,295.78,2556373,Wes Schweitzer,71,2019,47,2,01:12:00,ATL,3,1,HST,16,10,2543583,WILDCAT,"2 RB, 0 TE, 3 WR",6,"2 DL, 3 LB, 6 DB",left,2019-10-06T18:10:34.000Z,2019-10-06T18:10:33.000Z,6-4,314,09/11/1993,San Jose State,G,HOU,ATL,5,NRG Stadium,"Houston, Texas",Retractable Roof,Artificial,Partly Cloudy,86.0,63,4,E
64292,2019100602,20191006021795,away,60.33,24.28,4.22,4.23,0.41,234.08,214.36,2559924,Ito Smith,25,2019,47,2,01:12:00,ATL,3,1,HST,16,10,2543583,WILDCAT,"2 RB, 0 TE, 3 WR",6,"2 DL, 3 LB, 6 DB",left,2019-10-06T18:10:34.000Z,2019-10-06T18:10:33.000Z,5-9,195,09/11/1995,Southern Mississippi,RB,HOU,ATL,5,NRG Stadium,"Houston, Texas",Retractable Roof,Artificial,Partly Cloudy,86.0,63,4,E
64293,2019100602,20191006021795,away,55.94,31.52,3.52,3.17,0.34,271.64,262.64,2560854,Calvin Ridley,18,2019,47,2,01:12:00,ATL,3,1,HST,16,10,2543583,WILDCAT,"2 RB, 0 TE, 3 WR",6,"2 DL, 3 LB, 6 DB",left,2019-10-06T18:10:34.000Z,2019-10-06T18:10:33.000Z,6-1,190,12/20/1994,Alabama,WR,HOU,ATL,5,NRG Stadium,"Houston, Texas",Retractable Roof,Artificial,Partly Cloudy,86.0,63,4,E
64294,2019100602,20191006021795,away,57.22,27.92,1.92,0.37,0.2,300.2,345.21,2562311,Kaleb McGary,76,2019,47,2,01:12:00,ATL,3,1,HST,16,10,2543583,WILDCAT,"2 RB, 0 TE, 3 WR",6,"2 DL, 3 LB, 6 DB",left,2019-10-06T18:10:34.000Z,2019-10-06T18:10:33.000Z,6-6,306,02/22/1995,Washington,T,HOU,ATL,5,NRG Stadium,"Houston, Texas",Retractable Roof,Artificial,Partly Cloudy,86.0,63,4,E
64295,2019100602,20191006021795,home,56.28,28.55,0.46,0.89,0.03,109.07,95.58,2495488,J.J. Watt,99,2019,47,2,01:12:00,ATL,3,1,HST,16,10,2543583,WILDCAT,"2 RB, 0 TE, 3 WR",6,"2 DL, 3 LB, 6 DB",left,2019-10-06T18:10:34.000Z,2019-10-06T18:10:33.000Z,6-5,288,03/22/1989,Wisconsin,DE,HOU,ATL,5,NRG Stadium,"Houston, Texas",Retractable Roof,Artificial,Partly Cloudy,86.0,63,4,E
64296,2019100602,20191006021795,home,55.16,41.93,0.43,0.86,0.05,151.68,99.43,2495872,Johnathan Joseph,24,2019,47,2,01:12:00,ATL,3,1,HST,16,10,2543583,WILDCAT,"2 RB, 0 TE, 3 WR",6,"2 DL, 3 LB, 6 DB",left,2019-10-06T18:10:34.000Z,2019-10-06T18:10:33.000Z,5-11,185,04/16/1984,South Carolina,CB,HOU,ATL,5,NRG Stadium,"Houston, Texas",Retractable Roof,Artificial,Partly Cloudy,86.0,63,4,E
64297,2019100602,20191006021795,home,43.49,31.9,1.88,1.78,0.19,66.16,279.41,2532848,Tashaun Gipson,39,2019,47,2,01:12:00,ATL,3,1,HST,16,10,2543583,WILDCAT,"2 RB, 0 TE, 3 WR",6,"2 DL, 3 LB, 6 DB",left,2019-10-06T18:10:34.000Z,2019-10-06T18:10:33.000Z,6-1,212,08/07/1990,Wyoming,FS,HOU,ATL,5,NRG Stadium,"Houston, Texas",Retractable Roof,Artificial,Partly Cloudy,86.0,63,4,E
64298,2019100602,20191006021795,home,56.14,19.19,1.59,2.18,0.15,67.0,20.16,2533049,Whitney Mercilus,59,2019,47,2,01:12:00,ATL,3,1,HST,16,10,2543583,WILDCAT,"2 RB, 0 TE, 3 WR",6,"2 DL, 3 LB, 6 DB",left,2019-10-06T18:10:34.000Z,2019-10-06T18:10:33.000Z,6-4,258,07/21/1990,Illinois,OLB,HOU,ATL,5,NRG Stadium,"Houston, Texas",Retractable Roof,Artificial,Partly Cloudy,86.0,63,4,E
64299,2019100602,20191006021795,home,53.8,21.71,1.23,3.21,0.11,80.39,127.76,2541958,Jahleel Addae,37,2019,47,2,01:12:00,ATL,3,1,HST,16,10,2543583,WILDCAT,"2 RB, 0 TE, 3 WR",6,"2 DL, 3 LB, 6 DB",left,2019-10-06T18:10:34.000Z,2019-10-06T18:10:33.000Z,5-10,195,01/24/1990,Central Michigan,SS,HOU,ATL,5,NRG Stadium,"Houston, Texas",Retractable Roof,Artificial,Partly Cloudy,86.0,63,4,E
64300,2019100602,20191006021795,home,53.27,31.9,0.27,0.85,0.02,103.32,9.73,2543505,Bradley Roby,21,2019,47,2,01:12:00,ATL,3,1,HST,16,10,2543583,WILDCAT,"2 RB, 0 TE, 3 WR",6,"2 DL, 3 LB, 6 DB",left,2019-10-06T18:10:34.000Z,2019-10-06T18:10:33.000Z,5-11,194,05/01/1992,Ohio State,CB,HOU,ATL,5,NRG Stadium,"Houston, Texas",Retractable Roof,Artificial,Partly Cloudy,86.0,63,4,E
64301,2019100602,20191006021795,home,55.64,21.5,0.85,0.77,0.08,91.05,25.63,2552490,Benardrick McKinney,55,2019,47,2,01:12:00,ATL,3,1,HST,16,10,2543583,WILDCAT,"2 RB, 0 TE, 3 WR",6,"2 DL, 3 LB, 6 DB",left,2019-10-06T18:10:34.000Z,2019-10-06T18:10:33.000Z,6-4,257,11/19/1992,Mississippi State,ILB,HOU,ATL,5,NRG Stadium,"Houston, Texas",Retractable Roof,Artificial,Partly Cloudy,86.0,63,4,E
64302,2019100602,20191006021795,home,55.02,24.25,1.43,1.71,0.13,90.01,338.17,2558094,Zach Cunningham,41,2019,47,2,01:12:00,ATL,3,1,HST,16,10,2543583,WILDCAT,"2 RB, 0 TE, 3 WR",6,"2 DL, 3 LB, 6 DB",left,2019-10-06T18:10:34.000Z,2019-10-06T18:10:33.000Z,6-3,238,12/12/1994,Vanderbilt,ILB,HOU,ATL,5,NRG Stadium,"Houston, Texas",Retractable Roof,Artificial,Partly Cloudy,86.0,63,4,E
64303,2019100602,20191006021795,home,51.18,18.79,1.55,2.12,0.14,84.82,90.68,2560851,Justin Reid,20,2019,47,2,01:12:00,ATL,3,1,HST,16,10,2543583,WILDCAT,"2 RB, 0 TE, 3 WR",6,"2 DL, 3 LB, 6 DB",left,2019-10-06T18:10:34.000Z,2019-10-06T18:10:33.000Z,6-1,204,02/15/1997,Stanford,SS,HOU,ATL,5,NRG Stadium,"Houston, Texas",Retractable Roof,Artificial,Partly Cloudy,86.0,63,4,E
64304,2019100602,20191006021795,home,55.38,16.21,1.24,3.07,0.11,79.21,359.45,2562295,Lonnie Johnson,32,2019,47,2,01:12:00,ATL,3,1,HST,16,10,2543583,WILDCAT,"2 RB, 0 TE, 3 WR",6,"2 DL, 3 LB, 6 DB",left,2019-10-06T18:10:34.000Z,2019-10-06T18:10:33.000Z,6-2,213,11/04/1995,Kentucky,DB,HOU,ATL,5,NRG Stadium,"Houston, Texas",Retractable Roof,Artificial,Partly Cloudy,86.0,63,4,E
64305,2019100602,20191006021795,home,56.13,25.77,0.33,0.95,0.04,106.41,113.01,2562324,Charles Omenihu,94,2019,47,2,01:12:00,ATL,3,1,HST,16,10,2543583,WILDCAT,"2 RB, 0 TE, 3 WR",6,"2 DL, 3 LB, 6 DB",left,2019-10-06T18:10:34.000Z,2019-10-06T18:10:33.000Z,6-5,280,08/20/1997,Texas,DE,HOU,ATL,5,NRG Stadium,"Houston, Texas",Retractable Roof,Artificial,Partly Cloudy,86.0,63,4,E
