,GameId,PlayId,Team,X,Y,S,A,Dis,Orientation,Dir,NflId,DisplayName,JerseyNumber,Season,YardLine,Quarter,GameClock,PossessionTeam,Down,Distance,FieldPosition,HomeScoreBeforePlay,VisitorScoreBeforePlay,NflIdRusher,OffenseFormation,OffensePersonnel,DefendersInTheBox,DefensePersonnel,PlayDirection,TimeHandoff,TimeSnap,PlayerHeight,PlayerWeight,PlayerBirthDate,PlayerCollegeName,Position,HomeTeamAbbr,VisitorTeamAbbr,Week,Stadium,Location,StadiumType,Turf,GameWeather,Temperature,Humidity,WindSpeed,WindDirection
57728,2019092911,20190929110366,away,57.32,26.38,1.25,2.82,0.15,277.73,336.35,2539230,Abry Jones,95,2019,47,1,09:07:00,DEN,1,10,DEN,0,0,2559947,SHOTGUN,"1 RB, 3 TE, 1 WR",7,"3 DL, 4 LB, 4 DB",right,2019-09-29T20:40:13.000Z,2019-09-29T20:40:12.000Z,6-4,318,09/08/1991,Georgia,NT,DEN,JAX,4,Empower Field at Mile High,"Denver, CO",Outdoor,Grass,Sunny,87.0,11,14 Gusting to 24,Southwest
57729,2019092911,20190929110366,away,65.41,44.81,3.17,1.8,0.31,228.76,105.65,2541162,A.J. Bouye,21,2019,47,1,09:07:00,DEN,1,10,DEN,0,0,2559947,SHOTGUN,"1 RB, 3 TE, 1 WR",7,"3 DL, 4 LB, 4 DB",right,2019-09-29T20:40:13.000Z,2019-09-29T20:40:12.000Z,6-0,191,08/16/1991,Central Florida,CB,DEN,JAX,4,Empower Field at Mile High,"Denver, CO",Outdoor,Grass,Sunny,87.0,11,14 Gusting to 24,Southwest
57730,2019092911,20190929110366,away,61.37,22.62,1.73,0.9,0.17,265.5,249.42,2555329,Myles Jack,44,2019,47,1,09:07:00,DEN,1,10,DEN,0,0,2559947,SHOTGUN,"1 RB, 3 TE, 1 WR",7,"3 DL, 4 LB, 4 DB",right,2019-09-29T20:40:13.000Z,2019-09-29T20:40:12.000Z,6-1,244,09/03/1995,UCLA,OLB,DEN,JAX,4,Empower Field at Mile High,"Denver, CO",Outdoor,Grass,Sunny,87.0,11,14 Gusting to 24,Southwest
57731,2019092911,20190929110366,away,58.88,30.63,1.54,1.62,0.14,237.7,194.71,2556711,Jarrod Wilson,26,2019,47,1,09:07:00,DEN,1,10,DEN,0,0,2559947,SHOTGUN,"1 RB, 3 TE, 1 WR",7,"3 DL, 4 LB, 4 DB",right,2019-09-29T20:40:13.000Z,2019-09-29T20:40:12.000Z,6-2,210,02/09/1994,Michigan,SS,DEN,JAX,4,Empower Field at Mile High,"Denver, CO",Outdoor,Grass,Sunny,87.0,11,14 Gusting to 24,Southwest
57732,2019092911,20190929110366,away,57.28,19.8,3.31,1.06,0.33,271.47,359.35,2557839,Dawuane Smoot,94,2019,47,1,09:07:00,DEN,1,10,DEN,0,0,2559947,SHOTGUN,"1 RB, 3 TE, 1 WR",7,"3 DL, 4 LB, 4 DB",right,2019-09-29T20:40:13.000Z,2019-09-29T20:40:12.000Z,6-3,264,03/02/1995,Illinois,DE,DEN,JAX,4,Empower Field at Mile High,"Denver, CO",Outdoor,Grass,Sunny,87.0,11,14 Gusting to 24,Southwest
57733,2019092911,20190929110366,away,60.66,20.9,2.18,1.46,0.22,257.56,302.73,2560758,Leon Jacobs,48,2019,47,1,09:07:00,DEN,1,10,DEN,0,0,2559947,SHOTGUN,"1 RB, 3 TE, 1 WR",7,"3 DL, 4 LB, 4 DB",right,2019-09-29T20:40:13.000Z,2019-09-29T20:40:12.000Z,6-2,245,10/03/1995,Wisconsin,LB,DEN,JAX,4,Empower Field at Mile High,"Denver, CO",Outdoor,Grass,Sunny,87.0,11,14 Gusting to 24,Southwest
57734,2019092911,20190929110366,away,56.83,23.87,2.78,1.01,0.28,254.69,345.04,2560983,Taven Bryan,90,2019,47,1,09:07:00,DEN,1,10,DEN,0,0,2559947,SHOTGUN,"1 RB, 3 TE, 1 WR",7,"3 DL, 4 LB, 4 DB",right,2019-09-29T20:40:13.000Z,2019-09-29T20:40:12.000Z,6-5,291,03/11/1996,Florida,DT,DEN,JAX,4,Empower Field at Mile High,"Denver, CO",Outdoor,Grass,Sunny,87.0,11,14 Gusting to 24,Southwest
57735,2019092911,20190929110366,away,59.39,15.08,1.71,1.92,0.16,358.56,4.65,2561008,Ronnie Harrison,36,2019,47,1,09:07:00,DEN,1,10,DEN,0,0,2559947,SHOTGUN,"1 RB, 3 TE, 1 WR",7,"3 DL, 4 LB, 4 DB",right,2019-09-29T20:40:13.000Z,2019-09-29T20:40:12.000Z,6-3,214,04/18/1997,Alabama,DB,DEN,JAX,4,Empower Field at Mile High,"Denver, CO",Outdoor,Grass,Sunny,87.0,11,14 Gusting to 24,Southwest
57736,2019092911,20190929110366,away,74.98,24.55,1.0,0.9,0.1,266.18,74.84,2561340,Tre Herndon,37,2019,47,1,09:07:00,DEN,1,10,DEN,0,0,2559947,SHOTGUN,"1 RB, 3 TE, 1 WR",7,"3 DL, 4 LB, 4 DB",right,2019-09-29T20:40:13.000Z,2019-09-29T20:40:12.000Z,5-11,185,03/05/1996,Vanderbilt,CB,DEN,JAX,4,Empower Field at Mile High,"Denver, CO",Outdoor,Grass,Sunny,87.0,11,14 Gusting to 24,Southwest
57737,2019092911,20190929110366,away,55.98,28.48,2.23,0.82,0.22,188.27,286.37,2562619,Josh Allen,41,2019,47,1,09:07:00,DEN,1,10,DEN,0,0,2559947,SHOTGUN,"1 RB, 3 TE, 1 WR",7,"3 DL, 4 LB, 4 DB",right,2019-09-29T20:40:13.000Z,2019-09-29T20:40:12.000Z,6-5,262,07/13/1997,Kentucky,LB,DEN,JAX,4,Empower Field at Mile High,"Denver, CO",Outdoor,Grass,Sunny,87.0,11,14 Gusting to 24,Southwest
57738,2019092911,20190929110366,away,60.98,27.07,1.75,2.5,0.17,271.29,220.38,2562954,Quincy Williams,56,2019,47,1,09:07:00,DEN,1,10,DEN,0,0,2559947,SHOTGUN,"1 RB, 3 TE, 1 WR",7,"3 DL, 4 LB, 4 DB",right,2019-09-29T20:40:13.000Z,2019-09-29T20:40:12.000Z,5-11,226,08/28/1996,Murray State,LB,DEN,JAX,4,Empower Field at Mile High,"Denver, CO",Outdoor,Grass,Sunny,87.0,11,14 Gusting to 24,Southwest
57739,2019092911,20190929110366,home,51.92,23.96,0.72,2.33,0.06,99.66,281.47,382,Joe Flacco,5,2019,47,1,09:07:00,DEN,1,10,DEN,0,0,2559947,SHOTGUN,"1 RB, 3 TE, 1 WR",7,"3 DL, 4 LB, 4 DB",right,2019-09-29T20:40:13.000Z,2019-09-29T20:40:12.000Z,6-6,245,01/16/1985,Delaware,QB,DEN,JAX,4,Empower Field at Mile High,"Denver, CO",Outdoor,Grass,Sunny,87.0,11,14 Gusting to 24,Southwest
57740,2019092911,20190929110366,home,56.55,23.25,1.58,1.7,0.16,20.31,2.79,2533454,Ronald Leary,65,2019,47,1,09:07:00,DEN,1,10,DEN,0,0,2559947,SHOTGUN,"1 RB, 3 TE, 1 WR",7,"3 DL, 4 LB, 4 DB",right,2019-09-29T20:40:13.000Z,2019-09-29T20:40:12.000Z,6-3,320,04/29/1989,Memphis,G,DEN,JAX,4,Empower Field at Mile High,"Denver, CO",Outdoor,Grass,Sunny,87.0,11,14 Gusting to 24,Southwest
57741,2019092911,20190929110366,home,56.32,19.75,1.66,1.4,0.16,77.84,40.86,2552399,Jeff Heuerman,82,2019,47,1,09:07:00,DEN,1,10,DEN,0,0,2559947,SHOTGUN,"1 RB, 3 TE, 1 WR",7,"3 DL, 4 LB, 4 DB",right,2019-09-29T20:40:13.000Z,2019-09-29T20:40:12.000Z,6-5,255,11/24/1992,Ohio State,TE,DEN,JAX,4,Empower Field at Mile High,"Denver, CO",Outdoor,Grass,Sunny,87.0,11,14 Gusting to 24,Southwest
57742,2019092911,20190929110366,home,57.61,25.42,2.27,2.64,0.23,28.18,62.0,2555133,Connor McGovern,60,2019,47,1,09:07:00,DEN,1,10,DEN,0,0,2559947,SHOTGUN,"1 RB, 3 TE, 1 WR",7,"3 DL, 4 LB, 4 DB",right,2019-09-29T20:40:13.000Z,2019-09-29T20:40:12.000Z,6-4,306,04/27/1993,Missouri,G,DEN,JAX,4,Empower Field at Mile High,"Denver, CO",Outdoor,Grass,Sunny,87.0,11,14 Gusting to 24,Southwest
57743,2019092911,20190929110366,home,55.59,27.55,1.1,0.66,0.11,31.69,306.07,2558014,Garett Bolles,72,2019,47,1,09:07:00,DEN,1,10,DEN,0,0,2559947,SHOTGUN,"1 RB, 3 TE, 1 WR",7,"3 DL, 4 LB, 4 DB",right,2019-09-29T20:40:13.000Z,2019-09-29T20:40:12.000Z,6-5,300,05/27/1992,Utah,T,DEN,JAX,4,Empower Field at Mile High,"Denver, CO",Outdoor,Grass,Sunny,87.0,11,14 Gusting to 24,Southwest
57744,2019092911,20190929110366,home,57.2,22.44,2.18,1.17,0.22,38.65,49.38,2559295,Elijah Wilkinson,68,2019,47,1,09:07:00,DEN,1,10,DEN,0,0,2559947,SHOTGUN,"1 RB, 3 TE, 1 WR",7,"3 DL, 4 LB, 4 DB",right,2019-09-29T20:40:13.000Z,2019-09-29T20:40:12.000Z,6-6,329,02/10/1995,Massachusetts,T,DEN,JAX,4,Empower Field at Mile High,"Denver, CO",Outdoor,Grass,Sunny,87.0,11,14 Gusting to 24,Southwest
57745,2019092911,20190929110366,home,52.52,23.17,2.57,1.68,0.25,40.27,46.4,2559947,Phillip Lindsay,30,2019,47,1,09:07:00,DEN,1,10,DEN,0,0,2559947,SHOTGUN,"1 RB, 3 TE, 1 WR",7,"3 DL, 4 LB, 4 DB",right,2019-09-29T20:40:13.000Z,2019-09-29T20:40:12.000Z,5-8,190,07/24/1994,Colorado,RB,DEN,JAX,4,Empower Field at Mile High,"Denver, CO",Outdoor,Grass,Sunny,87.0,11,14 Gusting to 24,Southwest
57746,2019092911,20190929110366,home,58.5,44.47,5.29,3.82,0.51,115.34,106.37,2560888,Courtland Sutton,14,2019,47,1,09:07:00,DEN,1,10,DEN,0,0,2559947,SHOTGUN,"1 RB, 3 TE, 1 WR",7,"3 DL, 4 LB, 4 DB",right,2019-09-29T20:40:13.000Z,2019-09-29T20:40:12.000Z,6-4,216,10/10/1995,Southern Methodist,WR,DEN,JAX,4,Empower Field at Mile High,"Denver, CO",Outdoor,Grass,Sunny,87.0,11,14 Gusting to 24,Southwest
57747,2019092911,20190929110366,home,57.0,18.86,2.41,0.3,0.24,41.8,53.27,2562383,Noah Fant,87,2019,47,1,09:07:00,DEN,1,10,DEN,0,0,2559947,SHOTGUN,"1 RB, 3 TE, 1 WR",7,"3 DL, 4 LB, 4 DB",right,2019-09-29T20:40:13.000Z,2019-09-29T20:40:12.000Z,6-4,249,11/20/1997,Iowa,TE,DEN,JAX,4,Empower Field at Mile High,"Denver, CO",Outdoor,Grass,Sunny,87.0,11,14 Gusting to 24,Southwest
57748,2019092911,20190929110366,home,54.29,25.23,5.57,3.52,0.54,120.57,171.13,2562626,Andrew Beck,83,2019,47,1,09:07:00,DEN,1,10,DEN,0,0,2559947,SHOTGUN,"1 RB, 3 TE, 1 WR",7,"3 DL, 4 LB, 4 DB",right,2019-09-29T20:40:13.000Z,2019-09-29T20:40:12.000Z,6-3,255,05/15/1996,Texas,TE,DEN,JAX,4,Empower Field at Mile High,"Denver, CO",Outdoor,Grass,Sunny,87.0,11,14 Gusting to 24,Southwest
57749,2019092911,20190929110366,home,56.52,26.64,0.75,1.66,0.08,47.8,8.77,2562714,Dalton Risner,66,2019,47,1,09:07:00,DEN,1,10,DEN,0,0,2559947,SHOTGUN,"1 RB, 3 TE, 1 WR",7,"3 DL, 4 LB, 4 DB",right,2019-09-29T20:40:13.000Z,2019-09-29T20:40:12.000Z,6-5,312,07/13/1995,Kansas State,G,DEN,JAX,4,Empower Field at Mile High,"Denver, CO",Outdoor,Grass,Sunny,87.0,11,14 Gusting to 24,Southwest
