,GameId,PlayId,Team,X,Y,S,A,Dis,Orientation,Dir,NflId,DisplayName,JerseyNumber,Season,YardLine,Quarter,GameClock,PossessionTeam,Down,Distance,FieldPosition,HomeScoreBeforePlay,VisitorScoreBeforePlay,NflIdRusher,OffenseFormation,OffensePersonnel,DefendersInTheBox,DefensePersonnel,PlayDirection,TimeHandoff,TimeSnap,PlayerHeight,PlayerWeight,PlayerBirthDate,PlayerCollegeName,Position,HomeTeamAbbr,VisitorTeamAbbr,Week,Stadium,Location,StadiumType,Turf,GameWeather,Temperature,Humidity,WindSpeed,WindDirection
55286,2019092908,20190929081830,away,42.5,24.52,2.66,1.25,0.29,214.51,154.8,808,Duane Brown,76,2019,30,2,02:00:00,SEA,1,10,ARZ,3,17,2558865,SHOTGUN,"1 RB, 2 TE, 2 WR",7,"3 DL, 4 LB, 4 DB",left,2019-09-29T21:18:44.000Z,2019-09-29T21:18:43.000Z,6-4,315,08/30/1985,Virginia Tech,T,ARI,SEA,4,State Farm Stadium,"Glendale, AZ",Dome,Grass,N/A Indoors,,0,,
55287,2019092908,20190929081830,away,41.18,26.79,2.1,0.72,0.21,126.48,177.23,497016,Mike Iupati,70,2019,30,2,02:00:00,SEA,1,10,ARZ,3,17,2558865,SHOTGUN,"1 RB, 2 TE, 2 WR",7,"3 DL, 4 LB, 4 DB",left,2019-09-29T21:18:44.000Z,2019-09-29T21:18:43.000Z,6-5,331,05/12/1987,Idaho,OG,ARI,SEA,4,State Farm Stadium,"Glendale, AZ",Dome,Grass,N/A Indoors,,0,,
55288,2019092908,20190929081830,away,44.99,29.91,0.46,1.55,0.04,310.79,347.05,2532975,Russell Wilson,3,2019,30,2,02:00:00,SEA,1,10,ARZ,3,17,2558865,SHOTGUN,"1 RB, 2 TE, 2 WR",7,"3 DL, 4 LB, 4 DB",left,2019-09-29T21:18:44.000Z,2019-09-29T21:18:43.000Z,5-11,215,11/29/1988,Wisconsin,QB,ARI,SEA,4,State Farm Stadium,"Glendale, AZ",Dome,Grass,N/A Indoors,,0,,
55289,2019092908,20190929081830,away,41.32,29.53,1.89,0.64,0.19,320.11,165.4,2540166,D.J. Fluker,78,2019,30,2,02:00:00,SEA,1,10,ARZ,3,17,2558865,SHOTGUN,"1 RB, 2 TE, 2 WR",7,"3 DL, 4 LB, 4 DB",left,2019-09-29T21:18:44.000Z,2019-09-29T21:18:43.000Z,6-5,342,03/13/1991,Alabama,OG,ARI,SEA,4,State Farm Stadium,"Glendale, AZ",Dome,Grass,N/A Indoors,,0,,
55290,2019092908,20190929081830,away,42.18,31.92,4.01,1.28,0.39,214.01,152.53,2541199,Luke Willson,82,2019,30,2,02:00:00,SEA,1,10,ARZ,3,17,2558865,SHOTGUN,"1 RB, 2 TE, 2 WR",7,"3 DL, 4 LB, 4 DB",left,2019-09-29T21:18:44.000Z,2019-09-29T21:18:43.000Z,6-5,254,01/15/1990,Rice,TE,ARI,SEA,4,State Farm Stadium,"Glendale, AZ",Dome,Grass,N/A Indoors,,0,,
55291,2019092908,20190929081830,away,40.5,27.82,3.21,1.25,0.32,223.53,209.74,2550135,Justin Britt,68,2019,30,2,02:00:00,SEA,1,10,ARZ,3,17,2558865,SHOTGUN,"1 RB, 2 TE, 2 WR",7,"3 DL, 4 LB, 4 DB",left,2019-09-29T21:18:44.000Z,2019-09-29T21:18:43.000Z,6-6,315,05/29/1991,Missouri,C,ARI,SEA,4,State Farm Stadium,"Glendale, AZ",Dome,Grass,N/A Indoors,,0,,
55292,2019092908,20190929081830,away,39.2,20.03,4.63,2.84,0.45,268.94,250.6,2552430,Tyler Lockett,16,2019,30,2,02:00:00,SEA,1,10,ARZ,3,17,2558865,SHOTGUN,"1 RB, 2 TE, 2 WR",7,"3 DL, 4 LB, 4 DB",left,2019-09-29T21:18:44.000Z,2019-09-29T21:18:43.000Z,5-10,182,09/28/1992,Kansas State,WR,ARI,SEA,4,State Farm Stadium,"Glendale, AZ",Dome,Grass,N/A Indoors,,0,,
55293,2019092908,20190929081830,away,40.17,30.92,3.71,1.18,0.37,247.18,216.36,2555395,Germain Ifedi,65,2019,30,2,02:00:00,SEA,1,10,ARZ,3,17,2558865,SHOTGUN,"1 RB, 2 TE, 2 WR",7,"3 DL, 4 LB, 4 DB",left,2019-09-29T21:18:44.000Z,2019-09-29T21:18:43.000Z,6-5,325,06/02/1994,Texas A&M,G,ARI,SEA,4,State Farm Stadium,"Glendale, AZ",Dome,Grass,N/A Indoors,,0,,
55294,2019092908,20190929081830,away,40.19,8.84,3.83,4.12,0.37,245.82,252.14,2558856,David Moore,83,2019,30,2,02:00:00,SEA,1,10,ARZ,3,17,2558865,SHOTGUN,"1 RB, 2 TE, 2 WR",7,"3 DL, 4 LB, 4 DB",left,2019-09-29T21:18:44.000Z,2019-09-29T21:18:43.000Z,6-0,215,01/15/1995,East Central,WR,ARI,SEA,4,State Farm Stadium,"Glendale, AZ",Dome,Grass,N/A Indoors,,0,,
55295,2019092908,20190929081830,away,44.44,30.19,4.67,3.12,0.45,240.58,196.92,2558865,Chris Carson,32,2019,30,2,02:00:00,SEA,1,10,ARZ,3,17,2558865,SHOTGUN,"1 RB, 2 TE, 2 WR",7,"3 DL, 4 LB, 4 DB",left,2019-09-29T21:18:44.000Z,2019-09-29T21:18:43.000Z,5-11,222,09/16/1994,Oklahoma State,RB,ARI,SEA,4,State Farm Stadium,"Glendale, AZ",Dome,Grass,N/A Indoors,,0,,
55296,2019092908,20190929081830,away,41.62,33.49,2.8,1.59,0.27,278.57,177.31,2561046,Will Dissly,88,2019,30,2,02:00:00,SEA,1,10,ARZ,3,17,2558865,SHOTGUN,"1 RB, 2 TE, 2 WR",7,"3 DL, 4 LB, 4 DB",left,2019-09-29T21:18:44.000Z,2019-09-29T21:18:43.000Z,6-4,267,07/08/1996,Washington,TE,ARI,SEA,4,State Farm Stadium,"Glendale, AZ",Dome,Grass,N/A Indoors,,0,,
55297,2019092908,20190929081830,home,41.75,24.13,2.59,2.18,0.26,71.31,122.61,2505660,Terrell Suggs,56,2019,30,2,02:00:00,SEA,1,10,ARZ,3,17,2558865,SHOTGUN,"1 RB, 2 TE, 2 WR",7,"3 DL, 4 LB, 4 DB",left,2019-09-29T21:18:44.000Z,2019-09-29T21:18:43.000Z,6-3,265,10/11/1982,Arizona State,OLB,ARI,SEA,4,State Farm Stadium,"Glendale, AZ",Dome,Grass,N/A Indoors,,0,,
55298,2019092908,20190929081830,home,35.23,36.54,1.55,2.8,0.14,111.82,158.02,2507917,Tramaine Brock,20,2019,30,2,02:00:00,SEA,1,10,ARZ,3,17,2558865,SHOTGUN,"1 RB, 2 TE, 2 WR",7,"3 DL, 4 LB, 4 DB",left,2019-09-29T21:18:44.000Z,2019-09-29T21:18:43.000Z,6-0,188,08/20/1988,Belhaven,CB,ARI,SEA,4,State Farm Stadium,"Glendale, AZ",Dome,Grass,N/A Indoors,,0,,
55299,2019092908,20190929081830,home,40.7,33.71,2.81,0.67,0.28,112.92,143.56,2533538,Chandler Jones,55,2019,30,2,02:00:00,SEA,1,10,ARZ,3,17,2558865,SHOTGUN,"1 RB, 2 TE, 2 WR",7,"3 DL, 4 LB, 4 DB",left,2019-09-29T21:18:44.000Z,2019-09-29T21:18:43.000Z,6-5,265,02/27/1990,Syracuse,OLB,ARI,SEA,4,State Farm Stadium,"Glendale, AZ",Dome,Grass,N/A Indoors,,0,,
55300,2019092908,20190929081830,home,23.11,29.6,1.51,2.38,0.16,107.83,229.42,2539943,D.J. Swearinger,36,2019,30,2,02:00:00,SEA,1,10,ARZ,3,17,2558865,SHOTGUN,"1 RB, 2 TE, 2 WR",7,"3 DL, 4 LB, 4 DB",left,2019-09-29T21:18:44.000Z,2019-09-29T21:18:43.000Z,5-10,205,09/01/1991,South Carolina,FS,ARI,SEA,4,State Farm Stadium,"Glendale, AZ",Dome,Grass,N/A Indoors,,0,,
55301,2019092908,20190929081830,home,37.42,30.72,4.21,3.06,0.41,78.2,153.33,2552315,Jordan Hicks,58,2019,30,2,02:00:00,SEA,1,10,ARZ,3,17,2558865,SHOTGUN,"1 RB, 2 TE, 2 WR",7,"3 DL, 4 LB, 4 DB",left,2019-09-29T21:18:44.000Z,2019-09-29T21:18:43.000Z,6-1,236,06/27/1992,Texas,MLB,ARI,SEA,4,State Farm Stadium,"Glendale, AZ",Dome,Grass,N/A Indoors,,0,,
55302,2019092908,20190929081830,home,40.55,26.38,2.13,1.16,0.23,90.0,163.58,2553437,Rodney Gunter,95,2019,30,2,02:00:00,SEA,1,10,ARZ,3,17,2558865,SHOTGUN,"1 RB, 2 TE, 2 WR",7,"3 DL, 4 LB, 4 DB",left,2019-09-29T21:18:44.000Z,2019-09-29T21:18:43.000Z,6-5,305,01/19/1992,Delaware State,DT,ARI,SEA,4,State Farm Stadium,"Glendale, AZ",Dome,Grass,N/A Indoors,,0,,
55303,2019092908,20190929081830,home,37.24,27.78,3.45,4.13,0.32,96.9,154.43,2557887,Haason Reddick,43,2019,30,2,02:00:00,SEA,1,10,ARZ,3,17,2558865,SHOTGUN,"1 RB, 2 TE, 2 WR",7,"3 DL, 4 LB, 4 DB",left,2019-09-29T21:18:44.000Z,2019-09-29T21:18:43.000Z,6-1,235,09/22/1994,Temple,ILB,ARI,SEA,4,State Farm Stadium,"Glendale, AZ",Dome,Grass,N/A Indoors,,0,,
55304,2019092908,20190929081830,home,32.98,18.73,1.79,1.41,0.17,29.83,223.93,2558009,Budda Baker,32,2019,30,2,02:00:00,SEA,1,10,ARZ,3,17,2558865,SHOTGUN,"1 RB, 2 TE, 2 WR",7,"3 DL, 4 LB, 4 DB",left,2019-09-29T21:18:44.000Z,2019-09-29T21:18:43.000Z,5-10,195,01/10/1996,Washington,FS,ARI,SEA,4,State Farm Stadium,"Glendale, AZ",Dome,Grass,N/A Indoors,,0,,
55305,2019092908,20190929081830,home,41.37,31.99,3.4,1.9,0.35,117.92,144.16,2562219,Zach Allen,97,2019,30,2,02:00:00,SEA,1,10,ARZ,3,17,2558865,SHOTGUN,"1 RB, 2 TE, 2 WR",7,"3 DL, 4 LB, 4 DB",left,2019-09-29T21:18:44.000Z,2019-09-29T21:18:43.000Z,6-5,281,08/20/1997,Boston College,DE,ARI,SEA,4,State Farm Stadium,"Glendale, AZ",Dome,Grass,N/A Indoors,,0,,
55306,2019092908,20190929081830,home,38.17,8.65,3.24,3.8,0.32,98.96,255.45,2562318,Byron Murphy,33,2019,30,2,02:00:00,SEA,1,10,ARZ,3,17,2558865,SHOTGUN,"1 RB, 2 TE, 2 WR",7,"3 DL, 4 LB, 4 DB",left,2019-09-29T21:18:44.000Z,2019-09-29T21:18:43.000Z,5-11,190,01/18/1998,Washington,DB,ARI,SEA,4,State Farm Stadium,"Glendale, AZ",Dome,Grass,N/A Indoors,,0,,
55307,2019092908,20190929081830,home,40.89,29.82,1.61,1.53,0.17,138.34,144.46,2563016,Miles Brown,72,2019,30,2,02:00:00,SEA,1,10,ARZ,3,17,2558865,SHOTGUN,"1 RB, 2 TE, 2 WR",7,"3 DL, 4 LB, 4 DB",left,2019-09-29T21:18:44.000Z,2019-09-29T21:18:43.000Z,6-2,320,09/04/1997,Wofford,NT,ARI,SEA,4,State Farm Stadium,"Glendale, AZ",Dome,Grass,N/A Indoors,,0,,
