,GameId,PlayId,Team,X,Y,S,A,Dis,Orientation,Dir,NflId,DisplayName,JerseyNumber,Season,YardLine,Quarter,GameClock,PossessionTeam,Down,Distance,FieldPosition,HomeScoreBeforePlay,VisitorScoreBeforePlay,NflIdRusher,OffenseFormation,OffensePersonnel,DefendersInTheBox,DefensePersonnel,PlayDirection,TimeHandoff,TimeSnap,PlayerHeight,PlayerWeight,PlayerBirthDate,PlayerCollegeName,Position,HomeTeamAbbr,VisitorTeamAbbr,Week,Stadium,Location,StadiumType,Turf,GameWeather,Temperature,Humidity,WindSpeed,WindDirection
69872,2019100608,20191006081218,away,59.68,30.34,4.64,2.34,0.45,273.14,283.84,2506404,Frank Gore,20,2019,46,2,07:25:00,BUF,2,9,TEN,0,0,2506404,SINGLEBACK,"1 RB, 1 TE, 3 WR",7,"2 DL, 4 LB, 5 DB",left,2019-10-06T17:51:18.000Z,2019-10-06T17:51:16.000Z,5-9,212,05/14/1983,Miami,RB,TEN,BUF,5,Nissan Stadium,"Nashville, TN",Outdoors,Grass,Cloudy,77.0,71,13,S
69873,2019100608,20191006081218,away,54.4,36.39,4.51,1.3,0.44,230.13,219.59,2543847,John Brown,15,2019,46,2,07:25:00,BUF,2,9,TEN,0,0,2506404,SINGLEBACK,"1 RB, 1 TE, 3 WR",7,"2 DL, 4 LB, 5 DB",left,2019-10-06T17:51:18.000Z,2019-10-06T17:51:16.000Z,5-11,179,04/03/1990,Pittsburg State,WR,TEN,BUF,5,Nissan Stadium,"Nashville, TN",Outdoors,Grass,Cloudy,77.0,71,13,S
69874,2019100608,20191006081218,away,56.39,29.49,0.74,2.57,0.08,276.33,178.34,2550140,Spencer Long,61,2019,46,2,07:25:00,BUF,2,9,TEN,0,0,2506404,SINGLEBACK,"1 RB, 1 TE, 3 WR",7,"2 DL, 4 LB, 5 DB",left,2019-10-06T17:51:18.000Z,2019-10-06T17:51:16.000Z,6-5,318,11/08/1990,Nebraska,C,TEN,BUF,5,Nissan Stadium,"Nashville, TN",Outdoors,Grass,Cloudy,77.0,71,13,S
69875,2019100608,20191006081218,away,56.28,27.44,1.17,2.96,0.12,222.61,197.71,2552343,Jon Feliciano,76,2019,46,2,07:25:00,BUF,2,9,TEN,0,0,2506404,SINGLEBACK,"1 RB, 1 TE, 3 WR",7,"2 DL, 4 LB, 5 DB",left,2019-10-06T17:51:18.000Z,2019-10-06T17:51:16.000Z,6-4,323,02/10/1992,Miami,G,TEN,BUF,5,Nissan Stadium,"Nashville, TN",Outdoors,Grass,Cloudy,77.0,71,13,S
69876,2019100608,20191006081218,away,57.05,30.89,4.06,2.28,0.43,307.72,354.7,2553824,Quinton Spain,67,2019,46,2,07:25:00,BUF,2,9,TEN,0,0,2506404,SINGLEBACK,"1 RB, 1 TE, 3 WR",7,"2 DL, 4 LB, 5 DB",left,2019-10-06T17:51:18.000Z,2019-10-06T17:51:16.000Z,6-4,330,08/07/1991,West Virginia,G,TEN,BUF,5,Nissan Stadium,"Nashville, TN",Outdoors,Grass,Cloudy,77.0,71,13,S
69877,2019100608,20191006081218,away,55.77,8.97,1.48,1.74,0.14,263.28,327.22,2556836,Duke Williams,82,2019,46,2,07:25:00,BUF,2,9,TEN,0,0,2506404,SINGLEBACK,"1 RB, 1 TE, 3 WR",7,"2 DL, 4 LB, 5 DB",left,2019-10-06T17:51:18.000Z,2019-10-06T17:51:16.000Z,6-3,225,05/13/1993,Auburn,WR,TEN,BUF,5,Nissan Stadium,"Nashville, TN",Outdoors,Grass,Cloudy,77.0,71,13,S
69878,2019100608,20191006081218,away,57.94,27.78,2.16,1.71,0.22,183.19,79.57,2557875,Dion Dawkins,73,2019,46,2,07:25:00,BUF,2,9,TEN,0,0,2506404,SINGLEBACK,"1 RB, 1 TE, 3 WR",7,"2 DL, 4 LB, 5 DB",left,2019-10-06T17:51:18.000Z,2019-10-06T17:51:16.000Z,6-5,320,04/26/1994,Temple,T,TEN,BUF,5,Nissan Stadium,"Nashville, TN",Outdoors,Grass,Cloudy,77.0,71,13,S
69879,2019100608,20191006081218,away,55.26,19.96,3.58,0.54,0.35,259.72,276.7,2558129,Isaiah McKenzie,19,2019,46,2,07:25:00,BUF,2,9,TEN,0,0,2506404,SINGLEBACK,"1 RB, 1 TE, 3 WR",7,"2 DL, 4 LB, 5 DB",left,2019-10-06T17:51:18.000Z,2019-10-06T17:51:16.000Z,5-8,173,04/09/1995,Georgia,WR,TEN,BUF,5,Nissan Stadium,"Nashville, TN",Outdoors,Grass,Cloudy,77.0,71,13,S
69880,2019100608,20191006081218,away,59.92,29.68,4.52,1.31,0.45,17.88,94.97,2560955,Josh Allen,17,2019,46,2,07:25:00,BUF,2,9,TEN,0,0,2506404,SINGLEBACK,"1 RB, 1 TE, 3 WR",7,"2 DL, 4 LB, 5 DB",left,2019-10-06T17:51:18.000Z,2019-10-06T17:51:16.000Z,6-5,237,05/21/1996,Wyoming,QB,TEN,BUF,5,Nissan Stadium,"Nashville, TN",Outdoors,Grass,Cloudy,77.0,71,13,S
69881,2019100608,20191006081218,away,55.19,30.74,1.65,2.6,0.16,250.27,225.93,2562266,Cody Ford,70,2019,46,2,07:25:00,BUF,2,9,TEN,0,0,2506404,SINGLEBACK,"1 RB, 1 TE, 3 WR",7,"2 DL, 4 LB, 5 DB",left,2019-10-06T17:51:18.000Z,2019-10-06T17:51:16.000Z,6-3,329,12/28/1996,Oklahoma,T,TEN,BUF,5,Nissan Stadium,"Nashville, TN",Outdoors,Grass,Cloudy,77.0,71,13,S
69882,2019100608,20191006081218,away,54.71,32.74,3.58,2.12,0.37,241.19,231.23,2562681,Dawson Knox,88,2019,46,2,07:25:00,BUF,2,9,TEN,0,0,2506404,SINGLEBACK,"1 RB, 1 TE, 3 WR",7,"2 DL, 4 LB, 5 DB",left,2019-10-06T17:51:18.000Z,2019-10-06T17:51:16.000Z,6-4,254,11/14/1996,Mississippi,TE,TEN,BUF,5,Nissan Stadium,"Nashville, TN",Outdoors,Grass,Cloudy,77.0,71,13,S
69883,2019100608,20191006081218,home,52.08,30.84,3.12,1.93,0.3,78.64,59.49,2354,Wesley Woodyard,59,2019,46,2,07:25:00,BUF,2,9,TEN,0,0,2506404,SINGLEBACK,"1 RB, 1 TE, 3 WR",7,"2 DL, 4 LB, 5 DB",left,2019-10-06T17:51:18.000Z,2019-10-06T17:51:16.000Z,6-0,233,07/21/1986,Kentucky,ILB,TEN,BUF,5,Nissan Stadium,"Nashville, TN",Outdoors,Grass,Cloudy,77.0,71,13,S
69884,2019100608,20191006081218,home,54.75,30.16,1.55,1.77,0.15,95.22,205.08,2495476,Jurrell Casey,99,2019,46,2,07:25:00,BUF,2,9,TEN,0,0,2506404,SINGLEBACK,"1 RB, 1 TE, 3 WR",7,"2 DL, 4 LB, 5 DB",left,2019-10-06T17:51:18.000Z,2019-10-06T17:51:16.000Z,6-1,305,12/05/1989,Southern California,DT,TEN,BUF,5,Nissan Stadium,"Nashville, TN",Outdoors,Grass,Cloudy,77.0,71,13,S
69885,2019100608,20191006081218,home,37.79,26.46,1.74,1.39,0.17,72.72,280.48,2539320,Kenny Vaccaro,24,2019,46,2,07:25:00,BUF,2,9,TEN,0,0,2506404,SINGLEBACK,"1 RB, 1 TE, 3 WR",7,"2 DL, 4 LB, 5 DB",left,2019-10-06T17:51:18.000Z,2019-10-06T17:51:16.000Z,6-0,214,02/15/1991,Texas,SS,TEN,BUF,5,Nissan Stadium,"Nashville, TN",Outdoors,Grass,Cloudy,77.0,71,13,S
69886,2019100608,20191006081218,home,53.12,19.63,0.93,1.8,0.08,83.97,275.89,2540162,Logan Ryan,26,2019,46,2,07:25:00,BUF,2,9,TEN,0,0,2506404,SINGLEBACK,"1 RB, 1 TE, 3 WR",7,"2 DL, 4 LB, 5 DB",left,2019-10-06T17:51:18.000Z,2019-10-06T17:51:16.000Z,5-11,195,02/09/1991,Rutgers,CB,TEN,BUF,5,Nissan Stadium,"Nashville, TN",Outdoors,Grass,Cloudy,77.0,71,13,S
69887,2019100608,20191006081218,home,55.92,30.15,0.99,1.75,0.1,117.75,48.2,2543504,DaQuan Jones,90,2019,46,2,07:25:00,BUF,2,9,TEN,0,0,2506404,SINGLEBACK,"1 RB, 1 TE, 3 WR",7,"2 DL, 4 LB, 5 DB",left,2019-10-06T17:51:18.000Z,2019-10-06T17:51:16.000Z,6-4,322,12/27/1991,Penn State,DE,TEN,BUF,5,Nissan Stadium,"Nashville, TN",Outdoors,Grass,Cloudy,77.0,71,13,S
69888,2019100608,20191006081218,home,55.0,9.17,1.04,1.46,0.1,75.25,353.2,2550613,Malcolm Butler,21,2019,46,2,07:25:00,BUF,2,9,TEN,0,0,2506404,SINGLEBACK,"1 RB, 1 TE, 3 WR",7,"2 DL, 4 LB, 5 DB",left,2019-10-06T17:51:18.000Z,2019-10-06T17:51:16.000Z,5-11,190,03/02/1990,West Alabama,CB,TEN,BUF,5,Nissan Stadium,"Nashville, TN",Outdoors,Grass,Cloudy,77.0,71,13,S
69889,2019100608,20191006081218,home,51.08,33.54,2.33,1.21,0.24,94.6,157.6,2555158,Kevin Byard,31,2019,46,2,07:25:00,BUF,2,9,TEN,0,0,2506404,SINGLEBACK,"1 RB, 1 TE, 3 WR",7,"2 DL, 4 LB, 5 DB",left,2019-10-06T17:51:18.000Z,2019-10-06T17:51:16.000Z,5-11,212,08/17/1993,Middle Tennessee,FS,TEN,BUF,5,Nissan Stadium,"Nashville, TN",Outdoors,Grass,Cloudy,77.0,71,13,S
69890,2019100608,20191006081218,home,57.58,26.2,4.03,2.96,0.39,75.25,103.96,2555339,Kamalei Correa,44,2019,46,2,07:25:00,BUF,2,9,TEN,0,0,2506404,SINGLEBACK,"1 RB, 1 TE, 3 WR",7,"2 DL, 4 LB, 5 DB",left,2019-10-06T17:51:18.000Z,2019-10-06T17:51:16.000Z,6-3,241,04/27/1994,Boise State,ILB,TEN,BUF,5,Nissan Stadium,"Nashville, TN",Outdoors,Grass,Cloudy,77.0,71,13,S
69891,2019100608,20191006081218,home,52.77,37.23,3.94,1.82,0.38,118.89,217.37,2558065,Adoree' Jackson,25,2019,46,2,07:25:00,BUF,2,9,TEN,0,0,2506404,SINGLEBACK,"1 RB, 1 TE, 3 WR",7,"2 DL, 4 LB, 5 DB",left,2019-10-06T17:51:18.000Z,2019-10-06T17:51:16.000Z,5-11,185,09/18/1995,Southern California,CB,TEN,BUF,5,Nissan Stadium,"Nashville, TN",Outdoors,Grass,Cloudy,77.0,71,13,S
69892,2019100608,20191006081218,home,54.88,25.85,2.74,2.43,0.27,71.89,354.14,2560718,Rashaan Evans,54,2019,46,2,07:25:00,BUF,2,9,TEN,0,0,2506404,SINGLEBACK,"1 RB, 1 TE, 3 WR",7,"2 DL, 4 LB, 5 DB",left,2019-10-06T17:51:18.000Z,2019-10-06T17:51:16.000Z,6-2,234,11/08/1995,Alabama,LB,TEN,BUF,5,Nissan Stadium,"Nashville, TN",Outdoors,Grass,Cloudy,77.0,71,13,S
69893,2019100608,20191006081218,home,55.22,34.12,2.37,0.67,0.23,115.09,166.09,2560784,Harold Landry,58,2019,46,2,07:25:00,BUF,2,9,TEN,0,0,2506404,SINGLEBACK,"1 RB, 1 TE, 3 WR",7,"2 DL, 4 LB, 5 DB",left,2019-10-06T17:51:18.000Z,2019-10-06T17:51:16.000Z,6-2,250,06/05/1996,Boston College,OLB,TEN,BUF,5,Nissan Stadium,"Nashville, TN",Outdoors,Grass,Cloudy,77.0,71,13,S
