,GameId,PlayId,Team,X,Y,S,A,Dis,Orientation,Dir,NflId,DisplayName,JerseyNumber,Season,YardLine,Quarter,GameClock,PossessionTeam,Down,Distance,FieldPosition,HomeScoreBeforePlay,VisitorScoreBeforePlay,NflIdRusher,OffenseFormation,OffensePersonnel,DefendersInTheBox,DefensePersonnel,PlayDirection,TimeHandoff,TimeSnap,PlayerHeight,PlayerWeight,PlayerBirthDate,PlayerCollegeName,Position,HomeTeamAbbr,VisitorTeamAbbr,Week,Stadium,Location,StadiumType,Turf,GameWeather,Temperature,Humidity,WindSpeed,WindDirection
56892,2019092910,20190929100853,away,105.9,26.25,2.1,1.17,0.21,21.62,48.21,496790,Everson Griffen,97,2019,5,1,03:02:00,CHI,1,10,CHI,7,0,2562502,SHOTGUN,"1 RB, 1 TE, 3 WR",7,"4 DL, 2 LB, 5 DB",left,2019-09-29T20:54:54.000Z,2019-09-29T20:54:53.000Z,6-3,273,12/22/1987,Southern California,DE,CHI,MIN,4,Soldier Field,"Chicago, IL",Outdoor,Natural Grass,Cloudy,67.0,89,8,East
56893,2019092910,20190929100853,away,104.61,29.01,0.36,0.38,0.04,32.8,32.78,496802,Linval Joseph,98,2019,5,1,03:02:00,CHI,1,10,CHI,7,0,2562502,SHOTGUN,"1 RB, 1 TE, 3 WR",7,"4 DL, 2 LB, 5 DB",left,2019-09-29T20:54:54.000Z,2019-09-29T20:54:53.000Z,6-4,329,10/10/1988,East Carolina,DT,CHI,MIN,4,Soldier Field,"Chicago, IL",Outdoor,Natural Grass,Cloudy,67.0,89,8,East
56894,2019092910,20190929100853,away,102.6,26.01,2.39,0.55,0.24,52.83,47.76,2532948,Harrison Smith,22,2019,5,1,03:02:00,CHI,1,10,CHI,7,0,2562502,SHOTGUN,"1 RB, 1 TE, 3 WR",7,"4 DL, 2 LB, 5 DB",left,2019-09-29T20:54:54.000Z,2019-09-29T20:54:53.000Z,6-2,214,02/02/1989,Notre Dame,FS,CHI,MIN,4,Soldier Field,"Chicago, IL",Outdoor,Natural Grass,Cloudy,67.0,89,8,East
56895,2019092910,20190929100853,away,97.89,13.04,2.16,2.59,0.2,76.2,293.9,2540155,Xavier Rhodes,29,2019,5,1,03:02:00,CHI,1,10,CHI,7,0,2562502,SHOTGUN,"1 RB, 1 TE, 3 WR",7,"4 DL, 2 LB, 5 DB",left,2019-09-29T20:54:54.000Z,2019-09-29T20:54:53.000Z,6-1,218,06/19/1990,Florida State,CB,CHI,MIN,4,Soldier Field,"Chicago, IL",Outdoor,Natural Grass,Cloudy,67.0,89,8,East
56896,2019092910,20190929100853,away,103.87,30.11,1.36,1.93,0.14,117.09,86.08,2543459,Anthony Barr,55,2019,5,1,03:02:00,CHI,1,10,CHI,7,0,2562502,SHOTGUN,"1 RB, 1 TE, 3 WR",7,"4 DL, 2 LB, 5 DB",left,2019-09-29T20:54:54.000Z,2019-09-29T20:54:53.000Z,6-5,255,03/18/1992,UCLA,OLB,CHI,MIN,4,Soldier Field,"Chicago, IL",Outdoor,Natural Grass,Cloudy,67.0,89,8,East
56897,2019092910,20190929100853,away,104.78,30.57,1.43,0.78,0.13,30.09,149.22,2543706,Shamar Stephen,93,2019,5,1,03:02:00,CHI,1,10,CHI,7,0,2562502,SHOTGUN,"1 RB, 1 TE, 3 WR",7,"4 DL, 2 LB, 5 DB",left,2019-09-29T20:54:54.000Z,2019-09-29T20:54:53.000Z,6-5,310,02/25/1991,Connecticut,NT,CHI,MIN,4,Soldier Field,"Chicago, IL",Outdoor,Natural Grass,Cloudy,67.0,89,8,East
56898,2019092910,20190929100853,away,102.77,33.37,1.28,2.71,0.12,123.98,110.65,2552312,Eric Kendricks,54,2019,5,1,03:02:00,CHI,1,10,CHI,7,0,2562502,SHOTGUN,"1 RB, 1 TE, 3 WR",7,"4 DL, 2 LB, 5 DB",left,2019-09-29T20:54:54.000Z,2019-09-29T20:54:53.000Z,6-0,232,02/29/1992,UCLA,MLB,CHI,MIN,4,Soldier Field,"Chicago, IL",Outdoor,Natural Grass,Cloudy,67.0,89,8,East
56899,2019092910,20190929100853,away,98.07,45.62,0.65,0.9,0.06,92.07,256.96,2552448,Trae Waynes,26,2019,5,1,03:02:00,CHI,1,10,CHI,7,0,2562502,SHOTGUN,"1 RB, 1 TE, 3 WR",7,"4 DL, 2 LB, 5 DB",left,2019-09-29T20:54:54.000Z,2019-09-29T20:54:53.000Z,6-0,190,07/25/1992,Michigan State,CB,CHI,MIN,4,Soldier Field,"Chicago, IL",Outdoor,Natural Grass,Cloudy,67.0,89,8,East
56900,2019092910,20190929100853,away,104.53,32.74,1.61,0.77,0.16,61.23,173.91,2552603,Danielle Hunter,99,2019,5,1,03:02:00,CHI,1,10,CHI,7,0,2562502,SHOTGUN,"1 RB, 1 TE, 3 WR",7,"4 DL, 2 LB, 5 DB",left,2019-09-29T20:54:54.000Z,2019-09-29T20:54:53.000Z,6-5,252,10/29/1994,Louisiana State,DE,CHI,MIN,4,Soldier Field,"Chicago, IL",Outdoor,Natural Grass,Cloudy,67.0,89,8,East
56901,2019092910,20190929100853,away,95.09,32.04,0.57,1.51,0.06,90.94,150.93,2553655,Anthony Harris,41,2019,5,1,03:02:00,CHI,1,10,CHI,7,0,2562502,SHOTGUN,"1 RB, 1 TE, 3 WR",7,"4 DL, 2 LB, 5 DB",left,2019-09-29T20:54:54.000Z,2019-09-29T20:54:53.000Z,6-1,202,10/09/1991,Virginia,FS,CHI,MIN,4,Soldier Field,"Chicago, IL",Outdoor,Natural Grass,Cloudy,67.0,89,8,East
56902,2019092910,20190929100853,away,99.61,41.76,2.04,2.11,0.19,55.77,343.66,2555177,Mackensie Alexander,20,2019,5,1,03:02:00,CHI,1,10,CHI,7,0,2562502,SHOTGUN,"1 RB, 1 TE, 3 WR",7,"4 DL, 2 LB, 5 DB",left,2019-09-29T20:54:54.000Z,2019-09-29T20:54:53.000Z,5-10,192,11/12/1993,Clemson,CB,CHI,MIN,4,Soldier Field,"Chicago, IL",Outdoor,Natural Grass,Cloudy,67.0,89,8,East
56903,2019092910,20190929100853,home,110.05,29.9,0.75,1.66,0.07,315.69,65.55,81284,Chase Daniel,4,2019,5,1,03:02:00,CHI,1,10,CHI,7,0,2562502,SHOTGUN,"1 RB, 1 TE, 3 WR",7,"4 DL, 2 LB, 5 DB",left,2019-09-29T20:54:54.000Z,2019-09-29T20:54:53.000Z,6-0,229,10/07/1986,Missouri,QB,CHI,MIN,4,Soldier Field,"Chicago, IL",Outdoor,Natural Grass,Cloudy,67.0,89,8,East
56904,2019092910,20190929100853,home,105.38,30.51,0.92,0.95,0.09,258.42,172.3,497026,Ted Larsen,62,2019,5,1,03:02:00,CHI,1,10,CHI,7,0,2562502,SHOTGUN,"1 RB, 1 TE, 3 WR",7,"4 DL, 2 LB, 5 DB",left,2019-09-29T20:54:54.000Z,2019-09-29T20:54:53.000Z,6-3,323,06/13/1987,North Carolina State,C,CHI,MIN,4,Soldier Field,"Chicago, IL",Outdoor,Natural Grass,Cloudy,67.0,89,8,East
56905,2019092910,20190929100853,home,104.93,31.0,1.68,2.09,0.16,221.9,199.71,2533543,Bobby Massie,70,2019,5,1,03:02:00,CHI,1,10,CHI,7,0,2562502,SHOTGUN,"1 RB, 1 TE, 3 WR",7,"4 DL, 2 LB, 5 DB",left,2019-09-29T20:54:54.000Z,2019-09-29T20:54:53.000Z,6-6,325,08/01/1989,Mississippi,T,CHI,MIN,4,Soldier Field,"Chicago, IL",Outdoor,Natural Grass,Cloudy,67.0,89,8,East
56906,2019092910,20190929100853,home,105.17,45.92,0.5,1.01,0.05,2.06,289.64,2543509,Allen Robinson,12,2019,5,1,03:02:00,CHI,1,10,CHI,7,0,2562502,SHOTGUN,"1 RB, 1 TE, 3 WR",7,"4 DL, 2 LB, 5 DB",left,2019-09-29T20:54:54.000Z,2019-09-29T20:54:53.000Z,6-2,220,08/24/1993,Penn State,WR,CHI,MIN,4,Soldier Field,"Chicago, IL",Outdoor,Natural Grass,Cloudy,67.0,89,8,East
56907,2019092910,20190929100853,home,105.33,33.15,1.35,1.17,0.13,44.58,210.68,2550169,Charles Leno Jr.,72,2019,5,1,03:02:00,CHI,1,10,CHI,7,0,2562502,SHOTGUN,"1 RB, 1 TE, 3 WR",7,"4 DL, 2 LB, 5 DB",left,2019-09-29T20:54:54.000Z,2019-09-29T20:54:53.000Z,6-3,305,10/09/1991,Boise State,T,CHI,MIN,4,Soldier Field,"Chicago, IL",Outdoor,Natural Grass,Cloudy,67.0,89,8,East
56908,2019092910,20190929100853,home,106.35,30.42,4.37,2.44,0.42,304.16,0.78,2555132,Cody Whitehair,65,2019,5,1,03:02:00,CHI,1,10,CHI,7,0,2562502,SHOTGUN,"1 RB, 1 TE, 3 WR",7,"4 DL, 2 LB, 5 DB",left,2019-09-29T20:54:54.000Z,2019-09-29T20:54:53.000Z,6-3,309,07/11/1992,Kansas State,OG,CHI,MIN,4,Soldier Field,"Chicago, IL",Outdoor,Natural Grass,Cloudy,67.0,89,8,East
56909,2019092910,20190929100853,home,106.52,27.98,1.06,1.91,0.12,241.38,22.33,2558144,Adam Shaheen,87,2019,5,1,03:02:00,CHI,1,10,CHI,7,0,2562502,SHOTGUN,"1 RB, 1 TE, 3 WR",7,"4 DL, 2 LB, 5 DB",left,2019-09-29T20:54:54.000Z,2019-09-29T20:54:53.000Z,6-6,257,10/24/1994,Ashland,TE,CHI,MIN,4,Soldier Field,"Chicago, IL",Outdoor,Natural Grass,Cloudy,67.0,89,8,East
56910,2019092910,20190929100853,home,104.93,42.21,4.22,3.25,0.41,305.5,323.88,2560810,Anthony Miller,17,2019,5,1,03:02:00,CHI,1,10,CHI,7,0,2562502,SHOTGUN,"1 RB, 1 TE, 3 WR",7,"4 DL, 2 LB, 5 DB",left,2019-09-29T20:54:54.000Z,2019-09-29T20:54:53.000Z,5-11,199,10/09/1994,Memphis,WR,CHI,MIN,4,Soldier Field,"Chicago, IL",Outdoor,Natural Grass,Cloudy,67.0,89,8,East
56911,2019092910,20190929100853,home,104.81,13.23,4.35,3.4,0.42,280.71,292.98,2560939,Javon Wims,83,2019,5,1,03:02:00,CHI,1,10,CHI,7,0,2562502,SHOTGUN,"1 RB, 1 TE, 3 WR",7,"4 DL, 2 LB, 5 DB",left,2019-09-29T20:54:54.000Z,2019-09-29T20:54:53.000Z,6-2,221,09/11/1994,Georgia,WR,CHI,MIN,4,Soldier Field,"Chicago, IL",Outdoor,Natural Grass,Cloudy,67.0,89,8,East
56912,2019092910,20190929100853,home,105.29,29.43,0.47,0.76,0.05,234.55,268.63,2561035,James Daniels,68,2019,5,1,03:02:00,CHI,1,10,CHI,7,0,2562502,SHOTGUN,"1 RB, 1 TE, 3 WR",7,"4 DL, 2 LB, 5 DB",left,2019-09-29T20:54:54.000Z,2019-09-29T20:54:53.000Z,6-3,305,09/13/1997,Iowa,C,CHI,MIN,4,Soldier Field,"Chicago, IL",Outdoor,Natural Grass,Cloudy,67.0,89,8,East
56913,2019092910,20190929100853,home,109.38,30.65,2.42,3.32,0.23,217.36,251.88,2562502,David Montgomery,32,2019,5,1,03:02:00,CHI,1,10,CHI,7,0,2562502,SHOTGUN,"1 RB, 1 TE, 3 WR",7,"4 DL, 2 LB, 5 DB",left,2019-09-29T20:54:54.000Z,2019-09-29T20:54:53.000Z,5-10,222,06/07/1997,Iowa State,RB,CHI,MIN,4,Soldier Field,"Chicago, IL",Outdoor,Natural Grass,Cloudy,67.0,89,8,East
