,GameId,PlayId,Team,X,Y,S,A,Dis,Orientation,Dir,NflId,DisplayName,JerseyNumber,Season,YardLine,Quarter,GameClock,PossessionTeam,Down,Distance,FieldPosition,HomeScoreBeforePlay,VisitorScoreBeforePlay,NflIdRusher,OffenseFormation,OffensePersonnel,DefendersInTheBox,DefensePersonnel,PlayDirection,TimeHandoff,TimeSnap,PlayerHeight,PlayerWeight,PlayerBirthDate,PlayerCollegeName,Position,HomeTeamAbbr,VisitorTeamAbbr,Week,Stadium,Location,StadiumType,Turf,GameWeather,Temperature,Humidity,WindSpeed,WindDirection
27566,2019091511,20190915113096,away,33.88,29.65,3.71,1.08,0.37,39.8,348.72,2533543,Bobby Massie,70,2019,25,4,13:37:00,CHI,1,10,CHI,6,13,2553439,SINGLEBACK,"1 RB, 1 TE, 3 WR",6,"3 DL, 3 LB, 5 DB",right,2019-09-15T22:40:50.000Z,2019-09-15T22:40:49.000Z,6-6,325,08/01/1989,Mississippi,T,DEN,CHI,2,Empower Field at Mile High,Denver CO,Outdoor,Grass,Mostly Sunny,87.0,14,3,East
27567,2019091511,20190915113096,away,34.11,30.8,2.97,0.56,0.3,61.17,354.86,2539933,Kyle Long,75,2019,25,4,13:37:00,CHI,1,10,CHI,6,13,2553439,SINGLEBACK,"1 RB, 1 TE, 3 WR",6,"3 DL, 3 LB, 5 DB",right,2019-09-15T22:40:50.000Z,2019-09-15T22:40:49.000Z,6-6,332,12/05/1988,Oregon,OG,DEN,CHI,2,Empower Field at Mile High,Denver CO,Outdoor,Grass,Mostly Sunny,87.0,14,3,East
27568,2019091511,20190915113096,away,35.26,43.95,2.68,2.67,0.27,281.56,87.46,2543509,Allen Robinson,12,2019,25,4,13:37:00,CHI,1,10,CHI,6,13,2553439,SINGLEBACK,"1 RB, 1 TE, 3 WR",6,"3 DL, 3 LB, 5 DB",right,2019-09-15T22:40:50.000Z,2019-09-15T22:40:49.000Z,6-2,220,08/24/1993,Penn State,WR,DEN,CHI,2,Empower Field at Mile High,Denver CO,Outdoor,Grass,Mostly Sunny,87.0,14,3,East
27569,2019091511,20190915113096,away,34.01,33.74,0.21,1.56,0.03,330.97,3.76,2550169,Charles Leno Jr.,72,2019,25,4,13:37:00,CHI,1,10,CHI,6,13,2553439,SINGLEBACK,"1 RB, 1 TE, 3 WR",6,"3 DL, 3 LB, 5 DB",right,2019-09-15T22:40:50.000Z,2019-09-15T22:40:49.000Z,6-3,305,10/09/1991,Boise State,T,DEN,CHI,2,Empower Field at Mile High,Denver CO,Outdoor,Grass,Mostly Sunny,87.0,14,3,East
27570,2019091511,20190915113096,away,34.53,9.42,2.85,2.31,0.27,97.33,95.67,2550617,Taylor Gabriel,18,2019,25,4,13:37:00,CHI,1,10,CHI,6,13,2553439,SINGLEBACK,"1 RB, 1 TE, 3 WR",6,"3 DL, 3 LB, 5 DB",right,2019-09-15T22:40:50.000Z,2019-09-15T22:40:49.000Z,5-7,167,02/17/1991,Abilene Christian,WR,DEN,CHI,2,Empower Field at Mile High,Denver CO,Outdoor,Grass,Mostly Sunny,87.0,14,3,East
27571,2019091511,20190915113096,away,29.25,31.76,5.09,3.96,0.49,63.82,37.3,2553439,Mike Davis,25,2019,25,4,13:37:00,CHI,1,10,CHI,6,13,2553439,SINGLEBACK,"1 RB, 1 TE, 3 WR",6,"3 DL, 3 LB, 5 DB",right,2019-09-15T22:40:50.000Z,2019-09-15T22:40:49.000Z,5-9,221,02/19/1993,South Carolina,RB,DEN,CHI,2,Empower Field at Mile High,Denver CO,Outdoor,Grass,Mostly Sunny,87.0,14,3,East
27572,2019091511,20190915113096,away,34.55,32.23,1.57,1.87,0.17,88.86,17.94,2555132,Cody Whitehair,65,2019,25,4,13:37:00,CHI,1,10,CHI,6,13,2553439,SINGLEBACK,"1 RB, 1 TE, 3 WR",6,"3 DL, 3 LB, 5 DB",right,2019-09-15T22:40:50.000Z,2019-09-15T22:40:49.000Z,6-3,309,07/11/1992,Kansas State,OG,DEN,CHI,2,Empower Field at Mile High,Denver CO,Outdoor,Grass,Mostly Sunny,87.0,14,3,East
27573,2019091511,20190915113096,away,31.88,30.88,5.13,5.56,0.47,40.17,305.04,2558008,Mitchell Trubisky,10,2019,25,4,13:37:00,CHI,1,10,CHI,6,13,2553439,SINGLEBACK,"1 RB, 1 TE, 3 WR",6,"3 DL, 3 LB, 5 DB",right,2019-09-15T22:40:50.000Z,2019-09-15T22:40:49.000Z,6-2,215,08/20/1994,North Carolina,QB,DEN,CHI,2,Empower Field at Mile High,Denver CO,Outdoor,Grass,Mostly Sunny,87.0,14,3,East
27574,2019091511,20190915113096,away,33.84,27.08,3.67,1.95,0.36,104.64,29.5,2558144,Adam Shaheen,87,2019,25,4,13:37:00,CHI,1,10,CHI,6,13,2553439,SINGLEBACK,"1 RB, 1 TE, 3 WR",6,"3 DL, 3 LB, 5 DB",right,2019-09-15T22:40:50.000Z,2019-09-15T22:40:49.000Z,6-6,257,10/24/1994,Ashland,TE,DEN,CHI,2,Empower Field at Mile High,Denver CO,Outdoor,Grass,Mostly Sunny,87.0,14,3,East
27575,2019091511,20190915113096,away,35.9,18.54,4.25,4.04,0.4,57.92,62.05,2560810,Anthony Miller,17,2019,25,4,13:37:00,CHI,1,10,CHI,6,13,2553439,SINGLEBACK,"1 RB, 1 TE, 3 WR",6,"3 DL, 3 LB, 5 DB",right,2019-09-15T22:40:50.000Z,2019-09-15T22:40:49.000Z,5-11,199,10/09/1994,Memphis,WR,DEN,CHI,2,Empower Field at Mile High,Denver CO,Outdoor,Grass,Mostly Sunny,87.0,14,3,East
27576,2019091511,20190915113096,away,34.16,31.57,2.04,0.59,0.2,168.97,8.38,2561035,James Daniels,68,2019,25,4,13:37:00,CHI,1,10,CHI,6,13,2553439,SINGLEBACK,"1 RB, 1 TE, 3 WR",6,"3 DL, 3 LB, 5 DB",right,2019-09-15T22:40:50.000Z,2019-09-15T22:40:49.000Z,6-3,305,09/13/1997,Iowa,C,DEN,CHI,2,Empower Field at Mile High,Denver CO,Outdoor,Grass,Mostly Sunny,87.0,14,3,East
27577,2019091511,20190915113096,home,41.17,18.03,1.59,4.62,0.14,292.22,48.5,496735,Kareem Jackson,22,2019,25,4,13:37:00,CHI,1,10,CHI,6,13,2553439,SINGLEBACK,"1 RB, 1 TE, 3 WR",6,"3 DL, 3 LB, 5 DB",right,2019-09-15T22:40:50.000Z,2019-09-15T22:40:49.000Z,5-10,185,04/10/1988,Alabama,CB,DEN,CHI,2,Empower Field at Mile High,Denver CO,Outdoor,Grass,Mostly Sunny,87.0,14,3,East
27578,2019091511,20190915113096,home,35.05,26.44,3.53,2.18,0.34,319.85,352.09,2495202,Von Miller,58,2019,25,4,13:37:00,CHI,1,10,CHI,6,13,2553439,SINGLEBACK,"1 RB, 1 TE, 3 WR",6,"3 DL, 3 LB, 5 DB",right,2019-09-15T22:40:50.000Z,2019-09-15T22:40:49.000Z,6-3,250,03/26/1989,Texas A&M,OLB,DEN,CHI,2,Empower Field at Mile High,Denver CO,Outdoor,Grass,Mostly Sunny,87.0,14,3,East
27579,2019091511,20190915113096,home,39.58,44.23,2.68,1.31,0.26,246.91,83.15,2530510,Chris Harris,25,2019,25,4,13:37:00,CHI,1,10,CHI,6,13,2553439,SINGLEBACK,"1 RB, 1 TE, 3 WR",6,"3 DL, 3 LB, 5 DB",right,2019-09-15T22:40:50.000Z,2019-09-15T22:40:49.000Z,5-10,199,06/18/1989,Kansas,CB,DEN,CHI,2,Empower Field at Mile High,Denver CO,Outdoor,Grass,Mostly Sunny,87.0,14,3,East
27580,2019091511,20190915113096,home,34.63,29.74,3.24,0.68,0.34,289.66,334.39,2533026,Derek Wolfe,95,2019,25,4,13:37:00,CHI,1,10,CHI,6,13,2553439,SINGLEBACK,"1 RB, 1 TE, 3 WR",6,"3 DL, 3 LB, 5 DB",right,2019-09-15T22:40:50.000Z,2019-09-15T22:40:49.000Z,6-5,285,02/24/1990,Cincinnati,DE,DEN,CHI,2,Empower Field at Mile High,Denver CO,Outdoor,Grass,Mostly Sunny,87.0,14,3,East
27581,2019091511,20190915113096,home,35.48,31.34,2.51,1.6,0.28,323.22,359.62,2549926,Shelby Harris,96,2019,25,4,13:37:00,CHI,1,10,CHI,6,13,2553439,SINGLEBACK,"1 RB, 1 TE, 3 WR",6,"3 DL, 3 LB, 5 DB",right,2019-09-15T22:40:50.000Z,2019-09-15T22:40:49.000Z,6-2,290,08/11/1991,Illinois State,NT,DEN,CHI,2,Empower Field at Mile High,Denver CO,Outdoor,Grass,Mostly Sunny,87.0,14,3,East
27582,2019091511,20190915113096,home,35.17,31.82,0.61,2.6,0.05,292.9,308.16,2555502,Adam Gotsis,99,2019,25,4,13:37:00,CHI,1,10,CHI,6,13,2553439,SINGLEBACK,"1 RB, 1 TE, 3 WR",6,"3 DL, 3 LB, 5 DB",right,2019-09-15T22:40:50.000Z,2019-09-15T22:40:49.000Z,6-4,287,09/23/1992,Georgia Tech,DE,DEN,CHI,2,Empower Field at Mile High,Denver CO,Outdoor,Grass,Mostly Sunny,87.0,14,3,East
27583,2019091511,20190915113096,home,40.32,24.44,4.62,1.54,0.46,302.45,316.5,2555550,Justin Simmons,31,2019,25,4,13:37:00,CHI,1,10,CHI,6,13,2553439,SINGLEBACK,"1 RB, 1 TE, 3 WR",6,"3 DL, 3 LB, 5 DB",right,2019-09-15T22:40:50.000Z,2019-09-15T22:40:49.000Z,6-2,202,11/19/1993,Boston College,SS,DEN,CHI,2,Empower Field at Mile High,Denver CO,Outdoor,Grass,Mostly Sunny,87.0,14,3,East
27584,2019091511,20190915113096,home,50.39,33.17,3.73,1.54,0.37,260.66,93.52,2556278,Will Parks,34,2019,25,4,13:37:00,CHI,1,10,CHI,6,13,2553439,SINGLEBACK,"1 RB, 1 TE, 3 WR",6,"3 DL, 3 LB, 5 DB",right,2019-09-15T22:40:50.000Z,2019-09-15T22:40:49.000Z,6-1,194,07/29/1994,Arizona,FS,DEN,CHI,2,Empower Field at Mile High,Denver CO,Outdoor,Grass,Mostly Sunny,87.0,14,3,East
27585,2019091511,20190915113096,home,38.15,32.17,4.48,3.53,0.44,296.87,337.18,2560763,Josey Jewell,47,2019,25,4,13:37:00,CHI,1,10,CHI,6,13,2553439,SINGLEBACK,"1 RB, 1 TE, 3 WR",6,"3 DL, 3 LB, 5 DB",right,2019-09-15T22:40:50.000Z,2019-09-15T22:40:49.000Z,6-2,236,12/25/1994,Iowa,LB,DEN,CHI,2,Empower Field at Mile High,Denver CO,Outdoor,Grass,Mostly Sunny,87.0,14,3,East
27586,2019091511,20190915113096,home,36.5,9.2,1.54,1.08,0.18,273.86,118.74,2560946,Isaac Yiadom,26,2019,25,4,13:37:00,CHI,1,10,CHI,6,13,2553439,SINGLEBACK,"1 RB, 1 TE, 3 WR",6,"3 DL, 3 LB, 5 DB",right,2019-09-15T22:40:50.000Z,2019-09-15T22:40:49.000Z,6-1,190,02/20/1996,Boston College,DB,DEN,CHI,2,Empower Field at Mile High,Denver CO,Outdoor,Grass,Mostly Sunny,87.0,14,3,East
27587,2019091511,20190915113096,home,34.47,33.1,2.52,0.53,0.25,234.93,221.06,2561020,Bradley Chubb,55,2019,25,4,13:37:00,CHI,1,10,CHI,6,13,2553439,SINGLEBACK,"1 RB, 1 TE, 3 WR",6,"3 DL, 3 LB, 5 DB",right,2019-09-15T22:40:50.000Z,2019-09-15T22:40:49.000Z,6-4,275,06/24/1996,North Carolina State,DE,DEN,CHI,2,Empower Field at Mile High,Denver CO,Outdoor,Grass,Mostly Sunny,87.0,14,3,East
