,GameId,PlayId,Team,X,Y,S,A,Dis,Orientation,Dir,NflId,DisplayName,JerseyNumber,Season,YardLine,Quarter,GameClock,PossessionTeam,Down,Distance,FieldPosition,HomeScoreBeforePlay,VisitorScoreBeforePlay,NflIdRusher,OffenseFormation,OffensePersonnel,DefendersInTheBox,DefensePersonnel,PlayDirection,TimeHandoff,TimeSnap,PlayerHeight,PlayerWeight,PlayerBirthDate,PlayerCollegeName,Position,HomeTeamAbbr,VisitorTeamAbbr,Week,Stadium,Location,StadiumType,Turf,GameWeather,Temperature,Humidity,WindSpeed,WindDirection
38302,2019092206,20190922063123,away,54.79,30.13,0.89,0.33,0.09,130.37,281.41,2552272,Henry Anderson,96,2019,46,4,14:14:00,NE,1,10,NYJ,30,7,2539265,SHOTGUN,"1 RB, 1 TE, 3 WR",7,"2 DL, 4 LB, 5 DB",left,2019-09-22T19:24:31.000Z,2019-09-22T19:24:30.000Z,6-6,301,08/03/1991,Stanford,DE,NE,NYJ,3,Gillette Stadium,"Foxborough, MA",Outdoor,Field Turf,Sunny and warm,81.0,49,10,SW
38303,2019092206,20190922063123,away,56.03,27.29,0.69,0.6,0.07,78.3,112.33,2552486,Leonard Williams,92,2019,46,4,14:14:00,NE,1,10,NYJ,30,7,2539265,SHOTGUN,"1 RB, 1 TE, 3 WR",7,"2 DL, 4 LB, 5 DB",left,2019-09-22T19:24:31.000Z,2019-09-22T19:24:30.000Z,6-5,302,06/20/1994,Southern California,DE,NE,NYJ,3,Gillette Stadium,"Foxborough, MA",Outdoor,Field Turf,Sunny and warm,81.0,49,10,SW
38304,2019092206,20190922063123,away,47.27,10.46,2.33,3.2,0.22,78.65,304.65,2553353,Darryl Roberts,27,2019,46,4,14:14:00,NE,1,10,NYJ,30,7,2539265,SHOTGUN,"1 RB, 1 TE, 3 WR",7,"2 DL, 4 LB, 5 DB",left,2019-09-22T19:24:31.000Z,2019-09-22T19:24:30.000Z,6-0,182,11/26/1990,Marshall,CB,NE,NYJ,3,Gillette Stadium,"Foxborough, MA",Outdoor,Field Turf,Sunny and warm,81.0,49,10,SW
38305,2019092206,20190922063123,away,51.19,25.93,0.54,1.9,0.05,93.67,19.51,2553657,Neville Hewitt,46,2019,46,4,14:14:00,NE,1,10,NYJ,30,7,2539265,SHOTGUN,"1 RB, 1 TE, 3 WR",7,"2 DL, 4 LB, 5 DB",left,2019-09-22T19:24:31.000Z,2019-09-22T19:24:30.000Z,6-2,234,04/06/1993,Marshall,OLB,NE,NYJ,3,Gillette Stadium,"Foxborough, MA",Outdoor,Field Turf,Sunny and warm,81.0,49,10,SW
38306,2019092206,20190922063123,away,48.69,17.35,2.88,1.46,0.28,79.19,282.15,2556445,Brian Poole,34,2019,46,4,14:14:00,NE,1,10,NYJ,30,7,2539265,SHOTGUN,"1 RB, 1 TE, 3 WR",7,"2 DL, 4 LB, 5 DB",left,2019-09-22T19:24:31.000Z,2019-09-22T19:24:30.000Z,5-10,211,10/20/1992,Florida,CB,NE,NYJ,3,Gillette Stadium,"Foxborough, MA",Outdoor,Field Turf,Sunny and warm,81.0,49,10,SW
38307,2019092206,20190922063123,away,50.89,31.69,1.28,1.09,0.13,102.3,129.68,2557979,Jamal Adams,33,2019,46,4,14:14:00,NE,1,10,NYJ,30,7,2539265,SHOTGUN,"1 RB, 1 TE, 3 WR",7,"2 DL, 4 LB, 5 DB",left,2019-09-22T19:24:31.000Z,2019-09-22T19:24:30.000Z,6-1,213,10/17/1995,Louisiana State,SS,NE,NYJ,3,Gillette Stadium,"Foxborough, MA",Outdoor,Field Turf,Sunny and warm,81.0,49,10,SW
38308,2019092206,20190922063123,away,39.41,23.78,0.34,2.5,0.03,254.3,89.45,2557995,Marcus Maye,20,2019,46,4,14:14:00,NE,1,10,NYJ,30,7,2539265,SHOTGUN,"1 RB, 1 TE, 3 WR",7,"2 DL, 4 LB, 5 DB",left,2019-09-22T19:24:31.000Z,2019-09-22T19:24:30.000Z,6-0,207,03/09/1993,Florida,FS,NE,NYJ,3,Gillette Stadium,"Foxborough, MA",Outdoor,Field Turf,Sunny and warm,81.0,49,10,SW
38309,2019092206,20190922063123,away,47.74,37.2,1.35,3.45,0.14,123.83,211.81,2558108,Nate Hairston,21,2019,46,4,14:14:00,NE,1,10,NYJ,30,7,2539265,SHOTGUN,"1 RB, 1 TE, 3 WR",7,"2 DL, 4 LB, 5 DB",left,2019-09-22T19:24:31.000Z,2019-09-22T19:24:30.000Z,6-0,185,06/30/1994,Temple,CB,NE,NYJ,3,Gillette Stadium,"Foxborough, MA",Outdoor,Field Turf,Sunny and warm,81.0,49,10,SW
38310,2019092206,20190922063123,away,57.13,24.17,1.7,2.58,0.18,46.69,75.13,2558165,Tarell Basham,93,2019,46,4,14:14:00,NE,1,10,NYJ,30,7,2539265,SHOTGUN,"1 RB, 1 TE, 3 WR",7,"2 DL, 4 LB, 5 DB",left,2019-09-22T19:24:31.000Z,2019-09-22T19:24:30.000Z,6-4,266,03/18/1994,Ohio,LB,NE,NYJ,3,Gillette Stadium,"Foxborough, MA",Outdoor,Field Turf,Sunny and warm,81.0,49,10,SW
38311,2019092206,20190922063123,away,57.17,33.33,2.39,4.07,0.26,137.44,132.0,2558963,Harvey Langi,44,2019,46,4,14:14:00,NE,1,10,NYJ,30,7,2539265,SHOTGUN,"1 RB, 1 TE, 3 WR",7,"2 DL, 4 LB, 5 DB",left,2019-09-22T19:24:31.000Z,2019-09-22T19:24:30.000Z,6-2,252,09/24/1992,Brigham Young,LB,NE,NYJ,3,Gillette Stadium,"Foxborough, MA",Outdoor,Field Turf,Sunny and warm,81.0,49,10,SW
38312,2019092206,20190922063123,away,58.11,22.14,4.06,1.85,0.4,62.51,80.58,2562496,Blake Cashman,53,2019,46,4,14:14:00,NE,1,10,NYJ,30,7,2539265,SHOTGUN,"1 RB, 1 TE, 3 WR",7,"2 DL, 4 LB, 5 DB",left,2019-09-22T19:24:31.000Z,2019-09-22T19:24:30.000Z,6-1,235,05/10/1996,Minnesota,LB,NE,NYJ,3,Gillette Stadium,"Foxborough, MA",Outdoor,Field Turf,Sunny and warm,81.0,49,10,SW
38313,2019092206,20190922063123,home,58.29,23.24,1.39,1.8,0.14,165.31,99.98,497030,Marshall Newhouse,72,2019,46,4,14:14:00,NE,1,10,NYJ,30,7,2539265,SHOTGUN,"1 RB, 1 TE, 3 WR",7,"2 DL, 4 LB, 5 DB",left,2019-09-22T19:24:31.000Z,2019-09-22T19:24:30.000Z,6-4,328,09/29/1988,Texas Christian,T,NE,NYJ,3,Gillette Stadium,"Foxborough, MA",Outdoor,Field Turf,Sunny and warm,81.0,49,10,SW
38314,2019092206,20190922063123,home,55.5,29.99,1.37,0.54,0.15,272.76,266.03,2495131,Marcus Cannon,61,2019,46,4,14:14:00,NE,1,10,NYJ,30,7,2539265,SHOTGUN,"1 RB, 1 TE, 3 WR",7,"2 DL, 4 LB, 5 DB",left,2019-09-22T19:24:31.000Z,2019-09-22T19:24:30.000Z,6-6,335,05/06/1988,Texas Christian,T,NE,NYJ,3,Gillette Stadium,"Foxborough, MA",Outdoor,Field Turf,Sunny and warm,81.0,49,10,SW
38315,2019092206,20190922063123,home,60.8,27.21,1.29,2.61,0.11,254.9,101.51,2504211,Tom Brady,12,2019,46,4,14:14:00,NE,1,10,NYJ,30,7,2539265,SHOTGUN,"1 RB, 1 TE, 3 WR",7,"2 DL, 4 LB, 5 DB",left,2019-09-22T19:24:31.000Z,2019-09-22T19:24:30.000Z,6-4,225,08/03/1977,Michigan,QB,NE,NYJ,3,Gillette Stadium,"Foxborough, MA",Outdoor,Field Turf,Sunny and warm,81.0,49,10,SW
38316,2019092206,20190922063123,home,60.18,26.09,3.15,3.21,0.3,276.91,327.59,2539265,Rex Burkhead,34,2019,46,4,14:14:00,NE,1,10,NYJ,30,7,2539265,SHOTGUN,"1 RB, 1 TE, 3 WR",7,"2 DL, 4 LB, 5 DB",left,2019-09-22T19:24:31.000Z,2019-09-22T19:24:30.000Z,5-10,215,07/02/1990,Nebraska,RB,NE,NYJ,3,Gillette Stadium,"Foxborough, MA",Outdoor,Field Turf,Sunny and warm,81.0,49,10,SW
38317,2019092206,20190922063123,home,53.77,16.85,5.72,1.87,0.56,285.17,283.37,2552424,Phillip Dorsett,13,2019,46,4,14:14:00,NE,1,10,NYJ,30,7,2539265,SHOTGUN,"1 RB, 1 TE, 3 WR",7,"2 DL, 4 LB, 5 DB",left,2019-09-22T19:24:31.000Z,2019-09-22T19:24:30.000Z,5-10,192,01/05/1993,Miami,WR,NE,NYJ,3,Gillette Stadium,"Foxborough, MA",Outdoor,Field Turf,Sunny and warm,81.0,49,10,SW
38318,2019092206,20190922063123,home,55.14,29.33,1.92,0.34,0.2,271.51,272.25,2552563,Shaq Mason,69,2019,46,4,14:14:00,NE,1,10,NYJ,30,7,2539265,SHOTGUN,"1 RB, 1 TE, 3 WR",7,"2 DL, 4 LB, 5 DB",left,2019-09-22T19:24:31.000Z,2019-09-22T19:24:30.000Z,6-1,310,08/28/1993,Georgia Tech,G,NE,NYJ,3,Gillette Stadium,"Foxborough, MA",Outdoor,Field Turf,Sunny and warm,81.0,49,10,SW
38319,2019092206,20190922063123,home,56.72,27.43,0.61,0.24,0.06,253.04,82.11,2555145,Ted Karras,75,2019,46,4,14:14:00,NE,1,10,NYJ,30,7,2539265,SHOTGUN,"1 RB, 1 TE, 3 WR",7,"2 DL, 4 LB, 5 DB",left,2019-09-22T19:24:31.000Z,2019-09-22T19:24:30.000Z,6-4,305,03/15/1993,Illinois,C,NE,NYJ,3,Gillette Stadium,"Foxborough, MA",Outdoor,Field Turf,Sunny and warm,81.0,49,10,SW
38320,2019092206,20190922063123,home,57.55,25.04,0.3,0.85,0.03,179.94,86.1,2555281,Joe Thuney,62,2019,46,4,14:14:00,NE,1,10,NYJ,30,7,2539265,SHOTGUN,"1 RB, 1 TE, 3 WR",7,"2 DL, 4 LB, 5 DB",left,2019-09-22T19:24:31.000Z,2019-09-22T19:24:30.000Z,6-5,308,11/18/1992,North Carolina State,G,NE,NYJ,3,Gillette Stadium,"Foxborough, MA",Outdoor,Field Turf,Sunny and warm,81.0,49,10,SW
38321,2019092206,20190922063123,home,57.48,32.18,1.84,1.97,0.18,314.67,144.43,2560751,Ryan Izzo,85,2019,46,4,14:14:00,NE,1,10,NYJ,30,7,2539265,SHOTGUN,"1 RB, 1 TE, 3 WR",7,"2 DL, 4 LB, 5 DB",left,2019-09-22T19:24:31.000Z,2019-09-22T19:24:30.000Z,6-5,255,12/21/1995,Florida State,TE,NE,NYJ,3,Gillette Stadium,"Foxborough, MA",Outdoor,Field Turf,Sunny and warm,81.0,49,10,SW
38322,2019092206,20190922063123,home,54.25,33.63,5.25,1.84,0.51,232.68,219.61,2562492,Jakobi Meyers,16,2019,46,4,14:14:00,NE,1,10,NYJ,30,7,2539265,SHOTGUN,"1 RB, 1 TE, 3 WR",7,"2 DL, 4 LB, 5 DB",left,2019-09-22T19:24:31.000Z,2019-09-22T19:24:30.000Z,6-2,200,11/09/1996,North Carolina State,WR,NE,NYJ,3,Gillette Stadium,"Foxborough, MA",Outdoor,Field Turf,Sunny and warm,81.0,49,10,SW
38323,2019092206,20190922063123,home,54.21,9.09,5.1,3.34,0.5,297.84,279.62,2563329,Gunner Olszewski,80,2019,46,4,14:14:00,NE,1,10,NYJ,30,7,2539265,SHOTGUN,"1 RB, 1 TE, 3 WR",7,"2 DL, 4 LB, 5 DB",left,2019-09-22T19:24:31.000Z,2019-09-22T19:24:30.000Z,6-0,190,11/26/1996,Bemidji State,WR,NE,NYJ,3,Gillette Stadium,"Foxborough, MA",Outdoor,Field Turf,Sunny and warm,81.0,49,10,SW
