,GameId,PlayId,Team,X,Y,S,A,Dis,Orientation,Dir,NflId,DisplayName,JerseyNumber,Season,YardLine,Quarter,GameClock,PossessionTeam,Down,Distance,FieldPosition,HomeScoreBeforePlay,VisitorScoreBeforePlay,NflIdRusher,OffenseFormation,OffensePersonnel,DefendersInTheBox,DefensePersonnel,PlayDirection,TimeHandoff,TimeSnap,PlayerHeight,PlayerWeight,PlayerBirthDate,PlayerCollegeName,Position,HomeTeamAbbr,VisitorTeamAbbr,Week,Stadium,Location,StadiumType,Turf,GameWeather,Temperature,Humidity,WindSpeed,WindDirection
22594,2019091506,20190915063579,away,11.16,32.71,1.38,1.13,0.13,268.2,202.97,2495347,Lee Smith,85,2019,1,4,05:56:00,BUF,2,1,NYG,14,21,2506404,JUMBO,"2 RB, 3 TE, 0 WR",11,"5 DL, 3 LB, 3 DB",left,2019-09-15T19:46:13.000Z,2019-09-15T19:46:12.000Z,6-6,265,11/21/1987,Marshall,TE,NYG,BUF,2,MetLife Stadium,"East Rutherford, NJ",,UBU Speed Series-S5-M,Fair,79.0,48,5,NNW
22595,2019091506,20190915063579,away,14.88,28.91,4.27,4.04,0.41,251.92,253.67,2506404,Frank Gore,20,2019,1,4,05:56:00,BUF,2,1,NYG,14,21,2506404,JUMBO,"2 RB, 3 TE, 0 WR",11,"5 DL, 3 LB, 3 DB",left,2019-09-15T19:46:13.000Z,2019-09-15T19:46:12.000Z,5-9,212,05/14/1983,Miami,RB,NYG,BUF,2,MetLife Stadium,"East Rutherford, NJ",,UBU Speed Series-S5-M,Fair,79.0,48,5,NNW
22596,2019091506,20190915063579,away,12.98,28.07,3.85,1.75,0.38,283.97,227.02,2530763,Patrick DiMarco,42,2019,1,4,05:56:00,BUF,2,1,NYG,14,21,2506404,JUMBO,"2 RB, 3 TE, 0 WR",11,"5 DL, 3 LB, 3 DB",left,2019-09-15T19:46:13.000Z,2019-09-15T19:46:12.000Z,6-1,234,04/30/1989,South Carolina,FB,NYG,BUF,2,MetLife Stadium,"East Rutherford, NJ",,UBU Speed Series-S5-M,Fair,79.0,48,5,NNW
22597,2019091506,20190915063579,away,11.1,31.75,1.0,1.29,0.1,262.8,223.84,2538176,Ty Nsekhe,77,2019,1,4,05:56:00,BUF,2,1,NYG,14,21,2506404,JUMBO,"2 RB, 3 TE, 0 WR",11,"5 DL, 3 LB, 3 DB",left,2019-09-15T19:46:13.000Z,2019-09-15T19:46:12.000Z,6-8,330,10/27/1985,Texas State,T,NYG,BUF,2,MetLife Stadium,"East Rutherford, NJ",,UBU Speed Series-S5-M,Fair,79.0,48,5,NNW
22598,2019091506,20190915063579,away,11.77,30.05,1.06,0.24,0.11,257.49,152.57,2552343,Jon Feliciano,76,2019,1,4,05:56:00,BUF,2,1,NYG,14,21,2506404,JUMBO,"2 RB, 3 TE, 0 WR",11,"5 DL, 3 LB, 3 DB",left,2019-09-15T19:46:13.000Z,2019-09-15T19:46:12.000Z,6-4,323,02/10/1992,Miami,G,NYG,BUF,2,MetLife Stadium,"East Rutherford, NJ",,UBU Speed Series-S5-M,Fair,79.0,48,5,NNW
22599,2019091506,20190915063579,away,11.3,29.61,0.21,0.23,0.02,353.79,290.49,2552668,Mitch Morse,60,2019,1,4,05:56:00,BUF,2,1,NYG,14,21,2506404,JUMBO,"2 RB, 3 TE, 0 WR",11,"5 DL, 3 LB, 3 DB",left,2019-09-15T19:46:13.000Z,2019-09-15T19:46:12.000Z,6-6,305,04/21/1992,Missouri,C,NYG,BUF,2,MetLife Stadium,"East Rutherford, NJ",,UBU Speed Series-S5-M,Fair,79.0,48,5,NNW
22600,2019091506,20190915063579,away,10.91,29.19,2.32,0.84,0.24,22.55,329.45,2553824,Quinton Spain,67,2019,1,4,05:56:00,BUF,2,1,NYG,14,21,2506404,JUMBO,"2 RB, 3 TE, 0 WR",11,"5 DL, 3 LB, 3 DB",left,2019-09-15T19:46:13.000Z,2019-09-15T19:46:12.000Z,6-4,330,08/07/1991,West Virginia,G,NYG,BUF,2,MetLife Stadium,"East Rutherford, NJ",,UBU Speed Series-S5-M,Fair,79.0,48,5,NNW
22601,2019091506,20190915063579,away,11.01,27.84,2.16,1.42,0.21,336.06,325.92,2557875,Dion Dawkins,73,2019,1,4,05:56:00,BUF,2,1,NYG,14,21,2506404,JUMBO,"2 RB, 3 TE, 0 WR",11,"5 DL, 3 LB, 3 DB",left,2019-09-15T19:46:13.000Z,2019-09-15T19:46:12.000Z,6-5,320,04/26/1994,Temple,T,NYG,BUF,2,MetLife Stadium,"East Rutherford, NJ",,UBU Speed Series-S5-M,Fair,79.0,48,5,NNW
22602,2019091506,20190915063579,away,13.88,29.49,2.95,1.65,0.29,100.12,88.79,2560955,Josh Allen,17,2019,1,4,05:56:00,BUF,2,1,NYG,14,21,2506404,JUMBO,"2 RB, 3 TE, 0 WR",11,"5 DL, 3 LB, 3 DB",left,2019-09-15T19:46:13.000Z,2019-09-15T19:46:12.000Z,6-5,237,05/21/1996,Wyoming,QB,NYG,BUF,2,MetLife Stadium,"East Rutherford, NJ",,UBU Speed Series-S5-M,Fair,79.0,48,5,NNW
22603,2019091506,20190915063579,away,11.8,33.27,1.8,0.88,0.18,277.19,185.81,2562681,Dawson Knox,88,2019,1,4,05:56:00,BUF,2,1,NYG,14,21,2506404,JUMBO,"2 RB, 3 TE, 0 WR",11,"5 DL, 3 LB, 3 DB",left,2019-09-15T19:46:13.000Z,2019-09-15T19:46:12.000Z,6-4,254,11/14/1996,Mississippi,TE,NYG,BUF,2,MetLife Stadium,"East Rutherford, NJ",,UBU Speed Series-S5-M,Fair,79.0,48,5,NNW
22604,2019091506,20190915063579,away,11.2,27.45,2.69,0.83,0.27,284.23,339.9,2562750,Tommy Sweeney,89,2019,1,4,05:56:00,BUF,2,1,NYG,14,21,2506404,JUMBO,"2 RB, 3 TE, 0 WR",11,"5 DL, 3 LB, 3 DB",left,2019-09-15T19:46:13.000Z,2019-09-15T19:46:12.000Z,6-4,251,07/01/1995,Boston College,TE,NYG,BUF,2,MetLife Stadium,"East Rutherford, NJ",,UBU Speed Series-S5-M,Fair,79.0,48,5,NNW
22605,2019091506,20190915063579,home,7.63,34.13,2.08,2.42,0.19,87.16,134.02,2495807,Antoine Bethea,41,2019,1,4,05:56:00,BUF,2,1,NYG,14,21,2506404,JUMBO,"2 RB, 3 TE, 0 WR",11,"5 DL, 3 LB, 3 DB",left,2019-09-15T19:46:13.000Z,2019-09-15T19:46:12.000Z,5-11,206,07/27/1984,Howard,FS,NYG,BUF,2,MetLife Stadium,"East Rutherford, NJ",,UBU Speed Series-S5-M,Fair,79.0,48,5,NNW
22606,2019091506,20190915063579,home,10.92,24.78,2.04,1.19,0.19,78.36,22.29,2535687,Michael Thomas,31,2019,1,4,05:56:00,BUF,2,1,NYG,14,21,2506404,JUMBO,"2 RB, 3 TE, 0 WR",11,"5 DL, 3 LB, 3 DB",left,2019-09-15T19:46:13.000Z,2019-09-15T19:46:12.000Z,5-10,195,03/17/1990,Stanford,SS,NYG,BUF,2,MetLife Stadium,"East Rutherford, NJ",,UBU Speed Series-S5-M,Fair,79.0,48,5,NNW
22607,2019091506,20190915063579,home,10.02,30.96,2.76,1.92,0.26,79.38,112.9,2540143,Alec Ogletree,47,2019,1,4,05:56:00,BUF,2,1,NYG,14,21,2506404,JUMBO,"2 RB, 3 TE, 0 WR",11,"5 DL, 3 LB, 3 DB",left,2019-09-15T19:46:13.000Z,2019-09-15T19:46:12.000Z,6-3,235,09/25/1991,Georgia,LB,NYG,BUF,2,MetLife Stadium,"East Rutherford, NJ",,UBU Speed Series-S5-M,Fair,79.0,48,5,NNW
22608,2019091506,20190915063579,home,11.38,33.52,1.58,1.28,0.16,78.84,156.18,2552273,Markus Golden,44,2019,1,4,05:56:00,BUF,2,1,NYG,14,21,2506404,JUMBO,"2 RB, 3 TE, 0 WR",11,"5 DL, 3 LB, 3 DB",left,2019-09-15T19:46:13.000Z,2019-09-15T19:46:12.000Z,6-3,260,03/13/1991,Missouri,OLB,NYG,BUF,2,MetLife Stadium,"East Rutherford, NJ",,UBU Speed Series-S5-M,Fair,79.0,48,5,NNW
22609,2019091506,20190915063579,home,10.8,28.73,1.77,0.98,0.18,87.28,2.7,2553583,Olsen Pierre,72,2019,1,4,05:56:00,BUF,2,1,NYG,14,21,2506404,JUMBO,"2 RB, 3 TE, 0 WR",11,"5 DL, 3 LB, 3 DB",left,2019-09-15T19:46:13.000Z,2019-09-15T19:46:12.000Z,6-4,293,08/27/1991,Miami,DT,NYG,BUF,2,MetLife Stadium,"East Rutherford, NJ",,UBU Speed Series-S5-M,Fair,79.0,48,5,NNW
22610,2019091506,20190915063579,home,11.39,29.85,1.18,1.15,0.12,101.12,133.49,2557846,Dalvin Tomlinson,94,2019,1,4,05:56:00,BUF,2,1,NYG,14,21,2506404,JUMBO,"2 RB, 3 TE, 0 WR",11,"5 DL, 3 LB, 3 DB",left,2019-09-15T19:46:13.000Z,2019-09-15T19:46:12.000Z,6-3,318,02/28/1994,Alabama,DT,NYG,BUF,2,MetLife Stadium,"East Rutherford, NJ",,UBU Speed Series-S5-M,Fair,79.0,48,5,NNW
22611,2019091506,20190915063579,home,10.55,36.6,2.31,2.26,0.22,122.54,155.11,2557980,Jabrill Peppers,21,2019,1,4,05:56:00,BUF,2,1,NYG,14,21,2506404,JUMBO,"2 RB, 3 TE, 0 WR",11,"5 DL, 3 LB, 3 DB",left,2019-09-15T19:46:13.000Z,2019-09-15T19:46:12.000Z,5-11,213,10/04/1995,Michigan,FS,NYG,BUF,2,MetLife Stadium,"East Rutherford, NJ",,UBU Speed Series-S5-M,Fair,79.0,48,5,NNW
22612,2019091506,20190915063579,home,10.67,32.24,0.77,1.06,0.08,81.26,184.35,2560740,B.J. Hill,95,2019,1,4,05:56:00,BUF,2,1,NYG,14,21,2506404,JUMBO,"2 RB, 3 TE, 0 WR",11,"5 DL, 3 LB, 3 DB",left,2019-09-15T19:46:13.000Z,2019-09-15T19:46:12.000Z,6-3,311,04/20/1995,North Carolina State,DT,NYG,BUF,2,MetLife Stadium,"East Rutherford, NJ",,UBU Speed Series-S5-M,Fair,79.0,48,5,NNW
22613,2019091506,20190915063579,home,10.49,27.24,1.83,0.24,0.18,62.31,16.1,2561015,Lorenzo Carter,59,2019,1,4,05:56:00,BUF,2,1,NYG,14,21,2506404,JUMBO,"2 RB, 3 TE, 0 WR",11,"5 DL, 3 LB, 3 DB",left,2019-09-15T19:46:13.000Z,2019-09-15T19:46:12.000Z,6-5,250,12/10/1995,Georgia,OLB,NYG,BUF,2,MetLife Stadium,"East Rutherford, NJ",,UBU Speed Series-S5-M,Fair,79.0,48,5,NNW
22614,2019091506,20190915063579,home,10.39,29.49,0.82,1.02,0.08,80.15,325.89,2562301,Dexter Lawrence,97,2019,1,4,05:56:00,BUF,2,1,NYG,14,21,2506404,JUMBO,"2 RB, 3 TE, 0 WR",11,"5 DL, 3 LB, 3 DB",left,2019-09-15T19:46:13.000Z,2019-09-15T19:46:12.000Z,6-4,342,11/12/1997,Clemson,DT,NYG,BUF,2,MetLife Stadium,"East Rutherford, NJ",,UBU Speed Series-S5-M,Fair,79.0,48,5,NNW
22615,2019091506,20190915063579,home,9.01,27.98,1.22,2.13,0.11,73.66,98.68,2562638,Ryan Connelly,57,2019,1,4,05:56:00,BUF,2,1,NYG,14,21,2506404,JUMBO,"2 RB, 3 TE, 0 WR",11,"5 DL, 3 LB, 3 DB",left,2019-09-15T19:46:13.000Z,2019-09-15T19:46:12.000Z,6-2,236,10/03/1995,Wisconsin,LB,NYG,BUF,2,MetLife Stadium,"East Rutherford, NJ",,UBU Speed Series-S5-M,Fair,79.0,48,5,NNW
