,GameId,PlayId,Team,X,Y,S,A,Dis,Orientation,Dir,NflId,DisplayName,JerseyNumber,Season,YardLine,Quarter,GameClock,PossessionTeam,Down,Distance,FieldPosition,HomeScoreBeforePlay,VisitorScoreBeforePlay,NflIdRusher,OffenseFormation,OffensePersonnel,DefendersInTheBox,DefensePersonnel,PlayDirection,TimeHandoff,TimeSnap,PlayerHeight,PlayerWeight,PlayerBirthDate,PlayerCollegeName,Position,HomeTeamAbbr,VisitorTeamAbbr,Week,Stadium,Location,StadiumType,Turf,GameWeather,Temperature,Humidity,WindSpeed,WindDirection
71170,2019100609,20191006093725,away,36.32,28.96,3.5,3.67,0.36,252.85,269.74,238498,Julian Edelman,11,2019,28,4,11:02:00,NE,3,4,WAS,7,26,2560809,I_FORM,"1 RB, 2 TE, 2 WR",8,"4 DL, 3 LB, 4 DB",left,2019-10-06T19:44:29.000Z,2019-10-06T19:44:27.000Z,5-10,200,05/22/1986,Kent State,WR,WAS,NE,5,FedExField,"Landover, MD",Outdoor,Grass,Cloudy,70.0,66,8,S
71171,2019100609,20191006093725,away,39.38,17.8,1.16,2.19,0.11,77.61,156.7,497030,Marshall Newhouse,72,2019,28,4,11:02:00,NE,3,4,WAS,7,26,2560809,I_FORM,"1 RB, 2 TE, 2 WR",8,"4 DL, 3 LB, 4 DB",left,2019-10-06T19:44:29.000Z,2019-10-06T19:44:27.000Z,6-4,328,09/29/1988,Texas Christian,T,WAS,NE,5,FedExField,"Landover, MD",Outdoor,Grass,Cloudy,70.0,66,8,S
71172,2019100609,20191006093725,away,36.82,27.33,0.51,2.78,0.06,266.07,311.92,2495131,Marcus Cannon,61,2019,28,4,11:02:00,NE,3,4,WAS,7,26,2560809,I_FORM,"1 RB, 2 TE, 2 WR",8,"4 DL, 3 LB, 4 DB",left,2019-10-06T19:44:29.000Z,2019-10-06T19:44:27.000Z,6-6,335,05/06/1988,Texas Christian,T,WAS,NE,5,FedExField,"Landover, MD",Outdoor,Grass,Cloudy,70.0,66,8,S
71173,2019100609,20191006093725,away,43.22,24.18,3.75,1.26,0.38,18.33,80.95,2504211,Tom Brady,12,2019,28,4,11:02:00,NE,3,4,WAS,7,26,2560809,I_FORM,"1 RB, 2 TE, 2 WR",8,"4 DL, 3 LB, 4 DB",left,2019-10-06T19:44:29.000Z,2019-10-06T19:44:27.000Z,6-4,225,08/03/1977,Michigan,QB,WAS,NE,5,FedExField,"Landover, MD",Outdoor,Grass,Cloudy,70.0,66,8,S
71174,2019100609,20191006093725,away,36.29,9.73,4.46,1.73,0.44,335.34,327.84,2537931,Josh Gordon,10,2019,28,4,11:02:00,NE,3,4,WAS,7,26,2560809,I_FORM,"1 RB, 2 TE, 2 WR",8,"4 DL, 3 LB, 4 DB",left,2019-10-06T19:44:29.000Z,2019-10-06T19:44:27.000Z,6-3,225,04/13/1991,Baylor,WR,WAS,NE,5,FedExField,"Landover, MD",Outdoor,Grass,Cloudy,70.0,66,8,S
71175,2019100609,20191006093725,away,36.6,24.4,1.17,3.13,0.11,215.16,305.8,2552563,Shaq Mason,69,2019,28,4,11:02:00,NE,3,4,WAS,7,26,2560809,I_FORM,"1 RB, 2 TE, 2 WR",8,"4 DL, 3 LB, 4 DB",left,2019-10-06T19:44:29.000Z,2019-10-06T19:44:27.000Z,6-1,310,08/28/1993,Georgia Tech,G,WAS,NE,5,FedExField,"Landover, MD",Outdoor,Grass,Cloudy,70.0,66,8,S
71176,2019100609,20191006093725,away,38.18,29.56,1.09,2.36,0.1,14.32,196.77,2553667,Matt LaCosse,83,2019,28,4,11:02:00,NE,3,4,WAS,7,26,2560809,I_FORM,"1 RB, 2 TE, 2 WR",8,"4 DL, 3 LB, 4 DB",left,2019-10-06T19:44:29.000Z,2019-10-06T19:44:27.000Z,6-6,255,09/21/1992,Illinois,TE,WAS,NE,5,FedExField,"Landover, MD",Outdoor,Grass,Cloudy,70.0,66,8,S
71177,2019100609,20191006093725,away,37.46,23.1,0.28,1.68,0.04,289.06,305.71,2555145,Ted Karras,75,2019,28,4,11:02:00,NE,3,4,WAS,7,26,2560809,I_FORM,"1 RB, 2 TE, 2 WR",8,"4 DL, 3 LB, 4 DB",left,2019-10-06T19:44:29.000Z,2019-10-06T19:44:27.000Z,6-4,305,03/15/1993,Illinois,C,WAS,NE,5,FedExField,"Landover, MD",Outdoor,Grass,Cloudy,70.0,66,8,S
71178,2019100609,20191006093725,away,38.44,21.41,1.01,1.37,0.1,88.07,41.71,2555281,Joe Thuney,62,2019,28,4,11:02:00,NE,3,4,WAS,7,26,2560809,I_FORM,"1 RB, 2 TE, 2 WR",8,"4 DL, 3 LB, 4 DB",left,2019-10-06T19:44:29.000Z,2019-10-06T19:44:27.000Z,6-5,308,11/18/1992,North Carolina State,G,WAS,NE,5,FedExField,"Landover, MD",Outdoor,Grass,Cloudy,70.0,66,8,S
71179,2019100609,20191006093725,away,41.11,24.5,4.79,3.61,0.48,266.79,258.94,2560809,Sony Michel,26,2019,28,4,11:02:00,NE,3,4,WAS,7,26,2560809,I_FORM,"1 RB, 2 TE, 2 WR",8,"4 DL, 3 LB, 4 DB",left,2019-10-06T19:44:29.000Z,2019-10-06T19:44:27.000Z,5-11,215,02/17/1995,Georgia,RB,WAS,NE,5,FedExField,"Landover, MD",Outdoor,Grass,Cloudy,70.0,66,8,S
71180,2019100609,20191006093725,away,39.05,24.9,2.07,4.3,0.22,304.37,277.95,2562890,Jakob Johnson,47,2019,28,4,11:02:00,NE,3,4,WAS,7,26,2560809,I_FORM,"1 RB, 2 TE, 2 WR",8,"4 DL, 3 LB, 4 DB",left,2019-10-06T19:44:29.000Z,2019-10-06T19:44:27.000Z,6-3,255,12/15/1994,Tennessee,TE,WAS,NE,5,FedExField,"Landover, MD",Outdoor,Grass,Cloudy,70.0,66,8,S
71181,2019100609,20191006093725,home,33.22,29.15,0.9,5.98,0.05,98.56,187.63,2532920,Josh Norman,24,2019,28,4,11:02:00,NE,3,4,WAS,7,26,2560809,I_FORM,"1 RB, 2 TE, 2 WR",8,"4 DL, 3 LB, 4 DB",left,2019-10-06T19:44:29.000Z,2019-10-06T19:44:27.000Z,6-0,200,12/15/1987,Coastal Carolina,CB,WAS,NE,5,FedExField,"Landover, MD",Outdoor,Grass,Cloudy,70.0,66,8,S
71182,2019100609,20191006093725,home,38.33,25.56,1.92,2.56,0.2,107.98,80.77,2539978,Jon Bostic,53,2019,28,4,11:02:00,NE,3,4,WAS,7,26,2560809,I_FORM,"1 RB, 2 TE, 2 WR",8,"4 DL, 3 LB, 4 DB",left,2019-10-06T19:44:29.000Z,2019-10-06T19:44:27.000Z,6-1,245,05/05/1991,Florida,ILB,WAS,NE,5,FedExField,"Landover, MD",Outdoor,Grass,Cloudy,70.0,66,8,S
71183,2019100609,20191006093725,home,34.83,28.55,2.52,3.91,0.24,109.68,159.74,2552454,Landon Collins,20,2019,28,4,11:02:00,NE,3,4,WAS,7,26,2560809,I_FORM,"1 RB, 2 TE, 2 WR",8,"4 DL, 3 LB, 4 DB",left,2019-10-06T19:44:29.000Z,2019-10-06T19:44:27.000Z,6-0,218,01/10/1994,Alabama,SS,WAS,NE,5,FedExField,"Landover, MD",Outdoor,Grass,Cloudy,70.0,66,8,S
71184,2019100609,20191006093725,home,34.14,10.41,3.33,1.57,0.33,66.57,349.42,2553796,Quinton Dunbar,23,2019,28,4,11:02:00,NE,3,4,WAS,7,26,2560809,I_FORM,"1 RB, 2 TE, 2 WR",8,"4 DL, 3 LB, 4 DB",left,2019-10-06T19:44:29.000Z,2019-10-06T19:44:27.000Z,6-2,202,07/22/1992,Florida,CB,WAS,NE,5,FedExField,"Landover, MD",Outdoor,Grass,Cloudy,70.0,66,8,S
71185,2019100609,20191006093725,home,37.88,27.75,1.17,3.08,0.12,145.8,160.72,2555240,Matthew Ioannidis,98,2019,28,4,11:02:00,NE,3,4,WAS,7,26,2560809,I_FORM,"1 RB, 2 TE, 2 WR",8,"4 DL, 3 LB, 4 DB",left,2019-10-06T19:44:29.000Z,2019-10-06T19:44:27.000Z,6-3,310,01/11/1994,Temple,DE,WAS,NE,5,FedExField,"Landover, MD",Outdoor,Grass,Cloudy,70.0,66,8,S
71186,2019100609,20191006093725,home,41.25,17.98,3.25,3.55,0.33,28.65,70.12,2555312,Noah Spence,54,2019,28,4,11:02:00,NE,3,4,WAS,7,26,2560809,I_FORM,"1 RB, 2 TE, 2 WR",8,"4 DL, 3 LB, 4 DB",left,2019-10-06T19:44:29.000Z,2019-10-06T19:44:27.000Z,6-2,251,01/08/1994,Eastern Kentucky,DE,WAS,NE,5,FedExField,"Landover, MD",Outdoor,Grass,Cloudy,70.0,66,8,S
71187,2019100609,20191006093725,home,38.41,29.84,1.56,2.42,0.14,209.53,171.15,2557853,Ryan Anderson,52,2019,28,4,11:02:00,NE,3,4,WAS,7,26,2560809,I_FORM,"1 RB, 2 TE, 2 WR",8,"4 DL, 3 LB, 4 DB",left,2019-10-06T19:44:29.000Z,2019-10-06T19:44:27.000Z,6-2,253,08/12/1994,Alabama,OLB,WAS,NE,5,FedExField,"Landover, MD",Outdoor,Grass,Cloudy,70.0,66,8,S
71188,2019100609,20191006093725,home,23.51,20.76,0.64,1.47,0.06,63.2,17.11,2558133,Montae Nicholson,35,2019,28,4,11:02:00,NE,3,4,WAS,7,26,2560809,I_FORM,"1 RB, 2 TE, 2 WR",8,"4 DL, 3 LB, 4 DB",left,2019-10-06T19:44:29.000Z,2019-10-06T19:44:27.000Z,6-2,212,12/04/1995,Michigan State,FS,WAS,NE,5,FedExField,"Landover, MD",Outdoor,Grass,Cloudy,70.0,66,8,S
71189,2019100609,20191006093725,home,37.1,23.34,0.81,1.79,0.07,108.87,300.42,2560834,Daron Payne,94,2019,28,4,11:02:00,NE,3,4,WAS,7,26,2560809,I_FORM,"1 RB, 2 TE, 2 WR",8,"4 DL, 3 LB, 4 DB",left,2019-10-06T19:44:29.000Z,2019-10-06T19:44:27.000Z,6-3,320,05/27/1997,Alabama,NT,WAS,NE,5,FedExField,"Landover, MD",Outdoor,Grass,Cloudy,70.0,66,8,S
71190,2019100609,20191006093725,home,38.91,20.74,1.33,2.55,0.14,48.91,53.09,2560871,Tim Settle,97,2019,28,4,11:02:00,NE,3,4,WAS,7,26,2560809,I_FORM,"1 RB, 2 TE, 2 WR",8,"4 DL, 3 LB, 4 DB",left,2019-10-06T19:44:29.000Z,2019-10-06T19:44:27.000Z,6-3,308,07/11/1997,Virginia Tech,NT,WAS,NE,5,FedExField,"Landover, MD",Outdoor,Grass,Cloudy,70.0,66,8,S
71191,2019100609,20191006093725,home,36.01,23.7,2.19,2.85,0.24,67.64,35.51,2562872,Cole Holcomb,55,2019,28,4,11:02:00,NE,3,4,WAS,7,26,2560809,I_FORM,"1 RB, 2 TE, 2 WR",8,"4 DL, 3 LB, 4 DB",left,2019-10-06T19:44:29.000Z,2019-10-06T19:44:27.000Z,6-1,240,07/30/1996,North Carolina,LB,WAS,NE,5,FedExField,"Landover, MD",Outdoor,Grass,Cloudy,70.0,66,8,S
