,GameId,PlayId,Team,X,Y,S,A,Dis,Orientation,Dir,NflId,DisplayName,JerseyNumber,Season,YardLine,Quarter,GameClock,PossessionTeam,Down,Distance,FieldPosition,HomeScoreBeforePlay,VisitorScoreBeforePlay,NflIdRusher,OffenseFormation,OffensePersonnel,DefendersInTheBox,DefensePersonnel,PlayDirection,TimeHandoff,TimeSnap,PlayerHeight,PlayerWeight,PlayerBirthDate,PlayerCollegeName,Position,HomeTeamAbbr,VisitorTeamAbbr,Week,Stadium,Location,StadiumType,Turf,GameWeather,Temperature,Humidity,WindSpeed,WindDirection
59444,2019092912,20190929122841,away,39.43,23.65,3.07,1.44,0.31,55.88,108.29,2495485,Robert Quinn,58,2019,27,3,02:30:00,NO,1,10,DAL,9,10,2558019,SHOTGUN,"1 RB, 1 TE, 3 WR",7,"4 DL, 2 LB, 5 DB",left,2019-09-30T02:21:53.000Z,2019-09-30T02:21:52.000Z,6-4,257,05/18/1990,North Carolina,DE,NO,DAL,4,Mercedes-Benz Superdome,"New Orleans, La.",Indoors,UBU Speed Series-S5-M,Sunny,87.0,62,10,E
59445,2019092912,20190929122841,away,33.61,25.18,3.14,1.78,0.3,76.07,45.66,2541832,Jeff Heath,38,2019,27,3,02:30:00,NO,1,10,DAL,9,10,2558019,SHOTGUN,"1 RB, 1 TE, 3 WR",7,"4 DL, 2 LB, 5 DB",left,2019-09-30T02:21:53.000Z,2019-09-30T02:21:52.000Z,6-1,212,05/14/1991,Saginaw Valley State,SS,NO,DAL,4,Mercedes-Benz Superdome,"New Orleans, La.",Indoors,UBU Speed Series-S5-M,Sunny,87.0,62,10,E
59446,2019092912,20190929122841,away,37.79,31.93,3.88,1.28,0.39,169.3,163.15,2543490,Demarcus Lawrence,90,2019,27,3,02:30:00,NO,1,10,DAL,9,10,2558019,SHOTGUN,"1 RB, 1 TE, 3 WR",7,"4 DL, 2 LB, 5 DB",left,2019-09-30T02:21:53.000Z,2019-09-30T02:21:52.000Z,6-3,265,04/28/1992,Boise State,DE,NO,DAL,4,Mercedes-Benz Superdome,"New Orleans, La.",Indoors,UBU Speed Series-S5-M,Sunny,87.0,62,10,E
59447,2019092912,20190929122841,away,32.84,27.95,2.03,1.7,0.2,98.31,125.73,2550262,Joe Thomas,48,2019,27,3,02:30:00,NO,1,10,DAL,9,10,2558019,SHOTGUN,"1 RB, 1 TE, 3 WR",7,"4 DL, 2 LB, 5 DB",left,2019-09-30T02:21:53.000Z,2019-09-30T02:21:52.000Z,6-1,232,05/06/1991,South Carolina State,ILB,NO,DAL,4,Mercedes-Benz Superdome,"New Orleans, La.",Indoors,UBU Speed Series-S5-M,Sunny,87.0,62,10,E
59448,2019092912,20190929122841,away,31.39,40.42,6.43,1.55,0.65,39.61,3.05,2552568,Byron Jones,31,2019,27,3,02:30:00,NO,1,10,DAL,9,10,2558019,SHOTGUN,"1 RB, 1 TE, 3 WR",7,"4 DL, 2 LB, 5 DB",left,2019-09-30T02:21:53.000Z,2019-09-30T02:21:52.000Z,6-1,205,09/26/1992,Connecticut,CB,NO,DAL,4,Mercedes-Benz Superdome,"New Orleans, La.",Indoors,UBU Speed Series-S5-M,Sunny,87.0,62,10,E
59449,2019092912,20190929122841,away,38.44,25.63,2.83,1.02,0.28,50.87,128.81,2555400,Maliek Collins,96,2019,27,3,02:30:00,NO,1,10,DAL,9,10,2558019,SHOTGUN,"1 RB, 1 TE, 3 WR",7,"4 DL, 2 LB, 5 DB",left,2019-09-30T02:21:53.000Z,2019-09-30T02:21:52.000Z,6-2,308,04/08/1995,Nebraska,DT,NO,DAL,4,Mercedes-Benz Superdome,"New Orleans, La.",Indoors,UBU Speed Series-S5-M,Sunny,87.0,62,10,E
59450,2019092912,20190929122841,away,35.56,22.63,1.38,1.38,0.13,85.66,265.36,2555531,Anthony Brown,30,2019,27,3,02:30:00,NO,1,10,DAL,9,10,2558019,SHOTGUN,"1 RB, 1 TE, 3 WR",7,"4 DL, 2 LB, 5 DB",left,2019-09-30T02:21:53.000Z,2019-09-30T02:21:52.000Z,5-11,196,12/15/1993,Purdue,CB,NO,DAL,4,Mercedes-Benz Superdome,"New Orleans, La.",Indoors,UBU Speed Series-S5-M,Sunny,87.0,62,10,E
59451,2019092912,20190929122841,away,34.63,43.83,1.94,3.36,0.19,102.7,258.44,2557840,Chidobe Awuzie,24,2019,27,3,02:30:00,NO,1,10,DAL,9,10,2558019,SHOTGUN,"1 RB, 1 TE, 3 WR",7,"4 DL, 2 LB, 5 DB",left,2019-09-30T02:21:53.000Z,2019-09-30T02:21:52.000Z,6-0,202,05/24/1995,Colorado,CB,NO,DAL,4,Mercedes-Benz Superdome,"New Orleans, La.",Indoors,UBU Speed Series-S5-M,Sunny,87.0,62,10,E
59452,2019092912,20190929122841,away,20.43,30.59,0.22,1.16,0.02,94.69,177.21,2558159,Xavier Woods,25,2019,27,3,02:30:00,NO,1,10,DAL,9,10,2558019,SHOTGUN,"1 RB, 1 TE, 3 WR",7,"4 DL, 2 LB, 5 DB",left,2019-09-30T02:21:53.000Z,2019-09-30T02:21:52.000Z,5-11,202,07/26/1995,Louisiana Tech,FS,NO,DAL,4,Mercedes-Benz Superdome,"New Orleans, La.",Indoors,UBU Speed Series-S5-M,Sunny,87.0,62,10,E
59453,2019092912,20190929122841,away,33.24,32.07,3.2,3.08,0.3,106.98,83.26,2560908,Leighton Vander Esch,55,2019,27,3,02:30:00,NO,1,10,DAL,9,10,2558019,SHOTGUN,"1 RB, 1 TE, 3 WR",7,"4 DL, 2 LB, 5 DB",left,2019-09-30T02:21:53.000Z,2019-09-30T02:21:52.000Z,6-4,256,02/08/1996,Boise State,LB,NO,DAL,4,Mercedes-Benz Superdome,"New Orleans, La.",Indoors,UBU Speed Series-S5-M,Sunny,87.0,62,10,E
59454,2019092912,20190929122841,away,37.26,28.55,2.91,0.1,0.29,61.89,161.97,2562663,Trysten Hill,97,2019,27,3,02:30:00,NO,1,10,DAL,9,10,2558019,SHOTGUN,"1 RB, 1 TE, 3 WR",7,"4 DL, 2 LB, 5 DB",left,2019-09-30T02:21:53.000Z,2019-09-30T02:21:52.000Z,6-3,308,03/25/1998,Central Florida,DT,NO,DAL,4,Mercedes-Benz Superdome,"New Orleans, La.",Indoors,UBU Speed Series-S5-M,Sunny,87.0,62,10,E
59455,2019092912,20190929122841,home,40.64,41.27,7.21,3.87,0.73,298.8,343.63,2507166,Ted Ginn,19,2019,27,3,02:30:00,NO,1,10,DAL,9,10,2558019,SHOTGUN,"1 RB, 1 TE, 3 WR",7,"4 DL, 2 LB, 5 DB",left,2019-09-30T02:21:53.000Z,2019-09-30T02:21:52.000Z,5-11,180,04/12/1985,Ohio State,WR,NO,DAL,4,Mercedes-Benz Superdome,"New Orleans, La.",Indoors,UBU Speed Series-S5-M,Sunny,87.0,62,10,E
59456,2019092912,20190929122841,home,37.56,29.1,2.3,0.5,0.24,194.67,180.42,2539248,Larry Warford,67,2019,27,3,02:30:00,NO,1,10,DAL,9,10,2558019,SHOTGUN,"1 RB, 1 TE, 3 WR",7,"4 DL, 2 LB, 5 DB",left,2019-09-30T02:21:53.000Z,2019-09-30T02:21:52.000Z,6-3,317,06/18/1991,Kentucky,G,NO,DAL,4,Mercedes-Benz Superdome,"New Orleans, La.",Indoors,UBU Speed Series-S5-M,Sunny,87.0,62,10,E
59457,2019092912,20190929122841,home,38.98,24.77,2.54,1.13,0.26,179.38,141.94,2540228,Terron Armstead,72,2019,27,3,02:30:00,NO,1,10,DAL,9,10,2558019,SHOTGUN,"1 RB, 1 TE, 3 WR",7,"4 DL, 2 LB, 5 DB",left,2019-09-30T02:21:53.000Z,2019-09-30T02:21:52.000Z,6-5,304,07/23/1991,Arkansas-Pine Bluff,T,NO,DAL,4,Mercedes-Benz Superdome,"New Orleans, La.",Indoors,UBU Speed Series-S5-M,Sunny,87.0,62,10,E
59458,2019092912,20190929122841,home,38.54,28.46,4.74,1.63,0.47,328.22,337.58,2541834,Josh Hill,89,2019,27,3,02:30:00,NO,1,10,DAL,9,10,2558019,SHOTGUN,"1 RB, 1 TE, 3 WR",7,"4 DL, 2 LB, 5 DB",left,2019-09-30T02:21:53.000Z,2019-09-30T02:21:52.000Z,6-5,250,05/21/1990,Idaho State,TE,NO,DAL,4,Mercedes-Benz Superdome,"New Orleans, La.",Indoors,UBU Speed Series-S5-M,Sunny,87.0,62,10,E
59459,2019092912,20190929122841,home,41.88,29.84,0.86,2.0,0.08,309.26,19.56,2543465,Teddy Bridgewater,5,2019,27,3,02:30:00,NO,1,10,DAL,9,10,2558019,SHOTGUN,"1 RB, 1 TE, 3 WR",7,"4 DL, 2 LB, 5 DB",left,2019-09-30T02:21:53.000Z,2019-09-30T02:21:52.000Z,6-2,215,11/10/1992,Louisville,QB,NO,DAL,4,Mercedes-Benz Superdome,"New Orleans, La.",Indoors,UBU Speed Series-S5-M,Sunny,87.0,62,10,E
59460,2019092912,20190929122841,home,38.2,25.97,2.4,0.7,0.24,199.56,161.44,2552455,Andrus Peat,75,2019,27,3,02:30:00,NO,1,10,DAL,9,10,2558019,SHOTGUN,"1 RB, 1 TE, 3 WR",7,"4 DL, 2 LB, 5 DB",left,2019-09-30T02:21:53.000Z,2019-09-30T02:21:52.000Z,6-7,316,11/04/1993,Stanford,T,NO,DAL,4,Mercedes-Benz Superdome,"New Orleans, La.",Indoors,UBU Speed Series-S5-M,Sunny,87.0,62,10,E
59461,2019092912,20190929122841,home,35.55,43.52,2.77,0.91,0.28,289.04,262.8,2556370,Michael Thomas,13,2019,27,3,02:30:00,NO,1,10,DAL,9,10,2558019,SHOTGUN,"1 RB, 1 TE, 3 WR",7,"4 DL, 2 LB, 5 DB",left,2019-09-30T02:21:53.000Z,2019-09-30T02:21:52.000Z,6-3,212,03/03/1993,Ohio State,WR,NO,DAL,4,Mercedes-Benz Superdome,"New Orleans, La.",Indoors,UBU Speed Series-S5-M,Sunny,87.0,62,10,E
59462,2019092912,20190929122841,home,36.11,31.59,3.39,2.84,0.32,294.97,239.65,2557959,Ryan Ramczyk,71,2019,27,3,02:30:00,NO,1,10,DAL,9,10,2558019,SHOTGUN,"1 RB, 1 TE, 3 WR",7,"4 DL, 2 LB, 5 DB",left,2019-09-30T02:21:53.000Z,2019-09-30T02:21:52.000Z,6-6,314,04/22/1994,Wisconsin,T,NO,DAL,4,Mercedes-Benz Superdome,"New Orleans, La.",Indoors,UBU Speed Series-S5-M,Sunny,87.0,62,10,E
59463,2019092912,20190929122841,home,41.11,29.83,4.62,2.79,0.45,244.75,226.91,2558019,Alvin Kamara,41,2019,27,3,02:30:00,NO,1,10,DAL,9,10,2558019,SHOTGUN,"1 RB, 1 TE, 3 WR",7,"4 DL, 2 LB, 5 DB",left,2019-09-30T02:21:53.000Z,2019-09-30T02:21:52.000Z,5-10,215,07/25/1995,Tennessee,RB,NO,DAL,4,Mercedes-Benz Superdome,"New Orleans, La.",Indoors,UBU Speed Series-S5-M,Sunny,87.0,62,10,E
59464,2019092912,20190929122841,home,36.29,22.73,1.77,0.79,0.18,282.81,264.53,2558928,Austin Carr,80,2019,27,3,02:30:00,NO,1,10,DAL,9,10,2558019,SHOTGUN,"1 RB, 1 TE, 3 WR",7,"4 DL, 2 LB, 5 DB",left,2019-09-30T02:21:53.000Z,2019-09-30T02:21:52.000Z,6-1,195,12/25/1993,Northwestern,WR,NO,DAL,4,Mercedes-Benz Superdome,"New Orleans, La.",Indoors,UBU Speed Series-S5-M,Sunny,87.0,62,10,E
59465,2019092912,20190929122841,home,35.58,28.51,2.49,0.87,0.27,256.14,241.21,2562683,Erik McCoy,78,2019,27,3,02:30:00,NO,1,10,DAL,9,10,2558019,SHOTGUN,"1 RB, 1 TE, 3 WR",7,"4 DL, 2 LB, 5 DB",left,2019-09-30T02:21:53.000Z,2019-09-30T02:21:52.000Z,6-4,315,08/27/1997,Texas A&M,C,NO,DAL,4,Mercedes-Benz Superdome,"New Orleans, La.",Indoors,UBU Speed Series-S5-M,Sunny,87.0,62,10,E
