,GameId,PlayId,Team,X,Y,S,A,Dis,Orientation,Dir,NflId,DisplayName,JerseyNumber,Season,YardLine,Quarter,GameClock,PossessionTeam,Down,Distance,FieldPosition,HomeScoreBeforePlay,VisitorScoreBeforePlay,NflIdRusher,OffenseFormation,OffensePersonnel,DefendersInTheBox,DefensePersonnel,PlayDirection,TimeHandoff,TimeSnap,PlayerHeight,PlayerWeight,PlayerBirthDate,PlayerCollegeName,Position,HomeTeamAbbr,VisitorTeamAbbr,Week,Stadium,Location,StadiumType,Turf,GameWeather,Temperature,Humidity,WindSpeed,WindDirection
50820,2019092904,20190929040106,away,45.1,19.05,1.0,1.71,0.1,148.47,66.73,2495700,Greg Olsen,88,2019,36,1,13:41:00,CAR,1,10,CAR,0,0,2557997,SHOTGUN,"1 RB, 1 TE, 3 WR",7,"3 DL, 3 LB, 5 DB",right,2019-09-29T17:04:48.000Z,2019-09-29T17:04:47.000Z,6-5,255,03/11/1985,Miami,TE,HOU,CAR,4,NRG Stadium,"Houston, TX",Retractable Roof,Artificial,Mostly Cloudy,89.0,61,6mph,SE
50821,2019092904,20190929040106,away,45.53,33.98,2.9,2.29,0.28,79.41,75.26,2532978,Jarius Wright,13,2019,36,1,13:41:00,CAR,1,10,CAR,0,0,2557997,SHOTGUN,"1 RB, 1 TE, 3 WR",7,"3 DL, 3 LB, 5 DB",right,2019-09-29T17:04:48.000Z,2019-09-29T17:04:47.000Z,5-10,191,11/25/1989,Arkansas,WR,HOU,CAR,4,NRG Stadium,"Houston, TX",Retractable Roof,Artificial,Mostly Cloudy,89.0,61,6mph,SE
50822,2019092904,20190929040106,away,44.58,24.12,2.49,1.43,0.25,121.84,162.72,2538145,Greg Van Roten,73,2019,36,1,13:41:00,CAR,1,10,CAR,0,0,2557997,SHOTGUN,"1 RB, 1 TE, 3 WR",7,"3 DL, 3 LB, 5 DB",right,2019-09-29T17:04:48.000Z,2019-09-29T17:04:47.000Z,6-3,305,02/26/1990,Pennsylvania,G,HOU,CAR,4,NRG Stadium,"Houston, TX",Retractable Roof,Artificial,Mostly Cloudy,89.0,61,6mph,SE
50823,2019092904,20190929040106,away,45.65,24.6,0.53,1.3,0.06,61.62,94.78,2550155,Matt Paradis,61,2019,36,1,13:41:00,CAR,1,10,CAR,0,0,2557997,SHOTGUN,"1 RB, 1 TE, 3 WR",7,"3 DL, 3 LB, 5 DB",right,2019-09-29T17:04:48.000Z,2019-09-29T17:04:47.000Z,6-3,300,10/12/1989,Boise State,C,HOU,CAR,4,NRG Stadium,"Houston, TX",Retractable Roof,Artificial,Mostly Cloudy,89.0,61,6mph,SE
50824,2019092904,20190929040106,away,44.84,21.67,1.79,2.14,0.18,71.41,129.28,2552357,Daryl Williams,60,2019,36,1,13:41:00,CAR,1,10,CAR,0,0,2557997,SHOTGUN,"1 RB, 1 TE, 3 WR",7,"3 DL, 3 LB, 5 DB",right,2019-09-29T17:04:48.000Z,2019-09-29T17:04:47.000Z,6-6,330,08/31/1992,Oklahoma,T,HOU,CAR,4,NRG Stadium,"Houston, TX",Retractable Roof,Artificial,Mostly Cloudy,89.0,61,6mph,SE
50825,2019092904,20190929040106,away,45.49,21.97,1.94,0.29,0.2,63.21,41.17,2557871,Taylor Moton,72,2019,36,1,13:41:00,CAR,1,10,CAR,0,0,2557997,SHOTGUN,"1 RB, 1 TE, 3 WR",7,"3 DL, 3 LB, 5 DB",right,2019-09-29T17:04:48.000Z,2019-09-29T17:04:47.000Z,6-5,325,03/18/1994,Western Michigan,T,HOU,CAR,4,NRG Stadium,"Houston, TX",Retractable Roof,Artificial,Mostly Cloudy,89.0,61,6mph,SE
50826,2019092904,20190929040106,away,41.5,25.39,3.78,3.29,0.36,106.3,123.53,2557997,Christian McCaffrey,22,2019,36,1,13:41:00,CAR,1,10,CAR,0,0,2557997,SHOTGUN,"1 RB, 1 TE, 3 WR",7,"3 DL, 3 LB, 5 DB",right,2019-09-29T17:04:48.000Z,2019-09-29T17:04:47.000Z,5-11,205,06/07/1996,Stanford,RB,HOU,CAR,4,NRG Stadium,"Houston, TX",Retractable Roof,Artificial,Mostly Cloudy,89.0,61,6mph,SE
50827,2019092904,20190929040106,away,45.22,9.24,4.07,6.9,0.37,53.94,70.21,2558066,Curtis Samuel,10,2019,36,1,13:41:00,CAR,1,10,CAR,0,0,2557997,SHOTGUN,"1 RB, 1 TE, 3 WR",7,"3 DL, 3 LB, 5 DB",right,2019-09-29T17:04:48.000Z,2019-09-29T17:04:47.000Z,5-11,195,08/11/1996,Ohio State,WR,HOU,CAR,4,NRG Stadium,"Houston, TX",Retractable Roof,Artificial,Mostly Cloudy,89.0,61,6mph,SE
50828,2019092904,20190929040106,away,46.03,44.96,3.25,3.14,0.31,80.26,52.64,2560813,D.J. Moore,12,2019,36,1,13:41:00,CAR,1,10,CAR,0,0,2557997,SHOTGUN,"1 RB, 1 TE, 3 WR",7,"3 DL, 3 LB, 5 DB",right,2019-09-29T17:04:48.000Z,2019-09-29T17:04:47.000Z,6-0,215,04/14/1997,Maryland,WR,HOU,CAR,4,NRG Stadium,"Houston, TX",Retractable Roof,Artificial,Mostly Cloudy,89.0,61,6mph,SE
50829,2019092904,20190929040106,away,40.8,24.82,2.62,3.47,0.25,57.86,333.01,2561177,Kyle Allen,7,2019,36,1,13:41:00,CAR,1,10,CAR,0,0,2557997,SHOTGUN,"1 RB, 1 TE, 3 WR",7,"3 DL, 3 LB, 5 DB",right,2019-09-29T17:04:48.000Z,2019-09-29T17:04:47.000Z,6-3,211,03/08/1996,Houston,QB,HOU,CAR,4,NRG Stadium,"Houston, TX",Retractable Roof,Artificial,Mostly Cloudy,89.0,61,6mph,SE
50830,2019092904,20190929040106,away,44.68,26.51,1.15,0.81,0.12,51.74,130.14,2562304,Greg Little,74,2019,36,1,13:41:00,CAR,1,10,CAR,0,0,2557997,SHOTGUN,"1 RB, 1 TE, 3 WR",7,"3 DL, 3 LB, 5 DB",right,2019-09-29T17:04:48.000Z,2019-09-29T17:04:47.000Z,6-5,310,11/04/1997,Mississippi,T,HOU,CAR,4,NRG Stadium,"Houston, TX",Retractable Roof,Artificial,Mostly Cloudy,89.0,61,6mph,SE
50831,2019092904,20190929040106,home,45.04,17.77,2.55,1.02,0.26,323.06,295.11,2495488,J.J. Watt,99,2019,36,1,13:41:00,CAR,1,10,CAR,0,0,2557997,SHOTGUN,"1 RB, 1 TE, 3 WR",7,"3 DL, 3 LB, 5 DB",right,2019-09-29T17:04:48.000Z,2019-09-29T17:04:47.000Z,6-5,288,03/22/1989,Wisconsin,DE,HOU,CAR,4,NRG Stadium,"Houston, TX",Retractable Roof,Artificial,Mostly Cloudy,89.0,61,6mph,SE
50832,2019092904,20190929040106,home,52.44,9.9,1.75,1.03,0.18,254.77,58.29,2495872,Johnathan Joseph,24,2019,36,1,13:41:00,CAR,1,10,CAR,0,0,2557997,SHOTGUN,"1 RB, 1 TE, 3 WR",7,"3 DL, 3 LB, 5 DB",right,2019-09-29T17:04:48.000Z,2019-09-29T17:04:47.000Z,5-11,185,04/16/1984,South Carolina,CB,HOU,CAR,4,NRG Stadium,"Houston, TX",Retractable Roof,Artificial,Mostly Cloudy,89.0,61,6mph,SE
50833,2019092904,20190929040106,home,47.58,18.81,1.53,1.81,0.16,278.08,275.91,2532848,Tashaun Gipson,39,2019,36,1,13:41:00,CAR,1,10,CAR,0,0,2557997,SHOTGUN,"1 RB, 1 TE, 3 WR",7,"3 DL, 3 LB, 5 DB",right,2019-09-29T17:04:48.000Z,2019-09-29T17:04:47.000Z,6-1,212,08/07/1990,Wyoming,FS,HOU,CAR,4,NRG Stadium,"Houston, TX",Retractable Roof,Artificial,Mostly Cloudy,89.0,61,6mph,SE
50834,2019092904,20190929040106,home,45.79,28.32,2.17,2.29,0.21,232.58,202.98,2533049,Whitney Mercilus,59,2019,36,1,13:41:00,CAR,1,10,CAR,0,0,2557997,SHOTGUN,"1 RB, 1 TE, 3 WR",7,"3 DL, 3 LB, 5 DB",right,2019-09-29T17:04:48.000Z,2019-09-29T17:04:47.000Z,6-4,258,07/21/1990,Illinois,OLB,HOU,CAR,4,NRG Stadium,"Houston, TX",Retractable Roof,Artificial,Mostly Cloudy,89.0,61,6mph,SE
50835,2019092904,20190929040106,home,47.27,33.98,1.42,2.53,0.13,270.43,58.07,2543505,Bradley Roby,21,2019,36,1,13:41:00,CAR,1,10,CAR,0,0,2557997,SHOTGUN,"1 RB, 1 TE, 3 WR",7,"3 DL, 3 LB, 5 DB",right,2019-09-29T17:04:48.000Z,2019-09-29T17:04:47.000Z,5-11,194,05/01/1992,Ohio State,CB,HOU,CAR,4,NRG Stadium,"Houston, TX",Retractable Roof,Artificial,Mostly Cloudy,89.0,61,6mph,SE
50836,2019092904,20190929040106,home,49.12,21.94,1.21,2.1,0.12,284.49,196.88,2552490,Benardrick McKinney,55,2019,36,1,13:41:00,CAR,1,10,CAR,0,0,2557997,SHOTGUN,"1 RB, 1 TE, 3 WR",7,"3 DL, 3 LB, 5 DB",right,2019-09-29T17:04:48.000Z,2019-09-29T17:04:47.000Z,6-4,257,11/19/1992,Mississippi State,ILB,HOU,CAR,4,NRG Stadium,"Houston, TX",Retractable Roof,Artificial,Mostly Cloudy,89.0,61,6mph,SE
50837,2019092904,20190929040106,home,46.19,21.9,0.34,1.11,0.04,300.82,232.97,2552670,Angelo Blackson,97,2019,36,1,13:41:00,CAR,1,10,CAR,0,0,2557997,SHOTGUN,"1 RB, 1 TE, 3 WR",7,"3 DL, 3 LB, 5 DB",right,2019-09-29T17:04:48.000Z,2019-09-29T17:04:47.000Z,6-4,318,11/14/1992,Auburn,DE,HOU,CAR,4,NRG Stadium,"Houston, TX",Retractable Roof,Artificial,Mostly Cloudy,89.0,61,6mph,SE
50838,2019092904,20190929040106,home,46.32,24.79,0.27,0.37,0.03,289.56,188.46,2555388,D.J. Reader,98,2019,36,1,13:41:00,CAR,1,10,CAR,0,0,2557997,SHOTGUN,"1 RB, 1 TE, 3 WR",7,"3 DL, 3 LB, 5 DB",right,2019-09-29T17:04:48.000Z,2019-09-29T17:04:47.000Z,6-3,347,07/01/1994,Clemson,DT,HOU,CAR,4,NRG Stadium,"Houston, TX",Retractable Roof,Artificial,Mostly Cloudy,89.0,61,6mph,SE
50839,2019092904,20190929040106,home,49.38,25.11,1.53,3.84,0.14,285.16,269.53,2558094,Zach Cunningham,41,2019,36,1,13:41:00,CAR,1,10,CAR,0,0,2557997,SHOTGUN,"1 RB, 1 TE, 3 WR",7,"3 DL, 3 LB, 5 DB",right,2019-09-29T17:04:48.000Z,2019-09-29T17:04:47.000Z,6-3,238,12/12/1994,Vanderbilt,ILB,HOU,CAR,4,NRG Stadium,"Houston, TX",Retractable Roof,Artificial,Mostly Cloudy,89.0,61,6mph,SE
50840,2019092904,20190929040106,home,60.06,28.24,1.34,1.61,0.14,247.86,172.02,2560851,Justin Reid,20,2019,36,1,13:41:00,CAR,1,10,CAR,0,0,2557997,SHOTGUN,"1 RB, 1 TE, 3 WR",7,"3 DL, 3 LB, 5 DB",right,2019-09-29T17:04:48.000Z,2019-09-29T17:04:47.000Z,6-1,204,02/15/1997,Stanford,SS,HOU,CAR,4,NRG Stadium,"Houston, TX",Retractable Roof,Artificial,Mostly Cloudy,89.0,61,6mph,SE
50841,2019092904,20190929040106,home,47.33,44.2,2.51,3.55,0.24,288.86,66.82,2562295,Lonnie Johnson,32,2019,36,1,13:41:00,CAR,1,10,CAR,0,0,2557997,SHOTGUN,"1 RB, 1 TE, 3 WR",7,"3 DL, 3 LB, 5 DB",right,2019-09-29T17:04:48.000Z,2019-09-29T17:04:47.000Z,6-2,213,11/04/1995,Kentucky,DB,HOU,CAR,4,NRG Stadium,"Houston, TX",Retractable Roof,Artificial,Mostly Cloudy,89.0,61,6mph,SE
