,GameId,PlayId,Team,X,Y,S,A,Dis,Orientation,Dir,NflId,DisplayName,JerseyNumber,Season,YardLine,Quarter,GameClock,PossessionTeam,Down,Distance,FieldPosition,HomeScoreBeforePlay,VisitorScoreBeforePlay,NflIdRusher,OffenseFormation,OffensePersonnel,DefendersInTheBox,DefensePersonnel,PlayDirection,TimeHandoff,TimeSnap,PlayerHeight,PlayerWeight,PlayerBirthDate,PlayerCollegeName,Position,HomeTeamAbbr,VisitorTeamAbbr,Week,Stadium,Location,StadiumType,Turf,GameWeather,Temperature,Humidity,WindSpeed,WindDirection
12826,2019090812,20190908123492,away,26.68,37.08,1.61,2.4,0.15,132.4,166.81,496733,Joe Haden,23,2019,21,4,07:51:00,NE,2,6,PIT,30,3,2539265,I_FORM,"2 RB, 1 TE, 2 WR",5,"2 DL, 4 LB, 5 DB",left,2019-09-09T03:00:26.000Z,2019-09-09T03:00:25.000Z,5-11,195,04/14/1989,Florida,CB,NE,PIT,1,Gillette Stadium,"Foxborough, MA",Outdoor,Field Turf,Partly cloudy and mild,66.0,62,2,NW
12827,2019090812,20190908123492,away,30.53,30.85,1.08,1.98,0.11,112.65,323.59,2508109,Cameron Heyward,97,2019,21,4,07:51:00,NE,2,6,PIT,30,3,2539265,I_FORM,"2 RB, 1 TE, 2 WR",5,"2 DL, 4 LB, 5 DB",left,2019-09-09T03:00:26.000Z,2019-09-09T03:00:25.000Z,6-5,295,05/06/1989,Ohio State,DT,NE,PIT,1,Gillette Stadium,"Foxborough, MA",Outdoor,Field Turf,Partly cloudy and mild,66.0,62,2,NW
12828,2019090812,20190908123492,away,34.15,27.09,5.95,1.12,0.59,58.2,42.25,2532789,Mark Barron,26,2019,21,4,07:51:00,NE,2,6,PIT,30,3,2539265,I_FORM,"2 RB, 1 TE, 2 WR",5,"2 DL, 4 LB, 5 DB",left,2019-09-09T03:00:26.000Z,2019-09-09T03:00:25.000Z,6-2,230,10/27/1989,Alabama,ILB,NE,PIT,1,Gillette Stadium,"Foxborough, MA",Outdoor,Field Turf,Partly cloudy and mild,66.0,62,2,NW
12829,2019090812,20190908123492,away,27.34,8.59,4.5,2.05,0.44,148.37,245.44,2552265,Steven Nelson,22,2019,21,4,07:51:00,NE,2,6,PIT,30,3,2539265,I_FORM,"2 RB, 1 TE, 2 WR",5,"2 DL, 4 LB, 5 DB",left,2019-09-09T03:00:26.000Z,2019-09-09T03:00:25.000Z,5-11,194,01/22/1993,Oregon State,CB,NE,PIT,1,Gillette Stadium,"Foxborough, MA",Outdoor,Field Turf,Partly cloudy and mild,66.0,62,2,NW
12830,2019090812,20190908123492,away,33.52,33.89,4.32,0.16,0.43,132.31,125.36,2552266,Anthony Chickillo,56,2019,21,4,07:51:00,NE,2,6,PIT,30,3,2539265,I_FORM,"2 RB, 1 TE, 2 WR",5,"2 DL, 4 LB, 5 DB",left,2019-09-09T03:00:26.000Z,2019-09-09T03:00:25.000Z,6-3,255,12/10/1992,Miami,OLB,NE,PIT,1,Gillette Stadium,"Foxborough, MA",Outdoor,Field Turf,Partly cloudy and mild,66.0,62,2,NW
12831,2019090812,20190908123492,away,31.35,29.69,1.23,4.67,0.16,283.44,7.06,2552289,Bud Dupree,48,2019,21,4,07:51:00,NE,2,6,PIT,30,3,2539265,I_FORM,"2 RB, 1 TE, 2 WR",5,"2 DL, 4 LB, 5 DB",left,2019-09-09T03:00:26.000Z,2019-09-09T03:00:25.000Z,6-4,269,02/12/1993,Kentucky,OLB,NE,PIT,1,Gillette Stadium,"Foxborough, MA",Outdoor,Field Turf,Partly cloudy and mild,66.0,62,2,NW
12832,2019090812,20190908123492,away,31.82,31.97,0.33,1.91,0.05,115.98,120.16,2555239,Javon Hargrave,79,2019,21,4,07:51:00,NE,2,6,PIT,30,3,2539265,I_FORM,"2 RB, 1 TE, 2 WR",5,"2 DL, 4 LB, 5 DB",left,2019-09-09T03:00:26.000Z,2019-09-09T03:00:25.000Z,6-2,305,02/07/1993,South Carolina State,NT,NE,PIT,1,Gillette Stadium,"Foxborough, MA",Outdoor,Field Turf,Partly cloudy and mild,66.0,62,2,NW
12833,2019090812,20190908123492,away,17.94,27.82,2.24,2.49,0.21,112.03,148.15,2556559,Mike Hilton,28,2019,21,4,07:51:00,NE,2,6,PIT,30,3,2539265,I_FORM,"2 RB, 1 TE, 2 WR",5,"2 DL, 4 LB, 5 DB",left,2019-09-09T03:00:26.000Z,2019-09-09T03:00:25.000Z,5-9,184,03/09/1994,Mississippi,CB,NE,PIT,1,Gillette Stadium,"Foxborough, MA",Outdoor,Field Turf,Partly cloudy and mild,66.0,62,2,NW
12834,2019090812,20190908123492,away,24.48,21.62,2.29,0.58,0.23,72.74,332.24,2560712,Terrell Edmunds,34,2019,21,4,07:51:00,NE,2,6,PIT,30,3,2539265,I_FORM,"2 RB, 1 TE, 2 WR",5,"2 DL, 4 LB, 5 DB",left,2019-09-09T03:00:26.000Z,2019-09-09T03:00:25.000Z,6-1,217,01/20/1997,Virginia Tech,S,NE,PIT,1,Gillette Stadium,"Foxborough, MA",Outdoor,Field Turf,Partly cloudy and mild,66.0,62,2,NW
12835,2019090812,20190908123492,away,29.38,34.3,0.75,2.07,0.08,141.36,37.43,2560778,Kam Kelly,29,2019,21,4,07:51:00,NE,2,6,PIT,30,3,2539265,I_FORM,"2 RB, 1 TE, 2 WR",5,"2 DL, 4 LB, 5 DB",left,2019-09-09T03:00:26.000Z,2019-09-09T03:00:25.000Z,6-2,205,08/19/1996,San Diego State,DB,NE,PIT,1,Gillette Stadium,"Foxborough, MA",Outdoor,Field Turf,Partly cloudy and mild,66.0,62,2,NW
12836,2019090812,20190908123492,away,29.58,28.67,2.79,1.06,0.27,69.27,149.24,2562243,Devin Bush,55,2019,21,4,07:51:00,NE,2,6,PIT,30,3,2539265,I_FORM,"2 RB, 1 TE, 2 WR",5,"2 DL, 4 LB, 5 DB",left,2019-09-09T03:00:26.000Z,2019-09-09T03:00:25.000Z,5-11,233,07/18/1998,Michigan,LB,NE,PIT,1,Gillette Stadium,"Foxborough, MA",Outdoor,Field Turf,Partly cloudy and mild,66.0,62,2,NW
12837,2019090812,20190908123492,home,29.08,22.46,3.97,1.27,0.4,271.48,287.51,238498,Julian Edelman,11,2019,21,4,07:51:00,NE,2,6,PIT,30,3,2539265,I_FORM,"2 RB, 1 TE, 2 WR",5,"2 DL, 4 LB, 5 DB",left,2019-09-09T03:00:26.000Z,2019-09-09T03:00:25.000Z,5-10,200,05/22/1986,Kent State,WR,NE,PIT,1,Gillette Stadium,"Foxborough, MA",Outdoor,Field Turf,Partly cloudy and mild,66.0,62,2,NW
12838,2019090812,20190908123492,home,37.11,29.73,4.67,0.75,0.46,125.69,94.75,2504211,Tom Brady,12,2019,21,4,07:51:00,NE,2,6,PIT,30,3,2539265,I_FORM,"2 RB, 1 TE, 2 WR",5,"2 DL, 4 LB, 5 DB",left,2019-09-09T03:00:26.000Z,2019-09-09T03:00:25.000Z,6-4,225,08/03/1977,Michigan,QB,NE,PIT,1,Gillette Stadium,"Foxborough, MA",Outdoor,Field Turf,Partly cloudy and mild,66.0,62,2,NW
12839,2019090812,20190908123492,home,32.98,29.49,4.65,0.22,0.47,217.53,215.73,2508101,James Develin,46,2019,21,4,07:51:00,NE,2,6,PIT,30,3,2539265,I_FORM,"2 RB, 1 TE, 2 WR",5,"2 DL, 4 LB, 5 DB",left,2019-09-09T03:00:26.000Z,2019-09-09T03:00:25.000Z,6-3,255,07/23/1988,Brown,FB,NE,PIT,1,Gillette Stadium,"Foxborough, MA",Outdoor,Field Turf,Partly cloudy and mild,66.0,62,2,NW
12840,2019090812,20190908123492,home,36.33,28.98,4.48,1.79,0.44,268.04,264.32,2539265,Rex Burkhead,34,2019,21,4,07:51:00,NE,2,6,PIT,30,3,2539265,I_FORM,"2 RB, 1 TE, 2 WR",5,"2 DL, 4 LB, 5 DB",left,2019-09-09T03:00:26.000Z,2019-09-09T03:00:25.000Z,5-10,215,07/02/1990,Nebraska,RB,NE,PIT,1,Gillette Stadium,"Foxborough, MA",Outdoor,Field Turf,Partly cloudy and mild,66.0,62,2,NW
12841,2019090812,20190908123492,home,28.63,7.58,5.03,1.1,0.5,261.17,245.05,2552424,Phillip Dorsett,13,2019,21,4,07:51:00,NE,2,6,PIT,30,3,2539265,I_FORM,"2 RB, 1 TE, 2 WR",5,"2 DL, 4 LB, 5 DB",left,2019-09-09T03:00:26.000Z,2019-09-09T03:00:25.000Z,5-10,192,01/05/1993,Miami,WR,NE,PIT,1,Gillette Stadium,"Foxborough, MA",Outdoor,Field Turf,Partly cloudy and mild,66.0,62,2,NW
12842,2019090812,20190908123492,home,33.91,27.97,4.02,1.81,0.41,106.37,142.97,2552563,Shaq Mason,69,2019,21,4,07:51:00,NE,2,6,PIT,30,3,2539265,I_FORM,"2 RB, 1 TE, 2 WR",5,"2 DL, 4 LB, 5 DB",left,2019-09-09T03:00:26.000Z,2019-09-09T03:00:25.000Z,6-1,310,08/28/1993,Georgia Tech,G,NE,PIT,1,Gillette Stadium,"Foxborough, MA",Outdoor,Field Turf,Partly cloudy and mild,66.0,62,2,NW
12843,2019090812,20190908123492,home,32.04,31.3,0.51,1.05,0.06,325.93,75.86,2555145,Ted Karras,75,2019,21,4,07:51:00,NE,2,6,PIT,30,3,2539265,I_FORM,"2 RB, 1 TE, 2 WR",5,"2 DL, 4 LB, 5 DB",left,2019-09-09T03:00:26.000Z,2019-09-09T03:00:25.000Z,6-4,305,03/15/1993,Illinois,C,NE,PIT,1,Gillette Stadium,"Foxborough, MA",Outdoor,Field Turf,Partly cloudy and mild,66.0,62,2,NW
12844,2019090812,20190908123492,home,33.33,31.72,2.4,1.73,0.25,330.68,96.81,2555281,Joe Thuney,62,2019,21,4,07:51:00,NE,2,6,PIT,30,3,2539265,I_FORM,"2 RB, 1 TE, 2 WR",5,"2 DL, 4 LB, 5 DB",left,2019-09-09T03:00:26.000Z,2019-09-09T03:00:25.000Z,6-5,308,11/18/1992,North Carolina State,G,NE,PIT,1,Gillette Stadium,"Foxborough, MA",Outdoor,Field Turf,Partly cloudy and mild,66.0,62,2,NW
12845,2019090812,20190908123492,home,31.06,30.33,1.17,2.04,0.12,307.48,335.18,2558257,Jermaine Eluemunor,65,2019,21,4,07:51:00,NE,2,6,PIT,30,3,2539265,I_FORM,"2 RB, 1 TE, 2 WR",5,"2 DL, 4 LB, 5 DB",left,2019-09-09T03:00:26.000Z,2019-09-09T03:00:25.000Z,6-4,335,12/13/1994,Texas A&M,T,NE,PIT,1,Gillette Stadium,"Foxborough, MA",Outdoor,Field Turf,Partly cloudy and mild,66.0,62,2,NW
12846,2019090812,20190908123492,home,29.7,33.26,1.85,2.17,0.19,313.75,247.28,2560751,Ryan Izzo,85,2019,21,4,07:51:00,NE,2,6,PIT,30,3,2539265,I_FORM,"2 RB, 1 TE, 2 WR",5,"2 DL, 4 LB, 5 DB",left,2019-09-09T03:00:26.000Z,2019-09-09T03:00:25.000Z,6-5,255,12/21/1995,Florida State,TE,NE,PIT,1,Gillette Stadium,"Foxborough, MA",Outdoor,Field Turf,Partly cloudy and mild,66.0,62,2,NW
12847,2019090812,20190908123492,home,31.78,29.18,1.15,2.1,0.11,302.94,12.37,2560945,Isaiah Wynn,76,2019,21,4,07:51:00,NE,2,6,PIT,30,3,2539265,I_FORM,"2 RB, 1 TE, 2 WR",5,"2 DL, 4 LB, 5 DB",left,2019-09-09T03:00:26.000Z,2019-09-09T03:00:25.000Z,6-2,310,12/09/1995,Georgia,T,NE,PIT,1,Gillette Stadium,"Foxborough, MA",Outdoor,Field Turf,Partly cloudy and mild,66.0,62,2,NW
