,GameId,PlayId,Team,X,Y,S,A,Dis,Orientation,Dir,NflId,DisplayName,JerseyNumber,Season,YardLine,Quarter,GameClock,PossessionTeam,Down,Distance,FieldPosition,HomeScoreBeforePlay,VisitorScoreBeforePlay,NflIdRusher,OffenseFormation,OffensePersonnel,DefendersInTheBox,DefensePersonnel,PlayDirection,TimeHandoff,TimeSnap,PlayerHeight,PlayerWeight,PlayerBirthDate,PlayerCollegeName,Position,HomeTeamAbbr,VisitorTeamAbbr,Week,Stadium,Location,StadiumType,Turf,GameWeather,Temperature,Humidity,WindSpeed,WindDirection
9460,2019090809,20190908092698,away,85.27,30.8,1.27,0.92,0.13,54.12,3.16,2535718,Damon Harrison,98,2019,24,3,10:44:00,ARZ,1,10,ARZ,3,17,2553435,SHOTGUN,"1 RB, 1 TE, 3 WR",6,"2 DL, 4 LB, 5 DB",left,2019-09-08T22:24:14.000Z,2019-09-08T22:24:13.000Z,6-3,350,11/29/1988,William Penn,DT,ARI,DET,1,State Farm Stadium,"Glendale, AZ",Dome,Grass,,,0,,
9461,2019090809,20190908092698,away,78.49,7.4,1.2,1.41,0.11,37.04,153.13,2540288,Darius Slay,23,2019,24,3,10:44:00,ARZ,1,10,ARZ,3,17,2553435,SHOTGUN,"1 RB, 1 TE, 3 WR",6,"2 DL, 4 LB, 5 DB",left,2019-09-08T22:24:14.000Z,2019-09-08T22:24:13.000Z,6-0,190,01/01/1991,Mississippi State,CB,ARI,DET,1,State Farm Stadium,"Glendale, AZ",Dome,Grass,,,0,,
9462,2019090809,20190908092698,away,83.82,46.3,2.52,3.25,0.24,154.82,264.81,2541200,Rashaan Melvin,29,2019,24,3,10:44:00,ARZ,1,10,ARZ,3,17,2553435,SHOTGUN,"1 RB, 1 TE, 3 WR",6,"2 DL, 4 LB, 5 DB",left,2019-09-08T22:24:14.000Z,2019-09-08T22:24:13.000Z,6-2,196,10/02/1989,Northern Illinois,CB,ARI,DET,1,State Farm Stadium,"Glendale, AZ",Dome,Grass,,,0,,
9463,2019090809,20190908092698,away,86.82,35.05,3.18,0.89,0.31,157.28,114.99,2543869,Devon Kennard,42,2019,24,3,10:44:00,ARZ,1,10,ARZ,3,17,2553435,SHOTGUN,"1 RB, 1 TE, 3 WR",6,"2 DL, 4 LB, 5 DB",left,2019-09-08T22:24:14.000Z,2019-09-08T22:24:13.000Z,6-3,256,06/24/1991,Southern California,OLB,ARI,DET,1,State Farm Stadium,"Glendale, AZ",Dome,Grass,,,0,,
9464,2019090809,20190908092698,away,81.16,30.76,3.56,1.8,0.35,84.76,17.77,2550572,Christian Jones,52,2019,24,3,10:44:00,ARZ,1,10,ARZ,3,17,2553435,SHOTGUN,"1 RB, 1 TE, 3 WR",6,"2 DL, 4 LB, 5 DB",left,2019-09-08T22:24:14.000Z,2019-09-08T22:24:13.000Z,6-3,250,02/18/1991,Florida State,ILB,ARI,DET,1,State Farm Stadium,"Glendale, AZ",Dome,Grass,,,0,,
9465,2019090809,20190908092698,away,71.26,17.29,3.17,1.04,0.32,104.75,145.88,2552262,Quandre Diggs,28,2019,24,3,10:44:00,ARZ,1,10,ARZ,3,17,2553435,SHOTGUN,"1 RB, 1 TE, 3 WR",6,"2 DL, 4 LB, 5 DB",left,2019-09-08T22:24:14.000Z,2019-09-08T22:24:13.000Z,5-9,197,01/22/1993,Texas,CB,ARI,DET,1,State Farm Stadium,"Glendale, AZ",Dome,Grass,,,0,,
9466,2019090809,20190908092698,away,82.9,22.8,3.61,0.41,0.36,62.74,18.39,2553637,Justin Coleman,27,2019,24,3,10:44:00,ARZ,1,10,ARZ,3,17,2553435,SHOTGUN,"1 RB, 1 TE, 3 WR",6,"2 DL, 4 LB, 5 DB",left,2019-09-08T22:24:14.000Z,2019-09-08T22:24:13.000Z,5-11,190,03/27/1993,Tennessee,CB,ARI,DET,1,State Farm Stadium,"Glendale, AZ",Dome,Grass,,,0,,
9467,2019090809,20190908092698,away,85.82,32.22,0.33,1.27,0.04,111.21,61.25,2555265,A'Shawn Robinson,91,2019,24,3,10:44:00,ARZ,1,10,ARZ,3,17,2553435,SHOTGUN,"1 RB, 1 TE, 3 WR",6,"2 DL, 4 LB, 5 DB",left,2019-09-08T22:24:14.000Z,2019-09-08T22:24:13.000Z,6-4,330,03/21/1995,Alabama,DT,ARI,DET,1,State Farm Stadium,"Glendale, AZ",Dome,Grass,,,0,,
9468,2019090809,20190908092698,away,85.9,27.76,0.7,2.13,0.07,43.04,359.62,2556641,Romeo Okwara,95,2019,24,3,10:44:00,ARZ,1,10,ARZ,3,17,2553435,SHOTGUN,"1 RB, 1 TE, 3 WR",6,"2 DL, 4 LB, 5 DB",left,2019-09-08T22:24:14.000Z,2019-09-08T22:24:13.000Z,6-4,263,06/17/1995,Notre Dame,OLB,ARI,DET,1,State Farm Stadium,"Glendale, AZ",Dome,Grass,,,0,,
9469,2019090809,20190908092698,away,78.19,34.77,2.69,2.54,0.26,92.09,68.3,2560913,Tracy Walker,47,2019,24,3,10:44:00,ARZ,1,10,ARZ,3,17,2553435,SHOTGUN,"1 RB, 1 TE, 3 WR",6,"2 DL, 4 LB, 5 DB",left,2019-09-08T22:24:14.000Z,2019-09-08T22:24:13.000Z,6-1,210,02/01/1995,Louisiana-Lafayette,DB,ARI,DET,1,State Farm Stadium,"Glendale, AZ",Dome,Grass,,,0,,
9470,2019090809,20190908092698,away,87.38,25.38,1.86,2.72,0.2,60.26,72.85,2562755,Jahlani Tavai,51,2019,24,3,10:44:00,ARZ,1,10,ARZ,3,17,2553435,SHOTGUN,"1 RB, 1 TE, 3 WR",6,"2 DL, 4 LB, 5 DB",left,2019-09-08T22:24:14.000Z,2019-09-08T22:24:13.000Z,6-2,250,09/28/1996,Hawaii,LB,ARI,DET,1,State Farm Stadium,"Glendale, AZ",Dome,Grass,,,0,,
9471,2019090809,20190908092698,home,86.43,28.79,0.36,1.91,0.04,218.87,294.85,71461,A.Q. Shipley,53,2019,24,3,10:44:00,ARZ,1,10,ARZ,3,17,2553435,SHOTGUN,"1 RB, 1 TE, 3 WR",6,"2 DL, 4 LB, 5 DB",left,2019-09-08T22:24:14.000Z,2019-09-08T22:24:13.000Z,6-1,307,05/22/1986,Penn State,C,ARI,DET,1,State Farm Stadium,"Glendale, AZ",Dome,Grass,,,0,,
9472,2019090809,20190908092698,home,88.61,12.07,4.07,2.72,0.39,273.61,159.67,2506106,Larry Fitzgerald,11,2019,24,3,10:44:00,ARZ,1,10,ARZ,3,17,2553435,SHOTGUN,"1 RB, 1 TE, 3 WR",6,"2 DL, 4 LB, 5 DB",left,2019-09-08T22:24:14.000Z,2019-09-08T22:24:13.000Z,6-3,218,08/31/1983,Pittsburgh,WR,ARI,DET,1,State Farm Stadium,"Glendale, AZ",Dome,Grass,,,0,,
9473,2019090809,20190908092698,home,86.56,31.27,1.35,0.11,0.13,220.34,246.22,2533342,J.R. Sweezy,64,2019,24,3,10:44:00,ARZ,1,10,ARZ,3,17,2553435,SHOTGUN,"1 RB, 1 TE, 3 WR",6,"2 DL, 4 LB, 5 DB",left,2019-09-08T22:24:14.000Z,2019-09-08T22:24:13.000Z,6-5,310,04/08/1989,North Carolina State,G,ARI,DET,1,State Farm Stadium,"Glendale, AZ",Dome,Grass,,,0,,
9474,2019090809,20190908092698,home,87.91,31.22,4.52,1.1,0.45,346.76,11.94,2540195,Justin Pugh,67,2019,24,3,10:44:00,ARZ,1,10,ARZ,3,17,2553435,SHOTGUN,"1 RB, 1 TE, 3 WR",6,"2 DL, 4 LB, 5 DB",left,2019-09-08T22:24:14.000Z,2019-09-08T22:24:13.000Z,6-5,311,08/15/1990,Syracuse,G,ARI,DET,1,State Farm Stadium,"Glendale, AZ",Dome,Grass,,,0,,
9475,2019090809,20190908092698,home,85.06,33.55,2.7,2.07,0.27,253.89,267.74,2552468,Maxx Williams,87,2019,24,3,10:44:00,ARZ,1,10,ARZ,3,17,2553435,SHOTGUN,"1 RB, 1 TE, 3 WR",6,"2 DL, 4 LB, 5 DB",left,2019-09-08T22:24:14.000Z,2019-09-08T22:24:13.000Z,6-4,252,04/12/1994,Minnesota,TE,ARI,DET,1,State Farm Stadium,"Glendale, AZ",Dome,Grass,,,0,,
9476,2019090809,20190908092698,home,88.32,29.56,4.41,2.47,0.43,327.61,10.49,2552626,D.J. Humphries,74,2019,24,3,10:44:00,ARZ,1,10,ARZ,3,17,2553435,SHOTGUN,"1 RB, 1 TE, 3 WR",6,"2 DL, 4 LB, 5 DB",left,2019-09-08T22:24:14.000Z,2019-09-08T22:24:13.000Z,6-5,307,12/28/1993,Florida,OT,ARI,DET,1,State Farm Stadium,"Glendale, AZ",Dome,Grass,,,0,,
9477,2019090809,20190908092698,home,90.68,29.43,4.19,1.95,0.41,312.91,336.83,2553435,David Johnson,31,2019,24,3,10:44:00,ARZ,1,10,ARZ,3,17,2553435,SHOTGUN,"1 RB, 1 TE, 3 WR",6,"2 DL, 4 LB, 5 DB",left,2019-09-08T22:24:14.000Z,2019-09-08T22:24:13.000Z,6-1,224,12/16/1991,Northern Iowa,RB,ARI,DET,1,State Farm Stadium,"Glendale, AZ",Dome,Grass,,,0,,
9478,2019090809,20190908092698,home,85.15,7.7,4.37,3.28,0.42,259.94,264.73,2553499,Damiere Byrd,14,2019,24,3,10:44:00,ARZ,1,10,ARZ,3,17,2553435,SHOTGUN,"1 RB, 1 TE, 3 WR",6,"2 DL, 4 LB, 5 DB",left,2019-09-08T22:24:14.000Z,2019-09-08T22:24:13.000Z,5-9,180,01/27/1993,South Carolina,WR,ARI,DET,1,State Farm Stadium,"Glendale, AZ",Dome,Grass,,,0,,
9479,2019090809,20190908092698,home,86.49,32.17,0.76,0.26,0.08,243.92,186.87,2556628,Justin Murray,71,2019,24,3,10:44:00,ARZ,1,10,ARZ,3,17,2553435,SHOTGUN,"1 RB, 1 TE, 3 WR",6,"2 DL, 4 LB, 5 DB",left,2019-09-08T22:24:14.000Z,2019-09-08T22:24:13.000Z,6-5,315,04/19/1993,Cincinnati,OT,ARI,DET,1,State Farm Stadium,"Glendale, AZ",Dome,Grass,,,0,,
9480,2019090809,20190908092698,home,85.33,46.14,3.48,3.96,0.33,281.89,280.96,2560781,Christian Kirk,13,2019,24,3,10:44:00,ARZ,1,10,ARZ,3,17,2553435,SHOTGUN,"1 RB, 1 TE, 3 WR",6,"2 DL, 4 LB, 5 DB",left,2019-09-08T22:24:14.000Z,2019-09-08T22:24:13.000Z,5-11,200,11/18/1996,Texas A&M,WR,ARI,DET,1,State Farm Stadium,"Glendale, AZ",Dome,Grass,,,0,,
9481,2019090809,20190908092698,home,91.3,29.58,1.64,2.97,0.16,223.47,146.49,2562382,Kyler Murray,1,2019,24,3,10:44:00,ARZ,1,10,ARZ,3,17,2553435,SHOTGUN,"1 RB, 1 TE, 3 WR",6,"2 DL, 4 LB, 5 DB",left,2019-09-08T22:24:14.000Z,2019-09-08T22:24:13.000Z,5-10,207,08/07/1997,Oklahoma,QB,ARI,DET,1,State Farm Stadium,"Glendale, AZ",Dome,Grass,,,0,,
