,GameId,PlayId,Team,X,Y,S,A,Dis,Orientation,Dir,NflId,DisplayName,JerseyNumber,Season,YardLine,Quarter,GameClock,PossessionTeam,Down,Distance,FieldPosition,HomeScoreBeforePlay,VisitorScoreBeforePlay,NflIdRusher,OffenseFormation,OffensePersonnel,DefendersInTheBox,DefensePersonnel,PlayDirection,TimeHandoff,TimeSnap,PlayerHeight,PlayerWeight,PlayerBirthDate,PlayerCollegeName,Position,HomeTeamAbbr,VisitorTeamAbbr,Week,Stadium,Location,StadiumType,Turf,GameWeather,Temperature,Humidity,WindSpeed,WindDirection
57310,2019092910,20190929103196,away,104.94,28.99,3.68,0.95,0.39,41.0,3.09,496790,Everson Griffen,97,2019,5,4,14:53:00,CHI,1,10,CHI,16,0,2562502,I_FORM,"1 RB, 2 TE, 2 WR",7,"4 DL, 3 LB, 4 DB",left,2019-09-29T22:45:15.000Z,2019-09-29T22:45:13.000Z,6-3,273,12/22/1987,Southern California,DE,CHI,MIN,4,Soldier Field,"Chicago, IL",Outdoor,Natural Grass,Cloudy,67.0,89,8,East
57311,2019092910,20190929103196,away,92.15,36.18,1.41,3.2,0.14,58.27,17.5,2532948,Harrison Smith,22,2019,5,4,14:53:00,CHI,1,10,CHI,16,0,2562502,I_FORM,"1 RB, 2 TE, 2 WR",7,"4 DL, 3 LB, 4 DB",left,2019-09-29T22:45:15.000Z,2019-09-29T22:45:13.000Z,6-2,214,02/02/1989,Notre Dame,FS,CHI,MIN,4,Soldier Field,"Chicago, IL",Outdoor,Natural Grass,Cloudy,67.0,89,8,East
57312,2019092910,20190929103196,away,100.63,9.95,1.38,1.64,0.13,103.73,255.7,2540155,Xavier Rhodes,29,2019,5,4,14:53:00,CHI,1,10,CHI,16,0,2562502,I_FORM,"1 RB, 2 TE, 2 WR",7,"4 DL, 3 LB, 4 DB",left,2019-09-29T22:45:15.000Z,2019-09-29T22:45:13.000Z,6-1,218,06/19/1990,Florida State,CB,CHI,MIN,4,Soldier Field,"Chicago, IL",Outdoor,Natural Grass,Cloudy,67.0,89,8,East
57313,2019092910,20190929103196,away,104.57,34.48,3.41,3.99,0.34,50.5,27.18,2543459,Anthony Barr,55,2019,5,4,14:53:00,CHI,1,10,CHI,16,0,2562502,I_FORM,"1 RB, 2 TE, 2 WR",7,"4 DL, 3 LB, 4 DB",left,2019-09-29T22:45:15.000Z,2019-09-29T22:45:13.000Z,6-5,255,03/18/1992,UCLA,OLB,CHI,MIN,4,Soldier Field,"Chicago, IL",Outdoor,Natural Grass,Cloudy,67.0,89,8,East
57314,2019092910,20190929103196,away,102.07,32.29,3.79,0.52,0.37,94.01,14.48,2552312,Eric Kendricks,54,2019,5,4,14:53:00,CHI,1,10,CHI,16,0,2562502,I_FORM,"1 RB, 2 TE, 2 WR",7,"4 DL, 3 LB, 4 DB",left,2019-09-29T22:45:15.000Z,2019-09-29T22:45:13.000Z,6-0,232,02/29/1992,UCLA,MLB,CHI,MIN,4,Soldier Field,"Chicago, IL",Outdoor,Natural Grass,Cloudy,67.0,89,8,East
57315,2019092910,20190929103196,away,103.04,43.81,1.08,2.19,0.1,102.5,297.4,2552448,Trae Waynes,26,2019,5,4,14:53:00,CHI,1,10,CHI,16,0,2562502,I_FORM,"1 RB, 2 TE, 2 WR",7,"4 DL, 3 LB, 4 DB",left,2019-09-29T22:45:15.000Z,2019-09-29T22:45:13.000Z,6-0,190,07/25/1992,Michigan State,CB,CHI,MIN,4,Soldier Field,"Chicago, IL",Outdoor,Natural Grass,Cloudy,67.0,89,8,East
57316,2019092910,20190929103196,away,105.37,35.73,1.65,1.77,0.17,128.81,9.01,2552603,Danielle Hunter,99,2019,5,4,14:53:00,CHI,1,10,CHI,16,0,2562502,I_FORM,"1 RB, 2 TE, 2 WR",7,"4 DL, 3 LB, 4 DB",left,2019-09-29T22:45:15.000Z,2019-09-29T22:45:13.000Z,6-5,252,10/29/1994,Louisiana State,DE,CHI,MIN,4,Soldier Field,"Chicago, IL",Outdoor,Natural Grass,Cloudy,67.0,89,8,East
57317,2019092910,20190929103196,away,90.52,18.58,1.88,1.22,0.19,45.13,246.59,2553655,Anthony Harris,41,2019,5,4,14:53:00,CHI,1,10,CHI,16,0,2562502,I_FORM,"1 RB, 2 TE, 2 WR",7,"4 DL, 3 LB, 4 DB",left,2019-09-29T22:45:15.000Z,2019-09-29T22:45:13.000Z,6-1,202,10/09/1991,Virginia,FS,CHI,MIN,4,Soldier Field,"Chicago, IL",Outdoor,Natural Grass,Cloudy,67.0,89,8,East
57318,2019092910,20190929103196,away,105.38,32.77,2.75,0.94,0.28,94.82,21.03,2557845,Jaleel Johnson,94,2019,5,4,14:53:00,CHI,1,10,CHI,16,0,2562502,I_FORM,"1 RB, 2 TE, 2 WR",7,"4 DL, 3 LB, 4 DB",left,2019-09-29T22:45:15.000Z,2019-09-29T22:45:13.000Z,6-3,316,07/12/1994,Iowa,DT,CHI,MIN,4,Soldier Field,"Chicago, IL",Outdoor,Natural Grass,Cloudy,67.0,89,8,East
57319,2019092910,20190929103196,away,101.59,29.91,4.19,1.17,0.42,50.35,5.34,2558033,Ben Gedeon,42,2019,5,4,14:53:00,CHI,1,10,CHI,16,0,2562502,I_FORM,"1 RB, 2 TE, 2 WR",7,"4 DL, 3 LB, 4 DB",left,2019-09-29T22:45:15.000Z,2019-09-29T22:45:13.000Z,6-2,244,10/16/1994,Michigan,OLB,CHI,MIN,4,Soldier Field,"Chicago, IL",Outdoor,Natural Grass,Cloudy,67.0,89,8,East
57320,2019092910,20190929103196,away,103.31,30.59,2.86,0.21,0.29,44.7,337.7,2560744,Jalyn Holmes,92,2019,5,4,14:53:00,CHI,1,10,CHI,16,0,2562502,I_FORM,"1 RB, 2 TE, 2 WR",7,"4 DL, 3 LB, 4 DB",left,2019-09-29T22:45:15.000Z,2019-09-29T22:45:13.000Z,6-5,283,01/25/1996,Ohio State,DT,CHI,MIN,4,Soldier Field,"Chicago, IL",Outdoor,Natural Grass,Cloudy,67.0,89,8,East
57321,2019092910,20190929103196,home,109.02,31.3,4.71,0.71,0.46,33.35,58.39,81284,Chase Daniel,4,2019,5,4,14:53:00,CHI,1,10,CHI,16,0,2562502,I_FORM,"1 RB, 2 TE, 2 WR",7,"4 DL, 3 LB, 4 DB",left,2019-09-29T22:45:15.000Z,2019-09-29T22:45:13.000Z,6-0,229,10/07/1986,Missouri,QB,CHI,MIN,4,Soldier Field,"Chicago, IL",Outdoor,Natural Grass,Cloudy,67.0,89,8,East
57322,2019092910,20190929103196,home,105.83,35.23,2.44,0.67,0.25,318.03,350.46,2533543,Bobby Massie,70,2019,5,4,14:53:00,CHI,1,10,CHI,16,0,2562502,I_FORM,"1 RB, 2 TE, 2 WR",7,"4 DL, 3 LB, 4 DB",left,2019-09-29T22:45:15.000Z,2019-09-29T22:45:13.000Z,6-6,325,08/01/1989,Mississippi,T,CHI,MIN,4,Soldier Field,"Chicago, IL",Outdoor,Natural Grass,Cloudy,67.0,89,8,East
57323,2019092910,20190929103196,home,104.19,43.65,2.12,0.51,0.21,89.16,283.59,2543509,Allen Robinson,12,2019,5,4,14:53:00,CHI,1,10,CHI,16,0,2562502,I_FORM,"1 RB, 2 TE, 2 WR",7,"4 DL, 3 LB, 4 DB",left,2019-09-29T22:45:15.000Z,2019-09-29T22:45:13.000Z,6-2,220,08/24/1993,Penn State,WR,CHI,MIN,4,Soldier Field,"Chicago, IL",Outdoor,Natural Grass,Cloudy,67.0,89,8,East
57324,2019092910,20190929103196,home,104.57,30.53,3.89,1.48,0.4,147.13,332.83,2550169,Charles Leno Jr.,72,2019,5,4,14:53:00,CHI,1,10,CHI,16,0,2562502,I_FORM,"1 RB, 2 TE, 2 WR",7,"4 DL, 3 LB, 4 DB",left,2019-09-29T22:45:15.000Z,2019-09-29T22:45:13.000Z,6-3,305,10/09/1991,Boise State,T,CHI,MIN,4,Soldier Field,"Chicago, IL",Outdoor,Natural Grass,Cloudy,67.0,89,8,East
57325,2019092910,20190929103196,home,103.9,31.05,3.65,0.42,0.37,190.9,329.54,2555132,Cody Whitehair,65,2019,5,4,14:53:00,CHI,1,10,CHI,16,0,2562502,I_FORM,"1 RB, 2 TE, 2 WR",7,"4 DL, 3 LB, 4 DB",left,2019-09-29T22:45:15.000Z,2019-09-29T22:45:13.000Z,6-3,309,07/11/1992,Kansas State,OG,CHI,MIN,4,Soldier Field,"Chicago, IL",Outdoor,Natural Grass,Cloudy,67.0,89,8,East
57326,2019092910,20190929103196,home,107.18,33.93,4.94,2.72,0.49,290.36,332.97,2556852,J.P. Holtz,81,2019,5,4,14:53:00,CHI,1,10,CHI,16,0,2562502,I_FORM,"1 RB, 2 TE, 2 WR",7,"4 DL, 3 LB, 4 DB",left,2019-09-29T22:45:15.000Z,2019-09-29T22:45:13.000Z,6-3,240,08/28/1993,Pittsburgh,TE,CHI,MIN,4,Soldier Field,"Chicago, IL",Outdoor,Natural Grass,Cloudy,67.0,89,8,East
57327,2019092910,20190929103196,home,105.77,29.1,4.32,1.18,0.43,296.43,0.67,2558144,Adam Shaheen,87,2019,5,4,14:53:00,CHI,1,10,CHI,16,0,2562502,I_FORM,"1 RB, 2 TE, 2 WR",7,"4 DL, 3 LB, 4 DB",left,2019-09-29T22:45:15.000Z,2019-09-29T22:45:13.000Z,6-6,257,10/24/1994,Ashland,TE,CHI,MIN,4,Soldier Field,"Chicago, IL",Outdoor,Natural Grass,Cloudy,67.0,89,8,East
57328,2019092910,20190929103196,home,105.52,33.81,3.56,1.3,0.35,297.77,355.02,2559157,Rashaad Coward,69,2019,5,4,14:53:00,CHI,1,10,CHI,16,0,2562502,I_FORM,"1 RB, 2 TE, 2 WR",7,"4 DL, 3 LB, 4 DB",left,2019-09-29T22:45:15.000Z,2019-09-29T22:45:13.000Z,6-5,326,11/06/1994,Old Dominion,OT,CHI,MIN,4,Soldier Field,"Chicago, IL",Outdoor,Natural Grass,Cloudy,67.0,89,8,East
57329,2019092910,20190929103196,home,103.48,9.89,4.76,1.77,0.48,279.42,271.62,2560939,Javon Wims,83,2019,5,4,14:53:00,CHI,1,10,CHI,16,0,2562502,I_FORM,"1 RB, 2 TE, 2 WR",7,"4 DL, 3 LB, 4 DB",left,2019-09-29T22:45:15.000Z,2019-09-29T22:45:13.000Z,6-2,221,09/11/1994,Georgia,WR,CHI,MIN,4,Soldier Field,"Chicago, IL",Outdoor,Natural Grass,Cloudy,67.0,89,8,East
57330,2019092910,20190929103196,home,106.34,32.48,3.36,0.29,0.35,290.66,15.18,2561035,James Daniels,68,2019,5,4,14:53:00,CHI,1,10,CHI,16,0,2562502,I_FORM,"1 RB, 2 TE, 2 WR",7,"4 DL, 3 LB, 4 DB",left,2019-09-29T22:45:15.000Z,2019-09-29T22:45:13.000Z,6-3,305,09/13/1997,Iowa,C,CHI,MIN,4,Soldier Field,"Chicago, IL",Outdoor,Natural Grass,Cloudy,67.0,89,8,East
57331,2019092910,20190929103196,home,109.77,32.13,4.9,1.72,0.48,291.51,308.6,2562502,David Montgomery,32,2019,5,4,14:53:00,CHI,1,10,CHI,16,0,2562502,I_FORM,"1 RB, 2 TE, 2 WR",7,"4 DL, 3 LB, 4 DB",left,2019-09-29T22:45:15.000Z,2019-09-29T22:45:13.000Z,5-10,222,06/07/1997,Iowa State,RB,CHI,MIN,4,Soldier Field,"Chicago, IL",Outdoor,Natural Grass,Cloudy,67.0,89,8,East
