,GameId,PlayId,Team,X,Y,S,A,Dis,Orientation,Dir,NflId,DisplayName,JerseyNumber,Season,YardLine,Quarter,GameClock,PossessionTeam,Down,Distance,FieldPosition,HomeScoreBeforePlay,VisitorScoreBeforePlay,NflIdRusher,OffenseFormation,OffensePersonnel,DefendersInTheBox,DefensePersonnel,PlayDirection,TimeHandoff,TimeSnap,PlayerHeight,PlayerWeight,PlayerBirthDate,PlayerCollegeName,Position,HomeTeamAbbr,VisitorTeamAbbr,Week,Stadium,Location,StadiumType,Turf,GameWeather,Temperature,Humidity,WindSpeed,WindDirection
61754,2019100600,20191006001084,away,71.9,13.51,4.94,2.35,0.48,260.86,293.35,2543475,Marqise Lee,11,2019,37,1,01:17:00,JAX,1,10,JAX,14,7,2557973,I_FORM,"6 OL, 1 RB, 2 TE, 1 WR",9,"4 DL, 3 LB, 4 DB",left,2019-10-06T17:45:15.000Z,2019-10-06T17:45:14.000Z,6-0,196,11/25/1991,Southern California,WR,CAR,JAX,5,Bank of America Stadium,"Charlotte, NC",Outdoors,Natural Grass,Cloudy,72.0,59,4,ESE
61755,2019100600,20191006001084,away,73.0,29.71,0.92,0.58,0.11,318.69,228.35,2543729,Brandon Linder,65,2019,37,1,01:17:00,JAX,1,10,JAX,14,7,2557973,I_FORM,"6 OL, 1 RB, 2 TE, 1 WR",9,"4 DL, 3 LB, 4 DB",left,2019-10-06T17:45:15.000Z,2019-10-06T17:45:14.000Z,6-6,315,01/25/1992,Miami,C,CAR,JAX,5,Bank of America Stadium,"Charlotte, NC",Outdoors,Natural Grass,Cloudy,72.0,59,4,ESE
61756,2019100600,20191006001084,away,72.88,28.2,1.41,0.24,0.16,292.26,267.17,2550589,Andrew Norwell,68,2019,37,1,01:17:00,JAX,1,10,JAX,14,7,2557973,I_FORM,"6 OL, 1 RB, 2 TE, 1 WR",9,"4 DL, 3 LB, 4 DB",left,2019-10-06T17:45:15.000Z,2019-10-06T17:45:14.000Z,6-6,325,10/25/1991,Ohio State,G,CAR,JAX,5,Bank of America Stadium,"Charlotte, NC",Outdoors,Natural Grass,Cloudy,72.0,59,4,ESE
61757,2019100600,20191006001084,away,74.0,33.28,0.62,2.27,0.05,280.49,107.25,2552355,Cedric Ogbuehi,77,2019,37,1,01:17:00,JAX,1,10,JAX,14,7,2557973,I_FORM,"6 OL, 1 RB, 2 TE, 1 WR",9,"4 DL, 3 LB, 4 DB",left,2019-10-06T17:45:15.000Z,2019-10-06T17:45:14.000Z,6-5,310,04/25/1992,Texas A&M,OT,CAR,JAX,5,Bank of America Stadium,"Charlotte, NC",Outdoors,Natural Grass,Cloudy,72.0,59,4,ESE
61758,2019100600,20191006001084,away,72.0,27.34,2.99,2.22,0.26,329.98,298.52,2553318,James O'Shaughnessy,80,2019,37,1,01:17:00,JAX,1,10,JAX,14,7,2557973,I_FORM,"6 OL, 1 RB, 2 TE, 1 WR",9,"4 DL, 3 LB, 4 DB",left,2019-10-06T17:45:15.000Z,2019-10-06T17:45:14.000Z,6-4,245,01/14/1992,Illinois State,TE,CAR,JAX,5,Bank of America Stadium,"Charlotte, NC",Outdoors,Natural Grass,Cloudy,72.0,59,4,ESE
61759,2019100600,20191006001084,away,75.12,29.95,5.01,1.75,0.5,206.84,192.42,2556365,Seth DeValve,88,2019,37,1,01:17:00,JAX,1,10,JAX,14,7,2557973,I_FORM,"6 OL, 1 RB, 2 TE, 1 WR",9,"4 DL, 3 LB, 4 DB",left,2019-10-06T17:45:15.000Z,2019-10-06T17:45:14.000Z,6-3,245,01/29/1993,Princeton,TE,CAR,JAX,5,Bank of America Stadium,"Charlotte, NC",Outdoors,Natural Grass,Cloudy,72.0,59,4,ESE
61760,2019100600,20191006001084,away,78.98,30.12,3.79,4.78,0.36,257.78,243.47,2557973,Leonard Fournette,27,2019,37,1,01:17:00,JAX,1,10,JAX,14,7,2557973,I_FORM,"6 OL, 1 RB, 2 TE, 1 WR",9,"4 DL, 3 LB, 4 DB",left,2019-10-06T17:45:15.000Z,2019-10-06T17:45:14.000Z,6-0,228,01/18/1995,Louisiana State,RB,CAR,JAX,5,Bank of America Stadium,"Charlotte, NC",Outdoors,Natural Grass,Cloudy,72.0,59,4,ESE
61761,2019100600,20191006001084,away,73.51,27.52,0.93,0.74,0.1,291.18,296.46,2558004,Cam Robinson,74,2019,37,1,01:17:00,JAX,1,10,JAX,14,7,2557973,I_FORM,"6 OL, 1 RB, 2 TE, 1 WR",9,"4 DL, 3 LB, 4 DB",left,2019-10-06T17:45:15.000Z,2019-10-06T17:45:14.000Z,6-6,320,10/09/1995,Alabama,T,CAR,JAX,5,Bank of America Stadium,"Charlotte, NC",Outdoors,Natural Grass,Cloudy,72.0,59,4,ESE
61762,2019100600,20191006001084,away,74.92,28.32,3.56,0.88,0.36,211.03,157.97,2560853,Will Richardson,76,2019,37,1,01:17:00,JAX,1,10,JAX,14,7,2557973,I_FORM,"6 OL, 1 RB, 2 TE, 1 WR",9,"4 DL, 3 LB, 4 DB",left,2019-10-06T17:45:15.000Z,2019-10-06T17:45:14.000Z,6-6,303,01/04/1996,North Carolina State,T,CAR,JAX,5,Bank of America Stadium,"Charlotte, NC",Outdoors,Natural Grass,Cloudy,72.0,59,4,ESE
61763,2019100600,20191006001084,away,74.13,31.76,1.04,1.01,0.12,13.28,124.79,2562756,Jawaan Taylor,75,2019,37,1,01:17:00,JAX,1,10,JAX,14,7,2557973,I_FORM,"6 OL, 1 RB, 2 TE, 1 WR",9,"4 DL, 3 LB, 4 DB",left,2019-10-06T17:45:15.000Z,2019-10-06T17:45:14.000Z,6-5,312,11/25/1997,Florida,T,CAR,JAX,5,Bank of America Stadium,"Charlotte, NC",Outdoors,Natural Grass,Cloudy,72.0,59,4,ESE
61764,2019100600,20191006001084,away,77.62,30.74,4.27,0.87,0.42,98.09,71.35,2562796,Gardner Minshew,15,2019,37,1,01:17:00,JAX,1,10,JAX,14,7,2557973,I_FORM,"6 OL, 1 RB, 2 TE, 1 WR",9,"4 DL, 3 LB, 4 DB",left,2019-10-06T17:45:15.000Z,2019-10-06T17:45:14.000Z,6-1,225,05/16/1996,Washington State,QB,CAR,JAX,5,Bank of America Stadium,"Charlotte, NC",Outdoors,Natural Grass,Cloudy,72.0,59,4,ESE
61765,2019100600,20191006001084,home,72.7,27.63,0.62,1.15,0.06,315.67,317.8,2507837,Kyle Love,77,2019,37,1,01:17:00,JAX,1,10,JAX,14,7,2557973,I_FORM,"6 OL, 1 RB, 2 TE, 1 WR",9,"4 DL, 3 LB, 4 DB",left,2019-10-06T17:45:15.000Z,2019-10-06T17:45:14.000Z,6-1,310,11/18/1986,Mississippi State,NT,CAR,JAX,5,Bank of America Stadium,"Charlotte, NC",Outdoors,Natural Grass,Cloudy,72.0,59,4,ESE
61766,2019100600,20191006001084,home,72.19,30.09,0.69,0.32,0.07,149.22,195.02,2533435,Dontari Poe,95,2019,37,1,01:17:00,JAX,1,10,JAX,14,7,2557973,I_FORM,"6 OL, 1 RB, 2 TE, 1 WR",9,"4 DL, 3 LB, 4 DB",left,2019-10-06T17:45:15.000Z,2019-10-06T17:45:14.000Z,6-3,346,08/18/1990,Memphis,NT,CAR,JAX,5,Bank of America Stadium,"Charlotte, NC",Outdoors,Natural Grass,Cloudy,72.0,59,4,ESE
61767,2019100600,20191006001084,home,71.21,33.09,3.88,2.69,0.37,92.43,141.58,2540152,Eric Reid,25,2019,37,1,01:17:00,JAX,1,10,JAX,14,7,2557973,I_FORM,"6 OL, 1 RB, 2 TE, 1 WR",9,"4 DL, 3 LB, 4 DB",left,2019-10-06T17:45:15.000Z,2019-10-06T17:45:14.000Z,6-1,213,12/10/1991,Louisiana State,SS,CAR,JAX,5,Bank of America Stadium,"Charlotte, NC",Outdoors,Natural Grass,Cloudy,72.0,59,4,ESE
61768,2019100600,20191006001084,home,56.59,22.76,0.61,1.1,0.06,63.05,136.92,2543799,Ross Cockrell,47,2019,37,1,01:17:00,JAX,1,10,JAX,14,7,2557973,I_FORM,"6 OL, 1 RB, 2 TE, 1 WR",9,"4 DL, 3 LB, 4 DB",left,2019-10-06T17:45:15.000Z,2019-10-06T17:45:14.000Z,6-0,191,08/06/1991,Duke,CB,CAR,JAX,5,Bank of America Stadium,"Charlotte, NC",Outdoors,Natural Grass,Cloudy,72.0,59,4,ESE
61769,2019100600,20191006001084,home,71.71,25.82,1.76,2.26,0.18,86.25,109.38,2543830,Tre Boston,33,2019,37,1,01:17:00,JAX,1,10,JAX,14,7,2557973,I_FORM,"6 OL, 1 RB, 2 TE, 1 WR",9,"4 DL, 3 LB, 4 DB",left,2019-10-06T17:45:15.000Z,2019-10-06T17:45:14.000Z,6-1,205,06/25/1992,North Carolina,FS,CAR,JAX,5,Bank of America Stadium,"Charlotte, NC",Outdoors,Natural Grass,Cloudy,72.0,59,4,ESE
61770,2019100600,20191006001084,home,70.72,28.4,1.09,2.27,0.1,97.63,176.85,2552447,Shaq Thompson,54,2019,37,1,01:17:00,JAX,1,10,JAX,14,7,2557973,I_FORM,"6 OL, 1 RB, 2 TE, 1 WR",9,"4 DL, 3 LB, 4 DB",left,2019-10-06T17:45:15.000Z,2019-10-06T17:45:14.000Z,6-0,230,04/21/1994,Washington,OLB,CAR,JAX,5,Bank of America Stadium,"Charlotte, NC",Outdoors,Natural Grass,Cloudy,72.0,59,4,ESE
61771,2019100600,20191006001084,home,67.44,13.06,3.71,2.16,0.37,345.21,297.25,2555175,James Bradberry,24,2019,37,1,01:17:00,JAX,1,10,JAX,14,7,2557973,I_FORM,"6 OL, 1 RB, 2 TE, 1 WR",9,"4 DL, 3 LB, 4 DB",left,2019-10-06T17:45:15.000Z,2019-10-06T17:45:14.000Z,6-1,212,08/04/1993,Samford,CB,CAR,JAX,5,Bank of America Stadium,"Charlotte, NC",Outdoors,Natural Grass,Cloudy,72.0,59,4,ESE
61772,2019100600,20191006001084,home,74.37,32.61,2.26,1.46,0.23,152.34,99.52,2555243,Vernon Butler,92,2019,37,1,01:17:00,JAX,1,10,JAX,14,7,2557973,I_FORM,"6 OL, 1 RB, 2 TE, 1 WR",9,"4 DL, 3 LB, 4 DB",left,2019-10-06T17:45:15.000Z,2019-10-06T17:45:14.000Z,6-4,330,06/14/1994,Louisiana Tech,DT,CAR,JAX,5,Bank of America Stadium,"Charlotte, NC",Outdoors,Natural Grass,Cloudy,72.0,59,4,ESE
61773,2019100600,20191006001084,home,70.91,30.42,2.37,2.49,0.24,132.16,171.04,2561093,Jermaine Carter,56,2019,37,1,01:17:00,JAX,1,10,JAX,14,7,2557973,I_FORM,"6 OL, 1 RB, 2 TE, 1 WR",9,"4 DL, 3 LB, 4 DB",left,2019-10-06T17:45:15.000Z,2019-10-06T17:45:14.000Z,6-1,225,01/14/1995,Maryland,LB,CAR,JAX,5,Bank of America Stadium,"Charlotte, NC",Outdoors,Natural Grass,Cloudy,72.0,59,4,ESE
61774,2019100600,20191006001084,home,74.66,25.72,3.48,1.2,0.35,33.99,48.84,2562242,Brian Burns,53,2019,37,1,01:17:00,JAX,1,10,JAX,14,7,2557973,I_FORM,"6 OL, 1 RB, 2 TE, 1 WR",9,"4 DL, 3 LB, 4 DB",left,2019-10-06T17:45:15.000Z,2019-10-06T17:45:14.000Z,6-5,250,04/23/1998,Florida State,DL,CAR,JAX,5,Bank of America Stadium,"Charlotte, NC",Outdoors,Natural Grass,Cloudy,72.0,59,4,ESE
61775,2019100600,20191006001084,home,72.25,35.35,0.69,0.39,0.07,110.29,151.25,2562313,Christian Miller,50,2019,37,1,01:17:00,JAX,1,10,JAX,14,7,2557973,I_FORM,"6 OL, 1 RB, 2 TE, 1 WR",9,"4 DL, 3 LB, 4 DB",left,2019-10-06T17:45:15.000Z,2019-10-06T17:45:14.000Z,6-3,244,06/19/1996,Alabama,LB,CAR,JAX,5,Bank of America Stadium,"Charlotte, NC",Outdoors,Natural Grass,Cloudy,72.0,59,4,ESE
