,GameId,PlayId,Team,X,Y,S,A,Dis,Orientation,Dir,NflId,DisplayName,JerseyNumber,Season,YardLine,Quarter,GameClock,PossessionTeam,Down,Distance,FieldPosition,HomeScoreBeforePlay,VisitorScoreBeforePlay,NflIdRusher,OffenseFormation,OffensePersonnel,DefendersInTheBox,DefensePersonnel,PlayDirection,TimeHandoff,TimeSnap,PlayerHeight,PlayerWeight,PlayerBirthDate,PlayerCollegeName,Position,HomeTeamAbbr,VisitorTeamAbbr,Week,Stadium,Location,StadiumType,Turf,GameWeather,Temperature,Humidity,WindSpeed,WindDirection
7788,2019090807,20190908072587,away,95.36,31.97,1.27,0.27,0.14,127.72,162.17,2495137,Anthony Castonzo,74,2019,14,4,15:00:00,IND,1,10,LAC,24,16,2558123,I_FORM,"1 RB, 3 TE, 1 WR",8,"4 DL, 3 LB, 4 DB",right,2019-09-08T22:13:37.000Z,2019-09-08T22:13:36.000Z,6-7,307,08/09/1988,Boston College,T,LAC,IND,1,Dignity Health Sports Park,"Carson, CA",,Grass,Sunny,77.0,52,10,SW
7789,2019090807,20190908072587,away,93.56,31.36,4.22,2.58,0.41,119.42,149.08,2540232,Jack Doyle,84,2019,14,4,15:00:00,IND,1,10,LAC,24,16,2558123,I_FORM,"1 RB, 3 TE, 1 WR",8,"4 DL, 3 LB, 4 DB",right,2019-09-08T22:13:37.000Z,2019-09-08T22:13:36.000Z,6-6,262,05/05/1990,Western Kentucky,TE,LAC,IND,1,Dignity Health Sports Park,"Carson, CA",,Grass,Sunny,77.0,52,10,SW
7790,2019090807,20190908072587,away,96.82,24.13,4.27,2.44,0.42,114.04,116.13,2543466,Eric Ebron,85,2019,14,4,15:00:00,IND,1,10,LAC,24,16,2558123,I_FORM,"1 RB, 3 TE, 1 WR",8,"4 DL, 3 LB, 4 DB",right,2019-09-08T22:13:37.000Z,2019-09-08T22:13:36.000Z,6-4,253,04/10/1993,North Carolina,TE,LAC,IND,1,Dignity Health Sports Park,"Carson, CA",,Grass,Sunny,77.0,52,10,SW
7791,2019090807,20190908072587,away,96.41,29.08,1.59,0.51,0.17,77.51,56.16,2552467,Mark Glowinski,64,2019,14,4,15:00:00,IND,1,10,LAC,24,16,2558123,I_FORM,"1 RB, 3 TE, 1 WR",8,"4 DL, 3 LB, 4 DB",right,2019-09-08T22:13:37.000Z,2019-09-08T22:13:36.000Z,6-4,310,05/03/1992,West Virginia,G,LAC,IND,1,Dignity Health Sports Park,"Carson, CA",,Grass,Sunny,77.0,52,10,SW
7792,2019090807,20190908072587,away,94.39,31.43,2.02,0.81,0.21,34.86,298.26,2555191,Ryan Kelly,78,2019,14,4,15:00:00,IND,1,10,LAC,24,16,2558123,I_FORM,"1 RB, 3 TE, 1 WR",8,"4 DL, 3 LB, 4 DB",right,2019-09-08T22:13:37.000Z,2019-09-08T22:13:36.000Z,6-4,309,05/30/1993,Alabama,C,LAC,IND,1,Dignity Health Sports Park,"Carson, CA",,Grass,Sunny,77.0,52,10,SW
7793,2019090807,20190908072587,away,91.76,30.72,4.09,1.37,0.41,256.69,283.03,2555261,Jacoby Brissett,7,2019,14,4,15:00:00,IND,1,10,LAC,24,16,2558123,I_FORM,"1 RB, 3 TE, 1 WR",8,"4 DL, 3 LB, 4 DB",right,2019-09-08T22:13:37.000Z,2019-09-08T22:13:36.000Z,6-4,235,12/11/1992,North Carolina State,QB,LAC,IND,1,Dignity Health Sports Park,"Carson, CA",,Grass,Sunny,77.0,52,10,SW
7794,2019090807,20190908072587,away,90.17,30.52,3.4,3.52,0.32,104.13,98.57,2558123,Marlon Mack,25,2019,14,4,15:00:00,IND,1,10,LAC,24,16,2558123,I_FORM,"1 RB, 3 TE, 1 WR",8,"4 DL, 3 LB, 4 DB",right,2019-09-08T22:13:37.000Z,2019-09-08T22:13:36.000Z,6-0,210,03/07/1996,South Florida,RB,LAC,IND,1,Dignity Health Sports Park,"Carson, CA",,Grass,Sunny,77.0,52,10,SW
7795,2019090807,20190908072587,away,94.86,33.76,2.35,2.68,0.21,75.29,161.52,2558832,Mo Alie-Cox,81,2019,14,4,15:00:00,IND,1,10,LAC,24,16,2558123,I_FORM,"1 RB, 3 TE, 1 WR",8,"4 DL, 3 LB, 4 DB",right,2019-09-08T22:13:37.000Z,2019-09-08T22:13:36.000Z,6-5,267,09/19/1993,Virginia Commonwealth,TE,LAC,IND,1,Dignity Health Sports Park,"Carson, CA",,Grass,Sunny,77.0,52,10,SW
7796,2019090807,20190908072587,away,94.72,29.24,3.08,2.05,0.31,161.26,171.41,2560820,Quenton Nelson,56,2019,14,4,15:00:00,IND,1,10,LAC,24,16,2558123,I_FORM,"1 RB, 3 TE, 1 WR",8,"4 DL, 3 LB, 4 DB",right,2019-09-08T22:13:37.000Z,2019-09-08T22:13:36.000Z,6-5,330,03/19/1996,Notre Dame,G,LAC,IND,1,Dignity Health Sports Park,"Carson, CA",,Grass,Sunny,77.0,52,10,SW
7797,2019090807,20190908072587,away,96.73,28.21,2.23,1.09,0.23,339.47,60.68,2560876,Braden Smith,72,2019,14,4,15:00:00,IND,1,10,LAC,24,16,2558123,I_FORM,"1 RB, 3 TE, 1 WR",8,"4 DL, 3 LB, 4 DB",right,2019-09-08T22:13:37.000Z,2019-09-08T22:13:36.000Z,6-6,315,03/25/1996,Auburn,G,LAC,IND,1,Dignity Health Sports Park,"Carson, CA",,Grass,Sunny,77.0,52,10,SW
7798,2019090807,20190908072587,away,97.49,9.83,4.66,2.41,0.45,89.35,79.23,2560987,Deon Cain,11,2019,14,4,15:00:00,IND,1,10,LAC,24,16,2558123,I_FORM,"1 RB, 3 TE, 1 WR",8,"4 DL, 3 LB, 4 DB",right,2019-09-08T22:13:37.000Z,2019-09-08T22:13:36.000Z,6-2,202,08/09/1996,Clemson,WR,LAC,IND,1,Dignity Health Sports Park,"Carson, CA",,Grass,Sunny,77.0,52,10,SW
7799,2019090807,20190908072587,home,94.62,32.08,2.42,0.91,0.25,34.66,289.11,2495677,Brandon Mebane,92,2019,14,4,15:00:00,IND,1,10,LAC,24,16,2558123,I_FORM,"1 RB, 3 TE, 1 WR",8,"4 DL, 3 LB, 4 DB",right,2019-09-08T22:13:37.000Z,2019-09-08T22:13:36.000Z,6-1,311,01/15/1985,California,NT,LAC,IND,1,Dignity Health Sports Park,"Carson, CA",,Grass,Sunny,77.0,52,10,SW
7800,2019090807,20190908072587,home,100.23,28.25,2.08,2.46,0.19,277.24,216.87,2506352,Thomas Davis,58,2019,14,4,15:00:00,IND,1,10,LAC,24,16,2558123,I_FORM,"1 RB, 3 TE, 1 WR",8,"4 DL, 3 LB, 4 DB",right,2019-09-08T22:13:37.000Z,2019-09-08T22:13:36.000Z,6-1,235,03/22/1983,Georgia,OLB,LAC,IND,1,Dignity Health Sports Park,"Carson, CA",,Grass,Sunny,77.0,52,10,SW
7801,2019090807,20190908072587,home,100.27,9.47,3.63,1.04,0.36,358.28,80.44,2532861,Casey Hayward,26,2019,14,4,15:00:00,IND,1,10,LAC,24,16,2558123,I_FORM,"1 RB, 3 TE, 1 WR",8,"4 DL, 3 LB, 4 DB",right,2019-09-08T22:13:37.000Z,2019-09-08T22:13:36.000Z,5-11,192,09/09/1989,Vanderbilt,CB,LAC,IND,1,Dignity Health Sports Park,"Carson, CA",,Grass,Sunny,77.0,52,10,SW
7802,2019090807,20190908072587,home,95.74,26.8,2.64,1.43,0.25,290.55,322.22,2532870,Melvin Ingram,54,2019,14,4,15:00:00,IND,1,10,LAC,24,16,2558123,I_FORM,"1 RB, 3 TE, 1 WR",8,"4 DL, 3 LB, 4 DB",right,2019-09-08T22:13:37.000Z,2019-09-08T22:13:36.000Z,6-2,247,04/26/1989,South Carolina,DE,LAC,IND,1,Dignity Health Sports Park,"Carson, CA",,Grass,Sunny,77.0,52,10,SW
7803,2019090807,20190908072587,home,98.15,21.4,2.18,2.13,0.22,283.71,151.16,2550842,Adrian Phillips,31,2019,14,4,15:00:00,IND,1,10,LAC,24,16,2558123,I_FORM,"1 RB, 3 TE, 1 WR",8,"4 DL, 3 LB, 4 DB",right,2019-09-08T22:13:37.000Z,2019-09-08T22:13:36.000Z,5-11,210,03/28/1992,Texas,SS,LAC,IND,1,Dignity Health Sports Park,"Carson, CA",,Grass,Sunny,77.0,52,10,SW
7804,2019090807,20190908072587,home,96.1,32.15,0.74,0.83,0.09,213.48,210.23,2555249,Joey Bosa,97,2019,14,4,15:00:00,IND,1,10,LAC,24,16,2558123,I_FORM,"1 RB, 3 TE, 1 WR",8,"4 DL, 3 LB, 4 DB",right,2019-09-08T22:13:37.000Z,2019-09-08T22:13:36.000Z,6-5,280,07/11/1995,Ohio State,DE,LAC,IND,1,Dignity Health Sports Park,"Carson, CA",,Grass,Sunny,77.0,52,10,SW
7805,2019090807,20190908072587,home,109.59,29.75,0.73,2.26,0.07,326.74,174.69,2558182,Rayshawn Jenkins,23,2019,14,4,15:00:00,IND,1,10,LAC,24,16,2558123,I_FORM,"1 RB, 3 TE, 1 WR",8,"4 DL, 3 LB, 4 DB",right,2019-09-08T22:13:37.000Z,2019-09-08T22:13:36.000Z,6-2,220,01/25/1994,Miami,SS,LAC,IND,1,Dignity Health Sports Park,"Carson, CA",,Grass,Sunny,77.0,52,10,SW
7806,2019090807,20190908072587,home,99.07,37.33,1.41,3.81,0.13,243.75,200.94,2560719,Brandon Facyson,28,2019,14,4,15:00:00,IND,1,10,LAC,24,16,2558123,I_FORM,"1 RB, 3 TE, 1 WR",8,"4 DL, 3 LB, 4 DB",right,2019-09-08T22:13:37.000Z,2019-09-08T22:13:36.000Z,6-2,197,09/08/1994,Virginia Tech,CB,LAC,IND,1,Dignity Health Sports Park,"Carson, CA",,Grass,Sunny,77.0,52,10,SW
7807,2019090807,20190908072587,home,96.77,29.32,1.46,1.88,0.15,296.29,34.07,2560769,Justin Jones,93,2019,14,4,15:00:00,IND,1,10,LAC,24,16,2558123,I_FORM,"1 RB, 3 TE, 1 WR",8,"4 DL, 3 LB, 4 DB",right,2019-09-08T22:13:37.000Z,2019-09-08T22:13:36.000Z,6-3,309,08/28/1996,North Carolina State,DT,LAC,IND,1,Dignity Health Sports Park,"Carson, CA",,Grass,Sunny,77.0,52,10,SW
7808,2019090807,20190908072587,home,96.29,35.01,1.34,1.21,0.13,266.89,199.13,2560826,Uchenna Nwosu,42,2019,14,4,15:00:00,IND,1,10,LAC,24,16,2558123,I_FORM,"1 RB, 3 TE, 1 WR",8,"4 DL, 3 LB, 4 DB",right,2019-09-08T22:13:37.000Z,2019-09-08T22:13:36.000Z,6-2,251,12/28/1996,Southern California,LB,LAC,IND,1,Dignity Health Sports Park,"Carson, CA",,Grass,Sunny,77.0,52,10,SW
7809,2019090807,20190908072587,home,100.85,31.03,2.3,1.8,0.22,272.79,187.17,2560928,Kyzir White,44,2019,14,4,15:00:00,IND,1,10,LAC,24,16,2558123,I_FORM,"1 RB, 3 TE, 1 WR",8,"4 DL, 3 LB, 4 DB",right,2019-09-08T22:13:37.000Z,2019-09-08T22:13:36.000Z,6-2,216,03/24/1996,West Virginia,LB,LAC,IND,1,Dignity Health Sports Park,"Carson, CA",,Grass,Sunny,77.0,52,10,SW
