,GameId,PlayId,Team,X,Y,S,A,Dis,Orientation,Dir,NflId,DisplayName,JerseyNumber,Season,YardLine,Quarter,GameClock,PossessionTeam,Down,Distance,FieldPosition,HomeScoreBeforePlay,VisitorScoreBeforePlay,NflIdRusher,OffenseFormation,OffensePersonnel,DefendersInTheBox,DefensePersonnel,PlayDirection,TimeHandoff,TimeSnap,PlayerHeight,PlayerWeight,PlayerBirthDate,PlayerCollegeName,Position,HomeTeamAbbr,VisitorTeamAbbr,Week,Stadium,Location,StadiumType,Turf,GameWeather,Temperature,Humidity,WindSpeed,WindDirection
17644,2019091502,20190915020241,away,78.68,28.47,0.31,1.85,0.03,240.32,154.2,2495216,Mike Pouncey,53,2019,32,1,12:21:00,LAC,1,10,LAC,0,0,2559169,I_FORM,"2 RB, 1 TE, 2 WR",7,"2 DL, 5 LB, 4 DB",left,2019-09-15T17:10:42.000Z,2019-09-15T17:10:41.000Z,6-5,298,07/24/1989,Florida,C,DET,LAC,2,Ford Field,Detroit,Indoors,Field Turf,Controlled Climate,68.0,70,,
17645,2019091502,20190915020241,away,79.87,28.18,4.23,0.99,0.42,344.14,339.99,2495288,Virgil Green,88,2019,32,1,12:21:00,LAC,1,10,LAC,0,0,2559169,I_FORM,"2 RB, 1 TE, 2 WR",7,"2 DL, 5 LB, 4 DB",left,2019-09-15T17:10:42.000Z,2019-09-15T17:10:41.000Z,6-5,255,08/03/1988,Nevada,TE,DET,LAC,2,Ford Field,Detroit,Indoors,Field Turf,Controlled Climate,68.0,70,,
17646,2019091502,20190915020241,away,82.51,29.4,3.88,1.24,0.38,176.42,101.37,2506121,Philip Rivers,17,2019,32,1,12:21:00,LAC,1,10,LAC,0,0,2559169,I_FORM,"2 RB, 1 TE, 2 WR",7,"2 DL, 5 LB, 4 DB",left,2019-09-15T17:10:42.000Z,2019-09-15T17:10:41.000Z,6-5,228,12/08/1981,North Carolina State,QB,DET,LAC,2,Ford Field,Detroit,Indoors,Field Turf,Controlled Climate,68.0,70,,
17647,2019091502,20190915020241,away,77.6,9.79,3.55,3.37,0.34,233.74,225.02,2530700,Dontrelle Inman,15,2019,32,1,12:21:00,LAC,1,10,LAC,0,0,2559169,I_FORM,"2 RB, 1 TE, 2 WR",7,"2 DL, 5 LB, 4 DB",left,2019-09-15T17:10:42.000Z,2019-09-15T17:10:41.000Z,6-3,205,01/31/1989,Virginia,WR,DET,LAC,2,Ford Field,Detroit,Indoors,Field Turf,Controlled Climate,68.0,70,,
17648,2019091502,20190915020241,away,77.13,38.47,4.08,2.83,0.4,221.82,216.82,2540154,Keenan Allen,13,2019,32,1,12:21:00,LAC,1,10,LAC,0,0,2559169,I_FORM,"2 RB, 1 TE, 2 WR",7,"2 DL, 5 LB, 4 DB",left,2019-09-15T17:10:42.000Z,2019-09-15T17:10:41.000Z,6-2,211,04/27/1992,California,WR,DET,LAC,2,Ford Field,Detroit,Indoors,Field Turf,Controlled Climate,68.0,70,,
17649,2019091502,20190915020241,away,76.84,29.25,3.6,2.39,0.36,252.84,239.18,2543732,Michael Schofield,75,2019,32,1,12:21:00,LAC,1,10,LAC,0,0,2559169,I_FORM,"2 RB, 1 TE, 2 WR",7,"2 DL, 5 LB, 4 DB",left,2019-09-15T17:10:42.000Z,2019-09-15T17:10:41.000Z,6-6,301,11/15/1990,Michigan,G,DET,LAC,2,Ford Field,Detroit,Indoors,Field Turf,Controlled Climate,68.0,70,,
17650,2019091502,20190915020241,away,81.25,34.19,6.11,1.92,0.6,3.07,347.04,2555220,Derek Watt,34,2019,32,1,12:21:00,LAC,1,10,LAC,0,0,2559169,I_FORM,"2 RB, 1 TE, 2 WR",7,"2 DL, 5 LB, 4 DB",left,2019-09-15T17:10:42.000Z,2019-09-15T17:10:41.000Z,6-2,234,11/07/1992,Wisconsin,FB,DET,LAC,2,Ford Field,Detroit,Indoors,Field Turf,Controlled Climate,68.0,70,,
17651,2019091502,20190915020241,away,78.72,25.9,1.78,1.97,0.19,222.87,208.18,2557873,Dan Feeney,66,2019,32,1,12:21:00,LAC,1,10,LAC,0,0,2559169,I_FORM,"2 RB, 1 TE, 2 WR",7,"2 DL, 5 LB, 4 DB",left,2019-09-15T17:10:42.000Z,2019-09-15T17:10:41.000Z,6-4,310,05/29/1994,Indiana,G,DET,LAC,2,Ford Field,Detroit,Indoors,Field Turf,Controlled Climate,68.0,70,,
17652,2019091502,20190915020241,away,78.67,32.15,0.68,2.65,0.07,40.14,161.88,2558026,Sam Tevi,69,2019,32,1,12:21:00,LAC,1,10,LAC,0,0,2559169,I_FORM,"2 RB, 1 TE, 2 WR",7,"2 DL, 5 LB, 4 DB",left,2019-09-15T17:10:42.000Z,2019-09-15T17:10:41.000Z,6-5,315,11/15/1994,Utah,T,DET,LAC,2,Ford Field,Detroit,Indoors,Field Turf,Controlled Climate,68.0,70,,
17653,2019091502,20190915020241,away,83.61,28.72,3.9,3.64,0.38,282.64,263.39,2559169,Austin Ekeler,30,2019,32,1,12:21:00,LAC,1,10,LAC,0,0,2559169,I_FORM,"2 RB, 1 TE, 2 WR",7,"2 DL, 5 LB, 4 DB",left,2019-09-15T17:10:42.000Z,2019-09-15T17:10:41.000Z,5-10,200,05/17/1995,"Western State, Colo.",RB,DET,LAC,2,Ford Field,Detroit,Indoors,Field Turf,Controlled Climate,68.0,70,,
17654,2019091502,20190915020241,away,78.82,24.92,1.41,1.34,0.14,246.27,220.96,2561544,Trent Scott,78,2019,32,1,12:21:00,LAC,1,10,LAC,0,0,2559169,I_FORM,"2 RB, 1 TE, 2 WR",7,"2 DL, 5 LB, 4 DB",left,2019-09-15T17:10:42.000Z,2019-09-15T17:10:41.000Z,6-5,320,01/25/1994,Grambling,T,DET,LAC,2,Ford Field,Detroit,Indoors,Field Turf,Controlled Climate,68.0,70,,
17655,2019091502,20190915020241,home,79.29,32.49,2.08,0.48,0.21,193.97,120.99,2532826,Mike Daniels,96,2019,32,1,12:21:00,LAC,1,10,LAC,0,0,2559169,I_FORM,"2 RB, 1 TE, 2 WR",7,"2 DL, 5 LB, 4 DB",left,2019-09-15T17:10:42.000Z,2019-09-15T17:10:41.000Z,6-0,310,05/05/1989,Iowa,DT,DET,LAC,2,Ford Field,Detroit,Indoors,Field Turf,Controlled Climate,68.0,70,,
17656,2019091502,20190915020241,home,77.89,28.3,0.64,2.24,0.04,90.9,147.45,2535718,Damon Harrison,98,2019,32,1,12:21:00,LAC,1,10,LAC,0,0,2559169,I_FORM,"2 RB, 1 TE, 2 WR",7,"2 DL, 5 LB, 4 DB",left,2019-09-15T17:10:42.000Z,2019-09-15T17:10:41.000Z,6-3,350,11/29/1988,William Penn,DT,DET,LAC,2,Ford Field,Detroit,Indoors,Field Turf,Controlled Climate,68.0,70,,
17657,2019091502,20190915020241,home,76.26,39.33,2.88,2.73,0.27,154.06,226.57,2540288,Darius Slay,23,2019,32,1,12:21:00,LAC,1,10,LAC,0,0,2559169,I_FORM,"2 RB, 1 TE, 2 WR",7,"2 DL, 5 LB, 4 DB",left,2019-09-15T17:10:42.000Z,2019-09-15T17:10:41.000Z,6-0,190,01/01/1991,Mississippi State,CB,DET,LAC,2,Ford Field,Detroit,Indoors,Field Turf,Controlled Climate,68.0,70,,
17658,2019091502,20190915020241,home,76.5,10.27,2.25,2.6,0.21,128.28,218.32,2541200,Rashaan Melvin,29,2019,32,1,12:21:00,LAC,1,10,LAC,0,0,2559169,I_FORM,"2 RB, 1 TE, 2 WR",7,"2 DL, 5 LB, 4 DB",left,2019-09-15T17:10:42.000Z,2019-09-15T17:10:41.000Z,6-2,196,10/02/1989,Northern Illinois,CB,DET,LAC,2,Ford Field,Detroit,Indoors,Field Turf,Controlled Climate,68.0,70,,
17659,2019091502,20190915020241,home,79.47,35.41,2.08,1.25,0.2,121.85,71.17,2543869,Devon Kennard,42,2019,32,1,12:21:00,LAC,1,10,LAC,0,0,2559169,I_FORM,"2 RB, 1 TE, 2 WR",7,"2 DL, 5 LB, 4 DB",left,2019-09-15T17:10:42.000Z,2019-09-15T17:10:41.000Z,6-3,256,06/24/1991,Southern California,OLB,DET,LAC,2,Ford Field,Detroit,Indoors,Field Turf,Controlled Climate,68.0,70,,
17660,2019091502,20190915020241,home,78.23,23.76,0.83,2.19,0.09,41.08,39.68,2550572,Christian Jones,52,2019,32,1,12:21:00,LAC,1,10,LAC,0,0,2559169,I_FORM,"2 RB, 1 TE, 2 WR",7,"2 DL, 5 LB, 4 DB",left,2019-09-15T17:10:42.000Z,2019-09-15T17:10:41.000Z,6-3,250,02/18/1991,Florida State,ILB,DET,LAC,2,Ford Field,Detroit,Indoors,Field Turf,Controlled Climate,68.0,70,,
17661,2019091502,20190915020241,home,73.49,25.53,0.75,2.62,0.07,65.09,28.94,2552262,Quandre Diggs,28,2019,32,1,12:21:00,LAC,1,10,LAC,0,0,2559169,I_FORM,"2 RB, 1 TE, 2 WR",7,"2 DL, 5 LB, 4 DB",left,2019-09-15T17:10:42.000Z,2019-09-15T17:10:41.000Z,5-9,197,01/22/1993,Texas,CB,DET,LAC,2,Ford Field,Detroit,Indoors,Field Turf,Controlled Climate,68.0,70,,
17662,2019091502,20190915020241,home,77.97,25.35,0.7,2.13,0.07,70.83,197.35,2556641,Romeo Okwara,95,2019,32,1,12:21:00,LAC,1,10,LAC,0,0,2559169,I_FORM,"2 RB, 1 TE, 2 WR",7,"2 DL, 5 LB, 4 DB",left,2019-09-15T17:10:42.000Z,2019-09-15T17:10:41.000Z,6-4,263,06/17/1995,Notre Dame,OLB,DET,LAC,2,Ford Field,Detroit,Indoors,Field Turf,Controlled Climate,68.0,70,,
17663,2019091502,20190915020241,home,74.87,28.07,1.43,2.16,0.14,77.14,34.33,2557924,Jalen Reeves-Maybin,44,2019,32,1,12:21:00,LAC,1,10,LAC,0,0,2559169,I_FORM,"2 RB, 1 TE, 2 WR",7,"2 DL, 5 LB, 4 DB",left,2019-09-15T17:10:42.000Z,2019-09-15T17:10:41.000Z,6-0,233,01/31/1995,Tennessee,OLB,DET,LAC,2,Ford Field,Detroit,Indoors,Field Turf,Controlled Climate,68.0,70,,
17664,2019091502,20190915020241,home,61.4,27.76,2.43,1.83,0.24,58.79,350.62,2560913,Tracy Walker,21,2019,32,1,12:21:00,LAC,1,10,LAC,0,0,2559169,I_FORM,"2 RB, 1 TE, 2 WR",7,"2 DL, 5 LB, 4 DB",left,2019-09-15T17:10:42.000Z,2019-09-15T17:10:41.000Z,6-1,210,02/01/1995,Louisiana-Lafayette,DB,DET,LAC,2,Ford Field,Detroit,Indoors,Field Turf,Controlled Climate,68.0,70,,
17665,2019091502,20190915020241,home,75.72,31.08,2.53,0.78,0.24,106.02,108.3,2562755,Jahlani Tavai,51,2019,32,1,12:21:00,LAC,1,10,LAC,0,0,2559169,I_FORM,"2 RB, 1 TE, 2 WR",7,"2 DL, 5 LB, 4 DB",left,2019-09-15T17:10:42.000Z,2019-09-15T17:10:41.000Z,6-2,250,09/28/1996,Hawaii,LB,DET,LAC,2,Ford Field,Detroit,Indoors,Field Turf,Controlled Climate,68.0,70,,
