,GameId,PlayId,Team,X,Y,S,A,Dis,Orientation,Dir,NflId,DisplayName,JerseyNumber,Season,YardLine,Quarter,GameClock,PossessionTeam,Down,Distance,FieldPosition,HomeScoreBeforePlay,VisitorScoreBeforePlay,NflIdRusher,OffenseFormation,OffensePersonnel,DefendersInTheBox,DefensePersonnel,PlayDirection,TimeHandoff,TimeSnap,PlayerHeight,PlayerWeight,PlayerBirthDate,PlayerCollegeName,Position,HomeTeamAbbr,VisitorTeamAbbr,Week,Stadium,Location,StadiumType,Turf,GameWeather,Temperature,Humidity,WindSpeed,WindDirection
1958,2019090801,20190908011188,away,44.36,31.7,2.27,1.8,0.24,145.22,355.47,497048,Rodger Saffold,76,2019,34,2,11:44:00,TEN,1,10,CLV,6,3,2556075,SINGLEBACK,"1 RB, 2 TE, 2 WR",6,"3 DL, 3 LB, 5 DB",left,2019-09-08T17:51:34.000Z,2019-09-08T17:51:33.000Z,6-5,325,06/06/1988,Indiana,G,CLE,TEN,1,First Energy Stadium,"Cleveland, Ohio",Outdoor,Grass,Partly Cloudy,71.0,55,10,NE
1959,2019090801,20190908011188,away,42.74,33.72,3.89,0.78,0.4,244.59,331.78,2532883,Ben Jones,60,2019,34,2,11:44:00,TEN,1,10,CLV,6,3,2556075,SINGLEBACK,"1 RB, 2 TE, 2 WR",6,"3 DL, 3 LB, 5 DB",left,2019-09-08T17:51:34.000Z,2019-09-08T17:51:33.000Z,6-3,308,07/02/1989,Georgia,C,CLE,TEN,1,First Energy Stadium,"Cleveland, Ohio",Outdoor,Grass,Partly Cloudy,71.0,55,10,NE
1960,2019090801,20190908011188,away,42.98,30.33,5.18,0.71,0.52,275.22,326.95,2535131,Dennis Kelly,71,2019,34,2,11:44:00,TEN,1,10,CLV,6,3,2556075,SINGLEBACK,"1 RB, 2 TE, 2 WR",6,"3 DL, 3 LB, 5 DB",left,2019-09-08T17:51:34.000Z,2019-09-08T17:51:33.000Z,6-8,321,01/16/1990,Purdue,OT,CLE,TEN,1,First Energy Stadium,"Cleveland, Ohio",Outdoor,Grass,Partly Cloudy,71.0,55,10,NE
1961,2019090801,20190908011188,away,46.17,35.41,3.67,2.17,0.36,161.34,26.22,2552339,Jamil Douglas,75,2019,34,2,11:44:00,TEN,1,10,CLV,6,3,2556075,SINGLEBACK,"1 RB, 2 TE, 2 WR",6,"3 DL, 3 LB, 5 DB",left,2019-09-08T17:51:34.000Z,2019-09-08T17:51:33.000Z,6-4,308,02/28/1992,Arizona State,OG,CLE,TEN,1,First Energy Stadium,"Cleveland, Ohio",Outdoor,Grass,Partly Cloudy,71.0,55,10,NE
1962,2019090801,20190908011188,away,43.24,37.0,2.28,2.46,0.21,297.56,329.71,2552401,MyCole Pruitt,85,2019,34,2,11:44:00,TEN,1,10,CLV,6,3,2556075,SINGLEBACK,"1 RB, 2 TE, 2 WR",6,"3 DL, 3 LB, 5 DB",left,2019-09-08T17:51:34.000Z,2019-09-08T17:51:33.000Z,6-2,243,03/24/1992,Southern Illinois,TE,CLE,TEN,1,First Energy Stadium,"Cleveland, Ohio",Outdoor,Grass,Partly Cloudy,71.0,55,10,NE
1963,2019090801,20190908011188,away,49.19,30.74,5.31,3.22,0.53,116.12,87.41,2552466,Marcus Mariota,8,2019,34,2,11:44:00,TEN,1,10,CLV,6,3,2556075,SINGLEBACK,"1 RB, 2 TE, 2 WR",6,"3 DL, 3 LB, 5 DB",left,2019-09-08T17:51:34.000Z,2019-09-08T17:51:33.000Z,6-4,222,10/30/1993,Oregon,QB,CLE,TEN,1,First Energy Stadium,"Cleveland, Ohio",Outdoor,Grass,Partly Cloudy,71.0,55,10,NE
1964,2019090801,20190908011188,away,46.29,37.76,5.47,1.85,0.57,310.55,352.96,2555279,Jack Conklin,78,2019,34,2,11:44:00,TEN,1,10,CLV,6,3,2556075,SINGLEBACK,"1 RB, 2 TE, 2 WR",6,"3 DL, 3 LB, 5 DB",left,2019-09-08T17:51:34.000Z,2019-09-08T17:51:33.000Z,6-6,308,08/17/1994,Michigan State,T,CLE,TEN,1,First Energy Stadium,"Cleveland, Ohio",Outdoor,Grass,Partly Cloudy,71.0,55,10,NE
1965,2019090801,20190908011188,away,41.3,11.75,6.01,1.99,0.59,289.96,285.8,2555317,Tajae Sharpe,19,2019,34,2,11:44:00,TEN,1,10,CLV,6,3,2556075,SINGLEBACK,"1 RB, 2 TE, 2 WR",6,"3 DL, 3 LB, 5 DB",left,2019-09-08T17:51:34.000Z,2019-09-08T17:51:33.000Z,6-2,194,12/23/1994,Massachusetts,WR,CLE,TEN,1,First Energy Stadium,"Cleveland, Ohio",Outdoor,Grass,Partly Cloudy,71.0,55,10,NE
1966,2019090801,20190908011188,away,50.89,34.61,6.26,2.03,0.62,322.56,346.17,2556075,Derrick Henry,22,2019,34,2,11:44:00,TEN,1,10,CLV,6,3,2556075,SINGLEBACK,"1 RB, 2 TE, 2 WR",6,"3 DL, 3 LB, 5 DB",left,2019-09-08T17:51:34.000Z,2019-09-08T17:51:33.000Z,6-3,247,01/04/1994,Alabama,RB,CLE,TEN,1,First Energy Stadium,"Cleveland, Ohio",Outdoor,Grass,Partly Cloudy,71.0,55,10,NE
1967,2019090801,20190908011188,away,42.89,39.33,3.95,1.02,0.39,174.76,301.19,2557848,Corey Davis,84,2019,34,2,11:44:00,TEN,1,10,CLV,6,3,2556075,SINGLEBACK,"1 RB, 2 TE, 2 WR",6,"3 DL, 3 LB, 5 DB",left,2019-09-08T17:51:34.000Z,2019-09-08T17:51:33.000Z,6-3,209,01/11/1995,Western Michigan,WR,CLE,TEN,1,First Energy Stadium,"Cleveland, Ohio",Outdoor,Grass,Partly Cloudy,71.0,55,10,NE
1968,2019090801,20190908011188,away,45.66,30.26,3.65,1.3,0.37,192.62,205.86,2558207,Jonnu Smith,81,2019,34,2,11:44:00,TEN,1,10,CLV,6,3,2556075,SINGLEBACK,"1 RB, 2 TE, 2 WR",6,"3 DL, 3 LB, 5 DB",left,2019-09-08T17:51:34.000Z,2019-09-08T17:51:33.000Z,6-3,248,08/22/1995,Florida International,TE,CLE,TEN,1,First Energy Stadium,"Cleveland, Ohio",Outdoor,Grass,Partly Cloudy,71.0,55,10,NE
1969,2019090801,20190908011188,home,34.29,37.29,2.51,4.03,0.22,73.86,45.31,496727,Morgan Burnett,42,2019,34,2,11:44:00,TEN,1,10,CLV,6,3,2556075,SINGLEBACK,"1 RB, 2 TE, 2 WR",6,"3 DL, 3 LB, 5 DB",left,2019-09-08T17:51:34.000Z,2019-09-08T17:51:33.000Z,6-1,209,01/13/1989,Georgia Tech,SS,CLE,TEN,1,First Energy Stadium,"Cleveland, Ohio",Outdoor,Grass,Partly Cloudy,71.0,55,10,NE
1970,2019090801,20190908011188,home,43.97,38.96,5.07,1.89,0.5,59.6,14.09,2533534,Olivier Vernon,54,2019,34,2,11:44:00,TEN,1,10,CLV,6,3,2556075,SINGLEBACK,"1 RB, 2 TE, 2 WR",6,"3 DL, 3 LB, 5 DB",left,2019-09-08T17:51:34.000Z,2019-09-08T17:51:33.000Z,6-2,262,10/07/1990,Miami,OLB,CLE,TEN,1,First Energy Stadium,"Cleveland, Ohio",Outdoor,Grass,Partly Cloudy,71.0,55,10,NE
1971,2019090801,20190908011188,home,44.87,27.83,2.21,1.34,0.23,49.83,37.9,2543692,Chris Smith,50,2019,34,2,11:44:00,TEN,1,10,CLV,6,3,2556075,SINGLEBACK,"1 RB, 2 TE, 2 WR",6,"3 DL, 3 LB, 5 DB",left,2019-09-08T17:51:34.000Z,2019-09-08T17:51:33.000Z,6-1,266,02/11/1992,Arkansas,DE,CLE,TEN,1,First Energy Stadium,"Cleveland, Ohio",Outdoor,Grass,Partly Cloudy,71.0,55,10,NE
1972,2019090801,20190908011188,home,42.16,28.37,2.77,2.21,0.27,77.78,36.36,2543720,Christian Kirksey,58,2019,34,2,11:44:00,TEN,1,10,CLV,6,3,2556075,SINGLEBACK,"1 RB, 2 TE, 2 WR",6,"3 DL, 3 LB, 5 DB",left,2019-09-08T17:51:34.000Z,2019-09-08T17:51:33.000Z,6-2,235,08/31/1992,Iowa,OLB,CLE,TEN,1,First Energy Stadium,"Cleveland, Ohio",Outdoor,Grass,Partly Cloudy,71.0,55,10,NE
1973,2019090801,20190908011188,home,37.5,24.95,3.23,1.54,0.33,71.09,78.72,2552389,Damarious Randall,23,2019,34,2,11:44:00,TEN,1,10,CLV,6,3,2556075,SINGLEBACK,"1 RB, 2 TE, 2 WR",6,"3 DL, 3 LB, 5 DB",left,2019-09-08T17:51:34.000Z,2019-09-08T17:51:33.000Z,5-11,196,08/29/1992,Arizona State,CB,CLE,TEN,1,First Energy Stadium,"Cleveland, Ohio",Outdoor,Grass,Partly Cloudy,71.0,55,10,NE
1974,2019090801,20190908011188,home,42.44,38.42,2.49,0.9,0.24,33.23,349.41,2552697,Jermaine Whitehead,35,2019,34,2,11:44:00,TEN,1,10,CLV,6,3,2556075,SINGLEBACK,"1 RB, 2 TE, 2 WR",6,"3 DL, 3 LB, 5 DB",left,2019-09-08T17:51:34.000Z,2019-09-08T17:51:33.000Z,5-11,195,03/12/1993,Auburn,FS,CLE,TEN,1,First Energy Stadium,"Cleveland, Ohio",Outdoor,Grass,Partly Cloudy,71.0,55,10,NE
1975,2019090801,20190908011188,home,41.99,32.7,4.0,0.69,0.4,33.23,18.72,2555166,Joe Schobert,53,2019,34,2,11:44:00,TEN,1,10,CLV,6,3,2556075,SINGLEBACK,"1 RB, 2 TE, 2 WR",6,"3 DL, 3 LB, 5 DB",left,2019-09-08T17:51:34.000Z,2019-09-08T17:51:33.000Z,6-1,245,11/06/1993,Wisconsin,MLB,CLE,TEN,1,First Energy Stadium,"Cleveland, Ohio",Outdoor,Grass,Partly Cloudy,71.0,55,10,NE
1976,2019090801,20190908011188,home,45.39,31.23,4.18,0.72,0.44,18.48,19.79,2559079,Devaroe Lawrence,99,2019,34,2,11:44:00,TEN,1,10,CLV,6,3,2556075,SINGLEBACK,"1 RB, 2 TE, 2 WR",6,"3 DL, 3 LB, 5 DB",left,2019-09-08T17:51:34.000Z,2019-09-08T17:51:33.000Z,6-2,294,10/13/1992,Auburn,DT,CLE,TEN,1,First Energy Stadium,"Cleveland, Ohio",Outdoor,Grass,Partly Cloudy,71.0,55,10,NE
1977,2019090801,20190908011188,home,41.08,41.92,2.8,3.96,0.26,123.12,44.61,2560916,Denzel Ward,21,2019,34,2,11:44:00,TEN,1,10,CLV,6,3,2556075,SINGLEBACK,"1 RB, 2 TE, 2 WR",6,"3 DL, 3 LB, 5 DB",left,2019-09-08T17:51:34.000Z,2019-09-08T17:51:33.000Z,5-11,191,04/28/1997,Ohio State,CB,CLE,TEN,1,First Energy Stadium,"Cleveland, Ohio",Outdoor,Grass,Partly Cloudy,71.0,55,10,NE
1978,2019090801,20190908011188,home,46.44,34.48,4.05,0.99,0.41,12.98,49.4,2561458,Daniel Ekuale,96,2019,34,2,11:44:00,TEN,1,10,CLV,6,3,2556075,SINGLEBACK,"1 RB, 2 TE, 2 WR",6,"3 DL, 3 LB, 5 DB",left,2019-09-08T17:51:34.000Z,2019-09-08T17:51:33.000Z,6-3,300,01/13/1994,Washington State,DT,CLE,TEN,1,First Energy Stadium,"Cleveland, Ohio",Outdoor,Grass,Partly Cloudy,71.0,55,10,NE
1979,2019090801,20190908011188,home,34.35,11.89,4.27,2.09,0.41,58.01,279.77,2562785,Greedy Williams,26,2019,34,2,11:44:00,TEN,1,10,CLV,6,3,2556075,SINGLEBACK,"1 RB, 2 TE, 2 WR",6,"3 DL, 3 LB, 5 DB",left,2019-09-08T17:51:34.000Z,2019-09-08T17:51:33.000Z,6-2,184,12/03/1997,Louisiana State,DB,CLE,TEN,1,First Energy Stadium,"Cleveland, Ohio",Outdoor,Grass,Partly Cloudy,71.0,55,10,NE
