,GameId,PlayId,Team,X,Y,S,A,Dis,Orientation,Dir,NflId,DisplayName,JerseyNumber,Season,YardLine,Quarter,GameClock,PossessionTeam,Down,Distance,FieldPosition,HomeScoreBeforePlay,VisitorScoreBeforePlay,NflIdRusher,OffenseFormation,OffensePersonnel,DefendersInTheBox,DefensePersonnel,PlayDirection,TimeHandoff,TimeSnap,PlayerHeight,PlayerWeight,PlayerBirthDate,PlayerCollegeName,Position,HomeTeamAbbr,VisitorTeamAbbr,Week,Stadium,Location,StadiumType,Turf,GameWeather,Temperature,Humidity,WindSpeed,WindDirection
71390,2019100609,20191006094313,away,54.68,31.27,2.02,2.04,0.2,258.94,134.67,89756,Jason McCourty,30,2019,40,4,02:20:00,WAS,1,10,WAS,7,33,2555461,SHOTGUN,"1 RB, 0 TE, 4 WR",5,"4 DL, 1 LB, 6 DB",right,2019-10-06T20:05:58.000Z,2019-10-06T20:05:57.000Z,5-11,195,08/13/1987,Rutgers,CB,WAS,NE,5,FedExField,"Landover, MD",Outdoor,Grass,Cloudy,70.0,66,8,S
71391,2019100609,20191006094313,away,51.37,19.81,3.54,2.51,0.36,253.79,222.64,2533057,Dont'a Hightower,54,2019,40,4,02:20:00,WAS,1,10,WAS,7,33,2555461,SHOTGUN,"1 RB, 0 TE, 4 WR",5,"4 DL, 1 LB, 6 DB",right,2019-10-06T20:05:58.000Z,2019-10-06T20:05:57.000Z,6-3,260,03/12/1990,Alabama,MLB,WAS,NE,5,FedExField,"Landover, MD",Outdoor,Grass,Cloudy,70.0,66,8,S
71392,2019100609,20191006094313,away,69.35,25.6,2.25,1.32,0.22,257.7,114.41,2541243,Duron Harmon,21,2019,40,4,02:20:00,WAS,1,10,WAS,7,33,2555461,SHOTGUN,"1 RB, 0 TE, 4 WR",5,"4 DL, 1 LB, 6 DB",right,2019-10-06T20:05:58.000Z,2019-10-06T20:05:57.000Z,6-1,205,01/24/1991,Rutgers,FS,WAS,NE,5,FedExField,"Landover, MD",Outdoor,Grass,Cloudy,70.0,66,8,S
71393,2019100609,20191006094313,away,53.48,24.68,3.25,2.8,0.31,251.74,213.37,2543712,Terrence Brooks,25,2019,40,4,02:20:00,WAS,1,10,WAS,7,33,2555461,SHOTGUN,"1 RB, 0 TE, 4 WR",5,"4 DL, 1 LB, 6 DB",right,2019-10-06T20:05:58.000Z,2019-10-06T20:05:57.000Z,5-11,205,03/02/1992,Florida State,SS,WAS,NE,5,FedExField,"Landover, MD",Outdoor,Grass,Cloudy,70.0,66,8,S
71394,2019100609,20191006094313,away,48.3,17.08,2.25,2.32,0.23,309.02,215.25,2555294,Shilique Calhoun,90,2019,40,4,02:20:00,WAS,1,10,WAS,7,33,2555461,SHOTGUN,"1 RB, 0 TE, 4 WR",5,"4 DL, 1 LB, 6 DB",right,2019-10-06T20:05:58.000Z,2019-10-06T20:05:57.000Z,6-4,260,03/20/1992,Michigan State,DE,WAS,NE,5,FedExField,"Landover, MD",Outdoor,Grass,Cloudy,70.0,66,8,S
71395,2019100609,20191006094313,away,54.89,36.93,1.6,1.59,0.16,271.45,80.49,2556571,Jonathan Jones,31,2019,40,4,02:20:00,WAS,1,10,WAS,7,33,2555461,SHOTGUN,"1 RB, 0 TE, 4 WR",5,"4 DL, 1 LB, 6 DB",right,2019-10-06T20:05:58.000Z,2019-10-06T20:05:57.000Z,5-10,190,09/20/1993,Auburn,CB,WAS,NE,5,FedExField,"Landover, MD",Outdoor,Grass,Cloudy,70.0,66,8,S
71396,2019100609,20191006094313,away,48.4,25.62,2.71,1.43,0.27,255.76,227.38,2558000,Deatrich Wise,91,2019,40,4,02:20:00,WAS,1,10,WAS,7,33,2555461,SHOTGUN,"1 RB, 0 TE, 4 WR",5,"4 DL, 1 LB, 6 DB",right,2019-10-06T20:05:58.000Z,2019-10-06T20:05:57.000Z,6-5,275,07/26/1994,Arkansas,DE,WAS,NE,5,FedExField,"Landover, MD",Outdoor,Grass,Cloudy,70.0,66,8,S
71397,2019100609,20191006094313,away,49.36,18.94,2.36,1.61,0.24,285.13,192.05,2558924,Adam Butler,70,2019,40,4,02:20:00,WAS,1,10,WAS,7,33,2555461,SHOTGUN,"1 RB, 0 TE, 4 WR",5,"4 DL, 1 LB, 6 DB",right,2019-10-06T20:05:58.000Z,2019-10-06T20:05:57.000Z,6-5,300,04/12/1994,Vanderbilt,DT,WAS,NE,5,FedExField,"Landover, MD",Outdoor,Grass,Cloudy,70.0,66,8,S
71398,2019100609,20191006094313,away,57.77,8.63,3.66,0.85,0.36,337.54,92.77,2560754,J.C. Jackson,27,2019,40,4,02:20:00,WAS,1,10,WAS,7,33,2555461,SHOTGUN,"1 RB, 0 TE, 4 WR",5,"4 DL, 1 LB, 6 DB",right,2019-10-06T20:05:58.000Z,2019-10-06T20:05:57.000Z,6-1,198,11/17/1995,Maryland,DB,WAS,NE,5,FedExField,"Landover, MD",Outdoor,Grass,Cloudy,70.0,66,8,S
71399,2019100609,20191006094313,away,46.07,29.09,3.73,2.45,0.38,231.51,263.2,2562607,Chase Winovich,50,2019,40,4,02:20:00,WAS,1,10,WAS,7,33,2555461,SHOTGUN,"1 RB, 0 TE, 4 WR",5,"4 DL, 1 LB, 6 DB",right,2019-10-06T20:05:58.000Z,2019-10-06T20:05:57.000Z,6-3,251,04/19/1995,Michigan,DE,WAS,NE,5,FedExField,"Landover, MD",Outdoor,Grass,Cloudy,70.0,66,8,S
71400,2019100609,20191006094313,away,59.03,42.26,3.39,1.06,0.33,187.94,87.36,2562787,Joejuan Williams,33,2019,40,4,02:20:00,WAS,1,10,WAS,7,33,2555461,SHOTGUN,"1 RB, 0 TE, 4 WR",5,"4 DL, 1 LB, 6 DB",right,2019-10-06T20:05:58.000Z,2019-10-06T20:05:57.000Z,6-3,212,12/06/1997,Vanderbilt,CB,WAS,NE,5,FedExField,"Landover, MD",Outdoor,Grass,Cloudy,70.0,66,8,S
71401,2019100609,20191006094313,home,44.53,23.49,0.29,1.07,0.03,100.52,222.98,497123,Colt McCoy,12,2019,40,4,02:20:00,WAS,1,10,WAS,7,33,2555461,SHOTGUN,"1 RB, 0 TE, 4 WR",5,"4 DL, 1 LB, 6 DB",right,2019-10-06T20:05:58.000Z,2019-10-06T20:05:57.000Z,6-1,212,09/05/1986,Texas,QB,WAS,NE,5,FedExField,"Landover, MD",Outdoor,Grass,Cloudy,70.0,66,8,S
71402,2019100609,20191006094313,home,49.98,20.42,3.38,1.34,0.34,115.05,158.6,2533010,Tony Bergstrom,66,2019,40,4,02:20:00,WAS,1,10,WAS,7,33,2555461,SHOTGUN,"1 RB, 0 TE, 4 WR",5,"4 DL, 1 LB, 6 DB",right,2019-10-06T20:05:58.000Z,2019-10-06T20:05:57.000Z,6-5,310,08/06/1986,Utah,G,WAS,NE,5,FedExField,"Landover, MD",Outdoor,Grass,Cloudy,70.0,66,8,S
71403,2019100609,20191006094313,home,47.65,17.85,2.47,1.01,0.26,142.96,199.91,2543489,Morgan Moses,76,2019,40,4,02:20:00,WAS,1,10,WAS,7,33,2555461,SHOTGUN,"1 RB, 0 TE, 4 WR",5,"4 DL, 1 LB, 6 DB",right,2019-10-06T20:05:58.000Z,2019-10-06T20:05:57.000Z,6-6,330,03/03/1991,Virginia,T,WAS,NE,5,FedExField,"Landover, MD",Outdoor,Grass,Cloudy,70.0,66,8,S
71404,2019100609,20191006094313,home,52.09,43.0,4.6,0.58,0.45,102.79,89.69,2543491,Paul Richardson,10,2019,40,4,02:20:00,WAS,1,10,WAS,7,33,2555461,SHOTGUN,"1 RB, 0 TE, 4 WR",5,"4 DL, 1 LB, 6 DB",right,2019-10-06T20:05:58.000Z,2019-10-06T20:05:57.000Z,6-0,180,04/13/1992,Colorado,WR,WAS,NE,5,FedExField,"Landover, MD",Outdoor,Grass,Cloudy,70.0,66,8,S
71405,2019100609,20191006094313,home,47.53,25.84,2.24,2.13,0.22,89.67,238.05,2552452,Ereck Flowers,77,2019,40,4,02:20:00,WAS,1,10,WAS,7,33,2555461,SHOTGUN,"1 RB, 0 TE, 4 WR",5,"4 DL, 1 LB, 6 DB",right,2019-10-06T20:05:58.000Z,2019-10-06T20:05:57.000Z,6-6,329,04/25/1994,Miami,T,WAS,NE,5,FedExField,"Landover, MD",Outdoor,Grass,Cloudy,70.0,66,8,S
71406,2019100609,20191006094313,home,45.53,22.49,5.17,1.26,0.51,146.66,159.46,2555461,Wendell Smallwood,34,2019,40,4,02:20:00,WAS,1,10,WAS,7,33,2555461,SHOTGUN,"1 RB, 0 TE, 4 WR",5,"4 DL, 1 LB, 6 DB",right,2019-10-06T20:05:58.000Z,2019-10-06T20:05:57.000Z,5-10,208,01/20/1994,West Virginia,RB,WAS,NE,5,FedExField,"Landover, MD",Outdoor,Grass,Cloudy,70.0,66,8,S
71407,2019100609,20191006094313,home,51.95,31.05,5.63,3.28,0.55,143.64,127.66,2560847,Trey Quinn,18,2019,40,4,02:20:00,WAS,1,10,WAS,7,33,2555461,SHOTGUN,"1 RB, 0 TE, 4 WR",5,"4 DL, 1 LB, 6 DB",right,2019-10-06T20:05:58.000Z,2019-10-06T20:05:57.000Z,6-0,202,12/07/1995,Southern Methodist,WR,WAS,NE,5,FedExField,"Landover, MD",Outdoor,Grass,Cloudy,70.0,66,8,S
71408,2019100609,20191006094313,home,45.89,28.27,2.71,2.74,0.28,28.09,263.3,2561019,Geron Christian,74,2019,40,4,02:20:00,WAS,1,10,WAS,7,33,2555461,SHOTGUN,"1 RB, 0 TE, 4 WR",5,"4 DL, 1 LB, 6 DB",right,2019-10-06T20:05:58.000Z,2019-10-06T20:05:57.000Z,6-6,315,09/10/1996,Louisville,T,WAS,NE,5,FedExField,"Landover, MD",Outdoor,Grass,Cloudy,70.0,66,8,S
71409,2019100609,20191006094313,home,52.49,10.02,5.28,1.4,0.52,85.44,90.0,2562489,Terry McLaurin,17,2019,40,4,02:20:00,WAS,1,10,WAS,7,33,2555461,SHOTGUN,"1 RB, 0 TE, 4 WR",5,"4 DL, 1 LB, 6 DB",right,2019-10-06T20:05:58.000Z,2019-10-06T20:05:57.000Z,6-0,210,09/15/1995,Ohio State,WR,WAS,NE,5,FedExField,"Landover, MD",Outdoor,Grass,Cloudy,70.0,66,8,S
71410,2019100609,20191006094313,home,48.5,19.09,2.54,1.32,0.27,91.66,188.79,2562916,Wes Martin,67,2019,40,4,02:20:00,WAS,1,10,WAS,7,33,2555461,SHOTGUN,"1 RB, 0 TE, 4 WR",5,"4 DL, 1 LB, 6 DB",right,2019-10-06T20:05:58.000Z,2019-10-06T20:05:57.000Z,6-3,316,05/09/1996,Indiana,G,WAS,NE,5,FedExField,"Landover, MD",Outdoor,Grass,Cloudy,70.0,66,8,S
71411,2019100609,20191006094313,home,51.35,36.77,4.59,1.79,0.46,117.22,107.04,2563033,Steven Sims,15,2019,40,4,02:20:00,WAS,1,10,WAS,7,33,2555461,SHOTGUN,"1 RB, 0 TE, 4 WR",5,"4 DL, 1 LB, 6 DB",right,2019-10-06T20:05:58.000Z,2019-10-06T20:05:57.000Z,5-10,176,03/31/1997,Kansas,WR,WAS,NE,5,FedExField,"Landover, MD",Outdoor,Grass,Cloudy,70.0,66,8,S
