,GameId,PlayId,Team,X,Y,S,A,Dis,Orientation,Dir,NflId,DisplayName,JerseyNumber,Season,YardLine,Quarter,GameClock,PossessionTeam,Down,Distance,FieldPosition,HomeScoreBeforePlay,VisitorScoreBeforePlay,NflIdRusher,OffenseFormation,OffensePersonnel,DefendersInTheBox,DefensePersonnel,PlayDirection,TimeHandoff,TimeSnap,PlayerHeight,PlayerWeight,PlayerBirthDate,PlayerCollegeName,Position,HomeTeamAbbr,VisitorTeamAbbr,Week,Stadium,Location,StadiumType,Turf,GameWeather,Temperature,Humidity,WindSpeed,WindDirection
37444,2019092205,20190922053213,away,51.83,22.13,6.09,1.31,0.61,21.32,39.46,2532974,Kyle Wilber,58,2019,38,4,07:43:00,MIN,1,10,OAK,31,7,2561099,SINGLEBACK,"1 RB, 3 TE, 1 WR",7,"4 DL, 3 LB, 4 DB",left,2019-09-22T19:31:30.000Z,2019-09-22T19:31:29.000Z,6-4,240,04/26/1989,Wake Forest,OLB,MIN,OAK,3,U.S. Bank Stadium,"Minneapolis, MN",Indoors,Field Turf,N/A (Indoors),,0,,
37445,2019092205,20190922053213,away,44.56,29.06,5.44,0.96,0.54,77.2,13.43,2532986,Tahir Whitehead,59,2019,38,4,07:43:00,MIN,1,10,OAK,31,7,2561099,SINGLEBACK,"1 RB, 3 TE, 1 WR",7,"4 DL, 3 LB, 4 DB",left,2019-09-22T19:31:30.000Z,2019-09-22T19:31:29.000Z,6-1,241,04/02/1990,Temple,OLB,MIN,OAK,3,U.S. Bank Stadium,"Minneapolis, MN",Indoors,Field Turf,N/A (Indoors),,0,,
37446,2019092205,20190922053213,away,45.41,26.67,5.1,1.12,0.52,62.73,18.67,2533058,Vontaze Burfict,55,2019,38,4,07:43:00,MIN,1,10,OAK,31,7,2561099,SINGLEBACK,"1 RB, 3 TE, 1 WR",7,"4 DL, 3 LB, 4 DB",left,2019-09-22T19:31:30.000Z,2019-09-22T19:31:29.000Z,6-1,255,09/24/1990,Arizona State,OLB,MIN,OAK,3,U.S. Bank Stadium,"Minneapolis, MN",Indoors,Field Turf,N/A (Indoors),,0,,
37447,2019092205,20190922053213,away,46.68,28.15,4.05,0.88,0.43,30.37,346.89,2540147,Johnathan Hankins,90,2019,38,4,07:43:00,MIN,1,10,OAK,31,7,2561099,SINGLEBACK,"1 RB, 3 TE, 1 WR",7,"4 DL, 3 LB, 4 DB",left,2019-09-22T19:31:30.000Z,2019-09-22T19:31:29.000Z,6-3,340,03/30/1992,Ohio State,DT,MIN,OAK,3,U.S. Bank Stadium,"Minneapolis, MN",Indoors,Field Turf,N/A (Indoors),,0,,
37448,2019092205,20190922053213,away,49.05,32.73,4.26,0.77,0.45,98.9,7.6,2550437,Josh Mauro,97,2019,38,4,07:43:00,MIN,1,10,OAK,31,7,2561099,SINGLEBACK,"1 RB, 3 TE, 1 WR",7,"4 DL, 3 LB, 4 DB",left,2019-09-22T19:31:30.000Z,2019-09-22T19:31:29.000Z,6-6,290,02/17/1991,Stanford,DE,MIN,OAK,3,U.S. Bank Stadium,"Minneapolis, MN",Indoors,Field Turf,N/A (Indoors),,0,,
37449,2019092205,20190922053213,away,31.77,27.54,3.41,2.21,0.34,86.04,343.89,2555342,Karl Joseph,42,2019,38,4,07:43:00,MIN,1,10,OAK,31,7,2561099,SINGLEBACK,"1 RB, 3 TE, 1 WR",7,"4 DL, 3 LB, 4 DB",left,2019-09-22T19:31:30.000Z,2019-09-22T19:31:29.000Z,5-10,200,09/08/1993,West Virginia,SS,MIN,OAK,3,U.S. Bank Stadium,"Minneapolis, MN",Indoors,Field Turf,N/A (Indoors),,0,,
37450,2019092205,20190922053213,away,39.43,10.84,4.16,3.45,0.4,29.94,332.75,2555394,Daryl Worley,20,2019,38,4,07:43:00,MIN,1,10,OAK,31,7,2561099,SINGLEBACK,"1 RB, 3 TE, 1 WR",7,"4 DL, 3 LB, 4 DB",left,2019-09-22T19:31:30.000Z,2019-09-22T19:31:29.000Z,6-1,215,02/22/1995,West Virginia,CB,MIN,OAK,3,U.S. Bank Stadium,"Minneapolis, MN",Indoors,Field Turf,N/A (Indoors),,0,,
37451,2019092205,20190922053213,away,40.88,16.65,4.77,2.06,0.47,23.21,351.66,2555568,Erik Harris,25,2019,38,4,07:43:00,MIN,1,10,OAK,31,7,2561099,SINGLEBACK,"1 RB, 3 TE, 1 WR",7,"4 DL, 3 LB, 4 DB",left,2019-09-22T19:31:30.000Z,2019-09-22T19:31:29.000Z,6-2,220,04/02/1990,"California, Pa.",SS,MIN,OAK,3,U.S. Bank Stadium,"Minneapolis, MN",Indoors,Field Turf,N/A (Indoors),,0,,
37452,2019092205,20190922053213,away,49.66,30.53,4.19,1.34,0.43,75.54,27.56,2560080,P.J. Hall,92,2019,38,4,07:43:00,MIN,1,10,OAK,31,7,2561099,SINGLEBACK,"1 RB, 3 TE, 1 WR",7,"4 DL, 3 LB, 4 DB",left,2019-09-22T19:31:30.000Z,2019-09-22T19:31:29.000Z,6-0,305,04/05/1995,Sam Houston State,DT,MIN,OAK,3,U.S. Bank Stadium,"Minneapolis, MN",Indoors,Field Turf,N/A (Indoors),,0,,
37453,2019092205,20190922053213,away,47.28,25.65,3.81,0.64,0.4,64.72,352.88,2562263,Clelin Ferrell,96,2019,38,4,07:43:00,MIN,1,10,OAK,31,7,2561099,SINGLEBACK,"1 RB, 3 TE, 1 WR",7,"4 DL, 3 LB, 4 DB",left,2019-09-22T19:31:30.000Z,2019-09-22T19:31:29.000Z,6-4,265,05/17/1997,Clemson,DL,MIN,OAK,3,U.S. Bank Stadium,"Minneapolis, MN",Indoors,Field Turf,N/A (Indoors),,0,,
37454,2019092205,20190922053213,away,43.76,35.42,4.3,2.23,0.42,76.86,14.73,2562380,Trayvon Mullen,27,2019,38,4,07:43:00,MIN,1,10,OAK,31,7,2561099,SINGLEBACK,"1 RB, 3 TE, 1 WR",7,"4 DL, 3 LB, 4 DB",left,2019-09-22T19:31:30.000Z,2019-09-22T19:31:29.000Z,6-2,200,09/20/1997,Clemson,CB,MIN,OAK,3,U.S. Bank Stadium,"Minneapolis, MN",Indoors,Field Turf,N/A (Indoors),,0,,
37455,2019092205,20190922053213,home,49.9,32.5,4.28,1.0,0.43,273.26,4.37,2495438,Kyle Rudolph,82,2019,38,4,07:43:00,MIN,1,10,OAK,31,7,2561099,SINGLEBACK,"1 RB, 3 TE, 1 WR",7,"4 DL, 3 LB, 4 DB",left,2019-09-22T19:31:30.000Z,2019-09-22T19:31:29.000Z,6-6,265,11/09/1989,Notre Dame,TE,MIN,OAK,3,U.S. Bank Stadium,"Minneapolis, MN",Indoors,Field Turf,N/A (Indoors),,0,,
37456,2019092205,20190922053213,home,53.02,26.51,5.67,4.04,0.58,63.62,63.96,2532820,Kirk Cousins,8,2019,38,4,07:43:00,MIN,1,10,OAK,31,7,2561099,SINGLEBACK,"1 RB, 3 TE, 1 WR",7,"4 DL, 3 LB, 4 DB",left,2019-09-22T19:31:30.000Z,2019-09-22T19:31:29.000Z,6-3,202,08/19/1988,Michigan State,QB,MIN,OAK,3,U.S. Bank Stadium,"Minneapolis, MN",Indoors,Field Turf,N/A (Indoors),,0,,
37457,2019092205,20190922053213,home,47.11,24.52,1.75,3.41,0.19,19.74,324.33,2533042,Riley Reiff,71,2019,38,4,07:43:00,MIN,1,10,OAK,31,7,2561099,SINGLEBACK,"1 RB, 3 TE, 1 WR",7,"4 DL, 3 LB, 4 DB",left,2019-09-22T19:31:30.000Z,2019-09-22T19:31:29.000Z,6-6,305,12/01/1988,Iowa,T,MIN,OAK,3,U.S. Bank Stadium,"Minneapolis, MN",Indoors,Field Turf,N/A (Indoors),,0,,
37458,2019092205,20190922053213,home,50.16,29.86,4.08,0.74,0.41,7.75,23.44,2543805,Dakota Dozier,78,2019,38,4,07:43:00,MIN,1,10,OAK,31,7,2561099,SINGLEBACK,"1 RB, 3 TE, 1 WR",7,"4 DL, 3 LB, 4 DB",left,2019-09-22T19:31:30.000Z,2019-09-22T19:31:29.000Z,6-4,313,04/30/1991,Furman,G,MIN,OAK,3,U.S. Bank Stadium,"Minneapolis, MN",Indoors,Field Turf,N/A (Indoors),,0,,
37459,2019092205,20190922053213,home,47.38,27.65,3.47,2.52,0.36,296.06,334.66,2558848,Pat Elflein,65,2019,38,4,07:43:00,MIN,1,10,OAK,31,7,2561099,SINGLEBACK,"1 RB, 3 TE, 1 WR",7,"4 DL, 3 LB, 4 DB",left,2019-09-22T19:31:30.000Z,2019-09-22T19:31:29.000Z,6-3,303,07/06/1994,Ohio State,G,MIN,OAK,3,U.S. Bank Stadium,"Minneapolis, MN",Indoors,Field Turf,N/A (Indoors),,0,,
37460,2019092205,20190922053213,home,49.08,31.86,4.0,0.93,0.41,356.68,357.29,2560831,Brian O'Neill,75,2019,38,4,07:43:00,MIN,1,10,OAK,31,7,2561099,SINGLEBACK,"1 RB, 3 TE, 1 WR",7,"4 DL, 3 LB, 4 DB",left,2019-09-22T19:31:30.000Z,2019-09-22T19:31:29.000Z,6-7,297,09/15/1995,Pittsburgh,T,MIN,OAK,3,U.S. Bank Stadium,"Minneapolis, MN",Indoors,Field Turf,N/A (Indoors),,0,,
37461,2019092205,20190922053213,home,47.03,34.29,6.09,0.79,0.6,320.64,330.19,2561027,Tyler Conklin,83,2019,38,4,07:43:00,MIN,1,10,OAK,31,7,2561099,SINGLEBACK,"1 RB, 3 TE, 1 WR",7,"4 DL, 3 LB, 4 DB",left,2019-09-22T19:31:30.000Z,2019-09-22T19:31:29.000Z,6-3,254,07/30/1995,Central Michigan,TE,MIN,OAK,3,U.S. Bank Stadium,"Minneapolis, MN",Indoors,Field Turf,N/A (Indoors),,0,,
37462,2019092205,20190922053213,home,53.08,27.69,5.65,0.88,0.56,306.52,324.86,2561099,Mike Boone,23,2019,38,4,07:43:00,MIN,1,10,OAK,31,7,2561099,SINGLEBACK,"1 RB, 3 TE, 1 WR",7,"4 DL, 3 LB, 4 DB",left,2019-09-22T19:31:30.000Z,2019-09-22T19:31:29.000Z,5-10,205,06/30/1995,Cincinnati,RB,MIN,OAK,3,U.S. Bank Stadium,"Minneapolis, MN",Indoors,Field Turf,N/A (Indoors),,0,,
37463,2019092205,20190922053213,home,45.18,18.06,6.27,0.65,0.62,289.05,315.18,2562465,Bisi Johnson,81,2019,38,4,07:43:00,MIN,1,10,OAK,31,7,2561099,SINGLEBACK,"1 RB, 3 TE, 1 WR",7,"4 DL, 3 LB, 4 DB",left,2019-09-22T19:31:30.000Z,2019-09-22T19:31:29.000Z,6-0,203,03/17/1997,Colorado State,WR,MIN,OAK,3,U.S. Bank Stadium,"Minneapolis, MN",Indoors,Field Turf,N/A (Indoors),,0,,
37464,2019092205,20190922053213,home,46.82,28.65,4.96,1.03,0.49,295.34,336.15,2562632,Garrett Bradbury,56,2019,38,4,07:43:00,MIN,1,10,OAK,31,7,2561099,SINGLEBACK,"1 RB, 3 TE, 1 WR",7,"4 DL, 3 LB, 4 DB",left,2019-09-22T19:31:30.000Z,2019-09-22T19:31:29.000Z,6-3,305,06/20/1995,North Carolina State,C,MIN,OAK,3,U.S. Bank Stadium,"Minneapolis, MN",Indoors,Field Turf,N/A (Indoors),,0,,
37465,2019092205,20190922053213,home,46.25,12.81,5.86,1.67,0.58,293.52,311.13,2562738,Irv Smith,84,2019,38,4,07:43:00,MIN,1,10,OAK,31,7,2561099,SINGLEBACK,"1 RB, 3 TE, 1 WR",7,"4 DL, 3 LB, 4 DB",left,2019-09-22T19:31:30.000Z,2019-09-22T19:31:29.000Z,6-2,240,08/09/1998,Alabama,TE,MIN,OAK,3,U.S. Bank Stadium,"Minneapolis, MN",Indoors,Field Turf,N/A (Indoors),,0,,
