,GameId,PlayId,Team,X,Y,S,A,Dis,Orientation,Dir,NflId,DisplayName,JerseyNumber,Season,YardLine,Quarter,GameClock,PossessionTeam,Down,Distance,FieldPosition,HomeScoreBeforePlay,VisitorScoreBeforePlay,NflIdRusher,OffenseFormation,OffensePersonnel,DefendersInTheBox,DefensePersonnel,PlayDirection,TimeHandoff,TimeSnap,PlayerHeight,PlayerWeight,PlayerBirthDate,PlayerCollegeName,Position,HomeTeamAbbr,VisitorTeamAbbr,Week,Stadium,Location,StadiumType,Turf,GameWeather,Temperature,Humidity,WindSpeed,WindDirection
56254,2019092909,20190929092762,away,63.33,32.32,2.87,1.03,0.28,239.25,251.97,2532828,Lavonte David,54,2019,49,3,12:41:00,LA,2,4,TB,17,28,2552382,SINGLEBACK,"1 RB, 1 TE, 3 WR",6,"2 DL, 4 LB, 5 DB",right,2019-09-29T22:01:06.000Z,2019-09-29T22:01:05.000Z,6-1,233,01/23/1990,Nebraska,OLB,LA,TB,4,Los Angeles Memorial Coliseum,"Los Angeles, Calif.",Outdoor,Grass,Mostly Sunny,74.0,41,2,SW
56255,2019092909,20190929092762,away,63.42,25.32,2.62,2.72,0.27,285.19,236.85,2540159,Kevin Minter,51,2019,49,3,12:41:00,LA,2,4,TB,17,28,2552382,SINGLEBACK,"1 RB, 1 TE, 3 WR",6,"2 DL, 4 LB, 5 DB",right,2019-09-29T22:01:06.000Z,2019-09-29T22:01:05.000Z,6-0,246,12/03/1990,Louisiana State,MLB,LA,TB,4,Los Angeles Memorial Coliseum,"Los Angeles, Calif.",Outdoor,Grass,Mostly Sunny,74.0,41,2,SW
56256,2019092909,20190929092762,away,61.47,27.43,0.41,0.45,0.05,294.27,136.71,2540176,William Gholston,92,2019,49,3,12:41:00,LA,2,4,TB,17,28,2552382,SINGLEBACK,"1 RB, 1 TE, 3 WR",6,"2 DL, 4 LB, 5 DB",right,2019-09-29T22:01:06.000Z,2019-09-29T22:01:05.000Z,6-6,281,07/31/1991,Michigan State,DE,LA,TB,4,Los Angeles Memorial Coliseum,"Los Angeles, Calif.",Outdoor,Grass,Mostly Sunny,74.0,41,2,SW
56257,2019092909,20190929092762,away,75.85,35.39,3.44,0.42,0.34,275.27,54.21,2540185,Mike Edwards,34,2019,49,3,12:41:00,LA,2,4,TB,17,28,2552382,SINGLEBACK,"1 RB, 1 TE, 3 WR",6,"2 DL, 4 LB, 5 DB",right,2019-09-29T22:01:06.000Z,2019-09-29T22:01:05.000Z,5-10,200,05/18/1996,Kentucky,FS,LA,TB,4,Los Angeles Memorial Coliseum,"Los Angeles, Calif.",Outdoor,Grass,Mostly Sunny,74.0,41,2,SW
56258,2019092909,20190929092762,away,61.88,30.56,0.34,1.28,0.03,253.42,68.93,2543884,Beau Allen,91,2019,49,3,12:41:00,LA,2,4,TB,17,28,2552382,SINGLEBACK,"1 RB, 1 TE, 3 WR",6,"2 DL, 4 LB, 5 DB",right,2019-09-29T22:01:06.000Z,2019-09-29T22:01:05.000Z,6-3,327,11/14/1991,Wisconsin,DT,LA,TB,4,Los Angeles Memorial Coliseum,"Los Angeles, Calif.",Outdoor,Grass,Mostly Sunny,74.0,41,2,SW
56259,2019092909,20190929092762,away,60.26,34.92,0.62,3.69,0.05,180.59,138.26,2550541,Shaquil Barrett,58,2019,49,3,12:41:00,LA,2,4,TB,17,28,2552382,SINGLEBACK,"1 RB, 1 TE, 3 WR",6,"2 DL, 4 LB, 5 DB",right,2019-09-29T22:01:06.000Z,2019-09-29T22:01:05.000Z,6-2,250,11/17/1992,Colorado State,OLB,LA,TB,4,Los Angeles Memorial Coliseum,"Los Angeles, Calif.",Outdoor,Grass,Mostly Sunny,74.0,41,2,SW
56260,2019092909,20190929092762,away,60.4,25.0,1.18,3.75,0.12,307.35,359.5,2555270,Carl Nassib,94,2019,49,3,12:41:00,LA,2,4,TB,17,28,2552382,SINGLEBACK,"1 RB, 1 TE, 3 WR",6,"2 DL, 4 LB, 5 DB",right,2019-09-29T22:01:06.000Z,2019-09-29T22:01:05.000Z,6-7,275,04/12/1993,Penn State,DE,LA,TB,4,Los Angeles Memorial Coliseum,"Los Angeles, Calif.",Outdoor,Grass,Mostly Sunny,74.0,41,2,SW
56261,2019092909,20190929092762,away,64.53,39.25,1.05,1.67,0.11,244.03,193.16,2555299,Vernon Hargreaves III,28,2019,49,3,12:41:00,LA,2,4,TB,17,28,2552382,SINGLEBACK,"1 RB, 1 TE, 3 WR",6,"2 DL, 4 LB, 5 DB",right,2019-09-29T22:01:06.000Z,2019-09-29T22:01:05.000Z,5-10,204,06/03/1995,Florida,CB,LA,TB,4,Los Angeles Memorial Coliseum,"Los Angeles, Calif.",Outdoor,Grass,Mostly Sunny,74.0,41,2,SW
56262,2019092909,20190929092762,away,65.54,22.09,1.98,3.23,0.18,265.46,157.54,2560884,M.J. Stewart,36,2019,49,3,12:41:00,LA,2,4,TB,17,28,2552382,SINGLEBACK,"1 RB, 1 TE, 3 WR",6,"2 DL, 4 LB, 5 DB",right,2019-09-29T22:01:06.000Z,2019-09-29T22:01:05.000Z,5-11,205,09/16/1995,North Carolina,CB,LA,TB,4,Los Angeles Memorial Coliseum,"Los Angeles, Calif.",Outdoor,Grass,Mostly Sunny,74.0,41,2,SW
56263,2019092909,20190929092762,away,73.44,26.04,2.02,0.72,0.2,267.95,69.79,2560930,Jordan Whitehead,31,2019,49,3,12:41:00,LA,2,4,TB,17,28,2552382,SINGLEBACK,"1 RB, 1 TE, 3 WR",6,"2 DL, 4 LB, 5 DB",right,2019-09-29T22:01:06.000Z,2019-09-29T22:01:05.000Z,5-10,198,03/18/1997,Pittsburgh,DB,LA,TB,4,Los Angeles Memorial Coliseum,"Los Angeles, Calif.",Outdoor,Grass,Mostly Sunny,74.0,41,2,SW
56264,2019092909,20190929092762,away,69.63,18.17,1.62,0.85,0.16,289.82,87.21,2561039,Carlton Davis,33,2019,49,3,12:41:00,LA,2,4,TB,17,28,2552382,SINGLEBACK,"1 RB, 1 TE, 3 WR",6,"2 DL, 4 LB, 5 DB",right,2019-09-29T22:01:06.000Z,2019-09-29T22:01:05.000Z,6-1,206,12/31/1996,Auburn,CB,LA,TB,4,Los Angeles Memorial Coliseum,"Los Angeles, Calif.",Outdoor,Grass,Mostly Sunny,74.0,41,2,SW
56265,2019092909,20190929092762,home,60.4,33.6,1.49,0.93,0.15,357.39,70.64,2495977,Andrew Whitworth,77,2019,49,3,12:41:00,LA,2,4,TB,17,28,2552382,SINGLEBACK,"1 RB, 1 TE, 3 WR",6,"2 DL, 4 LB, 5 DB",right,2019-09-29T22:01:06.000Z,2019-09-29T22:01:05.000Z,6-7,330,12/12/1981,Louisiana State,T,LA,TB,4,Los Angeles Memorial Coliseum,"Los Angeles, Calif.",Outdoor,Grass,Mostly Sunny,74.0,41,2,SW
56266,2019092909,20190929092762,home,61.44,22.85,4.3,1.8,0.42,90.72,83.93,2540169,Robert Woods,17,2019,49,3,12:41:00,LA,2,4,TB,17,28,2552382,SINGLEBACK,"1 RB, 1 TE, 3 WR",6,"2 DL, 4 LB, 5 DB",right,2019-09-29T22:01:06.000Z,2019-09-29T22:01:05.000Z,6-0,193,04/10/1992,Southern California,WR,LA,TB,4,Los Angeles Memorial Coliseum,"Los Angeles, Calif.",Outdoor,Grass,Mostly Sunny,74.0,41,2,SW
56267,2019092909,20190929092762,home,62.35,37.86,2.64,0.5,0.26,70.37,96.46,2543498,Brandin Cooks,12,2019,49,3,12:41:00,LA,2,4,TB,17,28,2552382,SINGLEBACK,"1 RB, 1 TE, 3 WR",6,"2 DL, 4 LB, 5 DB",right,2019-09-29T22:01:06.000Z,2019-09-29T22:01:05.000Z,5-10,183,09/25/1993,Oregon State,WR,LA,TB,4,Los Angeles Memorial Coliseum,"Los Angeles, Calif.",Outdoor,Grass,Mostly Sunny,74.0,41,2,SW
56268,2019092909,20190929092762,home,61.04,26.15,2.39,2.15,0.23,90.63,151.42,2552363,Rob Havenstein,79,2019,49,3,12:41:00,LA,2,4,TB,17,28,2552382,SINGLEBACK,"1 RB, 1 TE, 3 WR",6,"2 DL, 4 LB, 5 DB",right,2019-09-29T22:01:06.000Z,2019-09-29T22:01:05.000Z,6-8,328,05/13/1992,Wisconsin,T,LA,TB,4,Los Angeles Memorial Coliseum,"Los Angeles, Calif.",Outdoor,Grass,Mostly Sunny,74.0,41,2,SW
56269,2019092909,20190929092762,home,55.42,28.19,4.76,3.29,0.46,96.05,115.13,2552382,Malcolm Brown,34,2019,49,3,12:41:00,LA,2,4,TB,17,28,2552382,SINGLEBACK,"1 RB, 1 TE, 3 WR",6,"2 DL, 4 LB, 5 DB",right,2019-09-29T22:01:06.000Z,2019-09-29T22:01:05.000Z,5-11,222,05/15/1993,Texas,RB,LA,TB,4,Los Angeles Memorial Coliseum,"Los Angeles, Calif.",Outdoor,Grass,Mostly Sunny,74.0,41,2,SW
56270,2019092909,20190929092762,home,60.93,27.67,0.95,0.55,0.09,97.1,114.24,2555180,Austin Blythe,66,2019,49,3,12:41:00,LA,2,4,TB,17,28,2552382,SINGLEBACK,"1 RB, 1 TE, 3 WR",6,"2 DL, 4 LB, 5 DB",right,2019-09-29T22:01:06.000Z,2019-09-29T22:01:05.000Z,6-3,300,06/16/1992,Iowa,C,LA,TB,4,Los Angeles Memorial Coliseum,"Los Angeles, Calif.",Outdoor,Grass,Mostly Sunny,74.0,41,2,SW
56271,2019092909,20190929092762,home,56.54,28.57,4.09,1.29,0.41,180.32,248.84,2555334,Jared Goff,16,2019,49,3,12:41:00,LA,2,4,TB,17,28,2552382,SINGLEBACK,"1 RB, 1 TE, 3 WR",6,"2 DL, 4 LB, 5 DB",right,2019-09-29T22:01:06.000Z,2019-09-29T22:01:05.000Z,6-4,223,10/14/1994,California,QB,LA,TB,4,Los Angeles Memorial Coliseum,"Los Angeles, Calif.",Outdoor,Grass,Mostly Sunny,74.0,41,2,SW
56272,2019092909,20190929092762,home,59.69,25.21,0.91,1.3,0.09,120.01,48.45,2557889,Gerald Everett,81,2019,49,3,12:41:00,LA,2,4,TB,17,28,2552382,SINGLEBACK,"1 RB, 1 TE, 3 WR",6,"2 DL, 4 LB, 5 DB",right,2019-09-29T22:01:06.000Z,2019-09-29T22:01:05.000Z,6-3,240,06/25/1994,South Alabama,TE,LA,TB,4,Los Angeles Memorial Coliseum,"Los Angeles, Calif.",Outdoor,Grass,Mostly Sunny,74.0,41,2,SW
56273,2019092909,20190929092762,home,63.08,22.36,4.58,1.8,0.45,114.85,114.0,2557898,Cooper Kupp,18,2019,49,3,12:41:00,LA,2,4,TB,17,28,2552382,SINGLEBACK,"1 RB, 1 TE, 3 WR",6,"2 DL, 4 LB, 5 DB",right,2019-09-29T22:01:06.000Z,2019-09-29T22:01:05.000Z,6-2,208,06/15/1993,Eastern Washington,WR,LA,TB,4,Los Angeles Memorial Coliseum,"Los Angeles, Calif.",Outdoor,Grass,Mostly Sunny,74.0,41,2,SW
56274,2019092909,20190929092762,home,61.09,31.14,1.07,1.69,0.11,88.7,62.68,2560825,Joe Noteboom,70,2019,49,3,12:41:00,LA,2,4,TB,17,28,2552382,SINGLEBACK,"1 RB, 1 TE, 3 WR",6,"2 DL, 4 LB, 5 DB",right,2019-09-29T22:01:06.000Z,2019-09-29T22:01:05.000Z,6-5,321,06/19/1995,Texas Christian,T,LA,TB,4,Los Angeles Memorial Coliseum,"Los Angeles, Calif.",Outdoor,Grass,Mostly Sunny,74.0,41,2,SW
56275,2019092909,20190929092762,home,61.59,30.08,1.51,0.3,0.15,5.75,105.54,2560954,Brian Allen,55,2019,49,3,12:41:00,LA,2,4,TB,17,28,2552382,SINGLEBACK,"1 RB, 1 TE, 3 WR",6,"2 DL, 4 LB, 5 DB",right,2019-09-29T22:01:06.000Z,2019-09-29T22:01:05.000Z,6-2,302,10/11/1995,Michigan State,C,LA,TB,4,Los Angeles Memorial Coliseum,"Los Angeles, Calif.",Outdoor,Grass,Mostly Sunny,74.0,41,2,SW
