,GameId,PlayId,Team,X,Y,S,A,Dis,Orientation,Dir,NflId,DisplayName,JerseyNumber,Season,YardLine,Quarter,GameClock,PossessionTeam,Down,Distance,FieldPosition,HomeScoreBeforePlay,VisitorScoreBeforePlay,NflIdRusher,OffenseFormation,OffensePersonnel,DefendersInTheBox,DefensePersonnel,PlayDirection,TimeHandoff,TimeSnap,PlayerHeight,PlayerWeight,PlayerBirthDate,PlayerCollegeName,Position,HomeTeamAbbr,VisitorTeamAbbr,Week,Stadium,Location,StadiumType,Turf,GameWeather,Temperature,Humidity,WindSpeed,WindDirection
65120,2019100603,20191006031433,away,41.4,29.05,2.46,0.99,0.25,333.4,16.34,2507716,Demar Dotson,69,2019,30,2,07:48:00,TB,1,10,NO,10,7,2560770,SINGLEBACK,"1 RB, 2 TE, 2 WR",7,"4 DL, 2 LB, 5 DB",left,2019-10-06T18:03:26.000Z,2019-10-06T18:03:25.000Z,6-9,315,10/11/1985,Southern Mississippi,OT,NO,TB,5,Mercedes-Benz Superdome,"New Orleans, LA",Indoors,UBU Speed Series-S5-M,Sunny,85.0,77,7,ENE
65121,2019100603,20191006031433,away,39.54,25.54,2.52,0.97,0.25,288.65,341.06,2541159,Ryan Jensen,66,2019,30,2,07:48:00,TB,1,10,NO,10,7,2560770,SINGLEBACK,"1 RB, 2 TE, 2 WR",7,"4 DL, 2 LB, 5 DB",left,2019-10-06T18:03:26.000Z,2019-10-06T18:03:25.000Z,6-4,319,05/27/1991,Colorado State-Pueblo,C,NO,TB,5,Mercedes-Benz Superdome,"New Orleans, LA",Indoors,UBU Speed Series-S5-M,Sunny,85.0,77,7,ENE
65122,2019100603,20191006031433,away,38.98,10.52,3.32,2.26,0.32,278.78,285.39,2543468,Mike Evans,13,2019,30,2,07:48:00,TB,1,10,NO,10,7,2560770,SINGLEBACK,"1 RB, 2 TE, 2 WR",7,"4 DL, 2 LB, 5 DB",left,2019-10-06T18:03:26.000Z,2019-10-06T18:03:25.000Z,6-5,231,08/21/1993,Texas A&M,WR,NO,TB,5,Mercedes-Benz Superdome,"New Orleans, LA",Indoors,UBU Speed Series-S5-M,Sunny,85.0,77,7,ENE
65123,2019100603,20191006031433,away,42.02,27.11,3.87,2.32,0.39,222.68,191.11,2550656,Cameron Brate,84,2019,30,2,07:48:00,TB,1,10,NO,10,7,2560770,SINGLEBACK,"1 RB, 2 TE, 2 WR",7,"4 DL, 2 LB, 5 DB",left,2019-10-06T18:03:26.000Z,2019-10-06T18:03:25.000Z,6-5,245,07/03/1991,Harvard,TE,NO,TB,5,Mercedes-Benz Superdome,"New Orleans, LA",Indoors,UBU Speed Series-S5-M,Sunny,85.0,77,7,ENE
65124,2019100603,20191006031433,away,43.93,24.63,4.05,0.97,0.4,23.18,74.93,2552033,Jameis Winston,3,2019,30,2,07:48:00,TB,1,10,NO,10,7,2560770,SINGLEBACK,"1 RB, 2 TE, 2 WR",7,"4 DL, 2 LB, 5 DB",left,2019-10-06T18:03:26.000Z,2019-10-06T18:03:25.000Z,6-4,231,01/06/1994,Florida State,QB,NO,TB,5,Mercedes-Benz Superdome,"New Orleans, LA",Indoors,UBU Speed Series-S5-M,Sunny,85.0,77,7,ENE
65125,2019100603,20191006031433,away,39.64,24.61,3.0,0.99,0.31,309.34,334.23,2552332,Ali Marpet,74,2019,30,2,07:48:00,TB,1,10,NO,10,7,2560770,SINGLEBACK,"1 RB, 2 TE, 2 WR",7,"4 DL, 2 LB, 5 DB",left,2019-10-06T18:03:26.000Z,2019-10-06T18:03:25.000Z,6-4,307,04/17/1993,Hobart,G,NO,TB,5,Mercedes-Benz Superdome,"New Orleans, LA",Indoors,UBU Speed Series-S5-M,Sunny,85.0,77,7,ENE
65126,2019100603,20191006031433,away,39.72,22.44,3.15,0.17,0.33,290.65,312.65,2552460,Donovan Smith,76,2019,30,2,07:48:00,TB,1,10,NO,10,7,2560770,SINGLEBACK,"1 RB, 2 TE, 2 WR",7,"4 DL, 2 LB, 5 DB",left,2019-10-06T18:03:26.000Z,2019-10-06T18:03:25.000Z,6-6,338,06/23/1993,Penn State,T,NO,TB,5,Mercedes-Benz Superdome,"New Orleans, LA",Indoors,UBU Speed Series-S5-M,Sunny,85.0,77,7,ENE
65127,2019100603,20191006031433,away,41.39,30.44,3.63,1.36,0.36,272.44,2.03,2557856,O.J. Howard,80,2019,30,2,07:48:00,TB,1,10,NO,10,7,2560770,SINGLEBACK,"1 RB, 2 TE, 2 WR",7,"4 DL, 2 LB, 5 DB",left,2019-10-06T18:03:26.000Z,2019-10-06T18:03:25.000Z,6-6,250,11/18/1994,Alabama,TE,NO,TB,5,Mercedes-Benz Superdome,"New Orleans, LA",Indoors,UBU Speed Series-S5-M,Sunny,85.0,77,7,ENE
65128,2019100603,20191006031433,away,39.85,37.76,5.68,1.18,0.56,313.84,312.75,2558105,Chris Godwin,12,2019,30,2,07:48:00,TB,1,10,NO,10,7,2560770,SINGLEBACK,"1 RB, 2 TE, 2 WR",7,"4 DL, 2 LB, 5 DB",left,2019-10-06T18:03:26.000Z,2019-10-06T18:03:25.000Z,6-1,209,02/27/1996,Penn State,WR,NO,TB,5,Mercedes-Benz Superdome,"New Orleans, LA",Indoors,UBU Speed Series-S5-M,Sunny,85.0,77,7,ENE
65129,2019100603,20191006031433,away,44.51,25.01,3.84,2.66,0.37,274.97,292.6,2560770,Ronald Jones,27,2019,30,2,07:48:00,TB,1,10,NO,10,7,2560770,SINGLEBACK,"1 RB, 2 TE, 2 WR",7,"4 DL, 2 LB, 5 DB",left,2019-10-06T18:03:26.000Z,2019-10-06T18:03:25.000Z,5-11,208,08/03/1997,Southern California,RB,NO,TB,5,Mercedes-Benz Superdome,"New Orleans, LA",Indoors,UBU Speed Series-S5-M,Sunny,85.0,77,7,ENE
65130,2019100603,20191006031433,away,41.0,27.03,1.46,0.64,0.15,312.05,15.77,2560991,Alex Cappa,65,2019,30,2,07:48:00,TB,1,10,NO,10,7,2560770,SINGLEBACK,"1 RB, 2 TE, 2 WR",7,"4 DL, 2 LB, 5 DB",left,2019-10-06T18:03:26.000Z,2019-10-06T18:03:25.000Z,6-6,305,01/27/1995,Humboldt State,G,NO,TB,5,Mercedes-Benz Superdome,"New Orleans, LA",Indoors,UBU Speed Series-S5-M,Sunny,85.0,77,7,ENE
65131,2019100603,20191006031433,home,40.87,29.58,2.7,0.67,0.28,81.33,36.63,2495184,Cameron Jordan,94,2019,30,2,07:48:00,TB,1,10,NO,10,7,2560770,SINGLEBACK,"1 RB, 2 TE, 2 WR",7,"4 DL, 2 LB, 5 DB",left,2019-10-06T18:03:26.000Z,2019-10-06T18:03:25.000Z,6-4,287,07/10/1989,California,DE,NO,TB,5,Mercedes-Benz Superdome,"New Orleans, LA",Indoors,UBU Speed Series-S5-M,Sunny,85.0,77,7,ENE
65132,2019100603,20191006031433,home,36.44,28.78,2.65,0.48,0.27,89.29,18.94,2533008,Demario Davis,56,2019,30,2,07:48:00,TB,1,10,NO,10,7,2560770,SINGLEBACK,"1 RB, 2 TE, 2 WR",7,"4 DL, 2 LB, 5 DB",left,2019-10-06T18:03:26.000Z,2019-10-06T18:03:25.000Z,6-2,248,01/11/1989,Arkansas State,ILB,NO,TB,5,Mercedes-Benz Superdome,"New Orleans, LA",Indoors,UBU Speed Series-S5-M,Sunny,85.0,77,7,ENE
65133,2019100603,20191006031433,home,36.55,25.72,1.61,1.88,0.16,90.22,66.76,2539935,Kiko Alonso,54,2019,30,2,07:48:00,TB,1,10,NO,10,7,2560770,SINGLEBACK,"1 RB, 2 TE, 2 WR",7,"4 DL, 2 LB, 5 DB",left,2019-10-06T18:03:26.000Z,2019-10-06T18:03:25.000Z,6-3,239,08/14/1990,Oregon,OLB,NO,TB,5,Mercedes-Benz Superdome,"New Orleans, LA",Indoors,UBU Speed Series-S5-M,Sunny,85.0,77,7,ENE
65134,2019100603,20191006031433,home,39.07,24.9,2.55,1.39,0.27,56.95,342.42,2552483,Malcom Brown,90,2019,30,2,07:48:00,TB,1,10,NO,10,7,2560770,SINGLEBACK,"1 RB, 2 TE, 2 WR",7,"4 DL, 2 LB, 5 DB",left,2019-10-06T18:03:26.000Z,2019-10-06T18:03:25.000Z,6-2,320,02/02/1994,Texas,DT,NO,TB,5,Mercedes-Benz Superdome,"New Orleans, LA",Indoors,UBU Speed Series-S5-M,Sunny,85.0,77,7,ENE
65135,2019100603,20191006031433,home,33.18,39.56,3.12,1.04,0.31,115.75,316.67,2555277,Eli Apple,25,2019,30,2,07:48:00,TB,1,10,NO,10,7,2560770,SINGLEBACK,"1 RB, 2 TE, 2 WR",7,"4 DL, 2 LB, 5 DB",left,2019-10-06T18:03:26.000Z,2019-10-06T18:03:25.000Z,6-1,203,08/09/1995,Ohio State,CB,NO,TB,5,Mercedes-Benz Superdome,"New Orleans, LA",Indoors,UBU Speed Series-S5-M,Sunny,85.0,77,7,ENE
65136,2019100603,20191006031433,home,39.39,31.25,2.83,2.59,0.27,96.64,27.92,2555530,Vonn Bell,24,2019,30,2,07:48:00,TB,1,10,NO,10,7,2560770,SINGLEBACK,"1 RB, 2 TE, 2 WR",7,"4 DL, 2 LB, 5 DB",left,2019-10-06T18:03:26.000Z,2019-10-06T18:03:25.000Z,5-11,205,12/12/1994,Ohio State,FS,NO,TB,5,Mercedes-Benz Superdome,"New Orleans, LA",Indoors,UBU Speed Series-S5-M,Sunny,85.0,77,7,ENE
65137,2019100603,20191006031433,home,40.32,27.36,1.28,1.7,0.12,104.83,26.59,2556274,David Onyemata,93,2019,30,2,07:48:00,TB,1,10,NO,10,7,2560770,SINGLEBACK,"1 RB, 2 TE, 2 WR",7,"4 DL, 2 LB, 5 DB",left,2019-10-06T18:03:26.000Z,2019-10-06T18:03:25.000Z,6-4,300,11/13/1992,"Manitoba, Can.",DT,NO,TB,5,Mercedes-Benz Superdome,"New Orleans, LA",Indoors,UBU Speed Series-S5-M,Sunny,85.0,77,7,ENE
65138,2019100603,20191006031433,home,37.56,9.58,2.5,2.31,0.24,33.43,255.02,2558061,Marshon Lattimore,23,2019,30,2,07:48:00,TB,1,10,NO,10,7,2560770,SINGLEBACK,"1 RB, 2 TE, 2 WR",7,"4 DL, 2 LB, 5 DB",left,2019-10-06T18:03:26.000Z,2019-10-06T18:03:25.000Z,6-0,192,05/20/1996,Ohio State,CB,NO,TB,5,Mercedes-Benz Superdome,"New Orleans, LA",Indoors,UBU Speed Series-S5-M,Sunny,85.0,77,7,ENE
65139,2019100603,20191006031433,home,22.41,26.04,0.96,0.39,0.1,98.4,275.8,2558847,Marcus Williams,43,2019,30,2,07:48:00,TB,1,10,NO,10,7,2560770,SINGLEBACK,"1 RB, 2 TE, 2 WR",7,"4 DL, 2 LB, 5 DB",left,2019-10-06T18:03:26.000Z,2019-10-06T18:03:25.000Z,6-1,195,09/08/1996,Utah,FS,NO,TB,5,Mercedes-Benz Superdome,"New Orleans, LA",Indoors,UBU Speed Series-S5-M,Sunny,85.0,77,7,ENE
65140,2019100603,20191006031433,home,41.14,19.96,2.26,3.69,0.23,16.71,27.06,2561037,Marcus Davenport,92,2019,30,2,07:48:00,TB,1,10,NO,10,7,2560770,SINGLEBACK,"1 RB, 2 TE, 2 WR",7,"4 DL, 2 LB, 5 DB",left,2019-10-06T18:03:26.000Z,2019-10-06T18:03:25.000Z,6-6,265,09/04/1996,Texas-San Antonio,DE,NO,TB,5,Mercedes-Benz Superdome,"New Orleans, LA",Indoors,UBU Speed Series-S5-M,Sunny,85.0,77,7,ENE
65141,2019100603,20191006031433,home,35.83,22.29,2.31,1.45,0.23,70.14,22.2,2562588,Chauncey Gardner-Johnson,22,2019,30,2,07:48:00,TB,1,10,NO,10,7,2560770,SINGLEBACK,"1 RB, 2 TE, 2 WR",7,"4 DL, 2 LB, 5 DB",left,2019-10-06T18:03:26.000Z,2019-10-06T18:03:25.000Z,5-11,208,12/20/1997,Florida,DB,NO,TB,5,Mercedes-Benz Superdome,"New Orleans, LA",Indoors,UBU Speed Series-S5-M,Sunny,85.0,77,7,ENE
