,GameId,PlayId,Team,X,Y,S,A,Dis,Orientation,Dir,NflId,DisplayName,JerseyNumber,Season,YardLine,Quarter,GameClock,PossessionTeam,Down,Distance,FieldPosition,HomeScoreBeforePlay,VisitorScoreBeforePlay,NflIdRusher,OffenseFormation,OffensePersonnel,DefendersInTheBox,DefensePersonnel,PlayDirection,TimeHandoff,TimeSnap,PlayerHeight,PlayerWeight,PlayerBirthDate,PlayerCollegeName,Position,HomeTeamAbbr,VisitorTeamAbbr,Week,Stadium,Location,StadiumType,Turf,GameWeather,Temperature,Humidity,WindSpeed,WindDirection
55968,2019092909,20190929090571,away,18.09,22.84,2.45,0.32,0.24,105.51,6.69,2507716,Demar Dotson,69,2019,9,1,08:16:00,TB,1,10,TB,0,7,2560770,SINGLEBACK,"1 RB, 2 TE, 2 WR",8,"4 DL, 3 LB, 4 DB",right,2019-09-29T20:24:30.000Z,2019-09-29T20:24:29.000Z,6-9,315,10/11/1985,Southern Mississippi,OT,LA,TB,4,Los Angeles Memorial Coliseum,"Los Angeles, Calif.",Outdoor,Grass,Mostly Sunny,74.0,41,2,SW
55969,2019092909,20190929090571,away,19.97,24.96,2.75,2.37,0.27,358.02,10.67,2541159,Ryan Jensen,66,2019,9,1,08:16:00,TB,1,10,TB,0,7,2560770,SINGLEBACK,"1 RB, 2 TE, 2 WR",8,"4 DL, 3 LB, 4 DB",right,2019-09-29T20:24:30.000Z,2019-09-29T20:24:29.000Z,6-4,319,05/27/1991,Colorado State-Pueblo,C,LA,TB,4,Los Angeles Memorial Coliseum,"Los Angeles, Calif.",Outdoor,Grass,Mostly Sunny,74.0,41,2,SW
55970,2019092909,20190929090571,away,19.05,9.72,1.4,1.44,0.14,7.11,52.2,2543468,Mike Evans,13,2019,9,1,08:16:00,TB,1,10,TB,0,7,2560770,SINGLEBACK,"1 RB, 2 TE, 2 WR",8,"4 DL, 3 LB, 4 DB",right,2019-09-29T20:24:30.000Z,2019-09-29T20:24:29.000Z,6-5,231,08/21/1993,Texas A&M,WR,LA,TB,4,Los Angeles Memorial Coliseum,"Los Angeles, Calif.",Outdoor,Grass,Mostly Sunny,74.0,41,2,SW
55971,2019092909,20190929090571,away,14.65,24.52,4.21,2.61,0.42,321.93,274.11,2552033,Jameis Winston,3,2019,9,1,08:16:00,TB,1,10,TB,0,7,2560770,SINGLEBACK,"1 RB, 2 TE, 2 WR",8,"4 DL, 3 LB, 4 DB",right,2019-09-29T20:24:30.000Z,2019-09-29T20:24:29.000Z,6-4,231,01/06/1994,Florida State,QB,LA,TB,4,Los Angeles Memorial Coliseum,"Los Angeles, Calif.",Outdoor,Grass,Mostly Sunny,74.0,41,2,SW
55972,2019092909,20190929090571,away,18.79,27.26,2.19,0.66,0.22,57.49,34.74,2552332,Ali Marpet,74,2019,9,1,08:16:00,TB,1,10,TB,0,7,2560770,SINGLEBACK,"1 RB, 2 TE, 2 WR",8,"4 DL, 3 LB, 4 DB",right,2019-09-29T20:24:30.000Z,2019-09-29T20:24:29.000Z,6-4,307,04/17/1993,Hobart,G,LA,TB,4,Los Angeles Memorial Coliseum,"Los Angeles, Calif.",Outdoor,Grass,Mostly Sunny,74.0,41,2,SW
55973,2019092909,20190929090571,away,18.1,27.87,1.61,0.44,0.17,59.69,353.55,2552460,Donovan Smith,76,2019,9,1,08:16:00,TB,1,10,TB,0,7,2560770,SINGLEBACK,"1 RB, 2 TE, 2 WR",8,"4 DL, 3 LB, 4 DB",right,2019-09-29T20:24:30.000Z,2019-09-29T20:24:29.000Z,6-6,338,06/23/1993,Penn State,T,LA,TB,4,Los Angeles Memorial Coliseum,"Los Angeles, Calif.",Outdoor,Grass,Mostly Sunny,74.0,41,2,SW
55974,2019092909,20190929090571,away,17.95,29.64,3.27,0.72,0.32,101.68,21.11,2557856,O.J. Howard,80,2019,9,1,08:16:00,TB,1,10,TB,0,7,2560770,SINGLEBACK,"1 RB, 2 TE, 2 WR",8,"4 DL, 3 LB, 4 DB",right,2019-09-29T20:24:30.000Z,2019-09-29T20:24:29.000Z,6-6,250,11/18/1994,Alabama,TE,LA,TB,4,Los Angeles Memorial Coliseum,"Los Angeles, Calif.",Outdoor,Grass,Mostly Sunny,74.0,41,2,SW
55975,2019092909,20190929090571,away,20.1,29.47,2.25,2.72,0.22,81.74,62.3,2558105,Chris Godwin,12,2019,9,1,08:16:00,TB,1,10,TB,0,7,2560770,SINGLEBACK,"1 RB, 2 TE, 2 WR",8,"4 DL, 3 LB, 4 DB",right,2019-09-29T20:24:30.000Z,2019-09-29T20:24:29.000Z,6-1,209,02/27/1996,Penn State,WR,LA,TB,4,Los Angeles Memorial Coliseum,"Los Angeles, Calif.",Outdoor,Grass,Mostly Sunny,74.0,41,2,SW
55976,2019092909,20190929090571,away,17.64,25.72,0.74,2.69,0.09,128.32,167.33,2559044,Antony Auclair,82,2019,9,1,08:16:00,TB,1,10,TB,0,7,2560770,SINGLEBACK,"1 RB, 2 TE, 2 WR",8,"4 DL, 3 LB, 4 DB",right,2019-09-29T20:24:30.000Z,2019-09-29T20:24:29.000Z,6-6,256,05/28/1993,"Laval, Can.",TE,LA,TB,4,Los Angeles Memorial Coliseum,"Los Angeles, Calif.",Outdoor,Grass,Mostly Sunny,74.0,41,2,SW
55977,2019092909,20190929090571,away,14.89,25.61,5.38,1.24,0.53,66.55,61.4,2560770,Ronald Jones,27,2019,9,1,08:16:00,TB,1,10,TB,0,7,2560770,SINGLEBACK,"1 RB, 2 TE, 2 WR",8,"4 DL, 3 LB, 4 DB",right,2019-09-29T20:24:30.000Z,2019-09-29T20:24:29.000Z,5-11,208,08/03/1997,Southern California,RB,LA,TB,4,Los Angeles Memorial Coliseum,"Los Angeles, Calif.",Outdoor,Grass,Mostly Sunny,74.0,41,2,SW
55978,2019092909,20190929090571,away,19.13,23.28,1.24,0.83,0.12,138.7,32.91,2560991,Alex Cappa,65,2019,9,1,08:16:00,TB,1,10,TB,0,7,2560770,SINGLEBACK,"1 RB, 2 TE, 2 WR",8,"4 DL, 3 LB, 4 DB",right,2019-09-29T20:24:30.000Z,2019-09-29T20:24:29.000Z,6-6,305,01/27/1995,Humboldt State,G,LA,TB,4,Los Angeles Memorial Coliseum,"Los Angeles, Calif.",Outdoor,Grass,Mostly Sunny,74.0,41,2,SW
55979,2019092909,20190929090571,home,28.39,9.72,2.76,1.77,0.27,356.42,75.33,1302,Aqib Talib,21,2019,9,1,08:16:00,TB,1,10,TB,0,7,2560770,SINGLEBACK,"1 RB, 2 TE, 2 WR",8,"4 DL, 3 LB, 4 DB",right,2019-09-29T20:24:30.000Z,2019-09-29T20:24:29.000Z,6-1,209,02/13/1986,Kansas,CB,LA,TB,4,Los Angeles Memorial Coliseum,"Los Angeles, Calif.",Outdoor,Grass,Mostly Sunny,74.0,41,2,SW
55980,2019092909,20190929090571,home,18.88,30.65,0.94,3.31,0.09,218.59,339.22,80431,Clay Matthews,52,2019,9,1,08:16:00,TB,1,10,TB,0,7,2560770,SINGLEBACK,"1 RB, 2 TE, 2 WR",8,"4 DL, 3 LB, 4 DB",right,2019-09-29T20:24:30.000Z,2019-09-29T20:24:29.000Z,6-3,255,05/14/1986,Southern California,OLB,LA,TB,4,Los Angeles Memorial Coliseum,"Los Angeles, Calif.",Outdoor,Grass,Mostly Sunny,74.0,41,2,SW
55981,2019092909,20190929090571,home,21.92,21.5,2.67,2.28,0.26,303.27,337.56,2495775,Eric Weddle,32,2019,9,1,08:16:00,TB,1,10,TB,0,7,2560770,SINGLEBACK,"1 RB, 2 TE, 2 WR",8,"4 DL, 3 LB, 4 DB",right,2019-09-29T20:24:30.000Z,2019-09-29T20:24:29.000Z,5-11,195,01/04/1985,Utah,FS,LA,TB,4,Los Angeles Memorial Coliseum,"Los Angeles, Calif.",Outdoor,Grass,Mostly Sunny,74.0,41,2,SW
55982,2019092909,20190929090571,home,18.86,28.31,2.12,0.98,0.21,289.24,346.54,2533050,Michael Brockers,90,2019,9,1,08:16:00,TB,1,10,TB,0,7,2560770,SINGLEBACK,"1 RB, 2 TE, 2 WR",8,"4 DL, 3 LB, 4 DB",right,2019-09-29T20:24:30.000Z,2019-09-29T20:24:29.000Z,6-5,305,12/21/1990,Louisiana State,DT,LA,TB,4,Los Angeles Memorial Coliseum,"Los Angeles, Calif.",Outdoor,Grass,Mostly Sunny,74.0,41,2,SW
55983,2019092909,20190929090571,home,19.12,22.4,1.18,1.78,0.14,305.0,254.55,2543485,Aaron Donald,99,2019,9,1,08:16:00,TB,1,10,TB,0,7,2560770,SINGLEBACK,"1 RB, 2 TE, 2 WR",8,"4 DL, 3 LB, 4 DB",right,2019-09-29T20:24:30.000Z,2019-09-29T20:24:29.000Z,6-1,280,05/23/1991,Pittsburgh,DT,LA,TB,4,Los Angeles Memorial Coliseum,"Los Angeles, Calif.",Outdoor,Grass,Mostly Sunny,74.0,41,2,SW
55984,2019092909,20190929090571,home,21.66,29.2,2.44,1.32,0.24,263.8,349.87,2552307,Bryce Hager,54,2019,9,1,08:16:00,TB,1,10,TB,0,7,2560770,SINGLEBACK,"1 RB, 2 TE, 2 WR",8,"4 DL, 3 LB, 4 DB",right,2019-09-29T20:24:30.000Z,2019-09-29T20:24:29.000Z,6-1,237,05/04/1992,Baylor,ILB,LA,TB,4,Los Angeles Memorial Coliseum,"Los Angeles, Calif.",Outdoor,Grass,Mostly Sunny,74.0,41,2,SW
55985,2019092909,20190929090571,home,24.15,33.14,1.23,1.36,0.12,215.28,264.19,2552488,Marcus Peters,22,2019,9,1,08:16:00,TB,1,10,TB,0,7,2560770,SINGLEBACK,"1 RB, 2 TE, 2 WR",8,"4 DL, 3 LB, 4 DB",right,2019-09-29T20:24:30.000Z,2019-09-29T20:24:29.000Z,6-0,197,01/09/1993,Washington,CB,LA,TB,4,Los Angeles Memorial Coliseum,"Los Angeles, Calif.",Outdoor,Grass,Mostly Sunny,74.0,41,2,SW
55986,2019092909,20190929090571,home,18.62,22.93,2.96,2.28,0.31,336.79,359.92,2553431,Dante Fowler,56,2019,9,1,08:16:00,TB,1,10,TB,0,7,2560770,SINGLEBACK,"1 RB, 2 TE, 2 WR",8,"4 DL, 3 LB, 4 DB",right,2019-09-29T20:24:30.000Z,2019-09-29T20:24:29.000Z,6-3,255,08/03/1994,Florida,OLB,LA,TB,4,Los Angeles Memorial Coliseum,"Los Angeles, Calif.",Outdoor,Grass,Mostly Sunny,74.0,41,2,SW
55987,2019092909,20190929090571,home,20.91,26.19,2.86,0.63,0.29,270.86,316.68,2556593,Cory Littleton,58,2019,9,1,08:16:00,TB,1,10,TB,0,7,2560770,SINGLEBACK,"1 RB, 2 TE, 2 WR",8,"4 DL, 3 LB, 4 DB",right,2019-09-29T20:24:30.000Z,2019-09-29T20:24:29.000Z,6-3,228,11/18/1993,Washington,ILB,LA,TB,4,Los Angeles Memorial Coliseum,"Los Angeles, Calif.",Outdoor,Grass,Mostly Sunny,74.0,41,2,SW
55988,2019092909,20190929090571,home,30.77,26.99,0.38,2.19,0.04,252.97,62.44,2558183,John Johnson,43,2019,9,1,08:16:00,TB,1,10,TB,0,7,2560770,SINGLEBACK,"1 RB, 2 TE, 2 WR",8,"4 DL, 3 LB, 4 DB",right,2019-09-29T20:24:30.000Z,2019-09-29T20:24:29.000Z,6-0,209,12/19/1995,Boston College,SS,LA,TB,4,Los Angeles Memorial Coliseum,"Los Angeles, Calif.",Outdoor,Grass,Mostly Sunny,74.0,41,2,SW
55989,2019092909,20190929090571,home,17.95,25.38,1.11,2.57,0.12,299.29,309.06,2561079,Sebastian Joseph-Day,69,2019,9,1,08:16:00,TB,1,10,TB,0,7,2560770,SINGLEBACK,"1 RB, 2 TE, 2 WR",8,"4 DL, 3 LB, 4 DB",right,2019-09-29T20:24:30.000Z,2019-09-29T20:24:29.000Z,6-4,310,03/21/1995,Rutgers,DT,LA,TB,4,Los Angeles Memorial Coliseum,"Los Angeles, Calif.",Outdoor,Grass,Mostly Sunny,74.0,41,2,SW
