,GameId,PlayId,Team,X,Y,S,A,Dis,Orientation,Dir,NflId,DisplayName,JerseyNumber,Season,YardLine,Quarter,GameClock,PossessionTeam,Down,Distance,FieldPosition,HomeScoreBeforePlay,VisitorScoreBeforePlay,NflIdRusher,OffenseFormation,OffensePersonnel,DefendersInTheBox,DefensePersonnel,PlayDirection,TimeHandoff,TimeSnap,PlayerHeight,PlayerWeight,PlayerBirthDate,PlayerCollegeName,Position,HomeTeamAbbr,VisitorTeamAbbr,Week,Stadium,Location,StadiumType,Turf,GameWeather,Temperature,Humidity,WindSpeed,WindDirection
62986,2019100601,20191006011111,away,36.74,30.93,3.09,1.91,0.31,232.65,179.03,2505660,Terrell Suggs,56,2019,27,2,12:56:00,CIN,1,10,CIN,3,7,2557976,SHOTGUN,"1 RB, 1 TE, 3 WR",6,"2 DL, 4 LB, 5 DB",right,2019-10-06T17:44:02.000Z,2019-10-06T17:44:01.000Z,6-3,265,10/11/1982,Arizona State,OLB,CIN,ARI,5,Paul Brown Stadium,"Cincinnati, OH",Outdoor,Twenty Four/Seven Turf,Cloudy,76.0,68,"6 mph, Gusts to 10",SW
62987,2019100601,20191006011111,away,38.8,23.59,0.23,1.37,0.03,269.1,318.63,2507917,Tramaine Brock,20,2019,27,2,12:56:00,CIN,1,10,CIN,3,7,2557976,SHOTGUN,"1 RB, 1 TE, 3 WR",6,"2 DL, 4 LB, 5 DB",right,2019-10-06T17:44:02.000Z,2019-10-06T17:44:01.000Z,6-0,188,08/20/1988,Belhaven,CB,CIN,ARI,5,Paul Brown Stadium,"Cincinnati, OH",Outdoor,Twenty Four/Seven Turf,Cloudy,76.0,68,"6 mph, Gusts to 10",SW
62988,2019100601,20191006011111,away,38.02,24.55,0.36,0.42,0.04,270.57,87.61,2533538,Chandler Jones,55,2019,27,2,12:56:00,CIN,1,10,CIN,3,7,2557976,SHOTGUN,"1 RB, 1 TE, 3 WR",6,"2 DL, 4 LB, 5 DB",right,2019-10-06T17:44:02.000Z,2019-10-06T17:44:01.000Z,6-5,265,02/27/1990,Syracuse,OLB,CIN,ARI,5,Paul Brown Stadium,"Cincinnati, OH",Outdoor,Twenty Four/Seven Turf,Cloudy,76.0,68,"6 mph, Gusts to 10",SW
62989,2019100601,20191006011111,away,36.92,26.17,2.79,0.87,0.29,238.17,195.67,2550575,Zach Kerr,92,2019,27,2,12:56:00,CIN,1,10,CIN,3,7,2557976,SHOTGUN,"1 RB, 1 TE, 3 WR",6,"2 DL, 4 LB, 5 DB",right,2019-10-06T17:44:02.000Z,2019-10-06T17:44:01.000Z,6-2,334,08/29/1990,Delaware,NT,CIN,ARI,5,Paul Brown Stadium,"Cincinnati, OH",Outdoor,Twenty Four/Seven Turf,Cloudy,76.0,68,"6 mph, Gusts to 10",SW
62990,2019100601,20191006011111,away,38.46,30.71,3.22,0.61,0.32,249.44,243.53,2552315,Jordan Hicks,58,2019,27,2,12:56:00,CIN,1,10,CIN,3,7,2557976,SHOTGUN,"1 RB, 1 TE, 3 WR",6,"2 DL, 4 LB, 5 DB",right,2019-10-06T17:44:02.000Z,2019-10-06T17:44:01.000Z,6-1,236,06/27/1992,Texas,MLB,CIN,ARI,5,Paul Brown Stadium,"Cincinnati, OH",Outdoor,Twenty Four/Seven Turf,Cloudy,76.0,68,"6 mph, Gusts to 10",SW
62991,2019100601,20191006011111,away,36.95,29.07,3.21,0.53,0.33,263.71,189.18,2553437,Rodney Gunter,95,2019,27,2,12:56:00,CIN,1,10,CIN,3,7,2557976,SHOTGUN,"1 RB, 1 TE, 3 WR",6,"2 DL, 4 LB, 5 DB",right,2019-10-06T17:44:02.000Z,2019-10-06T17:44:01.000Z,6-5,305,01/19/1992,Delaware State,DT,CIN,ARI,5,Paul Brown Stadium,"Cincinnati, OH",Outdoor,Twenty Four/Seven Turf,Cloudy,76.0,68,"6 mph, Gusts to 10",SW
62992,2019100601,20191006011111,away,41.9,41.02,1.56,2.13,0.17,215.84,2.75,2556764,Kevin Peterson,27,2019,27,2,12:56:00,CIN,1,10,CIN,3,7,2557976,SHOTGUN,"1 RB, 1 TE, 3 WR",6,"2 DL, 4 LB, 5 DB",right,2019-10-06T17:44:02.000Z,2019-10-06T17:44:01.000Z,5-11,185,03/22/1994,Oklahoma State,CB,CIN,ARI,5,Paul Brown Stadium,"Cincinnati, OH",Outdoor,Twenty Four/Seven Turf,Cloudy,76.0,68,"6 mph, Gusts to 10",SW
62993,2019100601,20191006011111,away,39.92,28.03,2.51,0.97,0.24,261.73,219.92,2557887,Haason Reddick,43,2019,27,2,12:56:00,CIN,1,10,CIN,3,7,2557976,SHOTGUN,"1 RB, 1 TE, 3 WR",6,"2 DL, 4 LB, 5 DB",right,2019-10-06T17:44:02.000Z,2019-10-06T17:44:01.000Z,6-1,235,09/22/1994,Temple,ILB,CIN,ARI,5,Paul Brown Stadium,"Cincinnati, OH",Outdoor,Twenty Four/Seven Turf,Cloudy,76.0,68,"6 mph, Gusts to 10",SW
62994,2019100601,20191006011111,away,50.44,28.9,1.46,1.9,0.16,264.99,64.53,2558009,Budda Baker,32,2019,27,2,12:56:00,CIN,1,10,CIN,3,7,2557976,SHOTGUN,"1 RB, 1 TE, 3 WR",6,"2 DL, 4 LB, 5 DB",right,2019-10-06T17:44:02.000Z,2019-10-06T17:44:01.000Z,5-10,195,01/10/1996,Washington,FS,CIN,ARI,5,Paul Brown Stadium,"Cincinnati, OH",Outdoor,Twenty Four/Seven Turf,Cloudy,76.0,68,"6 mph, Gusts to 10",SW
62995,2019100601,20191006011111,away,44.79,20.31,1.41,0.25,0.14,329.65,75.36,2562318,Byron Murphy,33,2019,27,2,12:56:00,CIN,1,10,CIN,3,7,2557976,SHOTGUN,"1 RB, 1 TE, 3 WR",6,"2 DL, 4 LB, 5 DB",right,2019-10-06T17:44:02.000Z,2019-10-06T17:44:01.000Z,5-11,190,01/18/1998,Washington,DB,CIN,ARI,5,Paul Brown Stadium,"Cincinnati, OH",Outdoor,Twenty Four/Seven Turf,Cloudy,76.0,68,"6 mph, Gusts to 10",SW
62996,2019100601,20191006011111,away,35.96,35.31,4.27,3.35,0.42,219.06,222.42,2562760,Deionte Thompson,35,2019,27,2,12:56:00,CIN,1,10,CIN,3,7,2557976,SHOTGUN,"1 RB, 1 TE, 3 WR",6,"2 DL, 4 LB, 5 DB",right,2019-10-06T17:44:02.000Z,2019-10-06T17:44:01.000Z,6-1,196,02/11/1997,Alabama,S,CIN,ARI,5,Paul Brown Stadium,"Cincinnati, OH",Outdoor,Twenty Four/Seven Turf,Cloudy,76.0,68,"6 mph, Gusts to 10",SW
62997,2019100601,20191006011111,home,36.16,30.69,3.06,0.29,0.31,128.31,160.97,71465,Andre Smith,71,2019,27,2,12:56:00,CIN,1,10,CIN,3,7,2557976,SHOTGUN,"1 RB, 1 TE, 3 WR",6,"2 DL, 4 LB, 5 DB",right,2019-10-06T17:44:02.000Z,2019-10-06T17:44:01.000Z,6-4,330,01/25/1987,Alabama,T,CIN,ARI,5,Paul Brown Stadium,"Cincinnati, OH",Outdoor,Twenty Four/Seven Turf,Cloudy,76.0,68,"6 mph, Gusts to 10",SW
62998,2019100601,20191006011111,home,31.95,29.76,0.42,1.23,0.04,107.19,246.44,2495143,Andy Dalton,14,2019,27,2,12:56:00,CIN,1,10,CIN,3,7,2557976,SHOTGUN,"1 RB, 1 TE, 3 WR",6,"2 DL, 4 LB, 5 DB",right,2019-10-06T17:44:02.000Z,2019-10-06T17:44:01.000Z,6-2,220,10/29/1987,Texas Christian,QB,CIN,ARI,5,Paul Brown Stadium,"Cincinnati, OH",Outdoor,Twenty Four/Seven Turf,Cloudy,76.0,68,"6 mph, Gusts to 10",SW
62999,2019100601,20191006011111,home,37.23,27.8,2.88,1.38,0.29,98.76,140.04,2550208,Trey Hopkins,66,2019,27,2,12:56:00,CIN,1,10,CIN,3,7,2557976,SHOTGUN,"1 RB, 1 TE, 3 WR",6,"2 DL, 4 LB, 5 DB",right,2019-10-06T17:44:02.000Z,2019-10-06T17:44:01.000Z,6-3,316,07/06/1992,Texas,G,CIN,ARI,5,Paul Brown Stadium,"Cincinnati, OH",Outdoor,Twenty Four/Seven Turf,Cloudy,76.0,68,"6 mph, Gusts to 10",SW
63000,2019100601,20191006011111,home,36.26,25.48,2.72,2.65,0.26,97.67,148.52,2552335,Bobby Hart,68,2019,27,2,12:56:00,CIN,1,10,CIN,3,7,2557976,SHOTGUN,"1 RB, 1 TE, 3 WR",6,"2 DL, 4 LB, 5 DB",right,2019-10-06T17:44:02.000Z,2019-10-06T17:44:01.000Z,6-5,310,08/21/1994,Florida State,OT,CIN,ARI,5,Paul Brown Stadium,"Cincinnati, OH",Outdoor,Twenty Four/Seven Turf,Cloudy,76.0,68,"6 mph, Gusts to 10",SW
63001,2019100601,20191006011111,home,35.88,31.86,3.8,0.69,0.38,107.53,167.01,2552559,C.J. Uzomah,87,2019,27,2,12:56:00,CIN,1,10,CIN,3,7,2557976,SHOTGUN,"1 RB, 1 TE, 3 WR",6,"2 DL, 4 LB, 5 DB",right,2019-10-06T17:44:02.000Z,2019-10-06T17:44:01.000Z,6-6,260,01/14/1993,Auburn,TE,CIN,ARI,5,Paul Brown Stadium,"Cincinnati, OH",Outdoor,Twenty Four/Seven Turf,Cloudy,76.0,68,"6 mph, Gusts to 10",SW
63002,2019100601,20191006011111,home,36.68,26.84,2.03,1.8,0.2,153.49,167.16,2553436,John Miller,67,2019,27,2,12:56:00,CIN,1,10,CIN,3,7,2557976,SHOTGUN,"1 RB, 1 TE, 3 WR",6,"2 DL, 4 LB, 5 DB",right,2019-10-06T17:44:02.000Z,2019-10-06T17:44:01.000Z,6-3,315,08/12/1993,Louisville,G,CIN,ARI,5,Paul Brown Stadium,"Cincinnati, OH",Outdoor,Twenty Four/Seven Turf,Cloudy,76.0,68,"6 mph, Gusts to 10",SW
63003,2019100601,20191006011111,home,34.84,38.1,6.5,2.46,0.66,46.1,11.49,2555466,Tyler Boyd,83,2019,27,2,12:56:00,CIN,1,10,CIN,3,7,2557976,SHOTGUN,"1 RB, 1 TE, 3 WR",6,"2 DL, 4 LB, 5 DB",right,2019-10-06T17:44:02.000Z,2019-10-06T17:44:01.000Z,6-2,203,11/15/1994,Pittsburgh,WR,CIN,ARI,5,Paul Brown Stadium,"Cincinnati, OH",Outdoor,Twenty Four/Seven Turf,Cloudy,76.0,68,"6 mph, Gusts to 10",SW
63004,2019100601,20191006011111,home,37.63,24.06,1.37,2.43,0.16,94.79,70.86,2556519,Alex Erickson,12,2019,27,2,12:56:00,CIN,1,10,CIN,3,7,2557976,SHOTGUN,"1 RB, 1 TE, 3 WR",6,"2 DL, 4 LB, 5 DB",right,2019-10-06T17:44:02.000Z,2019-10-06T17:44:01.000Z,6-0,195,11/06/1992,Wisconsin,WR,CIN,ARI,5,Paul Brown Stadium,"Cincinnati, OH",Outdoor,Twenty Four/Seven Turf,Cloudy,76.0,68,"6 mph, Gusts to 10",SW
63005,2019100601,20191006011111,home,32.53,30.44,3.89,2.7,0.38,91.73,147.8,2557976,Joe Mixon,28,2019,27,2,12:56:00,CIN,1,10,CIN,3,7,2557976,SHOTGUN,"1 RB, 1 TE, 3 WR",6,"2 DL, 4 LB, 5 DB",right,2019-10-06T17:44:02.000Z,2019-10-06T17:44:01.000Z,6-1,220,07/24/1996,Oklahoma,HB,CIN,ARI,5,Paul Brown Stadium,"Cincinnati, OH",Outdoor,Twenty Four/Seven Turf,Cloudy,76.0,68,"6 mph, Gusts to 10",SW
63006,2019100601,20191006011111,home,32.17,23.84,5.19,3.77,0.5,333.5,316.37,2560890,Auden Tate,19,2019,27,2,12:56:00,CIN,1,10,CIN,3,7,2557976,SHOTGUN,"1 RB, 1 TE, 3 WR",6,"2 DL, 4 LB, 5 DB",right,2019-10-06T17:44:02.000Z,2019-10-06T17:44:01.000Z,6-5,228,02/03/1997,Florida State,WR,CIN,ARI,5,Paul Brown Stadium,"Cincinnati, OH",Outdoor,Twenty Four/Seven Turf,Cloudy,76.0,68,"6 mph, Gusts to 10",SW
63007,2019100601,20191006011111,home,36.59,29.63,2.68,1.62,0.26,142.85,171.52,2562679,Mike Jordan,60,2019,27,2,12:56:00,CIN,1,10,CIN,3,7,2557976,SHOTGUN,"1 RB, 1 TE, 3 WR",6,"2 DL, 4 LB, 5 DB",right,2019-10-06T17:44:02.000Z,2019-10-06T17:44:01.000Z,6-6,315,01/25/1998,Ohio State,OG,CIN,ARI,5,Paul Brown Stadium,"Cincinnati, OH",Outdoor,Twenty Four/Seven Turf,Cloudy,76.0,68,"6 mph, Gusts to 10",SW
