,GameId,PlayId,Team,X,Y,S,A,Dis,Orientation,Dir,NflId,DisplayName,JerseyNumber,Season,YardLine,Quarter,GameClock,PossessionTeam,Down,Distance,FieldPosition,HomeScoreBeforePlay,VisitorScoreBeforePlay,NflIdRusher,OffenseFormation,OffensePersonnel,DefendersInTheBox,DefensePersonnel,PlayDirection,TimeHandoff,TimeSnap,PlayerHeight,PlayerWeight,PlayerBirthDate,PlayerCollegeName,Position,HomeTeamAbbr,VisitorTeamAbbr,Week,Stadium,Location,StadiumType,Turf,GameWeather,Temperature,Humidity,WindSpeed,WindDirection
55176,2019092908,20190929081391,away,70.2,30.23,0.22,0.52,0.02,242.22,356.28,496881,Al Woods,72,2019,40,2,08:19:00,ARZ,2,18,SEA,3,17,2560711,PISTOL,"2 RB, 0 TE, 3 WR",6,"4 DL, 3 LB, 4 DB",right,2019-09-29T20:58:05.000Z,2019-09-29T20:58:04.000Z,6-4,330,03/25/1987,Louisiana State,DT,ARI,SEA,4,State Farm Stadium,"Glendale, AZ",Dome,Grass,N/A Indoors,,0,,
55177,2019092908,20190929081391,away,71.98,33.45,2.06,0.74,0.21,276.17,291.58,2495252,K.J. Wright,50,2019,40,2,08:19:00,ARZ,2,18,SEA,3,17,2560711,PISTOL,"2 RB, 0 TE, 3 WR",6,"4 DL, 3 LB, 4 DB",right,2019-09-29T20:58:05.000Z,2019-09-29T20:58:04.000Z,6-4,246,07/23/1989,Mississippi State,OLB,ARI,SEA,4,State Farm Stadium,"Glendale, AZ",Dome,Grass,N/A Indoors,,0,,
55178,2019092908,20190929081391,away,72.66,16.67,0.9,2.27,0.09,309.14,148.08,2532890,Mychal Kendricks,56,2019,40,2,08:19:00,ARZ,2,18,SEA,3,17,2560711,PISTOL,"2 RB, 0 TE, 3 WR",6,"4 DL, 3 LB, 4 DB",right,2019-09-29T20:58:05.000Z,2019-09-29T20:58:04.000Z,5-11,240,09/28/1990,California,OLB,ARI,SEA,4,State Farm Stadium,"Glendale, AZ",Dome,Grass,N/A Indoors,,0,,
55179,2019092908,20190929081391,away,73.57,27.65,1.3,2.62,0.11,279.7,326.09,2532966,Bobby Wagner,54,2019,40,2,08:19:00,ARZ,2,18,SEA,3,17,2560711,PISTOL,"2 RB, 0 TE, 3 WR",6,"4 DL, 3 LB, 4 DB",right,2019-09-29T20:58:05.000Z,2019-09-29T20:58:04.000Z,6-0,242,06/27/1990,Utah State,MLB,ARI,SEA,4,State Farm Stadium,"Glendale, AZ",Dome,Grass,N/A Indoors,,0,,
55180,2019092908,20190929081391,away,86.18,20.9,2.24,0.95,0.22,271.1,114.07,2539243,Bradley McDougald,30,2019,40,2,08:19:00,ARZ,2,18,SEA,3,17,2560711,PISTOL,"2 RB, 0 TE, 3 WR",6,"4 DL, 3 LB, 4 DB",right,2019-09-29T20:58:05.000Z,2019-09-29T20:58:04.000Z,6-1,215,11/15/1990,Kansas,SS,ARI,SEA,4,State Farm Stadium,"Glendale, AZ",Dome,Grass,N/A Indoors,,0,,
55181,2019092908,20190929081391,away,70.78,34.57,1.1,2.01,0.14,226.85,76.69,2539931,Ezekiel Ansah,94,2019,40,2,08:19:00,ARZ,2,18,SEA,3,17,2560711,PISTOL,"2 RB, 0 TE, 3 WR",6,"4 DL, 3 LB, 4 DB",right,2019-09-29T20:58:05.000Z,2019-09-29T20:58:04.000Z,6-5,275,05/29/1989,Brigham Young,DE,ARI,SEA,4,State Farm Stadium,"Glendale, AZ",Dome,Grass,N/A Indoors,,0,,
55182,2019092908,20190929081391,away,68.58,26.26,0.76,2.62,0.07,331.62,207.96,2556880,Branden Jackson,93,2019,40,2,08:19:00,ARZ,2,18,SEA,3,17,2560711,PISTOL,"2 RB, 0 TE, 3 WR",6,"4 DL, 3 LB, 4 DB",right,2019-09-29T20:58:05.000Z,2019-09-29T20:58:04.000Z,6-4,295,11/11/1992,Texas Tech,DE,ARI,SEA,4,State Farm Stadium,"Glendale, AZ",Dome,Grass,N/A Indoors,,0,,
55183,2019092908,20190929081391,away,82.23,33.66,2.86,0.91,0.29,284.87,84.88,2558077,Lano Hill,42,2019,40,2,08:19:00,ARZ,2,18,SEA,3,17,2560711,PISTOL,"2 RB, 0 TE, 3 WR",6,"4 DL, 3 LB, 4 DB",right,2019-09-29T20:58:05.000Z,2019-09-29T20:58:04.000Z,6-1,216,11/26/1995,Michigan,SS,ARI,SEA,4,State Farm Stadium,"Glendale, AZ",Dome,Grass,N/A Indoors,,0,,
55184,2019092908,20190929081391,away,76.68,8.21,4.86,0.89,0.48,43.85,101.33,2558259,Shaquill Griffin,26,2019,40,2,08:19:00,ARZ,2,18,SEA,3,17,2560711,PISTOL,"2 RB, 0 TE, 3 WR",6,"4 DL, 3 LB, 4 DB",right,2019-09-29T20:58:05.000Z,2019-09-29T20:58:04.000Z,6-0,198,07/20/1995,Central Florida,CB,ARI,SEA,4,State Farm Stadium,"Glendale, AZ",Dome,Grass,N/A Indoors,,0,,
55185,2019092908,20190929081391,away,77.34,44.57,3.94,1.29,0.4,187.59,86.82,2560728,Tre Flowers,21,2019,40,2,08:19:00,ARZ,2,18,SEA,3,17,2560711,PISTOL,"2 RB, 0 TE, 3 WR",6,"4 DL, 3 LB, 4 DB",right,2019-09-29T20:58:05.000Z,2019-09-29T20:58:04.000Z,6-3,203,06/02/1995,Oklahoma State,CB,ARI,SEA,4,State Farm Stadium,"Glendale, AZ",Dome,Grass,N/A Indoors,,0,,
55186,2019092908,20190929081391,away,66.81,25.16,3.08,0.77,0.33,312.05,267.03,2560998,Rasheem Green,98,2019,40,2,08:19:00,ARZ,2,18,SEA,3,17,2560711,PISTOL,"2 RB, 0 TE, 3 WR",6,"4 DL, 3 LB, 4 DB",right,2019-09-29T20:58:05.000Z,2019-09-29T20:58:04.000Z,6-4,279,05/15/1997,Southern California,DE,ARI,SEA,4,State Farm Stadium,"Glendale, AZ",Dome,Grass,N/A Indoors,,0,,
55187,2019092908,20190929081391,home,70.74,28.87,2.19,1.11,0.23,100.63,116.71,71461,A.Q. Shipley,53,2019,40,2,08:19:00,ARZ,2,18,SEA,3,17,2560711,PISTOL,"2 RB, 0 TE, 3 WR",6,"4 DL, 3 LB, 4 DB",right,2019-09-29T20:58:05.000Z,2019-09-29T20:58:04.000Z,6-1,307,05/22/1986,Penn State,C,ARI,SEA,4,State Farm Stadium,"Glendale, AZ",Dome,Grass,N/A Indoors,,0,,
55188,2019092908,20190929081391,home,71.56,15.77,5.09,3.19,0.5,110.81,120.02,2506106,Larry Fitzgerald,11,2019,40,2,08:19:00,ARZ,2,18,SEA,3,17,2560711,PISTOL,"2 RB, 0 TE, 3 WR",6,"4 DL, 3 LB, 4 DB",right,2019-09-29T20:58:05.000Z,2019-09-29T20:58:04.000Z,6-3,218,08/31/1983,Pittsburgh,WR,ARI,SEA,4,State Farm Stadium,"Glendale, AZ",Dome,Grass,N/A Indoors,,0,,
55189,2019092908,20190929081391,home,68.45,26.85,0.88,1.79,0.08,190.64,191.45,2533342,J.R. Sweezy,64,2019,40,2,08:19:00,ARZ,2,18,SEA,3,17,2560711,PISTOL,"2 RB, 0 TE, 3 WR",6,"4 DL, 3 LB, 4 DB",right,2019-09-29T20:58:05.000Z,2019-09-29T20:58:04.000Z,6-5,310,04/08/1989,North Carolina State,G,ARI,SEA,4,State Farm Stadium,"Glendale, AZ",Dome,Grass,N/A Indoors,,0,,
55190,2019092908,20190929081391,home,69.56,30.01,0.15,1.45,0.01,67.53,299.93,2540195,Justin Pugh,67,2019,40,2,08:19:00,ARZ,2,18,SEA,3,17,2560711,PISTOL,"2 RB, 0 TE, 3 WR",6,"4 DL, 3 LB, 4 DB",right,2019-09-29T20:58:05.000Z,2019-09-29T20:58:04.000Z,6-5,311,08/15/1990,Syracuse,G,ARI,SEA,4,State Farm Stadium,"Glendale, AZ",Dome,Grass,N/A Indoors,,0,,
55191,2019092908,20190929081391,home,66.67,25.94,1.65,0.47,0.17,159.14,264.48,2540229,Jordan Mills,79,2019,40,2,08:19:00,ARZ,2,18,SEA,3,17,2560711,PISTOL,"2 RB, 0 TE, 3 WR",6,"4 DL, 3 LB, 4 DB",right,2019-09-29T20:58:05.000Z,2019-09-29T20:58:04.000Z,6-5,316,12/24/1990,Louisiana Tech,T,ARI,SEA,4,State Farm Stadium,"Glendale, AZ",Dome,Grass,N/A Indoors,,0,,
55192,2019092908,20190929081391,home,69.75,34.06,2.0,0.14,0.2,93.65,69.97,2552626,D.J. Humphries,74,2019,40,2,08:19:00,ARZ,2,18,SEA,3,17,2560711,PISTOL,"2 RB, 0 TE, 3 WR",6,"4 DL, 3 LB, 4 DB",right,2019-09-29T20:58:05.000Z,2019-09-29T20:58:04.000Z,6-5,307,12/28/1993,Florida,OT,ARI,SEA,4,State Farm Stadium,"Glendale, AZ",Dome,Grass,N/A Indoors,,0,,
55193,2019092908,20190929081391,home,67.18,30.91,4.41,1.55,0.43,66.76,46.12,2553435,David Johnson,31,2019,40,2,08:19:00,ARZ,2,18,SEA,3,17,2560711,PISTOL,"2 RB, 0 TE, 3 WR",6,"4 DL, 3 LB, 4 DB",right,2019-09-29T20:58:05.000Z,2019-09-29T20:58:04.000Z,6-1,224,12/16/1991,Northern Iowa,RB,ARI,SEA,4,State Farm Stadium,"Glendale, AZ",Dome,Grass,N/A Indoors,,0,,
55194,2019092908,20190929081391,home,63.44,30.76,3.23,3.49,0.3,64.04,76.24,2560711,Chase Edmonds,29,2019,40,2,08:19:00,ARZ,2,18,SEA,3,17,2560711,PISTOL,"2 RB, 0 TE, 3 WR",6,"4 DL, 3 LB, 4 DB",right,2019-09-29T20:58:05.000Z,2019-09-29T20:58:04.000Z,5-9,210,04/13/1996,Fordham,RB,ARI,SEA,4,State Farm Stadium,"Glendale, AZ",Dome,Grass,N/A Indoors,,0,,
55195,2019092908,20190929081391,home,74.28,6.57,6.77,2.12,0.67,81.73,112.23,2560781,Christian Kirk,13,2019,40,2,08:19:00,ARZ,2,18,SEA,3,17,2560711,PISTOL,"2 RB, 0 TE, 3 WR",6,"4 DL, 3 LB, 4 DB",right,2019-09-29T20:58:05.000Z,2019-09-29T20:58:04.000Z,5-11,200,11/18/1996,Texas A&M,WR,ARI,SEA,4,State Farm Stadium,"Glendale, AZ",Dome,Grass,N/A Indoors,,0,,
55196,2019092908,20190929081391,home,73.97,43.93,5.29,1.13,0.53,80.47,83.88,2561272,Trent Sherfield,16,2019,40,2,08:19:00,ARZ,2,18,SEA,3,17,2560711,PISTOL,"2 RB, 0 TE, 3 WR",6,"4 DL, 3 LB, 4 DB",right,2019-09-29T20:58:05.000Z,2019-09-29T20:58:04.000Z,6-1,219,02/26/1996,Vanderbilt,WR,ARI,SEA,4,State Farm Stadium,"Glendale, AZ",Dome,Grass,N/A Indoors,,0,,
55197,2019092908,20190929081391,home,63.54,29.92,2.05,1.17,0.2,305.87,264.38,2562382,Kyler Murray,1,2019,40,2,08:19:00,ARZ,2,18,SEA,3,17,2560711,PISTOL,"2 RB, 0 TE, 3 WR",6,"4 DL, 3 LB, 4 DB",right,2019-09-29T20:58:05.000Z,2019-09-29T20:58:04.000Z,5-10,207,08/07/1997,Oklahoma,QB,ARI,SEA,4,State Farm Stadium,"Glendale, AZ",Dome,Grass,N/A Indoors,,0,,
