,GameId,PlayId,Team,X,Y,S,A,Dis,Orientation,Dir,NflId,DisplayName,JerseyNumber,Season,YardLine,Quarter,GameClock,PossessionTeam,Down,Distance,FieldPosition,HomeScoreBeforePlay,VisitorScoreBeforePlay,NflIdRusher,OffenseFormation,OffensePersonnel,DefendersInTheBox,DefensePersonnel,PlayDirection,TimeHandoff,TimeSnap,PlayerHeight,PlayerWeight,PlayerBirthDate,PlayerCollegeName,Position,HomeTeamAbbr,VisitorTeamAbbr,Week,Stadium,Location,StadiumType,Turf,GameWeather,Temperature,Humidity,WindSpeed,WindDirection
65406,2019100603,20191006032574,away,34.34,23.33,1.14,0.97,0.11,272.94,180.89,496861,Ndamukong Suh,93,2019,25,3,05:03:00,NO,1,10,NO,24,17,2558019,I_FORM,"2 RB, 2 TE, 1 WR",7,"4 DL, 3 LB, 4 DB",right,2019-10-06T19:07:56.000Z,2019-10-06T19:07:54.000Z,6-4,313,01/06/1987,Nebraska,DT,NO,TB,5,Mercedes-Benz Superdome,"New Orleans, LA",Indoors,UBU Speed Series-S5-M,Sunny,85.0,77,7,ENE
65407,2019100603,20191006032574,away,36.35,23.72,3.68,1.37,0.35,248.23,236.48,2532828,Lavonte David,54,2019,25,3,05:03:00,NO,1,10,NO,24,17,2558019,I_FORM,"2 RB, 2 TE, 1 WR",7,"4 DL, 3 LB, 4 DB",right,2019-10-06T19:07:56.000Z,2019-10-06T19:07:54.000Z,6-1,233,01/23/1990,Nebraska,OLB,NO,TB,5,Mercedes-Benz Superdome,"New Orleans, LA",Indoors,UBU Speed Series-S5-M,Sunny,85.0,77,7,ENE
65408,2019100603,20191006032574,away,37.73,26.11,4.53,1.87,0.45,266.26,194.92,2540159,Kevin Minter,51,2019,25,3,05:03:00,NO,1,10,NO,24,17,2558019,I_FORM,"2 RB, 2 TE, 1 WR",7,"4 DL, 3 LB, 4 DB",right,2019-10-06T19:07:56.000Z,2019-10-06T19:07:54.000Z,6-0,246,12/03/1990,Louisiana State,MLB,NO,TB,5,Mercedes-Benz Superdome,"New Orleans, LA",Indoors,UBU Speed Series-S5-M,Sunny,85.0,77,7,ENE
65409,2019100603,20191006032574,away,52.14,24.79,3.09,2.2,0.31,262.6,118.49,2540185,Mike Edwards,34,2019,25,3,05:03:00,NO,1,10,NO,24,17,2558019,I_FORM,"2 RB, 2 TE, 1 WR",7,"4 DL, 3 LB, 4 DB",right,2019-10-06T19:07:56.000Z,2019-10-06T19:07:54.000Z,5-10,200,05/18/1996,Kentucky,FS,NO,TB,5,Mercedes-Benz Superdome,"New Orleans, LA",Indoors,UBU Speed Series-S5-M,Sunny,85.0,77,7,ENE
65410,2019100603,20191006032574,away,33.71,20.24,2.83,1.86,0.29,338.61,206.46,2550541,Shaquil Barrett,58,2019,25,3,05:03:00,NO,1,10,NO,24,17,2558019,I_FORM,"2 RB, 2 TE, 1 WR",7,"4 DL, 3 LB, 4 DB",right,2019-10-06T19:07:56.000Z,2019-10-06T19:07:54.000Z,6-2,250,11/17/1992,Colorado State,OLB,NO,TB,5,Mercedes-Benz Superdome,"New Orleans, LA",Indoors,UBU Speed Series-S5-M,Sunny,85.0,77,7,ENE
65411,2019100603,20191006032574,away,34.5,29.22,2.54,1.41,0.25,201.65,194.39,2552674,Rakeem Nunez-Roches,56,2019,25,3,05:03:00,NO,1,10,NO,24,17,2558019,I_FORM,"2 RB, 2 TE, 1 WR",7,"4 DL, 3 LB, 4 DB",right,2019-10-06T19:07:56.000Z,2019-10-06T19:07:54.000Z,6-2,307,07/03/1993,Southern Mississippi,DT,NO,TB,5,Mercedes-Benz Superdome,"New Orleans, LA",Indoors,UBU Speed Series-S5-M,Sunny,85.0,77,7,ENE
65412,2019100603,20191006032574,away,33.96,32.58,1.73,1.76,0.17,263.25,218.87,2555270,Carl Nassib,94,2019,25,3,05:03:00,NO,1,10,NO,24,17,2558019,I_FORM,"2 RB, 2 TE, 1 WR",7,"4 DL, 3 LB, 4 DB",right,2019-10-06T19:07:56.000Z,2019-10-06T19:07:54.000Z,6-7,275,04/12/1993,Penn State,DE,NO,TB,5,Mercedes-Benz Superdome,"New Orleans, LA",Indoors,UBU Speed Series-S5-M,Sunny,85.0,77,7,ENE
65413,2019100603,20191006032574,away,36.41,33.54,3.57,2.72,0.35,216.48,192.99,2555299,Vernon Hargreaves III,28,2019,25,3,05:03:00,NO,1,10,NO,24,17,2558019,I_FORM,"2 RB, 2 TE, 1 WR",7,"4 DL, 3 LB, 4 DB",right,2019-10-06T19:07:56.000Z,2019-10-06T19:07:54.000Z,5-10,204,06/03/1995,Florida,CB,NO,TB,5,Mercedes-Benz Superdome,"New Orleans, LA",Indoors,UBU Speed Series-S5-M,Sunny,85.0,77,7,ENE
65414,2019100603,20191006032574,away,35.93,26.24,1.45,0.2,0.15,157.66,147.13,2560909,Vita Vea,50,2019,25,3,05:03:00,NO,1,10,NO,24,17,2558019,I_FORM,"2 RB, 2 TE, 1 WR",7,"4 DL, 3 LB, 4 DB",right,2019-10-06T19:07:56.000Z,2019-10-06T19:07:54.000Z,6-4,347,02/05/1995,Washington,DT,NO,TB,5,Mercedes-Benz Superdome,"New Orleans, LA",Indoors,UBU Speed Series-S5-M,Sunny,85.0,77,7,ENE
65415,2019100603,20191006032574,away,37.29,30.41,4.06,2.61,0.4,259.97,206.93,2560930,Jordan Whitehead,31,2019,25,3,05:03:00,NO,1,10,NO,24,17,2558019,I_FORM,"2 RB, 2 TE, 1 WR",7,"4 DL, 3 LB, 4 DB",right,2019-10-06T19:07:56.000Z,2019-10-06T19:07:54.000Z,5-10,198,03/18/1997,Pittsburgh,DB,NO,TB,5,Mercedes-Benz Superdome,"New Orleans, LA",Indoors,UBU Speed Series-S5-M,Sunny,85.0,77,7,ENE
65416,2019100603,20191006032574,away,37.12,9.87,3.86,1.7,0.38,267.27,145.3,2562635,Sean Murphy-Bunting,26,2019,25,3,05:03:00,NO,1,10,NO,24,17,2558019,I_FORM,"2 RB, 2 TE, 1 WR",7,"4 DL, 3 LB, 4 DB",right,2019-10-06T19:07:56.000Z,2019-10-06T19:07:54.000Z,6-0,195,06/19/1997,Central Michigan,DB,NO,TB,5,Mercedes-Benz Superdome,"New Orleans, LA",Indoors,UBU Speed Series-S5-M,Sunny,85.0,77,7,ENE
65417,2019100603,20191006032574,home,33.61,32.42,1.05,1.53,0.1,114.55,243.41,71265,Jared Cook,87,2019,25,3,05:03:00,NO,1,10,NO,24,17,2558019,I_FORM,"2 RB, 2 TE, 1 WR",7,"4 DL, 3 LB, 4 DB",right,2019-10-06T19:07:56.000Z,2019-10-06T19:07:54.000Z,6-5,254,04/07/1987,South Carolina,TE,NO,TB,5,Mercedes-Benz Superdome,"New Orleans, LA",Indoors,UBU Speed Series-S5-M,Sunny,85.0,77,7,ENE
65418,2019100603,20191006032574,home,33.77,22.96,1.79,0.74,0.18,99.81,176.37,2539248,Larry Warford,67,2019,25,3,05:03:00,NO,1,10,NO,24,17,2558019,I_FORM,"2 RB, 2 TE, 1 WR",7,"4 DL, 3 LB, 4 DB",right,2019-10-06T19:07:56.000Z,2019-10-06T19:07:54.000Z,6-3,317,06/18/1991,Kentucky,G,NO,TB,5,Mercedes-Benz Superdome,"New Orleans, LA",Indoors,UBU Speed Series-S5-M,Sunny,85.0,77,7,ENE
65419,2019100603,20191006032574,home,33.66,24.33,4.44,1.71,0.45,106.05,113.56,2539303,Zach Line,42,2019,25,3,05:03:00,NO,1,10,NO,24,17,2558019,I_FORM,"2 RB, 2 TE, 1 WR",7,"4 DL, 3 LB, 4 DB",right,2019-10-06T19:07:56.000Z,2019-10-06T19:07:54.000Z,6-1,233,04/26/1990,Southern Methodist,FB,NO,TB,5,Mercedes-Benz Superdome,"New Orleans, LA",Indoors,UBU Speed Series-S5-M,Sunny,85.0,77,7,ENE
65420,2019100603,20191006032574,home,35.07,28.43,2.55,0.36,0.26,28.24,142.47,2540228,Terron Armstead,72,2019,25,3,05:03:00,NO,1,10,NO,24,17,2558019,I_FORM,"2 RB, 2 TE, 1 WR",7,"4 DL, 3 LB, 4 DB",right,2019-10-06T19:07:56.000Z,2019-10-06T19:07:54.000Z,6-5,304,07/23/1991,Arkansas-Pine Bluff,T,NO,TB,5,Mercedes-Benz Superdome,"New Orleans, LA",Indoors,UBU Speed Series-S5-M,Sunny,85.0,77,7,ENE
65421,2019100603,20191006032574,home,34.21,30.4,3.93,2.18,0.39,116.44,136.21,2541834,Josh Hill,89,2019,25,3,05:03:00,NO,1,10,NO,24,17,2558019,I_FORM,"2 RB, 2 TE, 1 WR",7,"4 DL, 3 LB, 4 DB",right,2019-10-06T19:07:56.000Z,2019-10-06T19:07:54.000Z,6-5,250,05/21/1990,Idaho State,TE,NO,TB,5,Mercedes-Benz Superdome,"New Orleans, LA",Indoors,UBU Speed Series-S5-M,Sunny,85.0,77,7,ENE
65422,2019100603,20191006032574,home,30.75,25.4,3.16,1.78,0.31,258.32,256.07,2543465,Teddy Bridgewater,5,2019,25,3,05:03:00,NO,1,10,NO,24,17,2558019,I_FORM,"2 RB, 2 TE, 1 WR",7,"4 DL, 3 LB, 4 DB",right,2019-10-06T19:07:56.000Z,2019-10-06T19:07:54.000Z,6-2,215,11/10/1992,Louisville,QB,NO,TB,5,Mercedes-Benz Superdome,"New Orleans, LA",Indoors,UBU Speed Series-S5-M,Sunny,85.0,77,7,ENE
65423,2019100603,20191006032574,home,35.3,26.1,1.78,1.12,0.18,105.66,146.11,2552455,Andrus Peat,75,2019,25,3,05:03:00,NO,1,10,NO,24,17,2558019,I_FORM,"2 RB, 2 TE, 1 WR",7,"4 DL, 3 LB, 4 DB",right,2019-10-06T19:07:56.000Z,2019-10-06T19:07:54.000Z,6-7,316,11/04/1993,Stanford,T,NO,TB,5,Mercedes-Benz Superdome,"New Orleans, LA",Indoors,UBU Speed Series-S5-M,Sunny,85.0,77,7,ENE
65424,2019100603,20191006032574,home,36.27,9.56,4.3,2.51,0.42,76.72,146.96,2556370,Michael Thomas,13,2019,25,3,05:03:00,NO,1,10,NO,24,17,2558019,I_FORM,"2 RB, 2 TE, 1 WR",7,"4 DL, 3 LB, 4 DB",right,2019-10-06T19:07:56.000Z,2019-10-06T19:07:54.000Z,6-3,212,03/03/1993,Ohio State,WR,NO,TB,5,Mercedes-Benz Superdome,"New Orleans, LA",Indoors,UBU Speed Series-S5-M,Sunny,85.0,77,7,ENE
65425,2019100603,20191006032574,home,34.27,21.13,2.4,2.01,0.25,204.93,189.19,2557959,Ryan Ramczyk,71,2019,25,3,05:03:00,NO,1,10,NO,24,17,2558019,I_FORM,"2 RB, 2 TE, 1 WR",7,"4 DL, 3 LB, 4 DB",right,2019-10-06T19:07:56.000Z,2019-10-06T19:07:54.000Z,6-6,314,04/22/1994,Wisconsin,T,NO,TB,5,Mercedes-Benz Superdome,"New Orleans, LA",Indoors,UBU Speed Series-S5-M,Sunny,85.0,77,7,ENE
65426,2019100603,20191006032574,home,29.89,24.55,5.16,3.07,0.5,89.27,114.19,2558019,Alvin Kamara,41,2019,25,3,05:03:00,NO,1,10,NO,24,17,2558019,I_FORM,"2 RB, 2 TE, 1 WR",7,"4 DL, 3 LB, 4 DB",right,2019-10-06T19:07:56.000Z,2019-10-06T19:07:54.000Z,5-10,215,07/25/1995,Tennessee,RB,NO,TB,5,Mercedes-Benz Superdome,"New Orleans, LA",Indoors,UBU Speed Series-S5-M,Sunny,85.0,77,7,ENE
65427,2019100603,20191006032574,home,36.21,25.87,1.98,0.84,0.2,70.9,99.04,2562683,Erik McCoy,78,2019,25,3,05:03:00,NO,1,10,NO,24,17,2558019,I_FORM,"2 RB, 2 TE, 1 WR",7,"4 DL, 3 LB, 4 DB",right,2019-10-06T19:07:56.000Z,2019-10-06T19:07:54.000Z,6-4,315,08/27/1997,Texas A&M,C,NO,TB,5,Mercedes-Benz Superdome,"New Orleans, LA",Indoors,UBU Speed Series-S5-M,Sunny,85.0,77,7,ENE
