,GameId,PlayId,Team,X,Y,S,A,Dis,Orientation,Dir,NflId,DisplayName,JerseyNumber,Season,YardLine,Quarter,GameClock,PossessionTeam,Down,Distance,FieldPosition,HomeScoreBeforePlay,VisitorScoreBeforePlay,NflIdRusher,OffenseFormation,OffensePersonnel,DefendersInTheBox,DefensePersonnel,PlayDirection,TimeHandoff,TimeSnap,PlayerHeight,PlayerWeight,PlayerBirthDate,PlayerCollegeName,Position,HomeTeamAbbr,VisitorTeamAbbr,Week,Stadium,Location,StadiumType,Turf,GameWeather,Temperature,Humidity,WindSpeed,WindDirection
3300,2019090802,20190908023314,away,60.15,30.93,3.58,2.62,0.34,127.3,129.71,79607,LeSean McCoy,25,2019,46,4,07:27:00,KC,1,10,JAX,19,37,79607,SHOTGUN,"1 RB, 2 TE, 2 WR",6,"3 DL, 3 LB, 5 DB",right,2019-09-08T19:38:21.000Z,2019-09-08T19:38:19.000Z,5-11,210,07/12/1988,Pittsburgh,RB,JAX,KC,1,TIAA Bank Field,"Jacksonville, FL",Open,Grass,Clear,91.0,54,6mph,WSW
3301,2019090802,20190908023314,away,62.7,26.01,1.28,0.47,0.14,151.96,181.62,2532945,Mitchell Schwartz,71,2019,46,4,07:27:00,KC,1,10,JAX,19,37,79607,SHOTGUN,"1 RB, 2 TE, 2 WR",6,"3 DL, 3 LB, 5 DB",right,2019-09-08T19:38:21.000Z,2019-09-08T19:38:19.000Z,6-5,320,06/08/1989,California,T,JAX,KC,1,TIAA Bank Field,"Jacksonville, FL",Open,Grass,Clear,91.0,54,6mph,WSW
3302,2019090802,20190908023314,away,63.98,30.95,2.97,1.03,0.3,127.86,147.97,2539213,Eric Fisher,72,2019,46,4,07:27:00,KC,1,10,JAX,19,37,79607,SHOTGUN,"1 RB, 2 TE, 2 WR",6,"3 DL, 3 LB, 5 DB",right,2019-09-08T19:38:21.000Z,2019-09-08T19:38:19.000Z,6-7,315,01/05/1991,Central Michigan,T,JAX,KC,1,TIAA Bank Field,"Jacksonville, FL",Open,Grass,Clear,91.0,54,6mph,WSW
3303,2019090802,20190908023314,away,63.53,15.03,4.17,4.9,0.39,90.14,154.93,2540258,Travis Kelce,87,2019,46,4,07:27:00,KC,1,10,JAX,19,37,79607,SHOTGUN,"1 RB, 2 TE, 2 WR",6,"3 DL, 3 LB, 5 DB",right,2019-09-08T19:38:21.000Z,2019-09-08T19:38:19.000Z,6-5,260,10/05/1989,Cincinnati,TE,JAX,KC,1,TIAA Bank Field,"Jacksonville, FL",Open,Grass,Clear,91.0,54,6mph,WSW
3304,2019090802,20190908023314,away,63.01,9.26,3.92,4.43,0.38,89.31,118.95,2543457,Sammy Watkins,14,2019,46,4,07:27:00,KC,1,10,JAX,19,37,79607,SHOTGUN,"1 RB, 2 TE, 2 WR",6,"3 DL, 3 LB, 5 DB",right,2019-09-08T19:38:21.000Z,2019-09-08T19:38:19.000Z,6-1,211,06/14/1993,Clemson,WR,JAX,KC,1,TIAA Bank Field,"Jacksonville, FL",Open,Grass,Clear,91.0,54,6mph,WSW
3305,2019090802,20190908023314,away,63.49,28.08,1.35,0.98,0.14,72.68,155.93,2543816,Laurent Duvernay-Tardif,76,2019,46,4,07:27:00,KC,1,10,JAX,19,37,79607,SHOTGUN,"1 RB, 2 TE, 2 WR",6,"3 DL, 3 LB, 5 DB",right,2019-09-08T19:38:21.000Z,2019-09-08T19:38:19.000Z,6-5,321,02/11/1991,McGill,G,JAX,KC,1,TIAA Bank Field,"Jacksonville, FL",Open,Grass,Clear,91.0,54,6mph,WSW
3306,2019090802,20190908023314,away,64.21,38.94,3.66,2.92,0.37,89.31,48.16,2552478,Blake Bell,81,2019,46,4,07:27:00,KC,1,10,JAX,19,37,79607,SHOTGUN,"1 RB, 2 TE, 2 WR",6,"3 DL, 3 LB, 5 DB",right,2019-09-08T19:38:21.000Z,2019-09-08T19:38:19.000Z,6-6,252,08/07/1991,Oklahoma,TE,JAX,KC,1,TIAA Bank Field,"Jacksonville, FL",Open,Grass,Clear,91.0,54,6mph,WSW
3307,2019090802,20190908023314,away,63.39,28.83,1.41,0.67,0.14,151.06,168.19,2553452,Austin Reiter,62,2019,46,4,07:27:00,KC,1,10,JAX,19,37,79607,SHOTGUN,"1 RB, 2 TE, 2 WR",6,"3 DL, 3 LB, 5 DB",right,2019-09-08T19:38:21.000Z,2019-09-08T19:38:19.000Z,6-3,300,11/27/1991,South Florida,C,JAX,KC,1,TIAA Bank Field,"Jacksonville, FL",Open,Grass,Clear,91.0,54,6mph,WSW
3308,2019090802,20190908023314,away,59.87,30.25,0.8,1.6,0.08,73.42,40.9,2558125,Patrick Mahomes,15,2019,46,4,07:27:00,KC,1,10,JAX,19,37,79607,SHOTGUN,"1 RB, 2 TE, 2 WR",6,"3 DL, 3 LB, 5 DB",right,2019-09-08T19:38:21.000Z,2019-09-08T19:38:19.000Z,6-3,230,09/17/1995,Texas Tech,QB,JAX,KC,1,TIAA Bank Field,"Jacksonville, FL",Open,Grass,Clear,91.0,54,6mph,WSW
3309,2019090802,20190908023314,away,63.95,30.26,2.29,0.71,0.23,132.87,153.77,2559354,Andrew Wylie,77,2019,46,4,07:27:00,KC,1,10,JAX,19,37,79607,SHOTGUN,"1 RB, 2 TE, 2 WR",6,"3 DL, 3 LB, 5 DB",right,2019-09-08T19:38:21.000Z,2019-09-08T19:38:19.000Z,6-6,309,08/19/1994,Eastern Michigan,OT,JAX,KC,1,TIAA Bank Field,"Jacksonville, FL",Open,Grass,Clear,91.0,54,6mph,WSW
3310,2019090802,20190908023314,away,60.78,18.27,4.61,2.19,0.45,116.07,195.76,2562580,Mecole Hardman,17,2019,46,4,07:27:00,KC,1,10,JAX,19,37,79607,SHOTGUN,"1 RB, 2 TE, 2 WR",6,"3 DL, 3 LB, 5 DB",right,2019-09-08T19:38:21.000Z,2019-09-08T19:38:19.000Z,5-10,187,03/12/1998,Georgia,WR,JAX,KC,1,TIAA Bank Field,"Jacksonville, FL",Open,Grass,Clear,91.0,54,6mph,WSW
3311,2019090802,20190908023314,home,64.73,30.38,2.26,1.38,0.23,224.77,164.77,744,Calais Campbell,93,2019,46,4,07:27:00,KC,1,10,JAX,19,37,79607,SHOTGUN,"1 RB, 2 TE, 2 WR",6,"3 DL, 3 LB, 5 DB",right,2019-09-08T19:38:21.000Z,2019-09-08T19:38:19.000Z,6-8,300,09/01/1986,Miami,DE,JAX,KC,1,TIAA Bank Field,"Jacksonville, FL",Open,Grass,Clear,91.0,54,6mph,WSW
3312,2019090802,20190908023314,home,66.54,26.91,1.96,0.35,0.19,279.59,261.43,2533016,Najee Goode,52,2019,46,4,07:27:00,KC,1,10,JAX,19,37,79607,SHOTGUN,"1 RB, 2 TE, 2 WR",6,"3 DL, 3 LB, 5 DB",right,2019-09-08T19:38:21.000Z,2019-09-08T19:38:19.000Z,6-0,244,06/04/1989,West Virginia,OLB,JAX,KC,1,TIAA Bank Field,"Jacksonville, FL",Open,Grass,Clear,91.0,54,6mph,WSW
3313,2019090802,20190908023314,home,68.99,15.53,2.02,3.19,0.19,268.25,171.62,2539237,D.J. Hayden,25,2019,46,4,07:27:00,KC,1,10,JAX,19,37,79607,SHOTGUN,"1 RB, 2 TE, 2 WR",6,"3 DL, 3 LB, 5 DB",right,2019-09-08T19:38:21.000Z,2019-09-08T19:38:19.000Z,5-11,190,06/27/1990,Houston,CB,JAX,KC,1,TIAA Bank Field,"Jacksonville, FL",Open,Grass,Clear,91.0,54,6mph,WSW
3314,2019090802,20190908023314,home,69.59,20.38,4.14,3.92,0.39,270.43,213.47,2541162,A.J. Bouye,21,2019,46,4,07:27:00,KC,1,10,JAX,19,37,79607,SHOTGUN,"1 RB, 2 TE, 2 WR",6,"3 DL, 3 LB, 5 DB",right,2019-09-08T19:38:21.000Z,2019-09-08T19:38:19.000Z,6-0,191,08/16/1991,Central Florida,CB,JAX,KC,1,TIAA Bank Field,"Jacksonville, FL",Open,Grass,Clear,91.0,54,6mph,WSW
3315,2019090802,20190908023314,home,67.35,30.94,3.34,2.87,0.32,285.3,267.92,2553442,D.J. Alexander,57,2019,46,4,07:27:00,KC,1,10,JAX,19,37,79607,SHOTGUN,"1 RB, 2 TE, 2 WR",6,"3 DL, 3 LB, 5 DB",right,2019-09-08T19:38:21.000Z,2019-09-08T19:38:19.000Z,6-2,233,09/30/1991,Oregon State,OLB,JAX,KC,1,TIAA Bank Field,"Jacksonville, FL",Open,Grass,Clear,91.0,54,6mph,WSW
3316,2019090802,20190908023314,home,65.33,9.4,2.15,3.48,0.19,253.82,130.57,2555280,Jalen Ramsey,20,2019,46,4,07:27:00,KC,1,10,JAX,19,37,79607,SHOTGUN,"1 RB, 2 TE, 2 WR",6,"3 DL, 3 LB, 5 DB",right,2019-09-08T19:38:21.000Z,2019-09-08T19:38:19.000Z,6-1,208,10/24/1994,Florida State,CB,JAX,KC,1,TIAA Bank Field,"Jacksonville, FL",Open,Grass,Clear,91.0,54,6mph,WSW
3317,2019090802,20190908023314,home,65.89,39.13,2.25,2.84,0.21,271.7,28.62,2556711,Jarrod Wilson,26,2019,46,4,07:27:00,KC,1,10,JAX,19,37,79607,SHOTGUN,"1 RB, 2 TE, 2 WR",6,"3 DL, 3 LB, 5 DB",right,2019-09-08T19:38:21.000Z,2019-09-08T19:38:19.000Z,6-2,210,02/09/1994,Michigan,SS,JAX,KC,1,TIAA Bank Field,"Jacksonville, FL",Open,Grass,Clear,91.0,54,6mph,WSW
3318,2019090802,20190908023314,home,63.45,32.5,4.57,1.26,0.46,220.35,203.25,2557839,Dawuane Smoot,94,2019,46,4,07:27:00,KC,1,10,JAX,19,37,79607,SHOTGUN,"1 RB, 2 TE, 2 WR",6,"3 DL, 3 LB, 5 DB",right,2019-09-08T19:38:21.000Z,2019-09-08T19:38:19.000Z,6-3,264,03/02/1995,Illinois,DE,JAX,KC,1,TIAA Bank Field,"Jacksonville, FL",Open,Grass,Clear,91.0,54,6mph,WSW
3319,2019090802,20190908023314,home,80.78,24.16,2.15,0.62,0.21,225.87,118.07,2561008,Ronnie Harrison,36,2019,46,4,07:27:00,KC,1,10,JAX,19,37,79607,SHOTGUN,"1 RB, 2 TE, 2 WR",6,"3 DL, 3 LB, 5 DB",right,2019-09-08T19:38:21.000Z,2019-09-08T19:38:19.000Z,6-3,214,04/18/1997,Alabama,DB,JAX,KC,1,TIAA Bank Field,"Jacksonville, FL",Open,Grass,Clear,91.0,54,6mph,WSW
3320,2019090802,20190908023314,home,62.94,25.2,2.13,1.91,0.21,319.61,248.64,2562619,Josh Allen,41,2019,46,4,07:27:00,KC,1,10,JAX,19,37,79607,SHOTGUN,"1 RB, 2 TE, 2 WR",6,"3 DL, 3 LB, 5 DB",right,2019-09-08T19:38:21.000Z,2019-09-08T19:38:19.000Z,6-5,262,07/13/1997,Kentucky,LB,JAX,KC,1,TIAA Bank Field,"Jacksonville, FL",Open,Grass,Clear,91.0,54,6mph,WSW
3321,2019090802,20190908023314,home,64.11,28.21,1.23,0.97,0.11,271.08,168.69,2562717,Dontavius Russell,98,2019,46,4,07:27:00,KC,1,10,JAX,19,37,79607,SHOTGUN,"1 RB, 2 TE, 2 WR",6,"3 DL, 3 LB, 5 DB",right,2019-09-08T19:38:21.000Z,2019-09-08T19:38:19.000Z,6-3,320,09/18/1995,Auburn,DT,JAX,KC,1,TIAA Bank Field,"Jacksonville, FL",Open,Grass,Clear,91.0,54,6mph,WSW
