,GameId,PlayId,Team,X,Y,S,A,Dis,Orientation,Dir,NflId,DisplayName,JerseyNumber,Season,YardLine,Quarter,GameClock,PossessionTeam,Down,Distance,FieldPosition,HomeScoreBeforePlay,VisitorScoreBeforePlay,NflIdRusher,OffenseFormation,OffensePersonnel,DefendersInTheBox,DefensePersonnel,PlayDirection,TimeHandoff,TimeSnap,PlayerHeight,PlayerWeight,PlayerBirthDate,PlayerCollegeName,Position,HomeTeamAbbr,VisitorTeamAbbr,Week,Stadium,Location,StadiumType,Turf,GameWeather,Temperature,Humidity,WindSpeed,WindDirection
58234,2019092911,20190929112662,away,24.03,8.81,2.75,0.9,0.27,251.22,291.06,2543475,Marqise Lee,11,2019,15,3,07:31:00,JAX,3,1,DEN,17,6,2557973,I_FORM,"6 OL, 1 RB, 2 TE, 1 WR",8,"4 DL, 3 LB, 4 DB",left,2019-09-29T22:21:59.000Z,2019-09-29T22:21:58.000Z,6-0,196,11/25/1991,Southern California,WR,DEN,JAX,4,Empower Field at Mile High,"Denver, CO",Outdoor,Grass,Sunny,87.0,11,14 Gusting to 24,Southwest
58235,2019092911,20190929112662,away,24.45,23.49,0.94,0.53,0.09,265.85,244.86,2543729,Brandon Linder,65,2019,15,3,07:31:00,JAX,3,1,DEN,17,6,2557973,I_FORM,"6 OL, 1 RB, 2 TE, 1 WR",8,"4 DL, 3 LB, 4 DB",left,2019-09-29T22:21:59.000Z,2019-09-29T22:21:58.000Z,6-6,315,01/25/1992,Miami,C,DEN,JAX,4,Empower Field at Mile High,"Denver, CO",Outdoor,Grass,Sunny,87.0,11,14 Gusting to 24,Southwest
58236,2019092911,20190929112662,away,24.22,22.78,1.29,0.81,0.14,282.95,249.74,2550589,Andrew Norwell,68,2019,15,3,07:31:00,JAX,3,1,DEN,17,6,2557973,I_FORM,"6 OL, 1 RB, 2 TE, 1 WR",8,"4 DL, 3 LB, 4 DB",left,2019-09-29T22:21:59.000Z,2019-09-29T22:21:58.000Z,6-6,325,10/25/1991,Ohio State,G,DEN,JAX,4,Empower Field at Mile High,"Denver, CO",Outdoor,Grass,Sunny,87.0,11,14 Gusting to 24,Southwest
58237,2019092911,20190929112662,away,24.41,24.71,1.54,0.32,0.17,297.75,229.87,2552330,A.J. Cann,60,2019,15,3,07:31:00,JAX,3,1,DEN,17,6,2557973,I_FORM,"6 OL, 1 RB, 2 TE, 1 WR",8,"4 DL, 3 LB, 4 DB",left,2019-09-29T22:21:59.000Z,2019-09-29T22:21:58.000Z,6-3,325,10/23/1991,South Carolina,G,DEN,JAX,4,Empower Field at Mile High,"Denver, CO",Outdoor,Grass,Sunny,87.0,11,14 Gusting to 24,Southwest
58238,2019092911,20190929112662,away,24.9,29.5,1.44,0.8,0.14,245.89,296.32,2552355,Cedric Ogbuehi,77,2019,15,3,07:31:00,JAX,3,1,DEN,17,6,2557973,I_FORM,"6 OL, 1 RB, 2 TE, 1 WR",8,"4 DL, 3 LB, 4 DB",left,2019-09-29T22:21:59.000Z,2019-09-29T22:21:58.000Z,6-5,310,04/25/1992,Texas A&M,OT,DEN,JAX,4,Empower Field at Mile High,"Denver, CO",Outdoor,Grass,Sunny,87.0,11,14 Gusting to 24,Southwest
58239,2019092911,20190929112662,away,25.54,17.96,0.13,3.31,0.02,320.63,305.86,2553454,Geoff Swaim,87,2019,15,3,07:31:00,JAX,3,1,DEN,17,6,2557973,I_FORM,"6 OL, 1 RB, 2 TE, 1 WR",8,"4 DL, 3 LB, 4 DB",left,2019-09-29T22:21:59.000Z,2019-09-29T22:21:58.000Z,6-4,260,09/16/1993,Texas,TE,DEN,JAX,4,Empower Field at Mile High,"Denver, CO",Outdoor,Grass,Sunny,87.0,11,14 Gusting to 24,Southwest
58240,2019092911,20190929112662,away,27.07,20.88,4.11,2.12,0.4,222.16,216.81,2556365,Seth DeValve,88,2019,15,3,07:31:00,JAX,3,1,DEN,17,6,2557973,I_FORM,"6 OL, 1 RB, 2 TE, 1 WR",8,"4 DL, 3 LB, 4 DB",left,2019-09-29T22:21:59.000Z,2019-09-29T22:21:58.000Z,6-3,245,01/29/1993,Princeton,TE,DEN,JAX,4,Empower Field at Mile High,"Denver, CO",Outdoor,Grass,Sunny,87.0,11,14 Gusting to 24,Southwest
58241,2019092911,20190929112662,away,29.54,22.46,4.53,2.97,0.45,268.96,254.52,2557973,Leonard Fournette,27,2019,15,3,07:31:00,JAX,3,1,DEN,17,6,2557973,I_FORM,"6 OL, 1 RB, 2 TE, 1 WR",8,"4 DL, 3 LB, 4 DB",left,2019-09-29T22:21:59.000Z,2019-09-29T22:21:58.000Z,6-0,228,01/18/1995,Louisiana State,RB,DEN,JAX,4,Empower Field at Mile High,"Denver, CO",Outdoor,Grass,Sunny,87.0,11,14 Gusting to 24,Southwest
58242,2019092911,20190929112662,away,25.47,22.44,0.92,0.98,0.1,264.02,327.2,2558004,Cam Robinson,74,2019,15,3,07:31:00,JAX,3,1,DEN,17,6,2557973,I_FORM,"6 OL, 1 RB, 2 TE, 1 WR",8,"4 DL, 3 LB, 4 DB",left,2019-09-29T22:21:59.000Z,2019-09-29T22:21:58.000Z,6-6,320,10/09/1995,Alabama,T,DEN,JAX,4,Empower Field at Mile High,"Denver, CO",Outdoor,Grass,Sunny,87.0,11,14 Gusting to 24,Southwest
58243,2019092911,20190929112662,away,25.87,27.74,0.48,0.48,0.05,40.88,93.9,2562756,Jawaan Taylor,75,2019,15,3,07:31:00,JAX,3,1,DEN,17,6,2557973,I_FORM,"6 OL, 1 RB, 2 TE, 1 WR",8,"4 DL, 3 LB, 4 DB",left,2019-09-29T22:21:59.000Z,2019-09-29T22:21:58.000Z,6-5,312,11/25/1997,Florida,T,DEN,JAX,4,Empower Field at Mile High,"Denver, CO",Outdoor,Grass,Sunny,87.0,11,14 Gusting to 24,Southwest
58244,2019092911,20190929112662,away,29.17,23.49,4.51,0.99,0.44,174.45,105.32,2562796,Gardner Minshew,15,2019,15,3,07:31:00,JAX,3,1,DEN,17,6,2557973,I_FORM,"6 OL, 1 RB, 2 TE, 1 WR",8,"4 DL, 3 LB, 4 DB",left,2019-09-29T22:21:59.000Z,2019-09-29T22:21:58.000Z,6-1,225,05/16/1996,Washington State,QB,DEN,JAX,4,Empower Field at Mile High,"Denver, CO",Outdoor,Grass,Sunny,87.0,11,14 Gusting to 24,Southwest
58245,2019092911,20190929112662,home,24.12,28.57,2.98,1.61,0.29,121.82,195.47,2495202,Von Miller,58,2019,15,3,07:31:00,JAX,3,1,DEN,17,6,2557973,I_FORM,"6 OL, 1 RB, 2 TE, 1 WR",8,"4 DL, 3 LB, 4 DB",left,2019-09-29T22:21:59.000Z,2019-09-29T22:21:58.000Z,6-3,250,03/26/1989,Texas A&M,OLB,DEN,JAX,4,Empower Field at Mile High,"Denver, CO",Outdoor,Grass,Sunny,87.0,11,14 Gusting to 24,Southwest
58246,2019092911,20190929112662,home,23.26,8.28,0.64,1.28,0.06,55.11,242.72,2530510,Chris Harris,25,2019,15,3,07:31:00,JAX,3,1,DEN,17,6,2557973,I_FORM,"6 OL, 1 RB, 2 TE, 1 WR",8,"4 DL, 3 LB, 4 DB",left,2019-09-29T22:21:59.000Z,2019-09-29T22:21:58.000Z,5-10,199,06/18/1989,Kansas,CB,DEN,JAX,4,Empower Field at Mile High,"Denver, CO",Outdoor,Grass,Sunny,87.0,11,14 Gusting to 24,Southwest
58247,2019092911,20190929112662,home,26.07,28.31,1.52,1.22,0.17,179.58,97.01,2533026,Derek Wolfe,95,2019,15,3,07:31:00,JAX,3,1,DEN,17,6,2557973,I_FORM,"6 OL, 1 RB, 2 TE, 1 WR",8,"4 DL, 3 LB, 4 DB",left,2019-09-29T22:21:59.000Z,2019-09-29T22:21:58.000Z,6-5,285,02/24/1990,Cincinnati,DE,DEN,JAX,4,Empower Field at Mile High,"Denver, CO",Outdoor,Grass,Sunny,87.0,11,14 Gusting to 24,Southwest
58248,2019092911,20190929112662,home,24.07,23.57,0.57,1.39,0.06,112.04,236.56,2549926,Shelby Harris,96,2019,15,3,07:31:00,JAX,3,1,DEN,17,6,2557973,I_FORM,"6 OL, 1 RB, 2 TE, 1 WR",8,"4 DL, 3 LB, 4 DB",left,2019-09-29T22:21:59.000Z,2019-09-29T22:21:58.000Z,6-2,290,08/11/1991,Illinois State,NT,DEN,JAX,4,Empower Field at Mile High,"Denver, CO",Outdoor,Grass,Sunny,87.0,11,14 Gusting to 24,Southwest
58249,2019092911,20190929112662,home,23.29,22.0,4.1,1.57,0.41,85.3,118.13,2550930,Todd Davis,51,2019,15,3,07:31:00,JAX,3,1,DEN,17,6,2557973,I_FORM,"6 OL, 1 RB, 2 TE, 1 WR",8,"4 DL, 3 LB, 4 DB",left,2019-09-29T22:21:59.000Z,2019-09-29T22:21:58.000Z,6-1,230,05/17/1992,Sacramento State,ILB,DEN,JAX,4,Empower Field at Mile High,"Denver, CO",Outdoor,Grass,Sunny,87.0,11,14 Gusting to 24,Southwest
58250,2019092911,20190929112662,home,18.97,30.98,0.86,0.38,0.09,98.1,15.5,2553790,DeVante Bausby,41,2019,15,3,07:31:00,JAX,3,1,DEN,17,6,2557973,I_FORM,"6 OL, 1 RB, 2 TE, 1 WR",8,"4 DL, 3 LB, 4 DB",left,2019-09-29T22:21:59.000Z,2019-09-29T22:21:58.000Z,6-2,190,01/15/1993,Pittsburg State,CB,DEN,JAX,4,Empower Field at Mile High,"Denver, CO",Outdoor,Grass,Sunny,87.0,11,14 Gusting to 24,Southwest
58251,2019092911,20190929112662,home,23.86,24.62,2.06,0.39,0.21,82.68,207.88,2555502,Adam Gotsis,99,2019,15,3,07:31:00,JAX,3,1,DEN,17,6,2557973,I_FORM,"6 OL, 1 RB, 2 TE, 1 WR",8,"4 DL, 3 LB, 4 DB",left,2019-09-29T22:21:59.000Z,2019-09-29T22:21:58.000Z,6-4,287,09/23/1992,Georgia Tech,DE,DEN,JAX,4,Empower Field at Mile High,"Denver, CO",Outdoor,Grass,Sunny,87.0,11,14 Gusting to 24,Southwest
58252,2019092911,20190929112662,home,24.91,19.59,4.13,0.04,0.39,86.65,84.73,2555550,Justin Simmons,31,2019,15,3,07:31:00,JAX,3,1,DEN,17,6,2557973,I_FORM,"6 OL, 1 RB, 2 TE, 1 WR",8,"4 DL, 3 LB, 4 DB",left,2019-09-29T22:21:59.000Z,2019-09-29T22:21:58.000Z,6-2,202,11/19/1993,Boston College,SS,DEN,JAX,4,Empower Field at Mile High,"Denver, CO",Outdoor,Grass,Sunny,87.0,11,14 Gusting to 24,Southwest
58253,2019092911,20190929112662,home,11.07,14.73,1.54,0.57,0.15,76.43,222.8,2556278,Will Parks,34,2019,15,3,07:31:00,JAX,3,1,DEN,17,6,2557973,I_FORM,"6 OL, 1 RB, 2 TE, 1 WR",8,"4 DL, 3 LB, 4 DB",left,2019-09-29T22:21:59.000Z,2019-09-29T22:21:58.000Z,6-1,194,07/29/1994,Arizona,FS,DEN,JAX,4,Empower Field at Mile High,"Denver, CO",Outdoor,Grass,Sunny,87.0,11,14 Gusting to 24,Southwest
58254,2019092911,20190929112662,home,25.11,21.94,1.09,1.28,0.13,93.3,100.22,2557894,DeMarcus Walker,57,2019,15,3,07:31:00,JAX,3,1,DEN,17,6,2557973,I_FORM,"6 OL, 1 RB, 2 TE, 1 WR",8,"4 DL, 3 LB, 4 DB",left,2019-09-29T22:21:59.000Z,2019-09-29T22:21:58.000Z,6-4,280,09/30/1994,Florida State,DE,DEN,JAX,4,Empower Field at Mile High,"Denver, CO",Outdoor,Grass,Sunny,87.0,11,14 Gusting to 24,Southwest
58255,2019092911,20190929112662,home,25.39,18.64,1.2,1.31,0.13,95.97,50.21,2562825,Malik Reed,59,2019,15,3,07:31:00,JAX,3,1,DEN,17,6,2557973,I_FORM,"6 OL, 1 RB, 2 TE, 1 WR",8,"4 DL, 3 LB, 4 DB",left,2019-09-29T22:21:59.000Z,2019-09-29T22:21:58.000Z,6-2,235,08/05/1996,Nevada,LB,DEN,JAX,4,Empower Field at Mile High,"Denver, CO",Outdoor,Grass,Sunny,87.0,11,14 Gusting to 24,Southwest
