,GameId,PlayId,Team,X,Y,S,A,Dis,Orientation,Dir,NflId,DisplayName,JerseyNumber,Season,YardLine,Quarter,GameClock,PossessionTeam,Down,Distance,FieldPosition,HomeScoreBeforePlay,VisitorScoreBeforePlay,NflIdRusher,OffenseFormation,OffensePersonnel,DefendersInTheBox,DefensePersonnel,PlayDirection,TimeHandoff,TimeSnap,PlayerHeight,PlayerWeight,PlayerBirthDate,PlayerCollegeName,Position,HomeTeamAbbr,VisitorTeamAbbr,Week,Stadium,Location,StadiumType,Turf,GameWeather,Temperature,Humidity,WindSpeed,WindDirection
70928,2019100609,20191006092693,away,79.11,15.78,4.61,2.86,0.46,68.24,61.61,238498,Julian Edelman,11,2019,33,3,11:40:00,NE,1,10,WAS,7,12,2532797,SINGLEBACK,"1 RB, 2 TE, 2 WR",7,"3 DL, 4 LB, 4 DB",right,2019-10-06T19:01:54.000Z,2019-10-06T19:01:52.000Z,5-10,200,05/22/1986,Kent State,WR,WAS,NE,5,FedExField,"Landover, MD",Outdoor,Grass,Cloudy,70.0,66,8,S
70929,2019100609,20191006092693,away,76.24,25.71,0.34,1.36,0.03,6.3,251.07,497030,Marshall Newhouse,72,2019,33,3,11:40:00,NE,1,10,WAS,7,12,2532797,SINGLEBACK,"1 RB, 2 TE, 2 WR",7,"3 DL, 4 LB, 4 DB",right,2019-10-06T19:01:54.000Z,2019-10-06T19:01:52.000Z,6-4,328,09/29/1988,Texas Christian,T,WAS,NE,5,FedExField,"Landover, MD",Outdoor,Grass,Cloudy,70.0,66,8,S
70930,2019100609,20191006092693,away,77.28,20.66,1.13,0.26,0.12,45.23,69.61,2495131,Marcus Cannon,61,2019,33,3,11:40:00,NE,1,10,WAS,7,12,2532797,SINGLEBACK,"1 RB, 2 TE, 2 WR",7,"3 DL, 4 LB, 4 DB",right,2019-10-06T19:01:54.000Z,2019-10-06T19:01:52.000Z,6-6,335,05/06/1988,Texas Christian,T,WAS,NE,5,FedExField,"Landover, MD",Outdoor,Grass,Cloudy,70.0,66,8,S
70931,2019100609,20191006092693,away,71.96,23.71,3.82,0.26,0.38,231.26,276.53,2504211,Tom Brady,12,2019,33,3,11:40:00,NE,1,10,WAS,7,12,2532797,SINGLEBACK,"1 RB, 2 TE, 2 WR",7,"3 DL, 4 LB, 4 DB",right,2019-10-06T19:01:54.000Z,2019-10-06T19:01:52.000Z,6-4,225,08/03/1977,Michigan,QB,WAS,NE,5,FedExField,"Landover, MD",Outdoor,Grass,Cloudy,70.0,66,8,S
70932,2019100609,20191006092693,away,72.82,22.44,4.89,2.47,0.48,114.99,118.56,2532797,Brandon Bolden,38,2019,33,3,11:40:00,NE,1,10,WAS,7,12,2532797,SINGLEBACK,"1 RB, 2 TE, 2 WR",7,"3 DL, 4 LB, 4 DB",right,2019-10-06T19:01:54.000Z,2019-10-06T19:01:52.000Z,5-11,220,01/26/1990,Mississippi,RB,WAS,NE,5,FedExField,"Landover, MD",Outdoor,Grass,Cloudy,70.0,66,8,S
70933,2019100609,20191006092693,away,77.04,42.65,2.01,1.26,0.2,142.42,151.54,2537931,Josh Gordon,10,2019,33,3,11:40:00,NE,1,10,WAS,7,12,2532797,SINGLEBACK,"1 RB, 2 TE, 2 WR",7,"3 DL, 4 LB, 4 DB",right,2019-10-06T19:01:54.000Z,2019-10-06T19:01:52.000Z,6-3,225,04/13/1991,Baylor,WR,WAS,NE,5,FedExField,"Landover, MD",Outdoor,Grass,Cloudy,70.0,66,8,S
70934,2019100609,20191006092693,away,77.68,22.82,1.13,1.75,0.12,55.74,85.14,2552563,Shaq Mason,69,2019,33,3,11:40:00,NE,1,10,WAS,7,12,2532797,SINGLEBACK,"1 RB, 2 TE, 2 WR",7,"3 DL, 4 LB, 4 DB",right,2019-10-06T19:01:54.000Z,2019-10-06T19:01:52.000Z,6-1,310,08/28/1993,Georgia Tech,G,WAS,NE,5,FedExField,"Landover, MD",Outdoor,Grass,Cloudy,70.0,66,8,S
70935,2019100609,20191006092693,away,77.51,17.59,1.05,2.39,0.11,154.66,64.14,2553667,Matt LaCosse,83,2019,33,3,11:40:00,NE,1,10,WAS,7,12,2532797,SINGLEBACK,"1 RB, 2 TE, 2 WR",7,"3 DL, 4 LB, 4 DB",right,2019-10-06T19:01:54.000Z,2019-10-06T19:01:52.000Z,6-6,255,09/21/1992,Illinois,TE,WAS,NE,5,FedExField,"Landover, MD",Outdoor,Grass,Cloudy,70.0,66,8,S
70936,2019100609,20191006092693,away,77.21,25.27,0.44,2.51,0.05,9.66,32.63,2555145,Ted Karras,75,2019,33,3,11:40:00,NE,1,10,WAS,7,12,2532797,SINGLEBACK,"1 RB, 2 TE, 2 WR",7,"3 DL, 4 LB, 4 DB",right,2019-10-06T19:01:54.000Z,2019-10-06T19:01:52.000Z,6-4,305,03/15/1993,Illinois,C,WAS,NE,5,FedExField,"Landover, MD",Outdoor,Grass,Cloudy,70.0,66,8,S
70937,2019100609,20191006092693,away,75.87,21.72,3.91,2.2,0.39,131.3,162.6,2555281,Joe Thuney,62,2019,33,3,11:40:00,NE,1,10,WAS,7,12,2532797,SINGLEBACK,"1 RB, 2 TE, 2 WR",7,"3 DL, 4 LB, 4 DB",right,2019-10-06T19:01:54.000Z,2019-10-06T19:01:52.000Z,6-5,308,11/18/1992,North Carolina State,G,WAS,NE,5,FedExField,"Landover, MD",Outdoor,Grass,Cloudy,70.0,66,8,S
70938,2019100609,20191006092693,away,78.08,20.37,1.94,1.25,0.2,3.42,52.43,2560751,Ryan Izzo,85,2019,33,3,11:40:00,NE,1,10,WAS,7,12,2532797,SINGLEBACK,"1 RB, 2 TE, 2 WR",7,"3 DL, 4 LB, 4 DB",right,2019-10-06T19:01:54.000Z,2019-10-06T19:01:52.000Z,6-5,255,12/21/1995,Florida State,TE,WAS,NE,5,FedExField,"Landover, MD",Outdoor,Grass,Cloudy,70.0,66,8,S
70939,2019100609,20191006092693,home,77.38,27.86,1.21,2.78,0.11,212.57,147.99,2495190,Ryan Kerrigan,91,2019,33,3,11:40:00,NE,1,10,WAS,7,12,2532797,SINGLEBACK,"1 RB, 2 TE, 2 WR",7,"3 DL, 4 LB, 4 DB",right,2019-10-06T19:01:54.000Z,2019-10-06T19:01:52.000Z,6-4,265,08/16/1988,Purdue,OLB,WAS,NE,5,FedExField,"Landover, MD",Outdoor,Grass,Cloudy,70.0,66,8,S
70940,2019100609,20191006092693,home,84.5,12.49,1.47,2.79,0.16,316.26,109.09,2532920,Josh Norman,24,2019,33,3,11:40:00,NE,1,10,WAS,7,12,2532797,SINGLEBACK,"1 RB, 2 TE, 2 WR",7,"3 DL, 4 LB, 4 DB",right,2019-10-06T19:01:54.000Z,2019-10-06T19:01:52.000Z,6-0,200,12/15/1987,Coastal Carolina,CB,WAS,NE,5,FedExField,"Landover, MD",Outdoor,Grass,Cloudy,70.0,66,8,S
70941,2019100609,20191006092693,home,79.05,19.63,1.87,1.73,0.19,262.51,224.78,2539978,Jon Bostic,53,2019,33,3,11:40:00,NE,1,10,WAS,7,12,2532797,SINGLEBACK,"1 RB, 2 TE, 2 WR",7,"3 DL, 4 LB, 4 DB",right,2019-10-06T19:01:54.000Z,2019-10-06T19:01:52.000Z,6-1,245,05/05/1991,Florida,ILB,WAS,NE,5,FedExField,"Landover, MD",Outdoor,Grass,Cloudy,70.0,66,8,S
70942,2019100609,20191006092693,home,83.92,17.92,2.37,1.26,0.23,276.33,259.47,2552454,Landon Collins,20,2019,33,3,11:40:00,NE,1,10,WAS,7,12,2532797,SINGLEBACK,"1 RB, 2 TE, 2 WR",7,"3 DL, 4 LB, 4 DB",right,2019-10-06T19:01:54.000Z,2019-10-06T19:01:52.000Z,6-0,218,01/10/1994,Alabama,SS,WAS,NE,5,FedExField,"Landover, MD",Outdoor,Grass,Cloudy,70.0,66,8,S
70943,2019100609,20191006092693,home,84.1,41.34,2.0,1.86,0.2,222.46,206.79,2553796,Quinton Dunbar,23,2019,33,3,11:40:00,NE,1,10,WAS,7,12,2532797,SINGLEBACK,"1 RB, 2 TE, 2 WR",7,"3 DL, 4 LB, 4 DB",right,2019-10-06T19:01:54.000Z,2019-10-06T19:01:52.000Z,6-2,202,07/22/1992,Florida,CB,WAS,NE,5,FedExField,"Landover, MD",Outdoor,Grass,Cloudy,70.0,66,8,S
70944,2019100609,20191006092693,home,76.99,26.17,0.87,1.18,0.08,275.98,318.26,2557844,Jonathan Allen,93,2019,33,3,11:40:00,NE,1,10,WAS,7,12,2532797,SINGLEBACK,"1 RB, 2 TE, 2 WR",7,"3 DL, 4 LB, 4 DB",right,2019-10-06T19:01:54.000Z,2019-10-06T19:01:52.000Z,6-3,300,01/16/1995,Alabama,DE,WAS,NE,5,FedExField,"Landover, MD",Outdoor,Grass,Cloudy,70.0,66,8,S
70945,2019100609,20191006092693,home,77.72,16.82,0.59,1.82,0.07,308.59,328.78,2557853,Ryan Anderson,52,2019,33,3,11:40:00,NE,1,10,WAS,7,12,2532797,SINGLEBACK,"1 RB, 2 TE, 2 WR",7,"3 DL, 4 LB, 4 DB",right,2019-10-06T19:01:54.000Z,2019-10-06T19:01:52.000Z,6-2,253,08/12/1994,Alabama,OLB,WAS,NE,5,FedExField,"Landover, MD",Outdoor,Grass,Cloudy,70.0,66,8,S
70946,2019100609,20191006092693,home,77.88,21.12,1.69,1.34,0.18,235.15,35.09,2558111,Treyvon Hester,96,2019,33,3,11:40:00,NE,1,10,WAS,7,12,2532797,SINGLEBACK,"1 RB, 2 TE, 2 WR",7,"3 DL, 4 LB, 4 DB",right,2019-10-06T19:01:54.000Z,2019-10-06T19:01:52.000Z,6-2,304,09/21/1992,Toledo,DT,WAS,NE,5,FedExField,"Landover, MD",Outdoor,Grass,Cloudy,70.0,66,8,S
70947,2019100609,20191006092693,home,95.18,33.5,2.13,3.62,0.25,273.97,36.18,2558133,Montae Nicholson,35,2019,33,3,11:40:00,NE,1,10,WAS,7,12,2532797,SINGLEBACK,"1 RB, 2 TE, 2 WR",7,"3 DL, 4 LB, 4 DB",right,2019-10-06T19:01:54.000Z,2019-10-06T19:01:52.000Z,6-2,212,12/04/1995,Michigan State,FS,WAS,NE,5,FedExField,"Landover, MD",Outdoor,Grass,Cloudy,70.0,66,8,S
70948,2019100609,20191006092693,home,78.15,23.17,1.13,1.68,0.1,264.11,112.87,2560834,Daron Payne,94,2019,33,3,11:40:00,NE,1,10,WAS,7,12,2532797,SINGLEBACK,"1 RB, 2 TE, 2 WR",7,"3 DL, 4 LB, 4 DB",right,2019-10-06T19:01:54.000Z,2019-10-06T19:01:52.000Z,6-3,320,05/27/1997,Alabama,NT,WAS,NE,5,FedExField,"Landover, MD",Outdoor,Grass,Cloudy,70.0,66,8,S
70949,2019100609,20191006092693,home,80.15,23.56,3.2,2.0,0.31,256.73,194.44,2562872,Cole Holcomb,55,2019,33,3,11:40:00,NE,1,10,WAS,7,12,2532797,SINGLEBACK,"1 RB, 2 TE, 2 WR",7,"3 DL, 4 LB, 4 DB",right,2019-10-06T19:01:54.000Z,2019-10-06T19:01:52.000Z,6-1,240,07/30/1996,North Carolina,LB,WAS,NE,5,FedExField,"Landover, MD",Outdoor,Grass,Cloudy,70.0,66,8,S
