,GameId,PlayId,Team,X,Y,S,A,Dis,Orientation,Dir,NflId,DisplayName,JerseyNumber,Season,YardLine,Quarter,GameClock,PossessionTeam,Down,Distance,FieldPosition,HomeScoreBeforePlay,VisitorScoreBeforePlay,NflIdRusher,OffenseFormation,OffensePersonnel,DefendersInTheBox,DefensePersonnel,PlayDirection,TimeHandoff,TimeSnap,PlayerHeight,PlayerWeight,PlayerBirthDate,PlayerCollegeName,Position,HomeTeamAbbr,VisitorTeamAbbr,Week,Stadium,Location,StadiumType,Turf,GameWeather,Temperature,Humidity,WindSpeed,WindDirection
20394,2019091504,20190915042419,away,65.56,25.91,2.51,0.62,0.26,156.13,334.47,2543729,Brandon Linder,65,2019,43,3,05:42:00,JAX,2,3,HST,6,3,2557973,SHOTGUN,"1 RB, 1 TE, 3 WR",6,"3 DL, 3 LB, 5 DB",right,2019-09-15T18:53:18.000Z,2019-09-15T18:53:17.000Z,6-6,315,01/25/1992,Miami,C,HOU,JAX,2,NRG Stadium,"Houston, TX",Retractable Roof,Artifical,Sunny,89.0,52,10mph,North East
20395,2019091504,20190915042419,away,65.76,27.4,2.87,0.8,0.29,98.1,19.76,2550589,Andrew Norwell,68,2019,43,3,05:42:00,JAX,2,3,HST,6,3,2557973,SHOTGUN,"1 RB, 1 TE, 3 WR",6,"3 DL, 3 LB, 5 DB",right,2019-09-15T18:53:18.000Z,2019-09-15T18:53:17.000Z,6-6,325,10/25/1991,Ohio State,G,HOU,JAX,2,NRG Stadium,"Houston, TX",Retractable Roof,Artifical,Sunny,89.0,52,10mph,North East
20396,2019091504,20190915042419,away,65.35,23.93,2.2,0.71,0.23,77.28,358.53,2552330,A.J. Cann,60,2019,43,3,05:42:00,JAX,2,3,HST,6,3,2557973,SHOTGUN,"1 RB, 1 TE, 3 WR",6,"3 DL, 3 LB, 5 DB",right,2019-09-15T18:53:18.000Z,2019-09-15T18:53:17.000Z,6-3,325,10/23/1991,South Carolina,G,HOU,JAX,2,NRG Stadium,"Houston, TX",Retractable Roof,Artifical,Sunny,89.0,52,10mph,North East
20397,2019091504,20190915042419,away,66.78,12.09,2.75,1.43,0.27,93.53,55.78,2552652,Chris Conley,18,2019,43,3,05:42:00,JAX,2,3,HST,6,3,2557973,SHOTGUN,"1 RB, 1 TE, 3 WR",6,"3 DL, 3 LB, 5 DB",right,2019-09-15T18:53:18.000Z,2019-09-15T18:53:17.000Z,6-3,205,10/25/1992,Georgia,WR,HOU,JAX,2,NRG Stadium,"Houston, TX",Retractable Roof,Artifical,Sunny,89.0,52,10mph,North East
20398,2019091504,20190915042419,away,65.16,30.67,3.17,1.52,0.31,100.97,354.07,2553318,James O'Shaughnessy,80,2019,43,3,05:42:00,JAX,2,3,HST,6,3,2557973,SHOTGUN,"1 RB, 1 TE, 3 WR",6,"3 DL, 3 LB, 5 DB",right,2019-09-15T18:53:18.000Z,2019-09-15T18:53:17.000Z,6-4,245,01/14/1992,Illinois State,TE,HOU,JAX,2,NRG Stadium,"Houston, TX",Retractable Roof,Artifical,Sunny,89.0,52,10mph,North East
20399,2019091504,20190915042419,away,66.35,36.76,3.47,3.14,0.33,83.95,66.48,2557895,Dede Westbrook,12,2019,43,3,05:42:00,JAX,2,3,HST,6,3,2557973,SHOTGUN,"1 RB, 1 TE, 3 WR",6,"3 DL, 3 LB, 5 DB",right,2019-09-15T18:53:18.000Z,2019-09-15T18:53:17.000Z,6-0,176,11/21/1993,Oklahoma,WR,HOU,JAX,2,NRG Stadium,"Houston, TX",Retractable Roof,Artifical,Sunny,89.0,52,10mph,North East
20400,2019091504,20190915042419,away,61.77,24.23,5.2,3.5,0.5,50.9,9.74,2557973,Leonard Fournette,27,2019,43,3,05:42:00,JAX,2,3,HST,6,3,2557973,SHOTGUN,"1 RB, 1 TE, 3 WR",6,"3 DL, 3 LB, 5 DB",right,2019-09-15T18:53:18.000Z,2019-09-15T18:53:17.000Z,6-0,228,01/18/1995,Louisiana State,RB,HOU,JAX,2,NRG Stadium,"Houston, TX",Retractable Roof,Artifical,Sunny,89.0,52,10mph,North East
20401,2019091504,20190915042419,away,66.4,28.09,2.02,1.42,0.21,93.1,36.51,2560853,Will Richardson,76,2019,43,3,05:42:00,JAX,2,3,HST,6,3,2557973,SHOTGUN,"1 RB, 1 TE, 3 WR",6,"3 DL, 3 LB, 5 DB",right,2019-09-15T18:53:18.000Z,2019-09-15T18:53:17.000Z,6-6,303,01/04/1996,North Carolina State,T,HOU,JAX,2,NRG Stadium,"Houston, TX",Retractable Roof,Artifical,Sunny,89.0,52,10mph,North East
20402,2019091504,20190915042419,away,66.03,46.44,3.45,3.19,0.33,74.3,77.47,2561018,D.J. Chark,17,2019,43,3,05:42:00,JAX,2,3,HST,6,3,2557973,SHOTGUN,"1 RB, 1 TE, 3 WR",6,"3 DL, 3 LB, 5 DB",right,2019-09-15T18:53:18.000Z,2019-09-15T18:53:17.000Z,6-4,198,09/23/1996,Louisiana State,WR,HOU,JAX,2,NRG Stadium,"Houston, TX",Retractable Roof,Artifical,Sunny,89.0,52,10mph,North East
20403,2019091504,20190915042419,away,65.44,22.9,2.81,0.07,0.28,74.18,7.96,2562756,Jawaan Taylor,75,2019,43,3,05:42:00,JAX,2,3,HST,6,3,2557973,SHOTGUN,"1 RB, 1 TE, 3 WR",6,"3 DL, 3 LB, 5 DB",right,2019-09-15T18:53:18.000Z,2019-09-15T18:53:17.000Z,6-5,312,11/25/1997,Florida,T,HOU,JAX,2,NRG Stadium,"Houston, TX",Retractable Roof,Artifical,Sunny,89.0,52,10mph,North East
20404,2019091504,20190915042419,away,61.26,24.55,0.67,1.36,0.07,122.35,300.24,2562796,Gardner Minshew,15,2019,43,3,05:42:00,JAX,2,3,HST,6,3,2557973,SHOTGUN,"1 RB, 1 TE, 3 WR",6,"3 DL, 3 LB, 5 DB",right,2019-09-15T18:53:18.000Z,2019-09-15T18:53:17.000Z,6-1,225,05/16/1996,Washington State,QB,HOU,JAX,2,NRG Stadium,"Houston, TX",Retractable Roof,Artifical,Sunny,89.0,52,10mph,North East
20405,2019091504,20190915042419,home,64.65,19.39,3.11,1.34,0.31,322.56,292.74,2495488,J.J. Watt,99,2019,43,3,05:42:00,JAX,2,3,HST,6,3,2557973,SHOTGUN,"1 RB, 1 TE, 3 WR",6,"3 DL, 3 LB, 5 DB",right,2019-09-15T18:53:18.000Z,2019-09-15T18:53:17.000Z,6-5,288,03/22/1989,Wisconsin,DE,HOU,JAX,2,NRG Stadium,"Houston, TX",Retractable Roof,Artifical,Sunny,89.0,52,10mph,North East
20406,2019091504,20190915042419,home,68.96,11.55,2.71,2.05,0.26,309.31,60.61,2495872,Johnathan Joseph,24,2019,43,3,05:42:00,JAX,2,3,HST,6,3,2557973,SHOTGUN,"1 RB, 1 TE, 3 WR",6,"3 DL, 3 LB, 5 DB",right,2019-09-15T18:53:18.000Z,2019-09-15T18:53:17.000Z,5-11,185,04/16/1984,South Carolina,CB,HOU,JAX,2,NRG Stadium,"Houston, TX",Retractable Roof,Artifical,Sunny,89.0,52,10mph,North East
20407,2019091504,20190915042419,home,81.39,26.29,0.97,2.87,0.09,267.76,310.42,2532848,Tashaun Gipson,39,2019,43,3,05:42:00,JAX,2,3,HST,6,3,2557973,SHOTGUN,"1 RB, 1 TE, 3 WR",6,"3 DL, 3 LB, 5 DB",right,2019-09-15T18:53:18.000Z,2019-09-15T18:53:17.000Z,6-1,212,08/07/1990,Wyoming,FS,HOU,JAX,2,NRG Stadium,"Houston, TX",Retractable Roof,Artifical,Sunny,89.0,52,10mph,North East
20408,2019091504,20190915042419,home,68.14,36.77,2.12,3.28,0.2,276.78,47.78,2543505,Bradley Roby,21,2019,43,3,05:42:00,JAX,2,3,HST,6,3,2557973,SHOTGUN,"1 RB, 1 TE, 3 WR",6,"3 DL, 3 LB, 5 DB",right,2019-09-15T18:53:18.000Z,2019-09-15T18:53:17.000Z,5-11,194,05/01/1992,Ohio State,CB,HOU,JAX,2,NRG Stadium,"Houston, TX",Retractable Roof,Artifical,Sunny,89.0,52,10mph,North East
20409,2019091504,20190915042419,home,66.31,23.04,2.44,1.47,0.25,285.77,344.71,2550559,Brandon Dunn,92,2019,43,3,05:42:00,JAX,2,3,HST,6,3,2557973,SHOTGUN,"1 RB, 1 TE, 3 WR",6,"3 DL, 3 LB, 5 DB",right,2019-09-15T18:53:18.000Z,2019-09-15T18:53:17.000Z,6-2,310,09/05/1992,Louisville,DT,HOU,JAX,2,NRG Stadium,"Houston, TX",Retractable Roof,Artifical,Sunny,89.0,52,10mph,North East
20410,2019091504,20190915042419,home,65.93,25.58,2.55,0.58,0.25,303.39,314.34,2552490,Benardrick McKinney,55,2019,43,3,05:42:00,JAX,2,3,HST,6,3,2557973,SHOTGUN,"1 RB, 1 TE, 3 WR",6,"3 DL, 3 LB, 5 DB",right,2019-09-15T18:53:18.000Z,2019-09-15T18:53:17.000Z,6-4,257,11/19/1992,Mississippi State,ILB,HOU,JAX,2,NRG Stadium,"Houston, TX",Retractable Roof,Artifical,Sunny,89.0,52,10mph,North East
20411,2019091504,20190915042419,home,66.68,27.31,1.33,1.83,0.13,333.31,354.94,2552670,Angelo Blackson,97,2019,43,3,05:42:00,JAX,2,3,HST,6,3,2557973,SHOTGUN,"1 RB, 1 TE, 3 WR",6,"3 DL, 3 LB, 5 DB",right,2019-09-15T18:53:18.000Z,2019-09-15T18:53:17.000Z,6-4,318,11/14/1992,Auburn,DE,HOU,JAX,2,NRG Stadium,"Houston, TX",Retractable Roof,Artifical,Sunny,89.0,52,10mph,North East
20412,2019091504,20190915042419,home,68.76,21.71,3.64,4.13,0.34,309.58,349.95,2558094,Zach Cunningham,41,2019,43,3,05:42:00,JAX,2,3,HST,6,3,2557973,SHOTGUN,"1 RB, 1 TE, 3 WR",6,"3 DL, 3 LB, 5 DB",right,2019-09-15T18:53:18.000Z,2019-09-15T18:53:17.000Z,6-3,238,12/12/1994,Vanderbilt,ILB,HOU,JAX,2,NRG Stadium,"Houston, TX",Retractable Roof,Artifical,Sunny,89.0,52,10mph,North East
20413,2019091504,20190915042419,home,70.24,28.87,2.58,3.63,0.23,286.09,328.42,2560851,Justin Reid,20,2019,43,3,05:42:00,JAX,2,3,HST,6,3,2557973,SHOTGUN,"1 RB, 1 TE, 3 WR",6,"3 DL, 3 LB, 5 DB",right,2019-09-15T18:53:18.000Z,2019-09-15T18:53:17.000Z,6-1,204,02/15/1997,Stanford,SS,HOU,JAX,2,NRG Stadium,"Houston, TX",Retractable Roof,Artifical,Sunny,89.0,52,10mph,North East
20414,2019091504,20190915042419,home,66.13,30.84,2.16,1.68,0.21,270.55,305.61,2561092,Jake Martin,54,2019,43,3,05:42:00,JAX,2,3,HST,6,3,2557973,SHOTGUN,"1 RB, 1 TE, 3 WR",6,"3 DL, 3 LB, 5 DB",right,2019-09-15T18:53:18.000Z,2019-09-15T18:53:17.000Z,6-2,242,12/11/1995,Temple,LB,HOU,JAX,2,NRG Stadium,"Houston, TX",Retractable Roof,Artifical,Sunny,89.0,52,10mph,North East
20415,2019091504,20190915042419,home,68.24,46.24,2.5,2.33,0.24,259.64,68.05,2562295,Lonnie Johnson,32,2019,43,3,05:42:00,JAX,2,3,HST,6,3,2557973,SHOTGUN,"1 RB, 1 TE, 3 WR",6,"3 DL, 3 LB, 5 DB",right,2019-09-15T18:53:18.000Z,2019-09-15T18:53:17.000Z,6-2,213,11/04/1995,Kentucky,DB,HOU,JAX,2,NRG Stadium,"Houston, TX",Retractable Roof,Artifical,Sunny,89.0,52,10mph,North East
