,GameId,PlayId,Team,X,Y,S,A,Dis,Orientation,Dir,NflId,DisplayName,JerseyNumber,Season,YardLine,Quarter,GameClock,PossessionTeam,Down,Distance,FieldPosition,HomeScoreBeforePlay,VisitorScoreBeforePlay,NflIdRusher,OffenseFormation,OffensePersonnel,DefendersInTheBox,DefensePersonnel,PlayDirection,TimeHandoff,TimeSnap,PlayerHeight,PlayerWeight,PlayerBirthDate,PlayerCollegeName,Position,HomeTeamAbbr,VisitorTeamAbbr,Week,Stadium,Location,StadiumType,Turf,GameWeather,Temperature,Humidity,WindSpeed,WindDirection
16610,2019091501,20190915010900,away,51.32,16.4,2.32,1.14,0.23,342.9,72.1,2495507,Richard Sherman,25,2019,32,1,00:29:00,CIN,2,16,CIN,7,14,2540156,SINGLEBACK,"1 RB, 1 TE, 3 WR",6,"4 DL, 2 LB, 5 DB",right,2019-09-15T17:33:59.000Z,2019-09-15T17:33:57.000Z,6-3,195,03/30/1988,Stanford,CB,CIN,SF,2,Paul Brown Stadium,"Cincinnati, OH",Outdoor,Twenty Four/Seven Turf,Mostly Sunny,81.0,45,5,E
16611,2019091501,20190915010900,away,45.29,33.86,1.72,1.76,0.16,266.98,329.06,2550654,K'Waun Williams,24,2019,32,1,00:29:00,CIN,2,16,CIN,7,14,2540156,SINGLEBACK,"1 RB, 1 TE, 3 WR",6,"4 DL, 2 LB, 5 DB",right,2019-09-15T17:33:59.000Z,2019-09-15T17:33:57.000Z,5-9,183,07/12/1991,Pittsburgh,CB,CIN,SF,2,Paul Brown Stadium,"Cincinnati, OH",Outdoor,Twenty Four/Seven Turf,Mostly Sunny,81.0,45,5,E
16612,2019091501,20190915010900,away,50.8,24.32,1.96,2.0,0.18,279.2,52.03,2552391,Jaquiski Tartt,29,2019,32,1,00:29:00,CIN,2,16,CIN,7,14,2540156,SINGLEBACK,"1 RB, 1 TE, 3 WR",6,"4 DL, 2 LB, 5 DB",right,2019-09-15T17:33:59.000Z,2019-09-15T17:33:57.000Z,6-1,215,02/12/1992,Samford,FS,CIN,SF,2,Paul Brown Stadium,"Cincinnati, OH",Outdoor,Twenty Four/Seven Turf,Mostly Sunny,81.0,45,5,E
16613,2019091501,20190915010900,away,46.29,27.93,1.92,1.21,0.19,280.75,308.95,2552592,Kwon Alexander,56,2019,32,1,00:29:00,CIN,2,16,CIN,7,14,2540156,SINGLEBACK,"1 RB, 1 TE, 3 WR",6,"4 DL, 2 LB, 5 DB",right,2019-09-15T17:33:59.000Z,2019-09-15T17:33:57.000Z,6-1,227,08/03/1994,Louisiana State,MLB,CIN,SF,2,Paul Brown Stadium,"Cincinnati, OH",Outdoor,Twenty Four/Seven Turf,Mostly Sunny,81.0,45,5,E
16614,2019091501,20190915010900,away,39.86,26.84,4.73,1.9,0.48,315.52,327.58,2555251,Ronald Blair,98,2019,32,1,00:29:00,CIN,2,16,CIN,7,14,2540156,SINGLEBACK,"1 RB, 1 TE, 3 WR",6,"4 DL, 2 LB, 5 DB",right,2019-09-15T17:33:59.000Z,2019-09-15T17:33:57.000Z,6-4,270,01/21/1993,Appalachian State,DE,CIN,SF,2,Paul Brown Stadium,"Cincinnati, OH",Outdoor,Twenty Four/Seven Turf,Mostly Sunny,81.0,45,5,E
16615,2019091501,20190915010900,away,41.76,28.26,0.73,0.38,0.08,280.41,352.45,2558018,Solomon Thomas,94,2019,32,1,00:29:00,CIN,2,16,CIN,7,14,2540156,SINGLEBACK,"1 RB, 1 TE, 3 WR",6,"4 DL, 2 LB, 5 DB",right,2019-09-15T17:33:59.000Z,2019-09-15T17:33:57.000Z,6-3,280,08/26/1995,Stanford,DE,CIN,SF,2,Paul Brown Stadium,"Cincinnati, OH",Outdoor,Twenty Four/Seven Turf,Mostly Sunny,81.0,45,5,E
16616,2019091501,20190915010900,away,49.09,39.12,1.31,3.01,0.11,245.41,62.5,2558157,Ahkello Witherspoon,23,2019,32,1,00:29:00,CIN,2,16,CIN,7,14,2540156,SINGLEBACK,"1 RB, 1 TE, 3 WR",6,"4 DL, 2 LB, 5 DB",right,2019-09-15T17:33:59.000Z,2019-09-15T17:33:57.000Z,6-3,195,03/21/1995,Colorado,CB,CIN,SF,2,Paul Brown Stadium,"Cincinnati, OH",Outdoor,Twenty Four/Seven Turf,Mostly Sunny,81.0,45,5,E
16617,2019091501,20190915010900,away,42.9,29.52,2.7,2.35,0.26,159.99,131.41,2558265,D.J. Jones,93,2019,32,1,00:29:00,CIN,2,16,CIN,7,14,2540156,SINGLEBACK,"1 RB, 1 TE, 3 WR",6,"4 DL, 2 LB, 5 DB",right,2019-09-15T17:33:59.000Z,2019-09-15T17:33:57.000Z,6-0,321,01/19/1995,Mississippi,DT,CIN,SF,2,Paul Brown Stadium,"Cincinnati, OH",Outdoor,Twenty Four/Seven Turf,Mostly Sunny,81.0,45,5,E
16618,2019091501,20190915010900,away,46.49,31.28,1.94,3.09,0.18,260.83,317.63,2560917,Fred Warner,54,2019,32,1,00:29:00,CIN,2,16,CIN,7,14,2540156,SINGLEBACK,"1 RB, 1 TE, 3 WR",6,"4 DL, 2 LB, 5 DB",right,2019-09-15T17:33:59.000Z,2019-09-15T17:33:57.000Z,6-3,236,11/19/1996,Brigham Young,LB,CIN,SF,2,Paul Brown Stadium,"Cincinnati, OH",Outdoor,Twenty Four/Seven Turf,Mostly Sunny,81.0,45,5,E
16619,2019091501,20190915010900,away,55.27,32.72,1.3,0.64,0.13,267.31,6.67,2561117,Tarvarius Moore,33,2019,32,1,00:29:00,CIN,2,16,CIN,7,14,2540156,SINGLEBACK,"1 RB, 1 TE, 3 WR",6,"4 DL, 2 LB, 5 DB",right,2019-09-15T17:33:59.000Z,2019-09-15T17:33:57.000Z,6-2,200,08/16/1996,Southern Mississippi,DB,CIN,SF,2,Paul Brown Stadium,"Cincinnati, OH",Outdoor,Twenty Four/Seven Turf,Mostly Sunny,81.0,45,5,E
16620,2019091501,20190915010900,away,39.94,32.98,2.43,2.68,0.25,221.49,220.37,2562629,Nick Bosa,97,2019,32,1,00:29:00,CIN,2,16,CIN,7,14,2540156,SINGLEBACK,"1 RB, 1 TE, 3 WR",6,"4 DL, 2 LB, 5 DB",right,2019-09-15T17:33:59.000Z,2019-09-15T17:33:57.000Z,6-4,266,10/23/1997,Ohio State,DE,CIN,SF,2,Paul Brown Stadium,"Cincinnati, OH",Outdoor,Twenty Four/Seven Turf,Mostly Sunny,81.0,45,5,E
16621,2019091501,20190915010900,home,42.19,30.45,3.26,2.74,0.33,136.16,127.68,71465,Andre Smith,71,2019,32,1,00:29:00,CIN,2,16,CIN,7,14,2540156,SINGLEBACK,"1 RB, 1 TE, 3 WR",6,"4 DL, 2 LB, 5 DB",right,2019-09-15T17:33:59.000Z,2019-09-15T17:33:57.000Z,6-4,330,01/25/1987,Alabama,T,CIN,SF,2,Paul Brown Stadium,"Cincinnati, OH",Outdoor,Twenty Four/Seven Turf,Mostly Sunny,81.0,45,5,E
16622,2019091501,20190915010900,home,37.57,29.22,5.38,1.94,0.51,331.54,256.59,2495143,Andy Dalton,14,2019,32,1,00:29:00,CIN,2,16,CIN,7,14,2540156,SINGLEBACK,"1 RB, 1 TE, 3 WR",6,"4 DL, 2 LB, 5 DB",right,2019-09-15T17:33:59.000Z,2019-09-15T17:33:57.000Z,6-2,220,10/29/1987,Texas Christian,QB,CIN,SF,2,Paul Brown Stadium,"Cincinnati, OH",Outdoor,Twenty Four/Seven Turf,Mostly Sunny,81.0,45,5,E
16623,2019091501,20190915010900,home,35.62,29.65,2.94,3.08,0.28,54.6,66.44,2540156,Giovani Bernard,25,2019,32,1,00:29:00,CIN,2,16,CIN,7,14,2540156,SINGLEBACK,"1 RB, 1 TE, 3 WR",6,"4 DL, 2 LB, 5 DB",right,2019-09-15T17:33:59.000Z,2019-09-15T17:33:57.000Z,5-9,205,11/22/1991,North Carolina,HB,CIN,SF,2,Paul Brown Stadium,"Cincinnati, OH",Outdoor,Twenty Four/Seven Turf,Mostly Sunny,81.0,45,5,E
16624,2019091501,20190915010900,home,39.53,31.84,2.7,1.33,0.26,26.27,326.49,2550208,Trey Hopkins,66,2019,32,1,00:29:00,CIN,2,16,CIN,7,14,2540156,SINGLEBACK,"1 RB, 1 TE, 3 WR",6,"4 DL, 2 LB, 5 DB",right,2019-09-15T17:33:59.000Z,2019-09-15T17:33:57.000Z,6-3,316,07/06/1992,Texas,G,CIN,SF,2,Paul Brown Stadium,"Cincinnati, OH",Outdoor,Twenty Four/Seven Turf,Mostly Sunny,81.0,45,5,E
16625,2019091501,20190915010900,home,40.49,28.02,1.44,3.45,0.13,205.36,297.54,2552335,Bobby Hart,68,2019,32,1,00:29:00,CIN,2,16,CIN,7,14,2540156,SINGLEBACK,"1 RB, 1 TE, 3 WR",6,"4 DL, 2 LB, 5 DB",right,2019-09-15T17:33:59.000Z,2019-09-15T17:33:57.000Z,6-5,310,08/21/1994,Florida State,OT,CIN,SF,2,Paul Brown Stadium,"Cincinnati, OH",Outdoor,Twenty Four/Seven Turf,Mostly Sunny,81.0,45,5,E
16626,2019091501,20190915010900,home,39.51,28.8,4.91,3.13,0.49,12.72,11.54,2552559,C.J. Uzomah,87,2019,32,1,00:29:00,CIN,2,16,CIN,7,14,2540156,SINGLEBACK,"1 RB, 1 TE, 3 WR",6,"4 DL, 2 LB, 5 DB",right,2019-09-15T17:33:59.000Z,2019-09-15T17:33:57.000Z,6-6,260,01/14/1993,Auburn,TE,CIN,SF,2,Paul Brown Stadium,"Cincinnati, OH",Outdoor,Twenty Four/Seven Turf,Mostly Sunny,81.0,45,5,E
16627,2019091501,20190915010900,home,41.13,28.79,1.02,0.74,0.1,102.6,12.42,2553436,John Miller,67,2019,32,1,00:29:00,CIN,2,16,CIN,7,14,2540156,SINGLEBACK,"1 RB, 1 TE, 3 WR",6,"4 DL, 2 LB, 5 DB",right,2019-09-15T17:33:59.000Z,2019-09-15T17:33:57.000Z,6-3,315,08/12/1993,Louisville,G,CIN,SF,2,Paul Brown Stadium,"Cincinnati, OH",Outdoor,Twenty Four/Seven Turf,Mostly Sunny,81.0,45,5,E
16628,2019091501,20190915010900,home,41.74,35.62,3.56,1.89,0.35,85.44,77.69,2555466,Tyler Boyd,83,2019,32,1,00:29:00,CIN,2,16,CIN,7,14,2540156,SINGLEBACK,"1 RB, 1 TE, 3 WR",6,"4 DL, 2 LB, 5 DB",right,2019-09-15T17:33:59.000Z,2019-09-15T17:33:57.000Z,6-2,203,11/15/1994,Pittsburgh,WR,CIN,SF,2,Paul Brown Stadium,"Cincinnati, OH",Outdoor,Twenty Four/Seven Turf,Mostly Sunny,81.0,45,5,E
16629,2019091501,20190915010900,home,43.5,21.72,4.85,2.25,0.47,52.45,56.16,2558010,John Ross,11,2019,32,1,00:29:00,CIN,2,16,CIN,7,14,2540156,SINGLEBACK,"1 RB, 1 TE, 3 WR",6,"4 DL, 2 LB, 5 DB",right,2019-09-15T17:33:59.000Z,2019-09-15T17:33:57.000Z,5-11,194,11/27/1995,Washington,WR,CIN,SF,2,Paul Brown Stadium,"Cincinnati, OH",Outdoor,Twenty Four/Seven Turf,Mostly Sunny,81.0,45,5,E
16630,2019091501,20190915010900,home,41.78,29.74,1.95,1.34,0.19,117.93,125.57,2562679,Mike Jordan,60,2019,32,1,00:29:00,CIN,2,16,CIN,7,14,2540156,SINGLEBACK,"1 RB, 1 TE, 3 WR",6,"4 DL, 2 LB, 5 DB",right,2019-09-15T17:33:59.000Z,2019-09-15T17:33:57.000Z,6-6,315,01/25/1998,Ohio State,OG,CIN,SF,2,Paul Brown Stadium,"Cincinnati, OH",Outdoor,Twenty Four/Seven Turf,Mostly Sunny,81.0,45,5,E
16631,2019091501,20190915010900,home,43.13,36.83,4.0,2.32,0.39,74.24,66.35,2563238,Damion Willis,15,2019,32,1,00:29:00,CIN,2,16,CIN,7,14,2540156,SINGLEBACK,"1 RB, 1 TE, 3 WR",6,"4 DL, 2 LB, 5 DB",right,2019-09-15T17:33:59.000Z,2019-09-15T17:33:57.000Z,6-3,204,06/20/1997,Troy,WR,CIN,SF,2,Paul Brown Stadium,"Cincinnati, OH",Outdoor,Twenty Four/Seven Turf,Mostly Sunny,81.0,45,5,E
