,GameId,PlayId,Team,X,Y,S,A,Dis,Orientation,Dir,NflId,DisplayName,JerseyNumber,Season,YardLine,Quarter,GameClock,PossessionTeam,Down,Distance,FieldPosition,HomeScoreBeforePlay,VisitorScoreBeforePlay,NflIdRusher,OffenseFormation,OffensePersonnel,DefendersInTheBox,DefensePersonnel,PlayDirection,TimeHandoff,TimeSnap,PlayerHeight,PlayerWeight,PlayerBirthDate,PlayerCollegeName,Position,HomeTeamAbbr,VisitorTeamAbbr,Week,Stadium,Location,StadiumType,Turf,GameWeather,Temperature,Humidity,WindSpeed,WindDirection
56958,2019092910,20190929101164,away,102.62,30.69,2.63,4.56,0.27,225.19,297.28,2495438,Kyle Rudolph,82,2019,7,2,12:29:00,MIN,2,8,MIN,7,0,2557991,JUMBO,"1 RB, 3 TE, 1 WR",8,"3 DL, 4 LB, 4 DB",left,2019-09-29T21:07:49.000Z,2019-09-29T21:07:47.000Z,6-6,265,11/09/1989,Notre Dame,TE,CHI,MIN,4,Soldier Field,"Chicago, IL",Outdoor,Natural Grass,Cloudy,67.0,89,8,East
56959,2019092910,20190929101164,away,107.31,25.29,4.86,1.78,0.47,13.76,70.98,2532820,Kirk Cousins,8,2019,7,2,12:29:00,MIN,2,8,MIN,7,0,2557991,JUMBO,"1 RB, 3 TE, 1 WR",8,"3 DL, 4 LB, 4 DB",left,2019-09-29T21:07:49.000Z,2019-09-29T21:07:47.000Z,6-3,202,08/19/1988,Michigan State,QB,CHI,MIN,4,Soldier Field,"Chicago, IL",Outdoor,Natural Grass,Cloudy,67.0,89,8,East
56960,2019092910,20190929101164,away,102.06,23.15,2.82,1.67,0.3,313.22,308.32,2533042,Riley Reiff,71,2019,7,2,12:29:00,MIN,2,8,MIN,7,0,2557991,JUMBO,"1 RB, 3 TE, 1 WR",8,"3 DL, 4 LB, 4 DB",left,2019-09-29T21:07:49.000Z,2019-09-29T21:07:47.000Z,6-6,305,12/01/1988,Iowa,T,CHI,MIN,4,Soldier Field,"Chicago, IL",Outdoor,Natural Grass,Cloudy,67.0,89,8,East
56961,2019092910,20190929101164,away,102.75,14.45,3.83,2.25,0.38,230.16,248.33,2541785,Adam Thielen,19,2019,7,2,12:29:00,MIN,2,8,MIN,7,0,2557991,JUMBO,"1 RB, 3 TE, 1 WR",8,"3 DL, 4 LB, 4 DB",left,2019-09-29T21:07:49.000Z,2019-09-29T21:07:47.000Z,6-2,200,08/22/1990,Minn. State-Mankato,WR,CHI,MIN,4,Soldier Field,"Chicago, IL",Outdoor,Natural Grass,Cloudy,67.0,89,8,East
56962,2019092910,20190929101164,away,102.64,28.93,3.02,1.59,0.3,277.11,334.31,2543805,Dakota Dozier,78,2019,7,2,12:29:00,MIN,2,8,MIN,7,0,2557991,JUMBO,"1 RB, 3 TE, 1 WR",8,"3 DL, 4 LB, 4 DB",left,2019-09-29T21:07:49.000Z,2019-09-29T21:07:47.000Z,6-4,313,04/30/1991,Furman,G,CHI,MIN,4,Soldier Field,"Chicago, IL",Outdoor,Natural Grass,Cloudy,67.0,89,8,East
56963,2019092910,20190929101164,away,107.36,25.8,5.08,3.62,0.5,238.68,283.43,2557991,Dalvin Cook,33,2019,7,2,12:29:00,MIN,2,8,MIN,7,0,2557991,JUMBO,"1 RB, 3 TE, 1 WR",8,"3 DL, 4 LB, 4 DB",left,2019-09-29T21:07:49.000Z,2019-09-29T21:07:47.000Z,5-10,210,08/10/1995,Florida State,RB,CHI,MIN,4,Soldier Field,"Chicago, IL",Outdoor,Natural Grass,Cloudy,67.0,89,8,East
56964,2019092910,20190929101164,away,102.29,23.92,2.51,0.51,0.26,284.46,325.26,2558848,Pat Elflein,65,2019,7,2,12:29:00,MIN,2,8,MIN,7,0,2557991,JUMBO,"1 RB, 3 TE, 1 WR",8,"3 DL, 4 LB, 4 DB",left,2019-09-29T21:07:49.000Z,2019-09-29T21:07:47.000Z,6-3,303,07/06/1994,Ohio State,G,CHI,MIN,4,Soldier Field,"Chicago, IL",Outdoor,Natural Grass,Cloudy,67.0,89,8,East
56965,2019092910,20190929101164,away,104.3,30.0,2.24,1.57,0.23,3.02,22.74,2560831,Brian O'Neill,75,2019,7,2,12:29:00,MIN,2,8,MIN,7,0,2557991,JUMBO,"1 RB, 3 TE, 1 WR",8,"3 DL, 4 LB, 4 DB",left,2019-09-29T21:07:49.000Z,2019-09-29T21:07:47.000Z,6-7,297,09/15/1995,Pittsburgh,T,CHI,MIN,4,Soldier Field,"Chicago, IL",Outdoor,Natural Grass,Cloudy,67.0,89,8,East
56966,2019092910,20190929101164,away,103.42,21.79,3.48,0.9,0.34,190.43,356.13,2561027,Tyler Conklin,83,2019,7,2,12:29:00,MIN,2,8,MIN,7,0,2557991,JUMBO,"1 RB, 3 TE, 1 WR",8,"3 DL, 4 LB, 4 DB",left,2019-09-29T21:07:49.000Z,2019-09-29T21:07:47.000Z,6-3,254,07/30/1995,Central Michigan,TE,CHI,MIN,4,Soldier Field,"Chicago, IL",Outdoor,Natural Grass,Cloudy,67.0,89,8,East
56967,2019092910,20190929101164,away,103.32,26.15,2.03,0.86,0.2,288.71,356.76,2562632,Garrett Bradbury,56,2019,7,2,12:29:00,MIN,2,8,MIN,7,0,2557991,JUMBO,"1 RB, 3 TE, 1 WR",8,"3 DL, 4 LB, 4 DB",left,2019-09-29T21:07:49.000Z,2019-09-29T21:07:47.000Z,6-3,305,06/20/1995,North Carolina State,C,CHI,MIN,4,Soldier Field,"Chicago, IL",Outdoor,Natural Grass,Cloudy,67.0,89,8,East
56968,2019092910,20190929101164,away,103.7,32.49,3.54,1.01,0.36,313.18,355.1,2562738,Irv Smith,84,2019,7,2,12:29:00,MIN,2,8,MIN,7,0,2557991,JUMBO,"1 RB, 3 TE, 1 WR",8,"3 DL, 4 LB, 4 DB",left,2019-09-29T21:07:49.000Z,2019-09-29T21:07:47.000Z,6-2,240,08/09/1998,Alabama,TE,CHI,MIN,4,Soldier Field,"Chicago, IL",Outdoor,Natural Grass,Cloudy,67.0,89,8,East
56969,2019092910,20190929101164,home,99.65,12.71,2.57,1.15,0.25,15.04,240.34,2495108,Prince Amukamara,20,2019,7,2,12:29:00,MIN,2,8,MIN,7,0,2557991,JUMBO,"1 RB, 3 TE, 1 WR",8,"3 DL, 4 LB, 4 DB",left,2019-09-29T21:07:49.000Z,2019-09-29T21:07:47.000Z,6-0,204,06/06/1989,Nebraska,CB,CHI,MIN,4,Soldier Field,"Chicago, IL",Outdoor,Natural Grass,Cloudy,67.0,89,8,East
56970,2019092910,20190929101164,home,101.11,26.27,2.35,2.78,0.24,79.43,79.16,2532961,Danny Trevathan,59,2019,7,2,12:29:00,MIN,2,8,MIN,7,0,2557991,JUMBO,"1 RB, 3 TE, 1 WR",8,"3 DL, 4 LB, 4 DB",left,2019-09-29T21:07:49.000Z,2019-09-29T21:07:47.000Z,6-0,239,03/24/1990,Kentucky,ILB,CHI,MIN,4,Soldier Field,"Chicago, IL",Outdoor,Natural Grass,Cloudy,67.0,89,8,East
56971,2019092910,20190929101164,home,103.94,30.58,2.91,0.77,0.3,67.22,28.45,2541479,Nick Williams,97,2019,7,2,12:29:00,MIN,2,8,MIN,7,0,2557991,JUMBO,"1 RB, 3 TE, 1 WR",8,"3 DL, 4 LB, 4 DB",left,2019-09-29T21:07:49.000Z,2019-09-29T21:07:47.000Z,6-4,309,02/21/1990,Samford,DT,CHI,MIN,4,Soldier Field,"Chicago, IL",Outdoor,Natural Grass,Cloudy,67.0,89,8,East
56972,2019092910,20190929101164,home,103.57,21.21,3.48,1.56,0.35,0.15,14.49,2543463,Khalil Mack,52,2019,7,2,12:29:00,MIN,2,8,MIN,7,0,2557991,JUMBO,"1 RB, 3 TE, 1 WR",8,"3 DL, 4 LB, 4 DB",left,2019-09-29T21:07:49.000Z,2019-09-29T21:07:47.000Z,6-3,269,02/22/1991,Buffalo,OLB,CHI,MIN,4,Soldier Field,"Chicago, IL",Outdoor,Natural Grass,Cloudy,67.0,89,8,East
56973,2019092910,20190929101164,home,90.09,22.18,2.58,3.12,0.25,72.03,55.44,2543470,Ha Ha Clinton-Dix,21,2019,7,2,12:29:00,MIN,2,8,MIN,7,0,2557991,JUMBO,"1 RB, 3 TE, 1 WR",8,"3 DL, 4 LB, 4 DB",left,2019-09-29T21:07:49.000Z,2019-09-29T21:07:47.000Z,6-1,211,12/21/1992,Alabama,FS,CHI,MIN,4,Soldier Field,"Chicago, IL",Outdoor,Natural Grass,Cloudy,67.0,89,8,East
56974,2019092910,20190929101164,home,96.17,34.39,1.78,1.59,0.18,121.34,346.07,2543681,Kyle Fuller,23,2019,7,2,12:29:00,MIN,2,8,MIN,7,0,2557991,JUMBO,"1 RB, 3 TE, 1 WR",8,"3 DL, 4 LB, 4 DB",left,2019-09-29T21:07:49.000Z,2019-09-29T21:07:47.000Z,5-11,194,02/16/1992,Virginia Tech,CB,CHI,MIN,4,Soldier Field,"Chicago, IL",Outdoor,Natural Grass,Cloudy,67.0,89,8,East
56975,2019092910,20190929101164,home,102.31,26.51,2.1,1.24,0.22,102.5,356.45,2552489,Eddie Goldman,91,2019,7,2,12:29:00,MIN,2,8,MIN,7,0,2557991,JUMBO,"1 RB, 3 TE, 1 WR",8,"3 DL, 4 LB, 4 DB",left,2019-09-29T21:07:49.000Z,2019-09-29T21:07:47.000Z,6-3,320,01/06/1994,Florida State,NT,CHI,MIN,4,Soldier Field,"Chicago, IL",Outdoor,Natural Grass,Cloudy,67.0,89,8,East
56976,2019092910,20190929101164,home,103.01,32.75,3.19,2.08,0.32,114.25,2.97,2555285,Leonard Floyd,94,2019,7,2,12:29:00,MIN,2,8,MIN,7,0,2557991,JUMBO,"1 RB, 3 TE, 1 WR",8,"3 DL, 4 LB, 4 DB",left,2019-09-29T21:07:49.000Z,2019-09-29T21:07:47.000Z,6-5,240,09/08/1992,Georgia,OLB,CHI,MIN,4,Soldier Field,"Chicago, IL",Outdoor,Natural Grass,Cloudy,67.0,89,8,East
56977,2019092910,20190929101164,home,99.7,23.72,2.23,1.51,0.22,59.15,26.62,2555288,Nick Kwiatkoski,44,2019,7,2,12:29:00,MIN,2,8,MIN,7,0,2557991,JUMBO,"1 RB, 3 TE, 1 WR",8,"3 DL, 4 LB, 4 DB",left,2019-09-29T21:07:49.000Z,2019-09-29T21:07:47.000Z,6-2,242,05/26/1993,West Virginia,ILB,CHI,MIN,4,Soldier Field,"Chicago, IL",Outdoor,Natural Grass,Cloudy,67.0,89,8,East
56978,2019092910,20190929101164,home,100.97,29.9,1.75,4.13,0.19,84.11,14.91,2558176,Eddie Jackson,39,2019,7,2,12:29:00,MIN,2,8,MIN,7,0,2557991,JUMBO,"1 RB, 3 TE, 1 WR",8,"3 DL, 4 LB, 4 DB",left,2019-09-29T21:07:49.000Z,2019-09-29T21:07:47.000Z,6-0,202,12/10/1993,Alabama,FS,CHI,MIN,4,Soldier Field,"Chicago, IL",Outdoor,Natural Grass,Cloudy,67.0,89,8,East
56979,2019092910,20190929101164,home,101.55,23.89,2.8,0.66,0.3,109.4,330.31,2561088,Abdullah Anderson,76,2019,7,2,12:29:00,MIN,2,8,MIN,7,0,2557991,JUMBO,"1 RB, 3 TE, 1 WR",8,"3 DL, 4 LB, 4 DB",left,2019-09-29T21:07:49.000Z,2019-09-29T21:07:47.000Z,6-3,297,01/24/1996,Bucknell,DT,CHI,MIN,4,Soldier Field,"Chicago, IL",Outdoor,Natural Grass,Cloudy,67.0,89,8,East
