,GameId,PlayId,Team,X,Y,S,A,Dis,Orientation,Dir,NflId,DisplayName,JerseyNumber,Season,YardLine,Quarter,GameClock,PossessionTeam,Down,Distance,FieldPosition,HomeScoreBeforePlay,VisitorScoreBeforePlay,NflIdRusher,OffenseFormation,OffensePersonnel,DefendersInTheBox,DefensePersonnel,PlayDirection,TimeHandoff,TimeSnap,PlayerHeight,PlayerWeight,PlayerBirthDate,PlayerCollegeName,Position,HomeTeamAbbr,VisitorTeamAbbr,Week,Stadium,Location,StadiumType,Turf,GameWeather,Temperature,Humidity,WindSpeed,WindDirection
34562,2019092202,20190922023699,away,37.17,23.89,2.75,2.47,0.26,93.02,122.09,496735,Kareem Jackson,22,2019,31,4,02:06:00,GB,1,10,DEN,27,16,2558204,I_FORM,"2 RB, 1 TE, 2 WR",7,"4 DL, 3 LB, 4 DB",left,2019-09-22T19:51:47.000Z,2019-09-22T19:51:46.000Z,5-10,185,04/10/1988,Alabama,CB,GB,DEN,3,Lambeau Field,"Green Bay, WI",Outdoor,SISGrass,Rain,69.0,93,7,S-SW
34563,2019092202,20190922023699,away,41.08,35.43,1.47,1.05,0.15,145.62,100.48,2495202,Von Miller,58,2019,31,4,02:06:00,GB,1,10,DEN,27,16,2558204,I_FORM,"2 RB, 1 TE, 2 WR",7,"4 DL, 3 LB, 4 DB",left,2019-09-22T19:51:47.000Z,2019-09-22T19:51:46.000Z,6-3,250,03/26/1989,Texas A&M,OLB,GB,DEN,3,Lambeau Field,"Green Bay, WI",Outdoor,SISGrass,Rain,69.0,93,7,S-SW
34564,2019092202,20190922023699,away,38.23,11.0,2.06,0.9,0.2,350.38,281.49,2530510,Chris Harris,25,2019,31,4,02:06:00,GB,1,10,DEN,27,16,2558204,I_FORM,"2 RB, 1 TE, 2 WR",7,"4 DL, 3 LB, 4 DB",left,2019-09-22T19:51:47.000Z,2019-09-22T19:51:46.000Z,5-10,199,06/18/1989,Kansas,CB,GB,DEN,3,Lambeau Field,"Green Bay, WI",Outdoor,SISGrass,Rain,69.0,93,7,S-SW
34565,2019092202,20190922023699,away,40.98,30.9,0.82,1.79,0.07,126.45,106.43,2549926,Shelby Harris,96,2019,31,4,02:06:00,GB,1,10,DEN,27,16,2558204,I_FORM,"2 RB, 1 TE, 2 WR",7,"4 DL, 3 LB, 4 DB",left,2019-09-22T19:51:47.000Z,2019-09-22T19:51:46.000Z,6-2,290,08/11/1991,Illinois State,NT,GB,DEN,3,Lambeau Field,"Green Bay, WI",Outdoor,SISGrass,Rain,69.0,93,7,S-SW
34566,2019092202,20190922023699,away,36.83,29.99,2.35,3.71,0.22,92.05,162.67,2550930,Todd Davis,51,2019,31,4,02:06:00,GB,1,10,DEN,27,16,2558204,I_FORM,"2 RB, 1 TE, 2 WR",7,"4 DL, 3 LB, 4 DB",left,2019-09-22T19:51:47.000Z,2019-09-22T19:51:46.000Z,6-1,230,05/17/1992,Sacramento State,ILB,GB,DEN,3,Lambeau Field,"Green Bay, WI",Outdoor,SISGrass,Rain,69.0,93,7,S-SW
34567,2019092202,20190922023699,away,39.04,44.49,2.74,3.16,0.27,79.42,306.64,2553790,DeVante Bausby,41,2019,31,4,02:06:00,GB,1,10,DEN,27,16,2558204,I_FORM,"2 RB, 1 TE, 2 WR",7,"4 DL, 3 LB, 4 DB",left,2019-09-22T19:51:47.000Z,2019-09-22T19:51:46.000Z,6-2,190,01/15/1993,Pittsburg State,CB,GB,DEN,3,Lambeau Field,"Green Bay, WI",Outdoor,SISGrass,Rain,69.0,93,7,S-SW
34568,2019092202,20190922023699,away,41.02,29.01,1.04,0.87,0.11,73.19,47.36,2555502,Adam Gotsis,99,2019,31,4,02:06:00,GB,1,10,DEN,27,16,2558204,I_FORM,"2 RB, 1 TE, 2 WR",7,"4 DL, 3 LB, 4 DB",left,2019-09-22T19:51:47.000Z,2019-09-22T19:51:46.000Z,6-4,287,09/23/1992,Georgia Tech,DE,GB,DEN,3,Lambeau Field,"Green Bay, WI",Outdoor,SISGrass,Rain,69.0,93,7,S-SW
34569,2019092202,20190922023699,away,31.92,32.52,2.55,4.8,0.23,138.13,169.92,2555550,Justin Simmons,31,2019,31,4,02:06:00,GB,1,10,DEN,27,16,2558204,I_FORM,"2 RB, 1 TE, 2 WR",7,"4 DL, 3 LB, 4 DB",left,2019-09-22T19:51:47.000Z,2019-09-22T19:51:46.000Z,6-2,202,11/19/1993,Boston College,SS,GB,DEN,3,Lambeau Field,"Green Bay, WI",Outdoor,SISGrass,Rain,69.0,93,7,S-SW
34570,2019092202,20190922023699,away,41.06,25.05,2.31,1.57,0.24,87.8,161.06,2557894,DeMarcus Walker,57,2019,31,4,02:06:00,GB,1,10,DEN,27,16,2558204,I_FORM,"2 RB, 1 TE, 2 WR",7,"4 DL, 3 LB, 4 DB",left,2019-09-22T19:51:47.000Z,2019-09-22T19:51:46.000Z,6-4,280,09/30/1994,Florida State,DE,GB,DEN,3,Lambeau Field,"Green Bay, WI",Outdoor,SISGrass,Rain,69.0,93,7,S-SW
34571,2019092202,20190922023699,away,41.27,22.53,1.88,1.83,0.18,49.22,147.95,2561020,Bradley Chubb,55,2019,31,4,02:06:00,GB,1,10,DEN,27,16,2558204,I_FORM,"2 RB, 1 TE, 2 WR",7,"4 DL, 3 LB, 4 DB",left,2019-09-22T19:51:47.000Z,2019-09-22T19:51:46.000Z,6-4,275,06/24/1996,North Carolina State,DE,GB,DEN,3,Lambeau Field,"Green Bay, WI",Outdoor,SISGrass,Rain,69.0,93,7,S-SW
34572,2019092202,20190922023699,away,41.29,33.22,1.78,0.68,0.18,123.72,72.82,2562412,Dre'Mont Jones,93,2019,31,4,02:06:00,GB,1,10,DEN,27,16,2558204,I_FORM,"2 RB, 1 TE, 2 WR",7,"4 DL, 3 LB, 4 DB",left,2019-09-22T19:51:47.000Z,2019-09-22T19:51:46.000Z,6-3,281,01/05/1997,Ohio State,DL,GB,DEN,3,Lambeau Field,"Green Bay, WI",Outdoor,SISGrass,Rain,69.0,93,7,S-SW
34573,2019092202,20190922023699,home,42.32,34.32,1.86,1.03,0.19,304.77,341.92,496988,Bryan Bulaga,75,2019,31,4,02:06:00,GB,1,10,DEN,27,16,2558204,I_FORM,"2 RB, 1 TE, 2 WR",7,"4 DL, 3 LB, 4 DB",left,2019-09-22T19:51:47.000Z,2019-09-22T19:51:46.000Z,6-5,314,03/21/1989,Iowa,OT,GB,DEN,3,Lambeau Field,"Green Bay, WI",Outdoor,SISGrass,Rain,69.0,93,7,S-SW
34574,2019092202,20190922023699,home,42.19,23.16,3.0,1.42,0.29,253.95,183.8,2495888,Marcedes Lewis,89,2019,31,4,02:06:00,GB,1,10,DEN,27,16,2558204,I_FORM,"2 RB, 1 TE, 2 WR",7,"4 DL, 3 LB, 4 DB",left,2019-09-22T19:51:47.000Z,2019-09-22T19:51:46.000Z,6-6,267,05/19/1984,UCLA,TE,GB,DEN,3,Lambeau Field,"Green Bay, WI",Outdoor,SISGrass,Rain,69.0,93,7,S-SW
34575,2019092202,20190922023699,home,44.09,29.23,2.58,0.92,0.26,173.01,101.43,2506363,Aaron Rodgers,12,2019,31,4,02:06:00,GB,1,10,DEN,27,16,2558204,I_FORM,"2 RB, 1 TE, 2 WR",7,"4 DL, 3 LB, 4 DB",left,2019-09-22T19:51:47.000Z,2019-09-22T19:51:46.000Z,6-2,225,12/02/1983,California,QB,GB,DEN,3,Lambeau Field,"Green Bay, WI",Outdoor,SISGrass,Rain,69.0,93,7,S-SW
34576,2019092202,20190922023699,home,41.99,25.47,2.07,1.01,0.21,263.62,197.24,2540183,David Bakhtiari,69,2019,31,4,02:06:00,GB,1,10,DEN,27,16,2558204,I_FORM,"2 RB, 1 TE, 2 WR",7,"4 DL, 3 LB, 4 DB",left,2019-09-22T19:51:47.000Z,2019-09-22T19:51:46.000Z,6-4,310,09/30/1991,Colorado,T,GB,DEN,3,Lambeau Field,"Green Bay, WI",Outdoor,SISGrass,Rain,69.0,93,7,S-SW
34577,2019092202,20190922023699,home,41.97,11.48,2.84,3.61,0.27,274.13,294.86,2543495,Davante Adams,17,2019,31,4,02:06:00,GB,1,10,DEN,27,16,2558204,I_FORM,"2 RB, 1 TE, 2 WR",7,"4 DL, 3 LB, 4 DB",left,2019-09-22T19:51:47.000Z,2019-09-22T19:51:46.000Z,6-1,215,12/24/1992,Fresno State,WR,GB,DEN,3,Lambeau Field,"Green Bay, WI",Outdoor,SISGrass,Rain,69.0,93,7,S-SW
34578,2019092202,20190922023699,home,41.66,30.15,0.36,0.2,0.03,327.86,43.45,2543631,Corey Linsley,63,2019,31,4,02:06:00,GB,1,10,DEN,27,16,2558204,I_FORM,"2 RB, 1 TE, 2 WR",7,"4 DL, 3 LB, 4 DB",left,2019-09-22T19:51:47.000Z,2019-09-22T19:51:46.000Z,6-3,301,07/27/1991,Ohio State,C,GB,DEN,3,Lambeau Field,"Green Bay, WI",Outdoor,SISGrass,Rain,69.0,93,7,S-SW
34579,2019092202,20190922023699,home,42.19,31.94,1.17,0.95,0.11,337.05,0.36,2543740,Billy Turner,77,2019,31,4,02:06:00,GB,1,10,DEN,27,16,2558204,I_FORM,"2 RB, 1 TE, 2 WR",7,"4 DL, 3 LB, 4 DB",left,2019-09-22T19:51:47.000Z,2019-09-22T19:51:46.000Z,6-5,310,10/17/1991,North Dakota State,OG,GB,DEN,3,Lambeau Field,"Green Bay, WI",Outdoor,SISGrass,Rain,69.0,93,7,S-SW
34580,2019092202,20190922023699,home,45.05,27.84,4.12,2.62,0.4,238.42,207.77,2555218,Danny Vitale,45,2019,31,4,02:06:00,GB,1,10,DEN,27,16,2558204,I_FORM,"2 RB, 1 TE, 2 WR",7,"4 DL, 3 LB, 4 DB",left,2019-09-22T19:51:47.000Z,2019-09-22T19:51:46.000Z,6-0,239,10/26/1993,Northwestern,RB,GB,DEN,3,Lambeau Field,"Green Bay, WI",Outdoor,SISGrass,Rain,69.0,93,7,S-SW
34581,2019092202,20190922023699,home,47.79,27.83,3.9,2.09,0.38,255.28,201.37,2558204,Jamaal Williams,30,2019,31,4,02:06:00,GB,1,10,DEN,27,16,2558204,I_FORM,"2 RB, 1 TE, 2 WR",7,"4 DL, 3 LB, 4 DB",left,2019-09-22T19:51:47.000Z,2019-09-22T19:51:46.000Z,6-0,213,04/03/1995,Brigham Young,RB,GB,DEN,3,Lambeau Field,"Green Bay, WI",Outdoor,SISGrass,Rain,69.0,93,7,S-SW
34582,2019092202,20190922023699,home,41.19,44.67,3.61,4.75,0.34,261.02,298.85,2560907,Marquez Valdes-Scantling,83,2019,31,4,02:06:00,GB,1,10,DEN,27,16,2558204,I_FORM,"2 RB, 1 TE, 2 WR",7,"4 DL, 3 LB, 4 DB",left,2019-09-22T19:51:47.000Z,2019-09-22T19:51:46.000Z,6-4,207,10/10/1994,South Florida,WR,GB,DEN,3,Lambeau Field,"Green Bay, WI",Outdoor,SISGrass,Rain,69.0,93,7,S-SW
34583,2019092202,20190922023699,home,41.79,29.22,1.15,0.64,0.1,289.58,341.6,2562671,Elgton Jenkins,74,2019,31,4,02:06:00,GB,1,10,DEN,27,16,2558204,I_FORM,"2 RB, 1 TE, 2 WR",7,"4 DL, 3 LB, 4 DB",left,2019-09-22T19:51:47.000Z,2019-09-22T19:51:46.000Z,6-5,310,12/26/1995,Mississippi State,G,GB,DEN,3,Lambeau Field,"Green Bay, WI",Outdoor,SISGrass,Rain,69.0,93,7,S-SW
