,GameId,PlayId,Team,X,Y,S,A,Dis,Orientation,Dir,NflId,DisplayName,JerseyNumber,Season,YardLine,Quarter,GameClock,PossessionTeam,Down,Distance,FieldPosition,HomeScoreBeforePlay,VisitorScoreBeforePlay,NflIdRusher,OffenseFormation,OffensePersonnel,DefendersInTheBox,DefensePersonnel,PlayDirection,TimeHandoff,TimeSnap,PlayerHeight,PlayerWeight,PlayerBirthDate,PlayerCollegeName,Position,HomeTeamAbbr,VisitorTeamAbbr,Week,Stadium,Location,StadiumType,Turf,GameWeather,Temperature,Humidity,WindSpeed,WindDirection
4422,2019090803,20190908033736,away,53.32,24.29,1.11,2.18,0.11,188.87,307.31,2533033,Robert Griffin III,3,2019,49,4,03:43:00,BLT,1,10,BLT,10,59,2562407,PISTOL,"2 RB, 2 TE, 1 WR",7,"4 DL, 3 LB, 4 DB",right,2019-09-08T19:55:02.000Z,2019-09-08T19:55:01.000Z,6-2,213,02/12/1990,Baylor,QB,MIA,BAL,1,Hard Rock Stadium,"Miami Gardens, FL",Outdoor,Natural grass,Mostly Cloudy,91.0,56,8,SSE
4423,2019090803,20190908033736,away,58.04,25.63,1.17,1.33,0.1,72.53,157.03,2550210,James Hurst,74,2019,49,4,03:43:00,BLT,1,10,BLT,10,59,2562407,PISTOL,"2 RB, 2 TE, 1 WR",7,"4 DL, 3 LB, 4 DB",right,2019-09-08T19:55:02.000Z,2019-09-08T19:55:01.000Z,6-5,310,12/17/1991,North Carolina,G,MIA,BAL,1,Hard Rock Stadium,"Miami Gardens, FL",Outdoor,Natural grass,Mostly Cloudy,91.0,56,8,SSE
4424,2019090803,20190908033736,away,60.63,41.84,3.9,1.27,0.38,92.02,110.34,2550597,Seth Roberts,11,2019,49,4,03:43:00,BLT,1,10,BLT,10,59,2562407,PISTOL,"2 RB, 2 TE, 1 WR",7,"4 DL, 3 LB, 4 DB",right,2019-09-08T19:55:02.000Z,2019-09-08T19:55:01.000Z,6-2,195,02/22/1991,West Alabama,WR,MIA,BAL,1,Hard Rock Stadium,"Miami Gardens, FL",Outdoor,Natural grass,Mostly Cloudy,91.0,56,8,SSE
4425,2019090803,20190908033736,away,58.58,21.46,1.42,2.16,0.15,84.15,8.98,2552402,Nick Boyle,86,2019,49,4,03:43:00,BLT,1,10,BLT,10,59,2562407,PISTOL,"2 RB, 2 TE, 1 WR",7,"4 DL, 3 LB, 4 DB",right,2019-09-08T19:55:02.000Z,2019-09-08T19:55:01.000Z,6-4,270,02/17/1993,Delaware,TE,MIA,BAL,1,Hard Rock Stadium,"Miami Gardens, FL",Outdoor,Natural grass,Mostly Cloudy,91.0,56,8,SSE
4426,2019090803,20190908033736,away,58.91,24.64,0.8,0.24,0.09,340.7,45.32,2556683,Matt Skura,68,2019,49,4,03:43:00,BLT,1,10,BLT,10,59,2562407,PISTOL,"2 RB, 2 TE, 1 WR",7,"4 DL, 3 LB, 4 DB",right,2019-09-08T19:55:02.000Z,2019-09-08T19:55:01.000Z,6-3,313,02/17/1993,Duke,C,MIA,BAL,1,Hard Rock Stadium,"Miami Gardens, FL",Outdoor,Natural grass,Mostly Cloudy,91.0,56,8,SSE
4427,2019090803,20190908033736,away,56.91,21.93,5.26,2.06,0.53,165.89,161.12,2558990,Patrick Ricard,42,2019,49,4,03:43:00,BLT,1,10,BLT,10,59,2562407,PISTOL,"2 RB, 2 TE, 1 WR",7,"4 DL, 3 LB, 4 DB",right,2019-09-08T19:55:02.000Z,2019-09-08T19:55:01.000Z,6-3,311,05/27/1994,Maine,FB,MIA,BAL,1,Hard Rock Stadium,"Miami Gardens, FL",Outdoor,Natural grass,Mostly Cloudy,91.0,56,8,SSE
4428,2019090803,20190908033736,away,57.47,23.18,3.89,1.48,0.4,107.43,174.28,2559827,Bradley Bozeman,77,2019,49,4,03:43:00,BLT,1,10,BLT,10,59,2562407,PISTOL,"2 RB, 2 TE, 1 WR",7,"4 DL, 3 LB, 4 DB",right,2019-09-08T19:55:02.000Z,2019-09-08T19:55:01.000Z,6-3,317,11/24/1994,Alabama,C,MIA,BAL,1,Hard Rock Stadium,"Miami Gardens, FL",Outdoor,Natural grass,Mostly Cloudy,91.0,56,8,SSE
4429,2019090803,20190908033736,away,59.01,20.29,3.09,0.69,0.31,72.92,54.66,2560957,Mark Andrews,89,2019,49,4,03:43:00,BLT,1,10,BLT,10,59,2562407,PISTOL,"2 RB, 2 TE, 1 WR",7,"4 DL, 3 LB, 4 DB",right,2019-09-08T19:55:02.000Z,2019-09-08T19:55:01.000Z,6-4,255,09/06/1995,Oklahoma,TE,MIA,BAL,1,Hard Rock Stadium,"Miami Gardens, FL",Outdoor,Natural grass,Mostly Cloudy,91.0,56,8,SSE
4430,2019090803,20190908033736,away,58.36,22.99,1.48,1.56,0.15,61.95,19.27,2560981,Orlando Brown,78,2019,49,4,03:43:00,BLT,1,10,BLT,10,59,2562407,PISTOL,"2 RB, 2 TE, 1 WR",7,"4 DL, 3 LB, 4 DB",right,2019-09-08T19:55:02.000Z,2019-09-08T19:55:01.000Z,6-8,345,05/02/1996,Oklahoma,T,MIA,BAL,1,Hard Rock Stadium,"Miami Gardens, FL",Outdoor,Natural grass,Mostly Cloudy,91.0,56,8,SSE
4431,2019090803,20190908033736,away,52.84,23.53,4.45,5.51,0.41,111.23,112.4,2562407,Justice Hill,43,2019,49,4,03:43:00,BLT,1,10,BLT,10,59,2562407,PISTOL,"2 RB, 2 TE, 1 WR",7,"4 DL, 3 LB, 4 DB",right,2019-09-08T19:55:02.000Z,2019-09-08T19:55:01.000Z,5-10,200,11/14/1997,Oklahoma State,RB,MIA,BAL,1,Hard Rock Stadium,"Miami Gardens, FL",Outdoor,Natural grass,Mostly Cloudy,91.0,56,8,SSE
4432,2019090803,20190908033736,away,59.7,23.39,2.07,1.75,0.21,133.29,90.95,2563100,Patrick Mekari,65,2019,49,4,03:43:00,BLT,1,10,BLT,10,59,2562407,PISTOL,"2 RB, 2 TE, 1 WR",7,"4 DL, 3 LB, 4 DB",right,2019-09-08T19:55:02.000Z,2019-09-08T19:55:01.000Z,6-4,308,08/13/1997,California,T,MIA,BAL,1,Hard Rock Stadium,"Miami Gardens, FL",Outdoor,Natural grass,Mostly Cloudy,91.0,56,8,SSE
4433,2019090803,20190908033736,home,59.17,25.28,0.75,1.19,0.08,247.09,7.46,2539231,John Jenkins,95,2019,49,4,03:43:00,BLT,1,10,BLT,10,59,2562407,PISTOL,"2 RB, 2 TE, 1 WR",7,"4 DL, 3 LB, 4 DB",right,2019-09-08T19:55:02.000Z,2019-09-08T19:55:01.000Z,6-3,327,07/11/1989,Georgia,NT,MIA,BAL,1,Hard Rock Stadium,"Miami Gardens, FL",Outdoor,Natural grass,Mostly Cloudy,91.0,56,8,SSE
4434,2019090803,20190908033736,home,64.15,32.1,1.44,1.36,0.14,241.32,149.25,2543724,Walt Aikens,35,2019,49,4,03:43:00,BLT,1,10,BLT,10,59,2562407,PISTOL,"2 RB, 2 TE, 1 WR",7,"4 DL, 3 LB, 4 DB",right,2019-09-08T19:55:02.000Z,2019-09-08T19:55:01.000Z,6-1,200,06/19/1991,Liberty,CB,MIA,BAL,1,Hard Rock Stadium,"Miami Gardens, FL",Outdoor,Natural grass,Mostly Cloudy,91.0,56,8,SSE
4435,2019090803,20190908033736,home,67.22,42.81,1.8,2.6,0.16,225.1,163.96,2552255,Eric Rowe,21,2019,49,4,03:43:00,BLT,1,10,BLT,10,59,2562407,PISTOL,"2 RB, 2 TE, 1 WR",7,"4 DL, 3 LB, 4 DB",right,2019-09-08T19:55:02.000Z,2019-09-08T19:55:01.000Z,6-1,205,10/03/1992,Utah,CB,MIA,BAL,1,Hard Rock Stadium,"Miami Gardens, FL",Outdoor,Natural grass,Mostly Cloudy,91.0,56,8,SSE
4436,2019090803,20190908033736,home,62.47,16.52,2.14,2.24,0.2,315.48,306.7,2555539,Xavien Howard,25,2019,49,4,03:43:00,BLT,1,10,BLT,10,59,2562407,PISTOL,"2 RB, 2 TE, 1 WR",7,"4 DL, 3 LB, 4 DB",right,2019-09-08T19:55:02.000Z,2019-09-08T19:55:01.000Z,6-1,200,07/04/1993,Baylor,CB,MIA,BAL,1,Hard Rock Stadium,"Miami Gardens, FL",Outdoor,Natural grass,Mostly Cloudy,91.0,56,8,SSE
4437,2019090803,20190908033736,home,58.26,18.98,2.12,0.7,0.21,282.81,322.71,2557906,Vince Biegel,47,2019,49,4,03:43:00,BLT,1,10,BLT,10,59,2562407,PISTOL,"2 RB, 2 TE, 1 WR",7,"4 DL, 3 LB, 4 DB",right,2019-09-08T19:55:02.000Z,2019-09-08T19:55:01.000Z,6-3,246,07/02/1993,Wisconsin,LB,MIA,BAL,1,Hard Rock Stadium,"Miami Gardens, FL",Outdoor,Natural grass,Mostly Cloudy,91.0,56,8,SSE
4438,2019090803,20190908033736,home,58.99,26.82,1.88,1.42,0.17,227.01,202.9,2558001,Charles Harris,90,2019,49,4,03:43:00,BLT,1,10,BLT,10,59,2562407,PISTOL,"2 RB, 2 TE, 1 WR",7,"4 DL, 3 LB, 4 DB",right,2019-09-08T19:55:02.000Z,2019-09-08T19:55:01.000Z,6-3,250,03/06/1995,Missouri,DE,MIA,BAL,1,Hard Rock Stadium,"Miami Gardens, FL",Outdoor,Natural grass,Mostly Cloudy,91.0,56,8,SSE
4439,2019090803,20190908033736,home,61.6,22.8,3.53,0.74,0.35,263.89,237.03,2560966,Jerome Baker,55,2019,49,4,03:43:00,BLT,1,10,BLT,10,59,2562407,PISTOL,"2 RB, 2 TE, 1 WR",7,"4 DL, 3 LB, 4 DB",right,2019-09-08T19:55:02.000Z,2019-09-08T19:55:01.000Z,6-2,225,12/25/1996,Ohio State,LB,MIA,BAL,1,Hard Rock Stadium,"Miami Gardens, FL",Outdoor,Natural grass,Mostly Cloudy,91.0,56,8,SSE
4440,2019090803,20190908033736,home,68.2,20.92,3.01,2.26,0.29,268.12,266.31,2561256,Steven Parker,26,2019,49,4,03:43:00,BLT,1,10,BLT,10,59,2562407,PISTOL,"2 RB, 2 TE, 1 WR",7,"4 DL, 3 LB, 4 DB",right,2019-09-08T19:55:02.000Z,2019-09-08T19:55:01.000Z,6-1,210,12/14/1995,Oklahoma,DB,MIA,BAL,1,Hard Rock Stadium,"Miami Gardens, FL",Outdoor,Natural grass,Mostly Cloudy,91.0,56,8,SSE
4441,2019090803,20190908033736,home,59.96,29.43,2.66,3.25,0.25,252.63,178.27,2561312,James Crawford,51,2019,49,4,03:43:00,BLT,1,10,BLT,10,59,2562407,PISTOL,"2 RB, 2 TE, 1 WR",7,"4 DL, 3 LB, 4 DB",right,2019-09-08T19:55:02.000Z,2019-09-08T19:55:01.000Z,6-2,239,12/02/1994,Illinois,LB,MIA,BAL,1,Hard Rock Stadium,"Miami Gardens, FL",Outdoor,Natural grass,Mostly Cloudy,91.0,56,8,SSE
4442,2019090803,20190908033736,home,58.98,21.87,1.18,1.32,0.11,260.04,356.38,2562302,Jonathan Ledbetter,98,2019,49,4,03:43:00,BLT,1,10,BLT,10,59,2562407,PISTOL,"2 RB, 2 TE, 1 WR",7,"4 DL, 3 LB, 4 DB",right,2019-09-08T19:55:02.000Z,2019-09-08T19:55:01.000Z,6-4,280,09/12/1997,Georgia,DE,MIA,BAL,1,Hard Rock Stadium,"Miami Gardens, FL",Outdoor,Natural grass,Mostly Cloudy,91.0,56,8,SSE
4443,2019090803,20190908033736,home,58.77,23.07,1.76,2.17,0.17,137.19,347.88,2562782,Christian Wilkins,94,2019,49,4,03:43:00,BLT,1,10,BLT,10,59,2562407,PISTOL,"2 RB, 2 TE, 1 WR",7,"4 DL, 3 LB, 4 DB",right,2019-09-08T19:55:02.000Z,2019-09-08T19:55:01.000Z,6-4,315,12/20/1995,Clemson,DT,MIA,BAL,1,Hard Rock Stadium,"Miami Gardens, FL",Outdoor,Natural grass,Mostly Cloudy,91.0,56,8,SSE
