,GameId,PlayId,Team,X,Y,S,A,Dis,Orientation,Dir,NflId,DisplayName,JerseyNumber,Season,YardLine,Quarter,GameClock,PossessionTeam,Down,Distance,FieldPosition,HomeScoreBeforePlay,VisitorScoreBeforePlay,NflIdRusher,OffenseFormation,OffensePersonnel,DefendersInTheBox,DefensePersonnel,PlayDirection,TimeHandoff,TimeSnap,PlayerHeight,PlayerWeight,PlayerBirthDate,PlayerCollegeName,Position,HomeTeamAbbr,VisitorTeamAbbr,Week,Stadium,Location,StadiumType,Turf,GameWeather,Temperature,Humidity,WindSpeed,WindDirection
73942,2019100612,20191006123210,away,41.59,29.06,1.79,2.39,0.19,251.14,287.88,2495137,Anthony Castonzo,74,2019,35,3,05:45:00,IND,2,10,IND,10,13,2560933,SHOTGUN,"1 RB, 1 TE, 3 WR",6,"3 DL, 2 LB, 6 DB",right,2019-10-07T02:35:13.000Z,2019-10-07T02:35:11.000Z,6-7,307,08/09/1988,Boston College,T,KC,IND,5,Arrowhead Stadium,"Kansas City, MO",Outdoor,Natural Grass,Cloudy,59.0,75,3,West
73943,2019100612,20191006123210,away,45.51,44.8,2.22,2.88,0.22,56.83,115.45,2532865,T.Y. Hilton,13,2019,35,3,05:45:00,IND,2,10,IND,10,13,2560933,SHOTGUN,"1 RB, 1 TE, 3 WR",6,"3 DL, 2 LB, 6 DB",right,2019-10-07T02:35:13.000Z,2019-10-07T02:35:11.000Z,5-10,183,11/14/1989,Florida International,WR,KC,IND,5,Arrowhead Stadium,"Kansas City, MO",Outdoor,Natural Grass,Cloudy,59.0,75,3,West
73944,2019100612,20191006123210,away,42.55,22.24,3.79,2.2,0.38,94.8,19.57,2540232,Jack Doyle,84,2019,35,3,05:45:00,IND,2,10,IND,10,13,2560933,SHOTGUN,"1 RB, 1 TE, 3 WR",6,"3 DL, 2 LB, 6 DB",right,2019-10-07T02:35:13.000Z,2019-10-07T02:35:11.000Z,6-6,262,05/05/1990,Western Kentucky,TE,KC,IND,5,Arrowhead Stadium,"Kansas City, MO",Outdoor,Natural Grass,Cloudy,59.0,75,3,West
73945,2019100612,20191006123210,away,43.08,22.17,0.61,0.67,0.06,129.92,332.11,2552467,Mark Glowinski,64,2019,35,3,05:45:00,IND,2,10,IND,10,13,2560933,SHOTGUN,"1 RB, 1 TE, 3 WR",6,"3 DL, 2 LB, 6 DB",right,2019-10-07T02:35:13.000Z,2019-10-07T02:35:11.000Z,6-4,310,05/03/1992,West Virginia,G,KC,IND,5,Arrowhead Stadium,"Kansas City, MO",Outdoor,Natural Grass,Cloudy,59.0,75,3,West
73946,2019100612,20191006123210,away,43.92,24.04,0.79,1.18,0.09,122.03,144.69,2555191,Ryan Kelly,78,2019,35,3,05:45:00,IND,2,10,IND,10,13,2560933,SHOTGUN,"1 RB, 1 TE, 3 WR",6,"3 DL, 2 LB, 6 DB",right,2019-10-07T02:35:13.000Z,2019-10-07T02:35:11.000Z,6-4,309,05/30/1993,Alabama,C,KC,IND,5,Arrowhead Stadium,"Kansas City, MO",Outdoor,Natural Grass,Cloudy,59.0,75,3,West
73947,2019100612,20191006123210,away,39.58,23.33,1.78,1.77,0.17,185.34,252.98,2555261,Jacoby Brissett,7,2019,35,3,05:45:00,IND,2,10,IND,10,13,2560933,SHOTGUN,"1 RB, 1 TE, 3 WR",6,"3 DL, 2 LB, 6 DB",right,2019-10-07T02:35:13.000Z,2019-10-07T02:35:11.000Z,6-4,235,12/11/1992,North Carolina State,QB,KC,IND,5,Arrowhead Stadium,"Kansas City, MO",Outdoor,Natural Grass,Cloudy,59.0,75,3,West
73948,2019100612,20191006123210,away,47.22,34.99,5.33,0.66,0.53,97.42,101.02,2556396,Chester Rogers,80,2019,35,3,05:45:00,IND,2,10,IND,10,13,2560933,SHOTGUN,"1 RB, 1 TE, 3 WR",6,"3 DL, 2 LB, 6 DB",right,2019-10-07T02:35:13.000Z,2019-10-07T02:35:11.000Z,6-0,184,01/12/1994,Grambling,WR,KC,IND,5,Arrowhead Stadium,"Kansas City, MO",Outdoor,Natural Grass,Cloudy,59.0,75,3,West
73949,2019100612,20191006123210,away,47.33,12.34,4.78,1.89,0.49,136.09,139.45,2558877,Zach Pascal,14,2019,35,3,05:45:00,IND,2,10,IND,10,13,2560933,SHOTGUN,"1 RB, 1 TE, 3 WR",6,"3 DL, 2 LB, 6 DB",right,2019-10-07T02:35:13.000Z,2019-10-07T02:35:11.000Z,6-2,214,12/18/1994,Old Dominion,WR,KC,IND,5,Arrowhead Stadium,"Kansas City, MO",Outdoor,Natural Grass,Cloudy,59.0,75,3,West
73950,2019100612,20191006123210,away,44.36,26.18,2.05,1.93,0.2,100.34,89.91,2560820,Quenton Nelson,56,2019,35,3,05:45:00,IND,2,10,IND,10,13,2560933,SHOTGUN,"1 RB, 1 TE, 3 WR",6,"3 DL, 2 LB, 6 DB",right,2019-10-07T02:35:13.000Z,2019-10-07T02:35:11.000Z,6-5,330,03/19/1996,Notre Dame,G,KC,IND,5,Arrowhead Stadium,"Kansas City, MO",Outdoor,Natural Grass,Cloudy,59.0,75,3,West
73951,2019100612,20191006123210,away,41.83,19.87,2.35,0.6,0.24,195.65,263.29,2560876,Braden Smith,72,2019,35,3,05:45:00,IND,2,10,IND,10,13,2560933,SHOTGUN,"1 RB, 1 TE, 3 WR",6,"3 DL, 2 LB, 6 DB",right,2019-10-07T02:35:13.000Z,2019-10-07T02:35:11.000Z,6-6,315,03/25/1996,Auburn,G,KC,IND,5,Arrowhead Stadium,"Kansas City, MO",Outdoor,Natural Grass,Cloudy,59.0,75,3,West
73952,2019100612,20191006123210,away,40.36,22.85,2.41,2.53,0.24,84.99,40.32,2560933,Jordan Wilkins,20,2019,35,3,05:45:00,IND,2,10,IND,10,13,2560933,SHOTGUN,"1 RB, 1 TE, 3 WR",6,"3 DL, 2 LB, 6 DB",right,2019-10-07T02:35:13.000Z,2019-10-07T02:35:11.000Z,6-1,217,07/18/1994,Mississippi,RB,KC,IND,5,Arrowhead Stadium,"Kansas City, MO",Outdoor,Natural Grass,Cloudy,59.0,75,3,West
73953,2019100612,20191006123210,home,54.81,22.01,4.13,3.38,0.39,294.52,312.1,2540180,Tyrann Mathieu,32,2019,35,3,05:45:00,IND,2,10,IND,10,13,2560933,SHOTGUN,"1 RB, 1 TE, 3 WR",6,"3 DL, 2 LB, 6 DB",right,2019-10-07T02:35:13.000Z,2019-10-07T02:35:11.000Z,5-9,190,05/13/1992,Louisiana State,FS,KC,IND,5,Arrowhead Stadium,"Kansas City, MO",Outdoor,Natural Grass,Cloudy,59.0,75,3,West
73954,2019100612,20191006123210,home,49.3,11.05,3.44,0.34,0.34,331.12,158.86,2543571,Bashaud Breeland,21,2019,35,3,05:45:00,IND,2,10,IND,10,13,2560933,SHOTGUN,"1 RB, 1 TE, 3 WR",6,"3 DL, 2 LB, 6 DB",right,2019-10-07T02:35:13.000Z,2019-10-07T02:35:11.000Z,5-11,195,01/30/1992,Clemson,CB,KC,IND,5,Arrowhead Stadium,"Kansas City, MO",Outdoor,Natural Grass,Cloudy,59.0,75,3,West
73955,2019100612,20191006123210,home,48.61,20.26,1.34,2.29,0.13,280.92,318.32,2550257,Daniel Sorensen,49,2019,35,3,05:45:00,IND,2,10,IND,10,13,2560933,SHOTGUN,"1 RB, 1 TE, 3 WR",6,"3 DL, 2 LB, 6 DB",right,2019-10-07T02:35:13.000Z,2019-10-07T02:35:11.000Z,6-2,208,03/05/1990,Brigham Young,SS,KC,IND,5,Arrowhead Stadium,"Kansas City, MO",Outdoor,Natural Grass,Cloudy,59.0,75,3,West
73956,2019100612,20191006123210,home,39.93,28.65,4.99,2.91,0.5,221.63,246.49,2552629,Frank Clark,55,2019,35,3,05:45:00,IND,2,10,IND,10,13,2560933,SHOTGUN,"1 RB, 1 TE, 3 WR",6,"3 DL, 2 LB, 6 DB",right,2019-10-07T02:35:13.000Z,2019-10-07T02:35:11.000Z,6-3,260,06/14/1993,Michigan,DE,KC,IND,5,Arrowhead Stadium,"Kansas City, MO",Outdoor,Natural Grass,Cloudy,59.0,75,3,West
73957,2019100612,20191006123210,home,43.68,21.65,1.52,3.67,0.17,317.22,301.72,2555169,Reggie Ragland,59,2019,35,3,05:45:00,IND,2,10,IND,10,13,2560933,SHOTGUN,"1 RB, 1 TE, 3 WR",6,"3 DL, 2 LB, 6 DB",right,2019-10-07T02:35:13.000Z,2019-10-07T02:35:11.000Z,6-2,252,09/23/1993,Alabama,ILB,KC,IND,5,Arrowhead Stadium,"Kansas City, MO",Outdoor,Natural Grass,Cloudy,59.0,75,3,West
73958,2019100612,20191006123210,home,41.69,19.14,3.92,1.02,0.41,322.25,274.46,2555278,Emmanuel Ogbah,90,2019,35,3,05:45:00,IND,2,10,IND,10,13,2560933,SHOTGUN,"1 RB, 1 TE, 3 WR",6,"3 DL, 2 LB, 6 DB",right,2019-10-07T02:35:13.000Z,2019-10-07T02:35:11.000Z,6-4,275,11/06/1993,Oklahoma State,DE,KC,IND,5,Arrowhead Stadium,"Kansas City, MO",Outdoor,Natural Grass,Cloudy,59.0,75,3,West
73959,2019100612,20191006123210,home,59.73,33.86,4.24,1.53,0.43,273.83,95.96,2555349,Kendall Fuller,29,2019,35,3,05:45:00,IND,2,10,IND,10,13,2560933,SHOTGUN,"1 RB, 1 TE, 3 WR",6,"3 DL, 2 LB, 6 DB",right,2019-10-07T02:35:13.000Z,2019-10-07T02:35:11.000Z,5-11,198,02/13/1995,Virginia Tech,CB,KC,IND,5,Arrowhead Stadium,"Kansas City, MO",Outdoor,Natural Grass,Cloudy,59.0,75,3,West
73960,2019100612,20191006123210,home,44.54,23.6,1.99,1.5,0.21,238.36,192.47,2558185,Tanoh Kpassagnon,92,2019,35,3,05:45:00,IND,2,10,IND,10,13,2560933,SHOTGUN,"1 RB, 1 TE, 3 WR",6,"3 DL, 2 LB, 6 DB",right,2019-10-07T02:35:13.000Z,2019-10-07T02:35:11.000Z,6-7,289,06/14/1994,Villanova,DE,KC,IND,5,Arrowhead Stadium,"Kansas City, MO",Outdoor,Natural Grass,Cloudy,59.0,75,3,West
73961,2019100612,20191006123210,home,52.12,32.81,3.04,3.5,0.31,279.74,57.0,2561383,Ben Niemann,56,2019,35,3,05:45:00,IND,2,10,IND,10,13,2560933,SHOTGUN,"1 RB, 1 TE, 3 WR",6,"3 DL, 2 LB, 6 DB",right,2019-10-07T02:35:13.000Z,2019-10-07T02:35:11.000Z,6-2,233,07/27/1995,Iowa,LB,KC,IND,5,Arrowhead Stadium,"Kansas City, MO",Outdoor,Natural Grass,Cloudy,59.0,75,3,West
73962,2019100612,20191006123210,home,46.43,45.17,0.89,2.56,0.09,241.45,102.52,2561417,Charvarius Ward,35,2019,35,3,05:45:00,IND,2,10,IND,10,13,2560933,SHOTGUN,"1 RB, 1 TE, 3 WR",6,"3 DL, 2 LB, 6 DB",right,2019-10-07T02:35:13.000Z,2019-10-07T02:35:11.000Z,6-1,195,05/16/1996,Middle Tennessee,DB,KC,IND,5,Arrowhead Stadium,"Kansas City, MO",Outdoor,Natural Grass,Cloudy,59.0,75,3,West
73963,2019100612,20191006123210,home,58.92,23.71,4.94,0.75,0.49,215.01,174.81,2562761,Juan Thornhill,22,2019,35,3,05:45:00,IND,2,10,IND,10,13,2560933,SHOTGUN,"1 RB, 1 TE, 3 WR",6,"3 DL, 2 LB, 6 DB",right,2019-10-07T02:35:13.000Z,2019-10-07T02:35:11.000Z,6-0,205,10/19/1995,Virginia,DB,KC,IND,5,Arrowhead Stadium,"Kansas City, MO",Outdoor,Natural Grass,Cloudy,59.0,75,3,West
