,GameId,PlayId,Team,X,Y,S,A,Dis,Orientation,Dir,NflId,DisplayName,JerseyNumber,Season,YardLine,Quarter,GameClock,PossessionTeam,Down,Distance,FieldPosition,HomeScoreBeforePlay,VisitorScoreBeforePlay,NflIdRusher,OffenseFormation,OffensePersonnel,DefendersInTheBox,DefensePersonnel,PlayDirection,TimeHandoff,TimeSnap,PlayerHeight,PlayerWeight,PlayerBirthDate,PlayerCollegeName,Position,HomeTeamAbbr,VisitorTeamAbbr,Week,Stadium,Location,StadiumType,Turf,GameWeather,Temperature,Humidity,WindSpeed,WindDirection
28622,2019091512,20190915123986,away,20.14,37.34,3.24,1.76,0.32,280.99,327.84,2533008,Demario Davis,56,2019,11,4,04:57:00,LA,2,10,LA,27,9,2552475,SINGLEBACK,"1 RB, 1 TE, 3 WR",6,"4 DL, 2 LB, 5 DB",right,2019-09-15T23:21:33.000Z,2019-09-15T23:21:32.000Z,6-2,248,01/11/1989,Arkansas State,ILB,LA,NO,2,Los Angeles Memorial Coliseum,"Los Angeles, Calif.",Outdoor,Grass,Cloudy,85.0,44,4,N
28623,2019091512,20190915123986,away,23.17,33.36,3.54,1.42,0.36,297.9,332.0,2539982,A.J. Klein,53,2019,11,4,04:57:00,LA,2,10,LA,27,9,2552475,SINGLEBACK,"1 RB, 1 TE, 3 WR",6,"4 DL, 2 LB, 5 DB",right,2019-09-15T23:21:33.000Z,2019-09-15T23:21:32.000Z,6-1,240,07/30/1991,Iowa State,OLB,LA,NO,2,Los Angeles Memorial Coliseum,"Los Angeles, Calif.",Outdoor,Grass,Cloudy,85.0,44,4,N
28624,2019091512,20190915123986,away,21.0,31.63,3.29,1.82,0.35,299.84,4.43,2553433,Mario Edwards,97,2019,11,4,04:57:00,LA,2,10,LA,27,9,2552475,SINGLEBACK,"1 RB, 1 TE, 3 WR",6,"4 DL, 2 LB, 5 DB",right,2019-09-15T23:21:33.000Z,2019-09-15T23:21:32.000Z,6-3,280,01/25/1994,Florida State,DE,LA,NO,2,Los Angeles Memorial Coliseum,"Los Angeles, Calif.",Outdoor,Grass,Cloudy,85.0,44,4,N
28625,2019091512,20190915123986,away,27.23,20.84,2.47,2.32,0.25,333.5,347.99,2555277,Eli Apple,25,2019,11,4,04:57:00,LA,2,10,LA,27,9,2552475,SINGLEBACK,"1 RB, 1 TE, 3 WR",6,"4 DL, 2 LB, 5 DB",right,2019-09-15T23:21:33.000Z,2019-09-15T23:21:32.000Z,6-1,203,08/09/1995,Ohio State,CB,LA,NO,2,Los Angeles Memorial Coliseum,"Los Angeles, Calif.",Outdoor,Grass,Cloudy,85.0,44,4,N
28626,2019091512,20190915123986,away,24.17,37.67,2.82,1.96,0.28,292.77,340.45,2555530,Vonn Bell,24,2019,11,4,04:57:00,LA,2,10,LA,27,9,2552475,SINGLEBACK,"1 RB, 1 TE, 3 WR",6,"4 DL, 2 LB, 5 DB",right,2019-09-15T23:21:33.000Z,2019-09-15T23:21:32.000Z,5-11,205,12/12/1994,Ohio State,FS,LA,NO,2,Los Angeles Memorial Coliseum,"Los Angeles, Calif.",Outdoor,Grass,Cloudy,85.0,44,4,N
28627,2019091512,20190915123986,away,20.35,24.92,1.47,1.6,0.16,305.14,333.53,2557943,Trey Hendrickson,91,2019,11,4,04:57:00,LA,2,10,LA,27,9,2552475,SINGLEBACK,"1 RB, 1 TE, 3 WR",6,"4 DL, 2 LB, 5 DB",right,2019-09-15T23:21:33.000Z,2019-09-15T23:21:32.000Z,6-4,270,12/05/1994,Florida Atlantic,DE,LA,NO,2,Los Angeles Memorial Coliseum,"Los Angeles, Calif.",Outdoor,Grass,Cloudy,85.0,44,4,N
28628,2019091512,20190915123986,away,32.22,41.54,3.59,0.82,0.35,221.8,74.05,2558061,Marshon Lattimore,23,2019,11,4,04:57:00,LA,2,10,LA,27,9,2552475,SINGLEBACK,"1 RB, 1 TE, 3 WR",6,"4 DL, 2 LB, 5 DB",right,2019-09-15T23:21:33.000Z,2019-09-15T23:21:32.000Z,6-0,192,05/20/1996,Ohio State,CB,LA,NO,2,Los Angeles Memorial Coliseum,"Los Angeles, Calif.",Outdoor,Grass,Cloudy,85.0,44,4,N
28629,2019091512,20190915123986,away,39.84,29.12,0.41,1.89,0.03,269.57,345.19,2558847,Marcus Williams,43,2019,11,4,04:57:00,LA,2,10,LA,27,9,2552475,SINGLEBACK,"1 RB, 1 TE, 3 WR",6,"4 DL, 2 LB, 5 DB",right,2019-09-15T23:21:33.000Z,2019-09-15T23:21:32.000Z,6-1,195,09/08/1996,Utah,FS,LA,NO,2,Los Angeles Memorial Coliseum,"Los Angeles, Calif.",Outdoor,Grass,Cloudy,85.0,44,4,N
28630,2019091512,20190915123986,away,19.71,35.01,3.09,1.79,0.34,233.23,339.88,2561037,Marcus Davenport,92,2019,11,4,04:57:00,LA,2,10,LA,27,9,2552475,SINGLEBACK,"1 RB, 1 TE, 3 WR",6,"4 DL, 2 LB, 5 DB",right,2019-09-15T23:21:33.000Z,2019-09-15T23:21:32.000Z,6-6,265,09/04/1996,Texas-San Antonio,DE,LA,NO,2,Los Angeles Memorial Coliseum,"Los Angeles, Calif.",Outdoor,Grass,Cloudy,85.0,44,4,N
28631,2019091512,20190915123986,away,23.01,28.46,3.84,0.86,0.39,266.77,318.79,2562588,Chauncey Gardner-Johnson,22,2019,11,4,04:57:00,LA,2,10,LA,27,9,2552475,SINGLEBACK,"1 RB, 1 TE, 3 WR",6,"4 DL, 2 LB, 5 DB",right,2019-09-15T23:21:33.000Z,2019-09-15T23:21:32.000Z,5-11,208,12/20/1997,Florida,DB,LA,NO,2,Los Angeles Memorial Coliseum,"Los Angeles, Calif.",Outdoor,Grass,Cloudy,85.0,44,4,N
28632,2019091512,20190915123986,away,21.47,32.35,3.24,1.0,0.33,306.02,5.51,2563242,Shy Tuttle,99,2019,11,4,04:57:00,LA,2,10,LA,27,9,2552475,SINGLEBACK,"1 RB, 1 TE, 3 WR",6,"4 DL, 2 LB, 5 DB",right,2019-09-15T23:21:33.000Z,2019-09-15T23:21:32.000Z,6-3,300,10/20/1995,Tennessee,DT,LA,NO,2,Los Angeles Memorial Coliseum,"Los Angeles, Calif.",Outdoor,Grass,Cloudy,85.0,44,4,N
28633,2019091512,20190915123986,home,19.4,36.79,3.48,1.15,0.36,45.89,347.44,2495977,Andrew Whitworth,77,2019,11,4,04:57:00,LA,2,10,LA,27,9,2552475,SINGLEBACK,"1 RB, 1 TE, 3 WR",6,"4 DL, 2 LB, 5 DB",right,2019-09-15T23:21:33.000Z,2019-09-15T23:21:32.000Z,6-7,330,12/12/1981,Louisiana State,T,LA,NO,2,Los Angeles Memorial Coliseum,"Los Angeles, Calif.",Outdoor,Grass,Cloudy,85.0,44,4,N
28634,2019091512,20190915123986,home,21.47,29.04,3.2,2.79,0.32,118.66,36.89,2540169,Robert Woods,17,2019,11,4,04:57:00,LA,2,10,LA,27,9,2552475,SINGLEBACK,"1 RB, 1 TE, 3 WR",6,"4 DL, 2 LB, 5 DB",right,2019-09-15T23:21:33.000Z,2019-09-15T23:21:32.000Z,6-0,193,04/10/1992,Southern California,WR,LA,NO,2,Los Angeles Memorial Coliseum,"Los Angeles, Calif.",Outdoor,Grass,Cloudy,85.0,44,4,N
28635,2019091512,20190915123986,home,21.75,40.37,4.42,2.71,0.43,84.52,64.08,2543498,Brandin Cooks,12,2019,11,4,04:57:00,LA,2,10,LA,27,9,2552475,SINGLEBACK,"1 RB, 1 TE, 3 WR",6,"4 DL, 2 LB, 5 DB",right,2019-09-15T23:21:33.000Z,2019-09-15T23:21:32.000Z,5-10,183,09/25/1993,Oregon State,WR,LA,NO,2,Los Angeles Memorial Coliseum,"Los Angeles, Calif.",Outdoor,Grass,Cloudy,85.0,44,4,N
28636,2019091512,20190915123986,home,20.7,31.2,3.55,1.66,0.37,113.32,7.97,2552363,Rob Havenstein,79,2019,11,4,04:57:00,LA,2,10,LA,27,9,2552475,SINGLEBACK,"1 RB, 1 TE, 3 WR",6,"4 DL, 2 LB, 5 DB",right,2019-09-15T23:21:33.000Z,2019-09-15T23:21:32.000Z,6-8,328,05/13/1992,Wisconsin,T,LA,NO,2,Los Angeles Memorial Coliseum,"Los Angeles, Calif.",Outdoor,Grass,Cloudy,85.0,44,4,N
28637,2019091512,20190915123986,home,15.83,32.91,4.96,0.69,0.49,67.68,42.81,2552475,Todd Gurley,30,2019,11,4,04:57:00,LA,2,10,LA,27,9,2552475,SINGLEBACK,"1 RB, 1 TE, 3 WR",6,"4 DL, 2 LB, 5 DB",right,2019-09-15T23:21:33.000Z,2019-09-15T23:21:32.000Z,6-1,224,08/03/1994,Georgia,RB,LA,NO,2,Los Angeles Memorial Coliseum,"Los Angeles, Calif.",Outdoor,Grass,Cloudy,85.0,44,4,N
28638,2019091512,20190915123986,home,16.4,31.92,4.38,1.71,0.43,319.74,292.96,2555334,Jared Goff,16,2019,11,4,04:57:00,LA,2,10,LA,27,9,2552475,SINGLEBACK,"1 RB, 1 TE, 3 WR",6,"4 DL, 2 LB, 5 DB",right,2019-09-15T23:21:33.000Z,2019-09-15T23:21:32.000Z,6-4,223,10/14/1994,California,QB,LA,NO,2,Los Angeles Memorial Coliseum,"Los Angeles, Calif.",Outdoor,Grass,Cloudy,85.0,44,4,N
28639,2019091512,20190915123986,home,20.26,25.57,1.31,1.38,0.13,46.51,331.38,2557889,Gerald Everett,81,2019,11,4,04:57:00,LA,2,10,LA,27,9,2552475,SINGLEBACK,"1 RB, 1 TE, 3 WR",6,"4 DL, 2 LB, 5 DB",right,2019-09-15T23:21:33.000Z,2019-09-15T23:21:32.000Z,6-3,240,06/25/1994,South Alabama,TE,LA,NO,2,Los Angeles Memorial Coliseum,"Los Angeles, Calif.",Outdoor,Grass,Cloudy,85.0,44,4,N
28640,2019091512,20190915123986,home,21.66,37.98,3.34,1.48,0.33,68.56,48.81,2557898,Cooper Kupp,18,2019,11,4,04:57:00,LA,2,10,LA,27,9,2552475,SINGLEBACK,"1 RB, 1 TE, 3 WR",6,"4 DL, 2 LB, 5 DB",right,2019-09-15T23:21:33.000Z,2019-09-15T23:21:32.000Z,6-2,208,06/15/1993,Eastern Washington,WR,LA,NO,2,Los Angeles Memorial Coliseum,"Los Angeles, Calif.",Outdoor,Grass,Cloudy,85.0,44,4,N
28641,2019091512,20190915123986,home,19.61,34.48,2.84,0.8,0.29,9.82,354.97,2560825,Joe Noteboom,70,2019,11,4,04:57:00,LA,2,10,LA,27,9,2552475,SINGLEBACK,"1 RB, 1 TE, 3 WR",6,"4 DL, 2 LB, 5 DB",right,2019-09-15T23:21:33.000Z,2019-09-15T23:21:32.000Z,6-5,321,06/19/1995,Texas Christian,T,LA,NO,2,Los Angeles Memorial Coliseum,"Los Angeles, Calif.",Outdoor,Grass,Cloudy,85.0,44,4,N
28642,2019091512,20190915123986,home,20.85,32.35,2.88,0.7,0.37,123.55,1.88,2560954,Brian Allen,55,2019,11,4,04:57:00,LA,2,10,LA,27,9,2552475,SINGLEBACK,"1 RB, 1 TE, 3 WR",6,"4 DL, 2 LB, 5 DB",right,2019-09-15T23:21:33.000Z,2019-09-15T23:21:32.000Z,6-2,302,10/11/1995,Michigan State,C,LA,NO,2,Los Angeles Memorial Coliseum,"Los Angeles, Calif.",Outdoor,Grass,Cloudy,85.0,44,4,N
28643,2019091512,20190915123986,home,20.76,32.09,3.32,0.54,0.35,342.01,10.42,2561043,Jamil Demby,64,2019,11,4,04:57:00,LA,2,10,LA,27,9,2552475,SINGLEBACK,"1 RB, 1 TE, 3 WR",6,"4 DL, 2 LB, 5 DB",right,2019-09-15T23:21:33.000Z,2019-09-15T23:21:32.000Z,6-5,321,06/20/1996,Maine,G,LA,NO,2,Los Angeles Memorial Coliseum,"Los Angeles, Calif.",Outdoor,Grass,Cloudy,85.0,44,4,N
