,GameId,PlayId,Team,X,Y,S,A,Dis,Orientation,Dir,NflId,DisplayName,JerseyNumber,Season,YardLine,Quarter,GameClock,PossessionTeam,Down,Distance,FieldPosition,HomeScoreBeforePlay,VisitorScoreBeforePlay,NflIdRusher,OffenseFormation,OffensePersonnel,DefendersInTheBox,DefensePersonnel,PlayDirection,TimeHandoff,TimeSnap,PlayerHeight,PlayerWeight,PlayerBirthDate,PlayerCollegeName,Position,HomeTeamAbbr,VisitorTeamAbbr,Week,Stadium,Location,StadiumType,Turf,GameWeather,Temperature,Humidity,WindSpeed,WindDirection
5896,2019090805,20190908052876,away,84.11,31.67,2.8,3.38,0.27,246.73,294.85,2495347,Lee Smith,85,2019,25,3,07:01:00,BUF,1,10,BUF,16,0,2506404,I_FORM,"2 RB, 2 TE, 1 WR",7,"4 DL, 3 LB, 4 DB",left,2019-09-08T19:10:10.000Z,2019-09-08T19:10:08.000Z,6-6,265,11/21/1987,Marshall,TE,NYJ,BUF,1,MetLife Stadium,"East Rutherford, N.J.",Outdoor,FieldTurf,Mostly Sunny,77.0,46,6,WNW
5897,2019090805,20190908052876,away,90.15,29.49,5.89,2.74,0.56,264.95,324.5,2506404,Frank Gore,20,2019,25,3,07:01:00,BUF,1,10,BUF,16,0,2506404,I_FORM,"2 RB, 2 TE, 1 WR",7,"4 DL, 3 LB, 4 DB",left,2019-09-08T19:10:10.000Z,2019-09-08T19:10:08.000Z,5-9,212,05/14/1983,Miami,RB,NYJ,BUF,1,MetLife Stadium,"East Rutherford, N.J.",Outdoor,FieldTurf,Mostly Sunny,77.0,46,6,WNW
5898,2019090805,20190908052876,away,88.52,31.04,5.2,1.31,0.51,319.89,344.28,2530763,Patrick DiMarco,42,2019,25,3,07:01:00,BUF,1,10,BUF,16,0,2506404,I_FORM,"2 RB, 2 TE, 1 WR",7,"4 DL, 3 LB, 4 DB",left,2019-09-08T19:10:10.000Z,2019-09-08T19:10:08.000Z,6-1,234,04/30/1989,South Carolina,FB,NYJ,BUF,1,MetLife Stadium,"East Rutherford, N.J.",Outdoor,FieldTurf,Mostly Sunny,77.0,46,6,WNW
5899,2019090805,20190908052876,away,86.48,31.99,3.67,1.03,0.37,349.71,356.76,2552343,Jon Feliciano,76,2019,25,3,07:01:00,BUF,1,10,BUF,16,0,2506404,I_FORM,"2 RB, 2 TE, 1 WR",7,"4 DL, 3 LB, 4 DB",left,2019-09-08T19:10:10.000Z,2019-09-08T19:10:08.000Z,6-4,323,02/10/1992,Miami,G,NYJ,BUF,1,MetLife Stadium,"East Rutherford, N.J.",Outdoor,FieldTurf,Mostly Sunny,77.0,46,6,WNW
5900,2019090805,20190908052876,away,86.33,31.13,3.5,2.37,0.36,302.84,356.75,2552668,Mitch Morse,60,2019,25,3,07:01:00,BUF,1,10,BUF,16,0,2506404,I_FORM,"2 RB, 2 TE, 1 WR",7,"4 DL, 3 LB, 4 DB",left,2019-09-08T19:10:10.000Z,2019-09-08T19:10:08.000Z,6-6,305,04/21/1992,Missouri,C,NYJ,BUF,1,MetLife Stadium,"East Rutherford, N.J.",Outdoor,FieldTurf,Mostly Sunny,77.0,46,6,WNW
5901,2019090805,20190908052876,away,85.02,28.23,3.02,0.63,0.3,263.11,329.85,2553824,Quinton Spain,67,2019,25,3,07:01:00,BUF,1,10,BUF,16,0,2506404,I_FORM,"2 RB, 2 TE, 1 WR",7,"4 DL, 3 LB, 4 DB",left,2019-09-08T19:10:10.000Z,2019-09-08T19:10:08.000Z,6-4,330,08/07/1991,West Virginia,G,NYJ,BUF,1,MetLife Stadium,"East Rutherford, N.J.",Outdoor,FieldTurf,Mostly Sunny,77.0,46,6,WNW
5902,2019090805,20190908052876,away,84.75,27.33,3.41,1.26,0.35,294.87,340.12,2557875,Dion Dawkins,73,2019,25,3,07:01:00,BUF,1,10,BUF,16,0,2506404,I_FORM,"2 RB, 2 TE, 1 WR",7,"4 DL, 3 LB, 4 DB",left,2019-09-08T19:10:10.000Z,2019-09-08T19:10:08.000Z,6-5,320,04/26/1994,Temple,T,NYJ,BUF,1,MetLife Stadium,"East Rutherford, N.J.",Outdoor,FieldTurf,Mostly Sunny,77.0,46,6,WNW
5903,2019090805,20190908052876,away,82.86,10.12,4.91,2.3,0.48,298.87,260.12,2560729,Robert Foster,16,2019,25,3,07:01:00,BUF,1,10,BUF,16,0,2506404,I_FORM,"2 RB, 2 TE, 1 WR",7,"4 DL, 3 LB, 4 DB",left,2019-09-08T19:10:10.000Z,2019-09-08T19:10:08.000Z,6-2,194,05/07/1994,Alabama,WR,NYJ,BUF,1,MetLife Stadium,"East Rutherford, N.J.",Outdoor,FieldTurf,Mostly Sunny,77.0,46,6,WNW
5904,2019090805,20190908052876,away,89.67,29.04,4.09,3.15,0.41,50.67,82.13,2560955,Josh Allen,17,2019,25,3,07:01:00,BUF,1,10,BUF,16,0,2506404,I_FORM,"2 RB, 2 TE, 1 WR",7,"4 DL, 3 LB, 4 DB",left,2019-09-08T19:10:10.000Z,2019-09-08T19:10:08.000Z,6-5,237,05/21/1996,Wyoming,QB,NYJ,BUF,1,MetLife Stadium,"East Rutherford, N.J.",Outdoor,FieldTurf,Mostly Sunny,77.0,46,6,WNW
5905,2019090805,20190908052876,away,85.09,30.51,2.19,2.02,0.21,330.87,357.63,2562266,Cody Ford,70,2019,25,3,07:01:00,BUF,1,10,BUF,16,0,2506404,I_FORM,"2 RB, 2 TE, 1 WR",7,"4 DL, 3 LB, 4 DB",left,2019-09-08T19:10:10.000Z,2019-09-08T19:10:08.000Z,6-3,329,12/28/1996,Oklahoma,T,NYJ,BUF,1,MetLife Stadium,"East Rutherford, N.J.",Outdoor,FieldTurf,Mostly Sunny,77.0,46,6,WNW
5906,2019090805,20190908052876,away,85.27,24.72,1.83,1.8,0.2,253.53,291.43,2562681,Dawson Knox,88,2019,25,3,07:01:00,BUF,1,10,BUF,16,0,2506404,I_FORM,"2 RB, 2 TE, 1 WR",7,"4 DL, 3 LB, 4 DB",left,2019-09-08T19:10:10.000Z,2019-09-08T19:10:08.000Z,6-4,254,11/14/1996,Mississippi,TE,NYJ,BUF,1,MetLife Stadium,"East Rutherford, N.J.",Outdoor,FieldTurf,Mostly Sunny,77.0,46,6,WNW
5907,2019090805,20190908052876,home,78.9,34.96,1.58,2.08,0.15,93.21,40.33,2532877,Trumaine Johnson,22,2019,25,3,07:01:00,BUF,1,10,BUF,16,0,2506404,I_FORM,"2 RB, 2 TE, 1 WR",7,"4 DL, 3 LB, 4 DB",left,2019-09-08T19:10:10.000Z,2019-09-08T19:10:08.000Z,6-2,213,01/01/1990,Montana,CB,NYJ,BUF,1,MetLife Stadium,"East Rutherford, N.J.",Outdoor,FieldTurf,Mostly Sunny,77.0,46,6,WNW
5908,2019090805,20190908052876,home,80.18,29.17,4.29,3.2,0.42,42.74,6.4,2543464,C.J. Mosley,57,2019,25,3,07:01:00,BUF,1,10,BUF,16,0,2506404,I_FORM,"2 RB, 2 TE, 1 WR",7,"4 DL, 3 LB, 4 DB",left,2019-09-08T19:10:10.000Z,2019-09-08T19:10:08.000Z,6-2,250,06/19/1992,Alabama,ILB,NYJ,BUF,1,MetLife Stadium,"East Rutherford, N.J.",Outdoor,FieldTurf,Mostly Sunny,77.0,46,6,WNW
5909,2019090805,20190908052876,home,85.54,33.36,2.34,0.61,0.23,143.8,72.21,2552272,Henry Anderson,96,2019,25,3,07:01:00,BUF,1,10,BUF,16,0,2506404,I_FORM,"2 RB, 2 TE, 1 WR",7,"4 DL, 3 LB, 4 DB",left,2019-09-08T19:10:10.000Z,2019-09-08T19:10:08.000Z,6-6,301,08/03/1991,Stanford,DE,NYJ,BUF,1,MetLife Stadium,"East Rutherford, N.J.",Outdoor,FieldTurf,Mostly Sunny,77.0,46,6,WNW
5910,2019090805,20190908052876,home,84.33,27.98,2.44,1.17,0.28,78.47,337.71,2552486,Leonard Williams,92,2019,25,3,07:01:00,BUF,1,10,BUF,16,0,2506404,I_FORM,"2 RB, 2 TE, 1 WR",7,"4 DL, 3 LB, 4 DB",left,2019-09-08T19:10:10.000Z,2019-09-08T19:10:08.000Z,6-5,302,06/20/1994,Southern California,DE,NYJ,BUF,1,MetLife Stadium,"East Rutherford, N.J.",Outdoor,FieldTurf,Mostly Sunny,77.0,46,6,WNW
5911,2019090805,20190908052876,home,82.12,14.52,4.79,2.64,0.46,37.89,4.76,2553353,Darryl Roberts,27,2019,25,3,07:01:00,BUF,1,10,BUF,16,0,2506404,I_FORM,"2 RB, 2 TE, 1 WR",7,"4 DL, 3 LB, 4 DB",left,2019-09-08T19:10:10.000Z,2019-09-08T19:10:08.000Z,6-0,182,11/26/1990,Marshall,CB,NYJ,BUF,1,MetLife Stadium,"East Rutherford, N.J.",Outdoor,FieldTurf,Mostly Sunny,77.0,46,6,WNW
5912,2019090805,20190908052876,home,82.68,27.53,4.81,1.91,0.47,55.74,6.86,2553657,Neville Hewitt,46,2019,25,3,07:01:00,BUF,1,10,BUF,16,0,2506404,I_FORM,"2 RB, 2 TE, 1 WR",7,"4 DL, 3 LB, 4 DB",left,2019-09-08T19:10:10.000Z,2019-09-08T19:10:08.000Z,6-2,234,04/06/1993,Marshall,OLB,NYJ,BUF,1,MetLife Stadium,"East Rutherford, N.J.",Outdoor,FieldTurf,Mostly Sunny,77.0,46,6,WNW
5913,2019090805,20190908052876,home,85.52,24.82,1.65,2.32,0.17,4.05,2.6,2555244,Bronson Kaufusi,91,2019,25,3,07:01:00,BUF,1,10,BUF,16,0,2506404,I_FORM,"2 RB, 2 TE, 1 WR",7,"4 DL, 3 LB, 4 DB",left,2019-09-08T19:10:10.000Z,2019-09-08T19:10:08.000Z,6-6,275,07/06/1991,Brigham Young,DE,NYJ,BUF,1,MetLife Stadium,"East Rutherford, N.J.",Outdoor,FieldTurf,Mostly Sunny,77.0,46,6,WNW
5914,2019090805,20190908052876,home,85.58,35.7,2.85,1.89,0.27,120.35,96.27,2557979,Jamal Adams,33,2019,25,3,07:01:00,BUF,1,10,BUF,16,0,2506404,I_FORM,"2 RB, 2 TE, 1 WR",7,"4 DL, 3 LB, 4 DB",left,2019-09-08T19:10:10.000Z,2019-09-08T19:10:08.000Z,6-1,213,10/17/1995,Louisiana State,SS,NYJ,BUF,1,MetLife Stadium,"East Rutherford, N.J.",Outdoor,FieldTurf,Mostly Sunny,77.0,46,6,WNW
5915,2019090805,20190908052876,home,68.11,19.49,1.96,0.91,0.19,93.19,201.0,2557995,Marcus Maye,20,2019,25,3,07:01:00,BUF,1,10,BUF,16,0,2506404,I_FORM,"2 RB, 2 TE, 1 WR",7,"4 DL, 3 LB, 4 DB",left,2019-09-08T19:10:10.000Z,2019-09-08T19:10:08.000Z,6-0,207,03/09/1993,Florida,FS,NYJ,BUF,1,MetLife Stadium,"East Rutherford, N.J.",Outdoor,FieldTurf,Mostly Sunny,77.0,46,6,WNW
5916,2019090805,20190908052876,home,82.69,31.41,3.43,3.42,0.33,101.85,15.19,2561366,Frankie Luvu,50,2019,25,3,07:01:00,BUF,1,10,BUF,16,0,2506404,I_FORM,"2 RB, 2 TE, 1 WR",7,"4 DL, 3 LB, 4 DB",left,2019-09-08T19:10:10.000Z,2019-09-08T19:10:08.000Z,6-3,235,09/19/1996,Washington State,LB,NYJ,BUF,1,MetLife Stadium,"East Rutherford, N.J.",Outdoor,FieldTurf,Mostly Sunny,77.0,46,6,WNW
5917,2019090805,20190908052876,home,85.0,31.14,2.42,2.38,0.26,117.96,1.64,2562599,Quinnen Williams,95,2019,25,3,07:01:00,BUF,1,10,BUF,16,0,2506404,I_FORM,"2 RB, 2 TE, 1 WR",7,"4 DL, 3 LB, 4 DB",left,2019-09-08T19:10:10.000Z,2019-09-08T19:10:08.000Z,6-3,303,12/21/1997,Alabama,NT,NYJ,BUF,1,MetLife Stadium,"East Rutherford, N.J.",Outdoor,FieldTurf,Mostly Sunny,77.0,46,6,WNW
