,GameId,PlayId,Team,X,Y,S,A,Dis,Orientation,Dir,NflId,DisplayName,JerseyNumber,Season,YardLine,Quarter,GameClock,PossessionTeam,Down,Distance,FieldPosition,HomeScoreBeforePlay,VisitorScoreBeforePlay,NflIdRusher,OffenseFormation,OffensePersonnel,DefendersInTheBox,DefensePersonnel,PlayDirection,TimeHandoff,TimeSnap,PlayerHeight,PlayerWeight,PlayerBirthDate,PlayerCollegeName,Position,HomeTeamAbbr,VisitorTeamAbbr,Week,Stadium,Location,StadiumType,Turf,GameWeather,Temperature,Humidity,WindSpeed,WindDirection
59158,2019092912,20190929121871,away,67.72,26.98,0.71,1.2,0.07,198.89,334.36,2495435,Tyron Smith,77,2019,43,2,01:36:00,DAL,4,1,DAL,6,3,2555224,SINGLEBACK,"1 RB, 1 TE, 3 WR",7,"4 DL, 2 LB, 5 DB",left,2019-09-30T01:34:25.000Z,2019-09-30T01:34:23.000Z,6-5,320,12/12/1990,Southern California,T,NO,DAL,4,Mercedes-Benz Superdome,"New Orleans, La.",Indoors,UBU Speed Series-S5-M,Sunny,87.0,62,10,E
59159,2019092912,20190929121871,away,67.27,33.11,2.19,1.08,0.23,269.89,250.18,2495448,Randall Cobb,18,2019,43,2,01:36:00,DAL,4,1,DAL,6,3,2555224,SINGLEBACK,"1 RB, 1 TE, 3 WR",7,"4 DL, 2 LB, 5 DB",left,2019-09-30T01:34:25.000Z,2019-09-30T01:34:23.000Z,5-10,192,08/22/1990,Kentucky,WR,NO,DAL,4,Mercedes-Benz Superdome,"New Orleans, La.",Indoors,UBU Speed Series-S5-M,Sunny,87.0,62,10,E
59160,2019092912,20190929121871,away,68.01,34.3,1.57,2.79,0.14,17.07,127.18,2505629,Jason Witten,82,2019,43,2,01:36:00,DAL,4,1,DAL,6,3,2555224,SINGLEBACK,"1 RB, 1 TE, 3 WR",7,"4 DL, 2 LB, 5 DB",left,2019-09-30T01:34:25.000Z,2019-09-30T01:34:23.000Z,6-6,263,05/06/1982,Tennessee,TE,NO,DAL,4,Mercedes-Benz Superdome,"New Orleans, La.",Indoors,UBU Speed Series-S5-M,Sunny,87.0,62,10,E
59161,2019092912,20190929121871,away,66.19,29.51,1.34,0.91,0.14,203.08,253.83,2540161,Travis Frederick,72,2019,43,2,01:36:00,DAL,4,1,DAL,6,3,2555224,SINGLEBACK,"1 RB, 1 TE, 3 WR",7,"4 DL, 2 LB, 5 DB",left,2019-09-30T01:34:25.000Z,2019-09-30T01:34:23.000Z,6-4,320,03/18/1991,Wisconsin,C,NO,DAL,4,Mercedes-Benz Superdome,"New Orleans, La.",Indoors,UBU Speed Series-S5-M,Sunny,87.0,62,10,E
59162,2019092912,20190929121871,away,67.37,30.42,1.12,0.75,0.11,233.42,212.26,2543480,Zack Martin,70,2019,43,2,01:36:00,DAL,4,1,DAL,6,3,2555224,SINGLEBACK,"1 RB, 1 TE, 3 WR",7,"4 DL, 2 LB, 5 DB",left,2019-09-30T01:34:25.000Z,2019-09-30T01:34:23.000Z,6-4,315,11/20/1990,Notre Dame,G,NO,DAL,4,Mercedes-Benz Superdome,"New Orleans, La.",Indoors,UBU Speed Series-S5-M,Sunny,87.0,62,10,E
59163,2019092912,20190929121871,away,68.33,25.44,2.09,3.59,0.2,276.79,282.83,2552487,Amari Cooper,19,2019,43,2,01:36:00,DAL,4,1,DAL,6,3,2555224,SINGLEBACK,"1 RB, 1 TE, 3 WR",7,"4 DL, 2 LB, 5 DB",left,2019-09-30T01:34:25.000Z,2019-09-30T01:34:23.000Z,6-1,211,06/17/1994,Alabama,WR,NO,DAL,4,Mercedes-Benz Superdome,"New Orleans, La.",Indoors,UBU Speed Series-S5-M,Sunny,87.0,62,10,E
59164,2019092912,20190929121871,away,66.34,22.63,2.73,0.57,0.27,241.34,235.89,2553434,Devin Smith,15,2019,43,2,01:36:00,DAL,4,1,DAL,6,3,2555224,SINGLEBACK,"1 RB, 1 TE, 3 WR",7,"4 DL, 2 LB, 5 DB",left,2019-09-30T01:34:25.000Z,2019-09-30T01:34:23.000Z,6-1,199,03/03/1992,Ohio State,WR,NO,DAL,4,Mercedes-Benz Superdome,"New Orleans, La.",Indoors,UBU Speed Series-S5-M,Sunny,87.0,62,10,E
59165,2019092912,20190929121871,away,66.98,31.23,0.98,3.1,0.1,251.12,231.23,2553505,La'el Collins,71,2019,43,2,01:36:00,DAL,4,1,DAL,6,3,2555224,SINGLEBACK,"1 RB, 1 TE, 3 WR",7,"4 DL, 2 LB, 5 DB",left,2019-09-30T01:34:25.000Z,2019-09-30T01:34:23.000Z,6-4,320,07/26/1993,Louisiana State,T,NO,DAL,4,Mercedes-Benz Superdome,"New Orleans, La.",Indoors,UBU Speed Series-S5-M,Sunny,87.0,62,10,E
59166,2019092912,20190929121871,away,71.07,30.54,4.81,2.26,0.47,273.64,274.47,2555224,Ezekiel Elliott,21,2019,43,2,01:36:00,DAL,4,1,DAL,6,3,2555224,SINGLEBACK,"1 RB, 1 TE, 3 WR",7,"4 DL, 2 LB, 5 DB",left,2019-09-30T01:34:25.000Z,2019-09-30T01:34:23.000Z,6-0,228,07/22/1995,Ohio State,RB,NO,DAL,4,Mercedes-Benz Superdome,"New Orleans, La.",Indoors,UBU Speed Series-S5-M,Sunny,87.0,62,10,E
59167,2019092912,20190929121871,away,71.95,29.81,4.38,0.83,0.43,4.86,95.04,2555260,Dak Prescott,4,2019,43,2,01:36:00,DAL,4,1,DAL,6,3,2555224,SINGLEBACK,"1 RB, 1 TE, 3 WR",7,"4 DL, 2 LB, 5 DB",left,2019-09-30T01:34:25.000Z,2019-09-30T01:34:23.000Z,6-2,238,07/29/1993,Mississippi State,QB,NO,DAL,4,Mercedes-Benz Superdome,"New Orleans, La.",Indoors,UBU Speed Series-S5-M,Sunny,87.0,62,10,E
59168,2019092912,20190929121871,away,66.7,28.6,0.49,2.84,0.04,175.2,173.9,2560934,Connor Williams,52,2019,43,2,01:36:00,DAL,4,1,DAL,6,3,2555224,SINGLEBACK,"1 RB, 1 TE, 3 WR",7,"4 DL, 2 LB, 5 DB",left,2019-09-30T01:34:25.000Z,2019-09-30T01:34:23.000Z,6-5,298,05/12/1997,Texas,G,NO,DAL,4,Mercedes-Benz Superdome,"New Orleans, La.",Indoors,UBU Speed Series-S5-M,Sunny,87.0,62,10,E
59169,2019092912,20190929121871,home,68.15,34.96,2.14,1.76,0.21,129.78,103.78,2495184,Cameron Jordan,94,2019,43,2,01:36:00,DAL,4,1,DAL,6,3,2555224,SINGLEBACK,"1 RB, 1 TE, 3 WR",7,"4 DL, 2 LB, 5 DB",left,2019-09-30T01:34:25.000Z,2019-09-30T01:34:23.000Z,6-4,287,07/10/1989,California,DE,NO,DAL,4,Mercedes-Benz Superdome,"New Orleans, La.",Indoors,UBU Speed Series-S5-M,Sunny,87.0,62,10,E
59170,2019092912,20190929121871,home,65.81,31.7,3.59,0.98,0.35,85.12,79.27,2533008,Demario Davis,56,2019,43,2,01:36:00,DAL,4,1,DAL,6,3,2555224,SINGLEBACK,"1 RB, 1 TE, 3 WR",7,"4 DL, 2 LB, 5 DB",left,2019-09-30T01:34:25.000Z,2019-09-30T01:34:23.000Z,6-2,248,01/11/1989,Arkansas State,ILB,NO,DAL,4,Mercedes-Benz Superdome,"New Orleans, La.",Indoors,UBU Speed Series-S5-M,Sunny,87.0,62,10,E
59171,2019092912,20190929121871,home,65.26,28.88,2.85,0.61,0.27,68.02,81.91,2539982,A.J. Klein,53,2019,43,2,01:36:00,DAL,4,1,DAL,6,3,2555224,SINGLEBACK,"1 RB, 1 TE, 3 WR",7,"4 DL, 2 LB, 5 DB",left,2019-09-30T01:34:25.000Z,2019-09-30T01:34:23.000Z,6-1,240,07/30/1991,Iowa State,OLB,NO,DAL,4,Mercedes-Benz Superdome,"New Orleans, La.",Indoors,UBU Speed Series-S5-M,Sunny,87.0,62,10,E
59172,2019092912,20190929121871,home,65.47,22.41,2.57,1.6,0.25,66.87,219.69,2552484,P.J. Williams,26,2019,43,2,01:36:00,DAL,4,1,DAL,6,3,2555224,SINGLEBACK,"1 RB, 1 TE, 3 WR",7,"4 DL, 2 LB, 5 DB",left,2019-09-30T01:34:25.000Z,2019-09-30T01:34:23.000Z,6-0,196,06/01/1993,Florida State,CB,NO,DAL,4,Mercedes-Benz Superdome,"New Orleans, La.",Indoors,UBU Speed Series-S5-M,Sunny,87.0,62,10,E
59173,2019092912,20190929121871,home,66.6,30.66,1.08,1.03,0.11,103.4,187.63,2555242,Sheldon Rankins,98,2019,43,2,01:36:00,DAL,4,1,DAL,6,3,2555224,SINGLEBACK,"1 RB, 1 TE, 3 WR",7,"4 DL, 2 LB, 5 DB",left,2019-09-30T01:34:25.000Z,2019-09-30T01:34:23.000Z,6-2,305,04/02/1994,Louisville,DT,NO,DAL,4,Mercedes-Benz Superdome,"New Orleans, La.",Indoors,UBU Speed Series-S5-M,Sunny,87.0,62,10,E
59174,2019092912,20190929121871,home,61.93,33.12,2.46,5.06,0.26,91.53,31.55,2555277,Eli Apple,25,2019,43,2,01:36:00,DAL,4,1,DAL,6,3,2555224,SINGLEBACK,"1 RB, 1 TE, 3 WR",7,"4 DL, 2 LB, 5 DB",left,2019-09-30T01:34:25.000Z,2019-09-30T01:34:23.000Z,6-1,203,08/09/1995,Ohio State,CB,NO,DAL,4,Mercedes-Benz Superdome,"New Orleans, La.",Indoors,UBU Speed Series-S5-M,Sunny,87.0,62,10,E
59175,2019092912,20190929121871,home,66.2,33.01,1.48,2.09,0.15,59.46,167.4,2555530,Vonn Bell,24,2019,43,2,01:36:00,DAL,4,1,DAL,6,3,2555224,SINGLEBACK,"1 RB, 1 TE, 3 WR",7,"4 DL, 2 LB, 5 DB",left,2019-09-30T01:34:25.000Z,2019-09-30T01:34:23.000Z,5-11,205,12/12/1994,Ohio State,FS,NO,DAL,4,Mercedes-Benz Superdome,"New Orleans, La.",Indoors,UBU Speed Series-S5-M,Sunny,87.0,62,10,E
59176,2019092912,20190929121871,home,67.32,28.37,2.09,4.45,0.19,41.77,47.35,2556274,David Onyemata,93,2019,43,2,01:36:00,DAL,4,1,DAL,6,3,2555224,SINGLEBACK,"1 RB, 1 TE, 3 WR",7,"4 DL, 2 LB, 5 DB",left,2019-09-30T01:34:25.000Z,2019-09-30T01:34:23.000Z,6-4,300,11/13/1992,"Manitoba, Can.",DT,NO,DAL,4,Mercedes-Benz Superdome,"New Orleans, La.",Indoors,UBU Speed Series-S5-M,Sunny,87.0,62,10,E
59177,2019092912,20190929121871,home,61.98,24.61,0.32,0.17,0.03,63.11,46.58,2558061,Marshon Lattimore,23,2019,43,2,01:36:00,DAL,4,1,DAL,6,3,2555224,SINGLEBACK,"1 RB, 1 TE, 3 WR",7,"4 DL, 2 LB, 5 DB",left,2019-09-30T01:34:25.000Z,2019-09-30T01:34:23.000Z,6-0,192,05/20/1996,Ohio State,CB,NO,DAL,4,Mercedes-Benz Superdome,"New Orleans, La.",Indoors,UBU Speed Series-S5-M,Sunny,87.0,62,10,E
59178,2019092912,20190929121871,home,54.17,29.48,0.81,1.99,0.07,90.05,60.22,2558847,Marcus Williams,43,2019,43,2,01:36:00,DAL,4,1,DAL,6,3,2555224,SINGLEBACK,"1 RB, 1 TE, 3 WR",7,"4 DL, 2 LB, 5 DB",left,2019-09-30T01:34:25.000Z,2019-09-30T01:34:23.000Z,6-1,195,09/08/1996,Utah,FS,NO,DAL,4,Mercedes-Benz Superdome,"New Orleans, La.",Indoors,UBU Speed Series-S5-M,Sunny,87.0,62,10,E
59179,2019092912,20190929121871,home,67.16,26.28,1.33,1.19,0.14,59.39,33.38,2561037,Marcus Davenport,92,2019,43,2,01:36:00,DAL,4,1,DAL,6,3,2555224,SINGLEBACK,"1 RB, 1 TE, 3 WR",7,"4 DL, 2 LB, 5 DB",left,2019-09-30T01:34:25.000Z,2019-09-30T01:34:23.000Z,6-6,265,09/04/1996,Texas-San Antonio,DE,NO,DAL,4,Mercedes-Benz Superdome,"New Orleans, La.",Indoors,UBU Speed Series-S5-M,Sunny,87.0,62,10,E
