,GameId,PlayId,Team,X,Y,S,A,Dis,Orientation,Dir,NflId,DisplayName,JerseyNumber,Season,YardLine,Quarter,GameClock,PossessionTeam,Down,Distance,FieldPosition,HomeScoreBeforePlay,VisitorScoreBeforePlay,NflIdRusher,OffenseFormation,OffensePersonnel,DefendersInTheBox,DefensePersonnel,PlayDirection,TimeHandoff,TimeSnap,PlayerHeight,PlayerWeight,PlayerBirthDate,PlayerCollegeName,Position,HomeTeamAbbr,VisitorTeamAbbr,Week,Stadium,Location,StadiumType,Turf,GameWeather,Temperature,Humidity,WindSpeed,WindDirection
39160,2019092207,20190922072303,away,69.46,24.37,1.48,1.19,0.14,109.83,15.06,2535718,Damon Harrison,98,2019,40,3,11:01:00,PHI,2,5,PHI,10,20,2555418,SHOTGUN,"1 RB, 1 TE, 3 WR",6,"3 DL, 3 LB, 5 DB",left,2019-09-22T18:54:15.000Z,2019-09-22T18:54:14.000Z,6-3,350,11/29/1988,William Penn,DT,PHI,DET,3,Lincoln Financial Field,"Philadelphia, Pa.",Outdoor,Grass,Sunny,84.0,53,7,SSW
39161,2019092207,20190922072303,away,63.47,45.37,0.57,1.6,0.05,112.69,352.73,2540288,Darius Slay,23,2019,40,3,11:01:00,PHI,2,5,PHI,10,20,2555418,SHOTGUN,"1 RB, 1 TE, 3 WR",6,"3 DL, 3 LB, 5 DB",left,2019-09-22T18:54:15.000Z,2019-09-22T18:54:14.000Z,6-0,190,01/01/1991,Mississippi State,CB,PHI,DET,3,Lincoln Financial Field,"Philadelphia, Pa.",Outdoor,Grass,Sunny,84.0,53,7,SSW
39162,2019092207,20190922072303,away,66.7,13.26,2.06,0.72,0.2,30.27,246.84,2541200,Rashaan Melvin,29,2019,40,3,11:01:00,PHI,2,5,PHI,10,20,2555418,SHOTGUN,"1 RB, 1 TE, 3 WR",6,"3 DL, 3 LB, 5 DB",left,2019-09-22T18:54:15.000Z,2019-09-22T18:54:14.000Z,6-2,196,10/02/1989,Northern Illinois,CB,PHI,DET,3,Lincoln Financial Field,"Philadelphia, Pa.",Outdoor,Grass,Sunny,84.0,53,7,SSW
39163,2019092207,20190922072303,away,69.5,29.65,1.53,1.36,0.14,123.15,44.06,2543869,Devon Kennard,42,2019,40,3,11:01:00,PHI,2,5,PHI,10,20,2555418,SHOTGUN,"1 RB, 1 TE, 3 WR",6,"3 DL, 3 LB, 5 DB",left,2019-09-22T18:54:15.000Z,2019-09-22T18:54:14.000Z,6-3,256,06/24/1991,Southern California,OLB,PHI,DET,3,Lincoln Financial Field,"Philadelphia, Pa.",Outdoor,Grass,Sunny,84.0,53,7,SSW
39164,2019092207,20190922072303,away,68.67,18.57,2.54,2.26,0.24,85.36,13.43,2550572,Christian Jones,52,2019,40,3,11:01:00,PHI,2,5,PHI,10,20,2555418,SHOTGUN,"1 RB, 1 TE, 3 WR",6,"3 DL, 3 LB, 5 DB",left,2019-09-22T18:54:15.000Z,2019-09-22T18:54:14.000Z,6-3,250,02/18/1991,Florida State,ILB,PHI,DET,3,Lincoln Financial Field,"Philadelphia, Pa.",Outdoor,Grass,Sunny,84.0,53,7,SSW
39165,2019092207,20190922072303,away,56.4,17.56,1.27,2.96,0.11,108.57,23.56,2552262,Quandre Diggs,28,2019,40,3,11:01:00,PHI,2,5,PHI,10,20,2555418,SHOTGUN,"1 RB, 1 TE, 3 WR",6,"3 DL, 3 LB, 5 DB",left,2019-09-22T18:54:15.000Z,2019-09-22T18:54:14.000Z,5-9,197,01/22/1993,Texas,CB,PHI,DET,3,Lincoln Financial Field,"Philadelphia, Pa.",Outdoor,Grass,Sunny,84.0,53,7,SSW
39166,2019092207,20190922072303,away,68.78,22.75,2.02,1.04,0.2,87.12,353.04,2552278,Trey Flowers,90,2019,40,3,11:01:00,PHI,2,5,PHI,10,20,2555418,SHOTGUN,"1 RB, 1 TE, 3 WR",6,"3 DL, 3 LB, 5 DB",left,2019-09-22T18:54:15.000Z,2019-09-22T18:54:14.000Z,6-2,265,08/16/1993,Arkansas,DE,PHI,DET,3,Lincoln Financial Field,"Philadelphia, Pa.",Outdoor,Grass,Sunny,84.0,53,7,SSW
39167,2019092207,20190922072303,away,66.56,37.35,1.01,0.14,0.1,103.92,10.72,2553637,Justin Coleman,27,2019,40,3,11:01:00,PHI,2,5,PHI,10,20,2555418,SHOTGUN,"1 RB, 1 TE, 3 WR",6,"3 DL, 3 LB, 5 DB",left,2019-09-22T18:54:15.000Z,2019-09-22T18:54:14.000Z,5-11,190,03/27/1993,Tennessee,CB,PHI,DET,3,Lincoln Financial Field,"Philadelphia, Pa.",Outdoor,Grass,Sunny,84.0,53,7,SSW
39168,2019092207,20190922072303,away,69.79,27.56,1.95,1.27,0.21,130.69,18.78,2555265,A'Shawn Robinson,91,2019,40,3,11:01:00,PHI,2,5,PHI,10,20,2555418,SHOTGUN,"1 RB, 1 TE, 3 WR",6,"3 DL, 3 LB, 5 DB",left,2019-09-22T18:54:15.000Z,2019-09-22T18:54:14.000Z,6-4,330,03/21/1995,Alabama,DT,PHI,DET,3,Lincoln Financial Field,"Philadelphia, Pa.",Outdoor,Grass,Sunny,84.0,53,7,SSW
39169,2019092207,20190922072303,away,66.58,25.82,3.91,1.19,0.38,84.53,62.18,2557855,Jarrad Davis,40,2019,40,3,11:01:00,PHI,2,5,PHI,10,20,2555418,SHOTGUN,"1 RB, 1 TE, 3 WR",6,"3 DL, 3 LB, 5 DB",left,2019-09-22T18:54:15.000Z,2019-09-22T18:54:14.000Z,6-1,245,11/16/1994,Florida,MLB,PHI,DET,3,Lincoln Financial Field,"Philadelphia, Pa.",Outdoor,Grass,Sunny,84.0,53,7,SSW
39170,2019092207,20190922072303,away,57.94,33.74,2.17,1.99,0.22,108.3,290.88,2560913,Tracy Walker,21,2019,40,3,11:01:00,PHI,2,5,PHI,10,20,2555418,SHOTGUN,"1 RB, 1 TE, 3 WR",6,"3 DL, 3 LB, 5 DB",left,2019-09-22T18:54:15.000Z,2019-09-22T18:54:14.000Z,6-1,210,02/01/1995,Louisiana-Lafayette,DB,PHI,DET,3,Lincoln Financial Field,"Philadelphia, Pa.",Outdoor,Grass,Sunny,84.0,53,7,SSW
39171,2019092207,20190922072303,home,68.59,25.78,2.38,1.83,0.24,277.14,321.28,2495298,Jason Kelce,62,2019,40,3,11:01:00,PHI,2,5,PHI,10,20,2555418,SHOTGUN,"1 RB, 1 TE, 3 WR",6,"3 DL, 3 LB, 5 DB",left,2019-09-22T18:54:15.000Z,2019-09-22T18:54:14.000Z,6-3,295,11/05/1987,Cincinnati,C,PHI,DET,3,Lincoln Financial Field,"Philadelphia, Pa.",Outdoor,Grass,Sunny,84.0,53,7,SSW
39172,2019092207,20190922072303,home,69.6,22.55,2.76,1.51,0.28,291.09,330.11,2505827,Jason Peters,71,2019,40,3,11:01:00,PHI,2,5,PHI,10,20,2555418,SHOTGUN,"1 RB, 1 TE, 3 WR",6,"3 DL, 3 LB, 5 DB",left,2019-09-22T18:54:15.000Z,2019-09-22T18:54:14.000Z,6-4,328,01/22/1982,Arkansas,OT,PHI,DET,3,Lincoln Financial Field,"Philadelphia, Pa.",Outdoor,Grass,Sunny,84.0,53,7,SSW
39173,2019092207,20190922072303,home,70.37,26.97,2.12,0.34,0.22,327.8,355.08,2534434,Brandon Brooks,79,2019,40,3,11:01:00,PHI,2,5,PHI,10,20,2555418,SHOTGUN,"1 RB, 1 TE, 3 WR",6,"3 DL, 3 LB, 5 DB",left,2019-09-22T18:54:15.000Z,2019-09-22T18:54:14.000Z,6-5,335,08/19/1989,"Miami, O.",G,PHI,DET,3,Lincoln Financial Field,"Philadelphia, Pa.",Outdoor,Grass,Sunny,84.0,53,7,SSW
39174,2019092207,20190922072303,home,70.58,28.74,2.78,0.74,0.28,309.1,341.34,2539286,Lane Johnson,65,2019,40,3,11:01:00,PHI,2,5,PHI,10,20,2555418,SHOTGUN,"1 RB, 1 TE, 3 WR",6,"3 DL, 3 LB, 5 DB",left,2019-09-22T18:54:15.000Z,2019-09-22T18:54:14.000Z,6-6,317,05/08/1990,Oklahoma,T,PHI,DET,3,Lincoln Financial Field,"Philadelphia, Pa.",Outdoor,Grass,Sunny,84.0,53,7,SSW
39175,2019092207,20190922072303,home,68.35,14.3,5.37,3.14,0.51,256.63,254.98,2540158,Zach Ertz,86,2019,40,3,11:01:00,PHI,2,5,PHI,10,20,2555418,SHOTGUN,"1 RB, 1 TE, 3 WR",6,"3 DL, 3 LB, 5 DB",left,2019-09-22T18:54:15.000Z,2019-09-22T18:54:14.000Z,6-5,250,11/10/1990,Stanford,TE,PHI,DET,3,Lincoln Financial Field,"Philadelphia, Pa.",Outdoor,Grass,Sunny,84.0,53,7,SSW
39176,2019092207,20190922072303,home,72.71,34.68,3.61,1.83,0.35,280.34,4.76,2552600,Nelson Agholor,13,2019,40,3,11:01:00,PHI,2,5,PHI,10,20,2555418,SHOTGUN,"1 RB, 1 TE, 3 WR",6,"3 DL, 3 LB, 5 DB",left,2019-09-22T18:54:15.000Z,2019-09-22T18:54:14.000Z,6-0,198,05/24/1993,Southern California,WR,PHI,DET,3,Lincoln Financial Field,"Philadelphia, Pa.",Outdoor,Grass,Sunny,84.0,53,7,SSW
39177,2019092207,20190922072303,home,74.43,23.65,0.66,1.24,0.06,245.07,229.01,2555259,Carson Wentz,11,2019,40,3,11:01:00,PHI,2,5,PHI,10,20,2555418,SHOTGUN,"1 RB, 1 TE, 3 WR",6,"3 DL, 3 LB, 5 DB",left,2019-09-22T18:54:15.000Z,2019-09-22T18:54:14.000Z,6-5,237,12/30/1992,North Dakota State,QB,PHI,DET,3,Lincoln Financial Field,"Philadelphia, Pa.",Outdoor,Grass,Sunny,84.0,53,7,SSW
39178,2019092207,20190922072303,home,74.39,22.89,4.18,2.5,0.41,289.15,311.14,2555418,Jordan Howard,24,2019,40,3,11:01:00,PHI,2,5,PHI,10,20,2555418,SHOTGUN,"1 RB, 1 TE, 3 WR",6,"3 DL, 3 LB, 5 DB",left,2019-09-22T18:54:15.000Z,2019-09-22T18:54:14.000Z,6-0,224,11/02/1994,Indiana,RB,PHI,DET,3,Lincoln Financial Field,"Philadelphia, Pa.",Outdoor,Grass,Sunny,84.0,53,7,SSW
39179,2019092207,20190922072303,home,70.18,24.1,2.15,0.66,0.22,292.0,353.56,2555495,Isaac Seumalo,73,2019,40,3,11:01:00,PHI,2,5,PHI,10,20,2555418,SHOTGUN,"1 RB, 1 TE, 3 WR",6,"3 DL, 3 LB, 5 DB",left,2019-09-22T18:54:15.000Z,2019-09-22T18:54:14.000Z,6-4,303,10/29/1993,Oregon State,G,PHI,DET,3,Lincoln Financial Field,"Philadelphia, Pa.",Outdoor,Grass,Sunny,84.0,53,7,SSW
39180,2019092207,20190922072303,home,70.48,38.36,2.58,1.23,0.25,284.92,309.35,2558262,Mack Hollins,16,2019,40,3,11:01:00,PHI,2,5,PHI,10,20,2555418,SHOTGUN,"1 RB, 1 TE, 3 WR",6,"3 DL, 3 LB, 5 DB",left,2019-09-22T18:54:15.000Z,2019-09-22T18:54:14.000Z,6-4,221,09/16/1993,North Carolina,WR,PHI,DET,3,Lincoln Financial Field,"Philadelphia, Pa.",Outdoor,Grass,Sunny,84.0,53,7,SSW
39181,2019092207,20190922072303,home,69.12,44.52,3.21,2.41,0.31,275.92,290.0,2562466,J.J. Arcega-Whiteside,19,2019,40,3,11:01:00,PHI,2,5,PHI,10,20,2555418,SHOTGUN,"1 RB, 1 TE, 3 WR",6,"3 DL, 3 LB, 5 DB",left,2019-09-22T18:54:15.000Z,2019-09-22T18:54:14.000Z,6-2,225,12/31/1996,Stanford,WR,PHI,DET,3,Lincoln Financial Field,"Philadelphia, Pa.",Outdoor,Grass,Sunny,84.0,53,7,SSW
