,GameId,PlayId,Team,X,Y,S,A,Dis,Orientation,Dir,NflId,DisplayName,JerseyNumber,Season,YardLine,Quarter,GameClock,PossessionTeam,Down,Distance,FieldPosition,HomeScoreBeforePlay,VisitorScoreBeforePlay,NflIdRusher,OffenseFormation,OffensePersonnel,DefendersInTheBox,DefensePersonnel,PlayDirection,TimeHandoff,TimeSnap,PlayerHeight,PlayerWeight,PlayerBirthDate,PlayerCollegeName,Position,HomeTeamAbbr,VisitorTeamAbbr,Week,Stadium,Location,StadiumType,Turf,GameWeather,Temperature,Humidity,WindSpeed,WindDirection
18546,2019091502,20190915023629,away,74.14,25.33,1.6,0.81,0.17,32.4,332.27,2495216,Mike Pouncey,53,2019,35,4,04:13:00,LAC,1,10,DET,13,10,2559169,SHOTGUN,"1 RB, 1 TE, 3 WR",6,"3 DL, 3 LB, 5 DB",right,2019-09-15T19:45:04.000Z,2019-09-15T19:45:03.000Z,6-5,298,07/24/1989,Florida,C,DET,LAC,2,Ford Field,Detroit,Indoors,Field Turf,Controlled Climate,68.0,70,,
18547,2019091502,20190915023629,away,73.54,29.87,2.39,1.83,0.23,67.82,14.7,2495288,Virgil Green,88,2019,35,4,04:13:00,LAC,1,10,DET,13,10,2559169,SHOTGUN,"1 RB, 1 TE, 3 WR",6,"3 DL, 3 LB, 5 DB",right,2019-09-15T19:45:04.000Z,2019-09-15T19:45:03.000Z,6-5,255,08/03/1988,Nevada,TE,DET,LAC,2,Ford Field,Detroit,Indoors,Field Turf,Controlled Climate,68.0,70,,
18548,2019091502,20190915023629,away,69.83,23.95,0.38,1.32,0.04,105.47,216.1,2506121,Philip Rivers,17,2019,35,4,04:13:00,LAC,1,10,DET,13,10,2559169,SHOTGUN,"1 RB, 1 TE, 3 WR",6,"3 DL, 3 LB, 5 DB",right,2019-09-15T19:45:04.000Z,2019-09-15T19:45:03.000Z,6-5,228,12/08/1981,North Carolina State,QB,DET,LAC,2,Ford Field,Detroit,Indoors,Field Turf,Controlled Climate,68.0,70,,
18549,2019091502,20190915023629,away,75.58,12.89,4.41,3.06,0.43,92.3,136.67,2530700,Dontrelle Inman,15,2019,35,4,04:13:00,LAC,1,10,DET,13,10,2559169,SHOTGUN,"1 RB, 1 TE, 3 WR",6,"3 DL, 3 LB, 5 DB",right,2019-09-15T19:45:04.000Z,2019-09-15T19:45:03.000Z,6-3,205,01/31/1989,Virginia,WR,DET,LAC,2,Ford Field,Detroit,Indoors,Field Turf,Controlled Climate,68.0,70,,
18550,2019091502,20190915023629,away,72.94,37.28,2.55,4.13,0.24,165.37,215.06,2532790,Travis Benjamin,12,2019,35,4,04:13:00,LAC,1,10,DET,13,10,2559169,SHOTGUN,"1 RB, 1 TE, 3 WR",6,"3 DL, 3 LB, 5 DB",right,2019-09-15T19:45:04.000Z,2019-09-15T19:45:03.000Z,5-10,175,12/29/1989,Miami,WR,DET,LAC,2,Ford Field,Detroit,Indoors,Field Turf,Controlled Climate,68.0,70,,
18551,2019091502,20190915023629,away,75.25,45.74,2.82,2.23,0.27,99.36,73.16,2540154,Keenan Allen,13,2019,35,4,04:13:00,LAC,1,10,DET,13,10,2559169,SHOTGUN,"1 RB, 1 TE, 3 WR",6,"3 DL, 3 LB, 5 DB",right,2019-09-15T19:45:04.000Z,2019-09-15T19:45:03.000Z,6-2,211,04/27/1992,California,WR,DET,LAC,2,Ford Field,Detroit,Indoors,Field Turf,Controlled Climate,68.0,70,,
18552,2019091502,20190915023629,away,73.99,22.32,0.59,1.57,0.06,100.18,33.68,2543732,Michael Schofield,75,2019,35,4,04:13:00,LAC,1,10,DET,13,10,2559169,SHOTGUN,"1 RB, 1 TE, 3 WR",6,"3 DL, 3 LB, 5 DB",right,2019-09-15T19:45:04.000Z,2019-09-15T19:45:03.000Z,6-6,301,11/15/1990,Michigan,G,DET,LAC,2,Ford Field,Detroit,Indoors,Field Turf,Controlled Climate,68.0,70,,
18553,2019091502,20190915023629,away,73.04,27.65,3.41,2.05,0.34,32.48,349.62,2557873,Dan Feeney,66,2019,35,4,04:13:00,LAC,1,10,DET,13,10,2559169,SHOTGUN,"1 RB, 1 TE, 3 WR",6,"3 DL, 3 LB, 5 DB",right,2019-09-15T19:45:04.000Z,2019-09-15T19:45:03.000Z,6-4,310,05/29/1994,Indiana,G,DET,LAC,2,Ford Field,Detroit,Indoors,Field Turf,Controlled Climate,68.0,70,,
18554,2019091502,20190915023629,away,73.79,20.68,0.56,0.23,0.06,58.04,103.39,2558026,Sam Tevi,69,2019,35,4,04:13:00,LAC,1,10,DET,13,10,2559169,SHOTGUN,"1 RB, 1 TE, 3 WR",6,"3 DL, 3 LB, 5 DB",right,2019-09-15T19:45:04.000Z,2019-09-15T19:45:03.000Z,6-5,315,11/15/1994,Utah,T,DET,LAC,2,Ford Field,Detroit,Indoors,Field Turf,Controlled Climate,68.0,70,,
18555,2019091502,20190915023629,away,70.38,23.59,4.94,4.41,0.47,43.55,9.09,2559169,Austin Ekeler,30,2019,35,4,04:13:00,LAC,1,10,DET,13,10,2559169,SHOTGUN,"1 RB, 1 TE, 3 WR",6,"3 DL, 3 LB, 5 DB",right,2019-09-15T19:45:04.000Z,2019-09-15T19:45:03.000Z,5-10,200,05/17/1995,"Western State, Colo.",RB,DET,LAC,2,Ford Field,Detroit,Indoors,Field Turf,Controlled Climate,68.0,70,,
18556,2019091502,20190915023629,away,73.74,27.29,0.61,1.73,0.06,62.2,312.42,2561544,Trent Scott,78,2019,35,4,04:13:00,LAC,1,10,DET,13,10,2559169,SHOTGUN,"1 RB, 1 TE, 3 WR",6,"3 DL, 3 LB, 5 DB",right,2019-09-15T19:45:04.000Z,2019-09-15T19:45:03.000Z,6-5,320,01/25/1994,Grambling,T,DET,LAC,2,Ford Field,Detroit,Indoors,Field Turf,Controlled Climate,68.0,70,,
18557,2019091502,20190915023629,home,74.73,25.7,2.48,0.93,0.25,284.16,329.93,2535718,Damon Harrison,98,2019,35,4,04:13:00,LAC,1,10,DET,13,10,2559169,SHOTGUN,"1 RB, 1 TE, 3 WR",6,"3 DL, 3 LB, 5 DB",right,2019-09-15T19:45:04.000Z,2019-09-15T19:45:03.000Z,6-3,350,11/29/1988,William Penn,DT,DET,LAC,2,Ford Field,Detroit,Indoors,Field Turf,Controlled Climate,68.0,70,,
18558,2019091502,20190915023629,home,77.82,45.33,0.74,1.2,0.07,247.78,140.55,2540288,Darius Slay,23,2019,35,4,04:13:00,LAC,1,10,DET,13,10,2559169,SHOTGUN,"1 RB, 1 TE, 3 WR",6,"3 DL, 3 LB, 5 DB",right,2019-09-15T19:45:04.000Z,2019-09-15T19:45:03.000Z,6-0,190,01/01/1991,Mississippi State,CB,DET,LAC,2,Ford Field,Detroit,Indoors,Field Turf,Controlled Climate,68.0,70,,
18559,2019091502,20190915023629,home,77.66,12.37,2.39,3.41,0.22,267.95,177.92,2541200,Rashaan Melvin,29,2019,35,4,04:13:00,LAC,1,10,DET,13,10,2559169,SHOTGUN,"1 RB, 1 TE, 3 WR",6,"3 DL, 3 LB, 5 DB",right,2019-09-15T19:45:04.000Z,2019-09-15T19:45:03.000Z,6-2,196,10/02/1989,Northern Illinois,CB,DET,LAC,2,Ford Field,Detroit,Indoors,Field Turf,Controlled Climate,68.0,70,,
18560,2019091502,20190915023629,home,75.69,18.66,0.78,1.56,0.08,289.05,348.05,2543869,Devon Kennard,42,2019,35,4,04:13:00,LAC,1,10,DET,13,10,2559169,SHOTGUN,"1 RB, 1 TE, 3 WR",6,"3 DL, 3 LB, 5 DB",right,2019-09-15T19:45:04.000Z,2019-09-15T19:45:03.000Z,6-3,256,06/24/1991,Southern California,OLB,DET,LAC,2,Ford Field,Detroit,Indoors,Field Turf,Controlled Climate,68.0,70,,
18561,2019091502,20190915023629,home,75.46,30.52,2.56,2.96,0.24,247.92,316.05,2550572,Christian Jones,52,2019,35,4,04:13:00,LAC,1,10,DET,13,10,2559169,SHOTGUN,"1 RB, 1 TE, 3 WR",6,"3 DL, 3 LB, 5 DB",right,2019-09-15T19:45:04.000Z,2019-09-15T19:45:03.000Z,6-3,250,02/18/1991,Florida State,ILB,DET,LAC,2,Ford Field,Detroit,Indoors,Field Turf,Controlled Climate,68.0,70,,
18562,2019091502,20190915023629,home,88.06,18.89,0.57,1.1,0.06,258.23,130.0,2552262,Quandre Diggs,28,2019,35,4,04:13:00,LAC,1,10,DET,13,10,2559169,SHOTGUN,"1 RB, 1 TE, 3 WR",6,"3 DL, 3 LB, 5 DB",right,2019-09-15T19:45:04.000Z,2019-09-15T19:45:03.000Z,5-9,197,01/22/1993,Texas,CB,DET,LAC,2,Ford Field,Detroit,Indoors,Field Turf,Controlled Climate,68.0,70,,
18563,2019091502,20190915023629,home,74.96,27.5,2.78,1.41,0.27,229.9,318.03,2552278,Trey Flowers,90,2019,35,4,04:13:00,LAC,1,10,DET,13,10,2559169,SHOTGUN,"1 RB, 1 TE, 3 WR",6,"3 DL, 3 LB, 5 DB",right,2019-09-15T19:45:04.000Z,2019-09-15T19:45:03.000Z,6-2,265,08/16/1993,Arkansas,DE,DET,LAC,2,Ford Field,Detroit,Indoors,Field Turf,Controlled Climate,68.0,70,,
18564,2019091502,20190915023629,home,78.51,36.58,0.19,0.95,0.02,256.15,117.35,2553637,Justin Coleman,27,2019,35,4,04:13:00,LAC,1,10,DET,13,10,2559169,SHOTGUN,"1 RB, 1 TE, 3 WR",6,"3 DL, 3 LB, 5 DB",right,2019-09-15T19:45:04.000Z,2019-09-15T19:45:03.000Z,5-11,190,03/27/1993,Tennessee,CB,DET,LAC,2,Ford Field,Detroit,Indoors,Field Turf,Controlled Climate,68.0,70,,
18565,2019091502,20190915023629,home,74.59,21.25,0.94,1.85,0.09,280.48,303.38,2555265,A'Shawn Robinson,91,2019,35,4,04:13:00,LAC,1,10,DET,13,10,2559169,SHOTGUN,"1 RB, 1 TE, 3 WR",6,"3 DL, 3 LB, 5 DB",right,2019-09-15T19:45:04.000Z,2019-09-15T19:45:03.000Z,6-4,330,03/21/1995,Alabama,DT,DET,LAC,2,Ford Field,Detroit,Indoors,Field Turf,Controlled Climate,68.0,70,,
18566,2019091502,20190915023629,home,86.26,31.43,4.63,0.88,0.46,300.0,51.39,2560913,Tracy Walker,21,2019,35,4,04:13:00,LAC,1,10,DET,13,10,2559169,SHOTGUN,"1 RB, 1 TE, 3 WR",6,"3 DL, 3 LB, 5 DB",right,2019-09-15T19:45:04.000Z,2019-09-15T19:45:03.000Z,6-1,210,02/01/1995,Louisiana-Lafayette,DB,DET,LAC,2,Ford Field,Detroit,Indoors,Field Turf,Controlled Climate,68.0,70,,
18567,2019091502,20190915023629,home,79.3,25.71,3.1,3.99,0.29,301.61,338.82,2562755,Jahlani Tavai,51,2019,35,4,04:13:00,LAC,1,10,DET,13,10,2559169,SHOTGUN,"1 RB, 1 TE, 3 WR",6,"3 DL, 3 LB, 5 DB",right,2019-09-15T19:45:04.000Z,2019-09-15T19:45:03.000Z,6-2,250,09/28/1996,Hawaii,LB,DET,LAC,2,Ford Field,Detroit,Indoors,Field Turf,Controlled Climate,68.0,70,,
