,GameId,PlayId,Team,X,Y,S,A,Dis,Orientation,Dir,NflId,DisplayName,JerseyNumber,Season,YardLine,Quarter,GameClock,PossessionTeam,Down,Distance,FieldPosition,HomeScoreBeforePlay,VisitorScoreBeforePlay,NflIdRusher,OffenseFormation,OffensePersonnel,DefendersInTheBox,DefensePersonnel,PlayDirection,TimeHandoff,TimeSnap,PlayerHeight,PlayerWeight,PlayerBirthDate,PlayerCollegeName,Position,HomeTeamAbbr,VisitorTeamAbbr,Week,Stadium,Location,StadiumType,Turf,GameWeather,Temperature,Humidity,WindSpeed,WindDirection
418,2019090500,20190905002787,away,67.64,32.61,2.58,2.39,0.25,229.05,276.92,496988,Bryan Bulaga,75,2019,42,3,09:01:00,GB,1,10,GB,3,7,2558116,SHOTGUN,"1 RB, 2 TE, 2 WR",7,"3 DL, 4 LB, 4 DB",left,2019-09-06T02:21:13.000Z,2019-09-06T02:21:12.000Z,6-5,314,03/21/1989,Iowa,OT,CHI,GB,1,Soldier Field,Chicago,Outdoor,Natural Grass,Clear,65.0,69,10,E
419,2019090500,20190905002787,away,68.8,35.78,0.45,2.47,0.04,253.27,242.32,2495888,Marcedes Lewis,89,2019,42,3,09:01:00,GB,1,10,GB,3,7,2558116,SHOTGUN,"1 RB, 2 TE, 2 WR",7,"3 DL, 4 LB, 4 DB",left,2019-09-06T02:21:13.000Z,2019-09-06T02:21:12.000Z,6-6,267,05/19/1984,UCLA,TE,CHI,GB,1,Soldier Field,Chicago,Outdoor,Natural Grass,Clear,65.0,69,10,E
420,2019090500,20190905002787,away,73.25,29.58,1.4,3.06,0.13,233.96,152.1,2506363,Aaron Rodgers,12,2019,42,3,09:01:00,GB,1,10,GB,3,7,2558116,SHOTGUN,"1 RB, 2 TE, 2 WR",7,"3 DL, 4 LB, 4 DB",left,2019-09-06T02:21:13.000Z,2019-09-06T02:21:12.000Z,6-2,225,12/02/1983,California,QB,CHI,GB,1,Soldier Field,Chicago,Outdoor,Natural Grass,Clear,65.0,69,10,E
421,2019090500,20190905002787,away,68.07,28.83,3.05,1.36,0.31,284.91,331.69,2540183,David Bakhtiari,69,2019,42,3,09:01:00,GB,1,10,GB,3,7,2558116,SHOTGUN,"1 RB, 2 TE, 2 WR",7,"3 DL, 4 LB, 4 DB",left,2019-09-06T02:21:13.000Z,2019-09-06T02:21:12.000Z,6-4,310,09/30/1991,Colorado,T,CHI,GB,1,Soldier Field,Chicago,Outdoor,Natural Grass,Clear,65.0,69,10,E
422,2019090500,20190905002787,away,68.3,29.68,1.75,1.16,0.18,308.8,331.7,2541898,Lane Taylor,65,2019,42,3,09:01:00,GB,1,10,GB,3,7,2558116,SHOTGUN,"1 RB, 2 TE, 2 WR",7,"3 DL, 4 LB, 4 DB",left,2019-09-06T02:21:13.000Z,2019-09-06T02:21:12.000Z,6-3,324,11/22/1989,Oklahoma State,G,CHI,GB,1,Soldier Field,Chicago,Outdoor,Natural Grass,Clear,65.0,69,10,E
423,2019090500,20190905002787,away,68.18,20.2,4.31,5.14,0.41,294.11,319.56,2543495,Davante Adams,17,2019,42,3,09:01:00,GB,1,10,GB,3,7,2558116,SHOTGUN,"1 RB, 2 TE, 2 WR",7,"3 DL, 4 LB, 4 DB",left,2019-09-06T02:21:13.000Z,2019-09-06T02:21:12.000Z,6-1,215,12/24/1992,Fresno State,WR,CHI,GB,1,Soldier Field,Chicago,Outdoor,Natural Grass,Clear,65.0,69,10,E
424,2019090500,20190905002787,away,68.23,30.36,0.78,0.52,0.08,278.4,6.06,2543631,Corey Linsley,63,2019,42,3,09:01:00,GB,1,10,GB,3,7,2558116,SHOTGUN,"1 RB, 2 TE, 2 WR",7,"3 DL, 4 LB, 4 DB",left,2019-09-06T02:21:13.000Z,2019-09-06T02:21:12.000Z,6-3,301,07/27/1991,Ohio State,C,CHI,GB,1,Soldier Field,Chicago,Outdoor,Natural Grass,Clear,65.0,69,10,E
425,2019090500,20190905002787,away,68.54,31.54,0.64,1.88,0.06,297.69,325.79,2543740,Billy Turner,77,2019,42,3,09:01:00,GB,1,10,GB,3,7,2558116,SHOTGUN,"1 RB, 2 TE, 2 WR",7,"3 DL, 4 LB, 4 DB",left,2019-09-06T02:21:13.000Z,2019-09-06T02:21:12.000Z,6-5,310,10/17/1991,North Dakota State,OG,CHI,GB,1,Soldier Field,Chicago,Outdoor,Natural Grass,Clear,65.0,69,10,E
426,2019090500,20190905002787,away,72.22,29.26,3.98,3.39,0.39,306.0,325.56,2558116,Aaron Jones,33,2019,42,3,09:01:00,GB,1,10,GB,3,7,2558116,SHOTGUN,"1 RB, 2 TE, 2 WR",7,"3 DL, 4 LB, 4 DB",left,2019-09-06T02:21:13.000Z,2019-09-06T02:21:12.000Z,5-9,208,12/02/1994,Texas-El Paso,RB,CHI,GB,1,Soldier Field,Chicago,Outdoor,Natural Grass,Clear,65.0,69,10,E
427,2019090500,20190905002787,away,70.33,32.03,4.25,2.52,0.42,215.47,190.47,2559270,Robert Tonyan,85,2019,42,3,09:01:00,GB,1,10,GB,3,7,2558116,SHOTGUN,"1 RB, 2 TE, 2 WR",7,"3 DL, 4 LB, 4 DB",left,2019-09-06T02:21:13.000Z,2019-09-06T02:21:12.000Z,6-5,237,04/30/1994,Indiana State,TE,CHI,GB,1,Soldier Field,Chicago,Outdoor,Natural Grass,Clear,65.0,69,10,E
428,2019090500,20190905002787,away,69.07,24.39,3.15,2.45,0.31,287.32,302.53,2560907,Marquez Valdes-Scantling,83,2019,42,3,09:01:00,GB,1,10,GB,3,7,2558116,SHOTGUN,"1 RB, 2 TE, 2 WR",7,"3 DL, 4 LB, 4 DB",left,2019-09-06T02:21:13.000Z,2019-09-06T02:21:12.000Z,6-4,207,10/10/1994,South Florida,WR,CHI,GB,1,Soldier Field,Chicago,Outdoor,Natural Grass,Clear,65.0,69,10,E
429,2019090500,20190905002787,home,66.35,18.78,2.38,2.33,0.22,20.32,310.64,2495108,Prince Amukamara,20,2019,42,3,09:01:00,GB,1,10,GB,3,7,2558116,SHOTGUN,"1 RB, 2 TE, 2 WR",7,"3 DL, 4 LB, 4 DB",left,2019-09-06T02:21:13.000Z,2019-09-06T02:21:12.000Z,6-0,204,06/06/1989,Nebraska,CB,CHI,GB,1,Soldier Field,Chicago,Outdoor,Natural Grass,Clear,65.0,69,10,E
430,2019090500,20190905002787,home,64.59,28.07,1.99,2.26,0.19,80.92,57.03,2532961,Danny Trevathan,59,2019,42,3,09:01:00,GB,1,10,GB,3,7,2558116,SHOTGUN,"1 RB, 2 TE, 2 WR",7,"3 DL, 4 LB, 4 DB",left,2019-09-06T02:21:13.000Z,2019-09-06T02:21:12.000Z,6-0,239,03/24/1990,Kentucky,ILB,CHI,GB,1,Soldier Field,Chicago,Outdoor,Natural Grass,Clear,65.0,69,10,E
431,2019090500,20190905002787,home,67.73,31.89,0.1,0.45,0.01,93.41,12.4,2533433,Akiem Hicks,96,2019,42,3,09:01:00,GB,1,10,GB,3,7,2558116,SHOTGUN,"1 RB, 2 TE, 2 WR",7,"3 DL, 4 LB, 4 DB",left,2019-09-06T02:21:13.000Z,2019-09-06T02:21:12.000Z,6-4,352,11/16/1989,"Regina, Can.",DT,CHI,GB,1,Soldier Field,Chicago,Outdoor,Natural Grass,Clear,65.0,69,10,E
432,2019090500,20190905002787,home,68.09,35.62,3.08,1.75,0.3,138.67,152.18,2543463,Khalil Mack,52,2019,42,3,09:01:00,GB,1,10,GB,3,7,2558116,SHOTGUN,"1 RB, 2 TE, 2 WR",7,"3 DL, 4 LB, 4 DB",left,2019-09-06T02:21:13.000Z,2019-09-06T02:21:12.000Z,6-3,269,02/22/1991,Buffalo,OLB,CHI,GB,1,Soldier Field,Chicago,Outdoor,Natural Grass,Clear,65.0,69,10,E
433,2019090500,20190905002787,home,57.75,37.31,0.53,2.74,0.04,125.08,131.15,2543470,Ha Ha Clinton-Dix,21,2019,42,3,09:01:00,GB,1,10,GB,3,7,2558116,SHOTGUN,"1 RB, 2 TE, 2 WR",7,"3 DL, 4 LB, 4 DB",left,2019-09-06T02:21:13.000Z,2019-09-06T02:21:12.000Z,6-1,211,12/21/1992,Alabama,FS,CHI,GB,1,Soldier Field,Chicago,Outdoor,Natural Grass,Clear,65.0,69,10,E
434,2019090500,20190905002787,home,65.14,38.59,0.54,1.16,0.06,138.15,98.97,2543681,Kyle Fuller,23,2019,42,3,09:01:00,GB,1,10,GB,3,7,2558116,SHOTGUN,"1 RB, 2 TE, 2 WR",7,"3 DL, 4 LB, 4 DB",left,2019-09-06T02:21:13.000Z,2019-09-06T02:21:12.000Z,5-11,194,02/16/1992,Virginia Tech,CB,CHI,GB,1,Soldier Field,Chicago,Outdoor,Natural Grass,Clear,65.0,69,10,E
435,2019090500,20190905002787,home,67.51,30.33,1.26,0.52,0.13,75.21,24.68,2552489,Eddie Goldman,91,2019,42,3,09:01:00,GB,1,10,GB,3,7,2558116,SHOTGUN,"1 RB, 2 TE, 2 WR",7,"3 DL, 4 LB, 4 DB",left,2019-09-06T02:21:13.000Z,2019-09-06T02:21:12.000Z,6-3,320,01/06/1994,Florida State,NT,CHI,GB,1,Soldier Field,Chicago,Outdoor,Natural Grass,Clear,65.0,69,10,E
436,2019090500,20190905002787,home,56.28,23.67,1.73,1.6,0.16,66.98,28.94,2558176,Eddie Jackson,39,2019,42,3,09:01:00,GB,1,10,GB,3,7,2558116,SHOTGUN,"1 RB, 2 TE, 2 WR",7,"3 DL, 4 LB, 4 DB",left,2019-09-06T02:21:13.000Z,2019-09-06T02:21:12.000Z,6-0,202,12/10/1993,Alabama,FS,CHI,GB,1,Soldier Field,Chicago,Outdoor,Natural Grass,Clear,65.0,69,10,E
437,2019090500,20190905002787,home,66.94,25.53,2.9,1.93,0.28,54.38,6.91,2559287,Isaiah Irving,47,2019,42,3,09:01:00,GB,1,10,GB,3,7,2558116,SHOTGUN,"1 RB, 2 TE, 2 WR",7,"3 DL, 4 LB, 4 DB",left,2019-09-06T02:21:13.000Z,2019-09-06T02:21:12.000Z,6-3,254,06/09/1994,San Jose State,LB,CHI,GB,1,Soldier Field,Chicago,Outdoor,Natural Grass,Clear,65.0,69,10,E
438,2019090500,20190905002787,home,67.0,29.05,2.77,0.71,0.29,73.92,358.59,2560821,Bilal Nichols,98,2019,42,3,09:01:00,GB,1,10,GB,3,7,2558116,SHOTGUN,"1 RB, 2 TE, 2 WR",7,"3 DL, 4 LB, 4 DB",left,2019-09-06T02:21:13.000Z,2019-09-06T02:21:12.000Z,6-3,313,09/14/1996,Delaware,DT,CHI,GB,1,Soldier Field,Chicago,Outdoor,Natural Grass,Clear,65.0,69,10,E
439,2019090500,20190905002787,home,64.23,31.83,1.52,1.7,0.14,89.59,71.48,2560877,Roquan Smith,58,2019,42,3,09:01:00,GB,1,10,GB,3,7,2558116,SHOTGUN,"1 RB, 2 TE, 2 WR",7,"3 DL, 4 LB, 4 DB",left,2019-09-06T02:21:13.000Z,2019-09-06T02:21:12.000Z,6-0,230,04/08/1997,Georgia,LB,CHI,GB,1,Soldier Field,Chicago,Outdoor,Natural Grass,Clear,65.0,69,10,E
