,GameId,PlayId,Team,X,Y,S,A,Dis,Orientation,Dir,NflId,DisplayName,JerseyNumber,Season,YardLine,Quarter,GameClock,PossessionTeam,Down,Distance,FieldPosition,HomeScoreBeforePlay,VisitorScoreBeforePlay,NflIdRusher,OffenseFormation,OffensePersonnel,DefendersInTheBox,DefensePersonnel,PlayDirection,TimeHandoff,TimeSnap,PlayerHeight,PlayerWeight,PlayerBirthDate,PlayerCollegeName,Position,HomeTeamAbbr,VisitorTeamAbbr,Week,Stadium,Location,StadiumType,Turf,GameWeather,Temperature,Humidity,WindSpeed,WindDirection
56012,2019092909,20190929090683,away,43.87,22.33,1.84,0.47,0.18,133.44,30.73,2507716,Demar Dotson,69,2019,34,1,05:40:00,TB,1,10,TB,0,7,2560770,I_FORM,"2 RB, 2 TE, 1 WR",8,"4 DL, 3 LB, 4 DB",right,2019-09-29T20:27:45.000Z,2019-09-29T20:27:43.000Z,6-9,315,10/11/1985,Southern Mississippi,OT,LA,TB,4,Los Angeles Memorial Coliseum,"Los Angeles, Calif.",Outdoor,Grass,Mostly Sunny,74.0,41,2,SW
56013,2019092909,20190929090683,away,44.38,25.95,1.79,1.27,0.19,105.33,44.31,2541159,Ryan Jensen,66,2019,34,1,05:40:00,TB,1,10,TB,0,7,2560770,I_FORM,"2 RB, 2 TE, 1 WR",8,"4 DL, 3 LB, 4 DB",right,2019-09-29T20:27:45.000Z,2019-09-29T20:27:43.000Z,6-4,319,05/27/1991,Colorado State-Pueblo,C,LA,TB,4,Los Angeles Memorial Coliseum,"Los Angeles, Calif.",Outdoor,Grass,Mostly Sunny,74.0,41,2,SW
56014,2019092909,20190929090683,away,43.21,21.69,2.34,3.44,0.24,77.1,21.09,2550656,Cameron Brate,84,2019,34,1,05:40:00,TB,1,10,TB,0,7,2560770,I_FORM,"2 RB, 2 TE, 1 WR",8,"4 DL, 3 LB, 4 DB",right,2019-09-29T20:27:45.000Z,2019-09-29T20:27:43.000Z,6-5,245,07/03/1991,Harvard,TE,LA,TB,4,Los Angeles Memorial Coliseum,"Los Angeles, Calif.",Outdoor,Grass,Mostly Sunny,74.0,41,2,SW
56015,2019092909,20190929090683,away,39.31,24.4,4.12,1.69,0.41,319.75,275.25,2552033,Jameis Winston,3,2019,34,1,05:40:00,TB,1,10,TB,0,7,2560770,I_FORM,"2 RB, 2 TE, 1 WR",8,"4 DL, 3 LB, 4 DB",right,2019-09-29T20:27:45.000Z,2019-09-29T20:27:43.000Z,6-4,231,01/06/1994,Florida State,QB,LA,TB,4,Los Angeles Memorial Coliseum,"Los Angeles, Calif.",Outdoor,Grass,Mostly Sunny,74.0,41,2,SW
56016,2019092909,20190929090683,away,44.7,26.69,2.13,1.16,0.22,113.2,57.58,2552332,Ali Marpet,74,2019,34,1,05:40:00,TB,1,10,TB,0,7,2560770,I_FORM,"2 RB, 2 TE, 1 WR",8,"4 DL, 3 LB, 4 DB",right,2019-09-29T20:27:45.000Z,2019-09-29T20:27:43.000Z,6-4,307,04/17/1993,Hobart,G,LA,TB,4,Los Angeles Memorial Coliseum,"Los Angeles, Calif.",Outdoor,Grass,Mostly Sunny,74.0,41,2,SW
56017,2019092909,20190929090683,away,44.05,28.33,1.48,1.2,0.15,109.38,15.72,2552460,Donovan Smith,76,2019,34,1,05:40:00,TB,1,10,TB,0,7,2560770,I_FORM,"2 RB, 2 TE, 1 WR",8,"4 DL, 3 LB, 4 DB",right,2019-09-29T20:27:45.000Z,2019-09-29T20:27:43.000Z,6-6,338,06/23/1993,Penn State,T,LA,TB,4,Los Angeles Memorial Coliseum,"Los Angeles, Calif.",Outdoor,Grass,Mostly Sunny,74.0,41,2,SW
56018,2019092909,20190929090683,away,42.56,29.97,2.21,2.11,0.22,91.09,320.11,2557856,O.J. Howard,80,2019,34,1,05:40:00,TB,1,10,TB,0,7,2560770,I_FORM,"2 RB, 2 TE, 1 WR",8,"4 DL, 3 LB, 4 DB",right,2019-09-29T20:27:45.000Z,2019-09-29T20:27:43.000Z,6-6,250,11/18/1994,Alabama,TE,LA,TB,4,Los Angeles Memorial Coliseum,"Los Angeles, Calif.",Outdoor,Grass,Mostly Sunny,74.0,41,2,SW
56019,2019092909,20190929090683,away,44.74,31.09,5.6,0.12,0.56,131.34,136.1,2558105,Chris Godwin,12,2019,34,1,05:40:00,TB,1,10,TB,0,7,2560770,I_FORM,"2 RB, 2 TE, 1 WR",8,"4 DL, 3 LB, 4 DB",right,2019-09-29T20:27:45.000Z,2019-09-29T20:27:43.000Z,6-1,209,02/27/1996,Penn State,WR,LA,TB,4,Los Angeles Memorial Coliseum,"Los Angeles, Calif.",Outdoor,Grass,Mostly Sunny,74.0,41,2,SW
56020,2019092909,20190929090683,away,43.7,23.58,4.87,1.68,0.49,89.41,81.13,2559362,Dare Ogunbowale,44,2019,34,1,05:40:00,TB,1,10,TB,0,7,2560770,I_FORM,"2 RB, 2 TE, 1 WR",8,"4 DL, 3 LB, 4 DB",right,2019-09-29T20:27:45.000Z,2019-09-29T20:27:43.000Z,5-11,205,05/04/1994,Wisconsin,RB,LA,TB,4,Los Angeles Memorial Coliseum,"Los Angeles, Calif.",Outdoor,Grass,Mostly Sunny,74.0,41,2,SW
56021,2019092909,20190929090683,away,40.19,25.62,5.21,2.04,0.51,84.96,66.46,2560770,Ronald Jones,27,2019,34,1,05:40:00,TB,1,10,TB,0,7,2560770,I_FORM,"2 RB, 2 TE, 1 WR",8,"4 DL, 3 LB, 4 DB",right,2019-09-29T20:27:45.000Z,2019-09-29T20:27:43.000Z,5-11,208,08/03/1997,Southern California,RB,LA,TB,4,Los Angeles Memorial Coliseum,"Los Angeles, Calif.",Outdoor,Grass,Mostly Sunny,74.0,41,2,SW
56022,2019092909,20190929090683,away,44.26,22.92,1.39,0.32,0.15,115.94,38.16,2560991,Alex Cappa,65,2019,34,1,05:40:00,TB,1,10,TB,0,7,2560770,I_FORM,"2 RB, 2 TE, 1 WR",8,"4 DL, 3 LB, 4 DB",right,2019-09-29T20:27:45.000Z,2019-09-29T20:27:43.000Z,6-6,305,01/27/1995,Humboldt State,G,LA,TB,4,Los Angeles Memorial Coliseum,"Los Angeles, Calif.",Outdoor,Grass,Mostly Sunny,74.0,41,2,SW
56023,2019092909,20190929090683,home,48.05,17.32,2.49,2.43,0.24,315.08,291.88,1302,Aqib Talib,21,2019,34,1,05:40:00,TB,1,10,TB,0,7,2560770,I_FORM,"2 RB, 2 TE, 1 WR",8,"4 DL, 3 LB, 4 DB",right,2019-09-29T20:27:45.000Z,2019-09-29T20:27:43.000Z,6-1,209,02/13/1986,Kansas,CB,LA,TB,4,Los Angeles Memorial Coliseum,"Los Angeles, Calif.",Outdoor,Grass,Mostly Sunny,74.0,41,2,SW
56024,2019092909,20190929090683,home,57.3,26.93,1.69,3.37,0.14,260.66,271.68,2495775,Eric Weddle,32,2019,34,1,05:40:00,TB,1,10,TB,0,7,2560770,I_FORM,"2 RB, 2 TE, 1 WR",8,"4 DL, 3 LB, 4 DB",right,2019-09-29T20:27:45.000Z,2019-09-29T20:27:43.000Z,5-11,195,01/04/1985,Utah,FS,LA,TB,4,Los Angeles Memorial Coliseum,"Los Angeles, Calif.",Outdoor,Grass,Mostly Sunny,74.0,41,2,SW
56025,2019092909,20190929090683,home,46.56,25.18,1.64,1.54,0.16,268.19,307.85,2552307,Bryce Hager,54,2019,34,1,05:40:00,TB,1,10,TB,0,7,2560770,I_FORM,"2 RB, 2 TE, 1 WR",8,"4 DL, 3 LB, 4 DB",right,2019-09-29T20:27:45.000Z,2019-09-29T20:27:43.000Z,6-1,237,05/04/1992,Baylor,ILB,LA,TB,4,Los Angeles Memorial Coliseum,"Los Angeles, Calif.",Outdoor,Grass,Mostly Sunny,74.0,41,2,SW
56026,2019092909,20190929090683,home,49.51,36.01,2.69,1.51,0.27,204.18,202.59,2552488,Marcus Peters,22,2019,34,1,05:40:00,TB,1,10,TB,0,7,2560770,I_FORM,"2 RB, 2 TE, 1 WR",8,"4 DL, 3 LB, 4 DB",right,2019-09-29T20:27:45.000Z,2019-09-29T20:27:43.000Z,6-0,197,01/09/1993,Washington,CB,LA,TB,4,Los Angeles Memorial Coliseum,"Los Angeles, Calif.",Outdoor,Grass,Mostly Sunny,74.0,41,2,SW
56027,2019092909,20190929090683,home,43.94,21.62,1.19,2.1,0.12,339.27,28.44,2553431,Dante Fowler,56,2019,34,1,05:40:00,TB,1,10,TB,0,7,2560770,I_FORM,"2 RB, 2 TE, 1 WR",8,"4 DL, 3 LB, 4 DB",right,2019-09-29T20:27:45.000Z,2019-09-29T20:27:43.000Z,6-3,255,08/03/1994,Florida,OLB,LA,TB,4,Los Angeles Memorial Coliseum,"Los Angeles, Calif.",Outdoor,Grass,Mostly Sunny,74.0,41,2,SW
56028,2019092909,20190929090683,home,44.71,28.35,1.37,2.42,0.15,297.05,354.01,2556529,Morgan Fox,97,2019,34,1,05:40:00,TB,1,10,TB,0,7,2560770,I_FORM,"2 RB, 2 TE, 1 WR",8,"4 DL, 3 LB, 4 DB",right,2019-09-29T20:27:45.000Z,2019-09-29T20:27:43.000Z,6-3,275,09/12/1994,Colorado State-Pueblo,DE,LA,TB,4,Los Angeles Memorial Coliseum,"Los Angeles, Calif.",Outdoor,Grass,Mostly Sunny,74.0,41,2,SW
56029,2019092909,20190929090683,home,46.19,22.85,1.94,1.67,0.19,285.39,347.11,2556593,Cory Littleton,58,2019,34,1,05:40:00,TB,1,10,TB,0,7,2560770,I_FORM,"2 RB, 2 TE, 1 WR",8,"4 DL, 3 LB, 4 DB",right,2019-09-29T20:27:45.000Z,2019-09-29T20:27:43.000Z,6-3,228,11/18/1993,Washington,ILB,LA,TB,4,Los Angeles Memorial Coliseum,"Los Angeles, Calif.",Outdoor,Grass,Mostly Sunny,74.0,41,2,SW
56030,2019092909,20190929090683,home,47.88,28.88,1.1,1.72,0.11,253.83,248.7,2558183,John Johnson,43,2019,34,1,05:40:00,TB,1,10,TB,0,7,2560770,I_FORM,"2 RB, 2 TE, 1 WR",8,"4 DL, 3 LB, 4 DB",right,2019-09-29T20:27:45.000Z,2019-09-29T20:27:43.000Z,6-0,209,12/19/1995,Boston College,SS,LA,TB,4,Los Angeles Memorial Coliseum,"Los Angeles, Calif.",Outdoor,Grass,Mostly Sunny,74.0,41,2,SW
56031,2019092909,20190929090683,home,44.93,22.7,1.43,1.04,0.15,323.3,37.42,2558199,Tanzel Smart,92,2019,34,1,05:40:00,TB,1,10,TB,0,7,2560770,I_FORM,"2 RB, 2 TE, 1 WR",8,"4 DL, 3 LB, 4 DB",right,2019-09-29T20:27:45.000Z,2019-09-29T20:27:43.000Z,6-1,295,11/06/1994,Tulane,DT,LA,TB,4,Los Angeles Memorial Coliseum,"Los Angeles, Calif.",Outdoor,Grass,Mostly Sunny,74.0,41,2,SW
56032,2019092909,20190929090683,home,43.15,30.61,1.28,1.64,0.13,241.11,313.39,2558830,Samson Ebukam,50,2019,34,1,05:40:00,TB,1,10,TB,0,7,2560770,I_FORM,"2 RB, 2 TE, 1 WR",8,"4 DL, 3 LB, 4 DB",right,2019-09-29T20:27:45.000Z,2019-09-29T20:27:43.000Z,6-3,245,05/09/1995,Eastern Washington,OLB,LA,TB,4,Los Angeles Memorial Coliseum,"Los Angeles, Calif.",Outdoor,Grass,Mostly Sunny,74.0,41,2,SW
56033,2019092909,20190929090683,home,45.04,26.06,1.79,1.17,0.18,328.11,36.45,2561079,Sebastian Joseph-Day,69,2019,34,1,05:40:00,TB,1,10,TB,0,7,2560770,I_FORM,"2 RB, 2 TE, 1 WR",8,"4 DL, 3 LB, 4 DB",right,2019-09-29T20:27:45.000Z,2019-09-29T20:27:43.000Z,6-4,310,03/21/1995,Rutgers,DT,LA,TB,4,Los Angeles Memorial Coliseum,"Los Angeles, Calif.",Outdoor,Grass,Mostly Sunny,74.0,41,2,SW
