,GameId,PlayId,Team,X,Y,S,A,Dis,Orientation,Dir,NflId,DisplayName,JerseyNumber,Season,YardLine,Quarter,GameClock,PossessionTeam,Down,Distance,FieldPosition,HomeScoreBeforePlay,VisitorScoreBeforePlay,NflIdRusher,OffenseFormation,OffensePersonnel,DefendersInTheBox,DefensePersonnel,PlayDirection,TimeHandoff,TimeSnap,PlayerHeight,PlayerWeight,PlayerBirthDate,PlayerCollegeName,Position,HomeTeamAbbr,VisitorTeamAbbr,Week,Stadium,Location,StadiumType,Turf,GameWeather,Temperature,Humidity,WindSpeed,WindDirection
53130,2019092906,20190929061383,away,94.59,22.26,3.27,2.4,0.33,273.32,211.29,2495187,Lance Kendricks,87,2019,16,2,10:26:00,LAC,2,3,LAC,10,10,2559169,I_FORM,"2 RB, 2 TE, 1 WR",7,"3 DL, 4 LB, 4 DB",left,2019-09-29T17:49:18.000Z,2019-09-29T17:49:16.000Z,6-3,250,01/30/1988,Wisconsin,TE,MIA,LAC,4,Hard Rock Stadium,"Miami Gardens, FL",Outdoor,Natural Grass,Mostly Cloudy,88.0,53,15,ENE
53131,2019092906,20190929061383,away,93.49,27.38,2.86,0.35,0.3,343.59,209.42,2495216,Mike Pouncey,53,2019,16,2,10:26:00,LAC,2,3,LAC,10,10,2559169,I_FORM,"2 RB, 2 TE, 1 WR",7,"3 DL, 4 LB, 4 DB",left,2019-09-29T17:49:18.000Z,2019-09-29T17:49:16.000Z,6-5,298,07/24/1989,Florida,C,MIA,LAC,4,Hard Rock Stadium,"Miami Gardens, FL",Outdoor,Natural Grass,Mostly Cloudy,88.0,53,15,ENE
53132,2019092906,20190929061383,away,98.6,27.76,4.19,0.94,0.41,150.72,116.24,2506121,Philip Rivers,17,2019,16,2,10:26:00,LAC,2,3,LAC,10,10,2559169,I_FORM,"2 RB, 2 TE, 1 WR",7,"3 DL, 4 LB, 4 DB",left,2019-09-29T17:49:18.000Z,2019-09-29T17:49:16.000Z,6-5,228,12/08/1981,North Carolina State,QB,MIA,LAC,4,Hard Rock Stadium,"Miami Gardens, FL",Outdoor,Natural Grass,Mostly Cloudy,88.0,53,15,ENE
53133,2019092906,20190929061383,away,94.7,46.04,0.8,0.94,0.07,243.14,257.19,2540154,Keenan Allen,13,2019,16,2,10:26:00,LAC,2,3,LAC,10,10,2559169,I_FORM,"2 RB, 2 TE, 1 WR",7,"3 DL, 4 LB, 4 DB",left,2019-09-29T17:49:18.000Z,2019-09-29T17:49:16.000Z,6-2,211,04/27/1992,California,WR,MIA,LAC,4,Hard Rock Stadium,"Miami Gardens, FL",Outdoor,Natural Grass,Mostly Cloudy,88.0,53,15,ENE
53134,2019092906,20190929061383,away,94.38,28.52,2.06,1.8,0.21,304.24,206.69,2543732,Michael Schofield,75,2019,16,2,10:26:00,LAC,2,3,LAC,10,10,2559169,I_FORM,"2 RB, 2 TE, 1 WR",7,"3 DL, 4 LB, 4 DB",left,2019-09-29T17:49:18.000Z,2019-09-29T17:49:16.000Z,6-6,301,11/15/1990,Michigan,G,MIA,LAC,4,Hard Rock Stadium,"Miami Gardens, FL",Outdoor,Natural Grass,Mostly Cloudy,88.0,53,15,ENE
53135,2019092906,20190929061383,away,97.51,25.61,5.35,1.05,0.53,237.29,201.89,2555220,Derek Watt,34,2019,16,2,10:26:00,LAC,2,3,LAC,10,10,2559169,I_FORM,"2 RB, 2 TE, 1 WR",7,"3 DL, 4 LB, 4 DB",left,2019-09-29T17:49:18.000Z,2019-09-29T17:49:16.000Z,6-2,234,11/07/1992,Wisconsin,FB,MIA,LAC,4,Hard Rock Stadium,"Miami Gardens, FL",Outdoor,Natural Grass,Mostly Cloudy,88.0,53,15,ENE
53136,2019092906,20190929061383,away,95.67,24.71,2.65,1.94,0.27,212.92,178.43,2557873,Dan Feeney,66,2019,16,2,10:26:00,LAC,2,3,LAC,10,10,2559169,I_FORM,"2 RB, 2 TE, 1 WR",7,"3 DL, 4 LB, 4 DB",left,2019-09-29T17:49:18.000Z,2019-09-29T17:49:16.000Z,6-4,310,05/29/1994,Indiana,G,MIA,LAC,4,Hard Rock Stadium,"Miami Gardens, FL",Outdoor,Natural Grass,Mostly Cloudy,88.0,53,15,ENE
53137,2019092906,20190929061383,away,93.35,29.91,3.93,0.89,0.41,233.74,223.1,2558026,Sam Tevi,69,2019,16,2,10:26:00,LAC,2,3,LAC,10,10,2559169,I_FORM,"2 RB, 2 TE, 1 WR",7,"3 DL, 4 LB, 4 DB",left,2019-09-29T17:49:18.000Z,2019-09-29T17:49:16.000Z,6-5,315,11/15/1994,Utah,T,MIA,LAC,4,Hard Rock Stadium,"Miami Gardens, FL",Outdoor,Natural Grass,Mostly Cloudy,88.0,53,15,ENE
53138,2019092906,20190929061383,away,94.59,25.11,1.05,2.34,0.1,270.98,189.13,2559161,Sean Culkin,80,2019,16,2,10:26:00,LAC,2,3,LAC,10,10,2559169,I_FORM,"2 RB, 2 TE, 1 WR",7,"3 DL, 4 LB, 4 DB",left,2019-09-29T17:49:18.000Z,2019-09-29T17:49:16.000Z,6-5,255,06/11/1993,Missouri,TE,MIA,LAC,4,Hard Rock Stadium,"Miami Gardens, FL",Outdoor,Natural Grass,Mostly Cloudy,88.0,53,15,ENE
53139,2019092906,20190929061383,away,99.06,27.21,5.07,1.32,0.5,181.95,224.29,2559169,Austin Ekeler,30,2019,16,2,10:26:00,LAC,2,3,LAC,10,10,2559169,I_FORM,"2 RB, 2 TE, 1 WR",7,"3 DL, 4 LB, 4 DB",left,2019-09-29T17:49:18.000Z,2019-09-29T17:49:16.000Z,5-10,200,05/17/1995,"Western State, Colo.",RB,MIA,LAC,4,Hard Rock Stadium,"Miami Gardens, FL",Outdoor,Natural Grass,Mostly Cloudy,88.0,53,15,ENE
53140,2019092906,20190929061383,away,94.43,26.45,1.25,3.64,0.11,263.5,145.1,2561544,Trent Scott,78,2019,16,2,10:26:00,LAC,2,3,LAC,10,10,2559169,I_FORM,"2 RB, 2 TE, 1 WR",7,"3 DL, 4 LB, 4 DB",left,2019-09-29T17:49:18.000Z,2019-09-29T17:49:16.000Z,6-5,320,01/25/1994,Grambling,T,MIA,LAC,4,Hard Rock Stadium,"Miami Gardens, FL",Outdoor,Natural Grass,Mostly Cloudy,88.0,53,15,ENE
53141,2019092906,20190929061383,home,86.67,32.27,5.36,2.23,0.53,86.75,140.97,496739,Reshad Jones,20,2019,16,2,10:26:00,LAC,2,3,LAC,10,10,2559169,I_FORM,"2 RB, 2 TE, 1 WR",7,"3 DL, 4 LB, 4 DB",left,2019-09-29T17:49:18.000Z,2019-09-29T17:49:16.000Z,6-1,215,02/25/1988,Georgia,SS,MIA,LAC,4,Hard Rock Stadium,"Miami Gardens, FL",Outdoor,Natural Grass,Mostly Cloudy,88.0,53,15,ENE
53142,2019092906,20190929061383,home,93.76,26.54,1.73,1.8,0.16,80.58,164.91,2539231,John Jenkins,95,2019,16,2,10:26:00,LAC,2,3,LAC,10,10,2559169,I_FORM,"2 RB, 2 TE, 1 WR",7,"3 DL, 4 LB, 4 DB",left,2019-09-29T17:49:18.000Z,2019-09-29T17:49:16.000Z,6-3,327,07/11/1989,Georgia,NT,MIA,LAC,4,Hard Rock Stadium,"Miami Gardens, FL",Outdoor,Natural Grass,Mostly Cloudy,88.0,53,15,ENE
53143,2019092906,20190929061383,home,90.24,18.15,1.79,2.8,0.17,48.78,98.79,2552255,Eric Rowe,21,2019,16,2,10:26:00,LAC,2,3,LAC,10,10,2559169,I_FORM,"2 RB, 2 TE, 1 WR",7,"3 DL, 4 LB, 4 DB",left,2019-09-29T17:49:18.000Z,2019-09-29T17:49:16.000Z,6-1,205,10/03/1992,Utah,CB,MIA,LAC,4,Hard Rock Stadium,"Miami Gardens, FL",Outdoor,Natural Grass,Mostly Cloudy,88.0,53,15,ENE
53144,2019092906,20190929061383,home,91.84,46.22,2.08,1.54,0.2,129.12,257.16,2555539,Xavien Howard,25,2019,16,2,10:26:00,LAC,2,3,LAC,10,10,2559169,I_FORM,"2 RB, 2 TE, 1 WR",7,"3 DL, 4 LB, 4 DB",left,2019-09-29T17:49:18.000Z,2019-09-29T17:49:16.000Z,6-1,200,07/04/1993,Baylor,CB,MIA,LAC,4,Hard Rock Stadium,"Miami Gardens, FL",Outdoor,Natural Grass,Mostly Cloudy,88.0,53,15,ENE
53145,2019092906,20190929061383,home,93.38,30.37,2.99,1.06,0.31,146.49,189.77,2557882,Taco Charlton,96,2019,16,2,10:26:00,LAC,2,3,LAC,10,10,2559169,I_FORM,"2 RB, 2 TE, 1 WR",7,"3 DL, 4 LB, 4 DB",left,2019-09-29T17:49:18.000Z,2019-09-29T17:49:16.000Z,6-6,270,11/07/1994,Michigan,DE,MIA,LAC,4,Hard Rock Stadium,"Miami Gardens, FL",Outdoor,Natural Grass,Mostly Cloudy,88.0,53,15,ENE
53146,2019092906,20190929061383,home,94.27,25.56,1.36,1.78,0.13,69.03,141.69,2558031,Avery Moss,93,2019,16,2,10:26:00,LAC,2,3,LAC,10,10,2559169,I_FORM,"2 RB, 2 TE, 1 WR",7,"3 DL, 4 LB, 4 DB",left,2019-09-29T17:49:18.000Z,2019-09-29T17:49:16.000Z,6-3,271,09/16/1994,Youngstown State,OLB,MIA,LAC,4,Hard Rock Stadium,"Miami Gardens, FL",Outdoor,Natural Grass,Mostly Cloudy,88.0,53,15,ENE
53147,2019092906,20190929061383,home,91.1,24.66,5.45,2.18,0.54,84.3,134.47,2558070,Raekwon McMillan,52,2019,16,2,10:26:00,LAC,2,3,LAC,10,10,2559169,I_FORM,"2 RB, 2 TE, 1 WR",7,"3 DL, 4 LB, 4 DB",left,2019-09-29T17:49:18.000Z,2019-09-29T17:49:16.000Z,6-2,242,11/17/1995,Ohio State,LB,MIA,LAC,4,Hard Rock Stadium,"Miami Gardens, FL",Outdoor,Natural Grass,Mostly Cloudy,88.0,53,15,ENE
53148,2019092906,20190929061383,home,94.38,32.44,4.07,2.4,0.4,197.91,187.38,2560966,Jerome Baker,55,2019,16,2,10:26:00,LAC,2,3,LAC,10,10,2559169,I_FORM,"2 RB, 2 TE, 1 WR",7,"3 DL, 4 LB, 4 DB",left,2019-09-29T17:49:18.000Z,2019-09-29T17:49:16.000Z,6-2,225,12/25/1996,Ohio State,LB,MIA,LAC,4,Hard Rock Stadium,"Miami Gardens, FL",Outdoor,Natural Grass,Mostly Cloudy,88.0,53,15,ENE
53149,2019092906,20190929061383,home,77.95,25.47,1.63,3.18,0.18,73.33,285.76,2561256,Steven Parker,26,2019,16,2,10:26:00,LAC,2,3,LAC,10,10,2559169,I_FORM,"2 RB, 2 TE, 1 WR",7,"3 DL, 4 LB, 4 DB",left,2019-09-29T17:49:18.000Z,2019-09-29T17:49:16.000Z,6-1,210,12/14/1995,Oklahoma,DB,MIA,LAC,4,Hard Rock Stadium,"Miami Gardens, FL",Outdoor,Natural Grass,Mostly Cloudy,88.0,53,15,ENE
53150,2019092906,20190929061383,home,95.33,23.54,3.11,4.06,0.3,79.29,114.11,2562038,Sam Eguavoen,49,2019,16,2,10:26:00,LAC,2,3,LAC,10,10,2559169,I_FORM,"2 RB, 2 TE, 1 WR",7,"3 DL, 4 LB, 4 DB",left,2019-09-29T17:49:18.000Z,2019-09-29T17:49:16.000Z,6-0,236,02/22/1993,Texas Tech,LB,MIA,LAC,4,Hard Rock Stadium,"Miami Gardens, FL",Outdoor,Natural Grass,Mostly Cloudy,88.0,53,15,ENE
53151,2019092906,20190929061383,home,93.28,28.15,2.36,0.35,0.25,344.31,189.62,2562782,Christian Wilkins,94,2019,16,2,10:26:00,LAC,2,3,LAC,10,10,2559169,I_FORM,"2 RB, 2 TE, 1 WR",7,"3 DL, 4 LB, 4 DB",left,2019-09-29T17:49:18.000Z,2019-09-29T17:49:16.000Z,6-4,315,12/20/1995,Clemson,DT,MIA,LAC,4,Hard Rock Stadium,"Miami Gardens, FL",Outdoor,Natural Grass,Mostly Cloudy,88.0,53,15,ENE
