,GameId,PlayId,Team,X,Y,S,A,Dis,Orientation,Dir,NflId,DisplayName,JerseyNumber,Season,YardLine,Quarter,GameClock,PossessionTeam,Down,Distance,FieldPosition,HomeScoreBeforePlay,VisitorScoreBeforePlay,NflIdRusher,OffenseFormation,OffensePersonnel,DefendersInTheBox,DefensePersonnel,PlayDirection,TimeHandoff,TimeSnap,PlayerHeight,PlayerWeight,PlayerBirthDate,PlayerCollegeName,Position,HomeTeamAbbr,VisitorTeamAbbr,Week,Stadium,Location,StadiumType,Turf,GameWeather,Temperature,Humidity,WindSpeed,WindDirection
56430,2019092909,20190929093503,away,50.34,32.63,2.42,1.25,0.24,329.66,102.86,2507716,Demar Dotson,69,2019,37,3,01:40:00,TB,2,11,LA,20,31,2560770,SHOTGUN,"1 RB, 1 TE, 3 WR",5,"3 DL, 2 LB, 6 DB",left,2019-09-29T22:34:18.000Z,2019-09-29T22:34:17.000Z,6-9,315,10/11/1985,Southern Mississippi,OT,LA,TB,4,Los Angeles Memorial Coliseum,"Los Angeles, Calif.",Outdoor,Grass,Mostly Sunny,74.0,41,2,SW
56431,2019092909,20190929093503,away,46.86,31.6,1.59,0.99,0.15,249.3,336.67,2541159,Ryan Jensen,66,2019,37,3,01:40:00,TB,2,11,LA,20,31,2560770,SHOTGUN,"1 RB, 1 TE, 3 WR",5,"3 DL, 2 LB, 6 DB",left,2019-09-29T22:34:18.000Z,2019-09-29T22:34:17.000Z,6-4,319,05/27/1991,Colorado State-Pueblo,C,LA,TB,4,Los Angeles Memorial Coliseum,"Los Angeles, Calif.",Outdoor,Grass,Mostly Sunny,74.0,41,2,SW
56432,2019092909,20190929093503,away,51.63,30.08,1.14,1.17,0.11,342.21,47.36,2552033,Jameis Winston,3,2019,37,3,01:40:00,TB,2,11,LA,20,31,2560770,SHOTGUN,"1 RB, 1 TE, 3 WR",5,"3 DL, 2 LB, 6 DB",left,2019-09-29T22:34:18.000Z,2019-09-29T22:34:17.000Z,6-4,231,01/06/1994,Florida State,QB,LA,TB,4,Los Angeles Memorial Coliseum,"Los Angeles, Calif.",Outdoor,Grass,Mostly Sunny,74.0,41,2,SW
56433,2019092909,20190929093503,away,48.42,29.12,1.04,1.14,0.1,183.98,27.59,2552332,Ali Marpet,74,2019,37,3,01:40:00,TB,2,11,LA,20,31,2560770,SHOTGUN,"1 RB, 1 TE, 3 WR",5,"3 DL, 2 LB, 6 DB",left,2019-09-29T22:34:18.000Z,2019-09-29T22:34:17.000Z,6-4,307,04/17/1993,Hobart,G,LA,TB,4,Los Angeles Memorial Coliseum,"Los Angeles, Calif.",Outdoor,Grass,Mostly Sunny,74.0,41,2,SW
56434,2019092909,20190929093503,away,48.24,26.99,0.42,0.97,0.04,173.39,290.9,2552460,Donovan Smith,76,2019,37,3,01:40:00,TB,2,11,LA,20,31,2560770,SHOTGUN,"1 RB, 1 TE, 3 WR",5,"3 DL, 2 LB, 6 DB",left,2019-09-29T22:34:18.000Z,2019-09-29T22:34:17.000Z,6-6,338,06/23/1993,Penn State,T,LA,TB,4,Los Angeles Memorial Coliseum,"Los Angeles, Calif.",Outdoor,Grass,Mostly Sunny,74.0,41,2,SW
56435,2019092909,20190929093503,away,44.99,33.02,3.23,1.38,0.32,234.83,253.67,2557856,O.J. Howard,80,2019,37,3,01:40:00,TB,2,11,LA,20,31,2560770,SHOTGUN,"1 RB, 1 TE, 3 WR",5,"3 DL, 2 LB, 6 DB",left,2019-09-29T22:34:18.000Z,2019-09-29T22:34:17.000Z,6-6,250,11/18/1994,Alabama,TE,LA,TB,4,Los Angeles Memorial Coliseum,"Los Angeles, Calif.",Outdoor,Grass,Mostly Sunny,74.0,41,2,SW
56436,2019092909,20190929093503,away,45.66,19.09,4.75,3.03,0.47,274.84,253.25,2558105,Chris Godwin,12,2019,37,3,01:40:00,TB,2,11,LA,20,31,2560770,SHOTGUN,"1 RB, 1 TE, 3 WR",5,"3 DL, 2 LB, 6 DB",left,2019-09-29T22:34:18.000Z,2019-09-29T22:34:17.000Z,6-1,209,02/27/1996,Penn State,WR,LA,TB,4,Los Angeles Memorial Coliseum,"Los Angeles, Calif.",Outdoor,Grass,Mostly Sunny,74.0,41,2,SW
56437,2019092909,20190929093503,away,45.26,40.3,5.4,3.04,0.53,256.75,243.04,2559013,Bobo Wilson,85,2019,37,3,01:40:00,TB,2,11,LA,20,31,2560770,SHOTGUN,"1 RB, 1 TE, 3 WR",5,"3 DL, 2 LB, 6 DB",left,2019-09-29T22:34:18.000Z,2019-09-29T22:34:17.000Z,5-9,186,01/25/1995,Florida State,WR,LA,TB,4,Los Angeles Memorial Coliseum,"Los Angeles, Calif.",Outdoor,Grass,Mostly Sunny,74.0,41,2,SW
56438,2019092909,20190929093503,away,51.53,31.07,2.69,3.3,0.26,295.91,252.64,2560770,Ronald Jones,27,2019,37,3,01:40:00,TB,2,11,LA,20,31,2560770,SHOTGUN,"1 RB, 1 TE, 3 WR",5,"3 DL, 2 LB, 6 DB",left,2019-09-29T22:34:18.000Z,2019-09-29T22:34:17.000Z,5-11,208,08/03/1997,Southern California,RB,LA,TB,4,Los Angeles Memorial Coliseum,"Los Angeles, Calif.",Outdoor,Grass,Mostly Sunny,74.0,41,2,SW
56439,2019092909,20190929093503,away,48.64,32.44,0.86,2.1,0.07,326.55,62.85,2560991,Alex Cappa,65,2019,37,3,01:40:00,TB,2,11,LA,20,31,2560770,SHOTGUN,"1 RB, 1 TE, 3 WR",5,"3 DL, 2 LB, 6 DB",left,2019-09-29T22:34:18.000Z,2019-09-29T22:34:17.000Z,6-6,305,01/27/1995,Humboldt State,G,LA,TB,4,Los Angeles Memorial Coliseum,"Los Angeles, Calif.",Outdoor,Grass,Mostly Sunny,74.0,41,2,SW
56440,2019092909,20190929093503,away,44.6,12.56,5.14,2.07,0.5,264.36,277.43,2562865,Scott Miller,10,2019,37,3,01:40:00,TB,2,11,LA,20,31,2560770,SHOTGUN,"1 RB, 1 TE, 3 WR",5,"3 DL, 2 LB, 6 DB",left,2019-09-29T22:34:18.000Z,2019-09-29T22:34:17.000Z,5-9,174,07/31/1997,Bowling Green,WR,LA,TB,4,Los Angeles Memorial Coliseum,"Los Angeles, Calif.",Outdoor,Grass,Mostly Sunny,74.0,41,2,SW
56441,2019092909,20190929093503,home,35.41,42.8,2.03,1.47,0.19,147.98,256.16,1302,Aqib Talib,21,2019,37,3,01:40:00,TB,2,11,LA,20,31,2560770,SHOTGUN,"1 RB, 1 TE, 3 WR",5,"3 DL, 2 LB, 6 DB",left,2019-09-29T22:34:18.000Z,2019-09-29T22:34:17.000Z,6-1,209,02/13/1986,Kansas,CB,LA,TB,4,Los Angeles Memorial Coliseum,"Los Angeles, Calif.",Outdoor,Grass,Mostly Sunny,74.0,41,2,SW
56442,2019092909,20190929093503,home,48.37,33.5,3.17,3.42,0.31,137.75,163.81,80431,Clay Matthews,52,2019,37,3,01:40:00,TB,2,11,LA,20,31,2560770,SHOTGUN,"1 RB, 1 TE, 3 WR",5,"3 DL, 2 LB, 6 DB",left,2019-09-29T22:34:18.000Z,2019-09-29T22:34:17.000Z,6-3,255,05/14/1986,Southern California,OLB,LA,TB,4,Los Angeles Memorial Coliseum,"Los Angeles, Calif.",Outdoor,Grass,Mostly Sunny,74.0,41,2,SW
56443,2019092909,20190929093503,home,37.17,21.53,2.7,4.04,0.26,62.03,34.1,2495775,Eric Weddle,32,2019,37,3,01:40:00,TB,2,11,LA,20,31,2560770,SHOTGUN,"1 RB, 1 TE, 3 WR",5,"3 DL, 2 LB, 6 DB",left,2019-09-29T22:34:18.000Z,2019-09-29T22:34:17.000Z,5-11,195,01/04/1985,Utah,FS,LA,TB,4,Los Angeles Memorial Coliseum,"Los Angeles, Calif.",Outdoor,Grass,Mostly Sunny,74.0,41,2,SW
56444,2019092909,20190929093503,home,47.75,28.45,0.96,2.63,0.1,29.5,46.75,2533050,Michael Brockers,90,2019,37,3,01:40:00,TB,2,11,LA,20,31,2560770,SHOTGUN,"1 RB, 1 TE, 3 WR",5,"3 DL, 2 LB, 6 DB",left,2019-09-29T22:34:18.000Z,2019-09-29T22:34:17.000Z,6-5,305,12/21/1990,Louisiana State,DT,LA,TB,4,Los Angeles Memorial Coliseum,"Los Angeles, Calif.",Outdoor,Grass,Mostly Sunny,74.0,41,2,SW
56445,2019092909,20190929093503,home,42.71,20.23,2.17,2.32,0.21,109.76,249.25,2540197,Nickell Robey-Coleman,23,2019,37,3,01:40:00,TB,2,11,LA,20,31,2560770,SHOTGUN,"1 RB, 1 TE, 3 WR",5,"3 DL, 2 LB, 6 DB",left,2019-09-29T22:34:18.000Z,2019-09-29T22:34:17.000Z,5-8,178,01/17/1992,Southern California,CB,LA,TB,4,Los Angeles Memorial Coliseum,"Los Angeles, Calif.",Outdoor,Grass,Mostly Sunny,74.0,41,2,SW
56446,2019092909,20190929093503,home,49.91,32.83,3.91,1.85,0.39,134.05,88.47,2543485,Aaron Donald,99,2019,37,3,01:40:00,TB,2,11,LA,20,31,2560770,SHOTGUN,"1 RB, 1 TE, 3 WR",5,"3 DL, 2 LB, 6 DB",left,2019-09-29T22:34:18.000Z,2019-09-29T22:34:17.000Z,6-1,280,05/23/1991,Pittsburgh,DT,LA,TB,4,Los Angeles Memorial Coliseum,"Los Angeles, Calif.",Outdoor,Grass,Mostly Sunny,74.0,41,2,SW
56447,2019092909,20190929093503,home,37.83,11.86,0.88,1.93,0.09,48.38,316.31,2552488,Marcus Peters,22,2019,37,3,01:40:00,TB,2,11,LA,20,31,2560770,SHOTGUN,"1 RB, 1 TE, 3 WR",5,"3 DL, 2 LB, 6 DB",left,2019-09-29T22:34:18.000Z,2019-09-29T22:34:17.000Z,6-0,197,01/09/1993,Washington,CB,LA,TB,4,Los Angeles Memorial Coliseum,"Los Angeles, Calif.",Outdoor,Grass,Mostly Sunny,74.0,41,2,SW
56448,2019092909,20190929093503,home,47.7,26.42,0.94,3.07,0.1,50.64,353.56,2553431,Dante Fowler,56,2019,37,3,01:40:00,TB,2,11,LA,20,31,2560770,SHOTGUN,"1 RB, 1 TE, 3 WR",5,"3 DL, 2 LB, 6 DB",left,2019-09-29T22:34:18.000Z,2019-09-29T22:34:17.000Z,6-3,255,08/03/1994,Florida,OLB,LA,TB,4,Los Angeles Memorial Coliseum,"Los Angeles, Calif.",Outdoor,Grass,Mostly Sunny,74.0,41,2,SW
56449,2019092909,20190929093503,home,44.95,30.94,2.56,2.54,0.24,106.14,88.75,2556593,Cory Littleton,58,2019,37,3,01:40:00,TB,2,11,LA,20,31,2560770,SHOTGUN,"1 RB, 1 TE, 3 WR",5,"3 DL, 2 LB, 6 DB",left,2019-09-29T22:34:18.000Z,2019-09-29T22:34:17.000Z,6-3,228,11/18/1993,Washington,ILB,LA,TB,4,Los Angeles Memorial Coliseum,"Los Angeles, Calif.",Outdoor,Grass,Mostly Sunny,74.0,41,2,SW
56450,2019092909,20190929093503,home,36.2,32.83,1.5,2.28,0.14,102.91,97.52,2558183,John Johnson,43,2019,37,3,01:40:00,TB,2,11,LA,20,31,2560770,SHOTGUN,"1 RB, 1 TE, 3 WR",5,"3 DL, 2 LB, 6 DB",left,2019-09-29T22:34:18.000Z,2019-09-29T22:34:17.000Z,6-0,209,12/19/1995,Boston College,SS,LA,TB,4,Los Angeles Memorial Coliseum,"Los Angeles, Calif.",Outdoor,Grass,Mostly Sunny,74.0,41,2,SW
56451,2019092909,20190929093503,home,43.71,32.24,1.21,0.9,0.12,62.49,126.51,2562707,Taylor Rapp,24,2019,37,3,01:40:00,TB,2,11,LA,20,31,2560770,SHOTGUN,"1 RB, 1 TE, 3 WR",5,"3 DL, 2 LB, 6 DB",left,2019-09-29T22:34:18.000Z,2019-09-29T22:34:17.000Z,6-0,208,12/22/1997,Washington,DB,LA,TB,4,Los Angeles Memorial Coliseum,"Los Angeles, Calif.",Outdoor,Grass,Mostly Sunny,74.0,41,2,SW
