,GameId,PlayId,Team,X,Y,S,A,Dis,Orientation,Dir,NflId,DisplayName,JerseyNumber,Season,YardLine,Quarter,GameClock,PossessionTeam,Down,Distance,FieldPosition,HomeScoreBeforePlay,VisitorScoreBeforePlay,NflIdRusher,OffenseFormation,OffensePersonnel,DefendersInTheBox,DefensePersonnel,PlayDirection,TimeHandoff,TimeSnap,PlayerHeight,PlayerWeight,PlayerBirthDate,PlayerCollegeName,Position,HomeTeamAbbr,VisitorTeamAbbr,Week,Stadium,Location,StadiumType,Turf,GameWeather,Temperature,Humidity,WindSpeed,WindDirection
63624,2019100601,20191006014216,away,57.74,23.5,3.37,1.71,0.35,258.05,186.71,496841,Corey Peters,98,2019,48,4,03:02:00,CIN,1,10,CIN,16,23,2540156,SINGLEBACK,"1 RB, 1 TE, 3 WR",7,"1 DL, 5 LB, 5 DB",right,2019-10-06T19:53:52.000Z,2019-10-06T19:53:51.000Z,6-3,335,06/08/1988,Kentucky,DT,CIN,ARI,5,Paul Brown Stadium,"Cincinnati, OH",Outdoor,Twenty Four/Seven Turf,Cloudy,76.0,68,"6 mph, Gusts to 10",SW
63625,2019100601,20191006014216,away,56.87,22.23,0.96,1.95,0.1,315.24,298.89,2505660,Terrell Suggs,56,2019,48,4,03:02:00,CIN,1,10,CIN,16,23,2540156,SINGLEBACK,"1 RB, 1 TE, 3 WR",7,"1 DL, 5 LB, 5 DB",right,2019-10-06T19:53:52.000Z,2019-10-06T19:53:51.000Z,6-3,265,10/11/1982,Arizona State,OLB,CIN,ARI,5,Paul Brown Stadium,"Cincinnati, OH",Outdoor,Twenty Four/Seven Turf,Cloudy,76.0,68,"6 mph, Gusts to 10",SW
63626,2019100601,20191006014216,away,56.3,29.89,2.93,2.38,0.29,224.9,194.99,2533538,Chandler Jones,55,2019,48,4,03:02:00,CIN,1,10,CIN,16,23,2540156,SINGLEBACK,"1 RB, 1 TE, 3 WR",7,"1 DL, 5 LB, 5 DB",right,2019-10-06T19:53:52.000Z,2019-10-06T19:53:51.000Z,6-5,265,02/27/1990,Syracuse,OLB,CIN,ARI,5,Paul Brown Stadium,"Cincinnati, OH",Outdoor,Twenty Four/Seven Turf,Cloudy,76.0,68,"6 mph, Gusts to 10",SW
63627,2019100601,20191006014216,away,56.93,26.61,3.49,1.73,0.36,198.33,189.72,2543868,Cassius Marsh,54,2019,48,4,03:02:00,CIN,1,10,CIN,16,23,2540156,SINGLEBACK,"1 RB, 1 TE, 3 WR",7,"1 DL, 5 LB, 5 DB",right,2019-10-06T19:53:52.000Z,2019-10-06T19:53:51.000Z,6-4,245,07/07/1992,UCLA,LB,CIN,ARI,5,Paul Brown Stadium,"Cincinnati, OH",Outdoor,Twenty Four/Seven Turf,Cloudy,76.0,68,"6 mph, Gusts to 10",SW
63628,2019100601,20191006014216,away,58.73,22.06,4.05,2.23,0.4,307.44,198.76,2552315,Jordan Hicks,58,2019,48,4,03:02:00,CIN,1,10,CIN,16,23,2540156,SINGLEBACK,"1 RB, 1 TE, 3 WR",7,"1 DL, 5 LB, 5 DB",right,2019-10-06T19:53:52.000Z,2019-10-06T19:53:51.000Z,6-1,236,06/27/1992,Texas,MLB,CIN,ARI,5,Paul Brown Stadium,"Cincinnati, OH",Outdoor,Twenty Four/Seven Turf,Cloudy,76.0,68,"6 mph, Gusts to 10",SW
63629,2019100601,20191006014216,away,60.21,43.94,2.44,1.41,0.24,314.49,80.01,2556764,Kevin Peterson,27,2019,48,4,03:02:00,CIN,1,10,CIN,16,23,2540156,SINGLEBACK,"1 RB, 1 TE, 3 WR",7,"1 DL, 5 LB, 5 DB",right,2019-10-06T19:53:52.000Z,2019-10-06T19:53:51.000Z,5-11,185,03/22/1994,Oklahoma State,CB,CIN,ARI,5,Paul Brown Stadium,"Cincinnati, OH",Outdoor,Twenty Four/Seven Turf,Cloudy,76.0,68,"6 mph, Gusts to 10",SW
63630,2019100601,20191006014216,away,59.59,28.07,3.02,1.19,0.3,246.27,243.43,2557887,Haason Reddick,43,2019,48,4,03:02:00,CIN,1,10,CIN,16,23,2540156,SINGLEBACK,"1 RB, 1 TE, 3 WR",7,"1 DL, 5 LB, 5 DB",right,2019-10-06T19:53:52.000Z,2019-10-06T19:53:51.000Z,6-1,235,09/22/1994,Temple,ILB,CIN,ARI,5,Paul Brown Stadium,"Cincinnati, OH",Outdoor,Twenty Four/Seven Turf,Cloudy,76.0,68,"6 mph, Gusts to 10",SW
63631,2019100601,20191006014216,away,59.52,19.48,1.51,1.71,0.14,312.0,145.09,2558009,Budda Baker,32,2019,48,4,03:02:00,CIN,1,10,CIN,16,23,2540156,SINGLEBACK,"1 RB, 1 TE, 3 WR",7,"1 DL, 5 LB, 5 DB",right,2019-10-06T19:53:52.000Z,2019-10-06T19:53:51.000Z,5-10,195,01/10/1996,Washington,FS,CIN,ARI,5,Paul Brown Stadium,"Cincinnati, OH",Outdoor,Twenty Four/Seven Turf,Cloudy,76.0,68,"6 mph, Gusts to 10",SW
63632,2019100601,20191006014216,away,65.32,31.48,7.44,1.41,0.75,330.58,351.99,2562318,Byron Murphy,33,2019,48,4,03:02:00,CIN,1,10,CIN,16,23,2540156,SINGLEBACK,"1 RB, 1 TE, 3 WR",7,"1 DL, 5 LB, 5 DB",right,2019-10-06T19:53:52.000Z,2019-10-06T19:53:51.000Z,5-11,190,01/18/1998,Washington,DB,CIN,ARI,5,Paul Brown Stadium,"Cincinnati, OH",Outdoor,Twenty Four/Seven Turf,Cloudy,76.0,68,"6 mph, Gusts to 10",SW
63633,2019100601,20191006014216,away,62.06,23.01,3.65,2.64,0.35,298.93,334.33,2562760,Deionte Thompson,35,2019,48,4,03:02:00,CIN,1,10,CIN,16,23,2540156,SINGLEBACK,"1 RB, 1 TE, 3 WR",7,"1 DL, 5 LB, 5 DB",right,2019-10-06T19:53:52.000Z,2019-10-06T19:53:51.000Z,6-1,196,02/11/1997,Alabama,S,CIN,ARI,5,Paul Brown Stadium,"Cincinnati, OH",Outdoor,Twenty Four/Seven Turf,Cloudy,76.0,68,"6 mph, Gusts to 10",SW
63634,2019100601,20191006014216,away,74.7,28.08,1.48,1.27,0.15,259.62,87.04,2563339,Jalen Thompson,34,2019,48,4,03:02:00,CIN,1,10,CIN,16,23,2540156,SINGLEBACK,"1 RB, 1 TE, 3 WR",7,"1 DL, 5 LB, 5 DB",right,2019-10-06T19:53:52.000Z,2019-10-06T19:53:51.000Z,5-11,190,07/18/1998,Washington State,DB,CIN,ARI,5,Paul Brown Stadium,"Cincinnati, OH",Outdoor,Twenty Four/Seven Turf,Cloudy,76.0,68,"6 mph, Gusts to 10",SW
63635,2019100601,20191006014216,home,56.3,26.45,4.56,1.26,0.47,80.51,174.64,497018,John Jerry,64,2019,48,4,03:02:00,CIN,1,10,CIN,16,23,2540156,SINGLEBACK,"1 RB, 1 TE, 3 WR",7,"1 DL, 5 LB, 5 DB",right,2019-10-06T19:53:52.000Z,2019-10-06T19:53:51.000Z,6-5,340,06/14/1986,Mississippi,G,CIN,ARI,5,Paul Brown Stadium,"Cincinnati, OH",Outdoor,Twenty Four/Seven Turf,Cloudy,76.0,68,"6 mph, Gusts to 10",SW
63636,2019100601,20191006014216,home,52.82,26.16,4.08,0.95,0.4,178.07,240.44,2495143,Andy Dalton,14,2019,48,4,03:02:00,CIN,1,10,CIN,16,23,2540156,SINGLEBACK,"1 RB, 1 TE, 3 WR",7,"1 DL, 5 LB, 5 DB",right,2019-10-06T19:53:52.000Z,2019-10-06T19:53:51.000Z,6-2,220,10/29/1987,Texas Christian,QB,CIN,ARI,5,Paul Brown Stadium,"Cincinnati, OH",Outdoor,Twenty Four/Seven Turf,Cloudy,76.0,68,"6 mph, Gusts to 10",SW
63637,2019100601,20191006014216,home,52.8,25.35,4.59,3.1,0.45,82.45,115.7,2540156,Giovani Bernard,25,2019,48,4,03:02:00,CIN,1,10,CIN,16,23,2540156,SINGLEBACK,"1 RB, 1 TE, 3 WR",7,"1 DL, 5 LB, 5 DB",right,2019-10-06T19:53:52.000Z,2019-10-06T19:53:51.000Z,5-9,205,11/22/1991,North Carolina,HB,CIN,ARI,5,Paul Brown Stadium,"Cincinnati, OH",Outdoor,Twenty Four/Seven Turf,Cloudy,76.0,68,"6 mph, Gusts to 10",SW
63638,2019100601,20191006014216,home,56.84,24.22,3.07,1.2,0.31,187.01,192.37,2550208,Trey Hopkins,66,2019,48,4,03:02:00,CIN,1,10,CIN,16,23,2540156,SINGLEBACK,"1 RB, 1 TE, 3 WR",7,"1 DL, 5 LB, 5 DB",right,2019-10-06T19:53:52.000Z,2019-10-06T19:53:51.000Z,6-3,316,07/06/1992,Texas,G,CIN,ARI,5,Paul Brown Stadium,"Cincinnati, OH",Outdoor,Twenty Four/Seven Turf,Cloudy,76.0,68,"6 mph, Gusts to 10",SW
63639,2019100601,20191006014216,home,56.25,22.42,0.58,2.08,0.07,116.53,225.81,2552335,Bobby Hart,68,2019,48,4,03:02:00,CIN,1,10,CIN,16,23,2540156,SINGLEBACK,"1 RB, 1 TE, 3 WR",7,"1 DL, 5 LB, 5 DB",right,2019-10-06T19:53:52.000Z,2019-10-06T19:53:51.000Z,6-5,310,08/21/1994,Florida State,OT,CIN,ARI,5,Paul Brown Stadium,"Cincinnati, OH",Outdoor,Twenty Four/Seven Turf,Cloudy,76.0,68,"6 mph, Gusts to 10",SW
63640,2019100601,20191006014216,home,55.57,26.03,3.12,1.74,0.32,16.56,17.79,2552559,C.J. Uzomah,87,2019,48,4,03:02:00,CIN,1,10,CIN,16,23,2540156,SINGLEBACK,"1 RB, 1 TE, 3 WR",7,"1 DL, 5 LB, 5 DB",right,2019-10-06T19:53:52.000Z,2019-10-06T19:53:51.000Z,6-6,260,01/14/1993,Auburn,TE,CIN,ARI,5,Paul Brown Stadium,"Cincinnati, OH",Outdoor,Twenty Four/Seven Turf,Cloudy,76.0,68,"6 mph, Gusts to 10",SW
63641,2019100601,20191006014216,home,57.71,22.72,3.5,1.26,0.37,132.38,166.43,2553436,John Miller,67,2019,48,4,03:02:00,CIN,1,10,CIN,16,23,2540156,SINGLEBACK,"1 RB, 1 TE, 3 WR",7,"1 DL, 5 LB, 5 DB",right,2019-10-06T19:53:52.000Z,2019-10-06T19:53:51.000Z,6-3,315,08/12/1993,Louisville,G,CIN,ARI,5,Paul Brown Stadium,"Cincinnati, OH",Outdoor,Twenty Four/Seven Turf,Cloudy,76.0,68,"6 mph, Gusts to 10",SW
63642,2019100601,20191006014216,home,59.02,19.96,2.16,0.64,0.22,105.26,118.14,2555466,Tyler Boyd,83,2019,48,4,03:02:00,CIN,1,10,CIN,16,23,2540156,SINGLEBACK,"1 RB, 1 TE, 3 WR",7,"1 DL, 5 LB, 5 DB",right,2019-10-06T19:53:52.000Z,2019-10-06T19:53:51.000Z,6-2,203,11/15/1994,Pittsburgh,WR,CIN,ARI,5,Paul Brown Stadium,"Cincinnati, OH",Outdoor,Twenty Four/Seven Turf,Cloudy,76.0,68,"6 mph, Gusts to 10",SW
63643,2019100601,20191006014216,home,59.04,44.54,3.9,2.28,0.38,87.0,68.34,2560890,Auden Tate,19,2019,48,4,03:02:00,CIN,1,10,CIN,16,23,2540156,SINGLEBACK,"1 RB, 1 TE, 3 WR",7,"1 DL, 5 LB, 5 DB",right,2019-10-06T19:53:52.000Z,2019-10-06T19:53:51.000Z,6-5,228,02/03/1997,Florida State,WR,CIN,ARI,5,Paul Brown Stadium,"Cincinnati, OH",Outdoor,Twenty Four/Seven Turf,Cloudy,76.0,68,"6 mph, Gusts to 10",SW
63644,2019100601,20191006014216,home,57.67,25.05,4.91,1.33,0.49,165.26,169.94,2562679,Mike Jordan,60,2019,48,4,03:02:00,CIN,1,10,CIN,16,23,2540156,SINGLEBACK,"1 RB, 1 TE, 3 WR",7,"1 DL, 5 LB, 5 DB",right,2019-10-06T19:53:52.000Z,2019-10-06T19:53:51.000Z,6-6,315,01/25/1998,Ohio State,OG,CIN,ARI,5,Paul Brown Stadium,"Cincinnati, OH",Outdoor,Twenty Four/Seven Turf,Cloudy,76.0,68,"6 mph, Gusts to 10",SW
63645,2019100601,20191006014216,home,53.94,34.39,7.33,1.94,0.74,10.53,0.96,2563238,Damion Willis,15,2019,48,4,03:02:00,CIN,1,10,CIN,16,23,2540156,SINGLEBACK,"1 RB, 1 TE, 3 WR",7,"1 DL, 5 LB, 5 DB",right,2019-10-06T19:53:52.000Z,2019-10-06T19:53:51.000Z,6-3,204,06/20/1997,Troy,WR,CIN,ARI,5,Paul Brown Stadium,"Cincinnati, OH",Outdoor,Twenty Four/Seven Turf,Cloudy,76.0,68,"6 mph, Gusts to 10",SW
