,GameId,PlayId,Team,X,Y,S,A,Dis,Orientation,Dir,NflId,DisplayName,JerseyNumber,Season,YardLine,Quarter,GameClock,PossessionTeam,Down,Distance,FieldPosition,HomeScoreBeforePlay,VisitorScoreBeforePlay,NflIdRusher,OffenseFormation,OffensePersonnel,DefendersInTheBox,DefensePersonnel,PlayDirection,TimeHandoff,TimeSnap,PlayerHeight,PlayerWeight,PlayerBirthDate,PlayerCollegeName,Position,HomeTeamAbbr,VisitorTeamAbbr,Week,Stadium,Location,StadiumType,Turf,GameWeather,Temperature,Humidity,WindSpeed,WindDirection
14982,2019091200,20190912000487,away,39.04,26.64,1.72,2.14,0.17,263.16,311.62,2507716,Demar Dotson,69,2019,29,1,07:08:00,TB,1,10,CAR,0,0,2556466,SINGLEBACK,"1 RB, 1 TE, 3 WR",6,"4 DL, 3 LB, 4 DB",left,2019-09-13T01:08:50.000Z,2019-09-13T01:08:48.000Z,6-9,315,10/11/1985,Southern Mississippi,OT,CAR,TB,2,Bank of America Stadium,"Charlotte, North Carolina",Outdoors,Natural Grass,Cloudy,85.0,55,3,ENE
14983,2019091200,20190912000487,away,39.69,25.39,1.76,1.1,0.2,334.09,34.09,2541159,Ryan Jensen,66,2019,29,1,07:08:00,TB,1,10,CAR,0,0,2556466,SINGLEBACK,"1 RB, 1 TE, 3 WR",6,"4 DL, 3 LB, 4 DB",left,2019-09-13T01:08:50.000Z,2019-09-13T01:08:48.000Z,6-4,319,05/27/1991,Colorado State-Pueblo,C,CAR,TB,2,Bank of America Stadium,"Charlotte, North Carolina",Outdoors,Natural Grass,Cloudy,85.0,55,3,ENE
14984,2019091200,20190912000487,away,40.19,43.08,0.11,1.36,0.0,184.26,81.22,2543468,Mike Evans,13,2019,29,1,07:08:00,TB,1,10,CAR,0,0,2556466,SINGLEBACK,"1 RB, 1 TE, 3 WR",6,"4 DL, 3 LB, 4 DB",left,2019-09-13T01:08:50.000Z,2019-09-13T01:08:48.000Z,6-5,231,08/21/1993,Texas A&M,WR,CAR,TB,2,Bank of America Stadium,"Charlotte, North Carolina",Outdoors,Natural Grass,Cloudy,85.0,55,3,ENE
14985,2019091200,20190912000487,away,42.95,24.76,3.49,0.35,0.34,7.02,65.09,2552033,Jameis Winston,3,2019,29,1,07:08:00,TB,1,10,CAR,0,0,2556466,SINGLEBACK,"1 RB, 1 TE, 3 WR",6,"4 DL, 3 LB, 4 DB",left,2019-09-13T01:08:50.000Z,2019-09-13T01:08:48.000Z,6-4,231,01/06/1994,Florida State,QB,CAR,TB,2,Bank of America Stadium,"Charlotte, North Carolina",Outdoors,Natural Grass,Cloudy,85.0,55,3,ENE
14986,2019091200,20190912000487,away,39.46,24.18,2.6,1.32,0.27,357.38,351.44,2552332,Ali Marpet,74,2019,29,1,07:08:00,TB,1,10,CAR,0,0,2556466,SINGLEBACK,"1 RB, 1 TE, 3 WR",6,"4 DL, 3 LB, 4 DB",left,2019-09-13T01:08:50.000Z,2019-09-13T01:08:48.000Z,6-4,307,04/17/1993,Hobart,G,CAR,TB,2,Bank of America Stadium,"Charlotte, North Carolina",Outdoors,Natural Grass,Cloudy,85.0,55,3,ENE
14987,2019091200,20190912000487,away,39.11,23.23,3.18,0.96,0.32,15.99,330.6,2552460,Donovan Smith,76,2019,29,1,07:08:00,TB,1,10,CAR,0,0,2556466,SINGLEBACK,"1 RB, 1 TE, 3 WR",6,"4 DL, 3 LB, 4 DB",left,2019-09-13T01:08:50.000Z,2019-09-13T01:08:48.000Z,6-6,338,06/23/1993,Penn State,T,CAR,TB,2,Bank of America Stadium,"Charlotte, North Carolina",Outdoors,Natural Grass,Cloudy,85.0,55,3,ENE
14988,2019091200,20190912000487,away,38.5,38.26,4.67,1.34,0.46,325.22,316.66,2552597,Breshad Perriman,19,2019,29,1,07:08:00,TB,1,10,CAR,0,0,2556466,SINGLEBACK,"1 RB, 1 TE, 3 WR",6,"4 DL, 3 LB, 4 DB",left,2019-09-13T01:08:50.000Z,2019-09-13T01:08:48.000Z,6-2,215,09/10/1993,Central Florida,WR,CAR,TB,2,Bank of America Stadium,"Charlotte, North Carolina",Outdoors,Natural Grass,Cloudy,85.0,55,3,ENE
14989,2019091200,20190912000487,away,43.91,25.27,3.57,3.22,0.35,265.56,286.96,2556466,Peyton Barber,25,2019,29,1,07:08:00,TB,1,10,CAR,0,0,2556466,SINGLEBACK,"1 RB, 1 TE, 3 WR",6,"4 DL, 3 LB, 4 DB",left,2019-09-13T01:08:50.000Z,2019-09-13T01:08:48.000Z,5-11,225,02/27/1994,Auburn,RB,CAR,TB,2,Bank of America Stadium,"Charlotte, North Carolina",Outdoors,Natural Grass,Cloudy,85.0,55,3,ENE
14990,2019091200,20190912000487,away,39.0,21.98,3.58,1.44,0.36,324.16,310.69,2557856,O.J. Howard,80,2019,29,1,07:08:00,TB,1,10,CAR,0,0,2556466,SINGLEBACK,"1 RB, 1 TE, 3 WR",6,"4 DL, 3 LB, 4 DB",left,2019-09-13T01:08:50.000Z,2019-09-13T01:08:48.000Z,6-6,250,11/18/1994,Alabama,TE,CAR,TB,2,Bank of America Stadium,"Charlotte, North Carolina",Outdoors,Natural Grass,Cloudy,85.0,55,3,ENE
14991,2019091200,20190912000487,away,39.39,18.18,1.02,2.12,0.09,205.69,358.95,2558105,Chris Godwin,12,2019,29,1,07:08:00,TB,1,10,CAR,0,0,2556466,SINGLEBACK,"1 RB, 1 TE, 3 WR",6,"4 DL, 3 LB, 4 DB",left,2019-09-13T01:08:50.000Z,2019-09-13T01:08:48.000Z,6-1,209,02/27/1996,Penn State,WR,CAR,TB,2,Bank of America Stadium,"Charlotte, North Carolina",Outdoors,Natural Grass,Cloudy,85.0,55,3,ENE
14992,2019091200,20190912000487,away,39.76,25.94,0.79,0.17,0.08,164.78,348.18,2560991,Alex Cappa,65,2019,29,1,07:08:00,TB,1,10,CAR,0,0,2556466,SINGLEBACK,"1 RB, 1 TE, 3 WR",6,"4 DL, 3 LB, 4 DB",left,2019-09-13T01:08:50.000Z,2019-09-13T01:08:48.000Z,6-6,305,01/27/1995,Humboldt State,G,CAR,TB,2,Bank of America Stadium,"Charlotte, North Carolina",Outdoors,Natural Grass,Cloudy,85.0,55,3,ENE
14993,2019091200,20190912000487,home,38.48,24.12,1.42,0.63,0.19,133.07,21.5,496816,Gerald McCoy,93,2019,29,1,07:08:00,TB,1,10,CAR,0,0,2556466,SINGLEBACK,"1 RB, 1 TE, 3 WR",6,"4 DL, 3 LB, 4 DB",left,2019-09-13T01:08:50.000Z,2019-09-13T01:08:48.000Z,6-4,300,02/25/1988,Oklahoma,DT,CAR,TB,2,Bank of America Stadium,"Charlotte, North Carolina",Outdoors,Natural Grass,Cloudy,85.0,55,3,ENE
14994,2019091200,20190912000487,home,39.54,17.58,1.38,1.66,0.16,348.58,38.53,2530474,Mario Addison,97,2019,29,1,07:08:00,TB,1,10,CAR,0,0,2556466,SINGLEBACK,"1 RB, 1 TE, 3 WR",6,"4 DL, 3 LB, 4 DB",left,2019-09-13T01:08:50.000Z,2019-09-13T01:08:48.000Z,6-3,260,09/06/1987,Troy,DE,CAR,TB,2,Bank of America Stadium,"Charlotte, North Carolina",Outdoors,Natural Grass,Cloudy,85.0,55,3,ENE
14995,2019091200,20190912000487,home,36.83,26.08,3.27,1.4,0.33,132.16,10.55,2533056,Luke Kuechly,59,2019,29,1,07:08:00,TB,1,10,CAR,0,0,2556466,SINGLEBACK,"1 RB, 1 TE, 3 WR",6,"4 DL, 3 LB, 4 DB",left,2019-09-13T01:08:50.000Z,2019-09-13T01:08:48.000Z,6-3,238,04/20/1991,Boston College,MLB,CAR,TB,2,Bank of America Stadium,"Charlotte, North Carolina",Outdoors,Natural Grass,Cloudy,85.0,55,3,ENE
14996,2019091200,20190912000487,home,38.44,23.11,2.49,0.68,0.26,87.26,341.52,2539296,Kawann Short,99,2019,29,1,07:08:00,TB,1,10,CAR,0,0,2556466,SINGLEBACK,"1 RB, 1 TE, 3 WR",6,"4 DL, 3 LB, 4 DB",left,2019-09-13T01:08:50.000Z,2019-09-13T01:08:48.000Z,6-3,315,02/02/1989,Purdue,DT,CAR,TB,2,Bank of America Stadium,"Charlotte, North Carolina",Outdoors,Natural Grass,Cloudy,85.0,55,3,ENE
14997,2019091200,20190912000487,home,31.64,35.9,4.25,0.8,0.43,73.25,318.64,2540152,Eric Reid,25,2019,29,1,07:08:00,TB,1,10,CAR,0,0,2556466,SINGLEBACK,"1 RB, 1 TE, 3 WR",6,"4 DL, 3 LB, 4 DB",left,2019-09-13T01:08:50.000Z,2019-09-13T01:08:48.000Z,6-1,213,12/10/1991,Louisiana State,SS,CAR,TB,2,Bank of America Stadium,"Charlotte, North Carolina",Outdoors,Natural Grass,Cloudy,85.0,55,3,ENE
14998,2019091200,20190912000487,home,20.77,29.32,2.88,0.9,0.28,117.26,274.7,2543830,Tre Boston,33,2019,29,1,07:08:00,TB,1,10,CAR,0,0,2556466,SINGLEBACK,"1 RB, 1 TE, 3 WR",6,"4 DL, 3 LB, 4 DB",left,2019-09-13T01:08:50.000Z,2019-09-13T01:08:48.000Z,6-1,205,06/25/1992,North Carolina,FS,CAR,TB,2,Bank of America Stadium,"Charlotte, North Carolina",Outdoors,Natural Grass,Cloudy,85.0,55,3,ENE
14999,2019091200,20190912000487,home,41.32,28.18,4.38,1.13,0.43,103.5,113.55,2552447,Shaq Thompson,54,2019,29,1,07:08:00,TB,1,10,CAR,0,0,2556466,SINGLEBACK,"1 RB, 1 TE, 3 WR",6,"4 DL, 3 LB, 4 DB",left,2019-09-13T01:08:50.000Z,2019-09-13T01:08:48.000Z,6-0,230,04/21/1994,Washington,OLB,CAR,TB,2,Bank of America Stadium,"Charlotte, North Carolina",Outdoors,Natural Grass,Cloudy,85.0,55,3,ENE
15000,2019091200,20190912000487,home,33.53,43.72,1.05,3.17,0.11,161.18,286.09,2555175,James Bradberry,24,2019,29,1,07:08:00,TB,1,10,CAR,0,0,2556466,SINGLEBACK,"1 RB, 1 TE, 3 WR",6,"4 DL, 3 LB, 4 DB",left,2019-09-13T01:08:50.000Z,2019-09-13T01:08:48.000Z,6-1,212,08/04/1993,Samford,CB,CAR,TB,2,Bank of America Stadium,"Charlotte, North Carolina",Outdoors,Natural Grass,Cloudy,85.0,55,3,ENE
15001,2019091200,20190912000487,home,32.33,15.68,2.28,4.31,0.21,7.44,10.03,2560753,Donte Jackson,26,2019,29,1,07:08:00,TB,1,10,CAR,0,0,2556466,SINGLEBACK,"1 RB, 1 TE, 3 WR",6,"4 DL, 3 LB, 4 DB",left,2019-09-13T01:08:50.000Z,2019-09-13T01:08:48.000Z,5-10,180,11/08/1995,Louisiana State,DB,CAR,TB,2,Bank of America Stadium,"Charlotte, North Carolina",Outdoors,Natural Grass,Cloudy,85.0,55,3,ENE
15002,2019091200,20190912000487,home,36.92,21.97,2.67,0.65,0.27,117.68,24.05,2561093,Jermaine Carter,56,2019,29,1,07:08:00,TB,1,10,CAR,0,0,2556466,SINGLEBACK,"1 RB, 1 TE, 3 WR",6,"4 DL, 3 LB, 4 DB",left,2019-09-13T01:08:50.000Z,2019-09-13T01:08:48.000Z,6-1,225,01/14/1995,Maryland,LB,CAR,TB,2,Bank of America Stadium,"Charlotte, North Carolina",Outdoors,Natural Grass,Cloudy,85.0,55,3,ENE
15003,2019091200,20190912000487,home,38.71,25.71,0.45,2.36,0.05,92.36,157.8,2562242,Brian Burns,53,2019,29,1,07:08:00,TB,1,10,CAR,0,0,2556466,SINGLEBACK,"1 RB, 1 TE, 3 WR",6,"4 DL, 3 LB, 4 DB",left,2019-09-13T01:08:50.000Z,2019-09-13T01:08:48.000Z,6-5,250,04/23/1998,Florida State,DL,CAR,TB,2,Bank of America Stadium,"Charlotte, North Carolina",Outdoors,Natural Grass,Cloudy,85.0,55,3,ENE
