,GameId,PlayId,Team,X,Y,S,A,Dis,Orientation,Dir,NflId,DisplayName,JerseyNumber,Season,YardLine,Quarter,GameClock,PossessionTeam,Down,Distance,FieldPosition,HomeScoreBeforePlay,VisitorScoreBeforePlay,NflIdRusher,OffenseFormation,OffensePersonnel,DefendersInTheBox,DefensePersonnel,PlayDirection,TimeHandoff,TimeSnap,PlayerHeight,PlayerWeight,PlayerBirthDate,PlayerCollegeName,Position,HomeTeamAbbr,VisitorTeamAbbr,Week,Stadium,Location,StadiumType,Turf,GameWeather,Temperature,Humidity,WindSpeed,WindDirection
6754,2019090806,20190908062342,away,14.06,28.93,0.71,3.18,0.07,146.57,31.06,2495190,Ryan Kerrigan,91,2019,3,3,09:17:00,PHI,1,3,WAS,7,20,2562722,SHOTGUN,"1 RB, 2 TE, 2 WR",9,"3 DL, 4 LB, 4 DB",left,2019-09-08T18:59:20.000Z,2019-09-08T18:59:19.000Z,6-4,265,08/16/1988,Purdue,OLB,PHI,WAS,1,Lincoln Financial Field,"Philadelphia, Pa.",Outdoor,Grass,Sunny,79.0,49,4,W
6755,2019090806,20190908062342,away,11.3,42.25,2.72,1.02,0.27,132.5,216.95,2532920,Josh Norman,24,2019,3,3,09:17:00,PHI,1,3,WAS,7,20,2562722,SHOTGUN,"1 RB, 2 TE, 2 WR",9,"3 DL, 4 LB, 4 DB",left,2019-09-08T18:59:20.000Z,2019-09-08T18:59:19.000Z,6-0,200,12/15/1987,Coastal Carolina,CB,PHI,WAS,1,Lincoln Financial Field,"Philadelphia, Pa.",Outdoor,Grass,Sunny,79.0,49,4,W
6756,2019090806,20190908062342,away,10.85,24.91,1.62,0.77,0.16,105.2,13.79,2539978,Jon Bostic,53,2019,3,3,09:17:00,PHI,1,3,WAS,7,20,2562722,SHOTGUN,"1 RB, 2 TE, 2 WR",9,"3 DL, 4 LB, 4 DB",left,2019-09-08T18:59:20.000Z,2019-09-08T18:59:19.000Z,6-1,245,05/05/1991,Florida,ILB,PHI,WAS,1,Lincoln Financial Field,"Philadelphia, Pa.",Outdoor,Grass,Sunny,79.0,49,4,W
6757,2019090806,20190908062342,away,11.77,20.65,4.46,2.3,0.44,59.7,32.34,2552454,Landon Collins,20,2019,3,3,09:17:00,PHI,1,3,WAS,7,20,2562722,SHOTGUN,"1 RB, 2 TE, 2 WR",9,"3 DL, 4 LB, 4 DB",left,2019-09-08T18:59:20.000Z,2019-09-08T18:59:19.000Z,6-0,218,01/10/1994,Alabama,SS,PHI,WAS,1,Lincoln Financial Field,"Philadelphia, Pa.",Outdoor,Grass,Sunny,79.0,49,4,W
6758,2019090806,20190908062342,away,12.69,25.89,1.16,0.7,0.12,109.29,311.26,2555240,Matthew Ioannidis,98,2019,3,3,09:17:00,PHI,1,3,WAS,7,20,2562722,SHOTGUN,"1 RB, 2 TE, 2 WR",9,"3 DL, 4 LB, 4 DB",left,2019-09-08T18:59:20.000Z,2019-09-08T18:59:19.000Z,6-3,310,01/11/1994,Temple,DE,PHI,WAS,1,Lincoln Financial Field,"Philadelphia, Pa.",Outdoor,Grass,Sunny,79.0,49,4,W
6759,2019090806,20190908062342,away,9.84,28.16,1.4,1.03,0.14,96.03,81.78,2558133,Montae Nicholson,35,2019,3,3,09:17:00,PHI,1,3,WAS,7,20,2562722,SHOTGUN,"1 RB, 2 TE, 2 WR",9,"3 DL, 4 LB, 4 DB",left,2019-09-08T18:59:20.000Z,2019-09-08T18:59:19.000Z,6-2,212,12/04/1995,Michigan State,FS,PHI,WAS,1,Lincoln Financial Field,"Philadelphia, Pa.",Outdoor,Grass,Sunny,79.0,49,4,W
6760,2019090806,20190908062342,away,12.11,23.74,2.19,1.74,0.22,43.49,324.98,2560834,Daron Payne,94,2019,3,3,09:17:00,PHI,1,3,WAS,7,20,2562722,SHOTGUN,"1 RB, 2 TE, 2 WR",9,"3 DL, 4 LB, 4 DB",left,2019-09-08T18:59:20.000Z,2019-09-08T18:59:19.000Z,6-3,320,05/27/1997,Alabama,NT,PHI,WAS,1,Lincoln Financial Field,"Philadelphia, Pa.",Outdoor,Grass,Sunny,79.0,49,4,W
6761,2019090806,20190908062342,away,12.74,25.27,0.89,1.32,0.09,60.07,358.0,2560871,Tim Settle,97,2019,3,3,09:17:00,PHI,1,3,WAS,7,20,2562722,SHOTGUN,"1 RB, 2 TE, 2 WR",9,"3 DL, 4 LB, 4 DB",left,2019-09-08T18:59:20.000Z,2019-09-08T18:59:19.000Z,6-3,308,07/11/1997,Virginia Tech,NT,PHI,WAS,1,Lincoln Financial Field,"Philadelphia, Pa.",Outdoor,Grass,Sunny,79.0,49,4,W
6762,2019090806,20190908062342,away,13.11,18.86,0.93,2.38,0.11,40.38,345.69,2562749,Montez Sweat,90,2019,3,3,09:17:00,PHI,1,3,WAS,7,20,2562722,SHOTGUN,"1 RB, 2 TE, 2 WR",9,"3 DL, 4 LB, 4 DB",left,2019-09-08T18:59:20.000Z,2019-09-08T18:59:19.000Z,6-6,262,09/04/1996,Mississippi State,LB,PHI,WAS,1,Lincoln Financial Field,"Philadelphia, Pa.",Outdoor,Grass,Sunny,79.0,49,4,W
6763,2019090806,20190908062342,away,12.09,36.25,1.53,0.88,0.16,77.13,0.1,2562858,Jimmy Moreland,32,2019,3,3,09:17:00,PHI,1,3,WAS,7,20,2562722,SHOTGUN,"1 RB, 2 TE, 2 WR",9,"3 DL, 4 LB, 4 DB",left,2019-09-08T18:59:20.000Z,2019-09-08T18:59:19.000Z,5-11,182,08/26/1995,James Madison,DB,PHI,WAS,1,Lincoln Financial Field,"Philadelphia, Pa.",Outdoor,Grass,Sunny,79.0,49,4,W
6764,2019090806,20190908062342,away,11.71,22.12,3.72,1.3,0.36,112.04,331.7,2562872,Cole Holcomb,55,2019,3,3,09:17:00,PHI,1,3,WAS,7,20,2562722,SHOTGUN,"1 RB, 2 TE, 2 WR",9,"3 DL, 4 LB, 4 DB",left,2019-09-08T18:59:20.000Z,2019-09-08T18:59:19.000Z,6-1,240,07/30/1996,North Carolina,LB,PHI,WAS,1,Lincoln Financial Field,"Philadelphia, Pa.",Outdoor,Grass,Sunny,79.0,49,4,W
6765,2019090806,20190908062342,home,15.39,37.47,2.78,0.21,0.28,236.05,9.56,1581,DeSean Jackson,10,2019,3,3,09:17:00,PHI,1,3,WAS,7,20,2562722,SHOTGUN,"1 RB, 2 TE, 2 WR",9,"3 DL, 4 LB, 4 DB",left,2019-09-08T18:59:20.000Z,2019-09-08T18:59:19.000Z,5-10,175,12/01/1986,California,WR,PHI,WAS,1,Lincoln Financial Field,"Philadelphia, Pa.",Outdoor,Grass,Sunny,79.0,49,4,W
6766,2019090806,20190908062342,home,13.26,24.65,0.66,0.75,0.07,327.71,330.37,2495298,Jason Kelce,62,2019,3,3,09:17:00,PHI,1,3,WAS,7,20,2562722,SHOTGUN,"1 RB, 2 TE, 2 WR",9,"3 DL, 4 LB, 4 DB",left,2019-09-08T18:59:20.000Z,2019-09-08T18:59:19.000Z,6-3,295,11/05/1987,Cincinnati,C,PHI,WAS,1,Lincoln Financial Field,"Philadelphia, Pa.",Outdoor,Grass,Sunny,79.0,49,4,W
6767,2019090806,20190908062342,home,12.87,23.4,2.36,2.19,0.25,256.02,324.2,2505827,Jason Peters,71,2019,3,3,09:17:00,PHI,1,3,WAS,7,20,2562722,SHOTGUN,"1 RB, 2 TE, 2 WR",9,"3 DL, 4 LB, 4 DB",left,2019-09-08T18:59:20.000Z,2019-09-08T18:59:19.000Z,6-4,328,01/22/1982,Arkansas,OT,PHI,WAS,1,Lincoln Financial Field,"Philadelphia, Pa.",Outdoor,Grass,Sunny,79.0,49,4,W
6768,2019090806,20190908062342,home,12.78,42.82,2.5,1.51,0.24,239.45,240.8,2533039,Alshon Jeffery,17,2019,3,3,09:17:00,PHI,1,3,WAS,7,20,2562722,SHOTGUN,"1 RB, 2 TE, 2 WR",9,"3 DL, 4 LB, 4 DB",left,2019-09-08T18:59:20.000Z,2019-09-08T18:59:19.000Z,6-3,218,02/14/1990,South Carolina,WR,PHI,WAS,1,Lincoln Financial Field,"Philadelphia, Pa.",Outdoor,Grass,Sunny,79.0,49,4,W
6769,2019090806,20190908062342,home,13.3,25.85,1.4,0.83,0.14,260.27,314.55,2534434,Brandon Brooks,79,2019,3,3,09:17:00,PHI,1,3,WAS,7,20,2562722,SHOTGUN,"1 RB, 2 TE, 2 WR",9,"3 DL, 4 LB, 4 DB",left,2019-09-08T18:59:20.000Z,2019-09-08T18:59:19.000Z,6-5,335,08/19/1989,"Miami, O.",G,PHI,WAS,1,Lincoln Financial Field,"Philadelphia, Pa.",Outdoor,Grass,Sunny,79.0,49,4,W
6770,2019090806,20190908062342,home,14.26,28.33,1.12,0.98,0.11,336.37,331.96,2539286,Lane Johnson,65,2019,3,3,09:17:00,PHI,1,3,WAS,7,20,2562722,SHOTGUN,"1 RB, 2 TE, 2 WR",9,"3 DL, 4 LB, 4 DB",left,2019-09-08T18:59:20.000Z,2019-09-08T18:59:19.000Z,6-6,317,05/08/1990,Oklahoma,T,PHI,WAS,1,Lincoln Financial Field,"Philadelphia, Pa.",Outdoor,Grass,Sunny,79.0,49,4,W
6771,2019090806,20190908062342,home,13.51,19.59,2.19,0.54,0.22,255.75,304.85,2540158,Zach Ertz,86,2019,3,3,09:17:00,PHI,1,3,WAS,7,20,2562722,SHOTGUN,"1 RB, 2 TE, 2 WR",9,"3 DL, 4 LB, 4 DB",left,2019-09-08T18:59:20.000Z,2019-09-08T18:59:19.000Z,6-5,250,11/10/1990,Stanford,TE,PHI,WAS,1,Lincoln Financial Field,"Philadelphia, Pa.",Outdoor,Grass,Sunny,79.0,49,4,W
6772,2019090806,20190908062342,home,17.75,23.34,1.37,2.17,0.13,237.78,218.25,2555259,Carson Wentz,11,2019,3,3,09:17:00,PHI,1,3,WAS,7,20,2562722,SHOTGUN,"1 RB, 2 TE, 2 WR",9,"3 DL, 4 LB, 4 DB",left,2019-09-08T18:59:20.000Z,2019-09-08T18:59:19.000Z,6-5,237,12/30/1992,North Dakota State,QB,PHI,WAS,1,Lincoln Financial Field,"Philadelphia, Pa.",Outdoor,Grass,Sunny,79.0,49,4,W
6773,2019090806,20190908062342,home,12.9,24.13,2.2,1.19,0.22,254.03,319.02,2555495,Isaac Seumalo,73,2019,3,3,09:17:00,PHI,1,3,WAS,7,20,2562722,SHOTGUN,"1 RB, 2 TE, 2 WR",9,"3 DL, 4 LB, 4 DB",left,2019-09-08T18:59:20.000Z,2019-09-08T18:59:19.000Z,6-4,303,10/29/1993,Oregon State,G,PHI,WAS,1,Lincoln Financial Field,"Philadelphia, Pa.",Outdoor,Grass,Sunny,79.0,49,4,W
6774,2019090806,20190908062342,home,12.43,22.08,4.4,1.54,0.44,285.2,317.72,2560995,Dallas Goedert,88,2019,3,3,09:17:00,PHI,1,3,WAS,7,20,2562722,SHOTGUN,"1 RB, 2 TE, 2 WR",9,"3 DL, 4 LB, 4 DB",left,2019-09-08T18:59:20.000Z,2019-09-08T18:59:19.000Z,6-5,256,01/03/1995,South Dakota State,TE,PHI,WAS,1,Lincoln Financial Field,"Philadelphia, Pa.",Outdoor,Grass,Sunny,79.0,49,4,W
6775,2019090806,20190908062342,home,16.91,23.37,5.16,3.29,0.5,317.29,310.01,2562722,Miles Sanders,26,2019,3,3,09:17:00,PHI,1,3,WAS,7,20,2562722,SHOTGUN,"1 RB, 2 TE, 2 WR",9,"3 DL, 4 LB, 4 DB",left,2019-09-08T18:59:20.000Z,2019-09-08T18:59:19.000Z,5-11,211,05/01/1997,Penn State,RB,PHI,WAS,1,Lincoln Financial Field,"Philadelphia, Pa.",Outdoor,Grass,Sunny,79.0,49,4,W
