,GameId,PlayId,Team,X,Y,S,A,Dis,Orientation,Dir,NflId,DisplayName,JerseyNumber,Season,YardLine,Quarter,GameClock,PossessionTeam,Down,Distance,FieldPosition,HomeScoreBeforePlay,VisitorScoreBeforePlay,NflIdRusher,OffenseFormation,OffensePersonnel,DefendersInTheBox,DefensePersonnel,PlayDirection,TimeHandoff,TimeSnap,PlayerHeight,PlayerWeight,PlayerBirthDate,PlayerCollegeName,Position,HomeTeamAbbr,VisitorTeamAbbr,Week,Stadium,Location,StadiumType,Turf,GameWeather,Temperature,Humidity,WindSpeed,WindDirection
53262,2019092906,20190929061990,away,37.28,26.71,2.32,1.73,0.23,268.8,210.92,2506352,Thomas Davis,58,2019,22,2,00:37:00,MIA,1,10,MIA,10,17,2555230,SHOTGUN,"1 RB, 1 TE, 3 WR",5,"3 DL, 2 LB, 6 DB",right,2019-09-29T18:20:51.000Z,2019-09-29T18:20:50.000Z,6-1,235,03/22/1983,Georgia,OLB,MIA,LAC,4,Hard Rock Stadium,"Miami Gardens, FL",Outdoor,Natural Grass,Mostly Cloudy,88.0,53,15,ENE
53263,2019092906,20190929061990,away,40.09,38.19,0.22,2.37,0.03,220.22,70.38,2532861,Casey Hayward,26,2019,22,2,00:37:00,MIA,1,10,MIA,10,17,2555230,SHOTGUN,"1 RB, 1 TE, 3 WR",5,"3 DL, 2 LB, 6 DB",right,2019-09-29T18:20:51.000Z,2019-09-29T18:20:50.000Z,5-11,192,09/09/1989,Vanderbilt,CB,MIA,LAC,4,Hard Rock Stadium,"Miami Gardens, FL",Outdoor,Natural Grass,Mostly Cloudy,88.0,53,15,ENE
53264,2019092906,20190929061990,away,43.3,32.31,3.17,2.65,0.3,266.99,264.68,2543707,Jaylen Watkins,27,2019,22,2,00:37:00,MIA,1,10,MIA,10,17,2555230,SHOTGUN,"1 RB, 1 TE, 3 WR",5,"3 DL, 2 LB, 6 DB",right,2019-09-29T18:20:51.000Z,2019-09-29T18:20:50.000Z,5-11,194,11/27/1991,Florida,SS,MIA,LAC,4,Hard Rock Stadium,"Miami Gardens, FL",Outdoor,Natural Grass,Mostly Cloudy,88.0,53,15,ENE
53265,2019092906,20190929061990,away,30.52,23.49,2.64,0.85,0.26,6.98,291.37,2555249,Joey Bosa,97,2019,22,2,00:37:00,MIA,1,10,MIA,10,17,2555230,SHOTGUN,"1 RB, 1 TE, 3 WR",5,"3 DL, 2 LB, 6 DB",right,2019-09-29T18:20:51.000Z,2019-09-29T18:20:50.000Z,6-5,280,07/11/1995,Ohio State,DE,MIA,LAC,4,Hard Rock Stadium,"Miami Gardens, FL",Outdoor,Natural Grass,Mostly Cloudy,88.0,53,15,ENE
53266,2019092906,20190929061990,away,37.71,16.37,2.92,0.9,0.28,259.79,151.18,2557927,Desmond King,20,2019,22,2,00:37:00,MIA,1,10,MIA,10,17,2555230,SHOTGUN,"1 RB, 1 TE, 3 WR",5,"3 DL, 2 LB, 6 DB",right,2019-09-29T18:20:51.000Z,2019-09-29T18:20:50.000Z,5-10,201,12/14/1994,Iowa,CB,MIA,LAC,4,Hard Rock Stadium,"Miami Gardens, FL",Outdoor,Natural Grass,Mostly Cloudy,88.0,53,15,ENE
53267,2019092906,20190929061990,away,51.65,23.1,2.07,0.83,0.2,299.67,103.58,2558182,Rayshawn Jenkins,23,2019,22,2,00:37:00,MIA,1,10,MIA,10,17,2555230,SHOTGUN,"1 RB, 1 TE, 3 WR",5,"3 DL, 2 LB, 6 DB",right,2019-09-29T18:20:51.000Z,2019-09-29T18:20:50.000Z,6-2,220,01/25/1994,Miami,SS,MIA,LAC,4,Hard Rock Stadium,"Miami Gardens, FL",Outdoor,Natural Grass,Mostly Cloudy,88.0,53,15,ENE
53268,2019092906,20190929061990,away,38.62,8.24,3.4,1.54,0.33,43.79,75.86,2559164,Michael Davis,43,2019,22,2,00:37:00,MIA,1,10,MIA,10,17,2555230,SHOTGUN,"1 RB, 1 TE, 3 WR",5,"3 DL, 2 LB, 6 DB",right,2019-09-29T18:20:51.000Z,2019-09-29T18:20:50.000Z,6-2,196,01/06/1995,Brigham Young,CB,MIA,LAC,4,Hard Rock Stadium,"Miami Gardens, FL",Outdoor,Natural Grass,Mostly Cloudy,88.0,53,15,ENE
53269,2019092906,20190929061990,away,30.95,27.41,0.97,2.15,0.1,275.47,306.34,2560769,Justin Jones,93,2019,22,2,00:37:00,MIA,1,10,MIA,10,17,2555230,SHOTGUN,"1 RB, 1 TE, 3 WR",5,"3 DL, 2 LB, 6 DB",right,2019-09-29T18:20:51.000Z,2019-09-29T18:20:50.000Z,6-3,309,08/28/1996,North Carolina State,DT,MIA,LAC,4,Hard Rock Stadium,"Miami Gardens, FL",Outdoor,Natural Grass,Mostly Cloudy,88.0,53,15,ENE
53270,2019092906,20190929061990,away,31.98,32.17,0.97,2.27,0.09,239.39,140.21,2560826,Uchenna Nwosu,42,2019,22,2,00:37:00,MIA,1,10,MIA,10,17,2555230,SHOTGUN,"1 RB, 1 TE, 3 WR",5,"3 DL, 2 LB, 6 DB",right,2019-09-29T18:20:51.000Z,2019-09-29T18:20:50.000Z,6-2,251,12/28/1996,Southern California,LB,MIA,LAC,4,Hard Rock Stadium,"Miami Gardens, FL",Outdoor,Natural Grass,Mostly Cloudy,88.0,53,15,ENE
53271,2019092906,20190929061990,away,30.84,29.22,2.27,1.2,0.23,252.21,234.85,2562763,Jerry Tillery,99,2019,22,2,00:37:00,MIA,1,10,MIA,10,17,2555230,SHOTGUN,"1 RB, 1 TE, 3 WR",5,"3 DL, 2 LB, 6 DB",right,2019-09-29T18:20:51.000Z,2019-09-29T18:20:50.000Z,6-6,295,10/08/1996,Notre Dame,DT,MIA,LAC,4,Hard Rock Stadium,"Miami Gardens, FL",Outdoor,Natural Grass,Mostly Cloudy,88.0,53,15,ENE
53272,2019092906,20190929061990,away,35.19,33.13,3.32,1.41,0.32,242.96,201.29,2562981,Roderic Teamer,36,2019,22,2,00:37:00,MIA,1,10,MIA,10,17,2555230,SHOTGUN,"1 RB, 1 TE, 3 WR",5,"3 DL, 2 LB, 6 DB",right,2019-09-29T18:20:51.000Z,2019-09-29T18:20:50.000Z,5-11,205,05/12/1997,Tulane,DB,MIA,LAC,4,Hard Rock Stadium,"Miami Gardens, FL",Outdoor,Natural Grass,Mostly Cloudy,88.0,53,15,ENE
53273,2019092906,20190929061990,home,31.33,31.65,0.52,0.27,0.06,52.78,96.55,1037880,J'Marcus Webb,61,2019,22,2,00:37:00,MIA,1,10,MIA,10,17,2555230,SHOTGUN,"1 RB, 1 TE, 3 WR",5,"3 DL, 2 LB, 6 DB",right,2019-09-29T18:20:51.000Z,2019-09-29T18:20:50.000Z,6-7,320,08/08/1988,West Texas A&M,T,MIA,LAC,4,Hard Rock Stadium,"Miami Gardens, FL",Outdoor,Natural Grass,Mostly Cloudy,88.0,53,15,ENE
53274,2019092906,20190929061990,home,33.72,28.08,2.3,1.01,0.23,72.86,101.83,2495299,Daniel Kilgore,67,2019,22,2,00:37:00,MIA,1,10,MIA,10,17,2555230,SHOTGUN,"1 RB, 1 TE, 3 WR",5,"3 DL, 2 LB, 6 DB",right,2019-09-29T18:20:51.000Z,2019-09-29T18:20:50.000Z,6-3,291,12/18/1987,Appalachian State,C,MIA,LAC,4,Hard Rock Stadium,"Miami Gardens, FL",Outdoor,Natural Grass,Mostly Cloudy,88.0,53,15,ENE
53275,2019092906,20190929061990,home,32.95,34.01,4.29,3.06,0.42,107.85,134.53,2552409,DeVante Parker,11,2019,22,2,00:37:00,MIA,1,10,MIA,10,17,2555230,SHOTGUN,"1 RB, 1 TE, 3 WR",5,"3 DL, 2 LB, 6 DB",right,2019-09-29T18:20:51.000Z,2019-09-29T18:20:50.000Z,6-3,216,01/20/1993,Louisville,WR,MIA,LAC,4,Hard Rock Stadium,"Miami Gardens, FL",Outdoor,Natural Grass,Mostly Cloudy,88.0,53,15,ENE
53276,2019092906,20190929061990,home,30.8,24.41,2.41,0.26,0.26,187.12,179.74,2555181,Evan Boehm,76,2019,22,2,00:37:00,MIA,1,10,MIA,10,17,2555230,SHOTGUN,"1 RB, 1 TE, 3 WR",5,"3 DL, 2 LB, 6 DB",right,2019-09-29T18:20:51.000Z,2019-09-29T18:20:50.000Z,6-3,321,08/19/1993,Missouri,G,MIA,LAC,4,Hard Rock Stadium,"Miami Gardens, FL",Outdoor,Natural Grass,Mostly Cloudy,88.0,53,15,ENE
53277,2019092906,20190929061990,home,27.77,29.55,1.93,3.38,0.19,100.27,73.91,2555230,Kenyan Drake,32,2019,22,2,00:37:00,MIA,1,10,MIA,10,17,2555230,SHOTGUN,"1 RB, 1 TE, 3 WR",5,"3 DL, 2 LB, 6 DB",right,2019-09-29T18:20:51.000Z,2019-09-29T18:20:50.000Z,6-1,211,01/26/1994,Alabama,RB,MIA,LAC,4,Hard Rock Stadium,"Miami Gardens, FL",Outdoor,Natural Grass,Mostly Cloudy,88.0,53,15,ENE
53278,2019092906,20190929061990,home,33.4,17.85,4.59,1.48,0.45,94.77,78.4,2556190,Jakeem Grant,19,2019,22,2,00:37:00,MIA,1,10,MIA,10,17,2555230,SHOTGUN,"1 RB, 1 TE, 3 WR",5,"3 DL, 2 LB, 6 DB",right,2019-09-29T18:20:51.000Z,2019-09-29T18:20:50.000Z,5-7,169,10/30/1992,Texas Tech,WR,MIA,LAC,4,Hard Rock Stadium,"Miami Gardens, FL",Outdoor,Natural Grass,Mostly Cloudy,88.0,53,15,ENE
53279,2019092906,20190929061990,home,27.59,28.31,0.7,1.63,0.07,13.44,262.86,2560858,Josh Rosen,3,2019,22,2,00:37:00,MIA,1,10,MIA,10,17,2555230,SHOTGUN,"1 RB, 1 TE, 3 WR",5,"3 DL, 2 LB, 6 DB",right,2019-09-29T18:20:51.000Z,2019-09-29T18:20:50.000Z,6-4,226,02/10/1997,UCLA,QB,MIA,LAC,4,Hard Rock Stadium,"Miami Gardens, FL",Outdoor,Natural Grass,Mostly Cloudy,88.0,53,15,ENE
53280,2019092906,20190929061990,home,30.94,29.77,4.17,1.29,0.41,73.21,155.19,2560880,Durham Smythe,81,2019,22,2,00:37:00,MIA,1,10,MIA,10,17,2555230,SHOTGUN,"1 RB, 1 TE, 3 WR",5,"3 DL, 2 LB, 6 DB",right,2019-09-29T18:20:51.000Z,2019-09-29T18:20:50.000Z,6-6,260,08/09/1995,Notre Dame,TE,MIA,LAC,4,Hard Rock Stadium,"Miami Gardens, FL",Outdoor,Natural Grass,Mostly Cloudy,88.0,53,15,ENE
53281,2019092906,20190929061990,home,30.55,27.95,1.18,2.59,0.13,130.55,219.97,2562255,Michael Deiter,63,2019,22,2,00:37:00,MIA,1,10,MIA,10,17,2555230,SHOTGUN,"1 RB, 1 TE, 3 WR",5,"3 DL, 2 LB, 6 DB",right,2019-09-29T18:20:51.000Z,2019-09-29T18:20:50.000Z,6-6,310,09/03/1996,Wisconsin,OG,MIA,LAC,4,Hard Rock Stadium,"Miami Gardens, FL",Outdoor,Natural Grass,Mostly Cloudy,88.0,53,15,ENE
53282,2019092906,20190929061990,home,34.11,26.19,3.52,2.02,0.37,89.83,75.14,2562705,Isaiah Prince,72,2019,22,2,00:37:00,MIA,1,10,MIA,10,17,2555230,SHOTGUN,"1 RB, 1 TE, 3 WR",5,"3 DL, 2 LB, 6 DB",right,2019-09-29T18:20:51.000Z,2019-09-29T18:20:50.000Z,6-7,305,07/29/1997,Ohio State,T,MIA,LAC,4,Hard Rock Stadium,"Miami Gardens, FL",Outdoor,Natural Grass,Mostly Cloudy,88.0,53,15,ENE
53283,2019092906,20190929061990,home,33.48,9.35,4.52,2.34,0.44,78.01,71.9,2562805,Preston Williams,18,2019,22,2,00:37:00,MIA,1,10,MIA,10,17,2555230,SHOTGUN,"1 RB, 1 TE, 3 WR",5,"3 DL, 2 LB, 6 DB",right,2019-09-29T18:20:51.000Z,2019-09-29T18:20:50.000Z,6-5,218,03/27/1997,Colorado State,WR,MIA,LAC,4,Hard Rock Stadium,"Miami Gardens, FL",Outdoor,Natural Grass,Mostly Cloudy,88.0,53,15,ENE
