,GameId,PlayId,Team,X,Y,S,A,Dis,Orientation,Dir,NflId,DisplayName,JerseyNumber,Season,YardLine,Quarter,GameClock,PossessionTeam,Down,Distance,FieldPosition,HomeScoreBeforePlay,VisitorScoreBeforePlay,NflIdRusher,OffenseFormation,OffensePersonnel,DefendersInTheBox,DefensePersonnel,PlayDirection,TimeHandoff,TimeSnap,PlayerHeight,PlayerWeight,PlayerBirthDate,PlayerCollegeName,Position,HomeTeamAbbr,VisitorTeamAbbr,Week,Stadium,Location,StadiumType,Turf,GameWeather,Temperature,Humidity,WindSpeed,WindDirection
69960,2019100608,20191006081944,away,84.48,30.53,4.26,1.8,0.42,275.69,289.45,2506404,Frank Gore,20,2019,30,3,14:33:00,BUF,2,5,BUF,0,7,2506404,SINGLEBACK,"1 RB, 1 TE, 3 WR",7,"2 DL, 4 LB, 5 DB",left,2019-10-06T18:32:14.000Z,2019-10-06T18:32:13.000Z,5-9,212,05/14/1983,Miami,RB,TEN,BUF,5,Nissan Stadium,"Nashville, TN",Outdoors,Grass,Cloudy,77.0,71,13,S
69961,2019100608,20191006081944,away,79.79,17.93,3.24,1.66,0.32,259.44,252.95,2535698,Cole Beasley,10,2019,30,3,14:33:00,BUF,2,5,BUF,0,7,2506404,SINGLEBACK,"1 RB, 1 TE, 3 WR",7,"2 DL, 4 LB, 5 DB",left,2019-10-06T18:32:14.000Z,2019-10-06T18:32:13.000Z,5-8,174,04/26/1989,Southern Methodist,WR,TEN,BUF,5,Nissan Stadium,"Nashville, TN",Outdoors,Grass,Cloudy,77.0,71,13,S
69962,2019100608,20191006081944,away,78.73,10.98,2.87,0.67,0.28,262.47,270.51,2543847,John Brown,15,2019,30,3,14:33:00,BUF,2,5,BUF,0,7,2506404,SINGLEBACK,"1 RB, 1 TE, 3 WR",7,"2 DL, 4 LB, 5 DB",left,2019-10-06T18:32:14.000Z,2019-10-06T18:32:13.000Z,5-11,179,04/03/1990,Pittsburg State,WR,TEN,BUF,5,Nissan Stadium,"Nashville, TN",Outdoors,Grass,Cloudy,77.0,71,13,S
69963,2019100608,20191006081944,away,79.15,31.5,1.53,0.78,0.16,262.08,268.26,2550140,Spencer Long,61,2019,30,3,14:33:00,BUF,2,5,BUF,0,7,2506404,SINGLEBACK,"1 RB, 1 TE, 3 WR",7,"2 DL, 4 LB, 5 DB",left,2019-10-06T18:32:14.000Z,2019-10-06T18:32:13.000Z,6-5,318,11/08/1990,Nebraska,C,TEN,BUF,5,Nissan Stadium,"Nashville, TN",Outdoors,Grass,Cloudy,77.0,71,13,S
69964,2019100608,20191006081944,away,80.95,29.7,1.17,1.26,0.11,232.2,62.39,2552343,Jon Feliciano,76,2019,30,3,14:33:00,BUF,2,5,BUF,0,7,2506404,SINGLEBACK,"1 RB, 1 TE, 3 WR",7,"2 DL, 4 LB, 5 DB",left,2019-10-06T18:32:14.000Z,2019-10-06T18:32:13.000Z,6-4,323,02/10/1992,Miami,G,TEN,BUF,5,Nissan Stadium,"Nashville, TN",Outdoors,Grass,Cloudy,77.0,71,13,S
69965,2019100608,20191006081944,away,81.05,30.27,2.42,1.74,0.23,339.53,347.71,2553824,Quinton Spain,67,2019,30,3,14:33:00,BUF,2,5,BUF,0,7,2506404,SINGLEBACK,"1 RB, 1 TE, 3 WR",7,"2 DL, 4 LB, 5 DB",left,2019-10-06T18:32:14.000Z,2019-10-06T18:32:13.000Z,6-4,330,08/07/1991,West Virginia,G,TEN,BUF,5,Nissan Stadium,"Nashville, TN",Outdoors,Grass,Cloudy,77.0,71,13,S
69966,2019100608,20191006081944,away,79.28,35.47,4.38,2.42,0.43,257.14,219.6,2556836,Duke Williams,82,2019,30,3,14:33:00,BUF,2,5,BUF,0,7,2506404,SINGLEBACK,"1 RB, 1 TE, 3 WR",7,"2 DL, 4 LB, 5 DB",left,2019-10-06T18:32:14.000Z,2019-10-06T18:32:13.000Z,6-3,225,05/13/1993,Auburn,WR,TEN,BUF,5,Nissan Stadium,"Nashville, TN",Outdoors,Grass,Cloudy,77.0,71,13,S
69967,2019100608,20191006081944,away,82.75,26.68,1.86,0.95,0.19,206.66,91.53,2557875,Dion Dawkins,73,2019,30,3,14:33:00,BUF,2,5,BUF,0,7,2506404,SINGLEBACK,"1 RB, 1 TE, 3 WR",7,"2 DL, 4 LB, 5 DB",left,2019-10-06T18:32:14.000Z,2019-10-06T18:32:13.000Z,6-5,320,04/26/1994,Temple,T,TEN,BUF,5,Nissan Stadium,"Nashville, TN",Outdoors,Grass,Cloudy,77.0,71,13,S
69968,2019100608,20191006081944,away,84.37,29.69,4.08,0.79,0.4,38.16,95.14,2560955,Josh Allen,17,2019,30,3,14:33:00,BUF,2,5,BUF,0,7,2506404,SINGLEBACK,"1 RB, 1 TE, 3 WR",7,"2 DL, 4 LB, 5 DB",left,2019-10-06T18:32:14.000Z,2019-10-06T18:32:13.000Z,6-5,237,05/21/1996,Wyoming,QB,TEN,BUF,5,Nissan Stadium,"Nashville, TN",Outdoors,Grass,Cloudy,77.0,71,13,S
69969,2019100608,20191006081944,away,80.64,31.83,0.7,0.71,0.07,229.66,205.19,2562266,Cody Ford,70,2019,30,3,14:33:00,BUF,2,5,BUF,0,7,2506404,SINGLEBACK,"1 RB, 1 TE, 3 WR",7,"2 DL, 4 LB, 5 DB",left,2019-10-06T18:32:14.000Z,2019-10-06T18:32:13.000Z,6-3,329,12/28/1996,Oklahoma,T,TEN,BUF,5,Nissan Stadium,"Nashville, TN",Outdoors,Grass,Cloudy,77.0,71,13,S
69970,2019100608,20191006081944,away,80.37,34.38,1.16,1.29,0.11,297.38,237.84,2562681,Dawson Knox,88,2019,30,3,14:33:00,BUF,2,5,BUF,0,7,2506404,SINGLEBACK,"1 RB, 1 TE, 3 WR",7,"2 DL, 4 LB, 5 DB",left,2019-10-06T18:32:14.000Z,2019-10-06T18:32:13.000Z,6-4,254,11/14/1996,Mississippi,TE,TEN,BUF,5,Nissan Stadium,"Nashville, TN",Outdoors,Grass,Cloudy,77.0,71,13,S
69971,2019100608,20191006081944,home,80.58,31.8,0.55,1.0,0.08,23.59,122.73,2495476,Jurrell Casey,99,2019,30,3,14:33:00,BUF,2,5,BUF,0,7,2506404,SINGLEBACK,"1 RB, 1 TE, 3 WR",7,"2 DL, 4 LB, 5 DB",left,2019-10-06T18:32:14.000Z,2019-10-06T18:32:13.000Z,6-1,305,12/05/1989,Southern California,DT,TEN,BUF,5,Nissan Stadium,"Nashville, TN",Outdoors,Grass,Cloudy,77.0,71,13,S
69972,2019100608,20191006081944,home,64.17,26.67,1.62,0.71,0.16,87.32,303.24,2539320,Kenny Vaccaro,24,2019,30,3,14:33:00,BUF,2,5,BUF,0,7,2506404,SINGLEBACK,"1 RB, 1 TE, 3 WR",7,"2 DL, 4 LB, 5 DB",left,2019-10-06T18:32:14.000Z,2019-10-06T18:32:13.000Z,6-0,214,02/15/1991,Texas,SS,TEN,BUF,5,Nissan Stadium,"Nashville, TN",Outdoors,Grass,Cloudy,77.0,71,13,S
69973,2019100608,20191006081944,home,78.27,17.81,2.11,1.18,0.2,89.9,216.93,2540162,Logan Ryan,26,2019,30,3,14:33:00,BUF,2,5,BUF,0,7,2506404,SINGLEBACK,"1 RB, 1 TE, 3 WR",7,"2 DL, 4 LB, 5 DB",left,2019-10-06T18:32:14.000Z,2019-10-06T18:32:13.000Z,5-11,195,02/09/1991,Rutgers,CB,TEN,BUF,5,Nissan Stadium,"Nashville, TN",Outdoors,Grass,Cloudy,77.0,71,13,S
69974,2019100608,20191006081944,home,80.04,29.1,0.95,2.0,0.1,100.79,36.0,2543504,DaQuan Jones,90,2019,30,3,14:33:00,BUF,2,5,BUF,0,7,2506404,SINGLEBACK,"1 RB, 1 TE, 3 WR",7,"2 DL, 4 LB, 5 DB",left,2019-10-06T18:32:14.000Z,2019-10-06T18:32:13.000Z,6-4,322,12/27/1991,Penn State,DE,TEN,BUF,5,Nissan Stadium,"Nashville, TN",Outdoors,Grass,Cloudy,77.0,71,13,S
69975,2019100608,20191006081944,home,77.54,11.09,1.76,0.6,0.17,82.18,267.04,2550613,Malcolm Butler,21,2019,30,3,14:33:00,BUF,2,5,BUF,0,7,2506404,SINGLEBACK,"1 RB, 1 TE, 3 WR",7,"2 DL, 4 LB, 5 DB",left,2019-10-06T18:32:14.000Z,2019-10-06T18:32:13.000Z,5-11,190,03/02/1990,West Alabama,CB,TEN,BUF,5,Nissan Stadium,"Nashville, TN",Outdoors,Grass,Cloudy,77.0,71,13,S
69976,2019100608,20191006081944,home,76.34,33.64,3.44,0.89,0.34,104.61,106.77,2555158,Kevin Byard,31,2019,30,3,14:33:00,BUF,2,5,BUF,0,7,2506404,SINGLEBACK,"1 RB, 1 TE, 3 WR",7,"2 DL, 4 LB, 5 DB",left,2019-10-06T18:32:14.000Z,2019-10-06T18:32:13.000Z,5-11,212,08/17/1993,Middle Tennessee,FS,TEN,BUF,5,Nissan Stadium,"Nashville, TN",Outdoors,Grass,Cloudy,77.0,71,13,S
69977,2019100608,20191006081944,home,79.89,34.97,0.58,1.63,0.06,171.66,152.53,2556537,Reggie Gilbert,93,2019,30,3,14:33:00,BUF,2,5,BUF,0,7,2506404,SINGLEBACK,"1 RB, 1 TE, 3 WR",7,"2 DL, 4 LB, 5 DB",left,2019-10-06T18:32:14.000Z,2019-10-06T18:32:13.000Z,6-4,261,04/01/1993,Arizona,LB,TEN,BUF,5,Nissan Stadium,"Nashville, TN",Outdoors,Grass,Cloudy,77.0,71,13,S
69978,2019100608,20191006081944,home,76.22,28.18,1.83,1.92,0.17,82.17,30.69,2558005,Jayon Brown,55,2019,30,3,14:33:00,BUF,2,5,BUF,0,7,2506404,SINGLEBACK,"1 RB, 1 TE, 3 WR",7,"2 DL, 4 LB, 5 DB",left,2019-10-06T18:32:14.000Z,2019-10-06T18:32:13.000Z,6-0,226,02/26/1995,UCLA,ILB,TEN,BUF,5,Nissan Stadium,"Nashville, TN",Outdoors,Grass,Cloudy,77.0,71,13,S
69979,2019100608,20191006081944,home,77.76,36.86,2.04,0.79,0.21,80.09,204.33,2558065,Adoree' Jackson,25,2019,30,3,14:33:00,BUF,2,5,BUF,0,7,2506404,SINGLEBACK,"1 RB, 1 TE, 3 WR",7,"2 DL, 4 LB, 5 DB",left,2019-10-06T18:32:14.000Z,2019-10-06T18:32:13.000Z,5-11,185,09/18/1995,Southern California,CB,TEN,BUF,5,Nissan Stadium,"Nashville, TN",Outdoors,Grass,Cloudy,77.0,71,13,S
69980,2019100608,20191006081944,home,77.29,31.38,2.87,2.17,0.27,90.04,54.96,2560718,Rashaan Evans,54,2019,30,3,14:33:00,BUF,2,5,BUF,0,7,2506404,SINGLEBACK,"1 RB, 1 TE, 3 WR",7,"2 DL, 4 LB, 5 DB",left,2019-10-06T18:32:14.000Z,2019-10-06T18:32:13.000Z,6-2,234,11/08/1995,Alabama,LB,TEN,BUF,5,Nissan Stadium,"Nashville, TN",Outdoors,Grass,Cloudy,77.0,71,13,S
69981,2019100608,20191006081944,home,81.98,25.74,1.98,3.78,0.21,29.95,72.68,2560784,Harold Landry,58,2019,30,3,14:33:00,BUF,2,5,BUF,0,7,2506404,SINGLEBACK,"1 RB, 1 TE, 3 WR",7,"2 DL, 4 LB, 5 DB",left,2019-10-06T18:32:14.000Z,2019-10-06T18:32:13.000Z,6-2,250,06/05/1996,Boston College,OLB,TEN,BUF,5,Nissan Stadium,"Nashville, TN",Outdoors,Grass,Cloudy,77.0,71,13,S
