,GameId,PlayId,Team,X,Y,S,A,Dis,Orientation,Dir,NflId,DisplayName,JerseyNumber,Season,YardLine,Quarter,GameClock,PossessionTeam,Down,Distance,FieldPosition,HomeScoreBeforePlay,VisitorScoreBeforePlay,NflIdRusher,OffenseFormation,OffensePersonnel,DefendersInTheBox,DefensePersonnel,PlayDirection,TimeHandoff,TimeSnap,PlayerHeight,PlayerWeight,PlayerBirthDate,PlayerCollegeName,Position,HomeTeamAbbr,VisitorTeamAbbr,Week,Stadium,Location,StadiumType,Turf,GameWeather,Temperature,Humidity,WindSpeed,WindDirection
27544,2019091511,20190915112900,away,30.95,9.84,2.71,0.91,0.27,23.44,203.05,2495108,Prince Amukamara,20,2019,25,4,14:28:00,DEN,1,10,CHI,3,13,2560733,SINGLEBACK,"1 RB, 1 TE, 3 WR",6,"2 DL, 4 LB, 5 DB",left,2019-09-15T22:32:32.000Z,2019-09-15T22:32:30.000Z,6-0,204,06/06/1989,Nebraska,CB,DEN,CHI,2,Empower Field at Mile High,Denver CO,Outdoor,Grass,Mostly Sunny,87.0,14,3,East
27545,2019091511,20190915112900,away,30.15,33.07,5.3,2.22,0.52,139.57,177.38,2495343,Buster Skrine,24,2019,25,4,14:28:00,DEN,1,10,CHI,3,13,2560733,SINGLEBACK,"1 RB, 1 TE, 3 WR",6,"2 DL, 4 LB, 5 DB",left,2019-09-15T22:32:32.000Z,2019-09-15T22:32:30.000Z,5-9,185,04/26/1989,Chattanooga,CB,DEN,CHI,2,Empower Field at Mile High,Denver CO,Outdoor,Grass,Mostly Sunny,87.0,14,3,East
27546,2019091511,20190915112900,away,30.39,23.65,3.15,0.92,0.31,87.21,189.28,2532961,Danny Trevathan,59,2019,25,4,14:28:00,DEN,1,10,CHI,3,13,2560733,SINGLEBACK,"1 RB, 1 TE, 3 WR",6,"2 DL, 4 LB, 5 DB",left,2019-09-15T22:32:32.000Z,2019-09-15T22:32:30.000Z,6-0,239,03/24/1990,Kentucky,ILB,DEN,CHI,2,Empower Field at Mile High,Denver CO,Outdoor,Grass,Mostly Sunny,87.0,14,3,East
27547,2019091511,20190915112900,away,33.48,22.93,3.07,1.07,0.31,128.6,205.03,2533433,Akiem Hicks,96,2019,25,4,14:28:00,DEN,1,10,CHI,3,13,2560733,SINGLEBACK,"1 RB, 1 TE, 3 WR",6,"2 DL, 4 LB, 5 DB",left,2019-09-15T22:32:32.000Z,2019-09-15T22:32:30.000Z,6-4,352,11/16/1989,"Regina, Can.",DT,DEN,CHI,2,Empower Field at Mile High,Denver CO,Outdoor,Grass,Mostly Sunny,87.0,14,3,East
27548,2019091511,20190915112900,away,35.48,19.85,3.37,1.56,0.33,155.11,175.0,2541479,Nick Williams,97,2019,25,4,14:28:00,DEN,1,10,CHI,3,13,2560733,SINGLEBACK,"1 RB, 1 TE, 3 WR",6,"2 DL, 4 LB, 5 DB",left,2019-09-15T22:32:32.000Z,2019-09-15T22:32:30.000Z,6-4,309,02/21/1990,Samford,DT,DEN,CHI,2,Empower Field at Mile High,Denver CO,Outdoor,Grass,Mostly Sunny,87.0,14,3,East
27549,2019091511,20190915112900,away,36.74,17.82,2.35,2.85,0.24,51.45,137.21,2543463,Khalil Mack,52,2019,25,4,14:28:00,DEN,1,10,CHI,3,13,2560733,SINGLEBACK,"1 RB, 1 TE, 3 WR",6,"2 DL, 4 LB, 5 DB",left,2019-09-15T22:32:32.000Z,2019-09-15T22:32:30.000Z,6-3,269,02/22/1991,Buffalo,OLB,DEN,CHI,2,Empower Field at Mile High,Denver CO,Outdoor,Grass,Mostly Sunny,87.0,14,3,East
27550,2019091511,20190915112900,away,21.97,17.37,2.11,3.17,0.2,101.16,188.13,2543470,Ha Ha Clinton-Dix,21,2019,25,4,14:28:00,DEN,1,10,CHI,3,13,2560733,SINGLEBACK,"1 RB, 1 TE, 3 WR",6,"2 DL, 4 LB, 5 DB",left,2019-09-15T22:32:32.000Z,2019-09-15T22:32:30.000Z,6-1,211,12/21/1992,Alabama,FS,DEN,CHI,2,Empower Field at Mile High,Denver CO,Outdoor,Grass,Mostly Sunny,87.0,14,3,East
27551,2019091511,20190915112900,away,28.54,43.39,1.51,2.27,0.15,130.0,130.05,2543681,Kyle Fuller,23,2019,25,4,14:28:00,DEN,1,10,CHI,3,13,2560733,SINGLEBACK,"1 RB, 1 TE, 3 WR",6,"2 DL, 4 LB, 5 DB",left,2019-09-15T22:32:32.000Z,2019-09-15T22:32:30.000Z,5-11,194,02/16/1992,Virginia Tech,CB,DEN,CHI,2,Empower Field at Mile High,Denver CO,Outdoor,Grass,Mostly Sunny,87.0,14,3,East
27552,2019091511,20190915112900,away,36.15,27.37,3.91,0.64,0.39,161.98,153.02,2555285,Leonard Floyd,94,2019,25,4,14:28:00,DEN,1,10,CHI,3,13,2560733,SINGLEBACK,"1 RB, 1 TE, 3 WR",6,"2 DL, 4 LB, 5 DB",left,2019-09-15T22:32:32.000Z,2019-09-15T22:32:30.000Z,6-5,240,09/08/1992,Georgia,OLB,DEN,CHI,2,Empower Field at Mile High,Denver CO,Outdoor,Grass,Mostly Sunny,87.0,14,3,East
27553,2019091511,20190915112900,away,17.01,32.33,2.81,1.76,0.28,98.24,301.27,2558176,Eddie Jackson,39,2019,25,4,14:28:00,DEN,1,10,CHI,3,13,2560733,SINGLEBACK,"1 RB, 1 TE, 3 WR",6,"2 DL, 4 LB, 5 DB",left,2019-09-15T22:32:32.000Z,2019-09-15T22:32:30.000Z,6-0,202,12/10/1993,Alabama,FS,DEN,CHI,2,Empower Field at Mile High,Denver CO,Outdoor,Grass,Mostly Sunny,87.0,14,3,East
27554,2019091511,20190915112900,away,30.83,20.0,4.1,2.62,0.4,114.44,173.07,2560877,Roquan Smith,58,2019,25,4,14:28:00,DEN,1,10,CHI,3,13,2560733,SINGLEBACK,"1 RB, 1 TE, 3 WR",6,"2 DL, 4 LB, 5 DB",left,2019-09-15T22:32:32.000Z,2019-09-15T22:32:30.000Z,6-0,230,04/08/1997,Georgia,LB,DEN,CHI,2,Empower Field at Mile High,Denver CO,Outdoor,Grass,Mostly Sunny,87.0,14,3,East
27555,2019091511,20190915112900,home,39.33,21.01,4.49,2.05,0.45,129.89,125.27,382,Joe Flacco,5,2019,25,4,14:28:00,DEN,1,10,CHI,3,13,2560733,SINGLEBACK,"1 RB, 1 TE, 3 WR",6,"2 DL, 4 LB, 5 DB",left,2019-09-15T22:32:32.000Z,2019-09-15T22:32:30.000Z,6-6,245,01/16/1985,Delaware,QB,DEN,CHI,2,Empower Field at Mile High,Denver CO,Outdoor,Grass,Mostly Sunny,87.0,14,3,East
27556,2019091511,20190915112900,home,33.32,41.23,5.47,1.62,0.54,252.84,248.6,497322,Emmanuel Sanders,10,2019,25,4,14:28:00,DEN,1,10,CHI,3,13,2560733,SINGLEBACK,"1 RB, 1 TE, 3 WR",6,"2 DL, 4 LB, 5 DB",left,2019-09-15T22:32:32.000Z,2019-09-15T22:32:30.000Z,5-11,180,03/17/1987,Southern Methodist,WR,DEN,CHI,2,Empower Field at Mile High,Denver CO,Outdoor,Grass,Mostly Sunny,87.0,14,3,East
27557,2019091511,20190915112900,home,33.9,21.69,4.37,0.6,0.45,272.84,218.13,2533454,Ronald Leary,65,2019,25,4,14:28:00,DEN,1,10,CHI,3,13,2560733,SINGLEBACK,"1 RB, 1 TE, 3 WR",6,"2 DL, 4 LB, 5 DB",left,2019-09-15T22:32:32.000Z,2019-09-15T22:32:30.000Z,6-3,320,04/29/1989,Memphis,G,DEN,CHI,2,Empower Field at Mile High,Denver CO,Outdoor,Grass,Mostly Sunny,87.0,14,3,East
27558,2019091511,20190915112900,home,36.22,19.8,4.15,0.64,0.42,243.09,173.49,2555133,Connor McGovern,60,2019,25,4,14:28:00,DEN,1,10,CHI,3,13,2560733,SINGLEBACK,"1 RB, 1 TE, 3 WR",6,"2 DL, 4 LB, 5 DB",left,2019-09-15T22:32:32.000Z,2019-09-15T22:32:30.000Z,6-4,306,04/27/1993,Missouri,G,DEN,CHI,2,Empower Field at Mile High,Denver CO,Outdoor,Grass,Mostly Sunny,87.0,14,3,East
27559,2019091511,20190915112900,home,36.9,18.87,1.5,0.72,0.15,158.69,155.78,2558014,Garett Bolles,72,2019,25,4,14:28:00,DEN,1,10,CHI,3,13,2560733,SINGLEBACK,"1 RB, 1 TE, 3 WR",6,"2 DL, 4 LB, 5 DB",left,2019-09-15T22:32:32.000Z,2019-09-15T22:32:30.000Z,6-5,300,05/27/1992,Utah,T,DEN,CHI,2,Empower Field at Mile High,Denver CO,Outdoor,Grass,Mostly Sunny,87.0,14,3,East
27560,2019091511,20190915112900,home,35.86,22.71,4.21,1.35,0.43,221.01,197.07,2559295,Elijah Wilkinson,68,2019,25,4,14:28:00,DEN,1,10,CHI,3,13,2560733,SINGLEBACK,"1 RB, 1 TE, 3 WR",6,"2 DL, 4 LB, 5 DB",left,2019-09-15T22:32:32.000Z,2019-09-15T22:32:30.000Z,6-6,329,02/10/1995,Massachusetts,T,DEN,CHI,2,Empower Field at Mile High,Denver CO,Outdoor,Grass,Mostly Sunny,87.0,14,3,East
27561,2019091511,20190915112900,home,40.78,20.39,5.38,1.43,0.54,235.68,211.04,2560733,Royce Freeman,28,2019,25,4,14:28:00,DEN,1,10,CHI,3,13,2560733,SINGLEBACK,"1 RB, 1 TE, 3 WR",6,"2 DL, 4 LB, 5 DB",left,2019-09-15T22:32:32.000Z,2019-09-15T22:32:30.000Z,6-0,238,02/24/1996,Oregon,RB,DEN,CHI,2,Empower Field at Mile High,Denver CO,Outdoor,Grass,Mostly Sunny,87.0,14,3,East
27562,2019091511,20190915112900,home,33.47,13.67,4.32,2.43,0.42,244.64,228.51,2560888,Courtland Sutton,14,2019,25,4,14:28:00,DEN,1,10,CHI,3,13,2560733,SINGLEBACK,"1 RB, 1 TE, 3 WR",6,"2 DL, 4 LB, 5 DB",left,2019-09-15T22:32:32.000Z,2019-09-15T22:32:30.000Z,6-4,216,10/10/1995,Southern Methodist,WR,DEN,CHI,2,Empower Field at Mile High,Denver CO,Outdoor,Grass,Mostly Sunny,87.0,14,3,East
27563,2019091511,20190915112900,home,33.29,33.22,5.83,3.34,0.57,218.07,211.5,2561002,DaeSean Hamilton,17,2019,25,4,14:28:00,DEN,1,10,CHI,3,13,2560733,SINGLEBACK,"1 RB, 1 TE, 3 WR",6,"2 DL, 4 LB, 5 DB",left,2019-09-15T22:32:32.000Z,2019-09-15T22:32:30.000Z,6-1,206,03/10/1995,Penn State,WR,DEN,CHI,2,Empower Field at Mile High,Denver CO,Outdoor,Grass,Mostly Sunny,87.0,14,3,East
27564,2019091511,20190915112900,home,36.07,26.67,2.39,1.07,0.23,333.87,221.58,2562383,Noah Fant,87,2019,25,4,14:28:00,DEN,1,10,CHI,3,13,2560733,SINGLEBACK,"1 RB, 1 TE, 3 WR",6,"2 DL, 4 LB, 5 DB",left,2019-09-15T22:32:32.000Z,2019-09-15T22:32:30.000Z,6-4,249,11/20/1997,Iowa,TE,DEN,CHI,2,Empower Field at Mile High,Denver CO,Outdoor,Grass,Mostly Sunny,87.0,14,3,East
27565,2019091511,20190915112900,home,35.7,18.79,3.9,0.29,0.43,264.56,186.97,2562714,Dalton Risner,66,2019,25,4,14:28:00,DEN,1,10,CHI,3,13,2560733,SINGLEBACK,"1 RB, 1 TE, 3 WR",6,"2 DL, 4 LB, 5 DB",left,2019-09-15T22:32:32.000Z,2019-09-15T22:32:30.000Z,6-5,312,07/13/1995,Kansas State,G,DEN,CHI,2,Empower Field at Mile High,Denver CO,Outdoor,Grass,Mostly Sunny,87.0,14,3,East
