,GameId,PlayId,Team,X,Y,S,A,Dis,Orientation,Dir,NflId,DisplayName,JerseyNumber,Season,YardLine,Quarter,GameClock,PossessionTeam,Down,Distance,FieldPosition,HomeScoreBeforePlay,VisitorScoreBeforePlay,NflIdRusher,OffenseFormation,OffensePersonnel,DefendersInTheBox,DefensePersonnel,PlayDirection,TimeHandoff,TimeSnap,PlayerHeight,PlayerWeight,PlayerBirthDate,PlayerCollegeName,Position,HomeTeamAbbr,VisitorTeamAbbr,Week,Stadium,Location,StadiumType,Turf,GameWeather,Temperature,Humidity,WindSpeed,WindDirection
32802,2019092201,20190922012386,away,37.17,34.58,3.92,1.19,0.39,232.26,192.23,2543724,Walt Aikens,35,2019,25,3,15:00:00,DAL,1,10,DAL,10,6,2562699,SINGLEBACK,"1 RB, 1 TE, 3 WR",6,"3 DL, 3 LB, 5 DB",right,2019-09-22T18:47:04.000Z,2019-09-22T18:47:03.000Z,6-1,200,06/19/1991,Liberty,CB,DAL,MIA,3,AT&T Stadium,"Arlington, Texas",indoor,Artificial,,,0,,
32803,2019092201,20190922012386,away,38.85,17.01,1.47,1.32,0.18,281.62,82.35,2552255,Eric Rowe,21,2019,25,3,15:00:00,DAL,1,10,DAL,10,6,2562699,SINGLEBACK,"1 RB, 1 TE, 3 WR",6,"3 DL, 3 LB, 5 DB",right,2019-09-22T18:47:04.000Z,2019-09-22T18:47:03.000Z,6-1,205,10/03/1992,Utah,CB,DAL,MIA,3,AT&T Stadium,"Arlington, Texas",indoor,Artificial,,,0,,
32804,2019092201,20190922012386,away,49.64,27.49,0.99,2.67,0.09,261.96,189.79,2552434,Bobby McCain,28,2019,25,3,15:00:00,DAL,1,10,DAL,10,6,2562699,SINGLEBACK,"1 RB, 1 TE, 3 WR",6,"3 DL, 3 LB, 5 DB",right,2019-09-22T18:47:04.000Z,2019-09-22T18:47:03.000Z,5-11,192,08/18/1993,Memphis,CB,DAL,MIA,3,AT&T Stadium,"Arlington, Texas",indoor,Artificial,,,0,,
32805,2019092201,20190922012386,away,40.46,44.22,2.25,3.28,0.22,223.75,59.92,2555539,Xavien Howard,25,2019,25,3,15:00:00,DAL,1,10,DAL,10,6,2562699,SINGLEBACK,"1 RB, 1 TE, 3 WR",6,"3 DL, 3 LB, 5 DB",right,2019-09-22T18:47:04.000Z,2019-09-22T18:47:03.000Z,6-1,200,07/04/1993,Baylor,CB,DAL,MIA,3,AT&T Stadium,"Arlington, Texas",indoor,Artificial,,,0,,
32806,2019092201,20190922012386,away,33.88,25.97,0.93,2.04,0.1,355.58,196.5,2558001,Charles Harris,90,2019,25,3,15:00:00,DAL,1,10,DAL,10,6,2562699,SINGLEBACK,"1 RB, 1 TE, 3 WR",6,"3 DL, 3 LB, 5 DB",right,2019-09-22T18:47:04.000Z,2019-09-22T18:47:03.000Z,6-3,250,03/06/1995,Missouri,DE,DAL,MIA,3,AT&T Stadium,"Arlington, Texas",indoor,Artificial,,,0,,
32807,2019092201,20190922012386,away,35.06,30.08,1.92,0.98,0.2,236.27,168.02,2558012,Davon Godchaux,56,2019,25,3,15:00:00,DAL,1,10,DAL,10,6,2562699,SINGLEBACK,"1 RB, 1 TE, 3 WR",6,"3 DL, 3 LB, 5 DB",right,2019-09-22T18:47:04.000Z,2019-09-22T18:47:03.000Z,6-3,311,11/11/1994,Louisiana State,DT,DAL,MIA,3,AT&T Stadium,"Arlington, Texas",indoor,Artificial,,,0,,
32808,2019092201,20190922012386,away,34.95,32.95,3.0,1.28,0.29,255.84,171.35,2558031,Avery Moss,93,2019,25,3,15:00:00,DAL,1,10,DAL,10,6,2562699,SINGLEBACK,"1 RB, 1 TE, 3 WR",6,"3 DL, 3 LB, 5 DB",right,2019-09-22T18:47:04.000Z,2019-09-22T18:47:03.000Z,6-3,271,09/16/1994,Youngstown State,OLB,DAL,MIA,3,AT&T Stadium,"Arlington, Texas",indoor,Artificial,,,0,,
32809,2019092201,20190922012386,away,35.74,20.61,1.43,0.66,0.14,321.97,6.64,2559283,Jomal Wiltz,33,2019,25,3,15:00:00,DAL,1,10,DAL,10,6,2562699,SINGLEBACK,"1 RB, 1 TE, 3 WR",6,"3 DL, 3 LB, 5 DB",right,2019-09-22T18:47:04.000Z,2019-09-22T18:47:03.000Z,5-10,180,10/23/1994,Iowa State,CB,DAL,MIA,3,AT&T Stadium,"Arlington, Texas",indoor,Artificial,,,0,,
32810,2019092201,20190922012386,away,37.94,28.74,2.15,2.49,0.23,276.41,200.61,2560966,Jerome Baker,55,2019,25,3,15:00:00,DAL,1,10,DAL,10,6,2562699,SINGLEBACK,"1 RB, 1 TE, 3 WR",6,"3 DL, 3 LB, 5 DB",right,2019-09-22T18:47:04.000Z,2019-09-22T18:47:03.000Z,6-2,225,12/25/1996,Ohio State,LB,DAL,MIA,3,AT&T Stadium,"Arlington, Texas",indoor,Artificial,,,0,,
32811,2019092201,20190922012386,away,33.52,23.99,1.68,3.58,0.18,343.79,257.31,2562038,Sam Eguavoen,49,2019,25,3,15:00:00,DAL,1,10,DAL,10,6,2562699,SINGLEBACK,"1 RB, 1 TE, 3 WR",6,"3 DL, 3 LB, 5 DB",right,2019-09-22T18:47:04.000Z,2019-09-22T18:47:03.000Z,6-0,236,02/22/1993,Texas Tech,LB,DAL,MIA,3,AT&T Stadium,"Arlington, Texas",indoor,Artificial,,,0,,
32812,2019092201,20190922012386,away,34.58,27.1,2.05,1.85,0.21,73.71,178.39,2562782,Christian Wilkins,94,2019,25,3,15:00:00,DAL,1,10,DAL,10,6,2562699,SINGLEBACK,"1 RB, 1 TE, 3 WR",6,"3 DL, 3 LB, 5 DB",right,2019-09-22T18:47:04.000Z,2019-09-22T18:47:03.000Z,6-4,315,12/20/1995,Clemson,DT,DAL,MIA,3,AT&T Stadium,"Arlington, Texas",indoor,Artificial,,,0,,
32813,2019092201,20190922012386,home,35.25,30.79,2.03,1.87,0.21,176.02,158.05,2495435,Tyron Smith,77,2019,25,3,15:00:00,DAL,1,10,DAL,10,6,2562699,SINGLEBACK,"1 RB, 1 TE, 3 WR",6,"3 DL, 3 LB, 5 DB",right,2019-09-22T18:47:04.000Z,2019-09-22T18:47:03.000Z,6-5,320,12/12/1990,Southern California,T,DAL,MIA,3,AT&T Stadium,"Arlington, Texas",indoor,Artificial,,,0,,
32814,2019092201,20190922012386,home,35.61,21.2,2.42,1.88,0.25,176.06,40.33,2495448,Randall Cobb,18,2019,25,3,15:00:00,DAL,1,10,DAL,10,6,2562699,SINGLEBACK,"1 RB, 1 TE, 3 WR",6,"3 DL, 3 LB, 5 DB",right,2019-09-22T18:47:04.000Z,2019-09-22T18:47:03.000Z,5-10,192,08/22/1990,Kentucky,WR,DAL,MIA,3,AT&T Stadium,"Arlington, Texas",indoor,Artificial,,,0,,
32815,2019092201,20190922012386,home,34.69,32.35,3.09,0.99,0.3,78.45,171.3,2505629,Jason Witten,82,2019,25,3,15:00:00,DAL,1,10,DAL,10,6,2562699,SINGLEBACK,"1 RB, 1 TE, 3 WR",6,"3 DL, 3 LB, 5 DB",right,2019-09-22T18:47:04.000Z,2019-09-22T18:47:03.000Z,6-6,263,05/06/1982,Tennessee,TE,DAL,MIA,3,AT&T Stadium,"Arlington, Texas",indoor,Artificial,,,0,,
32816,2019092201,20190922012386,home,34.0,27.28,2.09,1.2,0.21,240.6,183.69,2540161,Travis Frederick,72,2019,25,3,15:00:00,DAL,1,10,DAL,10,6,2562699,SINGLEBACK,"1 RB, 1 TE, 3 WR",6,"3 DL, 3 LB, 5 DB",right,2019-09-22T18:47:04.000Z,2019-09-22T18:47:03.000Z,6-4,320,03/18/1991,Wisconsin,C,DAL,MIA,3,AT&T Stadium,"Arlington, Texas",indoor,Artificial,,,0,,
32817,2019092201,20190922012386,home,33.53,26.64,1.3,0.57,0.14,123.23,194.63,2543480,Zack Martin,70,2019,25,3,15:00:00,DAL,1,10,DAL,10,6,2562699,SINGLEBACK,"1 RB, 1 TE, 3 WR",6,"3 DL, 3 LB, 5 DB",right,2019-09-22T18:47:04.000Z,2019-09-22T18:47:03.000Z,6-4,315,11/20/1990,Notre Dame,G,DAL,MIA,3,AT&T Stadium,"Arlington, Texas",indoor,Artificial,,,0,,
32818,2019092201,20190922012386,home,36.16,43.95,5.43,2.85,0.53,87.64,95.21,2552487,Amari Cooper,19,2019,25,3,15:00:00,DAL,1,10,DAL,10,6,2562699,SINGLEBACK,"1 RB, 1 TE, 3 WR",6,"3 DL, 3 LB, 5 DB",right,2019-09-22T18:47:04.000Z,2019-09-22T18:47:03.000Z,6-1,211,06/17/1994,Alabama,WR,DAL,MIA,3,AT&T Stadium,"Arlington, Texas",indoor,Artificial,,,0,,
32819,2019092201,20190922012386,home,35.99,19.0,3.97,0.86,0.4,104.38,83.91,2553434,Devin Smith,15,2019,25,3,15:00:00,DAL,1,10,DAL,10,6,2562699,SINGLEBACK,"1 RB, 1 TE, 3 WR",6,"3 DL, 3 LB, 5 DB",right,2019-09-22T18:47:04.000Z,2019-09-22T18:47:03.000Z,6-1,199,03/03/1992,Ohio State,WR,DAL,MIA,3,AT&T Stadium,"Arlington, Texas",indoor,Artificial,,,0,,
32820,2019092201,20190922012386,home,33.0,24.86,1.96,0.56,0.21,151.85,187.48,2553505,La'el Collins,71,2019,25,3,15:00:00,DAL,1,10,DAL,10,6,2562699,SINGLEBACK,"1 RB, 1 TE, 3 WR",6,"3 DL, 3 LB, 5 DB",right,2019-09-22T18:47:04.000Z,2019-09-22T18:47:03.000Z,6-4,320,07/26/1993,Louisiana State,T,DAL,MIA,3,AT&T Stadium,"Arlington, Texas",indoor,Artificial,,,0,,
32821,2019092201,20190922012386,home,28.93,28.89,4.54,3.25,0.45,253.91,270.38,2555260,Dak Prescott,4,2019,25,3,15:00:00,DAL,1,10,DAL,10,6,2562699,SINGLEBACK,"1 RB, 1 TE, 3 WR",6,"3 DL, 3 LB, 5 DB",right,2019-09-22T18:47:04.000Z,2019-09-22T18:47:03.000Z,6-2,238,07/29/1993,Mississippi State,QB,DAL,MIA,3,AT&T Stadium,"Arlington, Texas",indoor,Artificial,,,0,,
32822,2019092201,20190922012386,home,34.95,29.73,2.27,0.53,0.23,15.83,168.83,2560934,Connor Williams,52,2019,25,3,15:00:00,DAL,1,10,DAL,10,6,2562699,SINGLEBACK,"1 RB, 1 TE, 3 WR",6,"3 DL, 3 LB, 5 DB",right,2019-09-22T18:47:04.000Z,2019-09-22T18:47:03.000Z,6-5,298,05/12/1997,Texas,G,DAL,MIA,3,AT&T Stadium,"Arlington, Texas",indoor,Artificial,,,0,,
32823,2019092201,20190922012386,home,29.46,27.96,3.94,2.89,0.39,89.78,111.31,2562699,Tony Pollard,20,2019,25,3,15:00:00,DAL,1,10,DAL,10,6,2562699,SINGLEBACK,"1 RB, 1 TE, 3 WR",6,"3 DL, 3 LB, 5 DB",right,2019-09-22T18:47:04.000Z,2019-09-22T18:47:03.000Z,6-0,209,04/30/1997,Memphis,RB,DAL,MIA,3,AT&T Stadium,"Arlington, Texas",indoor,Artificial,,,0,,
