,GameId,PlayId,Team,X,Y,S,A,Dis,Orientation,Dir,NflId,DisplayName,JerseyNumber,Season,YardLine,Quarter,GameClock,PossessionTeam,Down,Distance,FieldPosition,HomeScoreBeforePlay,VisitorScoreBeforePlay,NflIdRusher,OffenseFormation,OffensePersonnel,DefendersInTheBox,DefensePersonnel,PlayDirection,TimeHandoff,TimeSnap,PlayerHeight,PlayerWeight,PlayerBirthDate,PlayerCollegeName,Position,HomeTeamAbbr,VisitorTeamAbbr,Week,Stadium,Location,StadiumType,Turf,GameWeather,Temperature,Humidity,WindSpeed,WindDirection
39292,2019092207,20190922072754,away,35.69,36.98,4.1,3.23,0.4,97.89,6.83,2649,Danny Amendola,80,2019,28,3,04:06:00,DET,2,7,DET,17,20,2562293,SHOTGUN,"1 RB, 1 TE, 3 WR",7,"4 DL, 2 LB, 5 DB",right,2019-09-22T19:14:41.000Z,2019-09-22T19:14:40.000Z,5-11,185,11/02/1985,Texas Tech,WR,PHI,DET,3,Lincoln Financial Field,"Philadelphia, Pa.",Outdoor,Grass,Sunny,84.0,53,7,SSW
39293,2019092207,20190922072754,away,32.47,24.12,0.65,2.29,0.06,101.51,113.96,79860,Matthew Stafford,9,2019,28,3,04:06:00,DET,2,7,DET,17,20,2562293,SHOTGUN,"1 RB, 1 TE, 3 WR",7,"4 DL, 2 LB, 5 DB",right,2019-09-22T19:14:41.000Z,2019-09-22T19:14:40.000Z,6-3,220,02/07/1988,Georgia,QB,PHI,DET,3,Lincoln Financial Field,"Philadelphia, Pa.",Outdoor,Grass,Sunny,84.0,53,7,SSW
39294,2019092207,20190922072754,away,36.67,24.13,2.38,1.11,0.24,108.34,7.74,2530556,Kenny Wiggins,79,2019,28,3,04:06:00,DET,2,7,DET,17,20,2562293,SHOTGUN,"1 RB, 1 TE, 3 WR",7,"4 DL, 2 LB, 5 DB",right,2019-09-22T19:14:41.000Z,2019-09-22T19:14:40.000Z,6-6,314,08/08/1988,Fresno State,G,PHI,DET,3,Lincoln Financial Field,"Philadelphia, Pa.",Outdoor,Grass,Sunny,84.0,53,7,SSW
39295,2019092207,20190922072754,away,36.18,15.19,3.98,2.09,0.39,19.61,13.73,2532884,Marvin Jones,11,2019,28,3,04:06:00,DET,2,7,DET,17,20,2562293,SHOTGUN,"1 RB, 1 TE, 3 WR",7,"4 DL, 2 LB, 5 DB",right,2019-09-22T19:14:41.000Z,2019-09-22T19:14:40.000Z,6-2,198,03/12/1990,California,WR,PHI,DET,3,Lincoln Financial Field,"Philadelphia, Pa.",Outdoor,Grass,Sunny,84.0,53,7,SSW
39296,2019092207,20190922072754,away,36.25,22.67,1.96,0.62,0.22,88.72,358.35,2539340,Rick Wagner,71,2019,28,3,04:06:00,DET,2,7,DET,17,20,2562293,SHOTGUN,"1 RB, 1 TE, 3 WR",7,"4 DL, 2 LB, 5 DB",right,2019-09-22T19:14:41.000Z,2019-09-22T19:14:40.000Z,6-6,315,10/21/1989,Wisconsin,T,PHI,DET,3,Lincoln Financial Field,"Philadelphia, Pa.",Outdoor,Grass,Sunny,84.0,53,7,SSW
39297,2019092207,20190922072754,away,36.7,27.27,2.05,0.59,0.2,60.98,8.27,2555136,Joe Dahl,66,2019,28,3,04:06:00,DET,2,7,DET,17,20,2562293,SHOTGUN,"1 RB, 1 TE, 3 WR",7,"4 DL, 2 LB, 5 DB",right,2019-09-22T19:14:41.000Z,2019-09-22T19:14:40.000Z,6-4,310,04/09/1993,Washington State,G,PHI,DET,3,Lincoln Financial Field,"Philadelphia, Pa.",Outdoor,Grass,Sunny,84.0,53,7,SSW
39298,2019092207,20190922072754,away,36.28,28.89,1.88,2.54,0.19,9.91,330.77,2555206,Taylor Decker,68,2019,28,3,04:06:00,DET,2,7,DET,17,20,2562293,SHOTGUN,"1 RB, 1 TE, 3 WR",7,"4 DL, 2 LB, 5 DB",right,2019-09-22T19:14:41.000Z,2019-09-22T19:14:40.000Z,6-7,318,08/23/1993,Ohio State,T,PHI,DET,3,Lincoln Financial Field,"Philadelphia, Pa.",Outdoor,Grass,Sunny,84.0,53,7,SSW
39299,2019092207,20190922072754,away,37.55,43.72,2.53,2.08,0.24,270.06,88.3,2558052,Kenny Golladay,19,2019,28,3,04:06:00,DET,2,7,DET,17,20,2562293,SHOTGUN,"1 RB, 1 TE, 3 WR",7,"4 DL, 2 LB, 5 DB",right,2019-09-22T19:14:41.000Z,2019-09-22T19:14:40.000Z,6-4,213,11/03/1993,Northern Illinois,WR,PHI,DET,3,Lincoln Financial Field,"Philadelphia, Pa.",Outdoor,Grass,Sunny,84.0,53,7,SSW
39300,2019092207,20190922072754,away,37.22,24.75,1.5,2.27,0.16,89.99,349.56,2561142,Frank Ragnow,77,2019,28,3,04:06:00,DET,2,7,DET,17,20,2562293,SHOTGUN,"1 RB, 1 TE, 3 WR",7,"4 DL, 2 LB, 5 DB",right,2019-09-22T19:14:41.000Z,2019-09-22T19:14:40.000Z,6-5,311,05/17/1996,Arkansas,C,PHI,DET,3,Lincoln Financial Field,"Philadelphia, Pa.",Outdoor,Grass,Sunny,84.0,53,7,SSW
39301,2019092207,20190922072754,away,33.04,23.21,4.34,2.82,0.42,68.31,43.27,2562293,Ty Johnson,31,2019,28,3,04:06:00,DET,2,7,DET,17,20,2562293,SHOTGUN,"1 RB, 1 TE, 3 WR",7,"4 DL, 2 LB, 5 DB",right,2019-09-22T19:14:41.000Z,2019-09-22T19:14:40.000Z,5-10,210,09/17/1997,Maryland,RB,PHI,DET,3,Lincoln Financial Field,"Philadelphia, Pa.",Outdoor,Grass,Sunny,84.0,53,7,SSW
39302,2019092207,20190922072754,away,37.4,19.14,2.44,3.83,0.23,120.44,84.4,2562378,T.J. Hockenson,88,2019,28,3,04:06:00,DET,2,7,DET,17,20,2562293,SHOTGUN,"1 RB, 1 TE, 3 WR",7,"4 DL, 2 LB, 5 DB",right,2019-09-22T19:14:41.000Z,2019-09-22T19:14:40.000Z,6-5,248,07/03/1997,Iowa,TE,PHI,DET,3,Lincoln Financial Field,"Philadelphia, Pa.",Outdoor,Grass,Sunny,84.0,53,7,SSW
39303,2019092207,20190922072754,home,38.9,19.31,1.19,2.9,0.11,279.31,67.9,79848,Malcolm Jenkins,27,2019,28,3,04:06:00,DET,2,7,DET,17,20,2562293,SHOTGUN,"1 RB, 1 TE, 3 WR",7,"4 DL, 2 LB, 5 DB",right,2019-09-22T19:14:41.000Z,2019-09-22T19:14:40.000Z,6-0,204,12/20/1987,Ohio State,SS,PHI,DET,3,Lincoln Financial Field,"Philadelphia, Pa.",Outdoor,Grass,Sunny,84.0,53,7,SSW
39304,2019092207,20190922072754,home,38.96,25.48,4.18,1.86,0.41,284.96,298.7,2532800,Nigel Bradham,53,2019,28,3,04:06:00,DET,2,7,DET,17,20,2562293,SHOTGUN,"1 RB, 1 TE, 3 WR",7,"4 DL, 2 LB, 5 DB",right,2019-09-22T19:14:41.000Z,2019-09-22T19:14:40.000Z,6-2,241,09/04/1989,Florida State,OLB,PHI,DET,3,Lincoln Financial Field,"Philadelphia, Pa.",Outdoor,Grass,Sunny,84.0,53,7,SSW
39305,2019092207,20190922072754,home,36.5,18.29,3.4,2.44,0.33,307.51,300.39,2532804,Zach Brown,52,2019,28,3,04:06:00,DET,2,7,DET,17,20,2562293,SHOTGUN,"1 RB, 1 TE, 3 WR",7,"4 DL, 2 LB, 5 DB",right,2019-09-22T19:14:41.000Z,2019-09-22T19:14:40.000Z,6-1,251,10/23/1989,North Carolina,ILB,PHI,DET,3,Lincoln Financial Field,"Philadelphia, Pa.",Outdoor,Grass,Sunny,84.0,53,7,SSW
39306,2019092207,20190922072754,home,36.7,29.74,2.59,1.5,0.26,244.79,307.09,2532825,Vinny Curry,75,2019,28,3,04:06:00,DET,2,7,DET,17,20,2562293,SHOTGUN,"1 RB, 1 TE, 3 WR",7,"4 DL, 2 LB, 5 DB",right,2019-09-22T19:14:41.000Z,2019-09-22T19:14:40.000Z,6-3,279,06/30/1988,Marshall,DE,PHI,DET,3,Lincoln Financial Field,"Philadelphia, Pa.",Outdoor,Grass,Sunny,84.0,53,7,SSW
39307,2019092207,20190922072754,home,37.11,23.9,1.39,2.16,0.14,310.57,333.64,2533051,Fletcher Cox,91,2019,28,3,04:06:00,DET,2,7,DET,17,20,2562293,SHOTGUN,"1 RB, 1 TE, 3 WR",7,"4 DL, 2 LB, 5 DB",right,2019-09-22T19:14:41.000Z,2019-09-22T19:14:40.000Z,6-4,310,12/13/1990,Mississippi State,DT,PHI,DET,3,Lincoln Financial Field,"Philadelphia, Pa.",Outdoor,Grass,Sunny,84.0,53,7,SSW
39308,2019092207,20190922072754,home,51.84,27.86,1.54,3.1,0.14,252.99,262.3,2534832,Rodney McLeod,23,2019,28,3,04:06:00,DET,2,7,DET,17,20,2562293,SHOTGUN,"1 RB, 1 TE, 3 WR",7,"4 DL, 2 LB, 5 DB",right,2019-09-22T19:14:41.000Z,2019-09-22T19:14:40.000Z,5-10,195,06/23/1990,Virginia,FS,PHI,DET,3,Lincoln Financial Field,"Philadelphia, Pa.",Outdoor,Grass,Sunny,84.0,53,7,SSW
39309,2019092207,20190922072754,home,37.36,27.64,1.84,1.53,0.18,254.17,351.65,2540201,Akeem Spence,66,2019,28,3,04:06:00,DET,2,7,DET,17,20,2562293,SHOTGUN,"1 RB, 1 TE, 3 WR",7,"4 DL, 2 LB, 5 DB",right,2019-09-22T19:14:41.000Z,2019-09-22T19:14:40.000Z,6-1,307,11/29/1991,Illinois,DT,PHI,DET,3,Lincoln Financial Field,"Philadelphia, Pa.",Outdoor,Grass,Sunny,84.0,53,7,SSW
39310,2019092207,20190922072754,home,43.34,13.44,2.87,3.35,0.26,317.61,332.93,2557958,Sidney Jones,22,2019,28,3,04:06:00,DET,2,7,DET,17,20,2562293,SHOTGUN,"1 RB, 1 TE, 3 WR",7,"4 DL, 2 LB, 5 DB",right,2019-09-22T19:14:41.000Z,2019-09-22T19:14:40.000Z,6-0,181,05/21/1996,Washington,CB,PHI,DET,3,Lincoln Financial Field,"Philadelphia, Pa.",Outdoor,Grass,Sunny,84.0,53,7,SSW
39311,2019092207,20190922072754,home,41.39,43.21,1.0,2.12,0.1,266.0,11.38,2558168,Rasul Douglas,32,2019,28,3,04:06:00,DET,2,7,DET,17,20,2562293,SHOTGUN,"1 RB, 1 TE, 3 WR",7,"4 DL, 2 LB, 5 DB",right,2019-09-22T19:14:41.000Z,2019-09-22T19:14:40.000Z,6-2,209,08/29/1995,West Virginia,CB,PHI,DET,3,Lincoln Financial Field,"Philadelphia, Pa.",Outdoor,Grass,Sunny,84.0,53,7,SSW
39312,2019092207,20190922072754,home,38.97,35.71,2.15,1.77,0.2,266.05,27.11,2560795,Avonte Maddox,29,2019,28,3,04:06:00,DET,2,7,DET,17,20,2562293,SHOTGUN,"1 RB, 1 TE, 3 WR",7,"4 DL, 2 LB, 5 DB",right,2019-09-22T19:14:41.000Z,2019-09-22T19:14:40.000Z,5-9,184,03/31/1996,Pittsburgh,CB,PHI,DET,3,Lincoln Financial Field,"Philadelphia, Pa.",Outdoor,Grass,Sunny,84.0,53,7,SSW
39313,2019092207,20190922072754,home,36.49,22.33,1.89,2.48,0.19,302.68,341.46,2560889,Josh Sweat,94,2019,28,3,04:06:00,DET,2,7,DET,17,20,2562293,SHOTGUN,"1 RB, 1 TE, 3 WR",7,"4 DL, 2 LB, 5 DB",right,2019-09-22T19:14:41.000Z,2019-09-22T19:14:40.000Z,6-5,253,03/29/1997,Florida State,DE,PHI,DET,3,Lincoln Financial Field,"Philadelphia, Pa.",Outdoor,Grass,Sunny,84.0,53,7,SSW
