,GameId,PlayId,Team,X,Y,S,A,Dis,Orientation,Dir,NflId,DisplayName,JerseyNumber,Season,YardLine,Quarter,GameClock,PossessionTeam,Down,Distance,FieldPosition,HomeScoreBeforePlay,VisitorScoreBeforePlay,NflIdRusher,OffenseFormation,OffensePersonnel,DefendersInTheBox,DefensePersonnel,PlayDirection,TimeHandoff,TimeSnap,PlayerHeight,PlayerWeight,PlayerBirthDate,PlayerCollegeName,Position,HomeTeamAbbr,VisitorTeamAbbr,Week,Stadium,Location,StadiumType,Turf,GameWeather,Temperature,Humidity,WindSpeed,WindDirection
21208,2019091505,20190915051000,away,72.64,32.09,3.63,3.42,0.35,89.51,122.29,238498,Julian Edelman,11,2019,37,2,09:59:00,NE,1,10,MIA,0,7,2560809,SHOTGUN,"1 RB, 1 TE, 3 WR",6,"3 DL, 3 LB, 5 DB",right,2019-09-15T17:42:27.000Z,2019-09-15T17:42:26.000Z,5-10,200,05/22/1986,Kent State,WR,MIA,NE,2,Hard Rock Stadium,"Miami Gardens, FL",Outdoor,Natural Grass,Mostly Cloudy,87.0,67,4,S
21209,2019091505,20190915051000,away,71.2,27.27,1.36,1.34,0.14,17.11,270.05,497030,Marshall Newhouse,72,2019,37,2,09:59:00,NE,1,10,MIA,0,7,2560809,SHOTGUN,"1 RB, 1 TE, 3 WR",6,"3 DL, 3 LB, 5 DB",right,2019-09-15T17:42:27.000Z,2019-09-15T17:42:26.000Z,6-4,328,09/29/1988,Texas Christian,T,MIA,NE,2,Hard Rock Stadium,"Miami Gardens, FL",Outdoor,Natural Grass,Mostly Cloudy,87.0,67,4,S
21210,2019091505,20190915051000,away,68.19,24.09,0.94,1.08,0.09,338.38,259.11,2504211,Tom Brady,12,2019,37,2,09:59:00,NE,1,10,MIA,0,7,2560809,SHOTGUN,"1 RB, 1 TE, 3 WR",6,"3 DL, 3 LB, 5 DB",right,2019-09-15T17:42:27.000Z,2019-09-15T17:42:26.000Z,6-4,225,08/03/1977,Michigan,QB,MIA,NE,2,Hard Rock Stadium,"Miami Gardens, FL",Outdoor,Natural Grass,Mostly Cloudy,87.0,67,4,S
21211,2019091505,20190915051000,away,73.47,43.45,2.75,1.86,0.27,101.43,76.39,2508061,Antonio Brown,84,2019,37,2,09:59:00,NE,1,10,MIA,0,7,2560809,SHOTGUN,"1 RB, 1 TE, 3 WR",6,"3 DL, 3 LB, 5 DB",right,2019-09-15T17:42:27.000Z,2019-09-15T17:42:26.000Z,5-10,185,07/10/1988,Central Michigan,WR,MIA,NE,2,Hard Rock Stadium,"Miami Gardens, FL",Outdoor,Natural Grass,Mostly Cloudy,87.0,67,4,S
21212,2019091505,20190915051000,away,73.58,16.08,2.25,1.99,0.21,68.77,100.96,2537931,Josh Gordon,10,2019,37,2,09:59:00,NE,1,10,MIA,0,7,2560809,SHOTGUN,"1 RB, 1 TE, 3 WR",6,"3 DL, 3 LB, 5 DB",right,2019-09-15T17:42:27.000Z,2019-09-15T17:42:26.000Z,6-3,225,04/13/1991,Baylor,WR,MIA,NE,2,Hard Rock Stadium,"Miami Gardens, FL",Outdoor,Natural Grass,Mostly Cloudy,87.0,67,4,S
21213,2019091505,20190915051000,away,73.09,22.28,1.65,0.54,0.16,124.26,86.02,2552563,Shaq Mason,69,2019,37,2,09:59:00,NE,1,10,MIA,0,7,2560809,SHOTGUN,"1 RB, 1 TE, 3 WR",6,"3 DL, 3 LB, 5 DB",right,2019-09-15T17:42:27.000Z,2019-09-15T17:42:26.000Z,6-1,310,08/28/1993,Georgia Tech,G,MIA,NE,2,Hard Rock Stadium,"Miami Gardens, FL",Outdoor,Natural Grass,Mostly Cloudy,87.0,67,4,S
21214,2019091505,20190915051000,away,72.22,19.44,1.88,0.8,0.19,141.1,78.95,2553667,Matt LaCosse,83,2019,37,2,09:59:00,NE,1,10,MIA,0,7,2560809,SHOTGUN,"1 RB, 1 TE, 3 WR",6,"3 DL, 3 LB, 5 DB",right,2019-09-15T17:42:27.000Z,2019-09-15T17:42:26.000Z,6-6,255,09/21/1992,Illinois,TE,MIA,NE,2,Hard Rock Stadium,"Miami Gardens, FL",Outdoor,Natural Grass,Mostly Cloudy,87.0,67,4,S
21215,2019091505,20190915051000,away,73.17,24.95,1.07,1.42,0.11,35.58,59.42,2555145,Ted Karras,75,2019,37,2,09:59:00,NE,1,10,MIA,0,7,2560809,SHOTGUN,"1 RB, 1 TE, 3 WR",6,"3 DL, 3 LB, 5 DB",right,2019-09-15T17:42:27.000Z,2019-09-15T17:42:26.000Z,6-4,305,03/15/1993,Illinois,C,MIA,NE,2,Hard Rock Stadium,"Miami Gardens, FL",Outdoor,Natural Grass,Mostly Cloudy,87.0,67,4,S
21216,2019091505,20190915051000,away,71.66,24.06,2.89,1.26,0.3,191.47,178.16,2555281,Joe Thuney,62,2019,37,2,09:59:00,NE,1,10,MIA,0,7,2560809,SHOTGUN,"1 RB, 1 TE, 3 WR",6,"3 DL, 3 LB, 5 DB",right,2019-09-15T17:42:27.000Z,2019-09-15T17:42:26.000Z,6-5,308,11/18/1992,North Carolina State,G,MIA,NE,2,Hard Rock Stadium,"Miami Gardens, FL",Outdoor,Natural Grass,Mostly Cloudy,87.0,67,4,S
21217,2019091505,20190915051000,away,68.7,25.01,2.87,2.58,0.28,119.47,147.11,2560809,Sony Michel,26,2019,37,2,09:59:00,NE,1,10,MIA,0,7,2560809,SHOTGUN,"1 RB, 1 TE, 3 WR",6,"3 DL, 3 LB, 5 DB",right,2019-09-15T17:42:27.000Z,2019-09-15T17:42:26.000Z,5-11,215,02/17/1995,Georgia,RB,MIA,NE,2,Hard Rock Stadium,"Miami Gardens, FL",Outdoor,Natural Grass,Mostly Cloudy,87.0,67,4,S
21218,2019091505,20190915051000,away,72.65,21.54,2.02,0.78,0.21,55.84,57.52,2561058,Korey Cunningham,74,2019,37,2,09:59:00,NE,1,10,MIA,0,7,2560809,SHOTGUN,"1 RB, 1 TE, 3 WR",6,"3 DL, 3 LB, 5 DB",right,2019-09-15T17:42:27.000Z,2019-09-15T17:42:26.000Z,6-6,305,05/17/1995,Cincinnati,T,MIA,NE,2,Hard Rock Stadium,"Miami Gardens, FL",Outdoor,Natural Grass,Mostly Cloudy,87.0,67,4,S
21219,2019091505,20190915051000,home,73.24,18.8,1.02,0.53,0.1,307.88,300.87,2539224,Tank Carradine,92,2019,37,2,09:59:00,NE,1,10,MIA,0,7,2560809,SHOTGUN,"1 RB, 1 TE, 3 WR",6,"3 DL, 3 LB, 5 DB",right,2019-09-15T17:42:27.000Z,2019-09-15T17:42:26.000Z,6-4,270,02/18/1990,Florida State,DE,MIA,NE,2,Hard Rock Stadium,"Miami Gardens, FL",Outdoor,Natural Grass,Mostly Cloudy,87.0,67,4,S
21220,2019091505,20190915051000,home,73.62,25.71,0.47,1.79,0.04,237.08,64.1,2539231,John Jenkins,95,2019,37,2,09:59:00,NE,1,10,MIA,0,7,2560809,SHOTGUN,"1 RB, 1 TE, 3 WR",6,"3 DL, 3 LB, 5 DB",right,2019-09-15T17:42:27.000Z,2019-09-15T17:42:26.000Z,6-3,327,07/11/1989,Georgia,NT,MIA,NE,2,Hard Rock Stadium,"Miami Gardens, FL",Outdoor,Natural Grass,Mostly Cloudy,87.0,67,4,S
21221,2019091505,20190915051000,home,75.51,43.54,2.9,3.23,0.27,198.7,83.66,2552255,Eric Rowe,21,2019,37,2,09:59:00,NE,1,10,MIA,0,7,2560809,SHOTGUN,"1 RB, 1 TE, 3 WR",6,"3 DL, 3 LB, 5 DB",right,2019-09-15T17:42:27.000Z,2019-09-15T17:42:26.000Z,6-1,205,10/03/1992,Utah,CB,MIA,NE,2,Hard Rock Stadium,"Miami Gardens, FL",Outdoor,Natural Grass,Mostly Cloudy,87.0,67,4,S
21222,2019091505,20190915051000,home,87.75,32.18,3.37,2.25,0.33,235.94,126.46,2552434,Bobby McCain,28,2019,37,2,09:59:00,NE,1,10,MIA,0,7,2560809,SHOTGUN,"1 RB, 1 TE, 3 WR",6,"3 DL, 3 LB, 5 DB",right,2019-09-15T17:42:27.000Z,2019-09-15T17:42:26.000Z,5-11,192,08/18/1993,Memphis,CB,MIA,NE,2,Hard Rock Stadium,"Miami Gardens, FL",Outdoor,Natural Grass,Mostly Cloudy,87.0,67,4,S
21223,2019091505,20190915051000,home,80.58,12.91,1.03,1.04,0.1,343.69,100.59,2555539,Xavien Howard,25,2019,37,2,09:59:00,NE,1,10,MIA,0,7,2560809,SHOTGUN,"1 RB, 1 TE, 3 WR",6,"3 DL, 3 LB, 5 DB",right,2019-09-15T17:42:27.000Z,2019-09-15T17:42:26.000Z,6-1,200,07/04/1993,Baylor,CB,MIA,NE,2,Hard Rock Stadium,"Miami Gardens, FL",Outdoor,Natural Grass,Mostly Cloudy,87.0,67,4,S
21224,2019091505,20190915051000,home,71.65,29.14,4.06,2.01,0.4,202.54,238.72,2558031,Avery Moss,93,2019,37,2,09:59:00,NE,1,10,MIA,0,7,2560809,SHOTGUN,"1 RB, 1 TE, 3 WR",6,"3 DL, 3 LB, 5 DB",right,2019-09-15T17:42:27.000Z,2019-09-15T17:42:26.000Z,6-3,271,09/16/1994,Youngstown State,OLB,MIA,NE,2,Hard Rock Stadium,"Miami Gardens, FL",Outdoor,Natural Grass,Mostly Cloudy,87.0,67,4,S
21225,2019091505,20190915051000,home,77.18,21.72,2.45,2.77,0.24,278.28,243.09,2558070,Raekwon McMillan,52,2019,37,2,09:59:00,NE,1,10,MIA,0,7,2560809,SHOTGUN,"1 RB, 1 TE, 3 WR",6,"3 DL, 3 LB, 5 DB",right,2019-09-15T17:42:27.000Z,2019-09-15T17:42:26.000Z,6-2,242,11/17/1995,Ohio State,LB,MIA,NE,2,Hard Rock Stadium,"Miami Gardens, FL",Outdoor,Natural Grass,Mostly Cloudy,87.0,67,4,S
21226,2019091505,20190915051000,home,76.57,32.83,2.05,3.77,0.19,214.11,170.72,2559283,Jomal Wiltz,33,2019,37,2,09:59:00,NE,1,10,MIA,0,7,2560809,SHOTGUN,"1 RB, 1 TE, 3 WR",6,"3 DL, 3 LB, 5 DB",right,2019-09-15T17:42:27.000Z,2019-09-15T17:42:26.000Z,5-10,180,10/23/1994,Iowa State,CB,MIA,NE,2,Hard Rock Stadium,"Miami Gardens, FL",Outdoor,Natural Grass,Mostly Cloudy,87.0,67,4,S
21227,2019091505,20190915051000,home,86.16,18.66,1.15,1.57,0.11,71.93,285.07,2560725,Minkah Fitzpatrick,29,2019,37,2,09:59:00,NE,1,10,MIA,0,7,2560809,SHOTGUN,"1 RB, 1 TE, 3 WR",6,"3 DL, 3 LB, 5 DB",right,2019-09-15T17:42:27.000Z,2019-09-15T17:42:26.000Z,6-1,207,11/17/1996,Alabama,S,MIA,NE,2,Hard Rock Stadium,"Miami Gardens, FL",Outdoor,Natural Grass,Mostly Cloudy,87.0,67,4,S
21228,2019091505,20190915051000,home,77.15,25.98,1.97,2.71,0.19,266.91,211.75,2560966,Jerome Baker,55,2019,37,2,09:59:00,NE,1,10,MIA,0,7,2560809,SHOTGUN,"1 RB, 1 TE, 3 WR",6,"3 DL, 3 LB, 5 DB",right,2019-09-15T17:42:27.000Z,2019-09-15T17:42:26.000Z,6-2,225,12/25/1996,Ohio State,LB,MIA,NE,2,Hard Rock Stadium,"Miami Gardens, FL",Outdoor,Natural Grass,Mostly Cloudy,87.0,67,4,S
21229,2019091505,20190915051000,home,73.7,21.84,0.22,1.58,0.02,143.09,129.41,2562782,Christian Wilkins,94,2019,37,2,09:59:00,NE,1,10,MIA,0,7,2560809,SHOTGUN,"1 RB, 1 TE, 3 WR",6,"3 DL, 3 LB, 5 DB",right,2019-09-15T17:42:27.000Z,2019-09-15T17:42:26.000Z,6-4,315,12/20/1995,Clemson,DT,MIA,NE,2,Hard Rock Stadium,"Miami Gardens, FL",Outdoor,Natural Grass,Mostly Cloudy,87.0,67,4,S
