,GameId,PlayId,Team,X,Y,S,A,Dis,Orientation,Dir,NflId,DisplayName,JerseyNumber,Season,YardLine,Quarter,GameClock,PossessionTeam,Down,Distance,FieldPosition,HomeScoreBeforePlay,VisitorScoreBeforePlay,NflIdRusher,OffenseFormation,OffensePersonnel,DefendersInTheBox,DefensePersonnel,PlayDirection,TimeHandoff,TimeSnap,PlayerHeight,PlayerWeight,PlayerBirthDate,PlayerCollegeName,Position,HomeTeamAbbr,VisitorTeamAbbr,Week,Stadium,Location,StadiumType,Turf,GameWeather,Temperature,Humidity,WindSpeed,WindDirection
39028,2019092207,20190922071519,away,54.92,26.28,2.8,1.24,0.28,252.58,346.36,2535718,Damon Harrison,98,2019,45,2,05:15:00,PHI,2,4,PHI,10,14,2562722,SHOTGUN,"1 RB, 1 TE, 3 WR",6,"3 DL, 3 LB, 5 DB",right,2019-09-22T18:05:17.000Z,2019-09-22T18:05:16.000Z,6-3,350,11/29/1988,William Penn,DT,PHI,DET,3,Lincoln Financial Field,"Philadelphia, Pa.",Outdoor,Grass,Sunny,84.0,53,7,SSW
39029,2019092207,20190922071519,away,56.41,14.91,3.01,6.23,0.27,274.32,129.69,2540288,Darius Slay,23,2019,45,2,05:15:00,PHI,2,4,PHI,10,14,2562722,SHOTGUN,"1 RB, 1 TE, 3 WR",6,"3 DL, 3 LB, 5 DB",right,2019-09-22T18:05:17.000Z,2019-09-22T18:05:16.000Z,6-0,190,01/01/1991,Mississippi State,CB,PHI,DET,3,Lincoln Financial Field,"Philadelphia, Pa.",Outdoor,Grass,Sunny,84.0,53,7,SSW
39030,2019092207,20190922071519,away,55.85,37.4,0.77,0.65,0.07,302.33,62.09,2541200,Rashaan Melvin,29,2019,45,2,05:15:00,PHI,2,4,PHI,10,14,2562722,SHOTGUN,"1 RB, 1 TE, 3 WR",6,"3 DL, 3 LB, 5 DB",right,2019-09-22T18:05:17.000Z,2019-09-22T18:05:16.000Z,6-2,196,10/02/1989,Northern Illinois,CB,PHI,DET,3,Lincoln Financial Field,"Philadelphia, Pa.",Outdoor,Grass,Sunny,84.0,53,7,SSW
39031,2019092207,20190922071519,away,55.99,30.47,1.64,3.13,0.15,262.06,0.61,2550572,Christian Jones,52,2019,45,2,05:15:00,PHI,2,4,PHI,10,14,2562722,SHOTGUN,"1 RB, 1 TE, 3 WR",6,"3 DL, 3 LB, 5 DB",right,2019-09-22T18:05:17.000Z,2019-09-22T18:05:16.000Z,6-3,250,02/18/1991,Florida State,ILB,PHI,DET,3,Lincoln Financial Field,"Philadelphia, Pa.",Outdoor,Grass,Sunny,84.0,53,7,SSW
39032,2019092207,20190922071519,away,73.25,25.04,1.46,0.61,0.14,277.83,78.37,2552262,Quandre Diggs,28,2019,45,2,05:15:00,PHI,2,4,PHI,10,14,2562722,SHOTGUN,"1 RB, 1 TE, 3 WR",6,"3 DL, 3 LB, 5 DB",right,2019-09-22T18:05:17.000Z,2019-09-22T18:05:16.000Z,5-9,197,01/22/1993,Texas,CB,PHI,DET,3,Lincoln Financial Field,"Philadelphia, Pa.",Outdoor,Grass,Sunny,84.0,53,7,SSW
39033,2019092207,20190922071519,away,55.3,19.37,2.29,2.05,0.22,306.87,345.74,2552278,Trey Flowers,90,2019,45,2,05:15:00,PHI,2,4,PHI,10,14,2562722,SHOTGUN,"1 RB, 1 TE, 3 WR",6,"3 DL, 3 LB, 5 DB",right,2019-09-22T18:05:17.000Z,2019-09-22T18:05:16.000Z,6-2,265,08/16/1993,Arkansas,DE,PHI,DET,3,Lincoln Financial Field,"Philadelphia, Pa.",Outdoor,Grass,Sunny,84.0,53,7,SSW
39034,2019092207,20190922071519,away,61.07,34.64,2.6,2.68,0.24,281.09,8.49,2553637,Justin Coleman,27,2019,45,2,05:15:00,PHI,2,4,PHI,10,14,2562722,SHOTGUN,"1 RB, 1 TE, 3 WR",6,"3 DL, 3 LB, 5 DB",right,2019-09-22T18:05:17.000Z,2019-09-22T18:05:16.000Z,5-11,190,03/27/1993,Tennessee,CB,PHI,DET,3,Lincoln Financial Field,"Philadelphia, Pa.",Outdoor,Grass,Sunny,84.0,53,7,SSW
39035,2019092207,20190922071519,away,55.73,23.36,2.9,1.89,0.3,295.28,29.2,2555265,A'Shawn Robinson,91,2019,45,2,05:15:00,PHI,2,4,PHI,10,14,2562722,SHOTGUN,"1 RB, 1 TE, 3 WR",6,"3 DL, 3 LB, 5 DB",right,2019-09-22T18:05:17.000Z,2019-09-22T18:05:16.000Z,6-4,330,03/21/1995,Alabama,DT,PHI,DET,3,Lincoln Financial Field,"Philadelphia, Pa.",Outdoor,Grass,Sunny,84.0,53,7,SSW
39036,2019092207,20190922071519,away,54.83,28.62,3.1,1.44,0.3,249.4,330.13,2556641,Romeo Okwara,95,2019,45,2,05:15:00,PHI,2,4,PHI,10,14,2562722,SHOTGUN,"1 RB, 1 TE, 3 WR",6,"3 DL, 3 LB, 5 DB",right,2019-09-22T18:05:17.000Z,2019-09-22T18:05:16.000Z,6-4,263,06/17/1995,Notre Dame,OLB,PHI,DET,3,Lincoln Financial Field,"Philadelphia, Pa.",Outdoor,Grass,Sunny,84.0,53,7,SSW
39037,2019092207,20190922071519,away,58.1,23.36,2.37,1.26,0.24,281.2,332.37,2557855,Jarrad Davis,40,2019,45,2,05:15:00,PHI,2,4,PHI,10,14,2562722,SHOTGUN,"1 RB, 1 TE, 3 WR",6,"3 DL, 3 LB, 5 DB",right,2019-09-22T18:05:17.000Z,2019-09-22T18:05:16.000Z,6-1,245,11/16/1994,Florida,MLB,PHI,DET,3,Lincoln Financial Field,"Philadelphia, Pa.",Outdoor,Grass,Sunny,84.0,53,7,SSW
39038,2019092207,20190922071519,away,57.7,44.75,1.39,1.38,0.13,277.95,56.72,2560913,Tracy Walker,21,2019,45,2,05:15:00,PHI,2,4,PHI,10,14,2562722,SHOTGUN,"1 RB, 1 TE, 3 WR",6,"3 DL, 3 LB, 5 DB",right,2019-09-22T18:05:17.000Z,2019-09-22T18:05:16.000Z,6-1,210,02/01/1995,Louisiana-Lafayette,DB,PHI,DET,3,Lincoln Financial Field,"Philadelphia, Pa.",Outdoor,Grass,Sunny,84.0,53,7,SSW
39039,2019092207,20190922071519,home,54.18,26.05,2.4,0.54,0.25,51.26,5.7,2495298,Jason Kelce,62,2019,45,2,05:15:00,PHI,2,4,PHI,10,14,2562722,SHOTGUN,"1 RB, 1 TE, 3 WR",6,"3 DL, 3 LB, 5 DB",right,2019-09-22T18:05:17.000Z,2019-09-22T18:05:16.000Z,6-3,295,11/05/1987,Cincinnati,C,PHI,DET,3,Lincoln Financial Field,"Philadelphia, Pa.",Outdoor,Grass,Sunny,84.0,53,7,SSW
39040,2019092207,20190922071519,home,54.91,23.58,2.57,0.33,0.27,51.47,47.95,2534434,Brandon Brooks,79,2019,45,2,05:15:00,PHI,2,4,PHI,10,14,2562722,SHOTGUN,"1 RB, 1 TE, 3 WR",6,"3 DL, 3 LB, 5 DB",right,2019-09-22T18:05:17.000Z,2019-09-22T18:05:16.000Z,6-5,335,08/19/1989,"Miami, O.",G,PHI,DET,3,Lincoln Financial Field,"Philadelphia, Pa.",Outdoor,Grass,Sunny,84.0,53,7,SSW
39041,2019092207,20190922071519,home,54.79,22.58,3.29,0.46,0.35,43.07,48.6,2539286,Lane Johnson,65,2019,45,2,05:15:00,PHI,2,4,PHI,10,14,2562722,SHOTGUN,"1 RB, 1 TE, 3 WR",6,"3 DL, 3 LB, 5 DB",right,2019-09-22T18:05:17.000Z,2019-09-22T18:05:16.000Z,6-6,317,05/08/1990,Oklahoma,T,PHI,DET,3,Lincoln Financial Field,"Philadelphia, Pa.",Outdoor,Grass,Sunny,84.0,53,7,SSW
39042,2019092207,20190922071519,home,55.21,14.39,4.31,2.66,0.41,89.79,131.68,2540158,Zach Ertz,86,2019,45,2,05:15:00,PHI,2,4,PHI,10,14,2562722,SHOTGUN,"1 RB, 1 TE, 3 WR",6,"3 DL, 3 LB, 5 DB",right,2019-09-22T18:05:17.000Z,2019-09-22T18:05:16.000Z,6-5,250,11/10/1990,Stanford,TE,PHI,DET,3,Lincoln Financial Field,"Philadelphia, Pa.",Outdoor,Grass,Sunny,84.0,53,7,SSW
39043,2019092207,20190922071519,home,51.38,34.55,3.75,3.57,0.36,109.46,342.66,2552600,Nelson Agholor,13,2019,45,2,05:15:00,PHI,2,4,PHI,10,14,2562722,SHOTGUN,"1 RB, 1 TE, 3 WR",6,"3 DL, 3 LB, 5 DB",right,2019-09-22T18:05:17.000Z,2019-09-22T18:05:16.000Z,6-0,198,05/24/1993,Southern California,WR,PHI,DET,3,Lincoln Financial Field,"Philadelphia, Pa.",Outdoor,Grass,Sunny,84.0,53,7,SSW
39044,2019092207,20190922071519,home,53.34,29.01,1.9,0.39,0.2,73.9,10.91,2555196,Halapoulivaati Vaitai,72,2019,45,2,05:15:00,PHI,2,4,PHI,10,14,2562722,SHOTGUN,"1 RB, 1 TE, 3 WR",6,"3 DL, 3 LB, 5 DB",right,2019-09-22T18:05:17.000Z,2019-09-22T18:05:16.000Z,6-6,320,06/16/1993,Texas Christian,T,PHI,DET,3,Lincoln Financial Field,"Philadelphia, Pa.",Outdoor,Grass,Sunny,84.0,53,7,SSW
39045,2019092207,20190922071519,home,49.84,23.97,0.22,1.31,0.01,129.17,120.42,2555259,Carson Wentz,11,2019,45,2,05:15:00,PHI,2,4,PHI,10,14,2562722,SHOTGUN,"1 RB, 1 TE, 3 WR",6,"3 DL, 3 LB, 5 DB",right,2019-09-22T18:05:17.000Z,2019-09-22T18:05:16.000Z,6-5,237,12/30/1992,North Dakota State,QB,PHI,DET,3,Lincoln Financial Field,"Philadelphia, Pa.",Outdoor,Grass,Sunny,84.0,53,7,SSW
39046,2019092207,20190922071519,home,53.61,27.23,3.81,1.83,0.38,77.33,9.74,2555495,Isaac Seumalo,73,2019,45,2,05:15:00,PHI,2,4,PHI,10,14,2562722,SHOTGUN,"1 RB, 1 TE, 3 WR",6,"3 DL, 3 LB, 5 DB",right,2019-09-22T18:05:17.000Z,2019-09-22T18:05:16.000Z,6-4,303,10/29/1993,Oregon State,G,PHI,DET,3,Lincoln Financial Field,"Philadelphia, Pa.",Outdoor,Grass,Sunny,84.0,53,7,SSW
39047,2019092207,20190922071519,home,53.86,37.61,2.32,2.1,0.23,124.82,61.44,2558262,Mack Hollins,16,2019,45,2,05:15:00,PHI,2,4,PHI,10,14,2562722,SHOTGUN,"1 RB, 1 TE, 3 WR",6,"3 DL, 3 LB, 5 DB",right,2019-09-22T18:05:17.000Z,2019-09-22T18:05:16.000Z,6-4,221,09/16/1993,North Carolina,WR,PHI,DET,3,Lincoln Financial Field,"Philadelphia, Pa.",Outdoor,Grass,Sunny,84.0,53,7,SSW
39048,2019092207,20190922071519,home,55.36,44.9,3.05,2.9,0.29,88.28,69.9,2559278,Greg Ward,84,2019,45,2,05:15:00,PHI,2,4,PHI,10,14,2562722,SHOTGUN,"1 RB, 1 TE, 3 WR",6,"3 DL, 3 LB, 5 DB",right,2019-09-22T18:05:17.000Z,2019-09-22T18:05:16.000Z,5-11,190,07/12/1995,Houston,WR,PHI,DET,3,Lincoln Financial Field,"Philadelphia, Pa.",Outdoor,Grass,Sunny,84.0,53,7,SSW
39049,2019092207,20190922071519,home,49.77,22.56,4.2,5.57,0.39,89.57,27.44,2562722,Miles Sanders,26,2019,45,2,05:15:00,PHI,2,4,PHI,10,14,2562722,SHOTGUN,"1 RB, 1 TE, 3 WR",6,"3 DL, 3 LB, 5 DB",right,2019-09-22T18:05:17.000Z,2019-09-22T18:05:16.000Z,5-11,211,05/01/1997,Penn State,RB,PHI,DET,3,Lincoln Financial Field,"Philadelphia, Pa.",Outdoor,Grass,Sunny,84.0,53,7,SSW
