,GameId,PlayId,Team,X,Y,S,A,Dis,Orientation,Dir,NflId,DisplayName,JerseyNumber,Season,YardLine,Quarter,GameClock,PossessionTeam,Down,Distance,FieldPosition,HomeScoreBeforePlay,VisitorScoreBeforePlay,NflIdRusher,OffenseFormation,OffensePersonnel,DefendersInTheBox,DefensePersonnel,PlayDirection,TimeHandoff,TimeSnap,PlayerHeight,PlayerWeight,PlayerBirthDate,PlayerCollegeName,Position,HomeTeamAbbr,VisitorTeamAbbr,Week,Stadium,Location,StadiumType,Turf,GameWeather,Temperature,Humidity,WindSpeed,WindDirection
11814,2019090811,20190908113301,away,20.73,29.4,2.68,0.96,0.28,110.05,39.68,2495746,Joe Staley,74,2019,11,4,11:44:00,SF,3,1,SF,14,20,2558918,PISTOL,"2 RB, 1 TE, 2 WR",7,"4 DL, 3 LB, 4 DB",right,2019-09-08T22:53:34.000Z,2019-09-08T22:53:32.000Z,6-5,295,08/30/1984,Central Michigan,T,TB,SF,1,Raymond James Stadium,"Tampa, FL",Outdoor,Natural Grass,Cloudy,93.0,52,9,SW
11815,2019090811,20190908113301,away,22.08,22.9,2.11,1.77,0.22,103.64,62.26,2508140,Mike Person,68,2019,11,4,11:44:00,SF,3,1,SF,14,20,2558918,PISTOL,"2 RB, 1 TE, 2 WR",7,"4 DL, 3 LB, 4 DB",right,2019-09-08T22:53:34.000Z,2019-09-08T22:53:32.000Z,6-4,299,06/17/1988,Montana State,C,TB,SF,1,Raymond James Stadium,"Tampa, FL",Outdoor,Natural Grass,Cloudy,93.0,52,9,SW
11816,2019090811,20190908113301,away,22.25,14.9,5.06,3.27,0.49,65.43,73.98,2539964,Marquise Goodwin,11,2019,11,4,11:44:00,SF,3,1,SF,14,20,2558918,PISTOL,"2 RB, 1 TE, 2 WR",7,"4 DL, 3 LB, 4 DB",right,2019-09-08T22:53:34.000Z,2019-09-08T22:53:32.000Z,5-9,179,11/19/1990,Texas,WR,TB,SF,1,Raymond James Stadium,"Tampa, FL",Outdoor,Natural Grass,Cloudy,93.0,52,9,SW
11817,2019090811,20190908113301,away,20.42,8.64,4.6,3.34,0.44,69.13,53.44,2540230,Kyle Juszczyk,44,2019,11,4,11:44:00,SF,3,1,SF,14,20,2558918,PISTOL,"2 RB, 1 TE, 2 WR",7,"4 DL, 3 LB, 4 DB",right,2019-09-08T22:53:34.000Z,2019-09-08T22:53:32.000Z,6-1,240,04/23/1991,Harvard,RB,TB,SF,1,Raymond James Stadium,"Tampa, FL",Outdoor,Natural Grass,Cloudy,93.0,52,9,SW
11818,2019090811,20190908113301,away,20.43,24.6,1.19,0.57,0.12,8.92,289.91,2543705,Weston Richburg,58,2019,11,4,11:44:00,SF,3,1,SF,14,20,2558918,PISTOL,"2 RB, 1 TE, 2 WR",7,"4 DL, 3 LB, 4 DB",right,2019-09-08T22:53:34.000Z,2019-09-08T22:53:32.000Z,6-4,290,07/09/1991,Colorado State,C,TB,SF,1,Raymond James Stadium,"Tampa, FL",Outdoor,Natural Grass,Cloudy,93.0,52,9,SW
11819,2019090811,20190908113301,away,16.76,24.92,0.69,2.79,0.06,92.96,213.37,2543801,Jimmy Garoppolo,10,2019,11,4,11:44:00,SF,3,1,SF,14,20,2558918,PISTOL,"2 RB, 1 TE, 2 WR",7,"4 DL, 3 LB, 4 DB",right,2019-09-08T22:53:34.000Z,2019-09-08T22:53:32.000Z,6-2,225,11/02/1991,Eastern Illinois,QB,TB,SF,1,Raymond James Stadium,"Tampa, FL",Outdoor,Natural Grass,Cloudy,93.0,52,9,SW
11820,2019090811,20190908113301,away,20.47,26.89,1.33,0.46,0.14,112.06,22.62,2552345,Laken Tomlinson,75,2019,11,4,11:44:00,SF,3,1,SF,14,20,2558918,PISTOL,"2 RB, 1 TE, 2 WR",7,"4 DL, 3 LB, 4 DB",right,2019-09-08T22:53:34.000Z,2019-09-08T22:53:32.000Z,6-3,312,02/09/1992,Duke,G,TB,SF,1,Raymond James Stadium,"Tampa, FL",Outdoor,Natural Grass,Cloudy,93.0,52,9,SW
11821,2019090811,20190908113301,away,21.72,19.0,2.18,1.15,0.22,107.5,117.61,2558266,George Kittle,85,2019,11,4,11:44:00,SF,3,1,SF,14,20,2558918,PISTOL,"2 RB, 1 TE, 2 WR",7,"4 DL, 3 LB, 4 DB",right,2019-09-08T22:53:34.000Z,2019-09-08T22:53:32.000Z,6-4,250,10/09/1993,Iowa,TE,TB,SF,1,Raymond James Stadium,"Tampa, FL",Outdoor,Natural Grass,Cloudy,93.0,52,9,SW
11822,2019090811,20190908113301,away,16.63,24.01,4.8,3.32,0.47,62.08,69.98,2558918,Matt Breida,22,2019,11,4,11:44:00,SF,3,1,SF,14,20,2558918,PISTOL,"2 RB, 1 TE, 2 WR",7,"4 DL, 3 LB, 4 DB",right,2019-09-08T22:53:34.000Z,2019-09-08T22:53:32.000Z,5-11,190,02/28/1995,Georgia Southern,RB,TB,SF,1,Raymond James Stadium,"Tampa, FL",Outdoor,Natural Grass,Cloudy,93.0,52,9,SW
11823,2019090811,20190908113301,away,21.03,21.73,1.11,1.08,0.11,98.67,36.51,2560805,Mike McGlinchey,69,2019,11,4,11:44:00,SF,3,1,SF,14,20,2558918,PISTOL,"2 RB, 1 TE, 2 WR",7,"4 DL, 3 LB, 4 DB",right,2019-09-08T22:53:34.000Z,2019-09-08T22:53:32.000Z,6-8,315,01/12/1995,Notre Dame,OT,TB,SF,1,Raymond James Stadium,"Tampa, FL",Outdoor,Natural Grass,Cloudy,93.0,52,9,SW
11824,2019090811,20190908113301,away,22.0,32.13,4.4,0.89,0.43,97.71,112.73,2562721,Deebo Samuel,19,2019,11,4,11:44:00,SF,3,1,SF,14,20,2558918,PISTOL,"2 RB, 1 TE, 2 WR",7,"4 DL, 3 LB, 4 DB",right,2019-09-08T22:53:34.000Z,2019-09-08T22:53:32.000Z,6-0,214,01/15/1996,South Carolina,WR,TB,SF,1,Raymond James Stadium,"Tampa, FL",Outdoor,Natural Grass,Cloudy,93.0,52,9,SW
11825,2019090811,20190908113301,home,32.17,28.37,2.11,1.12,0.22,245.2,140.39,494307,Darian Stewart,24,2019,11,4,11:44:00,SF,3,1,SF,14,20,2558918,PISTOL,"2 RB, 1 TE, 2 WR",7,"4 DL, 3 LB, 4 DB",right,2019-09-08T22:53:34.000Z,2019-09-08T22:53:32.000Z,5-11,214,08/04/1988,South Carolina,FS,TB,SF,1,Raymond James Stadium,"Tampa, FL",Outdoor,Natural Grass,Cloudy,93.0,52,9,SW
11826,2019090811,20190908113301,home,20.94,27.31,0.55,2.15,0.05,303.53,19.97,496861,Ndamukong Suh,93,2019,11,4,11:44:00,SF,3,1,SF,14,20,2558918,PISTOL,"2 RB, 1 TE, 2 WR",7,"4 DL, 3 LB, 4 DB",right,2019-09-08T22:53:34.000Z,2019-09-08T22:53:32.000Z,6-4,313,01/06/1987,Nebraska,DT,TB,SF,1,Raymond James Stadium,"Tampa, FL",Outdoor,Natural Grass,Cloudy,93.0,52,9,SW
11827,2019090811,20190908113301,home,24.4,25.69,2.05,2.89,0.19,217.5,271.4,2532828,Lavonte David,54,2019,11,4,11:44:00,SF,3,1,SF,14,20,2558918,PISTOL,"2 RB, 1 TE, 2 WR",7,"4 DL, 3 LB, 4 DB",right,2019-09-08T22:53:34.000Z,2019-09-08T22:53:32.000Z,6-1,233,01/23/1990,Nebraska,OLB,TB,SF,1,Raymond James Stadium,"Tampa, FL",Outdoor,Natural Grass,Cloudy,93.0,52,9,SW
11828,2019090811,20190908113301,home,21.65,22.06,1.02,0.22,0.11,305.54,16.61,2540176,William Gholston,92,2019,11,4,11:44:00,SF,3,1,SF,14,20,2558918,PISTOL,"2 RB, 1 TE, 2 WR",7,"4 DL, 3 LB, 4 DB",right,2019-09-08T22:53:34.000Z,2019-09-08T22:53:32.000Z,6-6,281,07/31/1991,Michigan State,DE,TB,SF,1,Raymond James Stadium,"Tampa, FL",Outdoor,Natural Grass,Cloudy,93.0,52,9,SW
11829,2019090811,20190908113301,home,21.42,29.48,0.68,2.86,0.05,311.61,85.14,2550541,Shaquil Barrett,58,2019,11,4,11:44:00,SF,3,1,SF,14,20,2558918,PISTOL,"2 RB, 1 TE, 2 WR",7,"4 DL, 3 LB, 4 DB",right,2019-09-08T22:53:34.000Z,2019-09-08T22:53:32.000Z,6-2,250,11/17/1992,Colorado State,OLB,TB,SF,1,Raymond James Stadium,"Tampa, FL",Outdoor,Natural Grass,Cloudy,93.0,52,9,SW
11830,2019090811,20190908113301,home,22.73,16.73,0.99,0.2,0.11,222.02,343.75,2555270,Carl Nassib,94,2019,11,4,11:44:00,SF,3,1,SF,14,20,2558918,PISTOL,"2 RB, 1 TE, 2 WR",7,"4 DL, 3 LB, 4 DB",right,2019-09-08T22:53:34.000Z,2019-09-08T22:53:32.000Z,6-7,275,04/12/1993,Penn State,DE,TB,SF,1,Raymond James Stadium,"Tampa, FL",Outdoor,Natural Grass,Cloudy,93.0,52,9,SW
11831,2019090811,20190908113301,home,24.84,34.18,2.04,1.9,0.19,212.31,134.05,2555299,Vernon Hargreaves III,28,2019,11,4,11:44:00,SF,3,1,SF,14,20,2558918,PISTOL,"2 RB, 1 TE, 2 WR",7,"4 DL, 3 LB, 4 DB",right,2019-09-08T22:53:34.000Z,2019-09-08T22:53:32.000Z,5-10,204,06/03/1995,Florida,CB,TB,SF,1,Raymond James Stadium,"Tampa, FL",Outdoor,Natural Grass,Cloudy,93.0,52,9,SW
11832,2019090811,20190908113301,home,20.5,24.12,1.1,1.36,0.12,318.95,319.25,2560909,Vita Vea,50,2019,11,4,11:44:00,SF,3,1,SF,14,20,2558918,PISTOL,"2 RB, 1 TE, 2 WR",7,"4 DL, 3 LB, 4 DB",right,2019-09-08T22:53:34.000Z,2019-09-08T22:53:32.000Z,6-4,347,02/05/1995,Washington,DT,TB,SF,1,Raymond James Stadium,"Tampa, FL",Outdoor,Natural Grass,Cloudy,93.0,52,9,SW
11833,2019090811,20190908113301,home,31.41,16.79,0.8,1.53,0.07,254.44,86.86,2560930,Jordan Whitehead,31,2019,11,4,11:44:00,SF,3,1,SF,14,20,2558918,PISTOL,"2 RB, 1 TE, 2 WR",7,"4 DL, 3 LB, 4 DB",right,2019-09-08T22:53:34.000Z,2019-09-08T22:53:32.000Z,5-10,198,03/18/1997,Pittsburgh,DB,TB,SF,1,Raymond James Stadium,"Tampa, FL",Outdoor,Natural Grass,Cloudy,93.0,52,9,SW
11834,2019090811,20190908113301,home,27.55,9.5,1.44,2.46,0.13,298.64,351.97,2561039,Carlton Davis,33,2019,11,4,11:44:00,SF,3,1,SF,14,20,2558918,PISTOL,"2 RB, 1 TE, 2 WR",7,"4 DL, 3 LB, 4 DB",right,2019-09-08T22:53:34.000Z,2019-09-08T22:53:32.000Z,6-1,206,12/31/1996,Auburn,CB,TB,SF,1,Raymond James Stadium,"Tampa, FL",Outdoor,Natural Grass,Cloudy,93.0,52,9,SW
11835,2019090811,20190908113301,home,24.53,22.55,1.78,2.93,0.16,290.53,312.0,2562781,Devin White,45,2019,11,4,11:44:00,SF,3,1,SF,14,20,2558918,PISTOL,"2 RB, 1 TE, 2 WR",7,"4 DL, 3 LB, 4 DB",right,2019-09-08T22:53:34.000Z,2019-09-08T22:53:32.000Z,6-0,237,02/17/1998,Louisiana State,LB,TB,SF,1,Raymond James Stadium,"Tampa, FL",Outdoor,Natural Grass,Cloudy,93.0,52,9,SW
