,GameId,PlayId,Team,X,Y,S,A,Dis,Orientation,Dir,NflId,DisplayName,JerseyNumber,Season,YardLine,Quarter,GameClock,PossessionTeam,Down,Distance,FieldPosition,HomeScoreBeforePlay,VisitorScoreBeforePlay,NflIdRusher,OffenseFormation,OffensePersonnel,DefendersInTheBox,DefensePersonnel,PlayDirection,TimeHandoff,TimeSnap,PlayerHeight,PlayerWeight,PlayerBirthDate,PlayerCollegeName,Position,HomeTeamAbbr,VisitorTeamAbbr,Week,Stadium,Location,StadiumType,Turf,GameWeather,Temperature,Humidity,WindSpeed,WindDirection
12166,2019090812,20190908120218,away,20.72,29.75,1.24,0.84,0.13,67.86,186.6,81821,Ramon Foster,73,2019,12,1,11:54:00,PIT,1,10,PIT,0,0,2557978,SINGLEBACK,"1 RB, 1 TE, 3 WR",7,"3 DL, 3 LB, 5 DB",right,2019-09-09T00:30:13.000Z,2019-09-09T00:30:12.000Z,6-5,328,01/07/1986,Tennessee,G,NE,PIT,1,Gillette Stadium,"Foxborough, MA",Outdoor,Field Turf,Partly cloudy and mild,66.0,62,2,NW
12167,2019090812,20190908120218,away,21.93,28.33,1.08,2.21,0.11,98.58,175.96,497042,Maurkice Pouncey,53,2019,12,1,11:54:00,PIT,1,10,PIT,0,0,2557978,SINGLEBACK,"1 RB, 1 TE, 3 WR",7,"3 DL, 3 LB, 5 DB",right,2019-09-09T00:30:13.000Z,2019-09-09T00:30:12.000Z,6-4,304,07/24/1989,Florida,C,NE,PIT,1,Gillette Stadium,"Foxborough, MA",Outdoor,Field Turf,Partly cloudy and mild,66.0,62,2,NW
12168,2019090812,20190908120218,away,18.03,29.39,3.08,2.01,0.3,266.1,291.5,2506109,Ben Roethlisberger,7,2019,12,1,11:54:00,PIT,1,10,PIT,0,0,2557978,SINGLEBACK,"1 RB, 1 TE, 3 WR",7,"3 DL, 3 LB, 5 DB",right,2019-09-09T00:30:13.000Z,2019-09-09T00:30:12.000Z,6-5,240,03/02/1982,Miami (Ohio),QB,NE,PIT,1,Gillette Stadium,"Foxborough, MA",Outdoor,Field Turf,Partly cloudy and mild,66.0,62,2,NW
12169,2019090812,20190908120218,away,20.45,26.52,1.61,0.59,0.18,198.18,204.57,2533043,David DeCastro,66,2019,12,1,11:54:00,PIT,1,10,PIT,0,0,2557978,SINGLEBACK,"1 RB, 1 TE, 3 WR",7,"3 DL, 3 LB, 5 DB",right,2019-09-09T00:30:13.000Z,2019-09-09T00:30:12.000Z,6-5,316,01/11/1990,Stanford,G,NE,PIT,1,Gillette Stadium,"Foxborough, MA",Outdoor,Field Turf,Partly cloudy and mild,66.0,62,2,NW
12170,2019090812,20190908120218,away,19.39,27.64,4.53,1.91,0.44,3.25,6.54,2540215,Vance McDonald,89,2019,12,1,11:54:00,PIT,1,10,PIT,0,0,2557978,SINGLEBACK,"1 RB, 1 TE, 3 WR",7,"3 DL, 3 LB, 5 DB",right,2019-09-09T00:30:13.000Z,2019-09-09T00:30:12.000Z,6-4,267,06/13/1990,Rice,TE,NE,PIT,1,Gillette Stadium,"Foxborough, MA",Outdoor,Field Turf,Partly cloudy and mild,66.0,62,2,NW
12171,2019090812,20190908120218,away,22.51,45.28,4.46,3.67,0.43,105.37,59.57,2543614,Donte Moncrief,11,2019,12,1,11:54:00,PIT,1,10,PIT,0,0,2557978,SINGLEBACK,"1 RB, 1 TE, 3 WR",7,"3 DL, 3 LB, 5 DB",right,2019-09-09T00:30:13.000Z,2019-09-09T00:30:12.000Z,6-2,216,08/06/1993,Mississippi,WR,NE,PIT,1,Gillette Stadium,"Foxborough, MA",Outdoor,Field Turf,Partly cloudy and mild,66.0,62,2,NW
12172,2019090812,20190908120218,away,21.69,31.28,2.85,0.17,0.29,100.58,133.18,2550130,Alejandro Villanueva,78,2019,12,1,11:54:00,PIT,1,10,PIT,0,0,2557978,SINGLEBACK,"1 RB, 1 TE, 3 WR",7,"3 DL, 3 LB, 5 DB",right,2019-09-09T00:30:13.000Z,2019-09-09T00:30:12.000Z,6-9,320,09/22/1988,Army,T,NE,PIT,1,Gillette Stadium,"Foxborough, MA",Outdoor,Field Turf,Partly cloudy and mild,66.0,62,2,NW
12173,2019090812,20190908120218,away,20.5,24.67,1.47,0.91,0.15,101.8,167.42,2550561,Matt Feiler,71,2019,12,1,11:54:00,PIT,1,10,PIT,0,0,2557978,SINGLEBACK,"1 RB, 1 TE, 3 WR",7,"3 DL, 3 LB, 5 DB",right,2019-09-09T00:30:13.000Z,2019-09-09T00:30:12.000Z,6-6,330,07/07/1992,Bloomsburg,T,NE,PIT,1,Gillette Stadium,"Foxborough, MA",Outdoor,Field Turf,Partly cloudy and mild,66.0,62,2,NW
12174,2019090812,20190908120218,away,15.06,27.58,3.87,2.64,0.37,104.39,153.52,2557978,James Conner,30,2019,12,1,11:54:00,PIT,1,10,PIT,0,0,2557978,SINGLEBACK,"1 RB, 1 TE, 3 WR",7,"3 DL, 3 LB, 5 DB",right,2019-09-09T00:30:13.000Z,2019-09-09T00:30:12.000Z,6-1,233,05/05/1995,Pittsburgh,RB,NE,PIT,1,Gillette Stadium,"Foxborough, MA",Outdoor,Field Turf,Partly cloudy and mild,66.0,62,2,NW
12175,2019090812,20190908120218,away,22.77,23.86,3.0,1.62,0.29,68.08,58.09,2558149,JuJu Smith-Schuster,19,2019,12,1,11:54:00,PIT,1,10,PIT,0,0,2557978,SINGLEBACK,"1 RB, 1 TE, 3 WR",7,"3 DL, 3 LB, 5 DB",right,2019-09-09T00:30:13.000Z,2019-09-09T00:30:12.000Z,6-1,215,11/22/1996,Southern California,WR,NE,PIT,1,Gillette Stadium,"Foxborough, MA",Outdoor,Field Turf,Partly cloudy and mild,66.0,62,2,NW
12176,2019090812,20190908120218,away,21.35,22.37,1.66,2.36,0.17,120.56,68.91,2560920,James Washington,13,2019,12,1,11:54:00,PIT,1,10,PIT,0,0,2557978,SINGLEBACK,"1 RB, 1 TE, 3 WR",7,"3 DL, 3 LB, 5 DB",right,2019-09-09T00:30:13.000Z,2019-09-09T00:30:12.000Z,5-11,213,04/02/1996,Oklahoma State,WR,NE,PIT,1,Gillette Stadium,"Foxborough, MA",Outdoor,Field Turf,Partly cloudy and mild,66.0,62,2,NW
12177,2019090812,20190908120218,home,24.92,25.15,2.01,1.16,0.19,260.25,275.04,71251,Patrick Chung,23,2019,12,1,11:54:00,PIT,1,10,PIT,0,0,2557978,SINGLEBACK,"1 RB, 1 TE, 3 WR",7,"3 DL, 3 LB, 5 DB",right,2019-09-09T00:30:13.000Z,2019-09-09T00:30:12.000Z,5-11,215,08/19/1987,Oregon,SS,NE,PIT,1,Gillette Stadium,"Foxborough, MA",Outdoor,Field Turf,Partly cloudy and mild,66.0,62,2,NW
12178,2019090812,20190908120218,home,24.28,44.82,3.25,4.32,0.32,278.28,58.31,89756,Jason McCourty,30,2019,12,1,11:54:00,PIT,1,10,PIT,0,0,2557978,SINGLEBACK,"1 RB, 1 TE, 3 WR",7,"3 DL, 3 LB, 5 DB",right,2019-09-09T00:30:13.000Z,2019-09-09T00:30:12.000Z,5-11,195,08/13/1987,Rutgers,CB,NE,PIT,1,Gillette Stadium,"Foxborough, MA",Outdoor,Field Turf,Partly cloudy and mild,66.0,62,2,NW
12179,2019090812,20190908120218,home,36.26,32.41,2.47,1.87,0.24,249.78,119.77,494287,Devin McCourty,32,2019,12,1,11:54:00,PIT,1,10,PIT,0,0,2557978,SINGLEBACK,"1 RB, 1 TE, 3 WR",7,"3 DL, 3 LB, 5 DB",right,2019-09-09T00:30:13.000Z,2019-09-09T00:30:12.000Z,5-10,195,08/13/1987,Rutgers,FS,NE,PIT,1,Gillette Stadium,"Foxborough, MA",Outdoor,Field Turf,Partly cloudy and mild,66.0,62,2,NW
12180,2019090812,20190908120218,home,21.21,30.23,1.67,1.21,0.16,285.9,219.83,2495481,Lawrence Guy,93,2019,12,1,11:54:00,PIT,1,10,PIT,0,0,2557978,SINGLEBACK,"1 RB, 1 TE, 3 WR",7,"3 DL, 3 LB, 5 DB",right,2019-09-09T00:30:13.000Z,2019-09-09T00:30:12.000Z,6-4,315,03/17/1990,Arizona State,DT,NE,PIT,1,Gillette Stadium,"Foxborough, MA",Outdoor,Field Turf,Partly cloudy and mild,66.0,62,2,NW
12181,2019090812,20190908120218,home,20.3,26.1,2.14,0.8,0.25,233.13,248.3,2507617,Michael Bennett,77,2019,12,1,11:54:00,PIT,1,10,PIT,0,0,2557978,SINGLEBACK,"1 RB, 1 TE, 3 WR",7,"3 DL, 3 LB, 5 DB",right,2019-09-09T00:30:13.000Z,2019-09-09T00:30:12.000Z,6-4,274,11/13/1985,Texas A&M,DE,NE,PIT,1,Gillette Stadium,"Foxborough, MA",Outdoor,Field Turf,Partly cloudy and mild,66.0,62,2,NW
12182,2019090812,20190908120218,home,22.84,27.87,2.74,1.67,0.28,260.1,246.1,2533057,Dont'a Hightower,54,2019,12,1,11:54:00,PIT,1,10,PIT,0,0,2557978,SINGLEBACK,"1 RB, 1 TE, 3 WR",7,"3 DL, 3 LB, 5 DB",right,2019-09-09T00:30:13.000Z,2019-09-09T00:30:12.000Z,6-3,260,03/12/1990,Alabama,MLB,NE,PIT,1,Gillette Stadium,"Foxborough, MA",Outdoor,Field Turf,Partly cloudy and mild,66.0,62,2,NW
12183,2019090812,20190908120218,home,28.88,16.66,0.52,1.84,0.04,296.37,91.51,2533062,Stephon Gilmore,24,2019,12,1,11:54:00,PIT,1,10,PIT,0,0,2557978,SINGLEBACK,"1 RB, 1 TE, 3 WR",7,"3 DL, 3 LB, 5 DB",right,2019-09-09T00:30:13.000Z,2019-09-09T00:30:12.000Z,6-1,202,09/19/1990,South Carolina,CB,NE,PIT,1,Gillette Stadium,"Foxborough, MA",Outdoor,Field Turf,Partly cloudy and mild,66.0,62,2,NW
12184,2019090812,20190908120218,home,21.13,32.74,3.17,0.85,0.32,187.72,209.53,2539280,John Simon,55,2019,12,1,11:54:00,PIT,1,10,PIT,0,0,2557978,SINGLEBACK,"1 RB, 1 TE, 3 WR",7,"3 DL, 3 LB, 5 DB",right,2019-09-09T00:30:13.000Z,2019-09-09T00:30:12.000Z,6-2,260,10/14/1990,Ohio State,DE,NE,PIT,1,Gillette Stadium,"Foxborough, MA",Outdoor,Field Turf,Partly cloudy and mild,66.0,62,2,NW
12185,2019090812,20190908120218,home,24.01,31.25,2.24,1.89,0.22,256.05,229.18,2539311,Jamie Collins,58,2019,12,1,11:54:00,PIT,1,10,PIT,0,0,2557978,SINGLEBACK,"1 RB, 1 TE, 3 WR",7,"3 DL, 3 LB, 5 DB",right,2019-09-09T00:30:13.000Z,2019-09-09T00:30:12.000Z,6-3,255,10/20/1989,Southern Mississippi,OLB,NE,PIT,1,Gillette Stadium,"Foxborough, MA",Outdoor,Field Turf,Partly cloudy and mild,66.0,62,2,NW
12186,2019090812,20190908120218,home,21.42,24.2,1.33,2.31,0.14,278.15,236.93,2555294,Shilique Calhoun,90,2019,12,1,11:54:00,PIT,1,10,PIT,0,0,2557978,SINGLEBACK,"1 RB, 1 TE, 3 WR",7,"3 DL, 3 LB, 5 DB",right,2019-09-09T00:30:13.000Z,2019-09-09T00:30:12.000Z,6-4,260,03/20/1992,Michigan State,DE,NE,PIT,1,Gillette Stadium,"Foxborough, MA",Outdoor,Field Turf,Partly cloudy and mild,66.0,62,2,NW
12187,2019090812,20190908120218,home,22.02,21.67,1.47,0.96,0.14,298.94,259.93,2556571,Jonathan Jones,31,2019,12,1,11:54:00,PIT,1,10,PIT,0,0,2557978,SINGLEBACK,"1 RB, 1 TE, 3 WR",7,"3 DL, 3 LB, 5 DB",right,2019-09-09T00:30:13.000Z,2019-09-09T00:30:12.000Z,5-10,190,09/20/1993,Auburn,CB,NE,PIT,1,Gillette Stadium,"Foxborough, MA",Outdoor,Field Turf,Partly cloudy and mild,66.0,62,2,NW
