,GameId,PlayId,Team,X,Y,S,A,Dis,Orientation,Dir,NflId,DisplayName,JerseyNumber,Season,YardLine,Quarter,GameClock,PossessionTeam,Down,Distance,FieldPosition,HomeScoreBeforePlay,VisitorScoreBeforePlay,NflIdRusher,OffenseFormation,OffensePersonnel,DefendersInTheBox,DefensePersonnel,PlayDirection,TimeHandoff,TimeSnap,PlayerHeight,PlayerWeight,PlayerBirthDate,PlayerCollegeName,Position,HomeTeamAbbr,VisitorTeamAbbr,Week,Stadium,Location,StadiumType,Turf,GameWeather,Temperature,Humidity,WindSpeed,WindDirection
11352,2019090811,20190908111521,away,72.81,30.74,1.96,1.86,0.21,81.27,187.72,2495746,Joe Staley,74,2019,37,2,07:02:00,SF,3,3,TB,7,3,2552453,SHOTGUN,"1 RB, 1 TE, 3 WR",6,"3 DL, 3 LB, 5 DB",right,2019-09-08T21:26:14.000Z,2019-09-08T21:26:12.000Z,6-5,295,08/30/1984,Central Michigan,T,TB,SF,1,Raymond James Stadium,"Tampa, FL",Outdoor,Natural Grass,Cloudy,93.0,52,9,SW
11353,2019090811,20190908111521,away,72.37,27.52,0.65,0.35,0.07,84.68,187.03,2508140,Mike Person,68,2019,37,2,07:02:00,SF,3,3,TB,7,3,2552453,SHOTGUN,"1 RB, 1 TE, 3 WR",6,"3 DL, 3 LB, 5 DB",right,2019-09-08T21:26:14.000Z,2019-09-08T21:26:12.000Z,6-4,299,06/17/1988,Montana State,C,TB,SF,1,Raymond James Stadium,"Tampa, FL",Outdoor,Natural Grass,Cloudy,93.0,52,9,SW
11354,2019090811,20190908111521,away,73.27,22.85,5.41,1.93,0.53,8.82,15.3,2539964,Marquise Goodwin,11,2019,37,2,07:02:00,SF,3,3,TB,7,3,2552453,SHOTGUN,"1 RB, 1 TE, 3 WR",6,"3 DL, 3 LB, 5 DB",right,2019-09-08T21:26:14.000Z,2019-09-08T21:26:12.000Z,5-9,179,11/19/1990,Texas,WR,TB,SF,1,Raymond James Stadium,"Tampa, FL",Outdoor,Natural Grass,Cloudy,93.0,52,9,SW
11355,2019090811,20190908111521,away,73.32,28.1,1.95,0.51,0.21,79.76,164.24,2543705,Weston Richburg,58,2019,37,2,07:02:00,SF,3,3,TB,7,3,2552453,SHOTGUN,"1 RB, 1 TE, 3 WR",6,"3 DL, 3 LB, 5 DB",right,2019-09-08T21:26:14.000Z,2019-09-08T21:26:12.000Z,6-4,290,07/09/1991,Colorado State,C,TB,SF,1,Raymond James Stadium,"Tampa, FL",Outdoor,Natural Grass,Cloudy,93.0,52,9,SW
11356,2019090811,20190908111521,away,68.03,29.87,0.99,2.42,0.09,83.24,259.24,2543801,Jimmy Garoppolo,10,2019,37,2,07:02:00,SF,3,3,TB,7,3,2552453,SHOTGUN,"1 RB, 1 TE, 3 WR",6,"3 DL, 3 LB, 5 DB",right,2019-09-08T21:26:14.000Z,2019-09-08T21:26:12.000Z,6-2,225,11/02/1991,Eastern Illinois,QB,TB,SF,1,Raymond James Stadium,"Tampa, FL",Outdoor,Natural Grass,Cloudy,93.0,52,9,SW
11357,2019090811,20190908111521,away,72.61,28.86,2.09,1.93,0.21,86.34,170.26,2552345,Laken Tomlinson,75,2019,37,2,07:02:00,SF,3,3,TB,7,3,2552453,SHOTGUN,"1 RB, 1 TE, 3 WR",6,"3 DL, 3 LB, 5 DB",right,2019-09-08T21:26:14.000Z,2019-09-08T21:26:12.000Z,6-3,312,02/09/1992,Duke,G,TB,SF,1,Raymond James Stadium,"Tampa, FL",Outdoor,Natural Grass,Cloudy,93.0,52,9,SW
11358,2019090811,20190908111521,away,68.96,29.85,4.23,2.72,0.41,143.45,155.58,2552453,Tevin Coleman,26,2019,37,2,07:02:00,SF,3,3,TB,7,3,2552453,SHOTGUN,"1 RB, 1 TE, 3 WR",6,"3 DL, 3 LB, 5 DB",right,2019-09-08T21:26:14.000Z,2019-09-08T21:26:12.000Z,6-1,210,04/16/1993,Indiana,RB,TB,SF,1,Raymond James Stadium,"Tampa, FL",Outdoor,Natural Grass,Cloudy,93.0,52,9,SW
11359,2019090811,20190908111521,away,71.15,28.11,3.23,2.23,0.31,59.0,15.17,2558266,George Kittle,85,2019,37,2,07:02:00,SF,3,3,TB,7,3,2552453,SHOTGUN,"1 RB, 1 TE, 3 WR",6,"3 DL, 3 LB, 5 DB",right,2019-09-08T21:26:14.000Z,2019-09-08T21:26:12.000Z,6-4,250,10/09/1993,Iowa,TE,TB,SF,1,Raymond James Stadium,"Tampa, FL",Outdoor,Natural Grass,Cloudy,93.0,52,9,SW
11360,2019090811,20190908111521,away,71.99,36.48,1.97,1.16,0.2,119.07,353.82,2560761,Richie James,13,2019,37,2,07:02:00,SF,3,3,TB,7,3,2552453,SHOTGUN,"1 RB, 1 TE, 3 WR",6,"3 DL, 3 LB, 5 DB",right,2019-09-08T21:26:14.000Z,2019-09-08T21:26:12.000Z,5-9,185,09/05/1995,Middle Tennessee,WR,TB,SF,1,Raymond James Stadium,"Tampa, FL",Outdoor,Natural Grass,Cloudy,93.0,52,9,SW
11361,2019090811,20190908111521,away,72.29,23.38,3.14,1.66,0.32,242.42,185.53,2560805,Mike McGlinchey,69,2019,37,2,07:02:00,SF,3,3,TB,7,3,2552453,SHOTGUN,"1 RB, 1 TE, 3 WR",6,"3 DL, 3 LB, 5 DB",right,2019-09-08T21:26:14.000Z,2019-09-08T21:26:12.000Z,6-8,315,01/12/1995,Notre Dame,OT,TB,SF,1,Raymond James Stadium,"Tampa, FL",Outdoor,Natural Grass,Cloudy,93.0,52,9,SW
11362,2019090811,20190908111521,away,74.6,38.44,4.18,2.42,0.41,92.0,64.78,2562721,Deebo Samuel,19,2019,37,2,07:02:00,SF,3,3,TB,7,3,2552453,SHOTGUN,"1 RB, 1 TE, 3 WR",6,"3 DL, 3 LB, 5 DB",right,2019-09-08T21:26:14.000Z,2019-09-08T21:26:12.000Z,6-0,214,01/15/1996,South Carolina,WR,TB,SF,1,Raymond James Stadium,"Tampa, FL",Outdoor,Natural Grass,Cloudy,93.0,52,9,SW
11363,2019090811,20190908111521,home,77.48,32.63,4.2,2.93,0.42,287.36,208.07,494307,Darian Stewart,24,2019,37,2,07:02:00,SF,3,3,TB,7,3,2552453,SHOTGUN,"1 RB, 1 TE, 3 WR",6,"3 DL, 3 LB, 5 DB",right,2019-09-08T21:26:14.000Z,2019-09-08T21:26:12.000Z,5-11,214,08/04/1988,South Carolina,FS,TB,SF,1,Raymond James Stadium,"Tampa, FL",Outdoor,Natural Grass,Cloudy,93.0,52,9,SW
11364,2019090811,20190908111521,home,72.92,29.56,2.94,1.18,0.3,230.93,207.43,496861,Ndamukong Suh,93,2019,37,2,07:02:00,SF,3,3,TB,7,3,2552453,SHOTGUN,"1 RB, 1 TE, 3 WR",6,"3 DL, 3 LB, 5 DB",right,2019-09-08T21:26:14.000Z,2019-09-08T21:26:12.000Z,6-4,313,01/06/1987,Nebraska,DT,TB,SF,1,Raymond James Stadium,"Tampa, FL",Outdoor,Natural Grass,Cloudy,93.0,52,9,SW
11365,2019090811,20190908111521,home,72.67,35.75,1.91,2.16,0.2,252.38,254.31,2532828,Lavonte David,54,2019,37,2,07:02:00,SF,3,3,TB,7,3,2552453,SHOTGUN,"1 RB, 1 TE, 3 WR",6,"3 DL, 3 LB, 5 DB",right,2019-09-08T21:26:14.000Z,2019-09-08T21:26:12.000Z,6-1,233,01/23/1990,Nebraska,OLB,TB,SF,1,Raymond James Stadium,"Tampa, FL",Outdoor,Natural Grass,Cloudy,93.0,52,9,SW
11366,2019090811,20190908111521,home,72.86,27.74,1.12,2.1,0.11,239.13,280.09,2555270,Carl Nassib,94,2019,37,2,07:02:00,SF,3,3,TB,7,3,2552453,SHOTGUN,"1 RB, 1 TE, 3 WR",6,"3 DL, 3 LB, 5 DB",right,2019-09-08T21:26:14.000Z,2019-09-08T21:26:12.000Z,6-7,275,04/12/1993,Penn State,DE,TB,SF,1,Raymond James Stadium,"Tampa, FL",Outdoor,Natural Grass,Cloudy,93.0,52,9,SW
11367,2019090811,20190908111521,home,79.88,36.91,1.74,1.2,0.17,269.74,67.28,2555299,Vernon Hargreaves III,28,2019,37,2,07:02:00,SF,3,3,TB,7,3,2552453,SHOTGUN,"1 RB, 1 TE, 3 WR",6,"3 DL, 3 LB, 5 DB",right,2019-09-08T21:26:14.000Z,2019-09-08T21:26:12.000Z,5-10,204,06/03/1995,Florida,CB,TB,SF,1,Raymond James Stadium,"Tampa, FL",Outdoor,Natural Grass,Cloudy,93.0,52,9,SW
11368,2019090811,20190908111521,home,75.27,35.49,1.99,2.08,0.2,267.01,16.26,2560884,M.J. Stewart,36,2019,37,2,07:02:00,SF,3,3,TB,7,3,2552453,SHOTGUN,"1 RB, 1 TE, 3 WR",6,"3 DL, 3 LB, 5 DB",right,2019-09-08T21:26:14.000Z,2019-09-08T21:26:12.000Z,5-11,205,09/16/1995,North Carolina,CB,TB,SF,1,Raymond James Stadium,"Tampa, FL",Outdoor,Natural Grass,Cloudy,93.0,52,9,SW
11369,2019090811,20190908111521,home,74.33,28.0,2.51,0.43,0.27,253.41,177.68,2560909,Vita Vea,50,2019,37,2,07:02:00,SF,3,3,TB,7,3,2552453,SHOTGUN,"1 RB, 1 TE, 3 WR",6,"3 DL, 3 LB, 5 DB",right,2019-09-08T21:26:14.000Z,2019-09-08T21:26:12.000Z,6-4,347,02/05/1995,Washington,DT,TB,SF,1,Raymond James Stadium,"Tampa, FL",Outdoor,Natural Grass,Cloudy,93.0,52,9,SW
11370,2019090811,20190908111521,home,74.81,24.15,3.51,1.6,0.34,272.19,343.3,2560930,Jordan Whitehead,31,2019,37,2,07:02:00,SF,3,3,TB,7,3,2552453,SHOTGUN,"1 RB, 1 TE, 3 WR",6,"3 DL, 3 LB, 5 DB",right,2019-09-08T21:26:14.000Z,2019-09-08T21:26:12.000Z,5-10,198,03/18/1997,Pittsburgh,DB,TB,SF,1,Raymond James Stadium,"Tampa, FL",Outdoor,Natural Grass,Cloudy,93.0,52,9,SW
11371,2019090811,20190908111521,home,80.06,20.95,2.37,2.11,0.23,283.82,346.17,2561039,Carlton Davis,33,2019,37,2,07:02:00,SF,3,3,TB,7,3,2552453,SHOTGUN,"1 RB, 1 TE, 3 WR",6,"3 DL, 3 LB, 5 DB",right,2019-09-08T21:26:14.000Z,2019-09-08T21:26:12.000Z,6-1,206,12/31/1996,Auburn,CB,TB,SF,1,Raymond James Stadium,"Tampa, FL",Outdoor,Natural Grass,Cloudy,93.0,52,9,SW
11372,2019090811,20190908111521,home,71.98,22.93,2.89,0.34,0.29,328.64,234.12,2562507,Anthony Nelson,98,2019,37,2,07:02:00,SF,3,3,TB,7,3,2552453,SHOTGUN,"1 RB, 1 TE, 3 WR",6,"3 DL, 3 LB, 5 DB",right,2019-09-08T21:26:14.000Z,2019-09-08T21:26:12.000Z,6-7,272,03/04/1997,Iowa,DL,TB,SF,1,Raymond James Stadium,"Tampa, FL",Outdoor,Natural Grass,Cloudy,93.0,52,9,SW
11373,2019090811,20190908111521,home,73.07,31.5,3.8,4.01,0.38,175.68,238.97,2562781,Devin White,45,2019,37,2,07:02:00,SF,3,3,TB,7,3,2552453,SHOTGUN,"1 RB, 1 TE, 3 WR",6,"3 DL, 3 LB, 5 DB",right,2019-09-08T21:26:14.000Z,2019-09-08T21:26:12.000Z,6-0,237,02/17/1998,Louisiana State,LB,TB,SF,1,Raymond James Stadium,"Tampa, FL",Outdoor,Natural Grass,Cloudy,93.0,52,9,SW
