,GameId,PlayId,Team,X,Y,S,A,Dis,Orientation,Dir,NflId,DisplayName,JerseyNumber,Season,YardLine,Quarter,GameClock,PossessionTeam,Down,Distance,FieldPosition,HomeScoreBeforePlay,VisitorScoreBeforePlay,NflIdRusher,OffenseFormation,OffensePersonnel,DefendersInTheBox,DefensePersonnel,PlayDirection,TimeHandoff,TimeSnap,PlayerHeight,PlayerWeight,PlayerBirthDate,PlayerCollegeName,Position,HomeTeamAbbr,VisitorTeamAbbr,Week,Stadium,Location,StadiumType,Turf,GameWeather,Temperature,Humidity,WindSpeed,WindDirection
74426,2019100700,20191007000124,away,70.44,31.05,1.11,1.39,0.12,336.86,345.48,2540292,JC Tretter,64,2019,40,1,14:27:00,CLV,2,15,CLV,0,0,2561021,SINGLEBACK,"1 RB, 2 TE, 2 WR",7,"4 DL, 3 LB, 4 DB",left,2019-10-08T00:18:03.000Z,2019-10-08T00:18:01.000Z,6-4,307,02/12/1991,Cornell,T,SF,CLE,5,Levis Stadium,"Santa Clara, CA",Outdoor,Natural Grass,Clear,87.0,36,8,NW
74427,2019100700,20191007000124,away,70.47,26.35,1.89,0.46,0.19,253.67,317.97,2541187,Demetrius Harris,88,2019,40,1,14:27:00,CLV,2,15,CLV,0,0,2561021,SINGLEBACK,"1 RB, 2 TE, 2 WR",7,"4 DL, 3 LB, 4 DB",left,2019-10-08T00:18:03.000Z,2019-10-08T00:18:01.000Z,6-7,230,07/29/1991,Wisconsin-Milwaukee,TE,SF,CLE,5,Levis Stadium,"Santa Clara, CA",Outdoor,Natural Grass,Clear,87.0,36,8,NW
74428,2019100700,20191007000124,away,70.74,31.61,0.88,0.79,0.09,282.99,28.88,2541312,Eric Kush,72,2019,40,1,14:27:00,CLV,2,15,CLV,0,0,2561021,SINGLEBACK,"1 RB, 2 TE, 2 WR",7,"4 DL, 3 LB, 4 DB",left,2019-10-08T00:18:03.000Z,2019-10-08T00:18:01.000Z,6-4,317,09/09/1989,"California, Pa.",OG,SF,CLE,5,Levis Stadium,"Santa Clara, CA",Outdoor,Natural Grass,Clear,87.0,36,8,NW
74429,2019100700,20191007000124,away,71.16,33.89,1.22,0.92,0.12,342.77,325.73,2541716,Chris Hubbard,74,2019,40,1,14:27:00,CLV,2,15,CLV,0,0,2561021,SINGLEBACK,"1 RB, 2 TE, 2 WR",7,"4 DL, 3 LB, 4 DB",left,2019-10-08T00:18:03.000Z,2019-10-08T00:18:01.000Z,6-4,295,04/23/1991,Alabama-Birmingham,G,SF,CLE,5,Levis Stadium,"Santa Clara, CA",Outdoor,Natural Grass,Clear,87.0,36,8,NW
74430,2019100700,20191007000124,away,70.32,27.83,1.81,1.12,0.19,335.05,313.88,2543458,Greg Robinson,78,2019,40,1,14:27:00,CLV,2,15,CLV,0,0,2561021,SINGLEBACK,"1 RB, 2 TE, 2 WR",7,"4 DL, 3 LB, 4 DB",left,2019-10-08T00:18:03.000Z,2019-10-08T00:18:01.000Z,6-5,332,10/21/1992,Auburn,OT,SF,CLE,5,Levis Stadium,"Santa Clara, CA",Outdoor,Natural Grass,Clear,87.0,36,8,NW
74431,2019100700,20191007000124,away,71.0,21.97,4.5,0.7,0.43,306.24,344.98,2543488,Jarvis Landry,80,2019,40,1,14:27:00,CLV,2,15,CLV,0,0,2561021,SINGLEBACK,"1 RB, 2 TE, 2 WR",7,"4 DL, 3 LB, 4 DB",left,2019-10-08T00:18:03.000Z,2019-10-08T00:18:01.000Z,5-11,196,11/28/1992,Louisiana State,WR,SF,CLE,5,Levis Stadium,"Santa Clara, CA",Outdoor,Natural Grass,Clear,87.0,36,8,NW
74432,2019100700,20191007000124,away,70.29,43.75,1.71,1.94,0.16,283.59,253.11,2543496,Odell Beckham,13,2019,40,1,14:27:00,CLV,2,15,CLV,0,0,2561021,SINGLEBACK,"1 RB, 2 TE, 2 WR",7,"4 DL, 3 LB, 4 DB",left,2019-10-08T00:18:03.000Z,2019-10-08T00:18:01.000Z,5-11,198,11/05/1992,Louisiana State,WR,SF,CLE,5,Levis Stadium,"Santa Clara, CA",Outdoor,Natural Grass,Clear,87.0,36,8,NW
74433,2019100700,20191007000124,away,70.98,28.86,1.23,0.51,0.12,285.89,345.28,2543737,Joel Bitonio,75,2019,40,1,14:27:00,CLV,2,15,CLV,0,0,2561021,SINGLEBACK,"1 RB, 2 TE, 2 WR",7,"4 DL, 3 LB, 4 DB",left,2019-10-08T00:18:03.000Z,2019-10-08T00:18:01.000Z,6-4,320,10/11/1991,Nevada,G,SF,CLE,5,Levis Stadium,"Santa Clara, CA",Outdoor,Natural Grass,Clear,87.0,36,8,NW
74434,2019100700,20191007000124,away,71.7,25.04,1.88,0.84,0.19,284.58,21.24,2559018,Pharaoh Brown,86,2019,40,1,14:27:00,CLV,2,15,CLV,0,0,2561021,SINGLEBACK,"1 RB, 2 TE, 2 WR",7,"4 DL, 3 LB, 4 DB",left,2019-10-08T00:18:03.000Z,2019-10-08T00:18:01.000Z,6-6,258,05/04/1994,Oregon,TE,SF,CLE,5,Levis Stadium,"Santa Clara, CA",Outdoor,Natural Grass,Clear,87.0,36,8,NW
74435,2019100700,20191007000124,away,75.02,29.28,5.24,1.44,0.51,58.78,98.52,2560800,Baker Mayfield,6,2019,40,1,14:27:00,CLV,2,15,CLV,0,0,2561021,SINGLEBACK,"1 RB, 2 TE, 2 WR",7,"4 DL, 3 LB, 4 DB",left,2019-10-08T00:18:03.000Z,2019-10-08T00:18:01.000Z,6-1,215,04/14/1995,Oklahoma,QB,SF,CLE,5,Levis Stadium,"Santa Clara, CA",Outdoor,Natural Grass,Clear,87.0,36,8,NW
74436,2019100700,20191007000124,away,75.52,28.45,4.49,2.25,0.44,272.44,250.84,2561021,Nick Chubb,24,2019,40,1,14:27:00,CLV,2,15,CLV,0,0,2561021,SINGLEBACK,"1 RB, 2 TE, 2 WR",7,"4 DL, 3 LB, 4 DB",left,2019-10-08T00:18:03.000Z,2019-10-08T00:18:01.000Z,5-11,225,12/27/1995,Georgia,RB,SF,CLE,5,Levis Stadium,"Santa Clara, CA",Outdoor,Natural Grass,Clear,87.0,36,8,NW
74437,2019100700,20191007000124,home,69.07,44.03,1.54,2.32,0.14,91.38,298.89,2495507,Richard Sherman,25,2019,40,1,14:27:00,CLV,2,15,CLV,0,0,2561021,SINGLEBACK,"1 RB, 2 TE, 2 WR",7,"4 DL, 3 LB, 4 DB",left,2019-10-08T00:18:03.000Z,2019-10-08T00:18:01.000Z,6-3,195,03/30/1988,Stanford,CB,SF,CLE,5,Levis Stadium,"Santa Clara, CA",Outdoor,Natural Grass,Clear,87.0,36,8,NW
74438,2019100700,20191007000124,home,71.52,35.21,0.88,1.64,0.08,117.74,88.76,2543494,Dee Ford,55,2019,40,1,14:27:00,CLV,2,15,CLV,0,0,2561021,SINGLEBACK,"1 RB, 2 TE, 2 WR",7,"4 DL, 3 LB, 4 DB",left,2019-10-08T00:18:03.000Z,2019-10-08T00:18:01.000Z,6-2,252,03/19/1991,Auburn,DE,SF,CLE,5,Levis Stadium,"Santa Clara, CA",Outdoor,Natural Grass,Clear,87.0,36,8,NW
74439,2019100700,20191007000124,home,54.28,28.09,0.09,0.48,0.06,82.57,270.1,2543741,Jimmie Ward,20,2019,40,1,14:27:00,CLV,2,15,CLV,0,0,2561021,SINGLEBACK,"1 RB, 2 TE, 2 WR",7,"4 DL, 3 LB, 4 DB",left,2019-10-08T00:18:03.000Z,2019-10-08T00:18:01.000Z,5-11,193,07/18/1991,Northern Illinois,FS,SF,CLE,5,Levis Stadium,"Santa Clara, CA",Outdoor,Natural Grass,Clear,87.0,36,8,NW
74440,2019100700,20191007000124,home,69.6,23.68,2.11,1.14,0.2,89.55,32.0,2552391,Jaquiski Tartt,29,2019,40,1,14:27:00,CLV,2,15,CLV,0,0,2561021,SINGLEBACK,"1 RB, 2 TE, 2 WR",7,"4 DL, 3 LB, 4 DB",left,2019-10-08T00:18:03.000Z,2019-10-08T00:18:01.000Z,6-1,215,02/12/1992,Samford,FS,SF,CLE,5,Levis Stadium,"Santa Clara, CA",Outdoor,Natural Grass,Clear,87.0,36,8,NW
74441,2019100700,20191007000124,home,70.34,31.82,1.24,0.86,0.13,103.17,24.26,2552493,Arik Armstead,91,2019,40,1,14:27:00,CLV,2,15,CLV,0,0,2561021,SINGLEBACK,"1 RB, 2 TE, 2 WR",7,"4 DL, 3 LB, 4 DB",left,2019-10-08T00:18:03.000Z,2019-10-08T00:18:01.000Z,6-7,292,11/15/1993,Oregon,DE,SF,CLE,5,Levis Stadium,"Santa Clara, CA",Outdoor,Natural Grass,Clear,87.0,36,8,NW
74442,2019100700,20191007000124,home,69.13,26.39,2.3,0.97,0.23,110.7,57.66,2552592,Kwon Alexander,56,2019,40,1,14:27:00,CLV,2,15,CLV,0,0,2561021,SINGLEBACK,"1 RB, 2 TE, 2 WR",7,"4 DL, 3 LB, 4 DB",left,2019-10-08T00:18:03.000Z,2019-10-08T00:18:01.000Z,6-1,227,08/03/1994,Louisiana State,MLB,SF,CLE,5,Levis Stadium,"Santa Clara, CA",Outdoor,Natural Grass,Clear,87.0,36,8,NW
74443,2019100700,20191007000124,home,70.15,28.57,1.38,1.07,0.14,124.6,354.0,2555275,DeForest Buckner,99,2019,40,1,14:27:00,CLV,2,15,CLV,0,0,2561021,SINGLEBACK,"1 RB, 2 TE, 2 WR",7,"4 DL, 3 LB, 4 DB",left,2019-10-08T00:18:03.000Z,2019-10-08T00:18:01.000Z,6-7,300,03/17/1994,Oregon,DE,SF,CLE,5,Levis Stadium,"Santa Clara, CA",Outdoor,Natural Grass,Clear,87.0,36,8,NW
74444,2019100700,20191007000124,home,68.72,28.97,3.47,1.34,0.34,108.46,66.11,2560917,Fred Warner,54,2019,40,1,14:27:00,CLV,2,15,CLV,0,0,2561021,SINGLEBACK,"1 RB, 2 TE, 2 WR",7,"4 DL, 3 LB, 4 DB",left,2019-10-08T00:18:03.000Z,2019-10-08T00:18:01.000Z,6-3,236,11/19/1996,Brigham Young,LB,SF,CLE,5,Levis Stadium,"Santa Clara, CA",Outdoor,Natural Grass,Clear,87.0,36,8,NW
74445,2019100700,20191007000124,home,63.67,18.54,2.62,3.0,0.25,66.64,52.68,2561072,Emmanuel Moseley,41,2019,40,1,14:27:00,CLV,2,15,CLV,0,0,2561021,SINGLEBACK,"1 RB, 2 TE, 2 WR",7,"4 DL, 3 LB, 4 DB",left,2019-10-08T00:18:03.000Z,2019-10-08T00:18:01.000Z,5-11,184,03/25/1996,Tennessee,DB,SF,CLE,5,Levis Stadium,"Santa Clara, CA",Outdoor,Natural Grass,Clear,87.0,36,8,NW
74446,2019100700,20191007000124,home,68.99,32.75,2.71,1.34,0.26,117.86,78.2,2562428,Dre Greenlaw,57,2019,40,1,14:27:00,CLV,2,15,CLV,0,0,2561021,SINGLEBACK,"1 RB, 2 TE, 2 WR",7,"4 DL, 3 LB, 4 DB",left,2019-10-08T00:18:03.000Z,2019-10-08T00:18:01.000Z,6-0,225,05/25/1997,Arkansas,LB,SF,CLE,5,Levis Stadium,"Santa Clara, CA",Outdoor,Natural Grass,Clear,87.0,36,8,NW
74447,2019100700,20191007000124,home,70.92,25.14,1.99,1.38,0.2,76.46,26.09,2562629,Nick Bosa,97,2019,40,1,14:27:00,CLV,2,15,CLV,0,0,2561021,SINGLEBACK,"1 RB, 2 TE, 2 WR",7,"4 DL, 3 LB, 4 DB",left,2019-10-08T00:18:03.000Z,2019-10-08T00:18:01.000Z,6-4,266,10/23/1997,Ohio State,DE,SF,CLE,5,Levis Stadium,"Santa Clara, CA",Outdoor,Natural Grass,Clear,87.0,36,8,NW
