,GameId,PlayId,Team,X,Y,S,A,Dis,Orientation,Dir,NflId,DisplayName,JerseyNumber,Season,YardLine,Quarter,GameClock,PossessionTeam,Down,Distance,FieldPosition,HomeScoreBeforePlay,VisitorScoreBeforePlay,NflIdRusher,OffenseFormation,OffensePersonnel,DefendersInTheBox,DefensePersonnel,PlayDirection,TimeHandoff,TimeSnap,PlayerHeight,PlayerWeight,PlayerBirthDate,PlayerCollegeName,Position,HomeTeamAbbr,VisitorTeamAbbr,Week,Stadium,Location,StadiumType,Turf,GameWeather,Temperature,Humidity,WindSpeed,WindDirection
60676,2019100300,20191003000832,away,69.43,13.5,3.04,2.34,0.29,349.03,91.04,1302,Aqib Talib,21,2019,50,1,02:29:00,SEA,1,10,,0,6,2558865,SINGLEBACK,"1 RB, 2 TE, 2 WR",7,"3 DL, 4 LB, 4 DB",right,2019-10-04T00:55:24.000Z,2019-10-04T00:55:22.000Z,6-1,209,02/13/1986,Kansas,CB,SEA,LA,5,CenturyLink Field,Seattle,Outdoor,FieldTurf,Cloudy,57.0,56,7,SW
60677,2019100300,20191003000832,away,68.15,22.59,0.83,1.77,0.09,273.34,265.02,2495775,Eric Weddle,32,2019,50,1,02:29:00,SEA,1,10,,0,6,2558865,SINGLEBACK,"1 RB, 2 TE, 2 WR",7,"3 DL, 4 LB, 4 DB",right,2019-10-04T00:55:24.000Z,2019-10-04T00:55:22.000Z,5-11,195,01/04/1985,Utah,FS,SEA,LA,5,CenturyLink Field,Seattle,Outdoor,FieldTurf,Cloudy,57.0,56,7,SW
60678,2019100300,20191003000832,away,59.88,31.48,1.71,0.95,0.17,224.71,208.51,2533050,Michael Brockers,90,2019,50,1,02:29:00,SEA,1,10,,0,6,2558865,SINGLEBACK,"1 RB, 2 TE, 2 WR",7,"3 DL, 4 LB, 4 DB",right,2019-10-04T00:55:24.000Z,2019-10-04T00:55:22.000Z,6-5,305,12/21/1990,Louisiana State,DT,SEA,LA,5,CenturyLink Field,Seattle,Outdoor,FieldTurf,Cloudy,57.0,56,7,SW
60679,2019100300,20191003000832,away,59.83,28.37,1.68,1.62,0.17,327.28,350.91,2543485,Aaron Donald,99,2019,50,1,02:29:00,SEA,1,10,,0,6,2558865,SINGLEBACK,"1 RB, 2 TE, 2 WR",7,"3 DL, 4 LB, 4 DB",right,2019-10-04T00:55:24.000Z,2019-10-04T00:55:22.000Z,6-1,280,05/23/1991,Pittsburgh,DT,SEA,LA,5,CenturyLink Field,Seattle,Outdoor,FieldTurf,Cloudy,57.0,56,7,SW
60680,2019100300,20191003000832,away,61.09,43.45,1.37,1.42,0.12,222.73,67.42,2552488,Marcus Peters,22,2019,50,1,02:29:00,SEA,1,10,,0,6,2558865,SINGLEBACK,"1 RB, 2 TE, 2 WR",7,"3 DL, 4 LB, 4 DB",right,2019-10-04T00:55:24.000Z,2019-10-04T00:55:22.000Z,6-0,197,01/09/1993,Washington,CB,SEA,LA,5,CenturyLink Field,Seattle,Outdoor,FieldTurf,Cloudy,57.0,56,7,SW
60681,2019100300,20191003000832,away,58.92,23.64,2.09,2.51,0.21,343.91,337.82,2553431,Dante Fowler,56,2019,50,1,02:29:00,SEA,1,10,,0,6,2558865,SINGLEBACK,"1 RB, 2 TE, 2 WR",7,"3 DL, 4 LB, 4 DB",right,2019-10-04T00:55:24.000Z,2019-10-04T00:55:22.000Z,6-3,255,08/03/1994,Florida,OLB,SEA,LA,5,CenturyLink Field,Seattle,Outdoor,FieldTurf,Cloudy,57.0,56,7,SW
60682,2019100300,20191003000832,away,63.33,25.4,1.71,2.99,0.16,259.4,247.67,2556593,Cory Littleton,58,2019,50,1,02:29:00,SEA,1,10,,0,6,2558865,SINGLEBACK,"1 RB, 2 TE, 2 WR",7,"3 DL, 4 LB, 4 DB",right,2019-10-04T00:55:24.000Z,2019-10-04T00:55:22.000Z,6-3,228,11/18/1993,Washington,ILB,SEA,LA,5,CenturyLink Field,Seattle,Outdoor,FieldTurf,Cloudy,57.0,56,7,SW
60683,2019100300,20191003000832,away,71.61,33.13,0.86,1.35,0.09,288.01,31.49,2558183,John Johnson,43,2019,50,1,02:29:00,SEA,1,10,,0,6,2558865,SINGLEBACK,"1 RB, 2 TE, 2 WR",7,"3 DL, 4 LB, 4 DB",right,2019-10-04T00:55:24.000Z,2019-10-04T00:55:22.000Z,6-0,209,12/19/1995,Boston College,SS,SEA,LA,5,CenturyLink Field,Seattle,Outdoor,FieldTurf,Cloudy,57.0,56,7,SW
60684,2019100300,20191003000832,away,60.26,35.01,2.03,0.97,0.2,237.25,179.04,2558830,Samson Ebukam,50,2019,50,1,02:29:00,SEA,1,10,,0,6,2558865,SINGLEBACK,"1 RB, 2 TE, 2 WR",7,"3 DL, 4 LB, 4 DB",right,2019-10-04T00:55:24.000Z,2019-10-04T00:55:22.000Z,6-3,245,05/09/1995,Eastern Washington,OLB,SEA,LA,5,CenturyLink Field,Seattle,Outdoor,FieldTurf,Cloudy,57.0,56,7,SW
60685,2019100300,20191003000832,away,60.37,30.84,0.33,0.8,0.04,229.45,45.27,2561079,Sebastian Joseph-Day,69,2019,50,1,02:29:00,SEA,1,10,,0,6,2558865,SINGLEBACK,"1 RB, 2 TE, 2 WR",7,"3 DL, 4 LB, 4 DB",right,2019-10-04T00:55:24.000Z,2019-10-04T00:55:22.000Z,6-4,310,03/21/1995,Rutgers,DT,SEA,LA,5,CenturyLink Field,Seattle,Outdoor,FieldTurf,Cloudy,57.0,56,7,SW
60686,2019100300,20191003000832,away,62.63,29.26,3.21,1.66,0.31,275.72,222.17,2563313,Troy Reeder,51,2019,50,1,02:29:00,SEA,1,10,,0,6,2558865,SINGLEBACK,"1 RB, 2 TE, 2 WR",7,"3 DL, 4 LB, 4 DB",right,2019-10-04T00:55:24.000Z,2019-10-04T00:55:22.000Z,6-3,245,09/13/1994,Delaware,LB,SEA,LA,5,CenturyLink Field,Seattle,Outdoor,FieldTurf,Cloudy,57.0,56,7,SW
60687,2019100300,20191003000832,home,58.72,31.42,2.06,0.83,0.21,72.43,183.99,808,Duane Brown,76,2019,50,1,02:29:00,SEA,1,10,,0,6,2558865,SINGLEBACK,"1 RB, 2 TE, 2 WR",7,"3 DL, 4 LB, 4 DB",right,2019-10-04T00:55:24.000Z,2019-10-04T00:55:22.000Z,6-4,315,08/30/1985,Virginia Tech,T,SEA,LA,5,CenturyLink Field,Seattle,Outdoor,FieldTurf,Cloudy,57.0,56,7,SW
60688,2019100300,20191003000832,home,58.84,29.14,3.31,2.0,0.33,112.4,153.82,497016,Mike Iupati,70,2019,50,1,02:29:00,SEA,1,10,,0,6,2558865,SINGLEBACK,"1 RB, 2 TE, 2 WR",7,"3 DL, 4 LB, 4 DB",right,2019-10-04T00:55:24.000Z,2019-10-04T00:55:22.000Z,6-5,331,05/12/1987,Idaho,OG,SEA,LA,5,CenturyLink Field,Seattle,Outdoor,FieldTurf,Cloudy,57.0,56,7,SW
60689,2019100300,20191003000832,home,56.03,29.14,3.51,1.44,0.34,343.8,260.36,2532975,Russell Wilson,3,2019,50,1,02:29:00,SEA,1,10,,0,6,2558865,SINGLEBACK,"1 RB, 2 TE, 2 WR",7,"3 DL, 4 LB, 4 DB",right,2019-10-04T00:55:24.000Z,2019-10-04T00:55:22.000Z,5-11,215,11/29/1988,Wisconsin,QB,SEA,LA,5,CenturyLink Field,Seattle,Outdoor,FieldTurf,Cloudy,57.0,56,7,SW
60690,2019100300,20191003000832,home,58.97,24.66,0.74,1.87,0.07,146.09,36.19,2541199,Luke Willson,82,2019,50,1,02:29:00,SEA,1,10,,0,6,2558865,SINGLEBACK,"1 RB, 2 TE, 2 WR",7,"3 DL, 4 LB, 4 DB",right,2019-10-04T00:55:24.000Z,2019-10-04T00:55:22.000Z,6-5,254,01/15/1990,Rice,TE,SEA,LA,5,CenturyLink Field,Seattle,Outdoor,FieldTurf,Cloudy,57.0,56,7,SW
60691,2019100300,20191003000832,home,59.89,30.13,0.76,0.11,0.08,26.4,96.28,2550135,Justin Britt,68,2019,50,1,02:29:00,SEA,1,10,,0,6,2558865,SINGLEBACK,"1 RB, 2 TE, 2 WR",7,"3 DL, 4 LB, 4 DB",right,2019-10-04T00:55:24.000Z,2019-10-04T00:55:22.000Z,6-6,315,05/29/1991,Missouri,C,SEA,LA,5,CenturyLink Field,Seattle,Outdoor,FieldTurf,Cloudy,57.0,56,7,SW
60692,2019100300,20191003000832,home,59.62,43.19,3.14,1.33,0.3,89.41,83.52,2552430,Tyler Lockett,16,2019,50,1,02:29:00,SEA,1,10,,0,6,2558865,SINGLEBACK,"1 RB, 2 TE, 2 WR",7,"3 DL, 4 LB, 4 DB",right,2019-10-04T00:55:24.000Z,2019-10-04T00:55:22.000Z,5-10,182,09/28/1992,Kansas State,WR,SEA,LA,5,CenturyLink Field,Seattle,Outdoor,FieldTurf,Cloudy,57.0,56,7,SW
60693,2019100300,20191003000832,home,60.82,26.46,2.79,0.82,0.29,91.66,103.39,2555395,Germain Ifedi,65,2019,50,1,02:29:00,SEA,1,10,,0,6,2558865,SINGLEBACK,"1 RB, 2 TE, 2 WR",7,"3 DL, 4 LB, 4 DB",right,2019-10-04T00:55:24.000Z,2019-10-04T00:55:22.000Z,6-5,325,06/02/1994,Texas A&M,G,SEA,LA,5,CenturyLink Field,Seattle,Outdoor,FieldTurf,Cloudy,57.0,56,7,SW
60694,2019100300,20191003000832,home,55.13,29.92,4.47,2.09,0.43,105.22,92.99,2558865,Chris Carson,32,2019,50,1,02:29:00,SEA,1,10,,0,6,2558865,SINGLEBACK,"1 RB, 2 TE, 2 WR",7,"3 DL, 4 LB, 4 DB",right,2019-10-04T00:55:24.000Z,2019-10-04T00:55:22.000Z,5-11,222,09/16/1994,Oklahoma State,RB,SEA,LA,5,CenturyLink Field,Seattle,Outdoor,FieldTurf,Cloudy,57.0,56,7,SW
60695,2019100300,20191003000832,home,60.2,29.0,2.29,1.18,0.23,120.91,75.36,2560768,Jamarco Jones,73,2019,50,1,02:29:00,SEA,1,10,,0,6,2558865,SINGLEBACK,"1 RB, 2 TE, 2 WR",7,"3 DL, 4 LB, 4 DB",right,2019-10-04T00:55:24.000Z,2019-10-04T00:55:22.000Z,6-4,293,06/04/1996,Ohio State,T,SEA,LA,5,CenturyLink Field,Seattle,Outdoor,FieldTurf,Cloudy,57.0,56,7,SW
60696,2019100300,20191003000832,home,59.46,34.22,2.74,2.52,0.26,60.12,127.17,2561046,Will Dissly,88,2019,50,1,02:29:00,SEA,1,10,,0,6,2558865,SINGLEBACK,"1 RB, 2 TE, 2 WR",7,"3 DL, 4 LB, 4 DB",right,2019-10-04T00:55:24.000Z,2019-10-04T00:55:22.000Z,6-4,267,07/08/1996,Washington,TE,SEA,LA,5,CenturyLink Field,Seattle,Outdoor,FieldTurf,Cloudy,57.0,56,7,SW
60697,2019100300,20191003000832,home,60.59,14.88,4.82,2.87,0.46,91.31,78.41,2562685,D.K. Metcalf,14,2019,50,1,02:29:00,SEA,1,10,,0,6,2558865,SINGLEBACK,"1 RB, 2 TE, 2 WR",7,"3 DL, 4 LB, 4 DB",right,2019-10-04T00:55:24.000Z,2019-10-04T00:55:22.000Z,6-4,230,12/14/1997,Mississippi,WR,SEA,LA,5,CenturyLink Field,Seattle,Outdoor,FieldTurf,Cloudy,57.0,56,7,SW
