,GameId,PlayId,Team,X,Y,S,A,Dis,Orientation,Dir,NflId,DisplayName,JerseyNumber,Season,YardLine,Quarter,GameClock,PossessionTeam,Down,Distance,FieldPosition,HomeScoreBeforePlay,VisitorScoreBeforePlay,NflIdRusher,OffenseFormation,OffensePersonnel,DefendersInTheBox,DefensePersonnel,PlayDirection,TimeHandoff,TimeSnap,PlayerHeight,PlayerWeight,PlayerBirthDate,PlayerCollegeName,Position,HomeTeamAbbr,VisitorTeamAbbr,Week,Stadium,Location,StadiumType,Turf,GameWeather,Temperature,Humidity,WindSpeed,WindDirection
15444,2019091200,20190912002640,away,36.88,32.36,1.09,1.09,0.11,309.88,292.51,2507716,Demar Dotson,69,2019,27,3,05:47:00,TB,1,10,CAR,12,10,2556466,SINGLEBACK,"1 RB, 2 TE, 2 WR",6,"4 DL, 3 LB, 4 DB",left,2019-09-13T02:51:05.000Z,2019-09-13T02:51:03.000Z,6-9,315,10/11/1985,Southern Mississippi,OT,CAR,TB,2,Bank of America Stadium,"Charlotte, North Carolina",Outdoors,Natural Grass,Cloudy,85.0,55,3,ENE
15445,2019091200,20190912002640,away,36.93,30.73,1.37,1.03,0.14,328.16,25.24,2541159,Ryan Jensen,66,2019,27,3,05:47:00,TB,1,10,CAR,12,10,2556466,SINGLEBACK,"1 RB, 2 TE, 2 WR",6,"4 DL, 3 LB, 4 DB",left,2019-09-13T02:51:05.000Z,2019-09-13T02:51:03.000Z,6-4,319,05/27/1991,Colorado State-Pueblo,C,CAR,TB,2,Bank of America Stadium,"Charlotte, North Carolina",Outdoors,Natural Grass,Cloudy,85.0,55,3,ENE
15446,2019091200,20190912002640,away,37.11,10.1,2.24,2.53,0.21,295.07,264.35,2543468,Mike Evans,13,2019,27,3,05:47:00,TB,1,10,CAR,12,10,2556466,SINGLEBACK,"1 RB, 2 TE, 2 WR",6,"4 DL, 3 LB, 4 DB",left,2019-09-13T02:51:05.000Z,2019-09-13T02:51:03.000Z,6-5,231,08/21/1993,Texas A&M,WR,CAR,TB,2,Bank of America Stadium,"Charlotte, North Carolina",Outdoors,Natural Grass,Cloudy,85.0,55,3,ENE
15447,2019091200,20190912002640,away,37.43,34.76,1.1,0.76,0.11,212.24,243.0,2550656,Cameron Brate,84,2019,27,3,05:47:00,TB,1,10,CAR,12,10,2556466,SINGLEBACK,"1 RB, 2 TE, 2 WR",6,"4 DL, 3 LB, 4 DB",left,2019-09-13T02:51:05.000Z,2019-09-13T02:51:03.000Z,6-5,245,07/03/1991,Harvard,TE,CAR,TB,2,Bank of America Stadium,"Charlotte, North Carolina",Outdoors,Natural Grass,Cloudy,85.0,55,3,ENE
15448,2019091200,20190912002640,away,40.62,30.01,4.5,1.96,0.44,95.26,88.43,2552033,Jameis Winston,3,2019,27,3,05:47:00,TB,1,10,CAR,12,10,2556466,SINGLEBACK,"1 RB, 2 TE, 2 WR",6,"4 DL, 3 LB, 4 DB",left,2019-09-13T02:51:05.000Z,2019-09-13T02:51:03.000Z,6-4,231,01/06/1994,Florida State,QB,CAR,TB,2,Bank of America Stadium,"Charlotte, North Carolina",Outdoors,Natural Grass,Cloudy,85.0,55,3,ENE
15449,2019091200,20190912002640,away,35.83,29.62,2.87,1.68,0.27,6.41,302.14,2552332,Ali Marpet,74,2019,27,3,05:47:00,TB,1,10,CAR,12,10,2556466,SINGLEBACK,"1 RB, 2 TE, 2 WR",6,"4 DL, 3 LB, 4 DB",left,2019-09-13T02:51:05.000Z,2019-09-13T02:51:03.000Z,6-4,307,04/17/1993,Hobart,G,CAR,TB,2,Bank of America Stadium,"Charlotte, North Carolina",Outdoors,Natural Grass,Cloudy,85.0,55,3,ENE
15450,2019091200,20190912002640,away,37.19,27.67,2.21,0.43,0.22,300.96,325.91,2552460,Donovan Smith,76,2019,27,3,05:47:00,TB,1,10,CAR,12,10,2556466,SINGLEBACK,"1 RB, 2 TE, 2 WR",6,"4 DL, 3 LB, 4 DB",left,2019-09-13T02:51:05.000Z,2019-09-13T02:51:03.000Z,6-6,338,06/23/1993,Penn State,T,CAR,TB,2,Bank of America Stadium,"Charlotte, North Carolina",Outdoors,Natural Grass,Cloudy,85.0,55,3,ENE
15451,2019091200,20190912002640,away,41.61,30.83,3.64,2.27,0.35,164.81,286.97,2556466,Peyton Barber,25,2019,27,3,05:47:00,TB,1,10,CAR,12,10,2556466,SINGLEBACK,"1 RB, 2 TE, 2 WR",6,"4 DL, 3 LB, 4 DB",left,2019-09-13T02:51:05.000Z,2019-09-13T02:51:03.000Z,5-11,225,02/27/1994,Auburn,RB,CAR,TB,2,Bank of America Stadium,"Charlotte, North Carolina",Outdoors,Natural Grass,Cloudy,85.0,55,3,ENE
15452,2019091200,20190912002640,away,36.98,34.48,1.51,1.97,0.15,260.09,276.72,2557856,O.J. Howard,80,2019,27,3,05:47:00,TB,1,10,CAR,12,10,2556466,SINGLEBACK,"1 RB, 2 TE, 2 WR",6,"4 DL, 3 LB, 4 DB",left,2019-09-13T02:51:05.000Z,2019-09-13T02:51:03.000Z,6-6,250,11/18/1994,Alabama,TE,CAR,TB,2,Bank of America Stadium,"Charlotte, North Carolina",Outdoors,Natural Grass,Cloudy,85.0,55,3,ENE
15453,2019091200,20190912002640,away,37.34,21.07,3.69,2.8,0.37,308.29,319.44,2558105,Chris Godwin,12,2019,27,3,05:47:00,TB,1,10,CAR,12,10,2556466,SINGLEBACK,"1 RB, 2 TE, 2 WR",6,"4 DL, 3 LB, 4 DB",left,2019-09-13T02:51:05.000Z,2019-09-13T02:51:03.000Z,6-1,209,02/27/1996,Penn State,WR,CAR,TB,2,Bank of America Stadium,"Charlotte, North Carolina",Outdoors,Natural Grass,Cloudy,85.0,55,3,ENE
15454,2019091200,20190912002640,away,36.68,32.03,1.39,0.31,0.37,35.38,308.64,2560991,Alex Cappa,65,2019,27,3,05:47:00,TB,1,10,CAR,12,10,2556466,SINGLEBACK,"1 RB, 2 TE, 2 WR",6,"4 DL, 3 LB, 4 DB",left,2019-09-13T02:51:05.000Z,2019-09-13T02:51:03.000Z,6-6,305,01/27/1995,Humboldt State,G,CAR,TB,2,Bank of America Stadium,"Charlotte, North Carolina",Outdoors,Natural Grass,Cloudy,85.0,55,3,ENE
15455,2019091200,20190912002640,home,35.81,32.75,1.46,1.97,0.14,119.07,325.74,2507837,Kyle Love,77,2019,27,3,05:47:00,TB,1,10,CAR,12,10,2556466,SINGLEBACK,"1 RB, 2 TE, 2 WR",6,"4 DL, 3 LB, 4 DB",left,2019-09-13T02:51:05.000Z,2019-09-13T02:51:03.000Z,6-1,310,11/18/1986,Mississippi State,NT,CAR,TB,2,Bank of America Stadium,"Charlotte, North Carolina",Outdoors,Natural Grass,Cloudy,85.0,55,3,ENE
15456,2019091200,20190912002640,home,36.47,27.6,3.01,0.66,0.29,89.32,10.52,2530474,Mario Addison,97,2019,27,3,05:47:00,TB,1,10,CAR,12,10,2556466,SINGLEBACK,"1 RB, 2 TE, 2 WR",6,"4 DL, 3 LB, 4 DB",left,2019-09-13T02:51:05.000Z,2019-09-13T02:51:03.000Z,6-3,260,09/06/1987,Troy,DE,CAR,TB,2,Bank of America Stadium,"Charlotte, North Carolina",Outdoors,Natural Grass,Cloudy,85.0,55,3,ENE
15457,2019091200,20190912002640,home,34.53,30.31,1.65,1.52,0.17,139.77,71.19,2533056,Luke Kuechly,59,2019,27,3,05:47:00,TB,1,10,CAR,12,10,2556466,SINGLEBACK,"1 RB, 2 TE, 2 WR",6,"4 DL, 3 LB, 4 DB",left,2019-09-13T02:51:05.000Z,2019-09-13T02:51:03.000Z,6-3,238,04/20/1991,Boston College,MLB,CAR,TB,2,Bank of America Stadium,"Charlotte, North Carolina",Outdoors,Natural Grass,Cloudy,85.0,55,3,ENE
15458,2019091200,20190912002640,home,36.53,31.14,2.02,1.93,0.21,86.99,22.45,2539296,Kawann Short,99,2019,27,3,05:47:00,TB,1,10,CAR,12,10,2556466,SINGLEBACK,"1 RB, 2 TE, 2 WR",6,"4 DL, 3 LB, 4 DB",left,2019-09-13T02:51:05.000Z,2019-09-13T02:51:03.000Z,6-3,315,02/02/1989,Purdue,DT,CAR,TB,2,Bank of America Stadium,"Charlotte, North Carolina",Outdoors,Natural Grass,Cloudy,85.0,55,3,ENE
15459,2019091200,20190912002640,home,26.59,20.3,1.41,2.66,0.16,104.96,17.68,2540152,Eric Reid,25,2019,27,3,05:47:00,TB,1,10,CAR,12,10,2556466,SINGLEBACK,"1 RB, 2 TE, 2 WR",6,"4 DL, 3 LB, 4 DB",left,2019-09-13T02:51:05.000Z,2019-09-13T02:51:03.000Z,6-1,213,12/10/1991,Louisiana State,SS,CAR,TB,2,Bank of America Stadium,"Charlotte, North Carolina",Outdoors,Natural Grass,Cloudy,85.0,55,3,ENE
15460,2019091200,20190912002640,home,18.28,32.45,1.98,0.26,0.2,138.34,228.1,2543830,Tre Boston,33,2019,27,3,05:47:00,TB,1,10,CAR,12,10,2556466,SINGLEBACK,"1 RB, 2 TE, 2 WR",6,"4 DL, 3 LB, 4 DB",left,2019-09-13T02:51:05.000Z,2019-09-13T02:51:03.000Z,6-1,205,06/25/1992,North Carolina,FS,CAR,TB,2,Bank of America Stadium,"Charlotte, North Carolina",Outdoors,Natural Grass,Cloudy,85.0,55,3,ENE
15461,2019091200,20190912002640,home,37.53,25.21,5.44,2.55,0.54,14.68,27.58,2552447,Shaq Thompson,54,2019,27,3,05:47:00,TB,1,10,CAR,12,10,2556466,SINGLEBACK,"1 RB, 2 TE, 2 WR",6,"4 DL, 3 LB, 4 DB",left,2019-09-13T02:51:05.000Z,2019-09-13T02:51:03.000Z,6-0,230,04/21/1994,Washington,OLB,CAR,TB,2,Bank of America Stadium,"Charlotte, North Carolina",Outdoors,Natural Grass,Cloudy,85.0,55,3,ENE
15462,2019091200,20190912002640,home,35.23,10.24,1.64,4.14,0.14,95.91,231.43,2555175,James Bradberry,24,2019,27,3,05:47:00,TB,1,10,CAR,12,10,2556466,SINGLEBACK,"1 RB, 2 TE, 2 WR",6,"4 DL, 3 LB, 4 DB",left,2019-09-13T02:51:05.000Z,2019-09-13T02:51:03.000Z,6-1,212,08/04/1993,Samford,CB,CAR,TB,2,Bank of America Stadium,"Charlotte, North Carolina",Outdoors,Natural Grass,Cloudy,85.0,55,3,ENE
15463,2019091200,20190912002640,home,32.63,37.87,1.42,4.93,0.12,134.81,97.08,2560753,Donte Jackson,26,2019,27,3,05:47:00,TB,1,10,CAR,12,10,2556466,SINGLEBACK,"1 RB, 2 TE, 2 WR",6,"4 DL, 3 LB, 4 DB",left,2019-09-13T02:51:05.000Z,2019-09-13T02:51:03.000Z,5-10,180,11/08/1995,Louisiana State,DB,CAR,TB,2,Bank of America Stadium,"Charlotte, North Carolina",Outdoors,Natural Grass,Cloudy,85.0,55,3,ENE
15464,2019091200,20190912002640,home,33.63,33.69,1.32,0.82,0.13,108.71,96.69,2561093,Jermaine Carter,56,2019,27,3,05:47:00,TB,1,10,CAR,12,10,2556466,SINGLEBACK,"1 RB, 2 TE, 2 WR",6,"4 DL, 3 LB, 4 DB",left,2019-09-13T02:51:05.000Z,2019-09-13T02:51:03.000Z,6-1,225,01/14/1995,Maryland,LB,CAR,TB,2,Bank of America Stadium,"Charlotte, North Carolina",Outdoors,Natural Grass,Cloudy,85.0,55,3,ENE
15465,2019091200,20190912002640,home,36.56,34.92,0.29,1.08,0.03,149.75,138.21,2562242,Brian Burns,53,2019,27,3,05:47:00,TB,1,10,CAR,12,10,2556466,SINGLEBACK,"1 RB, 2 TE, 2 WR",6,"4 DL, 3 LB, 4 DB",left,2019-09-13T02:51:05.000Z,2019-09-13T02:51:03.000Z,6-5,250,04/23/1998,Florida State,DL,CAR,TB,2,Bank of America Stadium,"Charlotte, North Carolina",Outdoors,Natural Grass,Cloudy,85.0,55,3,ENE
