,GameId,PlayId,Team,X,Y,S,A,Dis,Orientation,Dir,NflId,DisplayName,JerseyNumber,Season,YardLine,Quarter,GameClock,PossessionTeam,Down,Distance,FieldPosition,HomeScoreBeforePlay,VisitorScoreBeforePlay,NflIdRusher,OffenseFormation,OffensePersonnel,DefendersInTheBox,DefensePersonnel,PlayDirection,TimeHandoff,TimeSnap,PlayerHeight,PlayerWeight,PlayerBirthDate,PlayerCollegeName,Position,HomeTeamAbbr,VisitorTeamAbbr,Week,Stadium,Location,StadiumType,Turf,GameWeather,Temperature,Humidity,WindSpeed,WindDirection
22242,2019091506,20190915062228,away,74.19,24.04,2.54,1.59,0.26,1.83,104.5,496796,Jerry Hughes,55,2019,37,3,13:30:00,NYG,1,10,NYG,7,21,2560968,SINGLEBACK,"1 RB, 2 TE, 2 WR",6,"4 DL, 2 LB, 5 DB",left,2019-09-15T18:50:24.000Z,2019-09-15T18:50:23.000Z,6-2,254,08/13/1988,Texas Christian,DE,NYG,BUF,2,MetLife Stadium,"East Rutherford, NJ",,UBU Speed Series-S5-M,Fair,79.0,48,5,NNW
22243,2019091506,20190915062228,away,70.96,33.73,5.96,4.05,0.59,161.42,127.73,2539240,Micah Hyde,23,2019,37,3,13:30:00,NYG,1,10,NYG,7,21,2560968,SINGLEBACK,"1 RB, 2 TE, 2 WR",6,"4 DL, 2 LB, 5 DB",left,2019-09-15T18:50:24.000Z,2019-09-15T18:50:23.000Z,6-0,197,12/31/1990,Iowa,SS,NYG,BUF,2,MetLife Stadium,"East Rutherford, NJ",,UBU Speed Series-S5-M,Fair,79.0,48,5,NNW
22244,2019091506,20190915062228,away,57.12,23.5,4.47,0.45,0.45,22.34,298.8,2539290,Jordan Poyer,21,2019,37,3,13:30:00,NYG,1,10,NYG,7,21,2560968,SINGLEBACK,"1 RB, 2 TE, 2 WR",6,"4 DL, 2 LB, 5 DB",left,2019-09-15T18:50:24.000Z,2019-09-15T18:50:23.000Z,6-0,191,04/25/1991,Oregon State,FS,NYG,BUF,2,MetLife Stadium,"East Rutherford, NJ",,UBU Speed Series-S5-M,Fair,79.0,48,5,NNW
22245,2019091506,20190915062228,away,72.6,28.49,2.37,0.42,0.25,116.19,188.78,2539329,Star Lotulelei,98,2019,37,3,13:30:00,NYG,1,10,NYG,7,21,2560968,SINGLEBACK,"1 RB, 2 TE, 2 WR",6,"4 DL, 2 LB, 5 DB",left,2019-09-15T18:50:24.000Z,2019-09-15T18:50:23.000Z,6-2,318,12/20/1989,Utah,DT,NYG,BUF,2,MetLife Stadium,"East Rutherford, NJ",,UBU Speed Series-S5-M,Fair,79.0,48,5,NNW
22246,2019091506,20190915062228,away,72.35,30.48,2.97,1.39,0.31,122.17,176.72,2543503,Trent Murphy,93,2019,37,3,13:30:00,NYG,1,10,NYG,7,21,2560968,SINGLEBACK,"1 RB, 2 TE, 2 WR",6,"4 DL, 2 LB, 5 DB",left,2019-09-15T18:50:24.000Z,2019-09-15T18:50:23.000Z,6-6,259,12/22/1990,Stanford,DE,NYG,BUF,2,MetLife Stadium,"East Rutherford, NJ",,UBU Speed Series-S5-M,Fair,79.0,48,5,NNW
22247,2019091506,20190915062228,away,71.69,20.62,2.71,2.69,0.26,85.81,189.12,2553562,Dean Marlowe,31,2019,37,3,13:30:00,NYG,1,10,NYG,7,21,2560968,SINGLEBACK,"1 RB, 2 TE, 2 WR",6,"4 DL, 2 LB, 5 DB",left,2019-09-15T18:50:24.000Z,2019-09-15T18:50:23.000Z,6-1,208,07/25/1992,James Madison,DB,NYG,BUF,2,MetLife Stadium,"East Rutherford, NJ",,UBU Speed Series-S5-M,Fair,79.0,48,5,NNW
22248,2019091506,20190915062228,away,67.13,40.65,3.32,4.56,0.33,170.67,200.28,2557867,Tre'Davious White,27,2019,37,3,13:30:00,NYG,1,10,NYG,7,21,2560968,SINGLEBACK,"1 RB, 2 TE, 2 WR",6,"4 DL, 2 LB, 5 DB",left,2019-09-15T18:50:24.000Z,2019-09-15T18:50:23.000Z,5-11,192,01/16/1995,Louisiana State,CB,NYG,BUF,2,MetLife Stadium,"East Rutherford, NJ",,UBU Speed Series-S5-M,Fair,79.0,48,5,NNW
22249,2019091506,20190915062228,away,71.32,27.88,2.48,1.68,0.26,97.57,157.25,2557969,Matt Milano,58,2019,37,3,13:30:00,NYG,1,10,NYG,7,21,2560968,SINGLEBACK,"1 RB, 2 TE, 2 WR",6,"4 DL, 2 LB, 5 DB",left,2019-09-15T18:50:24.000Z,2019-09-15T18:50:23.000Z,6-0,223,07/28/1994,Boston College,OLB,NYG,BUF,2,MetLife Stadium,"East Rutherford, NJ",,UBU Speed Series-S5-M,Fair,79.0,48,5,NNW
22250,2019091506,20190915062228,away,71.23,24.0,2.37,1.11,0.25,99.98,125.53,2560713,Tremaine Edmunds,49,2019,37,3,13:30:00,NYG,1,10,NYG,7,21,2560968,SINGLEBACK,"1 RB, 2 TE, 2 WR",6,"4 DL, 2 LB, 5 DB",left,2019-09-15T18:50:24.000Z,2019-09-15T18:50:23.000Z,6-5,250,05/02/1998,Virginia Tech,LB,NYG,BUF,2,MetLife Stadium,"East Rutherford, NJ",,UBU Speed Series-S5-M,Fair,79.0,48,5,NNW
22251,2019091506,20190915062228,away,68.62,10.02,4.71,1.77,0.46,344.32,265.2,2560914,Levi Wallace,39,2019,37,3,13:30:00,NYG,1,10,NYG,7,21,2560968,SINGLEBACK,"1 RB, 2 TE, 2 WR",6,"4 DL, 2 LB, 5 DB",left,2019-09-15T18:50:24.000Z,2019-09-15T18:50:23.000Z,6-0,179,06/12/1995,Alabama,CB,NYG,BUF,2,MetLife Stadium,"East Rutherford, NJ",,UBU Speed Series-S5-M,Fair,79.0,48,5,NNW
22252,2019091506,20190915062228,away,74.05,26.45,1.69,1.36,0.17,102.93,118.42,2562322,Ed Oliver,91,2019,37,3,13:30:00,NYG,1,10,NYG,7,21,2560968,SINGLEBACK,"1 RB, 2 TE, 2 WR",6,"4 DL, 2 LB, 5 DB",left,2019-09-15T18:50:24.000Z,2019-09-15T18:50:23.000Z,6-1,287,12/12/1997,Houston,DT,NYG,BUF,2,MetLife Stadium,"East Rutherford, NJ",,UBU Speed Series-S5-M,Fair,79.0,48,5,NNW
22253,2019091506,20190915062228,home,73.5,24.25,2.83,1.02,0.29,227.5,208.85,2495232,Nate Solder,76,2019,37,3,13:30:00,NYG,1,10,NYG,7,21,2560968,SINGLEBACK,"1 RB, 2 TE, 2 WR",6,"4 DL, 2 LB, 5 DB",left,2019-09-15T18:50:24.000Z,2019-09-15T18:50:23.000Z,6-9,325,04/12/1988,Colorado,T,NYG,BUF,2,MetLife Stadium,"East Rutherford, NJ",,UBU Speed Series-S5-M,Fair,79.0,48,5,NNW
22254,2019091506,20190915062228,home,77.62,28.35,3.89,2.25,0.39,97.11,93.78,2505996,Eli Manning,10,2019,37,3,13:30:00,NYG,1,10,NYG,7,21,2560968,SINGLEBACK,"1 RB, 2 TE, 2 WR",6,"4 DL, 2 LB, 5 DB",left,2019-09-15T18:50:24.000Z,2019-09-15T18:50:23.000Z,6-5,218,01/03/1981,Mississippi,QB,NYG,BUF,2,MetLife Stadium,"East Rutherford, NJ",,UBU Speed Series-S5-M,Fair,79.0,48,5,NNW
22255,2019091506,20190915062228,home,75.16,26.72,4.06,0.89,0.4,6.77,354.34,2532835,Rhett Ellison,85,2019,37,3,13:30:00,NYG,1,10,NYG,7,21,2560968,SINGLEBACK,"1 RB, 2 TE, 2 WR",6,"4 DL, 2 LB, 5 DB",left,2019-09-15T18:50:24.000Z,2019-09-15T18:50:23.000Z,6-5,255,10/03/1988,Southern California,TE,NYG,BUF,2,MetLife Stadium,"East Rutherford, NJ",,UBU Speed Series-S5-M,Fair,79.0,48,5,NNW
22256,2019091506,20190915062228,home,73.5,28.63,2.83,0.71,0.29,241.26,190.34,2532980,Kevin Zeitler,70,2019,37,3,13:30:00,NYG,1,10,NYG,7,21,2560968,SINGLEBACK,"1 RB, 2 TE, 2 WR",6,"4 DL, 2 LB, 5 DB",left,2019-09-15T18:50:24.000Z,2019-09-15T18:50:23.000Z,6-4,315,03/08/1990,Wisconsin,G,NYG,BUF,2,MetLife Stadium,"East Rutherford, NJ",,UBU Speed Series-S5-M,Fair,79.0,48,5,NNW
22257,2019091506,20190915062228,home,73.28,30.42,2.51,1.9,0.26,292.14,193.19,2535607,Mike Remmers,74,2019,37,3,13:30:00,NYG,1,10,NYG,7,21,2560968,SINGLEBACK,"1 RB, 2 TE, 2 WR",6,"4 DL, 2 LB, 5 DB",left,2019-09-15T18:50:24.000Z,2019-09-15T18:50:23.000Z,6-5,310,04/11/1989,Oregon State,T,NYG,BUF,2,MetLife Stadium,"East Rutherford, NJ",,UBU Speed Series-S5-M,Fair,79.0,48,5,NNW
22258,2019091506,20190915062228,home,72.55,38.5,5.37,2.45,0.52,194.27,203.72,2543590,Cody Latimer,12,2019,37,3,13:30:00,NYG,1,10,NYG,7,21,2560968,SINGLEBACK,"1 RB, 2 TE, 2 WR",6,"4 DL, 2 LB, 5 DB",left,2019-09-15T18:50:24.000Z,2019-09-15T18:50:23.000Z,6-3,215,10/10/1992,Indiana,WR,NYG,BUF,2,MetLife Stadium,"East Rutherford, NJ",,UBU Speed Series-S5-M,Fair,79.0,48,5,NNW
22259,2019091506,20190915062228,home,73.09,27.27,2.72,0.69,0.28,267.97,204.17,2543708,Jon Halapio,75,2019,37,3,13:30:00,NYG,1,10,NYG,7,21,2560968,SINGLEBACK,"1 RB, 2 TE, 2 WR",6,"4 DL, 2 LB, 5 DB",left,2019-09-15T18:50:24.000Z,2019-09-15T18:50:23.000Z,6-4,315,06/23/1991,Florida,C,NYG,BUF,2,MetLife Stadium,"East Rutherford, NJ",,UBU Speed Series-S5-M,Fair,79.0,48,5,NNW
22260,2019091506,20190915062228,home,73.07,11.3,4.7,2.3,0.45,258.03,268.97,2550198,Bennie Fowler,18,2019,37,3,13:30:00,NYG,1,10,NYG,7,21,2560968,SINGLEBACK,"1 RB, 2 TE, 2 WR",6,"4 DL, 2 LB, 5 DB",left,2019-09-15T18:50:24.000Z,2019-09-15T18:50:23.000Z,6-1,218,06/10/1991,Michigan State,WR,NYG,BUF,2,MetLife Stadium,"East Rutherford, NJ",,UBU Speed Series-S5-M,Fair,79.0,48,5,NNW
22261,2019091506,20190915062228,home,73.27,21.68,4.67,1.35,0.46,263.23,203.68,2557858,Evan Engram,88,2019,37,3,13:30:00,NYG,1,10,NYG,7,21,2560968,SINGLEBACK,"1 RB, 2 TE, 2 WR",6,"4 DL, 2 LB, 5 DB",left,2019-09-15T18:50:24.000Z,2019-09-15T18:50:23.000Z,6-3,240,09/02/1994,Mississippi,TE,NYG,BUF,2,MetLife Stadium,"East Rutherford, NJ",,UBU Speed Series-S5-M,Fair,79.0,48,5,NNW
22262,2019091506,20190915062228,home,74.5,26.87,1.18,1.18,0.12,220.39,123.91,2560737,Will Hernandez,71,2019,37,3,13:30:00,NYG,1,10,NYG,7,21,2560968,SINGLEBACK,"1 RB, 2 TE, 2 WR",6,"4 DL, 2 LB, 5 DB",left,2019-09-15T18:50:24.000Z,2019-09-15T18:50:23.000Z,6-3,327,09/02/1995,Texas-El Paso,G,NYG,BUF,2,MetLife Stadium,"East Rutherford, NJ",,UBU Speed Series-S5-M,Fair,79.0,48,5,NNW
22263,2019091506,20190915062228,home,78.66,27.88,3.23,3.9,0.31,252.97,242.78,2560968,Saquon Barkley,26,2019,37,3,13:30:00,NYG,1,10,NYG,7,21,2560968,SINGLEBACK,"1 RB, 2 TE, 2 WR",6,"4 DL, 2 LB, 5 DB",left,2019-09-15T18:50:24.000Z,2019-09-15T18:50:23.000Z,6-0,233,02/09/1997,Penn State,RB,NYG,BUF,2,MetLife Stadium,"East Rutherford, NJ",,UBU Speed Series-S5-M,Fair,79.0,48,5,NNW
