,GameId,PlayId,Team,X,Y,S,A,Dis,Orientation,Dir,NflId,DisplayName,JerseyNumber,Season,YardLine,Quarter,GameClock,PossessionTeam,Down,Distance,FieldPosition,HomeScoreBeforePlay,VisitorScoreBeforePlay,NflIdRusher,OffenseFormation,OffensePersonnel,DefendersInTheBox,DefensePersonnel,PlayDirection,TimeHandoff,TimeSnap,PlayerHeight,PlayerWeight,PlayerBirthDate,PlayerCollegeName,Position,HomeTeamAbbr,VisitorTeamAbbr,Week,Stadium,Location,StadiumType,Turf,GameWeather,Temperature,Humidity,WindSpeed,WindDirection
24552,2019091508,20190915083058,away,88.88,20.85,2.38,1.34,0.23,279.17,326.95,2495493,Justin Houston,99,2019,21,4,11:58:00,TEN,2,6,IND,17,13,2553895,SINGLEBACK,"1 RB, 1 TE, 3 WR",6,"3 DL, 3 LB, 5 DB",right,2019-09-15T19:26:03.000Z,2019-09-15T19:26:02.000Z,6-3,270,01/21/1989,Georgia,DE,TEN,IND,2,Nissan Stadium,"Nashville, TN",Outdoors,Grass,Sunny,93.0,45,1,NE
24553,2019091508,20190915083058,away,88.9,26.25,2.89,0.58,0.3,251.11,336.12,2539310,Margus Hunt,92,2019,21,4,11:58:00,TEN,2,6,IND,17,13,2553895,SINGLEBACK,"1 RB, 1 TE, 3 WR",6,"3 DL, 3 LB, 5 DB",right,2019-09-15T19:26:03.000Z,2019-09-15T19:26:02.000Z,6-8,295,07/14/1987,Southern Methodist,DT,TEN,IND,2,Nissan Stadium,"Nashville, TN",Outdoors,Grass,Sunny,93.0,45,1,NE
24554,2019091508,20190915083058,away,88.61,24.08,2.67,1.16,0.26,285.77,336.67,2550646,Denico Autry,96,2019,21,4,11:58:00,TEN,2,6,IND,17,13,2553895,SINGLEBACK,"1 RB, 1 TE, 3 WR",6,"3 DL, 3 LB, 5 DB",right,2019-09-15T19:26:03.000Z,2019-09-15T19:26:02.000Z,6-5,285,07/15/1990,Mississippi State,DT,TEN,IND,2,Nissan Stadium,"Nashville, TN",Outdoors,Grass,Sunny,93.0,45,1,NE
24555,2019091508,20190915083058,away,94.76,34.56,1.49,2.71,0.16,213.23,200.04,2557961,Quincy Wilson,31,2019,21,4,11:58:00,TEN,2,6,IND,17,13,2553895,SINGLEBACK,"1 RB, 1 TE, 3 WR",6,"3 DL, 3 LB, 5 DB",right,2019-09-15T19:26:03.000Z,2019-09-15T19:26:02.000Z,6-2,193,08/16/1996,Florida,CB,TEN,IND,2,Nissan Stadium,"Nashville, TN",Outdoors,Grass,Sunny,93.0,45,1,NE
24556,2019091508,20190915083058,away,103.44,29.25,3.12,2.13,0.3,266.94,145.97,2558060,Malik Hooker,29,2019,21,4,11:58:00,TEN,2,6,IND,17,13,2553895,SINGLEBACK,"1 RB, 1 TE, 3 WR",6,"3 DL, 3 LB, 5 DB",right,2019-09-15T19:26:03.000Z,2019-09-15T19:26:02.000Z,6-1,212,04/02/1996,Ohio State,FS,TEN,IND,2,Nissan Stadium,"Nashville, TN",Outdoors,Grass,Sunny,93.0,45,1,NE
24557,2019091508,20190915083058,away,88.36,29.04,2.09,0.34,0.21,210.61,284.88,2558131,Al-Quadin Muhammad,97,2019,21,4,11:58:00,TEN,2,6,IND,17,13,2553895,SINGLEBACK,"1 RB, 1 TE, 3 WR",6,"3 DL, 3 LB, 5 DB",right,2019-09-15T19:26:03.000Z,2019-09-15T19:26:02.000Z,6-4,250,03/28/1995,Miami,DE,TEN,IND,2,Nissan Stadium,"Nashville, TN",Outdoors,Grass,Sunny,93.0,45,1,NE
24558,2019091508,20190915083058,away,92.7,22.92,2.35,1.2,0.23,276.67,200.05,2558851,Anthony Walker,50,2019,21,4,11:58:00,TEN,2,6,IND,17,13,2553895,SINGLEBACK,"1 RB, 1 TE, 3 WR",6,"3 DL, 3 LB, 5 DB",right,2019-09-15T19:26:03.000Z,2019-09-15T19:26:02.000Z,6-1,230,08/08/1995,Northwestern,ILB,TEN,IND,2,Nissan Stadium,"Nashville, TN",Outdoors,Grass,Sunny,93.0,45,1,NE
24559,2019091508,20190915083058,away,92.82,29.1,2.16,2.45,0.22,249.55,196.52,2558976,Kenny Moore,23,2019,21,4,11:58:00,TEN,2,6,IND,17,13,2553895,SINGLEBACK,"1 RB, 1 TE, 3 WR",6,"3 DL, 3 LB, 5 DB",right,2019-09-15T19:26:03.000Z,2019-09-15T19:26:02.000Z,5-9,190,08/23/1995,Valdosta State,CB,TEN,IND,2,Nissan Stadium,"Nashville, TN",Outdoors,Grass,Sunny,93.0,45,1,NE
24560,2019091508,20190915083058,away,90.63,19.52,3.29,2.78,0.32,281.22,265.18,2560789,Darius Leonard,53,2019,21,4,11:58:00,TEN,2,6,IND,17,13,2553895,SINGLEBACK,"1 RB, 1 TE, 3 WR",6,"3 DL, 3 LB, 5 DB",right,2019-09-15T19:26:03.000Z,2019-09-15T19:26:02.000Z,6-2,230,07/27/1995,South Carolina State,LB,TEN,IND,2,Nissan Stadium,"Nashville, TN",Outdoors,Grass,Sunny,93.0,45,1,NE
24561,2019091508,20190915083058,away,99.51,17.85,3.02,4.56,0.28,262.67,245.58,2562602,Khari Willis,37,2019,21,4,11:58:00,TEN,2,6,IND,17,13,2553895,SINGLEBACK,"1 RB, 1 TE, 3 WR",6,"3 DL, 3 LB, 5 DB",right,2019-09-15T19:26:03.000Z,2019-09-15T19:26:02.000Z,5-11,215,05/07/1996,Michigan State,DB,TEN,IND,2,Nissan Stadium,"Nashville, TN",Outdoors,Grass,Sunny,93.0,45,1,NE
24562,2019091508,20190915083058,away,90.07,13.97,1.23,6.59,0.1,271.57,143.96,2562614,Rock Ya-Sin,34,2019,21,4,11:58:00,TEN,2,6,IND,17,13,2553895,SINGLEBACK,"1 RB, 1 TE, 3 WR",6,"3 DL, 3 LB, 5 DB",right,2019-09-15T19:26:03.000Z,2019-09-15T19:26:02.000Z,6-0,190,05/23/1996,Temple,DB,TEN,IND,2,Nissan Stadium,"Nashville, TN",Outdoors,Grass,Sunny,93.0,45,1,NE
24563,2019091508,20190915083058,home,87.72,26.25,2.01,1.09,0.2,76.63,2.35,497048,Rodger Saffold,76,2019,21,4,11:58:00,TEN,2,6,IND,17,13,2553895,SINGLEBACK,"1 RB, 1 TE, 3 WR",6,"3 DL, 3 LB, 5 DB",right,2019-09-15T19:26:03.000Z,2019-09-15T19:26:02.000Z,6-5,325,06/06/1988,Indiana,G,TEN,IND,2,Nissan Stadium,"Nashville, TN",Outdoors,Grass,Sunny,93.0,45,1,NE
24564,2019091508,20190915083058,home,88.5,25.55,3.04,0.09,0.32,0.61,12.14,2532883,Ben Jones,60,2019,21,4,11:58:00,TEN,2,6,IND,17,13,2553895,SINGLEBACK,"1 RB, 1 TE, 3 WR",6,"3 DL, 3 LB, 5 DB",right,2019-09-15T19:26:03.000Z,2019-09-15T19:26:02.000Z,6-3,308,07/02/1989,Georgia,C,TEN,IND,2,Nissan Stadium,"Nashville, TN",Outdoors,Grass,Sunny,93.0,45,1,NE
24565,2019091508,20190915083058,home,87.62,28.09,2.0,1.63,0.2,47.54,3.63,2535131,Dennis Kelly,71,2019,21,4,11:58:00,TEN,2,6,IND,17,13,2553895,SINGLEBACK,"1 RB, 1 TE, 3 WR",6,"3 DL, 3 LB, 5 DB",right,2019-09-15T19:26:03.000Z,2019-09-15T19:26:02.000Z,6-8,321,01/16/1990,Purdue,OT,TEN,IND,2,Nissan Stadium,"Nashville, TN",Outdoors,Grass,Sunny,93.0,45,1,NE
24566,2019091508,20190915083058,home,87.98,24.01,2.48,1.28,0.24,65.52,7.83,2552339,Jamil Douglas,75,2019,21,4,11:58:00,TEN,2,6,IND,17,13,2553895,SINGLEBACK,"1 RB, 1 TE, 3 WR",6,"3 DL, 3 LB, 5 DB",right,2019-09-15T19:26:03.000Z,2019-09-15T19:26:02.000Z,6-4,308,02/28/1992,Arizona State,OG,TEN,IND,2,Nissan Stadium,"Nashville, TN",Outdoors,Grass,Sunny,93.0,45,1,NE
24567,2019091508,20190915083058,home,86.04,24.28,2.69,3.12,0.25,307.22,290.35,2552466,Marcus Mariota,8,2019,21,4,11:58:00,TEN,2,6,IND,17,13,2553895,SINGLEBACK,"1 RB, 1 TE, 3 WR",6,"3 DL, 3 LB, 5 DB",right,2019-09-15T19:26:03.000Z,2019-09-15T19:26:02.000Z,6-4,222,10/30/1993,Oregon,QB,TEN,IND,2,Nissan Stadium,"Nashville, TN",Outdoors,Grass,Sunny,93.0,45,1,NE
24568,2019091508,20190915083058,home,85.08,24.36,7.85,0.74,0.78,194.49,188.4,2553895,Adam Humphries,10,2019,21,4,11:58:00,TEN,2,6,IND,17,13,2553895,SINGLEBACK,"1 RB, 1 TE, 3 WR",6,"3 DL, 3 LB, 5 DB",right,2019-09-15T19:26:03.000Z,2019-09-15T19:26:02.000Z,5-11,195,06/24/1993,Clemson,WR,TEN,IND,2,Nissan Stadium,"Nashville, TN",Outdoors,Grass,Sunny,93.0,45,1,NE
24569,2019091508,20190915083058,home,87.59,22.22,2.91,0.79,0.32,67.57,14.31,2555279,Jack Conklin,78,2019,21,4,11:58:00,TEN,2,6,IND,17,13,2553895,SINGLEBACK,"1 RB, 1 TE, 3 WR",6,"3 DL, 3 LB, 5 DB",right,2019-09-15T19:26:03.000Z,2019-09-15T19:26:02.000Z,6-6,308,08/17/1994,Michigan State,T,TEN,IND,2,Nissan Stadium,"Nashville, TN",Outdoors,Grass,Sunny,93.0,45,1,NE
24570,2019091508,20190915083058,home,87.68,13.94,3.2,3.66,0.3,107.86,147.84,2555317,Tajae Sharpe,19,2019,21,4,11:58:00,TEN,2,6,IND,17,13,2553895,SINGLEBACK,"1 RB, 1 TE, 3 WR",6,"3 DL, 3 LB, 5 DB",right,2019-09-15T19:26:03.000Z,2019-09-15T19:26:02.000Z,6-2,194,12/23/1994,Massachusetts,WR,TEN,IND,2,Nissan Stadium,"Nashville, TN",Outdoors,Grass,Sunny,93.0,45,1,NE
24571,2019091508,20190915083058,home,80.97,24.11,2.07,6.9,0.17,85.47,35.39,2556075,Derrick Henry,22,2019,21,4,11:58:00,TEN,2,6,IND,17,13,2553895,SINGLEBACK,"1 RB, 1 TE, 3 WR",6,"3 DL, 3 LB, 5 DB",right,2019-09-15T19:26:03.000Z,2019-09-15T19:26:02.000Z,6-3,247,01/04/1994,Alabama,RB,TEN,IND,2,Nissan Stadium,"Nashville, TN",Outdoors,Grass,Sunny,93.0,45,1,NE
24572,2019091508,20190915083058,home,88.57,30.78,3.67,5.04,0.35,99.92,97.72,2557848,Corey Davis,84,2019,21,4,11:58:00,TEN,2,6,IND,17,13,2553895,SINGLEBACK,"1 RB, 1 TE, 3 WR",6,"3 DL, 3 LB, 5 DB",right,2019-09-15T19:26:03.000Z,2019-09-15T19:26:02.000Z,6-3,209,01/11/1995,Western Michigan,WR,TEN,IND,2,Nissan Stadium,"Nashville, TN",Outdoors,Grass,Sunny,93.0,45,1,NE
24573,2019091508,20190915083058,home,86.08,17.62,3.66,3.54,0.35,166.81,187.82,2558207,Jonnu Smith,81,2019,21,4,11:58:00,TEN,2,6,IND,17,13,2553895,SINGLEBACK,"1 RB, 1 TE, 3 WR",6,"3 DL, 3 LB, 5 DB",right,2019-09-15T19:26:03.000Z,2019-09-15T19:26:02.000Z,6-3,248,08/22/1995,Florida International,TE,TEN,IND,2,Nissan Stadium,"Nashville, TN",Outdoors,Grass,Sunny,93.0,45,1,NE
