,GameId,PlayId,Team,X,Y,S,A,Dis,Orientation,Dir,NflId,DisplayName,JerseyNumber,Season,YardLine,Quarter,GameClock,PossessionTeam,Down,Distance,FieldPosition,HomeScoreBeforePlay,VisitorScoreBeforePlay,NflIdRusher,OffenseFormation,OffensePersonnel,DefendersInTheBox,DefensePersonnel,PlayDirection,TimeHandoff,TimeSnap,PlayerHeight,PlayerWeight,PlayerBirthDate,PlayerCollegeName,Position,HomeTeamAbbr,VisitorTeamAbbr,Week,Stadium,Location,StadiumType,Turf,GameWeather,Temperature,Humidity,WindSpeed,WindDirection
75152,2019100700,20191007002748,away,25.03,20.21,5.59,3.26,0.55,306.21,324.2,496727,Morgan Burnett,42,2019,17,3,07:47:00,SF,1,10,SF,28,3,2552453,I_FORM,"2 RB, 1 TE, 2 WR",8,"3 DL, 3 LB, 5 DB",right,2019-10-08T02:18:47.000Z,2019-10-08T02:18:46.000Z,6-1,209,01/13/1989,Georgia Tech,SS,SF,CLE,5,Levis Stadium,"Santa Clara, CA",Outdoor,Natural Grass,Clear,87.0,36,8,NW
75153,2019100700,20191007002748,away,27.14,30.87,3.96,0.74,0.4,264.59,346.81,2533534,Olivier Vernon,54,2019,17,3,07:47:00,SF,1,10,SF,28,3,2552453,I_FORM,"2 RB, 1 TE, 2 WR",8,"3 DL, 3 LB, 5 DB",right,2019-10-08T02:18:47.000Z,2019-10-08T02:18:46.000Z,6-2,262,10/07/1990,Miami,OLB,SF,CLE,5,Levis Stadium,"Santa Clara, CA",Outdoor,Natural Grass,Clear,87.0,36,8,NW
75154,2019100700,20191007002748,away,26.94,25.28,3.46,1.29,0.37,301.65,11.46,2540142,Sheldon Richardson,98,2019,17,3,07:47:00,SF,1,10,SF,28,3,2552453,I_FORM,"2 RB, 1 TE, 2 WR",8,"3 DL, 3 LB, 5 DB",right,2019-10-08T02:18:47.000Z,2019-10-08T02:18:46.000Z,6-3,294,11/29/1990,Missouri,DT,SF,CLE,5,Levis Stadium,"Santa Clara, CA",Outdoor,Natural Grass,Clear,87.0,36,8,NW
75155,2019100700,20191007002748,away,29.8,14.97,2.93,1.64,0.29,323.75,60.43,2543637,Terrance Mitchell,39,2019,17,3,07:47:00,SF,1,10,SF,28,3,2552453,I_FORM,"2 RB, 1 TE, 2 WR",8,"3 DL, 3 LB, 5 DB",right,2019-10-08T02:18:47.000Z,2019-10-08T02:18:46.000Z,5-11,190,05/17/1992,Oregon,CB,SF,CLE,5,Levis Stadium,"Santa Clara, CA",Outdoor,Natural Grass,Clear,87.0,36,8,NW
75156,2019100700,20191007002748,away,31.65,33.37,4.43,3.54,0.43,246.82,321.39,2550164,T.J. Carrie,38,2019,17,3,07:47:00,SF,1,10,SF,28,3,2552453,I_FORM,"2 RB, 1 TE, 2 WR",8,"3 DL, 3 LB, 5 DB",right,2019-10-08T02:18:47.000Z,2019-10-08T02:18:46.000Z,6-0,204,07/28/1990,Ohio,CB,SF,CLE,5,Levis Stadium,"Santa Clara, CA",Outdoor,Natural Grass,Clear,87.0,36,8,NW
75157,2019100700,20191007002748,away,44.46,23.57,2.42,4.0,0.22,291.52,8.12,2552389,Damarious Randall,23,2019,17,3,07:47:00,SF,1,10,SF,28,3,2552453,I_FORM,"2 RB, 1 TE, 2 WR",8,"3 DL, 3 LB, 5 DB",right,2019-10-08T02:18:47.000Z,2019-10-08T02:18:46.000Z,5-11,196,08/29/1992,Arizona State,CB,SF,CLE,5,Levis Stadium,"Santa Clara, CA",Outdoor,Natural Grass,Clear,87.0,36,8,NW
75158,2019100700,20191007002748,away,31.68,18.02,2.96,3.56,0.28,319.12,350.54,2552697,Jermaine Whitehead,35,2019,17,3,07:47:00,SF,1,10,SF,28,3,2552453,I_FORM,"2 RB, 1 TE, 2 WR",8,"3 DL, 3 LB, 5 DB",right,2019-10-08T02:18:47.000Z,2019-10-08T02:18:46.000Z,5-11,195,03/12/1993,Auburn,FS,SF,CLE,5,Levis Stadium,"Santa Clara, CA",Outdoor,Natural Grass,Clear,87.0,36,8,NW
75159,2019100700,20191007002748,away,28.92,23.76,4.99,2.84,0.49,339.68,354.76,2555166,Joe Schobert,53,2019,17,3,07:47:00,SF,1,10,SF,28,3,2552453,I_FORM,"2 RB, 1 TE, 2 WR",8,"3 DL, 3 LB, 5 DB",right,2019-10-08T02:18:47.000Z,2019-10-08T02:18:46.000Z,6-1,245,11/06/1993,Wisconsin,MLB,SF,CLE,5,Levis Stadium,"Santa Clara, CA",Outdoor,Natural Grass,Clear,87.0,36,8,NW
75160,2019100700,20191007002748,away,27.27,26.95,2.82,0.29,0.29,274.64,348.63,2557836,Larry Ogunjobi,65,2019,17,3,07:47:00,SF,1,10,SF,28,3,2552453,I_FORM,"2 RB, 1 TE, 2 WR",8,"3 DL, 3 LB, 5 DB",right,2019-10-08T02:18:47.000Z,2019-10-08T02:18:46.000Z,6-3,305,06/03/1994,North Carolina-Charlotte,DT,SF,CLE,5,Levis Stadium,"Santa Clara, CA",Outdoor,Natural Grass,Clear,87.0,36,8,NW
75161,2019100700,20191007002748,away,26.02,24.17,3.57,1.22,0.38,315.23,347.21,2557965,Myles Garrett,95,2019,17,3,07:47:00,SF,1,10,SF,28,3,2552453,I_FORM,"2 RB, 1 TE, 2 WR",8,"3 DL, 3 LB, 5 DB",right,2019-10-08T02:18:47.000Z,2019-10-08T02:18:46.000Z,6-4,272,12/29/1995,Texas A&M,DE,SF,CLE,5,Levis Stadium,"Santa Clara, CA",Outdoor,Natural Grass,Clear,87.0,36,8,NW
75162,2019100700,20191007002748,away,29.35,27.92,5.81,1.63,0.57,305.84,336.88,2562605,Mack Wilson,51,2019,17,3,07:47:00,SF,1,10,SF,28,3,2552453,I_FORM,"2 RB, 1 TE, 2 WR",8,"3 DL, 3 LB, 5 DB",right,2019-10-08T02:18:47.000Z,2019-10-08T02:18:46.000Z,6-1,240,02/14/1998,Alabama,LB,SF,CLE,5,Levis Stadium,"Santa Clara, CA",Outdoor,Natural Grass,Clear,87.0,36,8,NW
75163,2019100700,20191007002748,home,26.06,25.81,3.94,0.1,0.4,99.39,0.51,2508140,Mike Person,68,2019,17,3,07:47:00,SF,1,10,SF,28,3,2552453,I_FORM,"2 RB, 1 TE, 2 WR",8,"3 DL, 3 LB, 5 DB",right,2019-10-08T02:18:47.000Z,2019-10-08T02:18:46.000Z,6-4,299,06/17/1988,Montana State,C,SF,CLE,5,Levis Stadium,"Santa Clara, CA",Outdoor,Natural Grass,Clear,87.0,36,8,NW
75164,2019100700,20191007002748,home,28.36,15.02,3.81,4.08,0.36,106.05,59.51,2539964,Marquise Goodwin,11,2019,17,3,07:47:00,SF,1,10,SF,28,3,2552453,I_FORM,"2 RB, 1 TE, 2 WR",8,"3 DL, 3 LB, 5 DB",right,2019-10-08T02:18:47.000Z,2019-10-08T02:18:46.000Z,5-9,179,11/19/1990,Texas,WR,SF,CLE,5,Levis Stadium,"Santa Clara, CA",Outdoor,Natural Grass,Clear,87.0,36,8,NW
75165,2019100700,20191007002748,home,22.6,28.63,6.39,1.6,0.63,29.08,6.58,2540230,Kyle Juszczyk,44,2019,17,3,07:47:00,SF,1,10,SF,28,3,2552453,I_FORM,"2 RB, 1 TE, 2 WR",8,"3 DL, 3 LB, 5 DB",right,2019-10-08T02:18:47.000Z,2019-10-08T02:18:46.000Z,6-1,240,04/23/1991,Harvard,RB,SF,CLE,5,Levis Stadium,"Santa Clara, CA",Outdoor,Natural Grass,Clear,87.0,36,8,NW
75166,2019100700,20191007002748,home,27.1,27.28,3.55,1.2,0.36,122.92,16.29,2543705,Weston Richburg,58,2019,17,3,07:47:00,SF,1,10,SF,28,3,2552453,I_FORM,"2 RB, 1 TE, 2 WR",8,"3 DL, 3 LB, 5 DB",right,2019-10-08T02:18:47.000Z,2019-10-08T02:18:46.000Z,6-4,290,07/09/1991,Colorado State,C,SF,CLE,5,Levis Stadium,"Santa Clara, CA",Outdoor,Natural Grass,Clear,87.0,36,8,NW
75167,2019100700,20191007002748,home,22.8,24.48,3.33,3.29,0.33,266.4,259.38,2543801,Jimmy Garoppolo,10,2019,17,3,07:47:00,SF,1,10,SF,28,3,2552453,I_FORM,"2 RB, 1 TE, 2 WR",8,"3 DL, 3 LB, 5 DB",right,2019-10-08T02:18:47.000Z,2019-10-08T02:18:46.000Z,6-2,225,11/02/1991,Eastern Illinois,QB,SF,CLE,5,Levis Stadium,"Santa Clara, CA",Outdoor,Natural Grass,Clear,87.0,36,8,NW
75168,2019100700,20191007002748,home,28.18,27.33,2.93,1.63,0.3,169.46,48.82,2552345,Laken Tomlinson,75,2019,17,3,07:47:00,SF,1,10,SF,28,3,2552453,I_FORM,"2 RB, 1 TE, 2 WR",8,"3 DL, 3 LB, 5 DB",right,2019-10-08T02:18:47.000Z,2019-10-08T02:18:46.000Z,6-3,312,02/09/1992,Duke,G,SF,CLE,5,Levis Stadium,"Santa Clara, CA",Outdoor,Natural Grass,Clear,87.0,36,8,NW
75169,2019100700,20191007002748,home,19.63,27.2,6.06,2.35,0.6,49.77,6.13,2552453,Tevin Coleman,26,2019,17,3,07:47:00,SF,1,10,SF,28,3,2552453,I_FORM,"2 RB, 1 TE, 2 WR",8,"3 DL, 3 LB, 5 DB",right,2019-10-08T02:18:47.000Z,2019-10-08T02:18:46.000Z,6-1,210,04/16/1993,Indiana,RB,SF,CLE,5,Levis Stadium,"Santa Clara, CA",Outdoor,Natural Grass,Clear,87.0,36,8,NW
75170,2019100700,20191007002748,home,26.4,22.79,5.19,1.41,0.52,43.46,18.52,2558266,George Kittle,85,2019,17,3,07:47:00,SF,1,10,SF,28,3,2552453,I_FORM,"2 RB, 1 TE, 2 WR",8,"3 DL, 3 LB, 5 DB",right,2019-10-08T02:18:47.000Z,2019-10-08T02:18:46.000Z,6-4,250,10/09/1993,Iowa,TE,SF,CLE,5,Levis Stadium,"Santa Clara, CA",Outdoor,Natural Grass,Clear,87.0,36,8,NW
75171,2019100700,20191007002748,home,25.43,24.8,4.17,1.27,0.42,348.67,349.19,2560805,Mike McGlinchey,69,2019,17,3,07:47:00,SF,1,10,SF,28,3,2552453,I_FORM,"2 RB, 1 TE, 2 WR",8,"3 DL, 3 LB, 5 DB",right,2019-10-08T02:18:47.000Z,2019-10-08T02:18:46.000Z,6-8,315,01/12/1995,Notre Dame,OT,SF,CLE,5,Levis Stadium,"Santa Clara, CA",Outdoor,Natural Grass,Clear,87.0,36,8,NW
75172,2019100700,20191007002748,home,26.56,31.27,4.08,1.75,0.4,84.22,9.14,2562721,Deebo Samuel,19,2019,17,3,07:47:00,SF,1,10,SF,28,3,2552453,I_FORM,"2 RB, 1 TE, 2 WR",8,"3 DL, 3 LB, 5 DB",right,2019-10-08T02:18:47.000Z,2019-10-08T02:18:46.000Z,6-0,214,01/15/1996,South Carolina,WR,SF,CLE,5,Levis Stadium,"Santa Clara, CA",Outdoor,Natural Grass,Clear,87.0,36,8,NW
75173,2019100700,20191007002748,home,24.69,30.56,5.09,1.45,0.51,7.34,356.9,2562927,Justin Skule,67,2019,17,3,07:47:00,SF,1,10,SF,28,3,2552453,I_FORM,"2 RB, 1 TE, 2 WR",8,"3 DL, 3 LB, 5 DB",right,2019-10-08T02:18:47.000Z,2019-10-08T02:18:46.000Z,6-6,318,11/23/1996,Vanderbilt,T,SF,CLE,5,Levis Stadium,"Santa Clara, CA",Outdoor,Natural Grass,Clear,87.0,36,8,NW
