,GameId,PlayId,Team,X,Y,S,A,Dis,Orientation,Dir,NflId,DisplayName,JerseyNumber,Season,YardLine,Quarter,GameClock,PossessionTeam,Down,Distance,FieldPosition,HomeScoreBeforePlay,VisitorScoreBeforePlay,NflIdRusher,OffenseFormation,OffensePersonnel,DefendersInTheBox,DefensePersonnel,PlayDirection,TimeHandoff,TimeSnap,PlayerHeight,PlayerWeight,PlayerBirthDate,PlayerCollegeName,Position,HomeTeamAbbr,VisitorTeamAbbr,Week,Stadium,Location,StadiumType,Turf,GameWeather,Temperature,Humidity,WindSpeed,WindDirection
67364,2019100605,20191006052099,away,75.19,15.28,1.01,2.32,0.09,28.03,225.84,2495108,Prince Amukamara,20,2019,34,3,12:17:00,OAK,2,1,OAK,17,7,2562377,SHOTGUN,"1 RB, 1 TE, 3 WR",7,"2 DL, 4 LB, 5 DB",left,2019-10-06T18:44:27.000Z,2019-10-06T18:44:26.000Z,6-0,204,06/06/1989,Nebraska,CB,OAK,CHI,5,Tottenham Hotspur Stadium,"London, England",Outdoors,Turf,Cloudy,59.0,60,15,WNW
67365,2019100605,20191006052099,away,74.3,16.4,2.62,3.49,0.24,104.13,218.91,2495343,Buster Skrine,24,2019,34,3,12:17:00,OAK,2,1,OAK,17,7,2562377,SHOTGUN,"1 RB, 1 TE, 3 WR",7,"2 DL, 4 LB, 5 DB",left,2019-10-06T18:44:27.000Z,2019-10-06T18:44:26.000Z,5-9,185,04/26/1989,Chattanooga,CB,OAK,CHI,5,Tottenham Hotspur Stadium,"London, England",Outdoors,Turf,Cloudy,59.0,60,15,WNW
67366,2019100605,20191006052099,away,72.8,24.49,2.2,1.99,0.21,72.03,56.49,2532961,Danny Trevathan,59,2019,34,3,12:17:00,OAK,2,1,OAK,17,7,2562377,SHOTGUN,"1 RB, 1 TE, 3 WR",7,"2 DL, 4 LB, 5 DB",left,2019-10-06T18:44:27.000Z,2019-10-06T18:44:26.000Z,6-0,239,03/24/1990,Kentucky,ILB,OAK,CHI,5,Tottenham Hotspur Stadium,"London, England",Outdoors,Turf,Cloudy,59.0,60,15,WNW
67367,2019100605,20191006052099,away,75.93,20.68,3.94,3.68,0.38,38.94,7.97,2543463,Khalil Mack,52,2019,34,3,12:17:00,OAK,2,1,OAK,17,7,2562377,SHOTGUN,"1 RB, 1 TE, 3 WR",7,"2 DL, 4 LB, 5 DB",left,2019-10-06T18:44:27.000Z,2019-10-06T18:44:26.000Z,6-3,269,02/22/1991,Buffalo,OLB,OAK,CHI,5,Tottenham Hotspur Stadium,"London, England",Outdoors,Turf,Cloudy,59.0,60,15,WNW
67368,2019100605,20191006052099,away,59.49,22.75,0.79,1.39,0.08,72.93,340.43,2543470,Ha Ha Clinton-Dix,21,2019,34,3,12:17:00,OAK,2,1,OAK,17,7,2562377,SHOTGUN,"1 RB, 1 TE, 3 WR",7,"2 DL, 4 LB, 5 DB",left,2019-10-06T18:44:27.000Z,2019-10-06T18:44:26.000Z,6-1,211,12/21/1992,Alabama,FS,OAK,CHI,5,Tottenham Hotspur Stadium,"London, England",Outdoors,Turf,Cloudy,59.0,60,15,WNW
67369,2019100605,20191006052099,away,66.94,35.46,0.8,1.32,0.08,141.23,300.6,2543681,Kyle Fuller,23,2019,34,3,12:17:00,OAK,2,1,OAK,17,7,2562377,SHOTGUN,"1 RB, 1 TE, 3 WR",7,"2 DL, 4 LB, 5 DB",left,2019-10-06T18:44:27.000Z,2019-10-06T18:44:26.000Z,5-11,194,02/16/1992,Virginia Tech,CB,OAK,CHI,5,Tottenham Hotspur Stadium,"London, England",Outdoors,Turf,Cloudy,59.0,60,15,WNW
67370,2019100605,20191006052099,away,75.26,24.04,3.04,3.16,0.3,95.22,346.21,2552489,Eddie Goldman,91,2019,34,3,12:17:00,OAK,2,1,OAK,17,7,2562377,SHOTGUN,"1 RB, 1 TE, 3 WR",7,"2 DL, 4 LB, 5 DB",left,2019-10-06T18:44:27.000Z,2019-10-06T18:44:26.000Z,6-3,320,01/06/1994,Florida State,NT,OAK,CHI,5,Tottenham Hotspur Stadium,"London, England",Outdoors,Turf,Cloudy,59.0,60,15,WNW
67371,2019100605,20191006052099,away,76.34,29.92,2.47,2.13,0.24,108.58,61.33,2555285,Leonard Floyd,94,2019,34,3,12:17:00,OAK,2,1,OAK,17,7,2562377,SHOTGUN,"1 RB, 1 TE, 3 WR",7,"2 DL, 4 LB, 5 DB",left,2019-10-06T18:44:27.000Z,2019-10-06T18:44:26.000Z,6-5,240,09/08/1992,Georgia,OLB,OAK,CHI,5,Tottenham Hotspur Stadium,"London, England",Outdoors,Turf,Cloudy,59.0,60,15,WNW
67372,2019100605,20191006052099,away,76.17,26.89,1.63,1.1,0.16,125.76,36.41,2556665,Roy Robertson-Harris,95,2019,34,3,12:17:00,OAK,2,1,OAK,17,7,2562377,SHOTGUN,"1 RB, 1 TE, 3 WR",7,"2 DL, 4 LB, 5 DB",left,2019-10-06T18:44:27.000Z,2019-10-06T18:44:26.000Z,6-5,294,07/23/1993,Texas-El Paso,DE,OAK,CHI,5,Tottenham Hotspur Stadium,"London, England",Outdoors,Turf,Cloudy,59.0,60,15,WNW
67373,2019100605,20191006052099,away,73.77,28.03,3.26,1.83,0.33,123.28,132.25,2558176,Eddie Jackson,39,2019,34,3,12:17:00,OAK,2,1,OAK,17,7,2562377,SHOTGUN,"1 RB, 1 TE, 3 WR",7,"2 DL, 4 LB, 5 DB",left,2019-10-06T18:44:27.000Z,2019-10-06T18:44:26.000Z,6-0,202,12/10/1993,Alabama,FS,OAK,CHI,5,Tottenham Hotspur Stadium,"London, England",Outdoors,Turf,Cloudy,59.0,60,15,WNW
67374,2019100605,20191006052099,away,72.67,22.08,2.73,2.72,0.26,90.29,34.14,2560877,Roquan Smith,58,2019,34,3,12:17:00,OAK,2,1,OAK,17,7,2562377,SHOTGUN,"1 RB, 1 TE, 3 WR",7,"2 DL, 4 LB, 5 DB",left,2019-10-06T18:44:27.000Z,2019-10-06T18:44:26.000Z,6-0,230,04/08/1997,Georgia,LB,OAK,CHI,5,Tottenham Hotspur Stadium,"London, England",Outdoors,Turf,Cloudy,59.0,60,15,WNW
67375,2019100605,20191006052099,home,75.99,25.63,2.64,1.16,0.27,341.52,330.99,2495171,Rodney Hudson,61,2019,34,3,12:17:00,OAK,2,1,OAK,17,7,2562377,SHOTGUN,"1 RB, 1 TE, 3 WR",7,"2 DL, 4 LB, 5 DB",left,2019-10-06T18:44:27.000Z,2019-10-06T18:44:26.000Z,6-2,315,07/12/1989,Florida State,C,OAK,CHI,5,Tottenham Hotspur Stadium,"London, England",Outdoors,Turf,Cloudy,59.0,60,15,WNW
67376,2019100605,20191006052099,home,76.12,23.8,2.78,0.17,0.31,278.19,331.09,2506420,Richie Incognito,64,2019,34,3,12:17:00,OAK,2,1,OAK,17,7,2562377,SHOTGUN,"1 RB, 1 TE, 3 WR",7,"2 DL, 4 LB, 5 DB",left,2019-10-06T18:44:27.000Z,2019-10-06T18:44:26.000Z,6-3,325,07/05/1983,Nebraska,G,OAK,CHI,5,Tottenham Hotspur Stadium,"London, England",Outdoors,Turf,Cloudy,59.0,60,15,WNW
67377,2019100605,20191006052099,home,81.27,23.38,1.14,1.64,0.11,254.94,133.63,2543499,Derek Carr,4,2019,34,3,12:17:00,OAK,2,1,OAK,17,7,2562377,SHOTGUN,"1 RB, 1 TE, 3 WR",7,"2 DL, 4 LB, 5 DB",left,2019-10-06T18:44:27.000Z,2019-10-06T18:44:26.000Z,6-3,210,03/28/1991,Fresno State,QB,OAK,CHI,5,Tottenham Hotspur Stadium,"London, England",Outdoors,Turf,Cloudy,59.0,60,15,WNW
67378,2019100605,20191006052099,home,77.24,28.3,3.17,2.11,0.32,314.35,356.08,2552350,Trent Brown,77,2019,34,3,12:17:00,OAK,2,1,OAK,17,7,2562377,SHOTGUN,"1 RB, 1 TE, 3 WR",7,"2 DL, 4 LB, 5 DB",left,2019-10-06T18:44:27.000Z,2019-10-06T18:44:26.000Z,6-8,380,04/13/1993,Florida,T,OAK,CHI,5,Tottenham Hotspur Stadium,"London, England",Outdoors,Turf,Cloudy,59.0,60,15,WNW
67379,2019100605,20191006052099,home,78.16,25.96,3.81,2.83,0.37,229.84,212.48,2552408,Darren Waller,83,2019,34,3,12:17:00,OAK,2,1,OAK,17,7,2562377,SHOTGUN,"1 RB, 1 TE, 3 WR",7,"2 DL, 4 LB, 5 DB",left,2019-10-06T18:44:27.000Z,2019-10-06T18:44:26.000Z,6-6,255,09/13/1992,Georgia Tech,TE,OAK,CHI,5,Tottenham Hotspur Stadium,"London, England",Outdoors,Turf,Cloudy,59.0,60,15,WNW
67380,2019100605,20191006052099,home,77.1,26.48,1.55,0.98,0.15,283.53,16.65,2553460,Denzelle Good,71,2019,34,3,12:17:00,OAK,2,1,OAK,17,7,2562377,SHOTGUN,"1 RB, 1 TE, 3 WR",7,"2 DL, 4 LB, 5 DB",left,2019-10-06T18:44:27.000Z,2019-10-06T18:44:26.000Z,6-5,340,03/08/1991,Mars Hill,OT,OAK,CHI,5,Tottenham Hotspur Stadium,"London, England",Outdoors,Turf,Cloudy,59.0,60,15,WNW
67381,2019100605,20191006052099,home,76.52,32.57,1.77,2.4,0.17,240.44,246.49,2555413,Trevor Davis,11,2019,34,3,12:17:00,OAK,2,1,OAK,17,7,2562377,SHOTGUN,"1 RB, 1 TE, 3 WR",7,"2 DL, 4 LB, 5 DB",left,2019-10-06T18:44:27.000Z,2019-10-06T18:44:26.000Z,6-1,188,07/04/1993,California,WR,OAK,CHI,5,Tottenham Hotspur Stadium,"London, England",Outdoors,Turf,Cloudy,59.0,60,15,WNW
67382,2019100605,20191006052099,home,75.91,23.06,3.95,0.58,0.4,350.92,329.1,2560811,Kolton Miller,74,2019,34,3,12:17:00,OAK,2,1,OAK,17,7,2562377,SHOTGUN,"1 RB, 1 TE, 3 WR",7,"2 DL, 4 LB, 5 DB",left,2019-10-06T18:44:27.000Z,2019-10-06T18:44:26.000Z,6-8,325,10/09/1995,UCLA,T,OAK,CHI,5,Tottenham Hotspur Stadium,"London, England",Outdoors,Turf,Cloudy,59.0,60,15,WNW
67383,2019100605,20191006052099,home,80.24,23.46,3.94,3.31,0.38,279.08,319.4,2562377,Josh Jacobs,28,2019,34,3,12:17:00,OAK,2,1,OAK,17,7,2562377,SHOTGUN,"1 RB, 1 TE, 3 WR",7,"2 DL, 4 LB, 5 DB",left,2019-10-06T18:44:27.000Z,2019-10-06T18:44:26.000Z,5-10,220,02/11/1998,Alabama,RB,OAK,CHI,5,Tottenham Hotspur Stadium,"London, England",Outdoors,Turf,Cloudy,59.0,60,15,WNW
67384,2019100605,20191006052099,home,75.47,17.54,3.84,2.9,0.38,283.59,302.13,2562393,Keelan Doss,18,2019,34,3,12:17:00,OAK,2,1,OAK,17,7,2562377,SHOTGUN,"1 RB, 1 TE, 3 WR",7,"2 DL, 4 LB, 5 DB",left,2019-10-06T18:44:27.000Z,2019-10-06T18:44:26.000Z,6-3,215,03/21/1996,California-Davis,WR,OAK,CHI,5,Tottenham Hotspur Stadium,"London, England",Outdoors,Turf,Cloudy,59.0,60,15,WNW
67385,2019100605,20191006052099,home,77.6,16.16,4.25,4.64,0.41,220.07,205.31,2562712,Hunter Renfrow,13,2019,34,3,12:17:00,OAK,2,1,OAK,17,7,2562377,SHOTGUN,"1 RB, 1 TE, 3 WR",7,"2 DL, 4 LB, 5 DB",left,2019-10-06T18:44:27.000Z,2019-10-06T18:44:26.000Z,5-10,185,12/21/1995,Clemson,WR,OAK,CHI,5,Tottenham Hotspur Stadium,"London, England",Outdoors,Turf,Cloudy,59.0,60,15,WNW
