,GameId,PlayId,Team,X,Y,S,A,Dis,Orientation,Dir,NflId,DisplayName,JerseyNumber,Season,YardLine,Quarter,GameClock,PossessionTeam,Down,Distance,FieldPosition,HomeScoreBeforePlay,VisitorScoreBeforePlay,NflIdRusher,OffenseFormation,OffensePersonnel,DefendersInTheBox,DefensePersonnel,PlayDirection,TimeHandoff,TimeSnap,PlayerHeight,PlayerWeight,PlayerBirthDate,PlayerCollegeName,Position,HomeTeamAbbr,VisitorTeamAbbr,Week,Stadium,Location,StadiumType,Turf,GameWeather,Temperature,Humidity,WindSpeed,WindDirection
17930,2019091502,20190915021208,away,95.67,28.5,1.25,1.48,0.12,62.75,222.68,2495677,Brandon Mebane,92,2019,14,2,10:40:00,DET,1,10,DET,6,7,2562293,I_FORM,"2 RB, 2 TE, 1 WR",7,"4 DL, 3 LB, 4 DB",left,2019-09-15T17:56:14.000Z,2019-09-15T17:56:13.000Z,6-1,311,01/15/1985,California,NT,DET,LAC,2,Ford Field,Detroit,Indoors,Field Turf,Controlled Climate,68.0,70,,
17931,2019091502,20190915021208,away,92.1,25.18,1.53,1.42,0.15,117.84,139.57,2506352,Thomas Davis,58,2019,14,2,10:40:00,DET,1,10,DET,6,7,2562293,I_FORM,"2 RB, 2 TE, 1 WR",7,"4 DL, 3 LB, 4 DB",left,2019-09-15T17:56:14.000Z,2019-09-15T17:56:13.000Z,6-1,235,03/22/1983,Georgia,OLB,DET,LAC,2,Ford Field,Detroit,Indoors,Field Turf,Controlled Climate,68.0,70,,
17932,2019091502,20190915021208,away,89.91,11.14,2.52,1.6,0.25,27.82,286.39,2532861,Casey Hayward,26,2019,14,2,10:40:00,DET,1,10,DET,6,7,2562293,I_FORM,"2 RB, 2 TE, 1 WR",7,"4 DL, 3 LB, 4 DB",left,2019-09-15T17:56:14.000Z,2019-09-15T17:56:13.000Z,5-11,192,09/09/1989,Vanderbilt,CB,DET,LAC,2,Ford Field,Detroit,Indoors,Field Turf,Controlled Climate,68.0,70,,
17933,2019091502,20190915021208,away,95.54,32.45,3.59,0.97,0.38,98.88,180.65,2532870,Melvin Ingram,54,2019,14,2,10:40:00,DET,1,10,DET,6,7,2562293,I_FORM,"2 RB, 2 TE, 1 WR",7,"4 DL, 3 LB, 4 DB",left,2019-09-15T17:56:14.000Z,2019-09-15T17:56:13.000Z,6-2,247,04/26/1989,South Carolina,DE,DET,LAC,2,Ford Field,Detroit,Indoors,Field Turf,Controlled Climate,68.0,70,,
17934,2019091502,20190915021208,away,90.53,18.79,0.65,0.72,0.07,68.93,233.83,2550842,Adrian Phillips,31,2019,14,2,10:40:00,DET,1,10,DET,6,7,2562293,I_FORM,"2 RB, 2 TE, 1 WR",7,"4 DL, 3 LB, 4 DB",left,2019-09-15T17:56:14.000Z,2019-09-15T17:56:13.000Z,5-11,210,03/28/1992,Texas,SS,DET,LAC,2,Ford Field,Detroit,Indoors,Field Turf,Controlled Climate,68.0,70,,
17935,2019091502,20190915021208,away,97.51,24.26,2.27,1.17,0.23,348.52,114.35,2555249,Joey Bosa,97,2019,14,2,10:40:00,DET,1,10,DET,6,7,2562293,I_FORM,"2 RB, 2 TE, 1 WR",7,"4 DL, 3 LB, 4 DB",left,2019-09-15T17:56:14.000Z,2019-09-15T17:56:13.000Z,6-5,280,07/11/1995,Ohio State,DE,DET,LAC,2,Ford Field,Detroit,Indoors,Field Turf,Controlled Climate,68.0,70,,
17936,2019091502,20190915021208,away,78.94,26.7,3.41,2.08,0.33,118.15,277.12,2558182,Rayshawn Jenkins,23,2019,14,2,10:40:00,DET,1,10,DET,6,7,2562293,I_FORM,"2 RB, 2 TE, 1 WR",7,"4 DL, 3 LB, 4 DB",left,2019-09-15T17:56:14.000Z,2019-09-15T17:56:13.000Z,6-2,220,01/25/1994,Miami,SS,DET,LAC,2,Ford Field,Detroit,Indoors,Field Turf,Controlled Climate,68.0,70,,
17937,2019091502,20190915021208,away,93.32,37.45,2.35,3.66,0.22,159.67,181.14,2560719,Brandon Facyson,28,2019,14,2,10:40:00,DET,1,10,DET,6,7,2562293,I_FORM,"2 RB, 2 TE, 1 WR",7,"4 DL, 3 LB, 4 DB",left,2019-09-15T17:56:14.000Z,2019-09-15T17:56:13.000Z,6-2,197,09/08/1994,Virginia Tech,CB,DET,LAC,2,Ford Field,Detroit,Indoors,Field Turf,Controlled Climate,68.0,70,,
17938,2019091502,20190915021208,away,95.49,29.75,2.35,1.43,0.24,106.4,204.52,2560769,Justin Jones,93,2019,14,2,10:40:00,DET,1,10,DET,6,7,2562293,I_FORM,"2 RB, 2 TE, 1 WR",7,"4 DL, 3 LB, 4 DB",left,2019-09-15T17:56:14.000Z,2019-09-15T17:56:13.000Z,6-3,309,08/28/1996,North Carolina State,DT,DET,LAC,2,Ford Field,Detroit,Indoors,Field Turf,Controlled Climate,68.0,70,,
17939,2019091502,20190915021208,away,92.52,30.15,4.47,2.39,0.43,125.58,161.63,2560826,Uchenna Nwosu,42,2019,14,2,10:40:00,DET,1,10,DET,6,7,2562293,I_FORM,"2 RB, 2 TE, 1 WR",7,"4 DL, 3 LB, 4 DB",left,2019-09-15T17:56:14.000Z,2019-09-15T17:56:13.000Z,6-2,251,12/28/1996,Southern California,LB,DET,LAC,2,Ford Field,Detroit,Indoors,Field Turf,Controlled Climate,68.0,70,,
17940,2019091502,20190915021208,away,91.68,28.16,2.08,1.7,0.2,77.14,155.28,2560928,Kyzir White,44,2019,14,2,10:40:00,DET,1,10,DET,6,7,2562293,I_FORM,"2 RB, 2 TE, 1 WR",7,"4 DL, 3 LB, 4 DB",left,2019-09-15T17:56:14.000Z,2019-09-15T17:56:13.000Z,6-2,216,03/24/1996,West Virginia,LB,DET,LAC,2,Ford Field,Detroit,Indoors,Field Turf,Controlled Climate,68.0,70,,
17941,2019091502,20190915021208,home,100.23,29.0,5.15,2.42,0.5,154.51,105.5,79860,Matthew Stafford,9,2019,14,2,10:40:00,DET,1,10,DET,6,7,2562293,I_FORM,"2 RB, 2 TE, 1 WR",7,"4 DL, 3 LB, 4 DB",left,2019-09-15T17:56:14.000Z,2019-09-15T17:56:13.000Z,6-3,220,02/07/1988,Georgia,QB,DET,LAC,2,Ford Field,Detroit,Indoors,Field Turf,Controlled Climate,68.0,70,,
17942,2019091502,20190915021208,home,96.27,29.79,2.44,0.35,0.26,234.38,209.29,2530556,Kenny Wiggins,79,2019,14,2,10:40:00,DET,1,10,DET,6,7,2562293,I_FORM,"2 RB, 2 TE, 1 WR",7,"4 DL, 3 LB, 4 DB",left,2019-09-15T17:56:14.000Z,2019-09-15T17:56:13.000Z,6-6,314,08/08/1988,Fresno State,G,DET,LAC,2,Ford Field,Detroit,Indoors,Field Turf,Controlled Climate,68.0,70,,
17943,2019091502,20190915021208,home,95.96,30.47,2.96,1.42,0.31,202.1,208.02,2539340,Rick Wagner,71,2019,14,2,10:40:00,DET,1,10,DET,6,7,2562293,I_FORM,"2 RB, 2 TE, 1 WR",7,"4 DL, 3 LB, 4 DB",left,2019-09-15T17:56:14.000Z,2019-09-15T17:56:13.000Z,6-6,315,10/21/1989,Wisconsin,T,DET,LAC,2,Ford Field,Detroit,Indoors,Field Turf,Controlled Climate,68.0,70,,
17944,2019091502,20190915021208,home,96.42,32.27,3.35,0.73,0.33,251.59,190.68,2552633,Jesse James,83,2019,14,2,10:40:00,DET,1,10,DET,6,7,2562293,I_FORM,"2 RB, 2 TE, 1 WR",7,"4 DL, 3 LB, 4 DB",left,2019-09-15T17:56:14.000Z,2019-09-15T17:56:13.000Z,6-7,250,06/04/1994,Penn State,TE,DET,LAC,2,Ford Field,Detroit,Indoors,Field Turf,Controlled Climate,68.0,70,,
17945,2019091502,20190915021208,home,95.97,27.71,1.66,0.73,0.17,317.64,232.71,2555136,Joe Dahl,66,2019,14,2,10:40:00,DET,1,10,DET,6,7,2562293,I_FORM,"2 RB, 2 TE, 1 WR",7,"4 DL, 3 LB, 4 DB",left,2019-09-15T17:56:14.000Z,2019-09-15T17:56:13.000Z,6-4,310,04/09/1993,Washington State,G,DET,LAC,2,Ford Field,Detroit,Indoors,Field Turf,Controlled Climate,68.0,70,,
17946,2019091502,20190915021208,home,95.27,11.83,3.45,2.63,0.33,94.59,281.83,2558052,Kenny Golladay,19,2019,14,2,10:40:00,DET,1,10,DET,6,7,2562293,I_FORM,"2 RB, 2 TE, 1 WR",7,"4 DL, 3 LB, 4 DB",left,2019-09-15T17:56:14.000Z,2019-09-15T17:56:13.000Z,6-4,213,11/03/1993,Northern Illinois,WR,DET,LAC,2,Ford Field,Detroit,Indoors,Field Turf,Controlled Climate,68.0,70,,
17947,2019091502,20190915021208,home,98.3,27.17,5.34,2.39,0.52,273.17,232.91,2560972,Nick Bawden,46,2019,14,2,10:40:00,DET,1,10,DET,6,7,2562293,I_FORM,"2 RB, 2 TE, 1 WR",7,"4 DL, 3 LB, 4 DB",left,2019-09-15T17:56:14.000Z,2019-09-15T17:56:13.000Z,6-2,245,06/22/1996,San Diego State,RB,DET,LAC,2,Ford Field,Detroit,Indoors,Field Turf,Controlled Climate,68.0,70,,
17948,2019091502,20190915021208,home,97.2,25.05,2.3,1.67,0.23,200.73,176.01,2561032,Tyrell Crosby,65,2019,14,2,10:40:00,DET,1,10,DET,6,7,2562293,I_FORM,"2 RB, 2 TE, 1 WR",7,"4 DL, 3 LB, 4 DB",left,2019-09-15T17:56:14.000Z,2019-09-15T17:56:13.000Z,6-4,310,09/05/1995,Oregon,T,DET,LAC,2,Ford Field,Detroit,Indoors,Field Turf,Controlled Climate,68.0,70,,
17949,2019091502,20190915021208,home,96.46,28.42,1.56,0.83,0.16,265.79,215.13,2561142,Frank Ragnow,77,2019,14,2,10:40:00,DET,1,10,DET,6,7,2562293,I_FORM,"2 RB, 2 TE, 1 WR",7,"4 DL, 3 LB, 4 DB",left,2019-09-15T17:56:14.000Z,2019-09-15T17:56:13.000Z,6-5,311,05/17/1996,Arkansas,C,DET,LAC,2,Ford Field,Detroit,Indoors,Field Turf,Controlled Climate,68.0,70,,
17950,2019091502,20190915021208,home,101.36,28.09,5.07,3.26,0.49,248.99,244.27,2562293,Ty Johnson,31,2019,14,2,10:40:00,DET,1,10,DET,6,7,2562293,I_FORM,"2 RB, 2 TE, 1 WR",7,"4 DL, 3 LB, 4 DB",left,2019-09-15T17:56:14.000Z,2019-09-15T17:56:13.000Z,5-10,210,09/17/1997,Maryland,RB,DET,LAC,2,Ford Field,Detroit,Indoors,Field Turf,Controlled Climate,68.0,70,,
17951,2019091502,20190915021208,home,96.44,20.65,4.0,2.52,0.39,286.99,291.35,2562378,T.J. Hockenson,88,2019,14,2,10:40:00,DET,1,10,DET,6,7,2562293,I_FORM,"2 RB, 2 TE, 1 WR",7,"4 DL, 3 LB, 4 DB",left,2019-09-15T17:56:14.000Z,2019-09-15T17:56:13.000Z,6-5,248,07/03/1997,Iowa,TE,DET,LAC,2,Ford Field,Detroit,Indoors,Field Turf,Controlled Climate,68.0,70,,
