,GameId,PlayId,Team,X,Y,S,A,Dis,Orientation,Dir,NflId,DisplayName,JerseyNumber,Season,YardLine,Quarter,GameClock,PossessionTeam,Down,Distance,FieldPosition,HomeScoreBeforePlay,VisitorScoreBeforePlay,NflIdRusher,OffenseFormation,OffensePersonnel,DefendersInTheBox,DefensePersonnel,PlayDirection,TimeHandoff,TimeSnap,PlayerHeight,PlayerWeight,PlayerBirthDate,PlayerCollegeName,Position,HomeTeamAbbr,VisitorTeamAbbr,Week,Stadium,Location,StadiumType,Turf,GameWeather,Temperature,Humidity,WindSpeed,WindDirection
28842,2019091513,20190915130423,away,72.73,36.74,4.36,1.73,0.43,295.54,293.09,1581,DeSean Jackson,10,2019,37,1,07:54:00,PHI,1,15,PHI,3,0,2562722,SHOTGUN,"1 RB, 1 TE, 3 WR",6,"3 DL, 3 LB, 5 DB",left,2019-09-16T00:36:15.000Z,2019-09-16T00:36:13.000Z,5-10,175,12/01/1986,California,WR,ATL,PHI,2,Mercedes-Benz Stadium,"Atlanta, GA","Indoor, roof open",FieldTurf,,,0,,
28843,2019091513,20190915130423,away,72.75,21.25,2.52,2.16,0.26,228.25,235.85,2495298,Jason Kelce,62,2019,37,1,07:54:00,PHI,1,15,PHI,3,0,2562722,SHOTGUN,"1 RB, 1 TE, 3 WR",6,"3 DL, 3 LB, 5 DB",left,2019-09-16T00:36:15.000Z,2019-09-16T00:36:13.000Z,6-3,295,11/05/1987,Cincinnati,C,ATL,PHI,2,Mercedes-Benz Stadium,"Atlanta, GA","Indoor, roof open",FieldTurf,,,0,,
28844,2019091513,20190915130423,away,75.34,18.85,2.08,2.0,0.22,191.49,159.08,2505827,Jason Peters,71,2019,37,1,07:54:00,PHI,1,15,PHI,3,0,2562722,SHOTGUN,"1 RB, 1 TE, 3 WR",6,"3 DL, 3 LB, 5 DB",left,2019-09-16T00:36:15.000Z,2019-09-16T00:36:13.000Z,6-4,328,01/22/1982,Arkansas,OT,ATL,PHI,2,Mercedes-Benz Stadium,"Atlanta, GA","Indoor, roof open",FieldTurf,,,0,,
28845,2019091513,20190915130423,away,72.17,45.36,4.38,2.53,0.43,268.44,310.16,2533039,Alshon Jeffery,17,2019,37,1,07:54:00,PHI,1,15,PHI,3,0,2562722,SHOTGUN,"1 RB, 1 TE, 3 WR",6,"3 DL, 3 LB, 5 DB",left,2019-09-16T00:36:15.000Z,2019-09-16T00:36:13.000Z,6-3,218,02/14/1990,South Carolina,WR,ATL,PHI,2,Mercedes-Benz Stadium,"Atlanta, GA","Indoor, roof open",FieldTurf,,,0,,
28846,2019091513,20190915130423,away,73.74,22.33,3.0,1.35,0.3,246.65,201.24,2534434,Brandon Brooks,79,2019,37,1,07:54:00,PHI,1,15,PHI,3,0,2562722,SHOTGUN,"1 RB, 1 TE, 3 WR",6,"3 DL, 3 LB, 5 DB",left,2019-09-16T00:36:15.000Z,2019-09-16T00:36:13.000Z,6-5,335,08/19/1989,"Miami, O.",G,ATL,PHI,2,Mercedes-Benz Stadium,"Atlanta, GA","Indoor, roof open",FieldTurf,,,0,,
28847,2019091513,20190915130423,away,73.34,24.59,3.36,1.07,0.34,259.15,219.65,2539286,Lane Johnson,65,2019,37,1,07:54:00,PHI,1,15,PHI,3,0,2562722,SHOTGUN,"1 RB, 1 TE, 3 WR",6,"3 DL, 3 LB, 5 DB",left,2019-09-16T00:36:15.000Z,2019-09-16T00:36:13.000Z,6-6,317,05/08/1990,Oklahoma,T,ATL,PHI,2,Mercedes-Benz Stadium,"Atlanta, GA","Indoor, roof open",FieldTurf,,,0,,
28848,2019091513,20190915130423,away,75.11,23.19,4.15,1.25,0.41,329.29,328.64,2540158,Zach Ertz,86,2019,37,1,07:54:00,PHI,1,15,PHI,3,0,2562722,SHOTGUN,"1 RB, 1 TE, 3 WR",6,"3 DL, 3 LB, 5 DB",left,2019-09-16T00:36:15.000Z,2019-09-16T00:36:13.000Z,6-5,250,11/10/1990,Stanford,TE,ATL,PHI,2,Mercedes-Benz Stadium,"Atlanta, GA","Indoor, roof open",FieldTurf,,,0,,
28849,2019091513,20190915130423,away,72.48,16.52,3.55,2.03,0.34,261.38,266.57,2552600,Nelson Agholor,13,2019,37,1,07:54:00,PHI,1,15,PHI,3,0,2562722,SHOTGUN,"1 RB, 1 TE, 3 WR",6,"3 DL, 3 LB, 5 DB",left,2019-09-16T00:36:15.000Z,2019-09-16T00:36:13.000Z,6-0,198,05/24/1993,Southern California,WR,ATL,PHI,2,Mercedes-Benz Stadium,"Atlanta, GA","Indoor, roof open",FieldTurf,,,0,,
28850,2019091513,20190915130423,away,78.56,24.09,1.63,2.33,0.16,290.57,28.53,2555259,Carson Wentz,11,2019,37,1,07:54:00,PHI,1,15,PHI,3,0,2562722,SHOTGUN,"1 RB, 1 TE, 3 WR",6,"3 DL, 3 LB, 5 DB",left,2019-09-16T00:36:15.000Z,2019-09-16T00:36:13.000Z,6-5,237,12/30/1992,North Dakota State,QB,ATL,PHI,2,Mercedes-Benz Stadium,"Atlanta, GA","Indoor, roof open",FieldTurf,,,0,,
28851,2019091513,20190915130423,away,74.83,20.59,1.82,0.6,0.18,194.72,162.26,2555495,Isaac Seumalo,73,2019,37,1,07:54:00,PHI,1,15,PHI,3,0,2562722,SHOTGUN,"1 RB, 1 TE, 3 WR",6,"3 DL, 3 LB, 5 DB",left,2019-09-16T00:36:15.000Z,2019-09-16T00:36:13.000Z,6-4,303,10/29/1993,Oregon State,G,ATL,PHI,2,Mercedes-Benz Stadium,"Atlanta, GA","Indoor, roof open",FieldTurf,,,0,,
28852,2019091513,20190915130423,away,78.0,24.48,4.71,4.99,0.45,271.19,216.76,2562722,Miles Sanders,26,2019,37,1,07:54:00,PHI,1,15,PHI,3,0,2562722,SHOTGUN,"1 RB, 1 TE, 3 WR",6,"3 DL, 3 LB, 5 DB",left,2019-09-16T00:36:15.000Z,2019-09-16T00:36:13.000Z,5-11,211,05/01/1997,Penn State,RB,ATL,PHI,2,Mercedes-Benz Stadium,"Atlanta, GA","Indoor, roof open",FieldTurf,,,0,,
28853,2019091513,20190915130423,home,74.13,19.9,1.88,1.73,0.2,32.65,161.35,2532992,Jack Crawford,95,2019,37,1,07:54:00,PHI,1,15,PHI,3,0,2562722,SHOTGUN,"1 RB, 1 TE, 3 WR",6,"3 DL, 3 LB, 5 DB",left,2019-09-16T00:36:15.000Z,2019-09-16T00:36:13.000Z,6-5,288,09/07/1988,Penn State,DE,ATL,PHI,2,Mercedes-Benz Stadium,"Atlanta, GA","Indoor, roof open",FieldTurf,,,0,,
28854,2019091513,20190915130423,home,71.06,44.3,3.5,4.66,0.33,6.57,298.87,2539334,Desmond Trufant,21,2019,37,1,07:54:00,PHI,1,15,PHI,3,0,2562722,SHOTGUN,"1 RB, 1 TE, 3 WR",6,"3 DL, 3 LB, 5 DB",left,2019-09-16T00:36:15.000Z,2019-09-16T00:36:13.000Z,6-0,190,09/10/1990,Washington,CB,ATL,PHI,2,Mercedes-Benz Stadium,"Atlanta, GA","Indoor, roof open",FieldTurf,,,0,,
28855,2019091513,20190915130423,home,60.91,32.97,0.27,0.8,0.02,114.14,337.35,2543850,Ricardo Allen,37,2019,37,1,07:54:00,PHI,1,15,PHI,3,0,2562722,SHOTGUN,"1 RB, 1 TE, 3 WR",6,"3 DL, 3 LB, 5 DB",left,2019-09-16T00:36:15.000Z,2019-09-16T00:36:13.000Z,5-9,186,12/18/1991,Purdue,SS,ATL,PHI,2,Mercedes-Benz Stadium,"Atlanta, GA","Indoor, roof open",FieldTurf,,,0,,
28856,2019091513,20190915130423,home,73.94,26.48,4.53,1.19,0.45,148.61,164.84,2552301,Vic Beasley,44,2019,37,1,07:54:00,PHI,1,15,PHI,3,0,2562722,SHOTGUN,"1 RB, 1 TE, 3 WR",6,"3 DL, 3 LB, 5 DB",left,2019-09-16T00:36:15.000Z,2019-09-16T00:36:13.000Z,6-3,246,07/08/1992,Clemson,OLB,ATL,PHI,2,Mercedes-Benz Stadium,"Atlanta, GA","Indoor, roof open",FieldTurf,,,0,,
28857,2019091513,20190915130423,home,72.98,22.23,2.34,2.02,0.24,111.47,187.78,2552327,Grady Jarrett,97,2019,37,1,07:54:00,PHI,1,15,PHI,3,0,2562722,SHOTGUN,"1 RB, 1 TE, 3 WR",6,"3 DL, 3 LB, 5 DB",left,2019-09-16T00:36:15.000Z,2019-09-16T00:36:13.000Z,6-0,305,04/28/1993,Clemson,DT,ATL,PHI,2,Mercedes-Benz Stadium,"Atlanta, GA","Indoor, roof open",FieldTurf,,,0,,
28858,2019091513,20190915130423,home,70.79,24.41,2.57,1.86,0.25,72.81,125.26,2555162,Deion Jones,45,2019,37,1,07:54:00,PHI,1,15,PHI,3,0,2562722,SHOTGUN,"1 RB, 1 TE, 3 WR",6,"3 DL, 3 LB, 5 DB",left,2019-09-16T00:36:15.000Z,2019-09-16T00:36:13.000Z,6-1,227,11/04/1994,Louisiana State,MLB,ATL,PHI,2,Mercedes-Benz Stadium,"Atlanta, GA","Indoor, roof open",FieldTurf,,,0,,
28859,2019091513,20190915130423,home,69.23,19.78,1.59,1.99,0.15,82.88,43.88,2555255,De'Vondre Campbell,59,2019,37,1,07:54:00,PHI,1,15,PHI,3,0,2562722,SHOTGUN,"1 RB, 1 TE, 3 WR",6,"3 DL, 3 LB, 5 DB",left,2019-09-16T00:36:15.000Z,2019-09-16T00:36:13.000Z,6-3,232,07/01/1993,Minnesota,OLB,ATL,PHI,2,Mercedes-Benz Stadium,"Atlanta, GA","Indoor, roof open",FieldTurf,,,0,,
28860,2019091513,20190915130423,home,58.39,23.43,3.17,1.03,0.32,85.98,294.27,2555543,Keanu Neal,22,2019,37,1,07:54:00,PHI,1,15,PHI,3,0,2562722,SHOTGUN,"1 RB, 1 TE, 3 WR",6,"3 DL, 3 LB, 5 DB",left,2019-09-16T00:36:15.000Z,2019-09-16T00:36:13.000Z,6-0,211,07/26/1995,Florida,FS,ATL,PHI,2,Mercedes-Benz Stadium,"Atlanta, GA","Indoor, roof open",FieldTurf,,,0,,
28861,2019091513,20190915130423,home,74.82,18.05,1.55,3.25,0.15,25.79,100.0,2557872,Takkarist McKinley,98,2019,37,1,07:54:00,PHI,1,15,PHI,3,0,2562722,SHOTGUN,"1 RB, 1 TE, 3 WR",6,"3 DL, 3 LB, 5 DB",left,2019-09-16T00:36:15.000Z,2019-09-16T00:36:13.000Z,6-2,265,11/02/1995,UCLA,DE,ATL,PHI,2,Mercedes-Benz Stadium,"Atlanta, GA","Indoor, roof open",FieldTurf,,,0,,
28862,2019091513,20190915130423,home,71.13,36.73,4.36,3.34,0.41,57.74,324.98,2558184,Damontae Kazee,27,2019,37,1,07:54:00,PHI,1,15,PHI,3,0,2562722,SHOTGUN,"1 RB, 1 TE, 3 WR",6,"3 DL, 3 LB, 5 DB",left,2019-09-16T00:36:15.000Z,2019-09-16T00:36:13.000Z,5-11,190,06/05/1993,San Diego State,SS,ATL,PHI,2,Mercedes-Benz Stadium,"Atlanta, GA","Indoor, roof open",FieldTurf,,,0,,
28863,2019091513,20190915130423,home,64.33,14.71,0.23,0.92,0.02,38.11,306.62,2560830,Isaiah Oliver,26,2019,37,1,07:54:00,PHI,1,15,PHI,3,0,2562722,SHOTGUN,"1 RB, 1 TE, 3 WR",6,"3 DL, 3 LB, 5 DB",left,2019-09-16T00:36:15.000Z,2019-09-16T00:36:13.000Z,6-0,210,09/30/1996,Colorado,CB,ATL,PHI,2,Mercedes-Benz Stadium,"Atlanta, GA","Indoor, roof open",FieldTurf,,,0,,
