,GameId,PlayId,Team,X,Y,S,A,Dis,Orientation,Dir,NflId,DisplayName,JerseyNumber,Season,YardLine,Quarter,GameClock,PossessionTeam,Down,Distance,FieldPosition,HomeScoreBeforePlay,VisitorScoreBeforePlay,NflIdRusher,OffenseFormation,OffensePersonnel,DefendersInTheBox,DefensePersonnel,PlayDirection,TimeHandoff,TimeSnap,PlayerHeight,PlayerWeight,PlayerBirthDate,PlayerCollegeName,Position,HomeTeamAbbr,VisitorTeamAbbr,Week,Stadium,Location,StadiumType,Turf,GameWeather,Temperature,Humidity,WindSpeed,WindDirection
55880,2019092909,20190929090157,away,88.32,20.22,3.44,0.7,0.34,103.88,175.06,2507716,Demar Dotson,69,2019,21,1,12:40:00,TB,2,3,LA,0,0,2556466,I_FORM,"2 RB, 1 TE, 2 WR",8,"4 DL, 3 LB, 4 DB",right,2019-09-29T20:09:04.000Z,2019-09-29T20:09:03.000Z,6-9,315,10/11/1985,Southern Mississippi,OT,LA,TB,4,Los Angeles Memorial Coliseum,"Los Angeles, Calif.",Outdoor,Grass,Mostly Sunny,74.0,41,2,SW
55881,2019092909,20190929090157,away,88.25,22.56,3.75,0.87,0.4,103.01,192.28,2541159,Ryan Jensen,66,2019,21,1,12:40:00,TB,2,3,LA,0,0,2556466,I_FORM,"2 RB, 1 TE, 2 WR",8,"4 DL, 3 LB, 4 DB",right,2019-09-29T20:09:04.000Z,2019-09-29T20:09:03.000Z,6-4,319,05/27/1991,Colorado State-Pueblo,C,LA,TB,4,Los Angeles Memorial Coliseum,"Los Angeles, Calif.",Outdoor,Grass,Mostly Sunny,74.0,41,2,SW
55882,2019092909,20190929090157,away,91.64,42.14,4.97,2.63,0.49,136.07,119.77,2543468,Mike Evans,13,2019,21,1,12:40:00,TB,2,3,LA,0,0,2556466,I_FORM,"2 RB, 1 TE, 2 WR",8,"4 DL, 3 LB, 4 DB",right,2019-09-29T20:09:04.000Z,2019-09-29T20:09:03.000Z,6-5,231,08/21/1993,Texas A&M,WR,LA,TB,4,Los Angeles Memorial Coliseum,"Los Angeles, Calif.",Outdoor,Grass,Mostly Sunny,74.0,41,2,SW
55883,2019092909,20190929090157,away,85.26,24.25,4.21,1.09,0.42,201.21,244.64,2552033,Jameis Winston,3,2019,21,1,12:40:00,TB,2,3,LA,0,0,2556466,I_FORM,"2 RB, 1 TE, 2 WR",8,"4 DL, 3 LB, 4 DB",right,2019-09-29T20:09:04.000Z,2019-09-29T20:09:03.000Z,6-4,231,01/06/1994,Florida State,QB,LA,TB,4,Los Angeles Memorial Coliseum,"Los Angeles, Calif.",Outdoor,Grass,Mostly Sunny,74.0,41,2,SW
55884,2019092909,20190929090157,away,89.89,24.52,4.08,0.64,0.42,72.66,158.58,2552332,Ali Marpet,74,2019,21,1,12:40:00,TB,2,3,LA,0,0,2556466,I_FORM,"2 RB, 1 TE, 2 WR",8,"4 DL, 3 LB, 4 DB",right,2019-09-29T20:09:04.000Z,2019-09-29T20:09:03.000Z,6-4,307,04/17/1993,Hobart,G,LA,TB,4,Los Angeles Memorial Coliseum,"Los Angeles, Calif.",Outdoor,Grass,Mostly Sunny,74.0,41,2,SW
55885,2019092909,20190929090157,away,88.8,25.47,3.81,1.09,0.41,111.25,153.55,2552460,Donovan Smith,76,2019,21,1,12:40:00,TB,2,3,LA,0,0,2556466,I_FORM,"2 RB, 1 TE, 2 WR",8,"4 DL, 3 LB, 4 DB",right,2019-09-29T20:09:04.000Z,2019-09-29T20:09:03.000Z,6-6,338,06/23/1993,Penn State,T,LA,TB,4,Los Angeles Memorial Coliseum,"Los Angeles, Calif.",Outdoor,Grass,Mostly Sunny,74.0,41,2,SW
55886,2019092909,20190929090157,away,84.47,23.95,4.74,2.66,0.46,154.6,149.31,2556466,Peyton Barber,25,2019,21,1,12:40:00,TB,2,3,LA,0,0,2556466,I_FORM,"2 RB, 1 TE, 2 WR",8,"4 DL, 3 LB, 4 DB",right,2019-09-29T20:09:04.000Z,2019-09-29T20:09:03.000Z,5-11,225,02/27/1994,Auburn,RB,LA,TB,4,Los Angeles Memorial Coliseum,"Los Angeles, Calif.",Outdoor,Grass,Mostly Sunny,74.0,41,2,SW
55887,2019092909,20190929090157,away,88.4,18.88,3.09,1.15,0.31,136.33,190.73,2557856,O.J. Howard,80,2019,21,1,12:40:00,TB,2,3,LA,0,0,2556466,I_FORM,"2 RB, 1 TE, 2 WR",8,"4 DL, 3 LB, 4 DB",right,2019-09-29T20:09:04.000Z,2019-09-29T20:09:03.000Z,6-6,250,11/18/1994,Alabama,TE,LA,TB,4,Los Angeles Memorial Coliseum,"Los Angeles, Calif.",Outdoor,Grass,Mostly Sunny,74.0,41,2,SW
55888,2019092909,20190929090157,away,88.78,26.36,4.39,1.88,0.43,113.86,153.51,2558105,Chris Godwin,12,2019,21,1,12:40:00,TB,2,3,LA,0,0,2556466,I_FORM,"2 RB, 1 TE, 2 WR",8,"4 DL, 3 LB, 4 DB",right,2019-09-29T20:09:04.000Z,2019-09-29T20:09:03.000Z,6-1,209,02/27/1996,Penn State,WR,LA,TB,4,Los Angeles Memorial Coliseum,"Los Angeles, Calif.",Outdoor,Grass,Mostly Sunny,74.0,41,2,SW
55889,2019092909,20190929090157,away,86.98,22.99,3.65,3.21,0.37,116.06,143.35,2559362,Dare Ogunbowale,44,2019,21,1,12:40:00,TB,2,3,LA,0,0,2556466,I_FORM,"2 RB, 1 TE, 2 WR",8,"4 DL, 3 LB, 4 DB",right,2019-09-29T20:09:04.000Z,2019-09-29T20:09:03.000Z,5-11,205,05/04/1994,Wisconsin,RB,LA,TB,4,Los Angeles Memorial Coliseum,"Los Angeles, Calif.",Outdoor,Grass,Mostly Sunny,74.0,41,2,SW
55890,2019092909,20190929090157,away,88.9,21.23,3.31,1.07,0.34,165.57,168.32,2560991,Alex Cappa,65,2019,21,1,12:40:00,TB,2,3,LA,0,0,2556466,I_FORM,"2 RB, 1 TE, 2 WR",8,"4 DL, 3 LB, 4 DB",right,2019-09-29T20:09:04.000Z,2019-09-29T20:09:03.000Z,6-6,305,01/27/1995,Humboldt State,G,LA,TB,4,Los Angeles Memorial Coliseum,"Los Angeles, Calif.",Outdoor,Grass,Mostly Sunny,74.0,41,2,SW
55891,2019092909,20190929090157,home,92.92,31.16,3.67,2.27,0.36,216.89,193.58,1302,Aqib Talib,21,2019,21,1,12:40:00,TB,2,3,LA,0,0,2556466,I_FORM,"2 RB, 1 TE, 2 WR",8,"4 DL, 3 LB, 4 DB",right,2019-09-29T20:09:04.000Z,2019-09-29T20:09:03.000Z,6-1,209,02/13/1986,Kansas,CB,LA,TB,4,Los Angeles Memorial Coliseum,"Los Angeles, Calif.",Outdoor,Grass,Mostly Sunny,74.0,41,2,SW
55892,2019092909,20190929090157,home,88.97,18.21,3.07,0.82,0.3,310.94,208.82,80431,Clay Matthews,52,2019,21,1,12:40:00,TB,2,3,LA,0,0,2556466,I_FORM,"2 RB, 1 TE, 2 WR",8,"4 DL, 3 LB, 4 DB",right,2019-09-29T20:09:04.000Z,2019-09-29T20:09:03.000Z,6-3,255,05/14/1986,Southern California,OLB,LA,TB,4,Los Angeles Memorial Coliseum,"Los Angeles, Calif.",Outdoor,Grass,Mostly Sunny,74.0,41,2,SW
55893,2019092909,20190929090157,home,100.71,28.45,4.21,3.23,0.4,237.29,204.21,2495775,Eric Weddle,32,2019,21,1,12:40:00,TB,2,3,LA,0,0,2556466,I_FORM,"2 RB, 1 TE, 2 WR",8,"4 DL, 3 LB, 4 DB",right,2019-09-29T20:09:04.000Z,2019-09-29T20:09:03.000Z,5-11,195,01/04/1985,Utah,FS,LA,TB,4,Los Angeles Memorial Coliseum,"Los Angeles, Calif.",Outdoor,Grass,Mostly Sunny,74.0,41,2,SW
55894,2019092909,20190929090157,home,89.19,20.35,3.32,1.65,0.35,230.15,181.48,2533050,Michael Brockers,90,2019,21,1,12:40:00,TB,2,3,LA,0,0,2556466,I_FORM,"2 RB, 1 TE, 2 WR",8,"4 DL, 3 LB, 4 DB",right,2019-09-29T20:09:04.000Z,2019-09-29T20:09:03.000Z,6-5,305,12/21/1990,Louisiana State,DT,LA,TB,4,Los Angeles Memorial Coliseum,"Los Angeles, Calif.",Outdoor,Grass,Mostly Sunny,74.0,41,2,SW
55895,2019092909,20190929090157,home,90.41,25.16,3.66,0.36,0.39,216.46,173.23,2543485,Aaron Donald,99,2019,21,1,12:40:00,TB,2,3,LA,0,0,2556466,I_FORM,"2 RB, 1 TE, 2 WR",8,"4 DL, 3 LB, 4 DB",right,2019-09-29T20:09:04.000Z,2019-09-29T20:09:03.000Z,6-1,280,05/23/1991,Pittsburgh,DT,LA,TB,4,Los Angeles Memorial Coliseum,"Los Angeles, Calif.",Outdoor,Grass,Mostly Sunny,74.0,41,2,SW
55896,2019092909,20190929090157,home,91.69,21.53,4.37,1.25,0.43,264.17,204.22,2552307,Bryce Hager,54,2019,21,1,12:40:00,TB,2,3,LA,0,0,2556466,I_FORM,"2 RB, 1 TE, 2 WR",8,"4 DL, 3 LB, 4 DB",right,2019-09-29T20:09:04.000Z,2019-09-29T20:09:03.000Z,6-1,237,05/04/1992,Baylor,ILB,LA,TB,4,Los Angeles Memorial Coliseum,"Los Angeles, Calif.",Outdoor,Grass,Mostly Sunny,74.0,41,2,SW
55897,2019092909,20190929090157,home,98.39,41.84,2.76,2.6,0.26,190.92,136.0,2552488,Marcus Peters,22,2019,21,1,12:40:00,TB,2,3,LA,0,0,2556466,I_FORM,"2 RB, 1 TE, 2 WR",8,"4 DL, 3 LB, 4 DB",right,2019-09-29T20:09:04.000Z,2019-09-29T20:09:03.000Z,6-0,197,01/09/1993,Washington,CB,LA,TB,4,Los Angeles Memorial Coliseum,"Los Angeles, Calif.",Outdoor,Grass,Mostly Sunny,74.0,41,2,SW
55898,2019092909,20190929090157,home,89.66,26.67,4.27,2.04,0.44,193.64,174.07,2553431,Dante Fowler,56,2019,21,1,12:40:00,TB,2,3,LA,0,0,2556466,I_FORM,"2 RB, 1 TE, 2 WR",8,"4 DL, 3 LB, 4 DB",right,2019-09-29T20:09:04.000Z,2019-09-29T20:09:03.000Z,6-3,255,08/03/1994,Florida,OLB,LA,TB,4,Los Angeles Memorial Coliseum,"Los Angeles, Calif.",Outdoor,Grass,Mostly Sunny,74.0,41,2,SW
55899,2019092909,20190929090157,home,92.23,24.57,4.98,1.6,0.49,247.02,191.32,2556593,Cory Littleton,58,2019,21,1,12:40:00,TB,2,3,LA,0,0,2556466,I_FORM,"2 RB, 1 TE, 2 WR",8,"4 DL, 3 LB, 4 DB",right,2019-09-29T20:09:04.000Z,2019-09-29T20:09:03.000Z,6-3,228,11/18/1993,Washington,ILB,LA,TB,4,Los Angeles Memorial Coliseum,"Los Angeles, Calif.",Outdoor,Grass,Mostly Sunny,74.0,41,2,SW
55900,2019092909,20190929090157,home,93.58,19.45,3.7,2.41,0.36,268.25,203.89,2558183,John Johnson,43,2019,21,1,12:40:00,TB,2,3,LA,0,0,2556466,I_FORM,"2 RB, 1 TE, 2 WR",8,"4 DL, 3 LB, 4 DB",right,2019-09-29T20:09:04.000Z,2019-09-29T20:09:03.000Z,6-0,209,12/19/1995,Boston College,SS,LA,TB,4,Los Angeles Memorial Coliseum,"Los Angeles, Calif.",Outdoor,Grass,Mostly Sunny,74.0,41,2,SW
55901,2019092909,20190929090157,home,88.99,23.22,3.5,0.81,0.37,234.0,200.7,2561079,Sebastian Joseph-Day,69,2019,21,1,12:40:00,TB,2,3,LA,0,0,2556466,I_FORM,"2 RB, 1 TE, 2 WR",8,"4 DL, 3 LB, 4 DB",right,2019-09-29T20:09:04.000Z,2019-09-29T20:09:03.000Z,6-4,310,03/21/1995,Rutgers,DT,LA,TB,4,Los Angeles Memorial Coliseum,"Los Angeles, Calif.",Outdoor,Grass,Mostly Sunny,74.0,41,2,SW
