,GameId,PlayId,Team,X,Y,S,A,Dis,Orientation,Dir,NflId,DisplayName,JerseyNumber,Season,YardLine,Quarter,GameClock,PossessionTeam,Down,Distance,FieldPosition,HomeScoreBeforePlay,VisitorScoreBeforePlay,NflIdRusher,OffenseFormation,OffensePersonnel,DefendersInTheBox,DefensePersonnel,PlayDirection,TimeHandoff,TimeSnap,PlayerHeight,PlayerWeight,PlayerBirthDate,PlayerCollegeName,Position,HomeTeamAbbr,VisitorTeamAbbr,Week,Stadium,Location,StadiumType,Turf,GameWeather,Temperature,Humidity,WindSpeed,WindDirection
4180,2019090803,20190908033256,away,62.16,29.28,3.68,4.08,0.35,89.46,107.68,2495466,Mark Ingram,21,2019,42,4,14:54:00,BLT,1,10,MIA,10,52,2495466,PISTOL,"2 RB, 2 TE, 1 WR",8,"3 DL, 4 LB, 4 DB",right,2019-09-08T19:32:57.000Z,2019-09-08T19:32:56.000Z,5-9,215,12/21/1989,Alabama,RB,MIA,BAL,1,Hard Rock Stadium,"Miami Gardens, FL",Outdoor,Natural grass,Mostly Cloudy,91.0,56,8,SSE
4181,2019090803,20190908033256,away,62.56,30.0,0.95,1.04,0.09,230.65,259.67,2533033,Robert Griffin III,3,2019,42,4,14:54:00,BLT,1,10,MIA,10,52,2495466,PISTOL,"2 RB, 2 TE, 1 WR",8,"3 DL, 4 LB, 4 DB",right,2019-09-08T19:32:57.000Z,2019-09-08T19:32:56.000Z,6-2,213,02/12/1990,Baylor,QB,MIA,BAL,1,Hard Rock Stadium,"Miami Gardens, FL",Outdoor,Natural grass,Mostly Cloudy,91.0,56,8,SSE
4182,2019090803,20190908033256,away,67.55,42.06,5.38,4.3,0.52,136.2,160.88,2550597,Seth Roberts,11,2019,42,4,14:54:00,BLT,1,10,MIA,10,52,2495466,PISTOL,"2 RB, 2 TE, 1 WR",8,"3 DL, 4 LB, 4 DB",right,2019-09-08T19:32:57.000Z,2019-09-08T19:32:56.000Z,6-2,195,02/22/1991,West Alabama,WR,MIA,BAL,1,Hard Rock Stadium,"Miami Gardens, FL",Outdoor,Natural grass,Mostly Cloudy,91.0,56,8,SSE
4183,2019090803,20190908033256,away,67.92,27.69,1.99,2.02,0.21,81.62,20.03,2552402,Nick Boyle,86,2019,42,4,14:54:00,BLT,1,10,MIA,10,52,2495466,PISTOL,"2 RB, 2 TE, 1 WR",8,"3 DL, 4 LB, 4 DB",right,2019-09-08T19:32:57.000Z,2019-09-08T19:32:56.000Z,6-4,270,02/17/1993,Delaware,TE,MIA,BAL,1,Hard Rock Stadium,"Miami Gardens, FL",Outdoor,Natural grass,Mostly Cloudy,91.0,56,8,SSE
4184,2019090803,20190908033256,away,66.55,32.14,0.94,0.39,0.1,329.35,200.95,2555204,Ronnie Stanley,79,2019,42,4,14:54:00,BLT,1,10,MIA,10,52,2495466,PISTOL,"2 RB, 2 TE, 1 WR",8,"3 DL, 4 LB, 4 DB",right,2019-09-08T19:32:57.000Z,2019-09-08T19:32:56.000Z,6-6,315,03/18/1994,Notre Dame,T,MIA,BAL,1,Hard Rock Stadium,"Miami Gardens, FL",Outdoor,Natural grass,Mostly Cloudy,91.0,56,8,SSE
4185,2019090803,20190908033256,away,67.86,30.39,0.51,0.24,0.05,77.35,55.86,2556683,Matt Skura,68,2019,42,4,14:54:00,BLT,1,10,MIA,10,52,2495466,PISTOL,"2 RB, 2 TE, 1 WR",8,"3 DL, 4 LB, 4 DB",right,2019-09-08T19:32:57.000Z,2019-09-08T19:32:56.000Z,6-3,313,02/17/1993,Duke,C,MIA,BAL,1,Hard Rock Stadium,"Miami Gardens, FL",Outdoor,Natural grass,Mostly Cloudy,91.0,56,8,SSE
4186,2019090803,20190908033256,away,65.96,27.92,5.42,3.42,0.55,132.25,155.03,2558990,Patrick Ricard,42,2019,42,4,14:54:00,BLT,1,10,MIA,10,52,2495466,PISTOL,"2 RB, 2 TE, 1 WR",8,"3 DL, 4 LB, 4 DB",right,2019-09-08T19:32:57.000Z,2019-09-08T19:32:56.000Z,6-3,311,05/27/1994,Maine,FB,MIA,BAL,1,Hard Rock Stadium,"Miami Gardens, FL",Outdoor,Natural grass,Mostly Cloudy,91.0,56,8,SSE
4187,2019090803,20190908033256,away,66.52,29.58,4.38,2.05,0.43,118.71,175.25,2559827,Bradley Bozeman,77,2019,42,4,14:54:00,BLT,1,10,MIA,10,52,2495466,PISTOL,"2 RB, 2 TE, 1 WR",8,"3 DL, 4 LB, 4 DB",right,2019-09-08T19:32:57.000Z,2019-09-08T19:32:56.000Z,6-3,317,11/24/1994,Alabama,C,MIA,BAL,1,Hard Rock Stadium,"Miami Gardens, FL",Outdoor,Natural grass,Mostly Cloudy,91.0,56,8,SSE
4188,2019090803,20190908033256,away,68.26,26.41,3.79,1.95,0.38,76.0,54.14,2560747,Hayden Hurst,81,2019,42,4,14:54:00,BLT,1,10,MIA,10,52,2495466,PISTOL,"2 RB, 2 TE, 1 WR",8,"3 DL, 4 LB, 4 DB",right,2019-09-08T19:32:57.000Z,2019-09-08T19:32:56.000Z,6-4,245,08/24/1993,South Carolina,TE,MIA,BAL,1,Hard Rock Stadium,"Miami Gardens, FL",Outdoor,Natural grass,Mostly Cloudy,91.0,56,8,SSE
4189,2019090803,20190908033256,away,68.2,28.93,1.82,1.67,0.19,356.52,36.78,2560981,Orlando Brown,78,2019,42,4,14:54:00,BLT,1,10,MIA,10,52,2495466,PISTOL,"2 RB, 2 TE, 1 WR",8,"3 DL, 4 LB, 4 DB",right,2019-09-08T19:32:57.000Z,2019-09-08T19:32:56.000Z,6-8,345,05/02/1996,Oklahoma,T,MIA,BAL,1,Hard Rock Stadium,"Miami Gardens, FL",Outdoor,Natural grass,Mostly Cloudy,91.0,56,8,SSE
4190,2019090803,20190908033256,away,67.83,29.43,1.0,1.25,0.1,122.66,39.15,2563100,Patrick Mekari,65,2019,42,4,14:54:00,BLT,1,10,MIA,10,52,2495466,PISTOL,"2 RB, 2 TE, 1 WR",8,"3 DL, 4 LB, 4 DB",right,2019-09-08T19:32:57.000Z,2019-09-08T19:32:56.000Z,6-4,308,08/13/1997,California,T,MIA,BAL,1,Hard Rock Stadium,"Miami Gardens, FL",Outdoor,Natural grass,Mostly Cloudy,91.0,56,8,SSE
4191,2019090803,20190908033256,home,72.0,33.03,3.23,1.77,0.31,257.43,196.07,496739,Reshad Jones,20,2019,42,4,14:54:00,BLT,1,10,MIA,10,52,2495466,PISTOL,"2 RB, 2 TE, 1 WR",8,"3 DL, 4 LB, 4 DB",right,2019-09-08T19:32:57.000Z,2019-09-08T19:32:56.000Z,6-1,215,02/25/1988,Georgia,SS,MIA,BAL,1,Hard Rock Stadium,"Miami Gardens, FL",Outdoor,Natural grass,Mostly Cloudy,91.0,56,8,SSE
4192,2019090803,20190908033256,home,68.44,30.96,0.56,1.25,0.05,232.59,38.02,2539231,John Jenkins,95,2019,42,4,14:54:00,BLT,1,10,MIA,10,52,2495466,PISTOL,"2 RB, 2 TE, 1 WR",8,"3 DL, 4 LB, 4 DB",right,2019-09-08T19:32:57.000Z,2019-09-08T19:32:56.000Z,6-3,327,07/11/1989,Georgia,NT,MIA,BAL,1,Hard Rock Stadium,"Miami Gardens, FL",Outdoor,Natural grass,Mostly Cloudy,91.0,56,8,SSE
4193,2019090803,20190908033256,home,72.22,20.8,0.15,1.09,0.01,292.72,112.01,2552255,Eric Rowe,21,2019,42,4,14:54:00,BLT,1,10,MIA,10,52,2495466,PISTOL,"2 RB, 2 TE, 1 WR",8,"3 DL, 4 LB, 4 DB",right,2019-09-08T19:32:57.000Z,2019-09-08T19:32:56.000Z,6-1,205,10/03/1992,Utah,CB,MIA,BAL,1,Hard Rock Stadium,"Miami Gardens, FL",Outdoor,Natural grass,Mostly Cloudy,91.0,56,8,SSE
4194,2019090803,20190908033256,home,82.21,30.04,0.97,0.9,0.09,287.76,42.58,2552434,Bobby McCain,28,2019,42,4,14:54:00,BLT,1,10,MIA,10,52,2495466,PISTOL,"2 RB, 2 TE, 1 WR",8,"3 DL, 4 LB, 4 DB",right,2019-09-08T19:32:57.000Z,2019-09-08T19:32:56.000Z,5-11,192,08/18/1993,Memphis,CB,MIA,BAL,1,Hard Rock Stadium,"Miami Gardens, FL",Outdoor,Natural grass,Mostly Cloudy,91.0,56,8,SSE
4195,2019090803,20190908033256,home,76.38,44.77,2.8,2.19,0.27,220.29,118.36,2555539,Xavien Howard,25,2019,42,4,14:54:00,BLT,1,10,MIA,10,52,2495466,PISTOL,"2 RB, 2 TE, 1 WR",8,"3 DL, 4 LB, 4 DB",right,2019-09-08T19:32:57.000Z,2019-09-08T19:32:56.000Z,6-1,200,07/04/1993,Baylor,CB,MIA,BAL,1,Hard Rock Stadium,"Miami Gardens, FL",Outdoor,Natural grass,Mostly Cloudy,91.0,56,8,SSE
4196,2019090803,20190908033256,home,68.48,29.45,1.1,0.64,0.13,266.42,7.71,2558012,Davon Godchaux,56,2019,42,4,14:54:00,BLT,1,10,MIA,10,52,2495466,PISTOL,"2 RB, 2 TE, 1 WR",8,"3 DL, 4 LB, 4 DB",right,2019-09-08T19:32:57.000Z,2019-09-08T19:32:56.000Z,6-3,311,11/11/1994,Louisiana State,DT,MIA,BAL,1,Hard Rock Stadium,"Miami Gardens, FL",Outdoor,Natural grass,Mostly Cloudy,91.0,56,8,SSE
4197,2019090803,20190908033256,home,66.78,33.62,2.09,1.97,0.21,239.3,236.11,2558031,Avery Moss,93,2019,42,4,14:54:00,BLT,1,10,MIA,10,52,2495466,PISTOL,"2 RB, 2 TE, 1 WR",8,"3 DL, 4 LB, 4 DB",right,2019-09-08T19:32:57.000Z,2019-09-08T19:32:56.000Z,6-3,271,09/16/1994,Youngstown State,OLB,MIA,BAL,1,Hard Rock Stadium,"Miami Gardens, FL",Outdoor,Natural grass,Mostly Cloudy,91.0,56,8,SSE
4198,2019090803,20190908033256,home,71.34,27.81,3.44,1.59,0.33,283.38,258.92,2558070,Raekwon McMillan,52,2019,42,4,14:54:00,BLT,1,10,MIA,10,52,2495466,PISTOL,"2 RB, 2 TE, 1 WR",8,"3 DL, 4 LB, 4 DB",right,2019-09-08T19:32:57.000Z,2019-09-08T19:32:56.000Z,6-2,242,11/17/1995,Ohio State,LB,MIA,BAL,1,Hard Rock Stadium,"Miami Gardens, FL",Outdoor,Natural grass,Mostly Cloudy,91.0,56,8,SSE
4199,2019090803,20190908033256,home,68.07,35.0,1.99,2.23,0.19,248.03,198.12,2560966,Jerome Baker,55,2019,42,4,14:54:00,BLT,1,10,MIA,10,52,2495466,PISTOL,"2 RB, 2 TE, 1 WR",8,"3 DL, 4 LB, 4 DB",right,2019-09-08T19:32:57.000Z,2019-09-08T19:32:56.000Z,6-2,225,12/25/1996,Ohio State,LB,MIA,BAL,1,Hard Rock Stadium,"Miami Gardens, FL",Outdoor,Natural grass,Mostly Cloudy,91.0,56,8,SSE
4200,2019090803,20190908033256,home,68.51,24.94,2.14,1.06,0.21,306.12,316.8,2562038,Sam Eguavoen,49,2019,42,4,14:54:00,BLT,1,10,MIA,10,52,2495466,PISTOL,"2 RB, 2 TE, 1 WR",8,"3 DL, 4 LB, 4 DB",right,2019-09-08T19:32:57.000Z,2019-09-08T19:32:56.000Z,6-0,236,02/22/1993,Texas Tech,LB,MIA,BAL,1,Hard Rock Stadium,"Miami Gardens, FL",Outdoor,Natural grass,Mostly Cloudy,91.0,56,8,SSE
4201,2019090803,20190908033256,home,68.28,28.31,2.04,0.75,0.19,344.7,352.04,2562302,Jonathan Ledbetter,98,2019,42,4,14:54:00,BLT,1,10,MIA,10,52,2495466,PISTOL,"2 RB, 2 TE, 1 WR",8,"3 DL, 4 LB, 4 DB",right,2019-09-08T19:32:57.000Z,2019-09-08T19:32:56.000Z,6-4,280,09/12/1997,Georgia,DE,MIA,BAL,1,Hard Rock Stadium,"Miami Gardens, FL",Outdoor,Natural grass,Mostly Cloudy,91.0,56,8,SSE
