,GameId,PlayId,Team,X,Y,S,A,Dis,Orientation,Dir,NflId,DisplayName,JerseyNumber,Season,YardLine,Quarter,GameClock,PossessionTeam,Down,Distance,FieldPosition,HomeScoreBeforePlay,VisitorScoreBeforePlay,NflIdRusher,OffenseFormation,OffensePersonnel,DefendersInTheBox,DefensePersonnel,PlayDirection,TimeHandoff,TimeSnap,PlayerHeight,PlayerWeight,PlayerBirthDate,PlayerCollegeName,Position,HomeTeamAbbr,VisitorTeamAbbr,Week,Stadium,Location,StadiumType,Turf,GameWeather,Temperature,Humidity,WindSpeed,WindDirection
23474,2019091507,20190915073036,away,48.88,22.23,1.22,1.51,0.12,200.53,159.23,808,Duane Brown,76,2019,37,3,03:04:00,SEA,3,2,PIT,13,14,2560835,SHOTGUN,"6 OL, 1 RB, 1 TE, 2 WR",7,"3 DL, 4 LB, 4 DB",left,2019-09-15T19:14:41.000Z,2019-09-15T19:14:39.000Z,6-4,315,08/30/1985,Virginia Tech,T,PIT,SEA,2,Heinz Field,Pittsburgh,Outdoors,Grass,Sunny,81.0,51,3,From S
23475,2019091507,20190915073036,away,47.38,24.28,1.17,1.07,0.12,191.23,200.4,497016,Mike Iupati,70,2019,37,3,03:04:00,SEA,3,2,PIT,13,14,2560835,SHOTGUN,"6 OL, 1 RB, 1 TE, 2 WR",7,"3 DL, 4 LB, 4 DB",left,2019-09-15T19:14:41.000Z,2019-09-15T19:14:39.000Z,6-5,331,05/12/1987,Idaho,OG,PIT,SEA,2,Heinz Field,Pittsburgh,Outdoors,Grass,Sunny,81.0,51,3,From S
23476,2019091507,20190915073036,away,51.43,27.96,1.27,1.41,0.12,308.08,313.1,2532975,Russell Wilson,3,2019,37,3,03:04:00,SEA,3,2,PIT,13,14,2560835,SHOTGUN,"6 OL, 1 RB, 1 TE, 2 WR",7,"3 DL, 4 LB, 4 DB",left,2019-09-15T19:14:41.000Z,2019-09-15T19:14:39.000Z,5-11,215,11/29/1988,Wisconsin,QB,PIT,SEA,2,Heinz Field,Pittsburgh,Outdoors,Grass,Sunny,81.0,51,3,From S
23477,2019091507,20190915073036,away,47.01,44.22,3.86,1.86,0.38,239.06,288.08,2541966,Jaron Brown,18,2019,37,3,03:04:00,SEA,3,2,PIT,13,14,2560835,SHOTGUN,"6 OL, 1 RB, 1 TE, 2 WR",7,"3 DL, 4 LB, 4 DB",left,2019-09-15T19:14:41.000Z,2019-09-15T19:14:39.000Z,6-3,205,01/08/1990,Clemson,WR,PIT,SEA,2,Heinz Field,Pittsburgh,Outdoors,Grass,Sunny,81.0,51,3,From S
23478,2019091507,20190915073036,away,47.27,26.06,1.65,1.32,0.16,258.63,167.51,2550135,Justin Britt,68,2019,37,3,03:04:00,SEA,3,2,PIT,13,14,2560835,SHOTGUN,"6 OL, 1 RB, 1 TE, 2 WR",7,"3 DL, 4 LB, 4 DB",left,2019-09-15T19:14:41.000Z,2019-09-15T19:14:39.000Z,6-6,315,05/29/1991,Missouri,C,PIT,SEA,2,Heinz Field,Pittsburgh,Outdoors,Grass,Sunny,81.0,51,3,From S
23479,2019091507,20190915073036,away,47.54,28.45,2.33,0.34,0.25,230.22,194.13,2555395,Germain Ifedi,65,2019,37,3,03:04:00,SEA,3,2,PIT,13,14,2560835,SHOTGUN,"6 OL, 1 RB, 1 TE, 2 WR",7,"3 DL, 4 LB, 4 DB",left,2019-09-15T19:14:41.000Z,2019-09-15T19:14:39.000Z,6-5,325,06/02/1994,Texas A&M,G,PIT,SEA,2,Heinz Field,Pittsburgh,Outdoors,Grass,Sunny,81.0,51,3,From S
23480,2019091507,20190915073036,away,46.68,28.85,4.01,1.4,0.41,191.07,214.24,2556524,George Fant,74,2019,37,3,03:04:00,SEA,3,2,PIT,13,14,2560835,SHOTGUN,"6 OL, 1 RB, 1 TE, 2 WR",7,"3 DL, 4 LB, 4 DB",left,2019-09-15T19:14:41.000Z,2019-09-15T19:14:39.000Z,6-5,322,07/19/1992,Western Kentucky,OT,PIT,SEA,2,Heinz Field,Pittsburgh,Outdoors,Grass,Sunny,81.0,51,3,From S
23481,2019091507,20190915073036,away,47.27,26.77,2.15,1.38,0.22,258.09,188.78,2557891,Ethan Pocic,77,2019,37,3,03:04:00,SEA,3,2,PIT,13,14,2560835,SHOTGUN,"6 OL, 1 RB, 1 TE, 2 WR",7,"3 DL, 4 LB, 4 DB",left,2019-09-15T19:14:41.000Z,2019-09-15T19:14:39.000Z,6-6,320,08/05/1995,Louisiana State,C,PIT,SEA,2,Heinz Field,Pittsburgh,Outdoors,Grass,Sunny,81.0,51,3,From S
23482,2019091507,20190915073036,away,50.92,28.42,3.57,2.27,0.35,211.64,229.09,2560835,Rashaad Penny,20,2019,37,3,03:04:00,SEA,3,2,PIT,13,14,2560835,SHOTGUN,"6 OL, 1 RB, 1 TE, 2 WR",7,"3 DL, 4 LB, 4 DB",left,2019-09-15T19:14:41.000Z,2019-09-15T19:14:39.000Z,5-11,220,02/02/1996,San Diego State,RB,PIT,SEA,2,Heinz Field,Pittsburgh,Outdoors,Grass,Sunny,81.0,51,3,From S
23483,2019091507,20190915073036,away,46.43,17.04,4.13,2.01,0.4,269.01,267.6,2561046,Will Dissly,88,2019,37,3,03:04:00,SEA,3,2,PIT,13,14,2560835,SHOTGUN,"6 OL, 1 RB, 1 TE, 2 WR",7,"3 DL, 4 LB, 4 DB",left,2019-09-15T19:14:41.000Z,2019-09-15T19:14:39.000Z,6-4,267,07/08/1996,Washington,TE,PIT,SEA,2,Heinz Field,Pittsburgh,Outdoors,Grass,Sunny,81.0,51,3,From S
23484,2019091507,20190915073036,away,45.73,9.36,4.04,1.64,0.4,262.84,267.0,2562685,D.K. Metcalf,14,2019,37,3,03:04:00,SEA,3,2,PIT,13,14,2560835,SHOTGUN,"6 OL, 1 RB, 1 TE, 2 WR",7,"3 DL, 4 LB, 4 DB",left,2019-09-15T19:14:41.000Z,2019-09-15T19:14:39.000Z,6-4,230,12/14/1997,Mississippi,WR,PIT,SEA,2,Heinz Field,Pittsburgh,Outdoors,Grass,Sunny,81.0,51,3,From S
23485,2019091507,20190915073036,home,43.98,43.87,2.8,1.78,0.27,169.63,285.2,496733,Joe Haden,23,2019,37,3,03:04:00,SEA,3,2,PIT,13,14,2560835,SHOTGUN,"6 OL, 1 RB, 1 TE, 2 WR",7,"3 DL, 4 LB, 4 DB",left,2019-09-15T19:14:41.000Z,2019-09-15T19:14:39.000Z,5-11,195,04/14/1989,Florida,CB,PIT,SEA,2,Heinz Field,Pittsburgh,Outdoors,Grass,Sunny,81.0,51,3,From S
23486,2019091507,20190915073036,home,46.99,23.69,1.09,0.96,0.12,49.76,174.87,496760,Tyson Alualu,94,2019,37,3,03:04:00,SEA,3,2,PIT,13,14,2560835,SHOTGUN,"6 OL, 1 RB, 1 TE, 2 WR",7,"3 DL, 4 LB, 4 DB",left,2019-09-15T19:14:41.000Z,2019-09-15T19:14:39.000Z,6-3,304,05/12/1987,California,DE,PIT,SEA,2,Heinz Field,Pittsburgh,Outdoors,Grass,Sunny,81.0,51,3,From S
23487,2019091507,20190915073036,home,45.86,25.57,3.98,0.69,0.37,83.46,114.28,2532789,Mark Barron,26,2019,37,3,03:04:00,SEA,3,2,PIT,13,14,2560835,SHOTGUN,"6 OL, 1 RB, 1 TE, 2 WR",7,"3 DL, 4 LB, 4 DB",left,2019-09-15T19:14:41.000Z,2019-09-15T19:14:39.000Z,6-2,230,10/27/1989,Alabama,ILB,PIT,SEA,2,Heinz Field,Pittsburgh,Outdoors,Grass,Sunny,81.0,51,3,From S
23488,2019091507,20190915073036,home,46.64,26.56,1.3,0.06,0.14,145.07,178.45,2550154,Dan McCullers,93,2019,37,3,03:04:00,SEA,3,2,PIT,13,14,2560835,SHOTGUN,"6 OL, 1 RB, 1 TE, 2 WR",7,"3 DL, 4 LB, 4 DB",left,2019-09-15T19:14:41.000Z,2019-09-15T19:14:39.000Z,6-7,352,08/11/1992,Tennessee,DT,PIT,SEA,2,Heinz Field,Pittsburgh,Outdoors,Grass,Sunny,81.0,51,3,From S
23489,2019091507,20190915073036,home,43.56,9.09,3.49,1.67,0.34,353.44,257.85,2552265,Steven Nelson,22,2019,37,3,03:04:00,SEA,3,2,PIT,13,14,2560835,SHOTGUN,"6 OL, 1 RB, 1 TE, 2 WR",7,"3 DL, 4 LB, 4 DB",left,2019-09-15T19:14:41.000Z,2019-09-15T19:14:39.000Z,5-11,194,01/22/1993,Oregon State,CB,PIT,SEA,2,Heinz Field,Pittsburgh,Outdoors,Grass,Sunny,81.0,51,3,From S
23490,2019091507,20190915073036,home,47.24,31.31,3.02,1.68,0.3,139.45,173.48,2552266,Anthony Chickillo,56,2019,37,3,03:04:00,SEA,3,2,PIT,13,14,2560835,SHOTGUN,"6 OL, 1 RB, 1 TE, 2 WR",7,"3 DL, 4 LB, 4 DB",left,2019-09-15T19:14:41.000Z,2019-09-15T19:14:39.000Z,6-3,255,12/10/1992,Miami,OLB,PIT,SEA,2,Heinz Field,Pittsburgh,Outdoors,Grass,Sunny,81.0,51,3,From S
23491,2019091507,20190915073036,home,46.68,27.88,3.07,1.5,0.3,62.52,182.0,2555239,Javon Hargrave,79,2019,37,3,03:04:00,SEA,3,2,PIT,13,14,2560835,SHOTGUN,"6 OL, 1 RB, 1 TE, 2 WR",7,"3 DL, 4 LB, 4 DB",left,2019-09-15T19:14:41.000Z,2019-09-15T19:14:39.000Z,6-2,305,02/07/1993,South Carolina State,NT,PIT,SEA,2,Heinz Field,Pittsburgh,Outdoors,Grass,Sunny,81.0,51,3,From S
23492,2019091507,20190915073036,home,32.61,26.92,1.68,4.36,0.15,105.06,99.37,2555386,Sean Davis,21,2019,37,3,03:04:00,SEA,3,2,PIT,13,14,2560835,SHOTGUN,"6 OL, 1 RB, 1 TE, 2 WR",7,"3 DL, 4 LB, 4 DB",left,2019-09-15T19:14:41.000Z,2019-09-15T19:14:39.000Z,6-1,202,10/23/1993,Maryland,SS,PIT,SEA,2,Heinz Field,Pittsburgh,Outdoors,Grass,Sunny,81.0,51,3,From S
23493,2019091507,20190915073036,home,43.12,17.26,0.89,1.75,0.08,91.49,269.75,2560712,Terrell Edmunds,34,2019,37,3,03:04:00,SEA,3,2,PIT,13,14,2560835,SHOTGUN,"6 OL, 1 RB, 1 TE, 2 WR",7,"3 DL, 4 LB, 4 DB",left,2019-09-15T19:14:41.000Z,2019-09-15T19:14:39.000Z,6-1,217,01/20/1997,Virginia Tech,S,PIT,SEA,2,Heinz Field,Pittsburgh,Outdoors,Grass,Sunny,81.0,51,3,From S
23494,2019091507,20190915073036,home,48.51,21.65,1.52,2.55,0.15,53.09,113.58,2560950,Ola Adeniyi,92,2019,37,3,03:04:00,SEA,3,2,PIT,13,14,2560835,SHOTGUN,"6 OL, 1 RB, 1 TE, 2 WR",7,"3 DL, 4 LB, 4 DB",left,2019-09-15T19:14:41.000Z,2019-09-15T19:14:39.000Z,6-1,248,09/12/1997,Toledo,OLB,PIT,SEA,2,Heinz Field,Pittsburgh,Outdoors,Grass,Sunny,81.0,51,3,From S
23495,2019091507,20190915073036,home,45.08,27.96,3.6,1.17,0.36,117.56,153.96,2562243,Devin Bush,55,2019,37,3,03:04:00,SEA,3,2,PIT,13,14,2560835,SHOTGUN,"6 OL, 1 RB, 1 TE, 2 WR",7,"3 DL, 4 LB, 4 DB",left,2019-09-15T19:14:41.000Z,2019-09-15T19:14:39.000Z,5-11,233,07/18/1998,Michigan,LB,PIT,SEA,2,Heinz Field,Pittsburgh,Outdoors,Grass,Sunny,81.0,51,3,From S
