,GameId,PlayId,Team,X,Y,S,A,Dis,Orientation,Dir,NflId,DisplayName,JerseyNumber,Season,YardLine,Quarter,GameClock,PossessionTeam,Down,Distance,FieldPosition,HomeScoreBeforePlay,VisitorScoreBeforePlay,NflIdRusher,OffenseFormation,OffensePersonnel,DefendersInTheBox,DefensePersonnel,PlayDirection,TimeHandoff,TimeSnap,PlayerHeight,PlayerWeight,PlayerBirthDate,PlayerCollegeName,Position,HomeTeamAbbr,VisitorTeamAbbr,Week,Stadium,Location,StadiumType,Turf,GameWeather,Temperature,Humidity,WindSpeed,WindDirection
39644,2019092208,20190922080051,away,86.08,32.68,2.27,1.19,0.23,246.01,180.3,2495700,Greg Olsen,88,2019,25,1,15:00:00,CAR,1,10,CAR,0,0,2557997,SHOTGUN,"1 RB, 1 TE, 3 WR",7,"3 DL, 3 LB, 5 DB",left,2019-09-22T20:06:03.000Z,2019-09-22T20:06:02.000Z,6-5,255,03/11/1985,Miami,TE,ARI,CAR,3,State Farm Stadium,"Glendale, AZ",Dome,Grass,,,0,,
39645,2019092208,20190922080051,away,88.04,17.7,3.13,2.19,0.3,291.74,151.56,2532978,Jarius Wright,13,2019,25,1,15:00:00,CAR,1,10,CAR,0,0,2557997,SHOTGUN,"1 RB, 1 TE, 3 WR",7,"3 DL, 3 LB, 5 DB",left,2019-09-22T20:06:03.000Z,2019-09-22T20:06:02.000Z,5-10,191,11/25/1989,Arkansas,WR,ARI,CAR,3,State Farm Stadium,"Glendale, AZ",Dome,Grass,,,0,,
39646,2019092208,20190922080051,away,85.64,27.59,1.88,0.94,0.2,251.68,208.47,2538145,Greg Van Roten,73,2019,25,1,15:00:00,CAR,1,10,CAR,0,0,2557997,SHOTGUN,"1 RB, 1 TE, 3 WR",7,"3 DL, 3 LB, 5 DB",left,2019-09-22T20:06:03.000Z,2019-09-22T20:06:02.000Z,6-3,305,02/26/1990,Pennsylvania,G,ARI,CAR,3,State Farm Stadium,"Glendale, AZ",Dome,Grass,,,0,,
39647,2019092208,20190922080051,away,86.09,30.52,1.3,1.23,0.13,267.19,183.63,2543606,Trai Turner,70,2019,25,1,15:00:00,CAR,1,10,CAR,0,0,2557997,SHOTGUN,"1 RB, 1 TE, 3 WR",7,"3 DL, 3 LB, 5 DB",left,2019-09-22T20:06:03.000Z,2019-09-22T20:06:02.000Z,6-3,315,06/14/1993,Louisiana State,G,ARI,CAR,3,State Farm Stadium,"Glendale, AZ",Dome,Grass,,,0,,
39648,2019092208,20190922080051,away,85.29,28.17,2.03,0.38,0.2,208.54,197.2,2550155,Matt Paradis,61,2019,25,1,15:00:00,CAR,1,10,CAR,0,0,2557997,SHOTGUN,"1 RB, 1 TE, 3 WR",7,"3 DL, 3 LB, 5 DB",left,2019-09-22T20:06:03.000Z,2019-09-22T20:06:02.000Z,6-3,300,10/12/1989,Boise State,C,ARI,CAR,3,State Farm Stadium,"Glendale, AZ",Dome,Grass,,,0,,
39649,2019092208,20190922080051,away,86.66,26.28,0.59,0.34,0.06,153.84,202.38,2552357,Daryl Williams,60,2019,25,1,15:00:00,CAR,1,10,CAR,0,0,2557997,SHOTGUN,"1 RB, 1 TE, 3 WR",7,"3 DL, 3 LB, 5 DB",left,2019-09-22T20:06:03.000Z,2019-09-22T20:06:02.000Z,6-6,330,08/31/1992,Oklahoma,T,ARI,CAR,3,State Farm Stadium,"Glendale, AZ",Dome,Grass,,,0,,
39650,2019092208,20190922080051,away,86.1,31.31,1.91,0.44,0.2,255.84,197.2,2557871,Taylor Moton,72,2019,25,1,15:00:00,CAR,1,10,CAR,0,0,2557997,SHOTGUN,"1 RB, 1 TE, 3 WR",7,"3 DL, 3 LB, 5 DB",left,2019-09-22T20:06:03.000Z,2019-09-22T20:06:02.000Z,6-5,325,03/18/1994,Western Michigan,T,ARI,CAR,3,State Farm Stadium,"Glendale, AZ",Dome,Grass,,,0,,
39651,2019092208,20190922080051,away,89.65,30.49,3.77,2.64,0.36,243.96,225.51,2557997,Christian McCaffrey,22,2019,25,1,15:00:00,CAR,1,10,CAR,0,0,2557997,SHOTGUN,"1 RB, 1 TE, 3 WR",7,"3 DL, 3 LB, 5 DB",left,2019-09-22T20:06:03.000Z,2019-09-22T20:06:02.000Z,5-11,205,06/07/1996,Stanford,RB,ARI,CAR,3,State Farm Stadium,"Glendale, AZ",Dome,Grass,,,0,,
39652,2019092208,20190922080051,away,85.21,39.92,3.77,2.72,0.36,317.5,290.5,2558066,Curtis Samuel,10,2019,25,1,15:00:00,CAR,1,10,CAR,0,0,2557997,SHOTGUN,"1 RB, 1 TE, 3 WR",7,"3 DL, 3 LB, 5 DB",left,2019-09-22T20:06:03.000Z,2019-09-22T20:06:02.000Z,5-11,195,08/11/1996,Ohio State,WR,ARI,CAR,3,State Farm Stadium,"Glendale, AZ",Dome,Grass,,,0,,
39653,2019092208,20190922080051,away,85.2,8.62,2.34,1.36,0.22,259.69,235.5,2560813,D.J. Moore,12,2019,25,1,15:00:00,CAR,1,10,CAR,0,0,2557997,SHOTGUN,"1 RB, 1 TE, 3 WR",7,"3 DL, 3 LB, 5 DB",left,2019-09-22T20:06:03.000Z,2019-09-22T20:06:02.000Z,6-0,215,04/14/1997,Maryland,WR,ARI,CAR,3,State Farm Stadium,"Glendale, AZ",Dome,Grass,,,0,,
39654,2019092208,20190922080051,away,89.73,29.77,1.03,1.72,0.1,292.49,297.55,2561177,Kyle Allen,7,2019,25,1,15:00:00,CAR,1,10,CAR,0,0,2557997,SHOTGUN,"1 RB, 1 TE, 3 WR",7,"3 DL, 3 LB, 5 DB",left,2019-09-22T20:06:03.000Z,2019-09-22T20:06:02.000Z,6-3,211,03/08/1996,Houston,QB,ARI,CAR,3,State Farm Stadium,"Glendale, AZ",Dome,Grass,,,0,,
39655,2019092208,20190922080051,home,84.95,27.61,1.72,1.27,0.18,97.11,185.99,496841,Corey Peters,98,2019,25,1,15:00:00,CAR,1,10,CAR,0,0,2557997,SHOTGUN,"1 RB, 1 TE, 3 WR",7,"3 DL, 3 LB, 5 DB",left,2019-09-22T20:06:03.000Z,2019-09-22T20:06:02.000Z,6-3,335,06/08/1988,Kentucky,DT,ARI,CAR,3,State Farm Stadium,"Glendale, AZ",Dome,Grass,,,0,,
39656,2019092208,20190922080051,home,86.0,24.93,1.69,1.96,0.18,35.3,58.3,2505660,Terrell Suggs,56,2019,25,1,15:00:00,CAR,1,10,CAR,0,0,2557997,SHOTGUN,"1 RB, 1 TE, 3 WR",7,"3 DL, 3 LB, 5 DB",left,2019-09-22T20:06:03.000Z,2019-09-22T20:06:02.000Z,6-3,265,10/11/1982,Arizona State,OLB,ARI,CAR,3,State Farm Stadium,"Glendale, AZ",Dome,Grass,,,0,,
39657,2019092208,20190922080051,home,84.14,18.21,1.97,2.4,0.19,85.57,196.14,2507917,Tramaine Brock,20,2019,25,1,15:00:00,CAR,1,10,CAR,0,0,2557997,SHOTGUN,"1 RB, 1 TE, 3 WR",7,"3 DL, 3 LB, 5 DB",left,2019-09-22T20:06:03.000Z,2019-09-22T20:06:02.000Z,6-0,188,08/20/1988,Belhaven,CB,ARI,CAR,3,State Farm Stadium,"Glendale, AZ",Dome,Grass,,,0,,
39658,2019092208,20190922080051,home,85.41,32.43,2.09,0.43,0.21,91.1,160.35,2533538,Chandler Jones,55,2019,25,1,15:00:00,CAR,1,10,CAR,0,0,2557997,SHOTGUN,"1 RB, 1 TE, 3 WR",7,"3 DL, 3 LB, 5 DB",left,2019-09-22T20:06:03.000Z,2019-09-22T20:06:02.000Z,6-5,265,02/27/1990,Syracuse,OLB,ARI,CAR,3,State Farm Stadium,"Glendale, AZ",Dome,Grass,,,0,,
39659,2019092208,20190922080051,home,84.74,33.93,2.78,2.18,0.27,112.13,135.89,2539943,D.J. Swearinger,36,2019,25,1,15:00:00,CAR,1,10,CAR,0,0,2557997,SHOTGUN,"1 RB, 1 TE, 3 WR",7,"3 DL, 3 LB, 5 DB",left,2019-09-22T20:06:03.000Z,2019-09-22T20:06:02.000Z,5-10,205,09/01/1991,South Carolina,FS,ARI,CAR,3,State Farm Stadium,"Glendale, AZ",Dome,Grass,,,0,,
39660,2019092208,20190922080051,home,82.65,26.67,2.82,1.7,0.27,73.87,120.69,2552315,Jordan Hicks,58,2019,25,1,15:00:00,CAR,1,10,CAR,0,0,2557997,SHOTGUN,"1 RB, 1 TE, 3 WR",7,"3 DL, 3 LB, 5 DB",left,2019-09-22T20:06:03.000Z,2019-09-22T20:06:02.000Z,6-1,236,06/27/1992,Texas,MLB,ARI,CAR,3,State Farm Stadium,"Glendale, AZ",Dome,Grass,,,0,,
39661,2019092208,20190922080051,home,85.24,30.93,2.01,1.55,0.2,90.0,166.48,2553437,Rodney Gunter,95,2019,25,1,15:00:00,CAR,1,10,CAR,0,0,2557997,SHOTGUN,"1 RB, 1 TE, 3 WR",7,"3 DL, 3 LB, 5 DB",left,2019-09-22T20:06:03.000Z,2019-09-22T20:06:02.000Z,6-5,305,01/19/1992,Delaware State,DT,ARI,CAR,3,State Farm Stadium,"Glendale, AZ",Dome,Grass,,,0,,
39662,2019092208,20190922080051,home,82.03,30.25,2.21,1.33,0.21,88.32,137.94,2557887,Haason Reddick,43,2019,25,1,15:00:00,CAR,1,10,CAR,0,0,2557997,SHOTGUN,"1 RB, 1 TE, 3 WR",7,"3 DL, 3 LB, 5 DB",left,2019-09-22T20:06:03.000Z,2019-09-22T20:06:02.000Z,6-1,235,09/22/1994,Temple,ILB,ARI,CAR,3,State Farm Stadium,"Glendale, AZ",Dome,Grass,,,0,,
39663,2019092208,20190922080051,home,69.04,24.6,0.84,1.23,0.09,48.25,316.92,2558009,Budda Baker,32,2019,25,1,15:00:00,CAR,1,10,CAR,0,0,2557997,SHOTGUN,"1 RB, 1 TE, 3 WR",7,"3 DL, 3 LB, 5 DB",left,2019-09-22T20:06:03.000Z,2019-09-22T20:06:02.000Z,5-10,195,01/10/1996,Washington,FS,ARI,CAR,3,State Farm Stadium,"Glendale, AZ",Dome,Grass,,,0,,
39664,2019092208,20190922080051,home,83.17,9.46,1.79,4.26,0.16,119.88,242.57,2560767,Chris Jones,25,2019,25,1,15:00:00,CAR,1,10,CAR,0,0,2557997,SHOTGUN,"1 RB, 1 TE, 3 WR",7,"3 DL, 3 LB, 5 DB",left,2019-09-22T20:06:03.000Z,2019-09-22T20:06:02.000Z,6-0,200,08/13/1995,Nebraska,CB,ARI,CAR,3,State Farm Stadium,"Glendale, AZ",Dome,Grass,,,0,,
39665,2019092208,20190922080051,home,83.4,40.5,2.58,2.14,0.25,114.57,303.03,2562318,Byron Murphy,33,2019,25,1,15:00:00,CAR,1,10,CAR,0,0,2557997,SHOTGUN,"1 RB, 1 TE, 3 WR",7,"3 DL, 3 LB, 5 DB",left,2019-09-22T20:06:03.000Z,2019-09-22T20:06:02.000Z,5-11,190,01/18/1998,Washington,DB,ARI,CAR,3,State Farm Stadium,"Glendale, AZ",Dome,Grass,,,0,,
