,GameId,PlayId,Team,X,Y,S,A,Dis,Orientation,Dir,NflId,DisplayName,JerseyNumber,Season,YardLine,Quarter,GameClock,PossessionTeam,Down,Distance,FieldPosition,HomeScoreBeforePlay,VisitorScoreBeforePlay,NflIdRusher,OffenseFormation,OffensePersonnel,DefendersInTheBox,DefensePersonnel,PlayDirection,TimeHandoff,TimeSnap,PlayerHeight,PlayerWeight,PlayerBirthDate,PlayerCollegeName,Position,HomeTeamAbbr,VisitorTeamAbbr,Week,Stadium,Location,StadiumType,Turf,GameWeather,Temperature,Humidity,WindSpeed,WindDirection
34364,2019092202,20190922023035,away,90.13,22.85,4.14,1.23,0.41,116.57,114.58,382,Joe Flacco,5,2019,25,3,00:08:00,DEN,1,10,DEN,24,16,2559947,SINGLEBACK,"1 RB, 1 TE, 3 WR",6,"2 DL, 3 LB, 6 DB",left,2019-09-22T19:23:30.000Z,2019-09-22T19:23:28.000Z,6-6,245,01/16/1985,Delaware,QB,GB,DEN,3,Lambeau Field,"Green Bay, WI",Outdoor,SISGrass,Rain,69.0,93,7,S-SW
34365,2019092202,20190922023035,away,83.32,16.54,5.35,3.02,0.53,274.27,282.71,497322,Emmanuel Sanders,10,2019,25,3,00:08:00,DEN,1,10,DEN,24,16,2559947,SINGLEBACK,"1 RB, 1 TE, 3 WR",6,"2 DL, 3 LB, 6 DB",left,2019-09-22T19:23:30.000Z,2019-09-22T19:23:28.000Z,5-11,180,03/17/1987,Southern Methodist,WR,GB,DEN,3,Lambeau Field,"Green Bay, WI",Outdoor,SISGrass,Rain,69.0,93,7,S-SW
34366,2019092202,20190922023035,away,85.15,26.44,1.42,0.61,0.15,274.21,339.59,2533454,Ronald Leary,65,2019,25,3,00:08:00,DEN,1,10,DEN,24,16,2559947,SINGLEBACK,"1 RB, 1 TE, 3 WR",6,"2 DL, 3 LB, 6 DB",left,2019-09-22T19:23:30.000Z,2019-09-22T19:23:28.000Z,6-3,320,04/29/1989,Memphis,G,GB,DEN,3,Lambeau Field,"Green Bay, WI",Outdoor,SISGrass,Rain,69.0,93,7,S-SW
34367,2019092202,20190922023035,away,85.5,29.27,0.22,0.78,0.02,359.88,327.77,2552399,Jeff Heuerman,82,2019,25,3,00:08:00,DEN,1,10,DEN,24,16,2559947,SINGLEBACK,"1 RB, 1 TE, 3 WR",6,"2 DL, 3 LB, 6 DB",left,2019-09-22T19:23:30.000Z,2019-09-22T19:23:28.000Z,6-5,255,11/24/1992,Ohio State,TE,GB,DEN,3,Lambeau Field,"Green Bay, WI",Outdoor,SISGrass,Rain,69.0,93,7,S-SW
34368,2019092202,20190922023035,away,82.56,22.13,3.3,2.19,0.33,248.45,273.52,2555133,Connor McGovern,60,2019,25,3,00:08:00,DEN,1,10,DEN,24,16,2559947,SINGLEBACK,"1 RB, 1 TE, 3 WR",6,"2 DL, 3 LB, 6 DB",left,2019-09-22T19:23:30.000Z,2019-09-22T19:23:28.000Z,6-4,306,04/27/1993,Missouri,G,GB,DEN,3,Lambeau Field,"Green Bay, WI",Outdoor,SISGrass,Rain,69.0,93,7,S-SW
34369,2019092202,20190922023035,away,85.75,19.91,0.26,0.53,0.03,184.59,194.35,2558014,Garett Bolles,72,2019,25,3,00:08:00,DEN,1,10,DEN,24,16,2559947,SINGLEBACK,"1 RB, 1 TE, 3 WR",6,"2 DL, 3 LB, 6 DB",left,2019-09-22T19:23:30.000Z,2019-09-22T19:23:28.000Z,6-5,300,05/27/1992,Utah,T,GB,DEN,3,Lambeau Field,"Green Bay, WI",Outdoor,SISGrass,Rain,69.0,93,7,S-SW
34370,2019092202,20190922023035,away,85.23,27.11,1.8,1.36,0.19,234.78,326.9,2559295,Elijah Wilkinson,68,2019,25,3,00:08:00,DEN,1,10,DEN,24,16,2559947,SINGLEBACK,"1 RB, 1 TE, 3 WR",6,"2 DL, 3 LB, 6 DB",left,2019-09-22T19:23:30.000Z,2019-09-22T19:23:28.000Z,6-6,329,02/10/1995,Massachusetts,T,GB,DEN,3,Lambeau Field,"Green Bay, WI",Outdoor,SISGrass,Rain,69.0,93,7,S-SW
34371,2019092202,20190922023035,away,91.3,23.61,3.73,5.55,0.35,304.55,308.01,2559947,Phillip Lindsay,30,2019,25,3,00:08:00,DEN,1,10,DEN,24,16,2559947,SINGLEBACK,"1 RB, 1 TE, 3 WR",6,"2 DL, 3 LB, 6 DB",left,2019-09-22T19:23:30.000Z,2019-09-22T19:23:28.000Z,5-8,190,07/24/1994,Colorado,RB,GB,DEN,3,Lambeau Field,"Green Bay, WI",Outdoor,SISGrass,Rain,69.0,93,7,S-SW
34372,2019092202,20190922023035,away,83.99,19.31,3.64,1.59,0.36,275.17,309.53,2560888,Courtland Sutton,14,2019,25,3,00:08:00,DEN,1,10,DEN,24,16,2559947,SINGLEBACK,"1 RB, 1 TE, 3 WR",6,"2 DL, 3 LB, 6 DB",left,2019-09-22T19:23:30.000Z,2019-09-22T19:23:28.000Z,6-4,216,10/10/1995,Southern Methodist,WR,GB,DEN,3,Lambeau Field,"Green Bay, WI",Outdoor,SISGrass,Rain,69.0,93,7,S-SW
34373,2019092202,20190922023035,away,87.77,24.22,6.38,1.73,0.63,325.76,4.03,2561002,DaeSean Hamilton,17,2019,25,3,00:08:00,DEN,1,10,DEN,24,16,2559947,SINGLEBACK,"1 RB, 1 TE, 3 WR",6,"2 DL, 3 LB, 6 DB",left,2019-09-22T19:23:30.000Z,2019-09-22T19:23:28.000Z,6-1,206,03/10/1995,Penn State,WR,GB,DEN,3,Lambeau Field,"Green Bay, WI",Outdoor,SISGrass,Rain,69.0,93,7,S-SW
34374,2019092202,20190922023035,away,84.93,22.57,1.47,0.88,0.15,202.83,330.53,2562714,Dalton Risner,66,2019,25,3,00:08:00,DEN,1,10,DEN,24,16,2559947,SINGLEBACK,"1 RB, 1 TE, 3 WR",6,"2 DL, 3 LB, 6 DB",left,2019-09-22T19:23:30.000Z,2019-09-22T19:23:28.000Z,6-5,312,07/13/1995,Kansas State,G,GB,DEN,3,Lambeau Field,"Green Bay, WI",Outdoor,SISGrass,Rain,69.0,93,7,S-SW
34375,2019092202,20190922023035,home,79.7,20.2,4.68,3.17,0.45,4.52,333.07,2506789,Tramon Williams,38,2019,25,3,00:08:00,DEN,1,10,DEN,24,16,2559947,SINGLEBACK,"1 RB, 1 TE, 3 WR",6,"2 DL, 3 LB, 6 DB",left,2019-09-22T19:23:30.000Z,2019-09-22T19:23:28.000Z,5-11,192,03/16/1983,Louisiana Tech,CB,GB,DEN,3,Lambeau Field,"Green Bay, WI",Outdoor,SISGrass,Rain,69.0,93,7,S-SW
34376,2019092202,20190922023035,home,85.77,30.17,0.99,1.12,0.1,145.18,83.21,2552276,Preston Smith,91,2019,25,3,00:08:00,DEN,1,10,DEN,24,16,2559947,SINGLEBACK,"1 RB, 1 TE, 3 WR",6,"2 DL, 3 LB, 6 DB",left,2019-09-22T19:23:30.000Z,2019-09-22T19:23:28.000Z,6-5,265,11/17/1992,Mississippi State,OLB,GB,DEN,3,Lambeau Field,"Green Bay, WI",Outdoor,SISGrass,Rain,69.0,93,7,S-SW
34377,2019092202,20190922023035,home,85.87,18.95,0.71,2.6,0.09,29.4,123.74,2552279,Za'Darius Smith,55,2019,25,3,00:08:00,DEN,1,10,DEN,24,16,2559947,SINGLEBACK,"1 RB, 1 TE, 3 WR",6,"2 DL, 3 LB, 6 DB",left,2019-09-22T19:23:30.000Z,2019-09-22T19:23:28.000Z,6-4,272,09/08/1992,Kentucky,OLB,GB,DEN,3,Lambeau Field,"Green Bay, WI",Outdoor,SISGrass,Rain,69.0,93,7,S-SW
34378,2019092202,20190922023035,home,80.57,21.16,2.12,2.44,0.2,59.58,59.8,2552385,Adrian Amos,31,2019,25,3,00:08:00,DEN,1,10,DEN,24,16,2559947,SINGLEBACK,"1 RB, 1 TE, 3 WR",6,"2 DL, 3 LB, 6 DB",left,2019-09-22T19:23:30.000Z,2019-09-22T19:23:28.000Z,6-0,214,04/29/1993,Penn State,FS,GB,DEN,3,Lambeau Field,"Green Bay, WI",Outdoor,SISGrass,Rain,69.0,93,7,S-SW
34379,2019092202,20190922023035,home,82.1,25.96,2.73,2.24,0.27,65.11,28.64,2555161,Blake Martinez,50,2019,25,3,00:08:00,DEN,1,10,DEN,24,16,2559947,SINGLEBACK,"1 RB, 1 TE, 3 WR",6,"2 DL, 3 LB, 6 DB",left,2019-09-22T19:23:30.000Z,2019-09-22T19:23:28.000Z,6-2,237,01/09/1994,Stanford,ILB,GB,DEN,3,Lambeau Field,"Green Bay, WI",Outdoor,SISGrass,Rain,69.0,93,7,S-SW
34380,2019092202,20190922023035,home,84.47,26.68,0.89,1.36,0.1,86.31,314.21,2555274,Dean Lowry,94,2019,25,3,00:08:00,DEN,1,10,DEN,24,16,2559947,SINGLEBACK,"1 RB, 1 TE, 3 WR",6,"2 DL, 3 LB, 6 DB",left,2019-09-22T19:23:30.000Z,2019-09-22T19:23:28.000Z,6-6,296,06/09/1994,Northwestern,DE,GB,DEN,3,Lambeau Field,"Green Bay, WI",Outdoor,SISGrass,Rain,69.0,93,7,S-SW
34381,2019092202,20190922023035,home,84.52,21.84,1.15,3.55,0.09,24.13,327.56,2555282,Kenny Clark,97,2019,25,3,00:08:00,DEN,1,10,DEN,24,16,2559947,SINGLEBACK,"1 RB, 1 TE, 3 WR",6,"2 DL, 3 LB, 6 DB",left,2019-09-22T19:23:30.000Z,2019-09-22T19:23:28.000Z,6-3,314,10/04/1995,UCLA,NT,GB,DEN,3,Lambeau Field,"Green Bay, WI",Outdoor,SISGrass,Rain,69.0,93,7,S-SW
34382,2019092202,20190922023035,home,68.69,23.9,1.93,3.62,0.18,94.28,33.07,2555545,Will Redmond,25,2019,25,3,00:08:00,DEN,1,10,DEN,24,16,2559947,SINGLEBACK,"1 RB, 1 TE, 3 WR",6,"2 DL, 3 LB, 6 DB",left,2019-09-22T19:23:30.000Z,2019-09-22T19:23:28.000Z,5-11,186,12/28/1993,Mississippi State,CB,GB,DEN,3,Lambeau Field,"Green Bay, WI",Outdoor,SISGrass,Rain,69.0,93,7,S-SW
34383,2019092202,20190922023035,home,83.19,18.76,3.17,2.12,0.3,33.14,317.96,2557996,Kevin King,20,2019,25,3,00:08:00,DEN,1,10,DEN,24,16,2559947,SINGLEBACK,"1 RB, 1 TE, 3 WR",6,"2 DL, 3 LB, 6 DB",left,2019-09-22T19:23:30.000Z,2019-09-22T19:23:28.000Z,6-3,200,05/05/1995,Washington,CB,GB,DEN,3,Lambeau Field,"Green Bay, WI",Outdoor,SISGrass,Rain,69.0,93,7,S-SW
34384,2019092202,20190922023035,home,74.46,15.18,2.65,1.25,0.27,29.16,274.37,2560952,Jaire Alexander,23,2019,25,3,00:08:00,DEN,1,10,DEN,24,16,2559947,SINGLEBACK,"1 RB, 1 TE, 3 WR",6,"2 DL, 3 LB, 6 DB",left,2019-09-22T19:23:30.000Z,2019-09-22T19:23:28.000Z,5-10,196,02/09/1997,Louisville,CB,GB,DEN,3,Lambeau Field,"Green Bay, WI",Outdoor,SISGrass,Rain,69.0,93,7,S-SW
34385,2019092202,20190922023035,home,81.05,30.15,2.36,1.9,0.23,115.57,79.07,2562724,Darnell Savage,26,2019,25,3,00:08:00,DEN,1,10,DEN,24,16,2559947,SINGLEBACK,"1 RB, 1 TE, 3 WR",6,"2 DL, 3 LB, 6 DB",left,2019-09-22T19:23:30.000Z,2019-09-22T19:23:28.000Z,5-11,200,07/30/1997,Maryland,DB,GB,DEN,3,Lambeau Field,"Green Bay, WI",Outdoor,SISGrass,Rain,69.0,93,7,S-SW
