,GameId,PlayId,Team,X,Y,S,A,Dis,Orientation,Dir,NflId,DisplayName,JerseyNumber,Season,YardLine,Quarter,GameClock,PossessionTeam,Down,Distance,FieldPosition,HomeScoreBeforePlay,VisitorScoreBeforePlay,NflIdRusher,OffenseFormation,OffensePersonnel,DefendersInTheBox,DefensePersonnel,PlayDirection,TimeHandoff,TimeSnap,PlayerHeight,PlayerWeight,PlayerBirthDate,PlayerCollegeName,Position,HomeTeamAbbr,VisitorTeamAbbr,Week,Stadium,Location,StadiumType,Turf,GameWeather,Temperature,Humidity,WindSpeed,WindDirection
38654,2019092207,20190922070435,away,45.38,27.33,1.38,1.35,0.13,108.62,16.45,2532826,Mike Daniels,96,2019,35,1,09:39:00,PHI,2,4,DET,3,7,2555418,SHOTGUN,"6 OL, 1 RB, 1 TE, 2 WR",6,"2 DL, 4 LB, 5 DB",left,2019-09-22T17:17:20.000Z,2019-09-22T17:17:19.000Z,6-0,310,05/05/1989,Iowa,DT,PHI,DET,3,Lincoln Financial Field,"Philadelphia, Pa.",Outdoor,Grass,Sunny,84.0,53,7,SSW
38655,2019092207,20190922070435,away,43.01,42.88,1.43,3.23,0.13,91.73,235.79,2540288,Darius Slay,23,2019,35,1,09:39:00,PHI,2,4,DET,3,7,2555418,SHOTGUN,"6 OL, 1 RB, 1 TE, 2 WR",6,"2 DL, 4 LB, 5 DB",left,2019-09-22T17:17:20.000Z,2019-09-22T17:17:19.000Z,6-0,190,01/01/1991,Mississippi State,CB,PHI,DET,3,Lincoln Financial Field,"Philadelphia, Pa.",Outdoor,Grass,Sunny,84.0,53,7,SSW
38656,2019092207,20190922070435,away,38.18,17.65,1.33,2.58,0.11,31.17,355.85,2541200,Rashaan Melvin,29,2019,35,1,09:39:00,PHI,2,4,DET,3,7,2555418,SHOTGUN,"6 OL, 1 RB, 1 TE, 2 WR",6,"2 DL, 4 LB, 5 DB",left,2019-09-22T17:17:20.000Z,2019-09-22T17:17:19.000Z,6-2,196,10/02/1989,Northern Illinois,CB,PHI,DET,3,Lincoln Financial Field,"Philadelphia, Pa.",Outdoor,Grass,Sunny,84.0,53,7,SSW
38657,2019092207,20190922070435,away,46.23,30.05,2.38,3.38,0.24,134.2,38.62,2543869,Devon Kennard,42,2019,35,1,09:39:00,PHI,2,4,DET,3,7,2555418,SHOTGUN,"6 OL, 1 RB, 1 TE, 2 WR",6,"2 DL, 4 LB, 5 DB",left,2019-09-22T17:17:20.000Z,2019-09-22T17:17:19.000Z,6-3,256,06/24/1991,Southern California,OLB,PHI,DET,3,Lincoln Financial Field,"Philadelphia, Pa.",Outdoor,Grass,Sunny,84.0,53,7,SSW
38658,2019092207,20190922070435,away,27.83,23.95,1.1,0.33,0.11,93.18,313.02,2552262,Quandre Diggs,28,2019,35,1,09:39:00,PHI,2,4,DET,3,7,2555418,SHOTGUN,"6 OL, 1 RB, 1 TE, 2 WR",6,"2 DL, 4 LB, 5 DB",left,2019-09-22T17:17:20.000Z,2019-09-22T17:17:19.000Z,5-9,197,01/22/1993,Texas,CB,PHI,DET,3,Lincoln Financial Field,"Philadelphia, Pa.",Outdoor,Grass,Sunny,84.0,53,7,SSW
38659,2019092207,20190922070435,away,43.81,35.72,2.18,1.77,0.21,93.26,8.03,2553637,Justin Coleman,27,2019,35,1,09:39:00,PHI,2,4,DET,3,7,2555418,SHOTGUN,"6 OL, 1 RB, 1 TE, 2 WR",6,"2 DL, 4 LB, 5 DB",left,2019-09-22T17:17:20.000Z,2019-09-22T17:17:19.000Z,5-11,190,03/27/1993,Tennessee,CB,PHI,DET,3,Lincoln Financial Field,"Philadelphia, Pa.",Outdoor,Grass,Sunny,84.0,53,7,SSW
38660,2019092207,20190922070435,away,44.62,19.07,1.67,1.48,0.17,74.96,6.9,2556641,Romeo Okwara,95,2019,35,1,09:39:00,PHI,2,4,DET,3,7,2555418,SHOTGUN,"6 OL, 1 RB, 1 TE, 2 WR",6,"2 DL, 4 LB, 5 DB",left,2019-09-22T17:17:20.000Z,2019-09-22T17:17:19.000Z,6-4,263,06/17/1995,Notre Dame,OLB,PHI,DET,3,Lincoln Financial Field,"Philadelphia, Pa.",Outdoor,Grass,Sunny,84.0,53,7,SSW
38661,2019092207,20190922070435,away,42.01,26.48,3.32,1.74,0.32,88.29,55.84,2557855,Jarrad Davis,40,2019,35,1,09:39:00,PHI,2,4,DET,3,7,2555418,SHOTGUN,"6 OL, 1 RB, 1 TE, 2 WR",6,"2 DL, 4 LB, 5 DB",left,2019-09-22T17:17:20.000Z,2019-09-22T17:17:19.000Z,6-1,245,11/16/1994,Florida,MLB,PHI,DET,3,Lincoln Financial Field,"Philadelphia, Pa.",Outdoor,Grass,Sunny,84.0,53,7,SSW
38662,2019092207,20190922070435,away,43.01,17.6,1.86,0.61,0.18,60.26,41.49,2560913,Tracy Walker,21,2019,35,1,09:39:00,PHI,2,4,DET,3,7,2555418,SHOTGUN,"6 OL, 1 RB, 1 TE, 2 WR",6,"2 DL, 4 LB, 5 DB",left,2019-09-22T17:17:20.000Z,2019-09-22T17:17:19.000Z,6-1,210,02/01/1995,Louisiana-Lafayette,DB,PHI,DET,3,Lincoln Financial Field,"Philadelphia, Pa.",Outdoor,Grass,Sunny,84.0,53,7,SSW
38663,2019092207,20190922070435,away,43.5,22.95,3.23,0.39,0.31,103.25,47.36,2562755,Jahlani Tavai,51,2019,35,1,09:39:00,PHI,2,4,DET,3,7,2555418,SHOTGUN,"6 OL, 1 RB, 1 TE, 2 WR",6,"2 DL, 4 LB, 5 DB",left,2019-09-22T17:17:20.000Z,2019-09-22T17:17:19.000Z,6-2,250,09/28/1996,Hawaii,LB,PHI,DET,3,Lincoln Financial Field,"Philadelphia, Pa.",Outdoor,Grass,Sunny,84.0,53,7,SSW
38664,2019092207,20190922070435,away,44.86,24.53,2.89,1.56,0.3,85.18,11.92,2563197,Kevin Strong,92,2019,35,1,09:39:00,PHI,2,4,DET,3,7,2555418,SHOTGUN,"6 OL, 1 RB, 1 TE, 2 WR",6,"2 DL, 4 LB, 5 DB",left,2019-09-22T17:17:20.000Z,2019-09-22T17:17:19.000Z,6-4,285,08/05/1996,Texas-San Antonio,DT,PHI,DET,3,Lincoln Financial Field,"Philadelphia, Pa.",Outdoor,Grass,Sunny,84.0,53,7,SSW
38665,2019092207,20190922070435,home,44.46,26.05,2.84,0.61,0.29,294.77,329.1,2495298,Jason Kelce,62,2019,35,1,09:39:00,PHI,2,4,DET,3,7,2555418,SHOTGUN,"6 OL, 1 RB, 1 TE, 2 WR",6,"2 DL, 4 LB, 5 DB",left,2019-09-22T17:17:20.000Z,2019-09-22T17:17:19.000Z,6-3,295,11/05/1987,Cincinnati,C,PHI,DET,3,Lincoln Financial Field,"Philadelphia, Pa.",Outdoor,Grass,Sunny,84.0,53,7,SSW
38666,2019092207,20190922070435,home,44.85,23.03,2.56,3.04,0.26,283.78,339.72,2505827,Jason Peters,71,2019,35,1,09:39:00,PHI,2,4,DET,3,7,2555418,SHOTGUN,"6 OL, 1 RB, 1 TE, 2 WR",6,"2 DL, 4 LB, 5 DB",left,2019-09-22T17:17:20.000Z,2019-09-22T17:17:19.000Z,6-4,328,01/22/1982,Arkansas,OT,PHI,DET,3,Lincoln Financial Field,"Philadelphia, Pa.",Outdoor,Grass,Sunny,84.0,53,7,SSW
38667,2019092207,20190922070435,home,46.15,27.26,1.76,0.91,0.18,293.6,5.07,2534434,Brandon Brooks,79,2019,35,1,09:39:00,PHI,2,4,DET,3,7,2555418,SHOTGUN,"6 OL, 1 RB, 1 TE, 2 WR",6,"2 DL, 4 LB, 5 DB",left,2019-09-22T17:17:20.000Z,2019-09-22T17:17:19.000Z,6-5,335,08/19/1989,"Miami, O.",G,PHI,DET,3,Lincoln Financial Field,"Philadelphia, Pa.",Outdoor,Grass,Sunny,84.0,53,7,SSW
38668,2019092207,20190922070435,home,46.54,29.17,2.65,1.41,0.27,323.83,1.73,2539286,Lane Johnson,65,2019,35,1,09:39:00,PHI,2,4,DET,3,7,2555418,SHOTGUN,"6 OL, 1 RB, 1 TE, 2 WR",6,"2 DL, 4 LB, 5 DB",left,2019-09-22T17:17:20.000Z,2019-09-22T17:17:19.000Z,6-6,317,05/08/1990,Oklahoma,T,PHI,DET,3,Lincoln Financial Field,"Philadelphia, Pa.",Outdoor,Grass,Sunny,84.0,53,7,SSW
38669,2019092207,20190922070435,home,45.85,19.46,2.76,0.17,0.28,260.49,311.51,2540158,Zach Ertz,86,2019,35,1,09:39:00,PHI,2,4,DET,3,7,2555418,SHOTGUN,"6 OL, 1 RB, 1 TE, 2 WR",6,"2 DL, 4 LB, 5 DB",left,2019-09-22T17:17:20.000Z,2019-09-22T17:17:19.000Z,6-5,250,11/10/1990,Stanford,TE,PHI,DET,3,Lincoln Financial Field,"Philadelphia, Pa.",Outdoor,Grass,Sunny,84.0,53,7,SSW
38670,2019092207,20190922070435,home,48.33,36.38,4.02,3.29,0.39,287.66,10.03,2552600,Nelson Agholor,13,2019,35,1,09:39:00,PHI,2,4,DET,3,7,2555418,SHOTGUN,"6 OL, 1 RB, 1 TE, 2 WR",6,"2 DL, 4 LB, 5 DB",left,2019-09-22T17:17:20.000Z,2019-09-22T17:17:19.000Z,6-0,198,05/24/1993,Southern California,WR,PHI,DET,3,Lincoln Financial Field,"Philadelphia, Pa.",Outdoor,Grass,Sunny,84.0,53,7,SSW
38671,2019092207,20190922070435,home,45.19,19.98,2.31,0.91,0.24,214.86,308.05,2555196,Halapoulivaati Vaitai,72,2019,35,1,09:39:00,PHI,2,4,DET,3,7,2555418,SHOTGUN,"6 OL, 1 RB, 1 TE, 2 WR",6,"2 DL, 4 LB, 5 DB",left,2019-09-22T17:17:20.000Z,2019-09-22T17:17:19.000Z,6-6,320,06/16/1993,Texas Christian,T,PHI,DET,3,Lincoln Financial Field,"Philadelphia, Pa.",Outdoor,Grass,Sunny,84.0,53,7,SSW
38672,2019092207,20190922070435,home,49.98,23.65,0.74,1.52,0.08,227.96,197.99,2555259,Carson Wentz,11,2019,35,1,09:39:00,PHI,2,4,DET,3,7,2555418,SHOTGUN,"6 OL, 1 RB, 1 TE, 2 WR",6,"2 DL, 4 LB, 5 DB",left,2019-09-22T17:17:20.000Z,2019-09-22T17:17:19.000Z,6-5,237,12/30/1992,North Dakota State,QB,PHI,DET,3,Lincoln Financial Field,"Philadelphia, Pa.",Outdoor,Grass,Sunny,84.0,53,7,SSW
38673,2019092207,20190922070435,home,49.59,23.03,4.06,2.29,0.4,299.18,308.0,2555418,Jordan Howard,24,2019,35,1,09:39:00,PHI,2,4,DET,3,7,2555418,SHOTGUN,"6 OL, 1 RB, 1 TE, 2 WR",6,"2 DL, 4 LB, 5 DB",left,2019-09-22T17:17:20.000Z,2019-09-22T17:17:19.000Z,6-0,224,11/02/1994,Indiana,RB,PHI,DET,3,Lincoln Financial Field,"Philadelphia, Pa.",Outdoor,Grass,Sunny,84.0,53,7,SSW
38674,2019092207,20190922070435,home,45.26,24.08,2.17,1.48,0.22,300.02,0.13,2555495,Isaac Seumalo,73,2019,35,1,09:39:00,PHI,2,4,DET,3,7,2555418,SHOTGUN,"6 OL, 1 RB, 1 TE, 2 WR",6,"2 DL, 4 LB, 5 DB",left,2019-09-22T17:17:20.000Z,2019-09-22T17:17:19.000Z,6-4,303,10/29/1993,Oregon State,G,PHI,DET,3,Lincoln Financial Field,"Philadelphia, Pa.",Outdoor,Grass,Sunny,84.0,53,7,SSW
38675,2019092207,20190922070435,home,44.13,42.55,3.38,3.07,0.33,265.56,244.72,2558262,Mack Hollins,16,2019,35,1,09:39:00,PHI,2,4,DET,3,7,2555418,SHOTGUN,"6 OL, 1 RB, 1 TE, 2 WR",6,"2 DL, 4 LB, 5 DB",left,2019-09-22T17:17:20.000Z,2019-09-22T17:17:19.000Z,6-4,221,09/16/1993,North Carolina,WR,PHI,DET,3,Lincoln Financial Field,"Philadelphia, Pa.",Outdoor,Grass,Sunny,84.0,53,7,SSW
