,GameId,PlayId,Team,X,Y,S,A,Dis,Orientation,Dir,NflId,DisplayName,JerseyNumber,Season,YardLine,Quarter,GameClock,PossessionTeam,Down,Distance,FieldPosition,HomeScoreBeforePlay,VisitorScoreBeforePlay,NflIdRusher,OffenseFormation,OffensePersonnel,DefendersInTheBox,DefensePersonnel,PlayDirection,TimeHandoff,TimeSnap,PlayerHeight,PlayerWeight,PlayerBirthDate,PlayerCollegeName,Position,HomeTeamAbbr,VisitorTeamAbbr,Week,Stadium,Location,StadiumType,Turf,GameWeather,Temperature,Humidity,WindSpeed,WindDirection
40832,2019092209,20190922091413,away,34.84,30.91,3.1,1.72,0.32,115.65,134.39,2495232,Nate Solder,76,2019,24,2,07:22:00,NYG,2,10,NYG,15,10,2560968,SINGLEBACK,"1 RB, 2 TE, 2 WR",6,"3 DL, 4 LB, 4 DB",right,2019-09-22T21:03:32.000Z,2019-09-22T21:03:31.000Z,6-9,325,04/12/1988,Colorado,T,TB,NYG,3,Raymond James Stadium,"Tampa, FL",Outdoor,Natural Grass,Cloudy,88.0,46,11,E
40833,2019092209,20190922091413,away,33.69,23.21,3.92,2.14,0.38,128.88,151.93,2532835,Rhett Ellison,85,2019,24,2,07:22:00,NYG,2,10,NYG,15,10,2560968,SINGLEBACK,"1 RB, 2 TE, 2 WR",6,"3 DL, 4 LB, 4 DB",right,2019-09-22T21:03:32.000Z,2019-09-22T21:03:31.000Z,6-5,255,10/03/1988,Southern California,TE,TB,NYG,3,Raymond James Stadium,"Tampa, FL",Outdoor,Natural Grass,Cloudy,88.0,46,11,E
40834,2019092209,20190922091413,away,32.09,25.82,2.76,0.99,0.3,113.88,181.34,2532980,Kevin Zeitler,70,2019,24,2,07:22:00,NYG,2,10,NYG,15,10,2560968,SINGLEBACK,"1 RB, 2 TE, 2 WR",6,"3 DL, 4 LB, 4 DB",right,2019-09-22T21:03:32.000Z,2019-09-22T21:03:31.000Z,6-4,315,03/08/1990,Wisconsin,G,TB,NYG,3,Raymond James Stadium,"Tampa, FL",Outdoor,Natural Grass,Cloudy,88.0,46,11,E
40835,2019092209,20190922091413,away,31.85,23.9,2.49,0.76,0.29,71.74,190.64,2535607,Mike Remmers,74,2019,24,2,07:22:00,NYG,2,10,NYG,15,10,2560968,SINGLEBACK,"1 RB, 2 TE, 2 WR",6,"3 DL, 4 LB, 4 DB",right,2019-09-22T21:03:32.000Z,2019-09-22T21:03:31.000Z,6-5,310,04/11/1989,Oregon State,T,TB,NYG,3,Raymond James Stadium,"Tampa, FL",Outdoor,Natural Grass,Cloudy,88.0,46,11,E
40836,2019092209,20190922091413,away,32.55,26.7,2.99,1.03,0.3,134.9,186.45,2543708,Jon Halapio,75,2019,24,2,07:22:00,NYG,2,10,NYG,15,10,2560968,SINGLEBACK,"1 RB, 2 TE, 2 WR",6,"3 DL, 4 LB, 4 DB",right,2019-09-22T21:03:32.000Z,2019-09-22T21:03:31.000Z,6-4,315,06/23/1991,Florida,C,TB,NYG,3,Raymond James Stadium,"Tampa, FL",Outdoor,Natural Grass,Cloudy,88.0,46,11,E
40837,2019092209,20190922091413,away,35.65,13.8,6.01,0.63,0.6,107.78,92.74,2550198,Bennie Fowler,18,2019,24,2,07:22:00,NYG,2,10,NYG,15,10,2560968,SINGLEBACK,"1 RB, 2 TE, 2 WR",6,"3 DL, 4 LB, 4 DB",right,2019-09-22T21:03:32.000Z,2019-09-22T21:03:31.000Z,6-1,218,06/10/1991,Michigan State,WR,TB,NYG,3,Raymond James Stadium,"Tampa, FL",Outdoor,Natural Grass,Cloudy,88.0,46,11,E
40838,2019092209,20190922091413,away,35.27,39.82,4.57,1.69,0.45,172.16,141.05,2555295,Sterling Shepard,87,2019,24,2,07:22:00,NYG,2,10,NYG,15,10,2560968,SINGLEBACK,"1 RB, 2 TE, 2 WR",6,"3 DL, 4 LB, 4 DB",right,2019-09-22T21:03:32.000Z,2019-09-22T21:03:31.000Z,5-10,201,02/10/1993,Oklahoma,WR,TB,NYG,3,Raymond James Stadium,"Tampa, FL",Outdoor,Natural Grass,Cloudy,88.0,46,11,E
40839,2019092209,20190922091413,away,32.45,21.17,2.59,1.52,0.27,78.39,173.67,2557858,Evan Engram,88,2019,24,2,07:22:00,NYG,2,10,NYG,15,10,2560968,SINGLEBACK,"1 RB, 2 TE, 2 WR",6,"3 DL, 4 LB, 4 DB",right,2019-09-22T21:03:32.000Z,2019-09-22T21:03:31.000Z,6-3,240,09/02/1994,Mississippi,TE,TB,NYG,3,Raymond James Stadium,"Tampa, FL",Outdoor,Natural Grass,Cloudy,88.0,46,11,E
40840,2019092209,20190922091413,away,32.5,28.44,2.88,0.53,0.29,100.16,191.84,2560737,Will Hernandez,71,2019,24,2,07:22:00,NYG,2,10,NYG,15,10,2560968,SINGLEBACK,"1 RB, 2 TE, 2 WR",6,"3 DL, 4 LB, 4 DB",right,2019-09-22T21:03:32.000Z,2019-09-22T21:03:31.000Z,6-3,327,09/02/1995,Texas-El Paso,G,TB,NYG,3,Raymond James Stadium,"Tampa, FL",Outdoor,Natural Grass,Cloudy,88.0,46,11,E
40841,2019092209,20190922091413,away,28.96,27.57,4.33,0.89,0.42,102.88,142.28,2560968,Saquon Barkley,26,2019,24,2,07:22:00,NYG,2,10,NYG,15,10,2560968,SINGLEBACK,"1 RB, 2 TE, 2 WR",6,"3 DL, 4 LB, 4 DB",right,2019-09-22T21:03:32.000Z,2019-09-22T21:03:31.000Z,6-0,233,02/09/1997,Penn State,RB,TB,NYG,3,Raymond James Stadium,"Tampa, FL",Outdoor,Natural Grass,Cloudy,88.0,46,11,E
40842,2019092209,20190922091413,away,28.14,28.78,4.76,2.27,0.48,268.06,266.39,2562299,Daniel Jones,8,2019,24,2,07:22:00,NYG,2,10,NYG,15,10,2560968,SINGLEBACK,"1 RB, 2 TE, 2 WR",6,"3 DL, 4 LB, 4 DB",right,2019-09-22T21:03:32.000Z,2019-09-22T21:03:31.000Z,6-5,220,05/27/1997,Duke,QB,TB,NYG,3,Raymond James Stadium,"Tampa, FL",Outdoor,Natural Grass,Cloudy,88.0,46,11,E
40843,2019092209,20190922091413,home,32.99,25.77,2.98,1.65,0.3,265.08,175.97,496861,Ndamukong Suh,93,2019,24,2,07:22:00,NYG,2,10,NYG,15,10,2560968,SINGLEBACK,"1 RB, 2 TE, 2 WR",6,"3 DL, 4 LB, 4 DB",right,2019-09-22T21:03:32.000Z,2019-09-22T21:03:31.000Z,6-4,313,01/06/1987,Nebraska,DT,TB,NYG,3,Raymond James Stadium,"Tampa, FL",Outdoor,Natural Grass,Cloudy,88.0,46,11,E
40844,2019092209,20190922091413,home,36.67,27.21,3.53,0.77,0.35,248.11,205.32,2532828,Lavonte David,54,2019,24,2,07:22:00,NYG,2,10,NYG,15,10,2560968,SINGLEBACK,"1 RB, 2 TE, 2 WR",6,"3 DL, 4 LB, 4 DB",right,2019-09-22T21:03:32.000Z,2019-09-22T21:03:31.000Z,6-1,233,01/23/1990,Nebraska,OLB,TB,NYG,3,Raymond James Stadium,"Tampa, FL",Outdoor,Natural Grass,Cloudy,88.0,46,11,E
40845,2019092209,20190922091413,home,36.02,22.64,4.05,0.95,0.4,277.06,215.98,2540159,Kevin Minter,51,2019,24,2,07:22:00,NYG,2,10,NYG,15,10,2560968,SINGLEBACK,"1 RB, 2 TE, 2 WR",6,"3 DL, 4 LB, 4 DB",right,2019-09-22T21:03:32.000Z,2019-09-22T21:03:31.000Z,6-0,246,12/03/1990,Louisiana State,MLB,TB,NYG,3,Raymond James Stadium,"Tampa, FL",Outdoor,Natural Grass,Cloudy,88.0,46,11,E
40846,2019092209,20190922091413,home,31.47,31.87,7.05,5.05,0.7,220.02,204.82,2540185,Mike Edwards,34,2019,24,2,07:22:00,NYG,2,10,NYG,15,10,2560968,SINGLEBACK,"1 RB, 2 TE, 2 WR",6,"3 DL, 4 LB, 4 DB",right,2019-09-22T21:03:32.000Z,2019-09-22T21:03:31.000Z,5-10,200,05/18/1996,Kentucky,FS,TB,NYG,3,Raymond James Stadium,"Tampa, FL",Outdoor,Natural Grass,Cloudy,88.0,46,11,E
40847,2019092209,20190922091413,home,32.97,28.57,3.0,0.94,0.32,279.82,191.15,2543884,Beau Allen,91,2019,24,2,07:22:00,NYG,2,10,NYG,15,10,2560968,SINGLEBACK,"1 RB, 2 TE, 2 WR",6,"3 DL, 4 LB, 4 DB",right,2019-09-22T21:03:32.000Z,2019-09-22T21:03:31.000Z,6-3,327,11/14/1991,Wisconsin,DT,TB,NYG,3,Raymond James Stadium,"Tampa, FL",Outdoor,Natural Grass,Cloudy,88.0,46,11,E
40848,2019092209,20190922091413,home,32.21,31.31,4.05,1.62,0.4,229.52,212.38,2550541,Shaquil Barrett,58,2019,24,2,07:22:00,NYG,2,10,NYG,15,10,2560968,SINGLEBACK,"1 RB, 2 TE, 2 WR",6,"3 DL, 4 LB, 4 DB",right,2019-09-22T21:03:32.000Z,2019-09-22T21:03:31.000Z,6-2,250,11/17/1992,Colorado State,OLB,TB,NYG,3,Raymond James Stadium,"Tampa, FL",Outdoor,Natural Grass,Cloudy,88.0,46,11,E
40849,2019092209,20190922091413,home,31.93,24.73,2.22,0.41,0.24,250.55,207.55,2552674,Rakeem Nunez-Roches,56,2019,24,2,07:22:00,NYG,2,10,NYG,15,10,2560968,SINGLEBACK,"1 RB, 2 TE, 2 WR",6,"3 DL, 4 LB, 4 DB",right,2019-09-22T21:03:32.000Z,2019-09-22T21:03:31.000Z,6-2,307,07/03/1993,Southern Mississippi,DT,TB,NYG,3,Raymond James Stadium,"Tampa, FL",Outdoor,Natural Grass,Cloudy,88.0,46,11,E
40850,2019092209,20190922091413,home,33.15,20.65,3.48,1.65,0.34,317.19,199.26,2555270,Carl Nassib,94,2019,24,2,07:22:00,NYG,2,10,NYG,15,10,2560968,SINGLEBACK,"1 RB, 2 TE, 2 WR",6,"3 DL, 4 LB, 4 DB",right,2019-09-22T21:03:32.000Z,2019-09-22T21:03:31.000Z,6-7,275,04/12/1993,Penn State,DE,TB,NYG,3,Raymond James Stadium,"Tampa, FL",Outdoor,Natural Grass,Cloudy,88.0,46,11,E
40851,2019092209,20190922091413,home,36.8,40.45,3.49,3.06,0.33,224.66,143.55,2555299,Vernon Hargreaves III,28,2019,24,2,07:22:00,NYG,2,10,NYG,15,10,2560968,SINGLEBACK,"1 RB, 2 TE, 2 WR",6,"3 DL, 4 LB, 4 DB",right,2019-09-22T21:03:32.000Z,2019-09-22T21:03:31.000Z,5-10,204,06/03/1995,Florida,CB,TB,NYG,3,Raymond James Stadium,"Tampa, FL",Outdoor,Natural Grass,Cloudy,88.0,46,11,E
40852,2019092209,20190922091413,home,44.99,25.13,1.25,3.2,0.13,282.29,260.43,2560930,Jordan Whitehead,31,2019,24,2,07:22:00,NYG,2,10,NYG,15,10,2560968,SINGLEBACK,"1 RB, 2 TE, 2 WR",6,"3 DL, 4 LB, 4 DB",right,2019-09-22T21:03:32.000Z,2019-09-22T21:03:31.000Z,5-10,198,03/18/1997,Pittsburgh,DB,TB,NYG,3,Raymond James Stadium,"Tampa, FL",Outdoor,Natural Grass,Cloudy,88.0,46,11,E
40853,2019092209,20190922091413,home,43.12,13.8,2.87,1.37,0.29,282.1,101.86,2561039,Carlton Davis,33,2019,24,2,07:22:00,NYG,2,10,NYG,15,10,2560968,SINGLEBACK,"1 RB, 2 TE, 2 WR",6,"3 DL, 4 LB, 4 DB",right,2019-09-22T21:03:32.000Z,2019-09-22T21:03:31.000Z,6-1,206,12/31/1996,Auburn,CB,TB,NYG,3,Raymond James Stadium,"Tampa, FL",Outdoor,Natural Grass,Cloudy,88.0,46,11,E
