,GameId,PlayId,Team,X,Y,S,A,Dis,Orientation,Dir,NflId,DisplayName,JerseyNumber,Season,YardLine,Quarter,GameClock,PossessionTeam,Down,Distance,FieldPosition,HomeScoreBeforePlay,VisitorScoreBeforePlay,NflIdRusher,OffenseFormation,OffensePersonnel,DefendersInTheBox,DefensePersonnel,PlayDirection,TimeHandoff,TimeSnap,PlayerHeight,PlayerWeight,PlayerBirthDate,PlayerCollegeName,Position,HomeTeamAbbr,VisitorTeamAbbr,Week,Stadium,Location,StadiumType,Turf,GameWeather,Temperature,Humidity,WindSpeed,WindDirection
57618,2019092910,20190929104327,away,36.48,22.56,3.29,0.65,0.35,111.06,358.17,496790,Everson Griffen,97,2019,27,4,01:15:00,CHI,3,11,MIN,16,6,2562502,I_FORM,"6 OL, 1 RB, 2 TE, 1 WR",8,"4 DL, 3 LB, 4 DB",left,2019-09-29T23:22:16.000Z,2019-09-29T23:22:15.000Z,6-3,273,12/22/1987,Southern California,DE,CHI,MIN,4,Soldier Field,"Chicago, IL",Outdoor,Natural Grass,Cloudy,67.0,89,8,East
57619,2019092910,20190929104327,away,29.49,31.8,2.45,3.09,0.23,91.27,67.98,2532948,Harrison Smith,22,2019,27,4,01:15:00,CHI,3,11,MIN,16,6,2562502,I_FORM,"6 OL, 1 RB, 2 TE, 1 WR",8,"4 DL, 3 LB, 4 DB",left,2019-09-29T23:22:16.000Z,2019-09-29T23:22:15.000Z,6-2,214,02/02/1989,Notre Dame,FS,CHI,MIN,4,Soldier Field,"Chicago, IL",Outdoor,Natural Grass,Cloudy,67.0,89,8,East
57620,2019092910,20190929104327,away,35.5,18.01,4.55,2.99,0.44,103.47,28.64,2540155,Xavier Rhodes,29,2019,27,4,01:15:00,CHI,3,11,MIN,16,6,2562502,I_FORM,"6 OL, 1 RB, 2 TE, 1 WR",8,"4 DL, 3 LB, 4 DB",left,2019-09-29T23:22:16.000Z,2019-09-29T23:22:15.000Z,6-1,218,06/19/1990,Florida State,CB,CHI,MIN,4,Soldier Field,"Chicago, IL",Outdoor,Natural Grass,Cloudy,67.0,89,8,East
57621,2019092910,20190929104327,away,38.82,27.41,2.83,3.32,0.3,96.28,66.5,2543459,Anthony Barr,55,2019,27,4,01:15:00,CHI,3,11,MIN,16,6,2562502,I_FORM,"6 OL, 1 RB, 2 TE, 1 WR",8,"4 DL, 3 LB, 4 DB",left,2019-09-29T23:22:16.000Z,2019-09-29T23:22:15.000Z,6-5,255,03/18/1992,UCLA,OLB,CHI,MIN,4,Soldier Field,"Chicago, IL",Outdoor,Natural Grass,Cloudy,67.0,89,8,East
57622,2019092910,20190929104327,away,36.01,24.47,2.71,0.58,0.27,37.47,350.85,2543706,Shamar Stephen,93,2019,27,4,01:15:00,CHI,3,11,MIN,16,6,2562502,I_FORM,"6 OL, 1 RB, 2 TE, 1 WR",8,"4 DL, 3 LB, 4 DB",left,2019-09-29T23:22:16.000Z,2019-09-29T23:22:15.000Z,6-5,310,02/25/1991,Connecticut,NT,CHI,MIN,4,Soldier Field,"Chicago, IL",Outdoor,Natural Grass,Cloudy,67.0,89,8,East
57623,2019092910,20190929104327,away,35.3,26.87,5.05,1.23,0.5,88.09,28.21,2552312,Eric Kendricks,54,2019,27,4,01:15:00,CHI,3,11,MIN,16,6,2562502,I_FORM,"6 OL, 1 RB, 2 TE, 1 WR",8,"4 DL, 3 LB, 4 DB",left,2019-09-29T23:22:16.000Z,2019-09-29T23:22:15.000Z,6-0,232,02/29/1992,UCLA,MLB,CHI,MIN,4,Soldier Field,"Chicago, IL",Outdoor,Natural Grass,Cloudy,67.0,89,8,East
57624,2019092910,20190929104327,away,28.6,42.08,3.11,3.93,0.28,91.18,252.07,2552448,Trae Waynes,26,2019,27,4,01:15:00,CHI,3,11,MIN,16,6,2562502,I_FORM,"6 OL, 1 RB, 2 TE, 1 WR",8,"4 DL, 3 LB, 4 DB",left,2019-09-29T23:22:16.000Z,2019-09-29T23:22:15.000Z,6-0,190,07/25/1992,Michigan State,CB,CHI,MIN,4,Soldier Field,"Chicago, IL",Outdoor,Natural Grass,Cloudy,67.0,89,8,East
57625,2019092910,20190929104327,away,37.38,30.24,1.92,1.57,0.19,134.54,20.72,2552603,Danielle Hunter,99,2019,27,4,01:15:00,CHI,3,11,MIN,16,6,2562502,I_FORM,"6 OL, 1 RB, 2 TE, 1 WR",8,"4 DL, 3 LB, 4 DB",left,2019-09-29T23:22:16.000Z,2019-09-29T23:22:15.000Z,6-5,252,10/29/1994,Louisiana State,DE,CHI,MIN,4,Soldier Field,"Chicago, IL",Outdoor,Natural Grass,Cloudy,67.0,89,8,East
57626,2019092910,20190929104327,away,34.93,20.69,4.5,2.14,0.45,84.38,28.02,2555156,Jayron Kearse,27,2019,27,4,01:15:00,CHI,3,11,MIN,16,6,2562502,I_FORM,"6 OL, 1 RB, 2 TE, 1 WR",8,"4 DL, 3 LB, 4 DB",left,2019-09-29T23:22:16.000Z,2019-09-29T23:22:15.000Z,6-4,215,02/11/1994,Clemson,SS,CHI,MIN,4,Soldier Field,"Chicago, IL",Outdoor,Natural Grass,Cloudy,67.0,89,8,East
57627,2019092910,20190929104327,away,36.96,25.68,2.08,0.92,0.21,95.55,14.42,2557845,Jaleel Johnson,94,2019,27,4,01:15:00,CHI,3,11,MIN,16,6,2562502,I_FORM,"6 OL, 1 RB, 2 TE, 1 WR",8,"4 DL, 3 LB, 4 DB",left,2019-09-29T23:22:16.000Z,2019-09-29T23:22:15.000Z,6-3,316,07/12/1994,Iowa,DT,CHI,MIN,4,Soldier Field,"Chicago, IL",Outdoor,Natural Grass,Cloudy,67.0,89,8,East
57628,2019092910,20190929104327,away,33.92,24.32,4.31,1.13,0.43,81.32,359.7,2558033,Ben Gedeon,42,2019,27,4,01:15:00,CHI,3,11,MIN,16,6,2562502,I_FORM,"6 OL, 1 RB, 2 TE, 1 WR",8,"4 DL, 3 LB, 4 DB",left,2019-09-29T23:22:16.000Z,2019-09-29T23:22:15.000Z,6-2,244,10/16/1994,Michigan,OLB,CHI,MIN,4,Soldier Field,"Chicago, IL",Outdoor,Natural Grass,Cloudy,67.0,89,8,East
57629,2019092910,20190929104327,home,41.0,24.81,3.96,0.9,0.39,358.95,61.51,81284,Chase Daniel,4,2019,27,4,01:15:00,CHI,3,11,MIN,16,6,2562502,I_FORM,"6 OL, 1 RB, 2 TE, 1 WR",8,"4 DL, 3 LB, 4 DB",left,2019-09-29T23:22:16.000Z,2019-09-29T23:22:15.000Z,6-0,229,10/07/1986,Missouri,QB,CHI,MIN,4,Soldier Field,"Chicago, IL",Outdoor,Natural Grass,Cloudy,67.0,89,8,East
57630,2019092910,20190929104327,home,37.48,29.52,2.15,1.63,0.22,308.84,5.15,2533543,Bobby Massie,70,2019,27,4,01:15:00,CHI,3,11,MIN,16,6,2562502,I_FORM,"6 OL, 1 RB, 2 TE, 1 WR",8,"4 DL, 3 LB, 4 DB",left,2019-09-29T23:22:16.000Z,2019-09-29T23:22:15.000Z,6-6,325,08/01/1989,Mississippi,T,CHI,MIN,4,Soldier Field,"Chicago, IL",Outdoor,Natural Grass,Cloudy,67.0,89,8,East
57631,2019092910,20190929104327,home,36.59,24.48,3.71,1.6,0.38,94.5,342.35,2550169,Charles Leno Jr.,72,2019,27,4,01:15:00,CHI,3,11,MIN,16,6,2562502,I_FORM,"6 OL, 1 RB, 2 TE, 1 WR",8,"4 DL, 3 LB, 4 DB",left,2019-09-29T23:22:16.000Z,2019-09-29T23:22:15.000Z,6-3,305,10/09/1991,Boise State,T,CHI,MIN,4,Soldier Field,"Chicago, IL",Outdoor,Natural Grass,Cloudy,67.0,89,8,East
57632,2019092910,20190929104327,home,36.87,22.62,3.25,1.19,0.36,264.41,354.41,2550221,Cornelius Lucas,73,2019,27,4,01:15:00,CHI,3,11,MIN,16,6,2562502,I_FORM,"6 OL, 1 RB, 2 TE, 1 WR",8,"4 DL, 3 LB, 4 DB",left,2019-09-29T23:22:16.000Z,2019-09-29T23:22:15.000Z,6-8,328,07/18/1991,Kansas State,T,CHI,MIN,4,Soldier Field,"Chicago, IL",Outdoor,Natural Grass,Cloudy,67.0,89,8,East
57633,2019092910,20190929104327,home,35.95,25.22,3.83,1.18,0.39,258.65,338.4,2555132,Cody Whitehair,65,2019,27,4,01:15:00,CHI,3,11,MIN,16,6,2562502,I_FORM,"6 OL, 1 RB, 2 TE, 1 WR",8,"4 DL, 3 LB, 4 DB",left,2019-09-29T23:22:16.000Z,2019-09-29T23:22:15.000Z,6-3,309,07/11/1992,Kansas State,OG,CHI,MIN,4,Soldier Field,"Chicago, IL",Outdoor,Natural Grass,Cloudy,67.0,89,8,East
57634,2019092910,20190929104327,home,39.19,26.74,1.69,4.8,0.19,294.76,342.59,2556852,J.P. Holtz,81,2019,27,4,01:15:00,CHI,3,11,MIN,16,6,2562502,I_FORM,"6 OL, 1 RB, 2 TE, 1 WR",8,"4 DL, 3 LB, 4 DB",left,2019-09-29T23:22:16.000Z,2019-09-29T23:22:15.000Z,6-3,240,08/28/1993,Pittsburgh,TE,CHI,MIN,4,Soldier Field,"Chicago, IL",Outdoor,Natural Grass,Cloudy,67.0,89,8,East
57635,2019092910,20190929104327,home,37.07,21.02,4.46,1.38,0.44,268.24,329.84,2558144,Adam Shaheen,87,2019,27,4,01:15:00,CHI,3,11,MIN,16,6,2562502,I_FORM,"6 OL, 1 RB, 2 TE, 1 WR",8,"4 DL, 3 LB, 4 DB",left,2019-09-29T23:22:16.000Z,2019-09-29T23:22:15.000Z,6-6,257,10/24/1994,Ashland,TE,CHI,MIN,4,Soldier Field,"Chicago, IL",Outdoor,Natural Grass,Cloudy,67.0,89,8,East
57636,2019092910,20190929104327,home,36.35,26.87,2.99,1.92,0.27,306.36,344.01,2559157,Rashaad Coward,69,2019,27,4,01:15:00,CHI,3,11,MIN,16,6,2562502,I_FORM,"6 OL, 1 RB, 2 TE, 1 WR",8,"4 DL, 3 LB, 4 DB",left,2019-09-29T23:22:16.000Z,2019-09-29T23:22:15.000Z,6-5,326,11/06/1994,Old Dominion,OT,CHI,MIN,4,Soldier Field,"Chicago, IL",Outdoor,Natural Grass,Cloudy,67.0,89,8,East
57637,2019092910,20190929104327,home,34.41,42.59,4.97,1.88,0.49,267.54,262.27,2560939,Javon Wims,83,2019,27,4,01:15:00,CHI,3,11,MIN,16,6,2562502,I_FORM,"6 OL, 1 RB, 2 TE, 1 WR",8,"4 DL, 3 LB, 4 DB",left,2019-09-29T23:22:16.000Z,2019-09-29T23:22:15.000Z,6-2,221,09/11/1994,Georgia,WR,CHI,MIN,4,Soldier Field,"Chicago, IL",Outdoor,Natural Grass,Cloudy,67.0,89,8,East
57638,2019092910,20190929104327,home,37.67,25.73,2.3,0.56,0.24,271.05,7.44,2561035,James Daniels,68,2019,27,4,01:15:00,CHI,3,11,MIN,16,6,2562502,I_FORM,"6 OL, 1 RB, 2 TE, 1 WR",8,"4 DL, 3 LB, 4 DB",left,2019-09-29T23:22:16.000Z,2019-09-29T23:22:15.000Z,6-3,305,09/13/1997,Iowa,C,CHI,MIN,4,Soldier Field,"Chicago, IL",Outdoor,Natural Grass,Cloudy,67.0,89,8,East
57639,2019092910,20190929104327,home,40.98,25.38,4.39,0.39,0.44,273.15,296.64,2562502,David Montgomery,32,2019,27,4,01:15:00,CHI,3,11,MIN,16,6,2562502,I_FORM,"6 OL, 1 RB, 2 TE, 1 WR",8,"4 DL, 3 LB, 4 DB",left,2019-09-29T23:22:16.000Z,2019-09-29T23:22:15.000Z,5-10,222,06/07/1997,Iowa State,RB,CHI,MIN,4,Soldier Field,"Chicago, IL",Outdoor,Natural Grass,Cloudy,67.0,89,8,East
