,GameId,PlayId,Team,X,Y,S,A,Dis,Orientation,Dir,NflId,DisplayName,JerseyNumber,Season,YardLine,Quarter,GameClock,PossessionTeam,Down,Distance,FieldPosition,HomeScoreBeforePlay,VisitorScoreBeforePlay,NflIdRusher,OffenseFormation,OffensePersonnel,DefendersInTheBox,DefensePersonnel,PlayDirection,TimeHandoff,TimeSnap,PlayerHeight,PlayerWeight,PlayerBirthDate,PlayerCollegeName,Position,HomeTeamAbbr,VisitorTeamAbbr,Week,Stadium,Location,StadiumType,Turf,GameWeather,Temperature,Humidity,WindSpeed,WindDirection
286,2019090500,20190905001548,away,76.91,25.85,2.37,1.58,0.23,295.06,160.71,496988,Bryan Bulaga,75,2019,35,2,07:03:00,GB,2,5,GB,3,7,2558204,SHOTGUN,"1 RB, 1 TE, 3 WR",5,"2 DL, 4 LB, 5 DB",left,2019-09-06T01:22:30.000Z,2019-09-06T01:22:29.000Z,6-5,314,03/21/1989,Iowa,OT,CHI,GB,1,Soldier Field,Chicago,Outdoor,Natural Grass,Clear,65.0,69,10,E
287,2019090500,20190905001548,away,74.89,36.33,3.66,2.35,0.35,234.55,310.87,497236,Jimmy Graham,80,2019,35,2,07:03:00,GB,2,5,GB,3,7,2558204,SHOTGUN,"1 RB, 1 TE, 3 WR",5,"2 DL, 4 LB, 5 DB",left,2019-09-06T01:22:30.000Z,2019-09-06T01:22:29.000Z,6-7,265,11/24/1986,Miami,TE,CHI,GB,1,Soldier Field,Chicago,Outdoor,Natural Grass,Clear,65.0,69,10,E
288,2019090500,20190905001548,away,80.05,23.28,0.39,1.67,0.04,325.17,92.59,2506363,Aaron Rodgers,12,2019,35,2,07:03:00,GB,2,5,GB,3,7,2558204,SHOTGUN,"1 RB, 1 TE, 3 WR",5,"2 DL, 4 LB, 5 DB",left,2019-09-06T01:22:30.000Z,2019-09-06T01:22:29.000Z,6-2,225,12/02/1983,California,QB,CHI,GB,1,Soldier Field,Chicago,Outdoor,Natural Grass,Clear,65.0,69,10,E
289,2019090500,20190905001548,away,76.5,18.66,1.13,2.27,0.11,271.78,176.81,2540183,David Bakhtiari,69,2019,35,2,07:03:00,GB,2,5,GB,3,7,2558204,SHOTGUN,"1 RB, 1 TE, 3 WR",5,"2 DL, 4 LB, 5 DB",left,2019-09-06T01:22:30.000Z,2019-09-06T01:22:29.000Z,6-4,310,09/30/1991,Colorado,T,CHI,GB,1,Soldier Field,Chicago,Outdoor,Natural Grass,Clear,65.0,69,10,E
290,2019090500,20190905001548,away,76.22,20.49,1.6,1.13,0.16,338.63,180.39,2541898,Lane Taylor,65,2019,35,2,07:03:00,GB,2,5,GB,3,7,2558204,SHOTGUN,"1 RB, 1 TE, 3 WR",5,"2 DL, 4 LB, 5 DB",left,2019-09-06T01:22:30.000Z,2019-09-06T01:22:29.000Z,6-3,324,11/22/1989,Oklahoma State,G,CHI,GB,1,Soldier Field,Chicago,Outdoor,Natural Grass,Clear,65.0,69,10,E
291,2019090500,20190905001548,away,75.54,23.36,0.76,0.69,0.09,265.15,205.51,2543631,Corey Linsley,63,2019,35,2,07:03:00,GB,2,5,GB,3,7,2558204,SHOTGUN,"1 RB, 1 TE, 3 WR",5,"2 DL, 4 LB, 5 DB",left,2019-09-06T01:22:30.000Z,2019-09-06T01:22:29.000Z,6-3,301,07/27/1991,Ohio State,C,CHI,GB,1,Soldier Field,Chicago,Outdoor,Natural Grass,Clear,65.0,69,10,E
292,2019090500,20190905001548,away,75.89,24.45,1.53,0.95,0.16,252.8,226.43,2543740,Billy Turner,77,2019,35,2,07:03:00,GB,2,5,GB,3,7,2558204,SHOTGUN,"1 RB, 1 TE, 3 WR",5,"2 DL, 4 LB, 5 DB",left,2019-09-06T01:22:30.000Z,2019-09-06T01:22:29.000Z,6-5,310,10/17/1991,North Dakota State,OG,CHI,GB,1,Soldier Field,Chicago,Outdoor,Natural Grass,Clear,65.0,69,10,E
293,2019090500,20190905001548,away,75.76,38.05,4.19,4.97,0.4,271.89,311.94,2553548,Jake Kumerow,16,2019,35,2,07:03:00,GB,2,5,GB,3,7,2558204,SHOTGUN,"1 RB, 1 TE, 3 WR",5,"2 DL, 4 LB, 5 DB",left,2019-09-06T01:22:30.000Z,2019-09-06T01:22:29.000Z,6-4,209,02/17/1992,Wisconsin-Whitewater,WR,CHI,GB,1,Soldier Field,Chicago,Outdoor,Natural Grass,Clear,65.0,69,10,E
294,2019090500,20190905001548,away,78.41,35.32,3.99,3.39,0.38,259.45,13.93,2556460,Geronimo Allison,81,2019,35,2,07:03:00,GB,2,5,GB,3,7,2558204,SHOTGUN,"1 RB, 1 TE, 3 WR",5,"2 DL, 4 LB, 5 DB",left,2019-09-06T01:22:30.000Z,2019-09-06T01:22:29.000Z,6-3,202,01/18/1994,Illinois,WR,CHI,GB,1,Soldier Field,Chicago,Outdoor,Natural Grass,Clear,65.0,69,10,E
295,2019090500,20190905001548,away,79.52,23.69,4.67,3.38,0.45,216.78,192.22,2558204,Jamaal Williams,30,2019,35,2,07:03:00,GB,2,5,GB,3,7,2558204,SHOTGUN,"1 RB, 1 TE, 3 WR",5,"2 DL, 4 LB, 5 DB",left,2019-09-06T01:22:30.000Z,2019-09-06T01:22:29.000Z,6-0,213,04/03/1995,Brigham Young,RB,CHI,GB,1,Soldier Field,Chicago,Outdoor,Natural Grass,Clear,65.0,69,10,E
296,2019090500,20190905001548,away,75.75,10.57,3.03,4.14,0.29,305.69,347.39,2560907,Marquez Valdes-Scantling,83,2019,35,2,07:03:00,GB,2,5,GB,3,7,2558204,SHOTGUN,"1 RB, 1 TE, 3 WR",5,"2 DL, 4 LB, 5 DB",left,2019-09-06T01:22:30.000Z,2019-09-06T01:22:29.000Z,6-4,207,10/10/1994,South Florida,WR,CHI,GB,1,Soldier Field,Chicago,Outdoor,Natural Grass,Clear,65.0,69,10,E
297,2019090500,20190905001548,home,74.39,10.01,2.39,4.25,0.22,56.35,344.38,2495108,Prince Amukamara,20,2019,35,2,07:03:00,GB,2,5,GB,3,7,2558204,SHOTGUN,"1 RB, 1 TE, 3 WR",5,"2 DL, 4 LB, 5 DB",left,2019-09-06T01:22:30.000Z,2019-09-06T01:22:29.000Z,6-0,204,06/06/1989,Nebraska,CB,CHI,GB,1,Soldier Field,Chicago,Outdoor,Natural Grass,Clear,65.0,69,10,E
298,2019090500,20190905001548,home,70.37,34.01,3.11,2.38,0.3,57.64,12.98,2495343,Buster Skrine,24,2019,35,2,07:03:00,GB,2,5,GB,3,7,2558204,SHOTGUN,"1 RB, 1 TE, 3 WR",5,"2 DL, 4 LB, 5 DB",left,2019-09-06T01:22:30.000Z,2019-09-06T01:22:29.000Z,5-9,185,04/26/1989,Chattanooga,CB,CHI,GB,1,Soldier Field,Chicago,Outdoor,Natural Grass,Clear,65.0,69,10,E
299,2019090500,20190905001548,home,74.33,24.0,3.49,3.35,0.34,124.26,170.11,2532961,Danny Trevathan,59,2019,35,2,07:03:00,GB,2,5,GB,3,7,2558204,SHOTGUN,"1 RB, 1 TE, 3 WR",5,"2 DL, 4 LB, 5 DB",left,2019-09-06T01:22:30.000Z,2019-09-06T01:22:29.000Z,6-0,239,03/24/1990,Kentucky,ILB,CHI,GB,1,Soldier Field,Chicago,Outdoor,Natural Grass,Clear,65.0,69,10,E
300,2019090500,20190905001548,home,77.04,28.74,3.78,2.74,0.37,121.53,123.72,2543463,Khalil Mack,52,2019,35,2,07:03:00,GB,2,5,GB,3,7,2558204,SHOTGUN,"1 RB, 1 TE, 3 WR",5,"2 DL, 4 LB, 5 DB",left,2019-09-06T01:22:30.000Z,2019-09-06T01:22:29.000Z,6-3,269,02/22/1991,Buffalo,OLB,CHI,GB,1,Soldier Field,Chicago,Outdoor,Natural Grass,Clear,65.0,69,10,E
301,2019090500,20190905001548,home,69.72,16.86,6.28,1.08,0.62,89.44,88.31,2543470,Ha Ha Clinton-Dix,21,2019,35,2,07:03:00,GB,2,5,GB,3,7,2558204,SHOTGUN,"1 RB, 1 TE, 3 WR",5,"2 DL, 4 LB, 5 DB",left,2019-09-06T01:22:30.000Z,2019-09-06T01:22:29.000Z,6-1,211,12/21/1992,Alabama,FS,CHI,GB,1,Soldier Field,Chicago,Outdoor,Natural Grass,Clear,65.0,69,10,E
302,2019090500,20190905001548,home,69.99,39.31,2.15,2.62,0.21,87.29,324.18,2543681,Kyle Fuller,23,2019,35,2,07:03:00,GB,2,5,GB,3,7,2558204,SHOTGUN,"1 RB, 1 TE, 3 WR",5,"2 DL, 4 LB, 5 DB",left,2019-09-06T01:22:30.000Z,2019-09-06T01:22:29.000Z,5-11,194,02/16/1992,Virginia Tech,CB,CHI,GB,1,Soldier Field,Chicago,Outdoor,Natural Grass,Clear,65.0,69,10,E
303,2019090500,20190905001548,home,76.16,21.64,3.35,2.7,0.35,92.5,76.81,2556665,Roy Robertson-Harris,95,2019,35,2,07:03:00,GB,2,5,GB,3,7,2558204,SHOTGUN,"1 RB, 1 TE, 3 WR",5,"2 DL, 4 LB, 5 DB",left,2019-09-06T01:22:30.000Z,2019-09-06T01:22:29.000Z,6-5,294,07/23/1993,Texas-El Paso,DE,CHI,GB,1,Soldier Field,Chicago,Outdoor,Natural Grass,Clear,65.0,69,10,E
304,2019090500,20190905001548,home,58.21,27.0,2.82,0.67,0.28,76.8,230.91,2558176,Eddie Jackson,39,2019,35,2,07:03:00,GB,2,5,GB,3,7,2558204,SHOTGUN,"1 RB, 1 TE, 3 WR",5,"2 DL, 4 LB, 5 DB",left,2019-09-06T01:22:30.000Z,2019-09-06T01:22:29.000Z,6-0,202,12/10/1993,Alabama,FS,CHI,GB,1,Soldier Field,Chicago,Outdoor,Natural Grass,Clear,65.0,69,10,E
305,2019090500,20190905001548,home,75.65,18.84,2.97,2.56,0.28,46.82,67.06,2559287,Isaiah Irving,47,2019,35,2,07:03:00,GB,2,5,GB,3,7,2558204,SHOTGUN,"1 RB, 1 TE, 3 WR",5,"2 DL, 4 LB, 5 DB",left,2019-09-06T01:22:30.000Z,2019-09-06T01:22:29.000Z,6-3,254,06/09/1994,San Jose State,LB,CHI,GB,1,Soldier Field,Chicago,Outdoor,Natural Grass,Clear,65.0,69,10,E
306,2019090500,20190905001548,home,75.97,26.21,2.23,1.05,0.23,102.04,104.26,2560821,Bilal Nichols,98,2019,35,2,07:03:00,GB,2,5,GB,3,7,2558204,SHOTGUN,"1 RB, 1 TE, 3 WR",5,"2 DL, 4 LB, 5 DB",left,2019-09-06T01:22:30.000Z,2019-09-06T01:22:29.000Z,6-3,313,09/14/1996,Delaware,DT,CHI,GB,1,Soldier Field,Chicago,Outdoor,Natural Grass,Clear,65.0,69,10,E
307,2019090500,20190905001548,home,73.45,35.75,2.08,1.99,0.19,40.87,312.36,2560877,Roquan Smith,58,2019,35,2,07:03:00,GB,2,5,GB,3,7,2558204,SHOTGUN,"1 RB, 1 TE, 3 WR",5,"2 DL, 4 LB, 5 DB",left,2019-09-06T01:22:30.000Z,2019-09-06T01:22:29.000Z,6-0,230,04/08/1997,Georgia,LB,CHI,GB,1,Soldier Field,Chicago,Outdoor,Natural Grass,Clear,65.0,69,10,E
