,GameId,PlayId,Team,X,Y,S,A,Dis,Orientation,Dir,NflId,DisplayName,JerseyNumber,Season,YardLine,Quarter,GameClock,PossessionTeam,Down,Distance,FieldPosition,HomeScoreBeforePlay,VisitorScoreBeforePlay,NflIdRusher,OffenseFormation,OffensePersonnel,DefendersInTheBox,DefensePersonnel,PlayDirection,TimeHandoff,TimeSnap,PlayerHeight,PlayerWeight,PlayerBirthDate,PlayerCollegeName,Position,HomeTeamAbbr,VisitorTeamAbbr,Week,Stadium,Location,StadiumType,Turf,GameWeather,Temperature,Humidity,WindSpeed,WindDirection
15818,2019091500,20190915000219,away,91.43,28.77,2.39,1.21,0.24,55.07,78.95,496841,Corey Peters,98,2019,20,1,11:22:00,BLT,1,10,BLT,0,0,2495466,PISTOL,"2 RB, 1 TE, 2 WR",7,"3 DL, 4 LB, 4 DB",left,2019-09-15T17:10:23.000Z,2019-09-15T17:10:22.000Z,6-3,335,06/08/1988,Kentucky,DT,BAL,ARI,2,M&T Stadium,"Baltimore, Maryland",Outdoor,Natural Grass,Sunny,82.0,60,8,NNW
15819,2019091500,20190915000219,away,91.35,32.57,3.64,1.41,0.36,145.43,130.94,2505660,Terrell Suggs,56,2019,20,1,11:22:00,BLT,1,10,BLT,0,0,2495466,PISTOL,"2 RB, 1 TE, 2 WR",7,"3 DL, 4 LB, 4 DB",left,2019-09-15T17:10:23.000Z,2019-09-15T17:10:22.000Z,6-3,265,10/11/1982,Arizona State,OLB,BAL,ARI,2,M&T Stadium,"Baltimore, Maryland",Outdoor,Natural Grass,Sunny,82.0,60,8,NNW
15820,2019091500,20190915000219,away,83.32,42.59,1.88,1.32,0.19,182.41,258.64,2507917,Tramaine Brock,20,2019,20,1,11:22:00,BLT,1,10,BLT,0,0,2495466,PISTOL,"2 RB, 1 TE, 2 WR",7,"3 DL, 4 LB, 4 DB",left,2019-09-15T17:10:23.000Z,2019-09-15T17:10:22.000Z,6-0,188,08/20/1988,Belhaven,CB,BAL,ARI,2,M&T Stadium,"Baltimore, Maryland",Outdoor,Natural Grass,Sunny,82.0,60,8,NNW
15821,2019091500,20190915000219,away,90.57,25.73,1.58,0.93,0.16,344.09,37.39,2533538,Chandler Jones,55,2019,20,1,11:22:00,BLT,1,10,BLT,0,0,2495466,PISTOL,"2 RB, 1 TE, 2 WR",7,"3 DL, 4 LB, 4 DB",left,2019-09-15T17:10:23.000Z,2019-09-15T17:10:22.000Z,6-5,265,02/27/1990,Syracuse,OLB,BAL,ARI,2,M&T Stadium,"Baltimore, Maryland",Outdoor,Natural Grass,Sunny,82.0,60,8,NNW
15822,2019091500,20190915000219,away,71.21,29.45,0.32,1.92,0.04,152.57,311.97,2539943,D.J. Swearinger,36,2019,20,1,11:22:00,BLT,1,10,BLT,0,0,2495466,PISTOL,"2 RB, 1 TE, 2 WR",7,"3 DL, 4 LB, 4 DB",left,2019-09-15T17:10:23.000Z,2019-09-15T17:10:22.000Z,5-10,205,09/01/1991,South Carolina,FS,BAL,ARI,2,M&T Stadium,"Baltimore, Maryland",Outdoor,Natural Grass,Sunny,82.0,60,8,NNW
15823,2019091500,20190915000219,away,87.49,32.76,3.45,1.62,0.34,9.96,66.55,2552315,Jordan Hicks,58,2019,20,1,11:22:00,BLT,1,10,BLT,0,0,2495466,PISTOL,"2 RB, 1 TE, 2 WR",7,"3 DL, 4 LB, 4 DB",left,2019-09-15T17:10:23.000Z,2019-09-15T17:10:22.000Z,6-1,236,06/27/1992,Texas,MLB,BAL,ARI,2,M&T Stadium,"Baltimore, Maryland",Outdoor,Natural Grass,Sunny,82.0,60,8,NNW
15824,2019091500,20190915000219,away,89.49,31.65,0.51,1.1,0.03,190.65,247.43,2553437,Rodney Gunter,95,2019,20,1,11:22:00,BLT,1,10,BLT,0,0,2495466,PISTOL,"2 RB, 1 TE, 2 WR",7,"3 DL, 4 LB, 4 DB",left,2019-09-15T17:10:23.000Z,2019-09-15T17:10:22.000Z,6-5,305,01/19/1992,Delaware State,DT,BAL,ARI,2,M&T Stadium,"Baltimore, Maryland",Outdoor,Natural Grass,Sunny,82.0,60,8,NNW
15825,2019091500,20190915000219,away,87.11,35.9,3.28,3.01,0.32,114.67,59.2,2556192,Joe Walker,59,2019,20,1,11:22:00,BLT,1,10,BLT,0,0,2495466,PISTOL,"2 RB, 1 TE, 2 WR",7,"3 DL, 4 LB, 4 DB",left,2019-09-15T17:10:23.000Z,2019-09-15T17:10:22.000Z,6-2,236,12/11/1992,Oregon,MLB,BAL,ARI,2,M&T Stadium,"Baltimore, Maryland",Outdoor,Natural Grass,Sunny,82.0,60,8,NNW
15826,2019091500,20190915000219,away,86.65,30.5,3.29,0.66,0.33,71.08,31.21,2557887,Haason Reddick,43,2019,20,1,11:22:00,BLT,1,10,BLT,0,0,2495466,PISTOL,"2 RB, 1 TE, 2 WR",7,"3 DL, 4 LB, 4 DB",left,2019-09-15T17:10:23.000Z,2019-09-15T17:10:22.000Z,6-1,235,09/22/1994,Temple,ILB,BAL,ARI,2,M&T Stadium,"Baltimore, Maryland",Outdoor,Natural Grass,Sunny,82.0,60,8,NNW
15827,2019091500,20190915000219,away,87.38,26.23,4.52,1.43,0.45,139.28,34.19,2558009,Budda Baker,32,2019,20,1,11:22:00,BLT,1,10,BLT,0,0,2495466,PISTOL,"2 RB, 1 TE, 2 WR",7,"3 DL, 4 LB, 4 DB",left,2019-09-15T17:10:23.000Z,2019-09-15T17:10:22.000Z,5-10,195,01/10/1996,Washington,FS,BAL,ARI,2,M&T Stadium,"Baltimore, Maryland",Outdoor,Natural Grass,Sunny,82.0,60,8,NNW
15828,2019091500,20190915000219,away,83.09,14.14,3.57,2.56,0.35,357.53,276.38,2562318,Byron Murphy,33,2019,20,1,11:22:00,BLT,1,10,BLT,0,0,2495466,PISTOL,"2 RB, 1 TE, 2 WR",7,"3 DL, 4 LB, 4 DB",left,2019-09-15T17:10:23.000Z,2019-09-15T17:10:22.000Z,5-11,190,01/18/1998,Washington,DB,BAL,ARI,2,M&T Stadium,"Baltimore, Maryland",Outdoor,Natural Grass,Sunny,82.0,60,8,NNW
15829,2019091500,20190915000219,home,95.69,29.92,3.8,2.43,0.37,330.19,276.86,2495466,Mark Ingram,21,2019,20,1,11:22:00,BLT,1,10,BLT,0,0,2495466,PISTOL,"2 RB, 1 TE, 2 WR",7,"3 DL, 4 LB, 4 DB",left,2019-09-15T17:10:23.000Z,2019-09-15T17:10:22.000Z,5-9,215,12/21/1989,Alabama,RB,BAL,ARI,2,M&T Stadium,"Baltimore, Maryland",Outdoor,Natural Grass,Sunny,82.0,60,8,NNW
15830,2019091500,20190915000219,home,90.31,31.73,1.14,0.33,0.14,330.83,266.22,2507188,Marshal Yanda,73,2019,20,1,11:22:00,BLT,1,10,BLT,0,0,2495466,PISTOL,"2 RB, 1 TE, 2 WR",7,"3 DL, 4 LB, 4 DB",left,2019-09-15T17:10:23.000Z,2019-09-15T17:10:22.000Z,6-3,305,09/15/1984,Iowa,G,BAL,ARI,2,M&T Stadium,"Baltimore, Maryland",Outdoor,Natural Grass,Sunny,82.0,60,8,NNW
15831,2019091500,20190915000219,home,92.0,34.17,3.42,1.86,0.34,6.03,306.43,2552402,Nick Boyle,86,2019,20,1,11:22:00,BLT,1,10,BLT,0,0,2495466,PISTOL,"2 RB, 1 TE, 2 WR",7,"3 DL, 4 LB, 4 DB",left,2019-09-15T17:10:23.000Z,2019-09-15T17:10:22.000Z,6-4,270,02/17/1993,Delaware,TE,BAL,ARI,2,M&T Stadium,"Baltimore, Maryland",Outdoor,Natural Grass,Sunny,82.0,60,8,NNW
15832,2019091500,20190915000219,home,91.97,27.75,1.34,0.44,0.14,112.66,37.09,2555204,Ronnie Stanley,79,2019,20,1,11:22:00,BLT,1,10,BLT,0,0,2495466,PISTOL,"2 RB, 1 TE, 2 WR",7,"3 DL, 4 LB, 4 DB",left,2019-09-15T17:10:23.000Z,2019-09-15T17:10:22.000Z,6-6,315,03/18/1994,Notre Dame,T,BAL,ARI,2,M&T Stadium,"Baltimore, Maryland",Outdoor,Natural Grass,Sunny,82.0,60,8,NNW
15833,2019091500,20190915000219,home,91.65,29.02,1.24,1.85,0.12,122.21,84.52,2556683,Matt Skura,68,2019,20,1,11:22:00,BLT,1,10,BLT,0,0,2495466,PISTOL,"2 RB, 1 TE, 2 WR",7,"3 DL, 4 LB, 4 DB",left,2019-09-15T17:10:23.000Z,2019-09-15T17:10:22.000Z,6-3,313,02/17/1993,Duke,C,BAL,ARI,2,M&T Stadium,"Baltimore, Maryland",Outdoor,Natural Grass,Sunny,82.0,60,8,NNW
15834,2019091500,20190915000219,home,93.01,30.38,5.01,1.8,0.5,342.14,353.83,2558990,Patrick Ricard,42,2019,20,1,11:22:00,BLT,1,10,BLT,0,0,2495466,PISTOL,"2 RB, 1 TE, 2 WR",7,"3 DL, 4 LB, 4 DB",left,2019-09-15T17:10:23.000Z,2019-09-15T17:10:22.000Z,6-3,311,05/27/1994,Maine,FB,BAL,ARI,2,M&T Stadium,"Baltimore, Maryland",Outdoor,Natural Grass,Sunny,82.0,60,8,NNW
15835,2019091500,20190915000219,home,91.77,30.82,2.72,0.65,0.28,4.61,356.04,2559827,Bradley Bozeman,77,2019,20,1,11:22:00,BLT,1,10,BLT,0,0,2495466,PISTOL,"2 RB, 1 TE, 2 WR",7,"3 DL, 4 LB, 4 DB",left,2019-09-15T17:10:23.000Z,2019-09-15T17:10:22.000Z,6-3,317,11/24/1994,Alabama,C,BAL,ARI,2,M&T Stadium,"Baltimore, Maryland",Outdoor,Natural Grass,Sunny,82.0,60,8,NNW
15836,2019091500,20190915000219,home,95.28,30.03,0.9,1.64,0.09,179.21,122.85,2560757,Lamar Jackson,8,2019,20,1,11:22:00,BLT,1,10,BLT,0,0,2495466,PISTOL,"2 RB, 1 TE, 2 WR",7,"3 DL, 4 LB, 4 DB",left,2019-09-15T17:10:23.000Z,2019-09-15T17:10:22.000Z,6-2,212,01/07/1997,Louisville,QB,BAL,ARI,2,M&T Stadium,"Baltimore, Maryland",Outdoor,Natural Grass,Sunny,82.0,60,8,NNW
15837,2019091500,20190915000219,home,90.83,32.19,1.67,0.92,0.17,217.73,238.24,2560981,Orlando Brown,78,2019,20,1,11:22:00,BLT,1,10,BLT,0,0,2495466,PISTOL,"2 RB, 1 TE, 2 WR",7,"3 DL, 4 LB, 4 DB",left,2019-09-15T17:10:23.000Z,2019-09-15T17:10:22.000Z,6-8,345,05/02/1996,Oklahoma,T,BAL,ARI,2,M&T Stadium,"Baltimore, Maryland",Outdoor,Natural Grass,Sunny,82.0,60,8,NNW
15838,2019091500,20190915000219,home,87.88,15.3,5.25,2.69,0.51,347.48,282.66,2562379,Marquise Brown,15,2019,20,1,11:22:00,BLT,1,10,BLT,0,0,2495466,PISTOL,"2 RB, 1 TE, 2 WR",7,"3 DL, 4 LB, 4 DB",left,2019-09-15T17:10:23.000Z,2019-09-15T17:10:22.000Z,5-9,170,06/04/1997,Oklahoma,WR,BAL,ARI,2,M&T Stadium,"Baltimore, Maryland",Outdoor,Natural Grass,Sunny,82.0,60,8,NNW
15839,2019091500,20190915000219,home,88.75,41.35,5.02,2.22,0.49,33.48,241.24,2562631,Miles Boykin,80,2019,20,1,11:22:00,BLT,1,10,BLT,0,0,2495466,PISTOL,"2 RB, 1 TE, 2 WR",7,"3 DL, 4 LB, 4 DB",left,2019-09-15T17:10:23.000Z,2019-09-15T17:10:22.000Z,6-4,220,10/12/1996,Notre Dame,WR,BAL,ARI,2,M&T Stadium,"Baltimore, Maryland",Outdoor,Natural Grass,Sunny,82.0,60,8,NNW
