,GameId,PlayId,Team,X,Y,S,A,Dis,Orientation,Dir,NflId,DisplayName,JerseyNumber,Season,YardLine,Quarter,GameClock,PossessionTeam,Down,Distance,FieldPosition,HomeScoreBeforePlay,VisitorScoreBeforePlay,NflIdRusher,OffenseFormation,OffensePersonnel,DefendersInTheBox,DefensePersonnel,PlayDirection,TimeHandoff,TimeSnap,PlayerHeight,PlayerWeight,PlayerBirthDate,PlayerCollegeName,Position,HomeTeamAbbr,VisitorTeamAbbr,Week,Stadium,Location,StadiumType,Turf,GameWeather,Temperature,Humidity,WindSpeed,WindDirection
12144,2019090812,20190908120157,away,63.97,41.66,2.45,1.26,0.24,88.81,272.42,496733,Joe Haden,23,2019,38,1,12:43:00,NE,2,7,NE,0,0,2560809,I_FORM,"2 RB, 1 TE, 2 WR",7,"3 DL, 4 LB, 4 DB",left,2019-09-09T00:26:10.000Z,2019-09-09T00:26:08.000Z,5-11,195,04/14/1989,Florida,CB,NE,PIT,1,Gillette Stadium,"Foxborough, MA",Outdoor,Field Turf,Partly cloudy and mild,66.0,62,2,NW
12145,2019090812,20190908120157,away,71.16,22.51,1.85,0.64,0.19,80.38,335.24,496760,Tyson Alualu,94,2019,38,1,12:43:00,NE,2,7,NE,0,0,2560809,I_FORM,"2 RB, 1 TE, 2 WR",7,"3 DL, 4 LB, 4 DB",left,2019-09-09T00:26:10.000Z,2019-09-09T00:26:08.000Z,6-3,304,05/12/1987,California,DE,NE,PIT,1,Gillette Stadium,"Foxborough, MA",Outdoor,Field Turf,Partly cloudy and mild,66.0,62,2,NW
12146,2019090812,20190908120157,away,74.03,30.61,4.17,2.48,0.43,99.77,60.51,2540221,Vince Williams,98,2019,38,1,12:43:00,NE,2,7,NE,0,0,2560809,I_FORM,"2 RB, 1 TE, 2 WR",7,"3 DL, 4 LB, 4 DB",left,2019-09-09T00:26:10.000Z,2019-09-09T00:26:08.000Z,6-1,233,12/27/1989,Florida State,ILB,NE,PIT,1,Gillette Stadium,"Foxborough, MA",Outdoor,Field Turf,Partly cloudy and mild,66.0,62,2,NW
12147,2019090812,20190908120157,away,73.89,27.62,3.56,3.07,0.35,62.14,74.53,2543483,Stephon Tuitt,91,2019,38,1,12:43:00,NE,2,7,NE,0,0,2560809,I_FORM,"2 RB, 1 TE, 2 WR",7,"3 DL, 4 LB, 4 DB",left,2019-09-09T00:26:10.000Z,2019-09-09T00:26:08.000Z,6-6,303,05/23/1993,Notre Dame,DE,NE,PIT,1,Gillette Stadium,"Foxborough, MA",Outdoor,Field Turf,Partly cloudy and mild,66.0,62,2,NW
12148,2019090812,20190908120157,away,64.18,13.59,1.35,1.38,0.13,48.23,317.31,2552265,Steven Nelson,22,2019,38,1,12:43:00,NE,2,7,NE,0,0,2560809,I_FORM,"2 RB, 1 TE, 2 WR",7,"3 DL, 4 LB, 4 DB",left,2019-09-09T00:26:10.000Z,2019-09-09T00:26:08.000Z,5-11,194,01/22/1993,Oregon State,CB,NE,PIT,1,Gillette Stadium,"Foxborough, MA",Outdoor,Field Turf,Partly cloudy and mild,66.0,62,2,NW
12149,2019090812,20190908120157,away,72.63,18.06,2.44,2.62,0.23,24.19,25.47,2552289,Bud Dupree,48,2019,38,1,12:43:00,NE,2,7,NE,0,0,2560809,I_FORM,"2 RB, 1 TE, 2 WR",7,"3 DL, 4 LB, 4 DB",left,2019-09-09T00:26:10.000Z,2019-09-09T00:26:08.000Z,6-4,269,02/12/1993,Kentucky,OLB,NE,PIT,1,Gillette Stadium,"Foxborough, MA",Outdoor,Field Turf,Partly cloudy and mild,66.0,62,2,NW
12150,2019090812,20190908120157,away,72.1,23.91,1.13,1.5,0.11,76.54,62.89,2555239,Javon Hargrave,79,2019,38,1,12:43:00,NE,2,7,NE,0,0,2560809,I_FORM,"2 RB, 1 TE, 2 WR",7,"3 DL, 4 LB, 4 DB",left,2019-09-09T00:26:10.000Z,2019-09-09T00:26:08.000Z,6-2,305,02/07/1993,South Carolina State,NT,NE,PIT,1,Gillette Stadium,"Foxborough, MA",Outdoor,Field Turf,Partly cloudy and mild,66.0,62,2,NW
12151,2019090812,20190908120157,away,72.06,21.6,2.66,0.79,0.27,35.66,17.86,2558064,T.J. Watt,90,2019,38,1,12:43:00,NE,2,7,NE,0,0,2560809,I_FORM,"2 RB, 1 TE, 2 WR",7,"3 DL, 4 LB, 4 DB",left,2019-09-09T00:26:10.000Z,2019-09-09T00:26:08.000Z,6-4,252,10/11/1994,Wisconsin,OLB,NE,PIT,1,Gillette Stadium,"Foxborough, MA",Outdoor,Field Turf,Partly cloudy and mild,66.0,62,2,NW
12152,2019090812,20190908120157,away,67.71,30.21,5.6,2.55,0.55,87.15,68.15,2560712,Terrell Edmunds,34,2019,38,1,12:43:00,NE,2,7,NE,0,0,2560809,I_FORM,"2 RB, 1 TE, 2 WR",7,"3 DL, 4 LB, 4 DB",left,2019-09-09T00:26:10.000Z,2019-09-09T00:26:08.000Z,6-1,217,01/20/1997,Virginia Tech,S,NE,PIT,1,Gillette Stadium,"Foxborough, MA",Outdoor,Field Turf,Partly cloudy and mild,66.0,62,2,NW
12153,2019090812,20190908120157,away,57.77,23.32,2.37,0.47,0.24,96.17,305.61,2560778,Kam Kelly,29,2019,38,1,12:43:00,NE,2,7,NE,0,0,2560809,I_FORM,"2 RB, 1 TE, 2 WR",7,"3 DL, 4 LB, 4 DB",left,2019-09-09T00:26:10.000Z,2019-09-09T00:26:08.000Z,6-2,205,08/19/1996,San Diego State,DB,NE,PIT,1,Gillette Stadium,"Foxborough, MA",Outdoor,Field Turf,Partly cloudy and mild,66.0,62,2,NW
12154,2019090812,20190908120157,away,69.32,25.58,5.03,1.95,0.5,24.51,8.89,2562243,Devin Bush,55,2019,38,1,12:43:00,NE,2,7,NE,0,0,2560809,I_FORM,"2 RB, 1 TE, 2 WR",7,"3 DL, 4 LB, 4 DB",left,2019-09-09T00:26:10.000Z,2019-09-09T00:26:08.000Z,5-11,233,07/18/1998,Michigan,LB,NE,PIT,1,Gillette Stadium,"Foxborough, MA",Outdoor,Field Turf,Partly cloudy and mild,66.0,62,2,NW
12155,2019090812,20190908120157,home,72.15,16.03,3.69,2.86,0.36,286.39,290.0,238498,Julian Edelman,11,2019,38,1,12:43:00,NE,2,7,NE,0,0,2560809,I_FORM,"2 RB, 1 TE, 2 WR",7,"3 DL, 4 LB, 4 DB",left,2019-09-09T00:26:10.000Z,2019-09-09T00:26:08.000Z,5-10,200,05/22/1986,Kent State,WR,NE,PIT,1,Gillette Stadium,"Foxborough, MA",Outdoor,Field Turf,Partly cloudy and mild,66.0,62,2,NW
12156,2019090812,20190908120157,home,74.42,29.62,3.0,1.35,0.32,347.78,38.03,2495131,Marcus Cannon,61,2019,38,1,12:43:00,NE,2,7,NE,0,0,2560809,I_FORM,"2 RB, 1 TE, 2 WR",7,"3 DL, 4 LB, 4 DB",left,2019-09-09T00:26:10.000Z,2019-09-09T00:26:08.000Z,6-6,335,05/06/1988,Texas Christian,T,NE,PIT,1,Gillette Stadium,"Foxborough, MA",Outdoor,Field Turf,Partly cloudy and mild,66.0,62,2,NW
12157,2019090812,20190908120157,home,76.19,24.65,3.32,1.01,0.33,63.16,77.77,2504211,Tom Brady,12,2019,38,1,12:43:00,NE,2,7,NE,0,0,2560809,I_FORM,"2 RB, 1 TE, 2 WR",7,"3 DL, 4 LB, 4 DB",left,2019-09-09T00:26:10.000Z,2019-09-09T00:26:08.000Z,6-4,225,08/03/1977,Michigan,QB,NE,PIT,1,Gillette Stadium,"Foxborough, MA",Outdoor,Field Turf,Partly cloudy and mild,66.0,62,2,NW
12158,2019090812,20190908120157,home,75.37,30.14,4.17,1.98,0.42,267.54,342.44,2508101,James Develin,46,2019,38,1,12:43:00,NE,2,7,NE,0,0,2560809,I_FORM,"2 RB, 1 TE, 2 WR",7,"3 DL, 4 LB, 4 DB",left,2019-09-09T00:26:10.000Z,2019-09-09T00:26:08.000Z,6-3,255,07/23/1988,Brown,FB,NE,PIT,1,Gillette Stadium,"Foxborough, MA",Outdoor,Field Turf,Partly cloudy and mild,66.0,62,2,NW
12159,2019090812,20190908120157,home,71.53,43.03,3.82,4.31,0.33,183.43,262.28,2537931,Josh Gordon,10,2019,38,1,12:43:00,NE,2,7,NE,0,0,2560809,I_FORM,"2 RB, 1 TE, 2 WR",7,"3 DL, 4 LB, 4 DB",left,2019-09-09T00:26:10.000Z,2019-09-09T00:26:08.000Z,6-3,225,04/13/1991,Baylor,WR,NE,PIT,1,Gillette Stadium,"Foxborough, MA",Outdoor,Field Turf,Partly cloudy and mild,66.0,62,2,NW
12160,2019090812,20190908120157,home,71.43,26.73,3.17,1.06,0.34,254.05,312.24,2552563,Shaq Mason,69,2019,38,1,12:43:00,NE,2,7,NE,0,0,2560809,I_FORM,"2 RB, 1 TE, 2 WR",7,"3 DL, 4 LB, 4 DB",left,2019-09-09T00:26:10.000Z,2019-09-09T00:26:08.000Z,6-1,310,08/28/1993,Georgia Tech,G,NE,PIT,1,Gillette Stadium,"Foxborough, MA",Outdoor,Field Turf,Partly cloudy and mild,66.0,62,2,NW
12161,2019090812,20190908120157,home,72.55,25.0,0.53,1.26,0.05,208.05,38.99,2555145,Ted Karras,75,2019,38,1,12:43:00,NE,2,7,NE,0,0,2560809,I_FORM,"2 RB, 1 TE, 2 WR",7,"3 DL, 4 LB, 4 DB",left,2019-09-09T00:26:10.000Z,2019-09-09T00:26:08.000Z,6-4,305,03/15/1993,Illinois,C,NE,PIT,1,Gillette Stadium,"Foxborough, MA",Outdoor,Field Turf,Partly cloudy and mild,66.0,62,2,NW
12162,2019090812,20190908120157,home,71.56,23.34,2.57,0.51,0.27,200.61,315.73,2555281,Joe Thuney,62,2019,38,1,12:43:00,NE,2,7,NE,0,0,2560809,I_FORM,"2 RB, 1 TE, 2 WR",7,"3 DL, 4 LB, 4 DB",left,2019-09-09T00:26:10.000Z,2019-09-09T00:26:08.000Z,6-5,308,11/18/1992,North Carolina State,G,NE,PIT,1,Gillette Stadium,"Foxborough, MA",Outdoor,Field Turf,Partly cloudy and mild,66.0,62,2,NW
12163,2019090812,20190908120157,home,72.82,21.83,3.79,0.16,0.4,227.13,352.74,2560751,Ryan Izzo,85,2019,38,1,12:43:00,NE,2,7,NE,0,0,2560809,I_FORM,"2 RB, 1 TE, 2 WR",7,"3 DL, 4 LB, 4 DB",left,2019-09-09T00:26:10.000Z,2019-09-09T00:26:08.000Z,6-5,255,12/21/1995,Florida State,TE,NE,PIT,1,Gillette Stadium,"Foxborough, MA",Outdoor,Field Turf,Partly cloudy and mild,66.0,62,2,NW
12164,2019090812,20190908120157,home,78.86,27.01,5.48,2.2,0.54,290.31,343.4,2560809,Sony Michel,26,2019,38,1,12:43:00,NE,2,7,NE,0,0,2560809,I_FORM,"2 RB, 1 TE, 2 WR",7,"3 DL, 4 LB, 4 DB",left,2019-09-09T00:26:10.000Z,2019-09-09T00:26:08.000Z,5-11,215,02/17/1995,Georgia,RB,NE,PIT,1,Gillette Stadium,"Foxborough, MA",Outdoor,Field Turf,Partly cloudy and mild,66.0,62,2,NW
12165,2019090812,20190908120157,home,72.12,22.55,2.67,0.81,0.28,270.45,331.75,2560945,Isaiah Wynn,76,2019,38,1,12:43:00,NE,2,7,NE,0,0,2560809,I_FORM,"2 RB, 1 TE, 2 WR",7,"3 DL, 4 LB, 4 DB",left,2019-09-09T00:26:10.000Z,2019-09-09T00:26:08.000Z,6-2,310,12/09/1995,Georgia,T,NE,PIT,1,Gillette Stadium,"Foxborough, MA",Outdoor,Field Turf,Partly cloudy and mild,66.0,62,2,NW
