,GameId,PlayId,Team,X,Y,S,A,Dis,Orientation,Dir,NflId,DisplayName,JerseyNumber,Season,YardLine,Quarter,GameClock,PossessionTeam,Down,Distance,FieldPosition,HomeScoreBeforePlay,VisitorScoreBeforePlay,NflIdRusher,OffenseFormation,OffensePersonnel,DefendersInTheBox,DefensePersonnel,PlayDirection,TimeHandoff,TimeSnap,PlayerHeight,PlayerWeight,PlayerBirthDate,PlayerCollegeName,Position,HomeTeamAbbr,VisitorTeamAbbr,Week,Stadium,Location,StadiumType,Turf,GameWeather,Temperature,Humidity,WindSpeed,WindDirection
13442,2019090900,20190909002714,away,66.94,27.38,1.24,1.31,0.13,85.5,344.08,2495488,J.J. Watt,99,2019,43,3,07:03:00,NO,2,3,NO,10,21,2541161,SINGLEBACK,"2 QB, 1 RB, 1 TE, 2 WR",7,"3 DL, 3 LB, 5 DB",left,2019-09-10T01:12:11.000Z,2019-09-10T01:12:10.000Z,6-5,288,03/22/1989,Wisconsin,DE,NO,HOU,1,Mercedes-Benz Superdome,"New Orleans, La.",Indoors,UBU-Speed Series-S5-M,Partly Cloudy,91.0,59,9,SE
13443,2019090900,20190909002714,away,61.06,33.95,1.86,1.56,0.18,113.97,155.45,2495872,Johnathan Joseph,24,2019,43,3,07:03:00,NO,2,3,NO,10,21,2541161,SINGLEBACK,"2 QB, 1 RB, 1 TE, 2 WR",7,"3 DL, 3 LB, 5 DB",left,2019-09-10T01:12:11.000Z,2019-09-10T01:12:10.000Z,5-11,185,04/16/1984,South Carolina,CB,NO,HOU,1,Mercedes-Benz Superdome,"New Orleans, La.",Indoors,UBU-Speed Series-S5-M,Partly Cloudy,91.0,59,9,SE
13444,2019090900,20190909002714,away,65.97,30.29,2.06,0.7,0.2,49.95,341.65,2532848,Tashaun Gipson,39,2019,43,3,07:03:00,NO,2,3,NO,10,21,2541161,SINGLEBACK,"2 QB, 1 RB, 1 TE, 2 WR",7,"3 DL, 3 LB, 5 DB",left,2019-09-10T01:12:11.000Z,2019-09-10T01:12:10.000Z,6-1,212,08/07/1990,Wyoming,FS,NO,HOU,1,Mercedes-Benz Superdome,"New Orleans, La.",Indoors,UBU-Speed Series-S5-M,Partly Cloudy,91.0,59,9,SE
13445,2019090900,20190909002714,away,66.72,31.01,1.01,1.32,0.1,77.56,359.4,2533049,Whitney Mercilus,59,2019,43,3,07:03:00,NO,2,3,NO,10,21,2541161,SINGLEBACK,"2 QB, 1 RB, 1 TE, 2 WR",7,"3 DL, 3 LB, 5 DB",left,2019-09-10T01:12:11.000Z,2019-09-10T01:12:10.000Z,6-4,258,07/21/1990,Illinois,OLB,NO,HOU,1,Mercedes-Benz Superdome,"New Orleans, La.",Indoors,UBU-Speed Series-S5-M,Partly Cloudy,91.0,59,9,SE
13446,2019090900,20190909002714,away,60.98,27.61,4.63,2.48,0.45,152.6,179.21,2543501,Aaron Colvin,22,2019,43,3,07:03:00,NO,2,3,NO,10,21,2541161,SINGLEBACK,"2 QB, 1 RB, 1 TE, 2 WR",7,"3 DL, 3 LB, 5 DB",left,2019-09-10T01:12:11.000Z,2019-09-10T01:12:10.000Z,6-0,191,10/02/1991,Oklahoma,CB,NO,HOU,1,Mercedes-Benz Superdome,"New Orleans, La.",Indoors,UBU-Speed Series-S5-M,Partly Cloudy,91.0,59,9,SE
13447,2019090900,20190909002714,away,57.63,15.36,2.72,1.61,0.27,69.84,325.79,2543505,Bradley Roby,21,2019,43,3,07:03:00,NO,2,3,NO,10,21,2541161,SINGLEBACK,"2 QB, 1 RB, 1 TE, 2 WR",7,"3 DL, 3 LB, 5 DB",left,2019-09-10T01:12:11.000Z,2019-09-10T01:12:10.000Z,5-11,194,05/01/1992,Ohio State,CB,NO,HOU,1,Mercedes-Benz Superdome,"New Orleans, La.",Indoors,UBU-Speed Series-S5-M,Partly Cloudy,91.0,59,9,SE
13448,2019090900,20190909002714,away,66.3,25.14,0.72,1.36,0.07,59.9,342.89,2550559,Brandon Dunn,92,2019,43,3,07:03:00,NO,2,3,NO,10,21,2541161,SINGLEBACK,"2 QB, 1 RB, 1 TE, 2 WR",7,"3 DL, 3 LB, 5 DB",left,2019-09-10T01:12:11.000Z,2019-09-10T01:12:10.000Z,6-2,310,09/05/1992,Louisville,DT,NO,HOU,1,Mercedes-Benz Superdome,"New Orleans, La.",Indoors,UBU-Speed Series-S5-M,Partly Cloudy,91.0,59,9,SE
13449,2019090900,20190909002714,away,66.53,19.11,2.03,0.86,0.2,42.06,1.58,2552490,Benardrick McKinney,55,2019,43,3,07:03:00,NO,2,3,NO,10,21,2541161,SINGLEBACK,"2 QB, 1 RB, 1 TE, 2 WR",7,"3 DL, 3 LB, 5 DB",left,2019-09-10T01:12:11.000Z,2019-09-10T01:12:10.000Z,6-4,257,11/19/1992,Mississippi State,ILB,NO,HOU,1,Mercedes-Benz Superdome,"New Orleans, La.",Indoors,UBU-Speed Series-S5-M,Partly Cloudy,91.0,59,9,SE
13450,2019090900,20190909002714,away,66.35,22.4,1.32,0.27,0.13,110.3,353.84,2555388,D.J. Reader,98,2019,43,3,07:03:00,NO,2,3,NO,10,21,2541161,SINGLEBACK,"2 QB, 1 RB, 1 TE, 2 WR",7,"3 DL, 3 LB, 5 DB",left,2019-09-10T01:12:11.000Z,2019-09-10T01:12:10.000Z,6-3,347,07/01/1994,Clemson,DT,NO,HOU,1,Mercedes-Benz Superdome,"New Orleans, La.",Indoors,UBU-Speed Series-S5-M,Partly Cloudy,91.0,59,9,SE
13451,2019090900,20190909002714,away,64.01,25.81,1.25,0.71,0.13,93.41,79.66,2558094,Zach Cunningham,41,2019,43,3,07:03:00,NO,2,3,NO,10,21,2541161,SINGLEBACK,"2 QB, 1 RB, 1 TE, 2 WR",7,"3 DL, 3 LB, 5 DB",left,2019-09-10T01:12:11.000Z,2019-09-10T01:12:10.000Z,6-3,238,12/12/1994,Vanderbilt,ILB,NO,HOU,1,Mercedes-Benz Superdome,"New Orleans, La.",Indoors,UBU-Speed Series-S5-M,Partly Cloudy,91.0,59,9,SE
13452,2019090900,20190909002714,away,49.97,23.58,3.29,0.72,0.33,95.61,299.53,2560851,Justin Reid,20,2019,43,3,07:03:00,NO,2,3,NO,10,21,2541161,SINGLEBACK,"2 QB, 1 RB, 1 TE, 2 WR",7,"3 DL, 3 LB, 5 DB",left,2019-09-10T01:12:11.000Z,2019-09-10T01:12:10.000Z,6-1,204,02/15/1997,Stanford,SS,NO,HOU,1,Mercedes-Benz Superdome,"New Orleans, La.",Indoors,UBU-Speed Series-S5-M,Partly Cloudy,91.0,59,9,SE
13453,2019090900,20190909002714,home,72.0,24.62,4.67,0.65,0.47,19.05,74.27,2504775,Drew Brees,9,2019,43,3,07:03:00,NO,2,3,NO,10,21,2541161,SINGLEBACK,"2 QB, 1 RB, 1 TE, 2 WR",7,"3 DL, 3 LB, 5 DB",left,2019-09-10T01:12:11.000Z,2019-09-10T01:12:10.000Z,6-0,209,01/15/1979,Purdue,QB,NO,HOU,1,Mercedes-Benz Superdome,"New Orleans, La.",Indoors,UBU-Speed Series-S5-M,Partly Cloudy,91.0,59,9,SE
13454,2019090900,20190909002714,home,67.26,26.9,1.75,0.46,0.18,322.32,308.38,2539248,Larry Warford,67,2019,43,3,07:03:00,NO,2,3,NO,10,21,2541161,SINGLEBACK,"2 QB, 1 RB, 1 TE, 2 WR",7,"3 DL, 3 LB, 5 DB",left,2019-09-10T01:12:11.000Z,2019-09-10T01:12:10.000Z,6-3,317,06/18/1991,Kentucky,G,NO,HOU,1,Mercedes-Benz Superdome,"New Orleans, La.",Indoors,UBU-Speed Series-S5-M,Partly Cloudy,91.0,59,9,SE
13455,2019090900,20190909002714,home,66.94,21.79,1.43,1.48,0.15,341.81,308.51,2540228,Terron Armstead,72,2019,43,3,07:03:00,NO,2,3,NO,10,21,2541161,SINGLEBACK,"2 QB, 1 RB, 1 TE, 2 WR",7,"3 DL, 3 LB, 5 DB",left,2019-09-10T01:12:11.000Z,2019-09-10T01:12:10.000Z,6-5,304,07/23/1991,Arkansas-Pine Bluff,T,NO,HOU,1,Mercedes-Benz Superdome,"New Orleans, La.",Indoors,UBU-Speed Series-S5-M,Partly Cloudy,91.0,59,9,SE
13456,2019090900,20190909002714,home,73.03,25.28,4.56,3.4,0.44,281.87,292.37,2541161,Latavius Murray,28,2019,43,3,07:03:00,NO,2,3,NO,10,21,2541161,SINGLEBACK,"2 QB, 1 RB, 1 TE, 2 WR",7,"3 DL, 3 LB, 5 DB",left,2019-09-10T01:12:11.000Z,2019-09-10T01:12:10.000Z,6-3,230,01/18/1990,Central Florida,RB,NO,HOU,1,Mercedes-Benz Superdome,"New Orleans, La.",Indoors,UBU-Speed Series-S5-M,Partly Cloudy,91.0,59,9,SE
13457,2019090900,20190909002714,home,67.8,30.53,2.62,2.93,0.27,287.71,328.3,2541834,Josh Hill,89,2019,43,3,07:03:00,NO,2,3,NO,10,21,2541161,SINGLEBACK,"2 QB, 1 RB, 1 TE, 2 WR",7,"3 DL, 3 LB, 5 DB",left,2019-09-10T01:12:11.000Z,2019-09-10T01:12:10.000Z,6-5,250,05/21/1990,Idaho State,TE,NO,HOU,1,Mercedes-Benz Superdome,"New Orleans, La.",Indoors,UBU-Speed Series-S5-M,Partly Cloudy,91.0,59,9,SE
13458,2019090900,20190909002714,home,67.17,22.58,0.94,0.95,0.1,265.28,317.02,2552455,Andrus Peat,75,2019,43,3,07:03:00,NO,2,3,NO,10,21,2541161,SINGLEBACK,"2 QB, 1 RB, 1 TE, 2 WR",7,"3 DL, 3 LB, 5 DB",left,2019-09-10T01:12:11.000Z,2019-09-10T01:12:10.000Z,6-7,316,11/04/1993,Stanford,T,NO,HOU,1,Mercedes-Benz Superdome,"New Orleans, La.",Indoors,UBU-Speed Series-S5-M,Partly Cloudy,91.0,59,9,SE
13459,2019090900,20190909002714,home,64.77,15.88,5.0,2.04,0.49,307.49,302.1,2556370,Michael Thomas,13,2019,43,3,07:03:00,NO,2,3,NO,10,21,2541161,SINGLEBACK,"2 QB, 1 RB, 1 TE, 2 WR",7,"3 DL, 3 LB, 5 DB",left,2019-09-10T01:12:11.000Z,2019-09-10T01:12:10.000Z,6-3,212,03/03/1993,Ohio State,WR,NO,HOU,1,Mercedes-Benz Superdome,"New Orleans, La.",Indoors,UBU-Speed Series-S5-M,Partly Cloudy,91.0,59,9,SE
13460,2019090900,20190909002714,home,67.65,27.88,1.53,0.7,0.16,248.54,315.53,2557959,Ryan Ramczyk,71,2019,43,3,07:03:00,NO,2,3,NO,10,21,2541161,SINGLEBACK,"2 QB, 1 RB, 1 TE, 2 WR",7,"3 DL, 3 LB, 5 DB",left,2019-09-10T01:12:11.000Z,2019-09-10T01:12:10.000Z,6-6,314,04/22/1994,Wisconsin,T,NO,HOU,1,Mercedes-Benz Superdome,"New Orleans, La.",Indoors,UBU-Speed Series-S5-M,Partly Cloudy,91.0,59,9,SE
13461,2019090900,20190909002714,home,68.93,25.42,5.81,1.21,0.58,207.73,197.42,2558954,Taysom Hill,7,2019,43,3,07:03:00,NO,2,3,NO,10,21,2541161,SINGLEBACK,"2 QB, 1 RB, 1 TE, 2 WR",7,"3 DL, 3 LB, 5 DB",left,2019-09-10T01:12:11.000Z,2019-09-10T01:12:10.000Z,6-2,221,08/23/1990,Brigham Young,QB,NO,HOU,1,Mercedes-Benz Superdome,"New Orleans, La.",Indoors,UBU-Speed Series-S5-M,Partly Cloudy,91.0,59,9,SE
13462,2019090900,20190909002714,home,66.84,31.84,3.33,0.89,0.34,191.65,247.79,2560878,Tre'Quan Smith,10,2019,43,3,07:03:00,NO,2,3,NO,10,21,2541161,SINGLEBACK,"2 QB, 1 RB, 1 TE, 2 WR",7,"3 DL, 3 LB, 5 DB",left,2019-09-10T01:12:11.000Z,2019-09-10T01:12:10.000Z,6-2,210,01/07/1996,Central Florida,WR,NO,HOU,1,Mercedes-Benz Superdome,"New Orleans, La.",Indoors,UBU-Speed Series-S5-M,Partly Cloudy,91.0,59,9,SE
13463,2019090900,20190909002714,home,67.0,25.34,1.07,1.33,0.1,249.97,336.55,2562683,Erik McCoy,78,2019,43,3,07:03:00,NO,2,3,NO,10,21,2541161,SINGLEBACK,"2 QB, 1 RB, 1 TE, 2 WR",7,"3 DL, 3 LB, 5 DB",left,2019-09-10T01:12:11.000Z,2019-09-10T01:12:10.000Z,6-4,315,08/27/1997,Texas A&M,C,NO,HOU,1,Mercedes-Benz Superdome,"New Orleans, La.",Indoors,UBU-Speed Series-S5-M,Partly Cloudy,91.0,59,9,SE
