,GameId,PlayId,Team,X,Y,S,A,Dis,Orientation,Dir,NflId,DisplayName,JerseyNumber,Season,YardLine,Quarter,GameClock,PossessionTeam,Down,Distance,FieldPosition,HomeScoreBeforePlay,VisitorScoreBeforePlay,NflIdRusher,OffenseFormation,OffensePersonnel,DefendersInTheBox,DefensePersonnel,PlayDirection,TimeHandoff,TimeSnap,PlayerHeight,PlayerWeight,PlayerBirthDate,PlayerCollegeName,Position,HomeTeamAbbr,VisitorTeamAbbr,Week,Stadium,Location,StadiumType,Turf,GameWeather,Temperature,Humidity,WindSpeed,WindDirection
15862,2019091500,20190915000509,away,59.82,30.14,1.24,0.48,0.13,128.25,25.17,496841,Corey Peters,98,2019,50,1,06:32:00,BLT,1,10,,7,0,2495466,PISTOL,"2 RB, 1 TE, 2 WR",8,"3 DL, 4 LB, 4 DB",left,2019-09-15T17:24:05.000Z,2019-09-15T17:24:04.000Z,6-3,335,06/08/1988,Kentucky,DT,BAL,ARI,2,M&T Stadium,"Baltimore, Maryland",Outdoor,Natural Grass,Sunny,82.0,60,8,NNW
15863,2019091500,20190915000509,away,61.82,34.14,3.17,1.17,0.31,158.38,90.8,2505660,Terrell Suggs,56,2019,50,1,06:32:00,BLT,1,10,,7,0,2495466,PISTOL,"2 RB, 1 TE, 2 WR",8,"3 DL, 4 LB, 4 DB",left,2019-09-15T17:24:05.000Z,2019-09-15T17:24:04.000Z,6-3,265,10/11/1982,Arizona State,OLB,BAL,ARI,2,M&T Stadium,"Baltimore, Maryland",Outdoor,Natural Grass,Sunny,82.0,60,8,NNW
15864,2019091500,20190915000509,away,58.38,45.53,3.04,2.04,0.29,113.83,332.53,2507917,Tramaine Brock,20,2019,50,1,06:32:00,BLT,1,10,,7,0,2495466,PISTOL,"2 RB, 1 TE, 2 WR",8,"3 DL, 4 LB, 4 DB",left,2019-09-15T17:24:05.000Z,2019-09-15T17:24:04.000Z,6-0,188,08/20/1988,Belhaven,CB,BAL,ARI,2,M&T Stadium,"Baltimore, Maryland",Outdoor,Natural Grass,Sunny,82.0,60,8,NNW
15865,2019091500,20190915000509,away,61.06,26.3,2.29,1.49,0.24,354.69,33.54,2533538,Chandler Jones,55,2019,50,1,06:32:00,BLT,1,10,,7,0,2495466,PISTOL,"2 RB, 1 TE, 2 WR",8,"3 DL, 4 LB, 4 DB",left,2019-09-15T17:24:05.000Z,2019-09-15T17:24:04.000Z,6-5,265,02/27/1990,Syracuse,OLB,BAL,ARI,2,M&T Stadium,"Baltimore, Maryland",Outdoor,Natural Grass,Sunny,82.0,60,8,NNW
15866,2019091500,20190915000509,away,40.21,29.46,1.1,0.51,0.11,150.45,274.22,2539943,D.J. Swearinger,36,2019,50,1,06:32:00,BLT,1,10,,7,0,2495466,PISTOL,"2 RB, 1 TE, 2 WR",8,"3 DL, 4 LB, 4 DB",left,2019-09-15T17:24:05.000Z,2019-09-15T17:24:04.000Z,5-10,205,09/01/1991,South Carolina,FS,BAL,ARI,2,M&T Stadium,"Baltimore, Maryland",Outdoor,Natural Grass,Sunny,82.0,60,8,NNW
15867,2019091500,20190915000509,away,56.57,29.88,2.95,1.92,0.29,109.47,144.69,2552315,Jordan Hicks,58,2019,50,1,06:32:00,BLT,1,10,,7,0,2495466,PISTOL,"2 RB, 1 TE, 2 WR",8,"3 DL, 4 LB, 4 DB",left,2019-09-15T17:24:05.000Z,2019-09-15T17:24:04.000Z,6-1,236,06/27/1992,Texas,MLB,BAL,ARI,2,M&T Stadium,"Baltimore, Maryland",Outdoor,Natural Grass,Sunny,82.0,60,8,NNW
15868,2019091500,20190915000509,away,60.19,32.23,0.46,1.04,0.05,148.02,161.55,2553437,Rodney Gunter,95,2019,50,1,06:32:00,BLT,1,10,,7,0,2495466,PISTOL,"2 RB, 1 TE, 2 WR",8,"3 DL, 4 LB, 4 DB",left,2019-09-15T17:24:05.000Z,2019-09-15T17:24:04.000Z,6-5,305,01/19/1992,Delaware State,DT,BAL,ARI,2,M&T Stadium,"Baltimore, Maryland",Outdoor,Natural Grass,Sunny,82.0,60,8,NNW
15869,2019091500,20190915000509,away,56.94,33.79,2.63,1.12,0.25,107.0,119.39,2556192,Joe Walker,59,2019,50,1,06:32:00,BLT,1,10,,7,0,2495466,PISTOL,"2 RB, 1 TE, 2 WR",8,"3 DL, 4 LB, 4 DB",left,2019-09-15T17:24:05.000Z,2019-09-15T17:24:04.000Z,6-2,236,12/11/1992,Oregon,MLB,BAL,ARI,2,M&T Stadium,"Baltimore, Maryland",Outdoor,Natural Grass,Sunny,82.0,60,8,NNW
15870,2019091500,20190915000509,away,56.9,28.03,3.53,1.88,0.34,321.84,112.28,2557887,Haason Reddick,43,2019,50,1,06:32:00,BLT,1,10,,7,0,2495466,PISTOL,"2 RB, 1 TE, 2 WR",8,"3 DL, 4 LB, 4 DB",left,2019-09-15T17:24:05.000Z,2019-09-15T17:24:04.000Z,6-1,235,09/22/1994,Temple,ILB,BAL,ARI,2,M&T Stadium,"Baltimore, Maryland",Outdoor,Natural Grass,Sunny,82.0,60,8,NNW
15871,2019091500,20190915000509,away,55.8,24.55,1.97,1.64,0.19,184.2,149.09,2558009,Budda Baker,32,2019,50,1,06:32:00,BLT,1,10,,7,0,2495466,PISTOL,"2 RB, 1 TE, 2 WR",8,"3 DL, 4 LB, 4 DB",left,2019-09-15T17:24:05.000Z,2019-09-15T17:24:04.000Z,5-10,195,01/10/1996,Washington,FS,BAL,ARI,2,M&T Stadium,"Baltimore, Maryland",Outdoor,Natural Grass,Sunny,82.0,60,8,NNW
15872,2019091500,20190915000509,away,58.49,8.03,3.57,4.14,0.33,151.76,213.0,2562318,Byron Murphy,33,2019,50,1,06:32:00,BLT,1,10,,7,0,2495466,PISTOL,"2 RB, 1 TE, 2 WR",8,"3 DL, 4 LB, 4 DB",left,2019-09-15T17:24:05.000Z,2019-09-15T17:24:04.000Z,5-11,190,01/18/1998,Washington,DB,BAL,ARI,2,M&T Stadium,"Baltimore, Maryland",Outdoor,Natural Grass,Sunny,82.0,60,8,NNW
15873,2019091500,20190915000509,home,65.46,29.65,3.64,2.47,0.36,342.98,263.05,2495466,Mark Ingram,21,2019,50,1,06:32:00,BLT,1,10,,7,0,2495466,PISTOL,"2 RB, 1 TE, 2 WR",8,"3 DL, 4 LB, 4 DB",left,2019-09-15T17:24:05.000Z,2019-09-15T17:24:04.000Z,5-9,215,12/21/1989,Alabama,RB,BAL,ARI,2,M&T Stadium,"Baltimore, Maryland",Outdoor,Natural Grass,Sunny,82.0,60,8,NNW
15874,2019091500,20190915000509,home,61.26,32.31,0.27,1.23,0.04,3.12,135.49,2507188,Marshal Yanda,73,2019,50,1,06:32:00,BLT,1,10,,7,0,2495466,PISTOL,"2 RB, 1 TE, 2 WR",8,"3 DL, 4 LB, 4 DB",left,2019-09-15T17:24:05.000Z,2019-09-15T17:24:04.000Z,6-3,305,09/15/1984,Iowa,G,BAL,ARI,2,M&T Stadium,"Baltimore, Maryland",Outdoor,Natural Grass,Sunny,82.0,60,8,NNW
15875,2019091500,20190915000509,home,59.57,45.55,3.11,1.89,0.32,299.35,306.62,2550256,Willie Snead,83,2019,50,1,06:32:00,BLT,1,10,,7,0,2495466,PISTOL,"2 RB, 1 TE, 2 WR",8,"3 DL, 4 LB, 4 DB",left,2019-09-15T17:24:05.000Z,2019-09-15T17:24:04.000Z,5-11,205,10/17/1992,Ball State,WR,BAL,ARI,2,M&T Stadium,"Baltimore, Maryland",Outdoor,Natural Grass,Sunny,82.0,60,8,NNW
15876,2019091500,20190915000509,home,59.94,7.46,3.9,2.87,0.38,207.91,215.31,2550597,Seth Roberts,11,2019,50,1,06:32:00,BLT,1,10,,7,0,2495466,PISTOL,"2 RB, 1 TE, 2 WR",8,"3 DL, 4 LB, 4 DB",left,2019-09-15T17:24:05.000Z,2019-09-15T17:24:04.000Z,6-2,195,02/22/1991,West Alabama,WR,BAL,ARI,2,M&T Stadium,"Baltimore, Maryland",Outdoor,Natural Grass,Sunny,82.0,60,8,NNW
15877,2019091500,20190915000509,home,62.05,29.66,4.41,1.4,0.44,187.93,226.49,2552402,Nick Boyle,86,2019,50,1,06:32:00,BLT,1,10,,7,0,2495466,PISTOL,"2 RB, 1 TE, 2 WR",8,"3 DL, 4 LB, 4 DB",left,2019-09-15T17:24:05.000Z,2019-09-15T17:24:04.000Z,6-4,270,02/17/1993,Delaware,TE,BAL,ARI,2,M&T Stadium,"Baltimore, Maryland",Outdoor,Natural Grass,Sunny,82.0,60,8,NNW
15878,2019091500,20190915000509,home,59.54,28.38,2.52,1.21,0.25,318.26,297.5,2555204,Ronnie Stanley,79,2019,50,1,06:32:00,BLT,1,10,,7,0,2495466,PISTOL,"2 RB, 1 TE, 2 WR",8,"3 DL, 4 LB, 4 DB",left,2019-09-15T17:24:05.000Z,2019-09-15T17:24:04.000Z,6-6,315,03/18/1994,Notre Dame,T,BAL,ARI,2,M&T Stadium,"Baltimore, Maryland",Outdoor,Natural Grass,Sunny,82.0,60,8,NNW
15879,2019091500,20190915000509,home,59.29,31.8,2.37,1.21,0.25,336.21,302.15,2556683,Matt Skura,68,2019,50,1,06:32:00,BLT,1,10,,7,0,2495466,PISTOL,"2 RB, 1 TE, 2 WR",8,"3 DL, 4 LB, 4 DB",left,2019-09-15T17:24:05.000Z,2019-09-15T17:24:04.000Z,6-3,313,02/17/1993,Duke,C,BAL,ARI,2,M&T Stadium,"Baltimore, Maryland",Outdoor,Natural Grass,Sunny,82.0,60,8,NNW
15880,2019091500,20190915000509,home,63.49,24.76,4.7,2.45,0.46,213.84,224.34,2558990,Patrick Ricard,42,2019,50,1,06:32:00,BLT,1,10,,7,0,2495466,PISTOL,"2 RB, 1 TE, 2 WR",8,"3 DL, 4 LB, 4 DB",left,2019-09-15T17:24:05.000Z,2019-09-15T17:24:04.000Z,6-3,311,05/27/1994,Maine,FB,BAL,ARI,2,M&T Stadium,"Baltimore, Maryland",Outdoor,Natural Grass,Sunny,82.0,60,8,NNW
15881,2019091500,20190915000509,home,60.72,29.89,0.8,1.25,0.07,0.38,331.85,2559827,Bradley Bozeman,77,2019,50,1,06:32:00,BLT,1,10,,7,0,2495466,PISTOL,"2 RB, 1 TE, 2 WR",8,"3 DL, 4 LB, 4 DB",left,2019-09-15T17:24:05.000Z,2019-09-15T17:24:04.000Z,6-3,317,11/24/1994,Alabama,C,BAL,ARI,2,M&T Stadium,"Baltimore, Maryland",Outdoor,Natural Grass,Sunny,82.0,60,8,NNW
15882,2019091500,20190915000509,home,65.05,30.02,0.63,1.7,0.08,194.59,197.37,2560757,Lamar Jackson,8,2019,50,1,06:32:00,BLT,1,10,,7,0,2495466,PISTOL,"2 RB, 1 TE, 2 WR",8,"3 DL, 4 LB, 4 DB",left,2019-09-15T17:24:05.000Z,2019-09-15T17:24:04.000Z,6-2,212,01/07/1997,Louisville,QB,BAL,ARI,2,M&T Stadium,"Baltimore, Maryland",Outdoor,Natural Grass,Sunny,82.0,60,8,NNW
15883,2019091500,20190915000509,home,62.26,33.27,1.23,1.56,0.11,354.18,92.7,2560981,Orlando Brown,78,2019,50,1,06:32:00,BLT,1,10,,7,0,2495466,PISTOL,"2 RB, 1 TE, 2 WR",8,"3 DL, 4 LB, 4 DB",left,2019-09-15T17:24:05.000Z,2019-09-15T17:24:04.000Z,6-8,345,05/02/1996,Oklahoma,T,BAL,ARI,2,M&T Stadium,"Baltimore, Maryland",Outdoor,Natural Grass,Sunny,82.0,60,8,NNW
