,GameId,PlayId,Team,X,Y,S,A,Dis,Orientation,Dir,NflId,DisplayName,JerseyNumber,Season,YardLine,Quarter,GameClock,PossessionTeam,Down,Distance,FieldPosition,HomeScoreBeforePlay,VisitorScoreBeforePlay,NflIdRusher,OffenseFormation,OffensePersonnel,DefendersInTheBox,DefensePersonnel,PlayDirection,TimeHandoff,TimeSnap,PlayerHeight,PlayerWeight,PlayerBirthDate,PlayerCollegeName,Position,HomeTeamAbbr,VisitorTeamAbbr,Week,Stadium,Location,StadiumType,Turf,GameWeather,Temperature,Humidity,WindSpeed,WindDirection
20702,2019091504,20190915043493,away,78.23,28.17,1.88,1.27,0.19,181.63,178.89,2543729,Brandon Linder,65,2019,32,4,03:36:00,JAX,1,10,JAX,13,6,2557973,WILDCAT,"1 RB, 1 TE, 3 WR",6,"3 DL, 3 LB, 5 DB",left,2019-09-15T19:41:56.000Z,2019-09-15T19:41:54.000Z,6-6,315,01/25/1992,Miami,C,HOU,JAX,2,NRG Stadium,"Houston, TX",Retractable Roof,Artifical,Sunny,89.0,52,10mph,North East
20703,2019091504,20190915043493,away,79.6,29.81,3.07,1.61,0.31,282.9,3.16,2550589,Andrew Norwell,68,2019,32,4,03:36:00,JAX,1,10,JAX,13,6,2557973,WILDCAT,"1 RB, 1 TE, 3 WR",6,"3 DL, 3 LB, 5 DB",left,2019-09-15T19:41:56.000Z,2019-09-15T19:41:54.000Z,6-6,325,10/25/1991,Ohio State,G,HOU,JAX,2,NRG Stadium,"Houston, TX",Retractable Roof,Artifical,Sunny,89.0,52,10mph,North East
20704,2019091504,20190915043493,away,78.3,31.18,1.19,0.47,0.12,266.2,247.7,2552330,A.J. Cann,60,2019,32,4,03:36:00,JAX,1,10,JAX,13,6,2557973,WILDCAT,"1 RB, 1 TE, 3 WR",6,"3 DL, 3 LB, 5 DB",left,2019-09-15T19:41:56.000Z,2019-09-15T19:41:54.000Z,6-3,325,10/23/1991,South Carolina,G,HOU,JAX,2,NRG Stadium,"Houston, TX",Retractable Roof,Artifical,Sunny,89.0,52,10mph,North East
20705,2019091504,20190915043493,away,77.85,10.39,1.51,1.29,0.14,287.48,263.03,2552652,Chris Conley,18,2019,32,4,03:36:00,JAX,1,10,JAX,13,6,2557973,WILDCAT,"1 RB, 1 TE, 3 WR",6,"3 DL, 3 LB, 5 DB",left,2019-09-15T19:41:56.000Z,2019-09-15T19:41:54.000Z,6-3,205,10/25/1992,Georgia,WR,HOU,JAX,2,NRG Stadium,"Houston, TX",Retractable Roof,Artifical,Sunny,89.0,52,10mph,North East
20706,2019091504,20190915043493,away,79.1,35.15,0.27,2.0,0.03,345.34,82.16,2553318,James O'Shaughnessy,80,2019,32,4,03:36:00,JAX,1,10,JAX,13,6,2557973,WILDCAT,"1 RB, 1 TE, 3 WR",6,"3 DL, 3 LB, 5 DB",left,2019-09-15T19:41:56.000Z,2019-09-15T19:41:54.000Z,6-4,245,01/14/1992,Illinois State,TE,HOU,JAX,2,NRG Stadium,"Houston, TX",Retractable Roof,Artifical,Sunny,89.0,52,10mph,North East
20707,2019091504,20190915043493,away,80.09,17.52,3.28,2.61,0.31,283.84,166.04,2557895,Dede Westbrook,12,2019,32,4,03:36:00,JAX,1,10,JAX,13,6,2557973,WILDCAT,"1 RB, 1 TE, 3 WR",6,"3 DL, 3 LB, 5 DB",left,2019-09-15T19:41:56.000Z,2019-09-15T19:41:54.000Z,6-0,176,11/21/1993,Oklahoma,WR,HOU,JAX,2,NRG Stadium,"Houston, TX",Retractable Roof,Artifical,Sunny,89.0,52,10mph,North East
20708,2019091504,20190915043493,away,82.45,28.72,3.72,2.89,0.36,289.48,314.86,2557973,Leonard Fournette,27,2019,32,4,03:36:00,JAX,1,10,JAX,13,6,2557973,WILDCAT,"1 RB, 1 TE, 3 WR",6,"3 DL, 3 LB, 5 DB",left,2019-09-15T19:41:56.000Z,2019-09-15T19:41:54.000Z,6-0,228,01/18/1995,Louisiana State,RB,HOU,JAX,2,NRG Stadium,"Houston, TX",Retractable Roof,Artifical,Sunny,89.0,52,10mph,North East
20709,2019091504,20190915043493,away,80.17,26.69,1.58,0.56,0.15,211.52,99.25,2560853,Will Richardson,76,2019,32,4,03:36:00,JAX,1,10,JAX,13,6,2557973,WILDCAT,"1 RB, 1 TE, 3 WR",6,"3 DL, 3 LB, 5 DB",left,2019-09-15T19:41:56.000Z,2019-09-15T19:41:54.000Z,6-6,303,01/04/1996,North Carolina State,T,HOU,JAX,2,NRG Stadium,"Houston, TX",Retractable Roof,Artifical,Sunny,89.0,52,10mph,North East
20710,2019091504,20190915043493,away,79.25,37.03,3.34,2.64,0.33,258.75,234.39,2561018,D.J. Chark,17,2019,32,4,03:36:00,JAX,1,10,JAX,13,6,2557973,WILDCAT,"1 RB, 1 TE, 3 WR",6,"3 DL, 3 LB, 5 DB",left,2019-09-15T19:41:56.000Z,2019-09-15T19:41:54.000Z,6-4,198,09/23/1996,Louisiana State,WR,HOU,JAX,2,NRG Stadium,"Houston, TX",Retractable Roof,Artifical,Sunny,89.0,52,10mph,North East
20711,2019091504,20190915043493,away,78.33,32.1,1.58,0.79,0.16,247.34,241.68,2562756,Jawaan Taylor,75,2019,32,4,03:36:00,JAX,1,10,JAX,13,6,2557973,WILDCAT,"1 RB, 1 TE, 3 WR",6,"3 DL, 3 LB, 5 DB",left,2019-09-15T19:41:56.000Z,2019-09-15T19:41:54.000Z,6-5,312,11/25/1997,Florida,T,HOU,JAX,2,NRG Stadium,"Houston, TX",Retractable Roof,Artifical,Sunny,89.0,52,10mph,North East
20712,2019091504,20190915043493,away,82.85,29.93,0.51,1.84,0.05,252.5,143.25,2562796,Gardner Minshew,15,2019,32,4,03:36:00,JAX,1,10,JAX,13,6,2557973,WILDCAT,"1 RB, 1 TE, 3 WR",6,"3 DL, 3 LB, 5 DB",left,2019-09-15T19:41:56.000Z,2019-09-15T19:41:54.000Z,6-1,225,05/16/1996,Washington State,QB,HOU,JAX,2,NRG Stadium,"Houston, TX",Retractable Roof,Artifical,Sunny,89.0,52,10mph,North East
20713,2019091504,20190915043493,home,78.84,36.15,2.07,1.63,0.21,142.09,117.11,2495488,J.J. Watt,99,2019,32,4,03:36:00,JAX,1,10,JAX,13,6,2557973,WILDCAT,"1 RB, 1 TE, 3 WR",6,"3 DL, 3 LB, 5 DB",left,2019-09-15T19:41:56.000Z,2019-09-15T19:41:54.000Z,6-5,288,03/22/1989,Wisconsin,DE,HOU,JAX,2,NRG Stadium,"Houston, TX",Retractable Roof,Artifical,Sunny,89.0,52,10mph,North East
20714,2019091504,20190915043493,home,70.25,40.27,1.73,2.18,0.17,136.79,155.73,2495872,Johnathan Joseph,24,2019,32,4,03:36:00,JAX,1,10,JAX,13,6,2557973,WILDCAT,"1 RB, 1 TE, 3 WR",6,"3 DL, 3 LB, 5 DB",left,2019-09-15T19:41:56.000Z,2019-09-15T19:41:54.000Z,5-11,185,04/16/1984,South Carolina,CB,HOU,JAX,2,NRG Stadium,"Houston, TX",Retractable Roof,Artifical,Sunny,89.0,52,10mph,North East
20715,2019091504,20190915043493,home,69.46,34.56,2.01,2.57,0.18,100.97,95.42,2532848,Tashaun Gipson,39,2019,32,4,03:36:00,JAX,1,10,JAX,13,6,2557973,WILDCAT,"1 RB, 1 TE, 3 WR",6,"3 DL, 3 LB, 5 DB",left,2019-09-15T19:41:56.000Z,2019-09-15T19:41:54.000Z,6-1,212,08/07/1990,Wyoming,FS,HOU,JAX,2,NRG Stadium,"Houston, TX",Retractable Roof,Artifical,Sunny,89.0,52,10mph,North East
20716,2019091504,20190915043493,home,79.06,24.43,2.42,0.85,0.24,57.78,83.69,2533049,Whitney Mercilus,59,2019,32,4,03:36:00,JAX,1,10,JAX,13,6,2557973,WILDCAT,"1 RB, 1 TE, 3 WR",6,"3 DL, 3 LB, 5 DB",left,2019-09-15T19:41:56.000Z,2019-09-15T19:41:54.000Z,6-4,258,07/21/1990,Illinois,OLB,HOU,JAX,2,NRG Stadium,"Houston, TX",Retractable Roof,Artifical,Sunny,89.0,52,10mph,North East
20717,2019091504,20190915043493,home,73.37,21.79,0.72,0.81,0.07,83.54,110.86,2543505,Bradley Roby,21,2019,32,4,03:36:00,JAX,1,10,JAX,13,6,2557973,WILDCAT,"1 RB, 1 TE, 3 WR",6,"3 DL, 3 LB, 5 DB",left,2019-09-15T19:41:56.000Z,2019-09-15T19:41:54.000Z,5-11,194,05/01/1992,Ohio State,CB,HOU,JAX,2,NRG Stadium,"Houston, TX",Retractable Roof,Artifical,Sunny,89.0,52,10mph,North East
20718,2019091504,20190915043493,home,73.95,29.86,1.95,2.3,0.18,73.02,18.72,2552490,Benardrick McKinney,55,2019,32,4,03:36:00,JAX,1,10,JAX,13,6,2557973,WILDCAT,"1 RB, 1 TE, 3 WR",6,"3 DL, 3 LB, 5 DB",left,2019-09-15T19:41:56.000Z,2019-09-15T19:41:54.000Z,6-4,257,11/19/1992,Mississippi State,ILB,HOU,JAX,2,NRG Stadium,"Houston, TX",Retractable Roof,Artifical,Sunny,89.0,52,10mph,North East
20719,2019091504,20190915043493,home,78.01,27.24,1.77,1.11,0.18,42.43,143.26,2555388,D.J. Reader,98,2019,32,4,03:36:00,JAX,1,10,JAX,13,6,2557973,WILDCAT,"1 RB, 1 TE, 3 WR",6,"3 DL, 3 LB, 5 DB",left,2019-09-15T19:41:56.000Z,2019-09-15T19:41:54.000Z,6-3,347,07/01/1994,Clemson,DT,HOU,JAX,2,NRG Stadium,"Houston, TX",Retractable Roof,Artifical,Sunny,89.0,52,10mph,North East
20720,2019091504,20190915043493,home,75.31,32.67,2.66,2.76,0.25,93.54,78.73,2558094,Zach Cunningham,41,2019,32,4,03:36:00,JAX,1,10,JAX,13,6,2557973,WILDCAT,"1 RB, 1 TE, 3 WR",6,"3 DL, 3 LB, 5 DB",left,2019-09-15T19:41:56.000Z,2019-09-15T19:41:54.000Z,6-3,238,12/12/1994,Vanderbilt,ILB,HOU,JAX,2,NRG Stadium,"Houston, TX",Retractable Roof,Artifical,Sunny,89.0,52,10mph,North East
20721,2019091504,20190915043493,home,66.25,20.25,1.38,2.15,0.13,82.87,168.18,2560851,Justin Reid,20,2019,32,4,03:36:00,JAX,1,10,JAX,13,6,2557973,WILDCAT,"1 RB, 1 TE, 3 WR",6,"3 DL, 3 LB, 5 DB",left,2019-09-15T19:41:56.000Z,2019-09-15T19:41:54.000Z,6-1,204,02/15/1997,Stanford,SS,HOU,JAX,2,NRG Stadium,"Houston, TX",Retractable Roof,Artifical,Sunny,89.0,52,10mph,North East
20722,2019091504,20190915043493,home,69.8,10.7,2.48,4.34,0.22,76.75,130.55,2562295,Lonnie Johnson,32,2019,32,4,03:36:00,JAX,1,10,JAX,13,6,2557973,WILDCAT,"1 RB, 1 TE, 3 WR",6,"3 DL, 3 LB, 5 DB",left,2019-09-15T19:41:56.000Z,2019-09-15T19:41:54.000Z,6-2,213,11/04/1995,Kentucky,DB,HOU,JAX,2,NRG Stadium,"Houston, TX",Retractable Roof,Artifical,Sunny,89.0,52,10mph,North East
20723,2019091504,20190915043493,home,77.58,31.59,1.34,2.38,0.13,111.29,209.25,2562324,Charles Omenihu,94,2019,32,4,03:36:00,JAX,1,10,JAX,13,6,2557973,WILDCAT,"1 RB, 1 TE, 3 WR",6,"3 DL, 3 LB, 5 DB",left,2019-09-15T19:41:56.000Z,2019-09-15T19:41:54.000Z,6-5,280,08/20/1997,Texas,DE,HOU,JAX,2,NRG Stadium,"Houston, TX",Retractable Roof,Artifical,Sunny,89.0,52,10mph,North East
