,GameId,PlayId,Team,X,Y,S,A,Dis,Orientation,Dir,NflId,DisplayName,JerseyNumber,Season,YardLine,Quarter,GameClock,PossessionTeam,Down,Distance,FieldPosition,HomeScoreBeforePlay,VisitorScoreBeforePlay,NflIdRusher,OffenseFormation,OffensePersonnel,DefendersInTheBox,DefensePersonnel,PlayDirection,TimeHandoff,TimeSnap,PlayerHeight,PlayerWeight,PlayerBirthDate,PlayerCollegeName,Position,HomeTeamAbbr,VisitorTeamAbbr,Week,Stadium,Location,StadiumType,Turf,GameWeather,Temperature,Humidity,WindSpeed,WindDirection
46266,2019092600,20190926001625,away,100.25,29.85,1.06,0.96,0.11,154.02,286.73,2495298,Jason Kelce,62,2019,9,2,04:00:00,PHI,2,5,GB,13,7,2562722,SINGLEBACK,"1 RB, 2 TE, 2 WR",6,"3 DL, 3 LB, 5 DB",right,2019-09-27T01:38:06.000Z,2019-09-27T01:38:05.000Z,6-3,295,11/05/1987,Cincinnati,C,GB,PHI,4,Lambeau Field,"Green Bay, WI",Outdoor,SISGrass,Cloudy,60.0,62,3,S
46267,2019092600,20190926001625,away,101.0,34.79,4.06,2.41,0.39,43.45,32.62,2505827,Jason Peters,71,2019,9,2,04:00:00,PHI,2,5,GB,13,7,2562722,SINGLEBACK,"1 RB, 2 TE, 2 WR",6,"3 DL, 3 LB, 5 DB",right,2019-09-27T01:38:06.000Z,2019-09-27T01:38:05.000Z,6-4,328,01/22/1982,Arkansas,OT,GB,PHI,4,Lambeau Field,"Green Bay, WI",Outdoor,SISGrass,Cloudy,60.0,62,3,S
46268,2019092600,20190926001625,away,101.71,11.19,2.68,2.0,0.26,65.85,52.97,2533039,Alshon Jeffery,17,2019,9,2,04:00:00,PHI,2,5,GB,13,7,2562722,SINGLEBACK,"1 RB, 2 TE, 2 WR",6,"3 DL, 3 LB, 5 DB",right,2019-09-27T01:38:06.000Z,2019-09-27T01:38:05.000Z,6-3,218,02/14/1990,South Carolina,WR,GB,PHI,4,Lambeau Field,"Green Bay, WI",Outdoor,SISGrass,Cloudy,60.0,62,3,S
46269,2019092600,20190926001625,away,100.21,27.64,0.73,0.02,0.07,146.46,154.14,2534434,Brandon Brooks,79,2019,9,2,04:00:00,PHI,2,5,GB,13,7,2562722,SINGLEBACK,"1 RB, 2 TE, 2 WR",6,"3 DL, 3 LB, 5 DB",right,2019-09-27T01:38:06.000Z,2019-09-27T01:38:05.000Z,6-5,335,08/19/1989,"Miami, O.",G,GB,PHI,4,Lambeau Field,"Green Bay, WI",Outdoor,SISGrass,Cloudy,60.0,62,3,S
46270,2019092600,20190926001625,away,99.11,25.41,1.51,0.2,0.15,191.65,207.72,2539286,Lane Johnson,65,2019,9,2,04:00:00,PHI,2,5,GB,13,7,2562722,SINGLEBACK,"1 RB, 2 TE, 2 WR",6,"3 DL, 3 LB, 5 DB",right,2019-09-27T01:38:06.000Z,2019-09-27T01:38:05.000Z,6-6,317,05/08/1990,Oklahoma,T,GB,PHI,4,Lambeau Field,"Green Bay, WI",Outdoor,SISGrass,Cloudy,60.0,62,3,S
46271,2019092600,20190926001625,away,100.25,35.98,1.5,1.64,0.16,17.47,13.21,2540158,Zach Ertz,86,2019,9,2,04:00:00,PHI,2,5,GB,13,7,2562722,SINGLEBACK,"1 RB, 2 TE, 2 WR",6,"3 DL, 3 LB, 5 DB",right,2019-09-27T01:38:06.000Z,2019-09-27T01:38:05.000Z,6-5,250,11/10/1990,Stanford,TE,GB,PHI,4,Lambeau Field,"Green Bay, WI",Outdoor,SISGrass,Cloudy,60.0,62,3,S
46272,2019092600,20190926001625,away,101.31,17.21,3.54,3.08,0.35,116.33,119.91,2552600,Nelson Agholor,13,2019,9,2,04:00:00,PHI,2,5,GB,13,7,2562722,SINGLEBACK,"1 RB, 2 TE, 2 WR",6,"3 DL, 3 LB, 5 DB",right,2019-09-27T01:38:06.000Z,2019-09-27T01:38:05.000Z,6-0,198,05/24/1993,Southern California,WR,GB,PHI,4,Lambeau Field,"Green Bay, WI",Outdoor,SISGrass,Cloudy,60.0,62,3,S
46273,2019092600,20190926001625,away,96.76,30.16,4.03,1.22,0.4,300.56,276.3,2555259,Carson Wentz,11,2019,9,2,04:00:00,PHI,2,5,GB,13,7,2562722,SINGLEBACK,"1 RB, 2 TE, 2 WR",6,"3 DL, 3 LB, 5 DB",right,2019-09-27T01:38:06.000Z,2019-09-27T01:38:05.000Z,6-5,237,12/30/1992,North Dakota State,QB,GB,PHI,4,Lambeau Field,"Green Bay, WI",Outdoor,SISGrass,Cloudy,60.0,62,3,S
46274,2019092600,20190926001625,away,101.88,30.21,2.17,1.78,0.22,86.22,92.95,2555495,Isaac Seumalo,73,2019,9,2,04:00:00,PHI,2,5,GB,13,7,2562722,SINGLEBACK,"1 RB, 2 TE, 2 WR",6,"3 DL, 3 LB, 5 DB",right,2019-09-27T01:38:06.000Z,2019-09-27T01:38:05.000Z,6-4,303,10/29/1993,Oregon State,G,GB,PHI,4,Lambeau Field,"Green Bay, WI",Outdoor,SISGrass,Cloudy,60.0,62,3,S
46275,2019092600,20190926001625,away,99.77,33.16,2.33,1.82,0.23,89.23,119.48,2560995,Dallas Goedert,88,2019,9,2,04:00:00,PHI,2,5,GB,13,7,2562722,SINGLEBACK,"1 RB, 2 TE, 2 WR",6,"3 DL, 3 LB, 5 DB",right,2019-09-27T01:38:06.000Z,2019-09-27T01:38:05.000Z,6-5,256,01/03/1995,South Dakota State,TE,GB,PHI,4,Lambeau Field,"Green Bay, WI",Outdoor,SISGrass,Cloudy,60.0,62,3,S
46276,2019092600,20190926001625,away,96.07,30.76,4.0,3.28,0.38,37.74,68.31,2562722,Miles Sanders,26,2019,9,2,04:00:00,PHI,2,5,GB,13,7,2562722,SINGLEBACK,"1 RB, 2 TE, 2 WR",6,"3 DL, 3 LB, 5 DB",right,2019-09-27T01:38:06.000Z,2019-09-27T01:38:05.000Z,5-11,211,05/01/1997,Penn State,RB,GB,PHI,4,Lambeau Field,"Green Bay, WI",Outdoor,SISGrass,Cloudy,60.0,62,3,S
46277,2019092600,20190926001625,home,100.99,36.7,1.14,1.88,0.12,254.71,322.39,2552276,Preston Smith,91,2019,9,2,04:00:00,PHI,2,5,GB,13,7,2562722,SINGLEBACK,"1 RB, 2 TE, 2 WR",6,"3 DL, 3 LB, 5 DB",right,2019-09-27T01:38:06.000Z,2019-09-27T01:38:05.000Z,6-5,265,11/17/1992,Mississippi State,OLB,GB,PHI,4,Lambeau Field,"Green Bay, WI",Outdoor,SISGrass,Cloudy,60.0,62,3,S
46278,2019092600,20190926001625,home,99.32,24.41,2.92,2.16,0.3,341.89,263.89,2552279,Za'Darius Smith,55,2019,9,2,04:00:00,PHI,2,5,GB,13,7,2562722,SINGLEBACK,"1 RB, 2 TE, 2 WR",6,"3 DL, 3 LB, 5 DB",right,2019-09-27T01:38:06.000Z,2019-09-27T01:38:05.000Z,6-4,272,09/08/1992,Kentucky,OLB,GB,PHI,4,Lambeau Field,"Green Bay, WI",Outdoor,SISGrass,Cloudy,60.0,62,3,S
46279,2019092600,20190926001625,home,102.32,36.18,2.49,1.22,0.25,251.73,351.07,2552385,Adrian Amos,31,2019,9,2,04:00:00,PHI,2,5,GB,13,7,2562722,SINGLEBACK,"1 RB, 2 TE, 2 WR",6,"3 DL, 3 LB, 5 DB",right,2019-09-27T01:38:06.000Z,2019-09-27T01:38:05.000Z,6-0,214,04/29/1993,Penn State,FS,GB,PHI,4,Lambeau Field,"Green Bay, WI",Outdoor,SISGrass,Cloudy,60.0,62,3,S
46280,2019092600,20190926001625,home,105.39,30.43,3.1,1.84,0.3,280.3,279.29,2555161,Blake Martinez,50,2019,9,2,04:00:00,PHI,2,5,GB,13,7,2562722,SINGLEBACK,"1 RB, 2 TE, 2 WR",6,"3 DL, 3 LB, 5 DB",right,2019-09-27T01:38:06.000Z,2019-09-27T01:38:05.000Z,6-2,237,01/09/1994,Stanford,ILB,GB,PHI,4,Lambeau Field,"Green Bay, WI",Outdoor,SISGrass,Cloudy,60.0,62,3,S
46281,2019092600,20190926001625,home,100.77,26.89,0.89,1.98,0.09,313.37,204.44,2555274,Dean Lowry,94,2019,9,2,04:00:00,PHI,2,5,GB,13,7,2562722,SINGLEBACK,"1 RB, 2 TE, 2 WR",6,"3 DL, 3 LB, 5 DB",right,2019-09-27T01:38:06.000Z,2019-09-27T01:38:05.000Z,6-6,296,06/09/1994,Northwestern,DE,GB,PHI,4,Lambeau Field,"Green Bay, WI",Outdoor,SISGrass,Cloudy,60.0,62,3,S
46282,2019092600,20190926001625,home,100.83,29.29,1.55,1.92,0.15,271.57,272.51,2555282,Kenny Clark,97,2019,9,2,04:00:00,PHI,2,5,GB,13,7,2562722,SINGLEBACK,"1 RB, 2 TE, 2 WR",6,"3 DL, 3 LB, 5 DB",right,2019-09-27T01:38:06.000Z,2019-09-27T01:38:05.000Z,6-3,314,10/04/1995,UCLA,NT,GB,PHI,4,Lambeau Field,"Green Bay, WI",Outdoor,SISGrass,Cloudy,60.0,62,3,S
46283,2019092600,20190926001625,home,110.28,27.96,1.58,1.49,0.14,258.38,182.01,2555545,Will Redmond,25,2019,9,2,04:00:00,PHI,2,5,GB,13,7,2562722,SINGLEBACK,"1 RB, 2 TE, 2 WR",6,"3 DL, 3 LB, 5 DB",right,2019-09-27T01:38:06.000Z,2019-09-27T01:38:05.000Z,5-11,186,12/28/1993,Mississippi State,CB,GB,PHI,4,Lambeau Field,"Green Bay, WI",Outdoor,SISGrass,Cloudy,60.0,62,3,S
46284,2019092600,20190926001625,home,102.74,10.99,1.65,3.43,0.15,283.94,60.8,2557996,Kevin King,20,2019,9,2,04:00:00,PHI,2,5,GB,13,7,2562722,SINGLEBACK,"1 RB, 2 TE, 2 WR",6,"3 DL, 3 LB, 5 DB",right,2019-09-27T01:38:06.000Z,2019-09-27T01:38:05.000Z,6-3,200,05/05/1995,Washington,CB,GB,PHI,4,Lambeau Field,"Green Bay, WI",Outdoor,SISGrass,Cloudy,60.0,62,3,S
46285,2019092600,20190926001625,home,103.48,16.65,1.93,1.85,0.18,279.69,94.18,2560952,Jaire Alexander,23,2019,9,2,04:00:00,PHI,2,5,GB,13,7,2562722,SINGLEBACK,"1 RB, 2 TE, 2 WR",6,"3 DL, 3 LB, 5 DB",right,2019-09-27T01:38:06.000Z,2019-09-27T01:38:05.000Z,5-10,196,02/09/1997,Louisville,CB,GB,PHI,4,Lambeau Field,"Green Bay, WI",Outdoor,SISGrass,Cloudy,60.0,62,3,S
46286,2019092600,20190926001625,home,101.15,32.13,1.18,1.58,0.1,284.12,286.38,2561227,Tyler Lancaster,95,2019,9,2,04:00:00,PHI,2,5,GB,13,7,2562722,SINGLEBACK,"1 RB, 2 TE, 2 WR",6,"3 DL, 3 LB, 5 DB",right,2019-09-27T01:38:06.000Z,2019-09-27T01:38:05.000Z,6-3,315,11/04/1994,Northwestern,DT,GB,PHI,4,Lambeau Field,"Green Bay, WI",Outdoor,SISGrass,Cloudy,60.0,62,3,S
46287,2019092600,20190926001625,home,104.29,35.5,1.33,2.3,0.13,216.46,223.64,2562724,Darnell Savage,26,2019,9,2,04:00:00,PHI,2,5,GB,13,7,2562722,SINGLEBACK,"1 RB, 2 TE, 2 WR",6,"3 DL, 3 LB, 5 DB",right,2019-09-27T01:38:06.000Z,2019-09-27T01:38:05.000Z,5-11,200,07/30/1997,Maryland,DB,GB,PHI,4,Lambeau Field,"Green Bay, WI",Outdoor,SISGrass,Cloudy,60.0,62,3,S
