,GameId,PlayId,Team,X,Y,S,A,Dis,Orientation,Dir,NflId,DisplayName,JerseyNumber,Season,YardLine,Quarter,GameClock,PossessionTeam,Down,Distance,FieldPosition,HomeScoreBeforePlay,VisitorScoreBeforePlay,NflIdRusher,OffenseFormation,OffensePersonnel,DefendersInTheBox,DefensePersonnel,PlayDirection,TimeHandoff,TimeSnap,PlayerHeight,PlayerWeight,PlayerBirthDate,PlayerCollegeName,Position,HomeTeamAbbr,VisitorTeamAbbr,Week,Stadium,Location,StadiumType,Turf,GameWeather,Temperature,Humidity,WindSpeed,WindDirection
71434,2019100609,20191006094372,away,66.15,35.2,1.27,0.94,0.13,250.43,52.33,89756,Jason McCourty,30,2019,47,4,01:15:00,WAS,1,10,NE,7,33,2555461,SHOTGUN,"1 RB, 0 TE, 4 WR",5,"4 DL, 1 LB, 6 DB",right,2019-10-06T20:09:46.000Z,2019-10-06T20:09:45.000Z,5-11,195,08/13/1987,Rutgers,CB,WAS,NE,5,FedExField,"Landover, MD",Outdoor,Grass,Cloudy,70.0,66,8,S
71435,2019100609,20191006094372,away,65.05,25.5,5.54,2.67,0.54,324.01,10.0,2533057,Dont'a Hightower,54,2019,47,4,01:15:00,WAS,1,10,NE,7,33,2555461,SHOTGUN,"1 RB, 0 TE, 4 WR",5,"4 DL, 1 LB, 6 DB",right,2019-10-06T20:09:46.000Z,2019-10-06T20:09:45.000Z,6-3,260,03/12/1990,Alabama,MLB,WAS,NE,5,FedExField,"Landover, MD",Outdoor,Grass,Cloudy,70.0,66,8,S
71436,2019100609,20191006094372,away,83.6,28.47,0.76,2.98,0.07,266.11,342.4,2541243,Duron Harmon,21,2019,47,4,01:15:00,WAS,1,10,NE,7,33,2555461,SHOTGUN,"1 RB, 0 TE, 4 WR",5,"4 DL, 1 LB, 6 DB",right,2019-10-06T20:09:46.000Z,2019-10-06T20:09:45.000Z,6-1,205,01/24/1991,Rutgers,FS,WAS,NE,5,FedExField,"Landover, MD",Outdoor,Grass,Cloudy,70.0,66,8,S
71437,2019100609,20191006094372,away,76.07,20.88,2.97,1.1,0.29,274.07,316.31,2543712,Terrence Brooks,25,2019,47,4,01:15:00,WAS,1,10,NE,7,33,2555461,SHOTGUN,"1 RB, 0 TE, 4 WR",5,"4 DL, 1 LB, 6 DB",right,2019-10-06T20:09:46.000Z,2019-10-06T20:09:45.000Z,5-11,205,03/02/1992,Florida State,SS,WAS,NE,5,FedExField,"Landover, MD",Outdoor,Grass,Cloudy,70.0,66,8,S
71438,2019100609,20191006094372,away,63.35,19.76,2.25,2.95,0.26,333.96,63.26,2555294,Shilique Calhoun,90,2019,47,4,01:15:00,WAS,1,10,NE,7,33,2555461,SHOTGUN,"1 RB, 0 TE, 4 WR",5,"4 DL, 1 LB, 6 DB",right,2019-10-06T20:09:46.000Z,2019-10-06T20:09:45.000Z,6-4,260,03/20/1992,Michigan State,DE,WAS,NE,5,FedExField,"Landover, MD",Outdoor,Grass,Cloudy,70.0,66,8,S
71439,2019100609,20191006094372,away,64.43,12.66,1.62,2.53,0.18,286.82,170.44,2556571,Jonathan Jones,31,2019,47,4,01:15:00,WAS,1,10,NE,7,33,2555461,SHOTGUN,"1 RB, 0 TE, 4 WR",5,"4 DL, 1 LB, 6 DB",right,2019-10-06T20:09:46.000Z,2019-10-06T20:09:45.000Z,5-10,190,09/20/1993,Auburn,CB,WAS,NE,5,FedExField,"Landover, MD",Outdoor,Grass,Cloudy,70.0,66,8,S
71440,2019100609,20191006094372,away,61.0,27.12,1.68,2.32,0.17,295.06,324.7,2558000,Deatrich Wise,91,2019,47,4,01:15:00,WAS,1,10,NE,7,33,2555461,SHOTGUN,"1 RB, 0 TE, 4 WR",5,"4 DL, 1 LB, 6 DB",right,2019-10-06T20:09:46.000Z,2019-10-06T20:09:45.000Z,6-5,275,07/26/1994,Arkansas,DE,WAS,NE,5,FedExField,"Landover, MD",Outdoor,Grass,Cloudy,70.0,66,8,S
71441,2019100609,20191006094372,away,63.55,26.86,3.66,0.55,0.39,276.62,2.47,2558924,Adam Butler,70,2019,47,4,01:15:00,WAS,1,10,NE,7,33,2555461,SHOTGUN,"1 RB, 0 TE, 4 WR",5,"4 DL, 1 LB, 6 DB",right,2019-10-06T20:09:46.000Z,2019-10-06T20:09:45.000Z,6-5,300,04/12/1994,Vanderbilt,DT,WAS,NE,5,FedExField,"Landover, MD",Outdoor,Grass,Cloudy,70.0,66,8,S
71442,2019100609,20191006094372,away,66.86,43.09,4.96,2.43,0.49,314.79,63.81,2560754,J.C. Jackson,27,2019,47,4,01:15:00,WAS,1,10,NE,7,33,2555461,SHOTGUN,"1 RB, 0 TE, 4 WR",5,"4 DL, 1 LB, 6 DB",right,2019-10-06T20:09:46.000Z,2019-10-06T20:09:45.000Z,6-1,198,11/17/1995,Maryland,DB,WAS,NE,5,FedExField,"Landover, MD",Outdoor,Grass,Cloudy,70.0,66,8,S
71443,2019100609,20191006094372,away,62.37,29.37,2.31,2.64,0.23,295.24,18.51,2562607,Chase Winovich,50,2019,47,4,01:15:00,WAS,1,10,NE,7,33,2555461,SHOTGUN,"1 RB, 0 TE, 4 WR",5,"4 DL, 1 LB, 6 DB",right,2019-10-06T20:09:46.000Z,2019-10-06T20:09:45.000Z,6-3,251,04/19/1995,Michigan,DE,WAS,NE,5,FedExField,"Landover, MD",Outdoor,Grass,Cloudy,70.0,66,8,S
71444,2019100609,20191006094372,away,64.97,8.22,2.88,1.57,0.28,237.94,94.61,2562787,Joejuan Williams,33,2019,47,4,01:15:00,WAS,1,10,NE,7,33,2555461,SHOTGUN,"1 RB, 0 TE, 4 WR",5,"4 DL, 1 LB, 6 DB",right,2019-10-06T20:09:46.000Z,2019-10-06T20:09:45.000Z,6-3,212,12/06/1997,Vanderbilt,CB,WAS,NE,5,FedExField,"Landover, MD",Outdoor,Grass,Cloudy,70.0,66,8,S
71445,2019100609,20191006094372,home,57.68,23.79,1.09,2.59,0.1,163.43,189.88,497123,Colt McCoy,12,2019,47,4,01:15:00,WAS,1,10,NE,7,33,2555461,SHOTGUN,"1 RB, 0 TE, 4 WR",5,"4 DL, 1 LB, 6 DB",right,2019-10-06T20:09:46.000Z,2019-10-06T20:09:45.000Z,6-1,212,09/05/1986,Texas,QB,WAS,NE,5,FedExField,"Landover, MD",Outdoor,Grass,Cloudy,70.0,66,8,S
71446,2019100609,20191006094372,home,63.01,27.22,2.85,0.52,0.28,59.17,2.08,2533010,Tony Bergstrom,66,2019,47,4,01:15:00,WAS,1,10,NE,7,33,2555461,SHOTGUN,"1 RB, 0 TE, 4 WR",5,"4 DL, 1 LB, 6 DB",right,2019-10-06T20:09:46.000Z,2019-10-06T20:09:45.000Z,6-5,310,08/06/1986,Utah,G,WAS,NE,5,FedExField,"Landover, MD",Outdoor,Grass,Cloudy,70.0,66,8,S
71447,2019100609,20191006094372,home,62.8,25.22,4.49,1.11,0.47,47.12,19.5,2543489,Morgan Moses,76,2019,47,4,01:15:00,WAS,1,10,NE,7,33,2555461,SHOTGUN,"1 RB, 0 TE, 4 WR",5,"4 DL, 1 LB, 6 DB",right,2019-10-06T20:09:46.000Z,2019-10-06T20:09:45.000Z,6-6,330,03/03/1991,Virginia,T,WAS,NE,5,FedExField,"Landover, MD",Outdoor,Grass,Cloudy,70.0,66,8,S
71448,2019100609,20191006094372,home,63.57,8.72,2.64,3.12,0.25,65.99,71.7,2543491,Paul Richardson,10,2019,47,4,01:15:00,WAS,1,10,NE,7,33,2555461,SHOTGUN,"1 RB, 0 TE, 4 WR",5,"4 DL, 1 LB, 6 DB",right,2019-10-06T20:09:46.000Z,2019-10-06T20:09:45.000Z,6-0,180,04/13/1992,Colorado,WR,WAS,NE,5,FedExField,"Landover, MD",Outdoor,Grass,Cloudy,70.0,66,8,S
71449,2019100609,20191006094372,home,60.47,27.78,1.58,1.83,0.17,143.01,313.36,2552452,Ereck Flowers,77,2019,47,4,01:15:00,WAS,1,10,NE,7,33,2555461,SHOTGUN,"1 RB, 0 TE, 4 WR",5,"4 DL, 1 LB, 6 DB",right,2019-10-06T20:09:46.000Z,2019-10-06T20:09:45.000Z,6-6,329,04/25/1994,Miami,T,WAS,NE,5,FedExField,"Landover, MD",Outdoor,Grass,Cloudy,70.0,66,8,S
71450,2019100609,20191006094372,home,58.26,26.36,6.21,1.28,0.61,11.44,359.69,2555461,Wendell Smallwood,34,2019,47,4,01:15:00,WAS,1,10,NE,7,33,2555461,SHOTGUN,"1 RB, 0 TE, 4 WR",5,"4 DL, 1 LB, 6 DB",right,2019-10-06T20:09:46.000Z,2019-10-06T20:09:45.000Z,5-10,208,01/20/1994,West Virginia,RB,WAS,NE,5,FedExField,"Landover, MD",Outdoor,Grass,Cloudy,70.0,66,8,S
71451,2019100609,20191006094372,home,60.36,11.36,4.98,1.31,0.5,70.89,191.89,2560847,Trey Quinn,18,2019,47,4,01:15:00,WAS,1,10,NE,7,33,2555461,SHOTGUN,"1 RB, 0 TE, 4 WR",5,"4 DL, 1 LB, 6 DB",right,2019-10-06T20:09:46.000Z,2019-10-06T20:09:45.000Z,6-0,202,12/07/1995,Southern Methodist,WR,WAS,NE,5,FedExField,"Landover, MD",Outdoor,Grass,Cloudy,70.0,66,8,S
71452,2019100609,20191006094372,home,61.4,29.91,1.84,0.73,0.2,101.88,2.62,2561019,Geron Christian,74,2019,47,4,01:15:00,WAS,1,10,NE,7,33,2555461,SHOTGUN,"1 RB, 0 TE, 4 WR",5,"4 DL, 1 LB, 6 DB",right,2019-10-06T20:09:46.000Z,2019-10-06T20:09:45.000Z,6-6,315,09/10/1996,Louisville,T,WAS,NE,5,FedExField,"Landover, MD",Outdoor,Grass,Cloudy,70.0,66,8,S
71453,2019100609,20191006094372,home,65.69,43.72,5.19,2.04,0.51,59.21,61.15,2562489,Terry McLaurin,17,2019,47,4,01:15:00,WAS,1,10,NE,7,33,2555461,SHOTGUN,"1 RB, 0 TE, 4 WR",5,"4 DL, 1 LB, 6 DB",right,2019-10-06T20:09:46.000Z,2019-10-06T20:09:45.000Z,6-0,210,09/15/1995,Ohio State,WR,WAS,NE,5,FedExField,"Landover, MD",Outdoor,Grass,Cloudy,70.0,66,8,S
71454,2019100609,20191006094372,home,62.26,26.48,4.0,1.74,0.41,49.9,16.82,2562916,Wes Martin,67,2019,47,4,01:15:00,WAS,1,10,NE,7,33,2555461,SHOTGUN,"1 RB, 0 TE, 4 WR",5,"4 DL, 1 LB, 6 DB",right,2019-10-06T20:09:46.000Z,2019-10-06T20:09:45.000Z,6-3,316,05/09/1996,Indiana,G,WAS,NE,5,FedExField,"Landover, MD",Outdoor,Grass,Cloudy,70.0,66,8,S
71455,2019100609,20191006094372,home,64.84,34.85,3.62,1.5,0.37,68.63,90.86,2563033,Steven Sims,15,2019,47,4,01:15:00,WAS,1,10,NE,7,33,2555461,SHOTGUN,"1 RB, 0 TE, 4 WR",5,"4 DL, 1 LB, 6 DB",right,2019-10-06T20:09:46.000Z,2019-10-06T20:09:45.000Z,5-10,176,03/31/1997,Kansas,WR,WAS,NE,5,FedExField,"Landover, MD",Outdoor,Grass,Cloudy,70.0,66,8,S
