,GameId,PlayId,Team,X,Y,S,A,Dis,Orientation,Dir,NflId,DisplayName,JerseyNumber,Season,YardLine,Quarter,GameClock,PossessionTeam,Down,Distance,FieldPosition,HomeScoreBeforePlay,VisitorScoreBeforePlay,NflIdRusher,OffenseFormation,OffensePersonnel,DefendersInTheBox,DefensePersonnel,PlayDirection,TimeHandoff,TimeSnap,PlayerHeight,PlayerWeight,PlayerBirthDate,PlayerCollegeName,Position,HomeTeamAbbr,VisitorTeamAbbr,Week,Stadium,Location,StadiumType,Turf,GameWeather,Temperature,Humidity,WindSpeed,WindDirection
71016,2019100609,20191006093030,away,63.13,22.21,4.05,0.8,0.41,72.26,39.67,238498,Julian Edelman,11,2019,48,3,06:06:00,NE,1,10,WAS,7,19,2532797,SINGLEBACK,"1 RB, 2 TE, 2 WR",7,"3 DL, 4 LB, 4 DB",right,2019-10-06T19:16:20.000Z,2019-10-06T19:16:19.000Z,5-10,200,05/22/1986,Kent State,WR,WAS,NE,5,FedExField,"Landover, MD",Outdoor,Grass,Cloudy,70.0,66,8,S
71017,2019100609,20191006093030,away,61.69,30.62,1.58,2.06,0.16,43.87,198.31,497030,Marshall Newhouse,72,2019,48,3,06:06:00,NE,1,10,WAS,7,19,2532797,SINGLEBACK,"1 RB, 2 TE, 2 WR",7,"3 DL, 4 LB, 4 DB",right,2019-10-06T19:16:20.000Z,2019-10-06T19:16:19.000Z,6-4,328,09/29/1988,Texas Christian,T,WAS,NE,5,FedExField,"Landover, MD",Outdoor,Grass,Cloudy,70.0,66,8,S
71018,2019100609,20191006093030,away,63.29,25.94,2.15,1.41,0.23,28.4,64.57,2495131,Marcus Cannon,61,2019,48,3,06:06:00,NE,1,10,WAS,7,19,2532797,SINGLEBACK,"1 RB, 2 TE, 2 WR",7,"3 DL, 4 LB, 4 DB",right,2019-10-06T19:16:20.000Z,2019-10-06T19:16:19.000Z,6-6,335,05/06/1988,Texas Christian,T,WAS,NE,5,FedExField,"Landover, MD",Outdoor,Grass,Cloudy,70.0,66,8,S
71019,2019100609,20191006093030,away,57.05,28.63,3.54,0.52,0.36,197.64,251.88,2504211,Tom Brady,12,2019,48,3,06:06:00,NE,1,10,WAS,7,19,2532797,SINGLEBACK,"1 RB, 2 TE, 2 WR",7,"3 DL, 4 LB, 4 DB",right,2019-10-06T19:16:20.000Z,2019-10-06T19:16:19.000Z,6-4,225,08/03/1977,Michigan,QB,WAS,NE,5,FedExField,"Landover, MD",Outdoor,Grass,Cloudy,70.0,66,8,S
71020,2019100609,20191006093030,away,58.49,27.6,5.31,2.08,0.53,83.68,107.85,2532797,Brandon Bolden,38,2019,48,3,06:06:00,NE,1,10,WAS,7,19,2532797,SINGLEBACK,"1 RB, 2 TE, 2 WR",7,"3 DL, 4 LB, 4 DB",right,2019-10-06T19:16:20.000Z,2019-10-06T19:16:19.000Z,5-11,220,01/26/1990,Mississippi,RB,WAS,NE,5,FedExField,"Landover, MD",Outdoor,Grass,Cloudy,70.0,66,8,S
71021,2019100609,20191006093030,away,63.81,43.43,4.67,0.95,0.47,128.0,144.16,2537931,Josh Gordon,10,2019,48,3,06:06:00,NE,1,10,WAS,7,19,2532797,SINGLEBACK,"1 RB, 2 TE, 2 WR",7,"3 DL, 4 LB, 4 DB",right,2019-10-06T19:16:20.000Z,2019-10-06T19:16:19.000Z,6-3,225,04/13/1991,Baylor,WR,WAS,NE,5,FedExField,"Landover, MD",Outdoor,Grass,Cloudy,70.0,66,8,S
71022,2019100609,20191006093030,away,61.9,26.55,0.64,0.86,0.06,110.63,174.3,2552563,Shaq Mason,69,2019,48,3,06:06:00,NE,1,10,WAS,7,19,2532797,SINGLEBACK,"1 RB, 2 TE, 2 WR",7,"3 DL, 4 LB, 4 DB",right,2019-10-06T19:16:20.000Z,2019-10-06T19:16:19.000Z,6-1,310,08/28/1993,Georgia Tech,G,WAS,NE,5,FedExField,"Landover, MD",Outdoor,Grass,Cloudy,70.0,66,8,S
71023,2019100609,20191006093030,away,62.7,23.77,2.18,3.32,0.21,92.6,349.56,2553667,Matt LaCosse,83,2019,48,3,06:06:00,NE,1,10,WAS,7,19,2532797,SINGLEBACK,"1 RB, 2 TE, 2 WR",7,"3 DL, 4 LB, 4 DB",right,2019-10-06T19:16:20.000Z,2019-10-06T19:16:19.000Z,6-6,255,09/21/1992,Illinois,TE,WAS,NE,5,FedExField,"Landover, MD",Outdoor,Grass,Cloudy,70.0,66,8,S
71024,2019100609,20191006093030,away,60.83,31.77,1.28,2.44,0.12,0.16,355.89,2555145,Ted Karras,75,2019,48,3,06:06:00,NE,1,10,WAS,7,19,2532797,SINGLEBACK,"1 RB, 2 TE, 2 WR",7,"3 DL, 4 LB, 4 DB",right,2019-10-06T19:16:20.000Z,2019-10-06T19:16:19.000Z,6-4,305,03/15/1993,Illinois,C,WAS,NE,5,FedExField,"Landover, MD",Outdoor,Grass,Cloudy,70.0,66,8,S
71025,2019100609,20191006093030,away,63.46,29.86,2.4,1.47,0.26,156.02,138.23,2555281,Joe Thuney,62,2019,48,3,06:06:00,NE,1,10,WAS,7,19,2532797,SINGLEBACK,"1 RB, 2 TE, 2 WR",7,"3 DL, 4 LB, 4 DB",right,2019-10-06T19:16:20.000Z,2019-10-06T19:16:19.000Z,6-5,308,11/18/1992,North Carolina State,G,WAS,NE,5,FedExField,"Landover, MD",Outdoor,Grass,Cloudy,70.0,66,8,S
71026,2019100609,20191006093030,away,61.66,28.89,3.25,1.71,0.32,10.41,42.05,2560751,Ryan Izzo,85,2019,48,3,06:06:00,NE,1,10,WAS,7,19,2532797,SINGLEBACK,"1 RB, 2 TE, 2 WR",7,"3 DL, 4 LB, 4 DB",right,2019-10-06T19:16:20.000Z,2019-10-06T19:16:19.000Z,6-5,255,12/21/1995,Florida State,TE,WAS,NE,5,FedExField,"Landover, MD",Outdoor,Grass,Cloudy,70.0,66,8,S
71027,2019100609,20191006093030,home,61.17,32.97,1.91,2.75,0.2,213.78,231.49,2495190,Ryan Kerrigan,91,2019,48,3,06:06:00,NE,1,10,WAS,7,19,2532797,SINGLEBACK,"1 RB, 2 TE, 2 WR",7,"3 DL, 4 LB, 4 DB",right,2019-10-06T19:16:20.000Z,2019-10-06T19:16:19.000Z,6-4,265,08/16/1988,Purdue,OLB,WAS,NE,5,FedExField,"Landover, MD",Outdoor,Grass,Cloudy,70.0,66,8,S
71028,2019100609,20191006093030,home,63.79,21.57,3.35,0.96,0.34,298.92,18.06,2532920,Josh Norman,24,2019,48,3,06:06:00,NE,1,10,WAS,7,19,2532797,SINGLEBACK,"1 RB, 2 TE, 2 WR",7,"3 DL, 4 LB, 4 DB",right,2019-10-06T19:16:20.000Z,2019-10-06T19:16:19.000Z,6-0,200,12/15/1987,Coastal Carolina,CB,WAS,NE,5,FedExField,"Landover, MD",Outdoor,Grass,Cloudy,70.0,66,8,S
71029,2019100609,20191006093030,home,64.74,26.79,0.62,2.59,0.06,267.96,230.52,2539978,Jon Bostic,53,2019,48,3,06:06:00,NE,1,10,WAS,7,19,2532797,SINGLEBACK,"1 RB, 2 TE, 2 WR",7,"3 DL, 4 LB, 4 DB",right,2019-10-06T19:16:20.000Z,2019-10-06T19:16:19.000Z,6-1,245,05/05/1991,Florida,ILB,WAS,NE,5,FedExField,"Landover, MD",Outdoor,Grass,Cloudy,70.0,66,8,S
71030,2019100609,20191006093030,home,68.06,23.41,2.05,1.23,0.2,280.44,316.43,2552454,Landon Collins,20,2019,48,3,06:06:00,NE,1,10,WAS,7,19,2532797,SINGLEBACK,"1 RB, 2 TE, 2 WR",7,"3 DL, 4 LB, 4 DB",right,2019-10-06T19:16:20.000Z,2019-10-06T19:16:19.000Z,6-0,218,01/10/1994,Alabama,SS,WAS,NE,5,FedExField,"Landover, MD",Outdoor,Grass,Cloudy,70.0,66,8,S
71031,2019100609,20191006093030,home,66.07,45.4,4.03,3.88,0.39,171.86,132.86,2553796,Quinton Dunbar,23,2019,48,3,06:06:00,NE,1,10,WAS,7,19,2532797,SINGLEBACK,"1 RB, 2 TE, 2 WR",7,"3 DL, 4 LB, 4 DB",right,2019-10-06T19:16:20.000Z,2019-10-06T19:16:19.000Z,6-2,202,07/22/1992,Florida,CB,WAS,NE,5,FedExField,"Landover, MD",Outdoor,Grass,Cloudy,70.0,66,8,S
71032,2019100609,20191006093030,home,62.46,31.0,1.44,1.33,0.15,218.72,180.28,2557844,Jonathan Allen,93,2019,48,3,06:06:00,NE,1,10,WAS,7,19,2532797,SINGLEBACK,"1 RB, 2 TE, 2 WR",7,"3 DL, 4 LB, 4 DB",right,2019-10-06T19:16:20.000Z,2019-10-06T19:16:19.000Z,6-3,300,01/16/1995,Alabama,DE,WAS,NE,5,FedExField,"Landover, MD",Outdoor,Grass,Cloudy,70.0,66,8,S
71033,2019100609,20191006093030,home,76.33,31.23,0.92,1.09,0.1,248.65,88.86,2558133,Montae Nicholson,35,2019,48,3,06:06:00,NE,1,10,WAS,7,19,2532797,SINGLEBACK,"1 RB, 2 TE, 2 WR",7,"3 DL, 4 LB, 4 DB",right,2019-10-06T19:16:20.000Z,2019-10-06T19:16:19.000Z,6-2,212,12/04/1995,Michigan State,FS,WAS,NE,5,FedExField,"Landover, MD",Outdoor,Grass,Cloudy,70.0,66,8,S
71034,2019100609,20191006093030,home,62.37,29.79,1.21,0.84,0.12,257.6,309.76,2560834,Daron Payne,94,2019,48,3,06:06:00,NE,1,10,WAS,7,19,2532797,SINGLEBACK,"1 RB, 2 TE, 2 WR",7,"3 DL, 4 LB, 4 DB",right,2019-10-06T19:16:20.000Z,2019-10-06T19:16:19.000Z,6-3,320,05/27/1997,Alabama,NT,WAS,NE,5,FedExField,"Landover, MD",Outdoor,Grass,Cloudy,70.0,66,8,S
71035,2019100609,20191006093030,home,62.18,26.37,0.7,0.97,0.07,254.9,331.73,2560871,Tim Settle,97,2019,48,3,06:06:00,NE,1,10,WAS,7,19,2532797,SINGLEBACK,"1 RB, 2 TE, 2 WR",7,"3 DL, 4 LB, 4 DB",right,2019-10-06T19:16:20.000Z,2019-10-06T19:16:19.000Z,6-3,308,07/11/1997,Virginia Tech,NT,WAS,NE,5,FedExField,"Landover, MD",Outdoor,Grass,Cloudy,70.0,66,8,S
71036,2019100609,20191006093030,home,64.45,29.26,2.99,1.81,0.29,256.83,212.41,2561003,Shaun Dion Hamilton,51,2019,48,3,06:06:00,NE,1,10,WAS,7,19,2532797,SINGLEBACK,"1 RB, 2 TE, 2 WR",7,"3 DL, 4 LB, 4 DB",right,2019-10-06T19:16:20.000Z,2019-10-06T19:16:19.000Z,6-0,235,09/11/1995,Alabama,LB,WAS,NE,5,FedExField,"Landover, MD",Outdoor,Grass,Cloudy,70.0,66,8,S
71037,2019100609,20191006093030,home,63.02,23.86,1.87,1.19,0.19,291.34,339.35,2562749,Montez Sweat,90,2019,48,3,06:06:00,NE,1,10,WAS,7,19,2532797,SINGLEBACK,"1 RB, 2 TE, 2 WR",7,"3 DL, 4 LB, 4 DB",right,2019-10-06T19:16:20.000Z,2019-10-06T19:16:19.000Z,6-6,262,09/04/1996,Mississippi State,LB,WAS,NE,5,FedExField,"Landover, MD",Outdoor,Grass,Cloudy,70.0,66,8,S
