,GameId,PlayId,Team,X,Y,S,A,Dis,Orientation,Dir,NflId,DisplayName,JerseyNumber,Season,YardLine,Quarter,GameClock,PossessionTeam,Down,Distance,FieldPosition,HomeScoreBeforePlay,VisitorScoreBeforePlay,NflIdRusher,OffenseFormation,OffensePersonnel,DefendersInTheBox,DefensePersonnel,PlayDirection,TimeHandoff,TimeSnap,PlayerHeight,PlayerWeight,PlayerBirthDate,PlayerCollegeName,Position,HomeTeamAbbr,VisitorTeamAbbr,Week,Stadium,Location,StadiumType,Turf,GameWeather,Temperature,Humidity,WindSpeed,WindDirection
10758,2019090810,20190908103660,away,42.1,21.03,2.72,1.39,0.27,310.56,341.76,2495807,Antoine Bethea,41,2019,30,4,06:50:00,DAL,2,18,DAL,35,10,2562699,PISTOL,"1 RB, 1 TE, 3 WR",5,"3 DL, 3 LB, 5 DB",right,2019-09-08T23:07:16.000Z,2019-09-08T23:07:15.000Z,5-11,206,07/27/1984,Howard,FS,DAL,NYG,1,AT&T Stadium,"Arlington, Texas",Indoor,Artificial,,,0,,
10759,2019090810,20190908103660,away,47.59,9.93,2.34,1.67,0.23,268.14,76.13,2532875,Janoris Jenkins,20,2019,30,4,06:50:00,DAL,2,18,DAL,35,10,2562699,PISTOL,"1 RB, 1 TE, 3 WR",5,"3 DL, 3 LB, 5 DB",right,2019-09-08T23:07:16.000Z,2019-09-08T23:07:15.000Z,5-10,190,10/29/1988,North Alabama,CB,DAL,NYG,1,AT&T Stadium,"Arlington, Texas",Indoor,Artificial,,,0,,
10760,2019090810,20190908103660,away,41.65,28.8,2.21,2.51,0.22,290.0,19.0,2540143,Alec Ogletree,47,2019,30,4,06:50:00,DAL,2,18,DAL,35,10,2562699,PISTOL,"1 RB, 1 TE, 3 WR",5,"3 DL, 3 LB, 5 DB",right,2019-09-08T23:07:16.000Z,2019-09-08T23:07:15.000Z,6-3,235,09/25/1991,Georgia,LB,DAL,NYG,1,AT&T Stadium,"Arlington, Texas",Indoor,Artificial,,,0,,
10761,2019090810,20190908103660,away,38.37,21.7,4.65,1.21,0.5,340.36,344.88,2552273,Markus Golden,44,2019,30,4,06:50:00,DAL,2,18,DAL,35,10,2562699,PISTOL,"1 RB, 1 TE, 3 WR",5,"3 DL, 3 LB, 5 DB",right,2019-09-08T23:07:16.000Z,2019-09-08T23:07:15.000Z,6-3,260,03/13/1991,Missouri,OLB,DAL,NYG,1,AT&T Stadium,"Arlington, Texas",Indoor,Artificial,,,0,,
10762,2019090810,20190908103660,away,38.7,26.62,3.63,0.8,0.37,282.09,340.9,2553583,Olsen Pierre,72,2019,30,4,06:50:00,DAL,2,18,DAL,35,10,2562699,PISTOL,"1 RB, 1 TE, 3 WR",5,"3 DL, 3 LB, 5 DB",right,2019-09-08T23:07:16.000Z,2019-09-08T23:07:15.000Z,6-4,293,08/27/1991,Miami,DT,DAL,NYG,1,AT&T Stadium,"Arlington, Texas",Indoor,Artificial,,,0,,
10763,2019090810,20190908103660,away,49.67,27.97,2.17,2.95,0.21,318.47,325.19,2557980,Jabrill Peppers,21,2019,30,4,06:50:00,DAL,2,18,DAL,35,10,2562699,PISTOL,"1 RB, 1 TE, 3 WR",5,"3 DL, 3 LB, 5 DB",right,2019-09-08T23:07:16.000Z,2019-09-08T23:07:15.000Z,5-11,213,10/04/1995,Michigan,FS,DAL,NYG,1,AT&T Stadium,"Arlington, Texas",Indoor,Artificial,,,0,,
10764,2019090810,20190908103660,away,39.08,24.25,2.93,0.65,0.34,268.57,341.63,2560806,R.J. McIntosh,90,2019,30,4,06:50:00,DAL,2,18,DAL,35,10,2562699,PISTOL,"1 RB, 1 TE, 3 WR",5,"3 DL, 3 LB, 5 DB",right,2019-09-08T23:07:16.000Z,2019-09-08T23:07:15.000Z,6-5,283,06/02/1996,Miami,DT,DAL,NYG,1,AT&T Stadium,"Arlington, Texas",Indoor,Artificial,,,0,,
10765,2019090810,20190908103660,away,45.95,34.22,2.26,4.14,0.22,283.99,316.5,2561001,Grant Haley,34,2019,30,4,06:50:00,DAL,2,18,DAL,35,10,2562699,PISTOL,"1 RB, 1 TE, 3 WR",5,"3 DL, 3 LB, 5 DB",right,2019-09-08T23:07:16.000Z,2019-09-08T23:07:15.000Z,5-9,190,01/06/1996,Penn State,CB,DAL,NYG,1,AT&T Stadium,"Arlington, Texas",Indoor,Artificial,,,0,,
10766,2019090810,20190908103660,away,38.81,30.09,3.03,1.88,0.29,269.52,334.03,2561015,Lorenzo Carter,59,2019,30,4,06:50:00,DAL,2,18,DAL,35,10,2562699,PISTOL,"1 RB, 1 TE, 3 WR",5,"3 DL, 3 LB, 5 DB",right,2019-09-08T23:07:16.000Z,2019-09-08T23:07:15.000Z,6-5,250,12/10/1995,Georgia,OLB,DAL,NYG,1,AT&T Stadium,"Arlington, Texas",Indoor,Artificial,,,0,,
10767,2019090810,20190908103660,away,46.69,44.16,2.69,2.26,0.26,290.98,96.48,2562228,Corey Ballentine,25,2019,30,4,06:50:00,DAL,2,18,DAL,35,10,2562699,PISTOL,"1 RB, 1 TE, 3 WR",5,"3 DL, 3 LB, 5 DB",right,2019-09-08T23:07:16.000Z,2019-09-08T23:07:15.000Z,6-0,196,04/13/1996,Washburn,CB,DAL,NYG,1,AT&T Stadium,"Arlington, Texas",Indoor,Artificial,,,0,,
10768,2019090810,20190908103660,away,40.87,26.32,5.87,2.75,0.57,297.47,333.26,2562638,Ryan Connelly,57,2019,30,4,06:50:00,DAL,2,18,DAL,35,10,2562699,PISTOL,"1 RB, 1 TE, 3 WR",5,"3 DL, 3 LB, 5 DB",right,2019-09-08T23:07:16.000Z,2019-09-08T23:07:15.000Z,6-2,236,10/03/1995,Wisconsin,LB,DAL,NYG,1,AT&T Stadium,"Arlington, Texas",Indoor,Artificial,,,0,,
10769,2019090810,20190908103660,home,36.48,29.44,3.97,1.82,0.4,24.76,345.18,2495435,Tyron Smith,77,2019,30,4,06:50:00,DAL,2,18,DAL,35,10,2562699,PISTOL,"1 RB, 1 TE, 3 WR",5,"3 DL, 3 LB, 5 DB",right,2019-09-08T23:07:16.000Z,2019-09-08T23:07:15.000Z,6-5,320,12/12/1990,Southern California,T,DAL,NYG,1,AT&T Stadium,"Arlington, Texas",Indoor,Artificial,,,0,,
10770,2019090810,20190908103660,home,40.87,30.35,3.07,2.1,0.31,167.96,124.32,2495448,Randall Cobb,18,2019,30,4,06:50:00,DAL,2,18,DAL,35,10,2562699,PISTOL,"1 RB, 1 TE, 3 WR",5,"3 DL, 3 LB, 5 DB",right,2019-09-08T23:07:16.000Z,2019-09-08T23:07:15.000Z,5-10,192,08/22/1990,Kentucky,WR,DAL,NYG,1,AT&T Stadium,"Arlington, Texas",Indoor,Artificial,,,0,,
10771,2019090810,20190908103660,home,40.91,45.16,5.6,2.98,0.54,79.0,86.06,2539336,Tavon Austin,10,2019,30,4,06:50:00,DAL,2,18,DAL,35,10,2562699,PISTOL,"1 RB, 1 TE, 3 WR",5,"3 DL, 3 LB, 5 DB",right,2019-09-08T23:07:16.000Z,2019-09-08T23:07:15.000Z,5-8,179,03/15/1990,West Virginia,WR,DAL,NYG,1,AT&T Stadium,"Arlington, Texas",Indoor,Artificial,,,0,,
10772,2019090810,20190908103660,home,37.81,26.31,3.44,0.79,0.36,47.19,338.6,2540161,Travis Frederick,72,2019,30,4,06:50:00,DAL,2,18,DAL,35,10,2562699,PISTOL,"1 RB, 1 TE, 3 WR",5,"3 DL, 3 LB, 5 DB",right,2019-09-08T23:07:16.000Z,2019-09-08T23:07:15.000Z,6-4,320,03/18/1991,Wisconsin,C,DAL,NYG,1,AT&T Stadium,"Arlington, Texas",Indoor,Artificial,,,0,,
10773,2019090810,20190908103660,home,39.44,25.47,4.17,0.95,0.44,35.7,18.03,2543666,Xavier Su'a-Filo,76,2019,30,4,06:50:00,DAL,2,18,DAL,35,10,2562699,PISTOL,"1 RB, 1 TE, 3 WR",5,"3 DL, 3 LB, 5 DB",right,2019-09-08T23:07:16.000Z,2019-09-08T23:07:15.000Z,6-4,310,01/01/1991,UCLA,G,DAL,NYG,1,AT&T Stadium,"Arlington, Texas",Indoor,Artificial,,,0,,
10774,2019090810,20190908103660,home,38.39,24.16,4.18,0.38,0.43,48.73,6.08,2553505,La'el Collins,71,2019,30,4,06:50:00,DAL,2,18,DAL,35,10,2562699,PISTOL,"1 RB, 1 TE, 3 WR",5,"3 DL, 3 LB, 5 DB",right,2019-09-08T23:07:16.000Z,2019-09-08T23:07:15.000Z,6-4,320,07/26/1993,Louisiana State,T,DAL,NYG,1,AT&T Stadium,"Arlington, Texas",Indoor,Artificial,,,0,,
10775,2019090810,20190908103660,home,33.53,24.69,2.73,1.39,0.27,348.64,303.14,2555260,Dak Prescott,4,2019,30,4,06:50:00,DAL,2,18,DAL,35,10,2562699,PISTOL,"1 RB, 1 TE, 3 WR",5,"3 DL, 3 LB, 5 DB",right,2019-09-08T23:07:16.000Z,2019-09-08T23:07:15.000Z,6-2,238,07/29/1993,Mississippi State,QB,DAL,NYG,1,AT&T Stadium,"Arlington, Texas",Indoor,Artificial,,,0,,
10776,2019090810,20190908103660,home,38.03,30.52,2.39,4.14,0.22,83.98,7.46,2559193,Blake Jarwin,89,2019,30,4,06:50:00,DAL,2,18,DAL,35,10,2562699,PISTOL,"1 RB, 1 TE, 3 WR",5,"3 DL, 3 LB, 5 DB",right,2019-09-08T23:07:16.000Z,2019-09-08T23:07:15.000Z,6-5,260,07/16/1994,Oklahoma State,TE,DAL,NYG,1,AT&T Stadium,"Arlington, Texas",Indoor,Artificial,,,0,,
10777,2019090810,20190908103660,home,40.81,9.57,4.68,3.3,0.45,82.27,81.28,2560735,Michael Gallup,13,2019,30,4,06:50:00,DAL,2,18,DAL,35,10,2562699,PISTOL,"1 RB, 1 TE, 3 WR",5,"3 DL, 3 LB, 5 DB",right,2019-09-08T23:07:16.000Z,2019-09-08T23:07:15.000Z,6-1,200,03/04/1996,Colorado State,WR,DAL,NYG,1,AT&T Stadium,"Arlington, Texas",Indoor,Artificial,,,0,,
10778,2019090810,20190908103660,home,36.94,27.93,4.0,1.22,0.41,34.27,343.12,2560934,Connor Williams,52,2019,30,4,06:50:00,DAL,2,18,DAL,35,10,2562699,PISTOL,"1 RB, 1 TE, 3 WR",5,"3 DL, 3 LB, 5 DB",right,2019-09-08T23:07:16.000Z,2019-09-08T23:07:15.000Z,6-5,298,05/12/1997,Texas,G,DAL,NYG,1,AT&T Stadium,"Arlington, Texas",Indoor,Artificial,,,0,,
10779,2019090810,20190908103660,home,31.66,26.65,4.74,3.0,0.46,70.12,355.67,2562699,Tony Pollard,20,2019,30,4,06:50:00,DAL,2,18,DAL,35,10,2562699,PISTOL,"1 RB, 1 TE, 3 WR",5,"3 DL, 3 LB, 5 DB",right,2019-09-08T23:07:16.000Z,2019-09-08T23:07:15.000Z,6-0,209,04/30/1997,Memphis,RB,DAL,NYG,1,AT&T Stadium,"Arlington, Texas",Indoor,Artificial,,,0,,
