,GameId,PlayId,Team,X,Y,S,A,Dis,Orientation,Dir,NflId,DisplayName,JerseyNumber,Season,YardLine,Quarter,GameClock,PossessionTeam,Down,Distance,FieldPosition,HomeScoreBeforePlay,VisitorScoreBeforePlay,NflIdRusher,OffenseFormation,OffensePersonnel,DefendersInTheBox,DefensePersonnel,PlayDirection,TimeHandoff,TimeSnap,PlayerHeight,PlayerWeight,PlayerBirthDate,PlayerCollegeName,Position,HomeTeamAbbr,VisitorTeamAbbr,Week,Stadium,Location,StadiumType,Turf,GameWeather,Temperature,Humidity,WindSpeed,WindDirection
19888,2019091504,20190915040101,away,47.06,29.84,0.69,1.02,0.07,108.37,61.61,2543729,Brandon Linder,65,2019,37,1,13:57:00,JAX,1,10,JAX,0,0,2557973,I_FORM,"1 RB, 2 TE, 2 WR",8,"3 DL, 4 LB, 4 DB",right,2019-09-15T17:04:28.000Z,2019-09-15T17:04:27.000Z,6-6,315,01/25/1992,Miami,C,HOU,JAX,2,NRG Stadium,"Houston, TX",Retractable Roof,Artifical,Sunny,89.0,52,10mph,North East
19889,2019091504,20190915040101,away,46.46,31.35,0.7,1.28,0.07,34.44,131.27,2550589,Andrew Norwell,68,2019,37,1,13:57:00,JAX,1,10,JAX,0,0,2557973,I_FORM,"1 RB, 2 TE, 2 WR",8,"3 DL, 4 LB, 4 DB",right,2019-09-15T17:04:28.000Z,2019-09-15T17:04:27.000Z,6-6,325,10/25/1991,Ohio State,G,HOU,JAX,2,NRG Stadium,"Houston, TX",Retractable Roof,Artifical,Sunny,89.0,52,10mph,North East
19890,2019091504,20190915040101,away,46.69,28.77,0.92,1.31,0.09,100.05,68.71,2552330,A.J. Cann,60,2019,37,1,13:57:00,JAX,1,10,JAX,0,0,2557973,I_FORM,"1 RB, 2 TE, 2 WR",8,"3 DL, 4 LB, 4 DB",right,2019-09-15T17:04:28.000Z,2019-09-15T17:04:27.000Z,6-3,325,10/23/1991,South Carolina,G,HOU,JAX,2,NRG Stadium,"Houston, TX",Retractable Roof,Artifical,Sunny,89.0,52,10mph,North East
19891,2019091504,20190915040101,away,46.1,25.47,0.15,1.24,0.03,70.92,312.01,2553318,James O'Shaughnessy,80,2019,37,1,13:57:00,JAX,1,10,JAX,0,0,2557973,I_FORM,"1 RB, 2 TE, 2 WR",8,"3 DL, 4 LB, 4 DB",right,2019-09-15T17:04:28.000Z,2019-09-15T17:04:27.000Z,6-4,245,01/14/1992,Illinois State,TE,HOU,JAX,2,NRG Stadium,"Houston, TX",Retractable Roof,Artifical,Sunny,89.0,52,10mph,North East
19892,2019091504,20190915040101,away,45.45,26.64,4.05,1.63,0.4,101.36,110.97,2556365,Seth DeValve,88,2019,37,1,13:57:00,JAX,1,10,JAX,0,0,2557973,I_FORM,"1 RB, 2 TE, 2 WR",8,"3 DL, 4 LB, 4 DB",right,2019-09-15T17:04:28.000Z,2019-09-15T17:04:27.000Z,6-3,245,01/29/1993,Princeton,TE,HOU,JAX,2,NRG Stadium,"Houston, TX",Retractable Roof,Artifical,Sunny,89.0,52,10mph,North East
19893,2019091504,20190915040101,away,47.7,40.38,3.97,3.47,0.38,90.91,102.96,2557895,Dede Westbrook,12,2019,37,1,13:57:00,JAX,1,10,JAX,0,0,2557973,I_FORM,"1 RB, 2 TE, 2 WR",8,"3 DL, 4 LB, 4 DB",right,2019-09-15T17:04:28.000Z,2019-09-15T17:04:27.000Z,6-0,176,11/21/1993,Oklahoma,WR,HOU,JAX,2,NRG Stadium,"Houston, TX",Retractable Roof,Artifical,Sunny,89.0,52,10mph,North East
19894,2019091504,20190915040101,away,41.28,29.19,4.4,2.74,0.43,83.99,101.9,2557973,Leonard Fournette,27,2019,37,1,13:57:00,JAX,1,10,JAX,0,0,2557973,I_FORM,"1 RB, 2 TE, 2 WR",8,"3 DL, 4 LB, 4 DB",right,2019-09-15T17:04:28.000Z,2019-09-15T17:04:27.000Z,6-0,228,01/18/1995,Louisiana State,RB,HOU,JAX,2,NRG Stadium,"Houston, TX",Retractable Roof,Artifical,Sunny,89.0,52,10mph,North East
19895,2019091504,20190915040101,away,45.84,32.06,1.38,1.23,0.14,58.5,192.62,2560853,Will Richardson,76,2019,37,1,13:57:00,JAX,1,10,JAX,0,0,2557973,I_FORM,"1 RB, 2 TE, 2 WR",8,"3 DL, 4 LB, 4 DB",right,2019-09-15T17:04:28.000Z,2019-09-15T17:04:27.000Z,6-6,303,01/04/1996,North Carolina State,T,HOU,JAX,2,NRG Stadium,"Houston, TX",Retractable Roof,Artifical,Sunny,89.0,52,10mph,North East
19896,2019091504,20190915040101,away,45.82,20.83,2.4,4.08,0.22,57.7,40.87,2561018,D.J. Chark,17,2019,37,1,13:57:00,JAX,1,10,JAX,0,0,2557973,I_FORM,"1 RB, 2 TE, 2 WR",8,"3 DL, 4 LB, 4 DB",right,2019-09-15T17:04:28.000Z,2019-09-15T17:04:27.000Z,6-4,198,09/23/1996,Louisiana State,WR,HOU,JAX,2,NRG Stadium,"Houston, TX",Retractable Roof,Artifical,Sunny,89.0,52,10mph,North East
19897,2019091504,20190915040101,away,46.93,27.95,1.14,2.28,0.11,66.86,52.96,2562756,Jawaan Taylor,75,2019,37,1,13:57:00,JAX,1,10,JAX,0,0,2557973,I_FORM,"1 RB, 2 TE, 2 WR",8,"3 DL, 4 LB, 4 DB",right,2019-09-15T17:04:28.000Z,2019-09-15T17:04:27.000Z,6-5,312,11/25/1997,Florida,T,HOU,JAX,2,NRG Stadium,"Houston, TX",Retractable Roof,Artifical,Sunny,89.0,52,10mph,North East
19898,2019091504,20190915040101,away,43.67,29.64,5.29,5.86,0.49,125.98,269.8,2562796,Gardner Minshew,15,2019,37,1,13:57:00,JAX,1,10,JAX,0,0,2557973,I_FORM,"1 RB, 2 TE, 2 WR",8,"3 DL, 4 LB, 4 DB",right,2019-09-15T17:04:28.000Z,2019-09-15T17:04:27.000Z,6-1,225,05/16/1996,Washington State,QB,HOU,JAX,2,NRG Stadium,"Houston, TX",Retractable Roof,Artifical,Sunny,89.0,52,10mph,North East
19899,2019091504,20190915040101,home,46.92,24.69,0.87,0.77,0.09,303.32,301.23,2495488,J.J. Watt,99,2019,37,1,13:57:00,JAX,1,10,JAX,0,0,2557973,I_FORM,"1 RB, 2 TE, 2 WR",8,"3 DL, 4 LB, 4 DB",right,2019-09-15T17:04:28.000Z,2019-09-15T17:04:27.000Z,6-5,288,03/22/1989,Wisconsin,DE,HOU,JAX,2,NRG Stadium,"Houston, TX",Retractable Roof,Artifical,Sunny,89.0,52,10mph,North East
19900,2019091504,20190915040101,home,54.68,20.22,1.39,2.45,0.13,311.35,342.28,2495872,Johnathan Joseph,24,2019,37,1,13:57:00,JAX,1,10,JAX,0,0,2557973,I_FORM,"1 RB, 2 TE, 2 WR",8,"3 DL, 4 LB, 4 DB",right,2019-09-15T17:04:28.000Z,2019-09-15T17:04:27.000Z,5-11,185,04/16/1984,South Carolina,CB,HOU,JAX,2,NRG Stadium,"Houston, TX",Retractable Roof,Artifical,Sunny,89.0,52,10mph,North East
19901,2019091504,20190915040101,home,47.8,25.21,0.55,0.94,0.06,262.44,275.73,2532848,Tashaun Gipson,39,2019,37,1,13:57:00,JAX,1,10,JAX,0,0,2557973,I_FORM,"1 RB, 2 TE, 2 WR",8,"3 DL, 4 LB, 4 DB",right,2019-09-15T17:04:28.000Z,2019-09-15T17:04:27.000Z,6-1,212,08/07/1990,Wyoming,FS,HOU,JAX,2,NRG Stadium,"Houston, TX",Retractable Roof,Artifical,Sunny,89.0,52,10mph,North East
19902,2019091504,20190915040101,home,46.14,33.61,2.38,1.53,0.24,180.08,227.3,2533049,Whitney Mercilus,59,2019,37,1,13:57:00,JAX,1,10,JAX,0,0,2557973,I_FORM,"1 RB, 2 TE, 2 WR",8,"3 DL, 4 LB, 4 DB",right,2019-09-15T17:04:28.000Z,2019-09-15T17:04:27.000Z,6-4,258,07/21/1990,Illinois,OLB,HOU,JAX,2,NRG Stadium,"Houston, TX",Retractable Roof,Artifical,Sunny,89.0,52,10mph,North East
19903,2019091504,20190915040101,home,55.45,41.18,1.98,1.85,0.19,243.88,111.17,2543505,Bradley Roby,21,2019,37,1,13:57:00,JAX,1,10,JAX,0,0,2557973,I_FORM,"1 RB, 2 TE, 2 WR",8,"3 DL, 4 LB, 4 DB",right,2019-09-15T17:04:28.000Z,2019-09-15T17:04:27.000Z,5-11,194,05/01/1992,Ohio State,CB,HOU,JAX,2,NRG Stadium,"Houston, TX",Retractable Roof,Artifical,Sunny,89.0,52,10mph,North East
19904,2019091504,20190915040101,home,50.83,26.86,2.89,4.06,0.27,270.71,266.76,2552490,Benardrick McKinney,55,2019,37,1,13:57:00,JAX,1,10,JAX,0,0,2557973,I_FORM,"1 RB, 2 TE, 2 WR",8,"3 DL, 4 LB, 4 DB",right,2019-09-15T17:04:28.000Z,2019-09-15T17:04:27.000Z,6-4,257,11/19/1992,Mississippi State,ILB,HOU,JAX,2,NRG Stadium,"Houston, TX",Retractable Roof,Artifical,Sunny,89.0,52,10mph,North East
19905,2019091504,20190915040101,home,47.5,28.38,0.22,2.0,0.02,285.69,22.37,2552670,Angelo Blackson,97,2019,37,1,13:57:00,JAX,1,10,JAX,0,0,2557973,I_FORM,"1 RB, 2 TE, 2 WR",8,"3 DL, 4 LB, 4 DB",right,2019-09-15T17:04:28.000Z,2019-09-15T17:04:27.000Z,6-4,318,11/14/1992,Auburn,DE,HOU,JAX,2,NRG Stadium,"Houston, TX",Retractable Roof,Artifical,Sunny,89.0,52,10mph,North East
19906,2019091504,20190915040101,home,47.6,29.36,0.88,1.6,0.09,220.68,204.46,2555388,D.J. Reader,98,2019,37,1,13:57:00,JAX,1,10,JAX,0,0,2557973,I_FORM,"1 RB, 2 TE, 2 WR",8,"3 DL, 4 LB, 4 DB",right,2019-09-15T17:04:28.000Z,2019-09-15T17:04:27.000Z,6-3,347,07/01/1994,Clemson,DT,HOU,JAX,2,NRG Stadium,"Houston, TX",Retractable Roof,Artifical,Sunny,89.0,52,10mph,North East
19907,2019091504,20190915040101,home,46.95,32.19,1.13,2.3,0.11,244.75,207.34,2556673,Brennan Scarlett,57,2019,37,1,13:57:00,JAX,1,10,JAX,0,0,2557973,I_FORM,"1 RB, 2 TE, 2 WR",8,"3 DL, 4 LB, 4 DB",right,2019-09-15T17:04:28.000Z,2019-09-15T17:04:27.000Z,6-4,263,07/31/1993,Stanford,OLB,HOU,JAX,2,NRG Stadium,"Houston, TX",Retractable Roof,Artifical,Sunny,89.0,52,10mph,North East
19908,2019091504,20190915040101,home,49.87,30.24,2.34,1.39,0.23,271.2,251.81,2558094,Zach Cunningham,41,2019,37,1,13:57:00,JAX,1,10,JAX,0,0,2557973,I_FORM,"1 RB, 2 TE, 2 WR",8,"3 DL, 4 LB, 4 DB",right,2019-09-15T17:04:28.000Z,2019-09-15T17:04:27.000Z,6-3,238,12/12/1994,Vanderbilt,ILB,HOU,JAX,2,NRG Stadium,"Houston, TX",Retractable Roof,Artifical,Sunny,89.0,52,10mph,North East
19909,2019091504,20190915040101,home,62.04,29.52,1.51,1.37,0.16,272.83,139.08,2560851,Justin Reid,20,2019,37,1,13:57:00,JAX,1,10,JAX,0,0,2557973,I_FORM,"1 RB, 2 TE, 2 WR",8,"3 DL, 4 LB, 4 DB",right,2019-09-15T17:04:28.000Z,2019-09-15T17:04:27.000Z,6-1,204,02/15/1997,Stanford,SS,HOU,JAX,2,NRG Stadium,"Houston, TX",Retractable Roof,Artifical,Sunny,89.0,52,10mph,North East
