,GameId,PlayId,Team,X,Y,S,A,Dis,Orientation,Dir,NflId,DisplayName,JerseyNumber,Season,YardLine,Quarter,GameClock,PossessionTeam,Down,Distance,FieldPosition,HomeScoreBeforePlay,VisitorScoreBeforePlay,NflIdRusher,OffenseFormation,OffensePersonnel,DefendersInTheBox,DefensePersonnel,PlayDirection,TimeHandoff,TimeSnap,PlayerHeight,PlayerWeight,PlayerBirthDate,PlayerCollegeName,Position,HomeTeamAbbr,VisitorTeamAbbr,Week,Stadium,Location,StadiumType,Turf,GameWeather,Temperature,Humidity,WindSpeed,WindDirection
61578,2019100600,20191006000215,away,79.65,26.65,0.92,0.91,0.11,210.89,331.79,744,Calais Campbell,93,2019,30,1,12:43:00,CAR,1,10,JAX,0,0,2561184,SHOTGUN,"2 RB, 1 TE, 2 WR",6,"3 DL, 3 LB, 5 DB",right,2019-10-06T17:07:17.000Z,2019-10-06T17:07:16.000Z,6-8,300,09/01/1986,Miami,DE,CAR,JAX,5,Bank of America Stadium,"Charlotte, NC",Outdoors,Natural Grass,Cloudy,72.0,59,4,ESE
61579,2019100600,20191006000215,away,80.38,24.07,1.76,0.81,0.18,246.74,359.16,2495478,Marcell Dareus,99,2019,30,1,12:43:00,CAR,1,10,JAX,0,0,2561184,SHOTGUN,"2 RB, 1 TE, 2 WR",6,"3 DL, 3 LB, 5 DB",right,2019-10-06T17:07:17.000Z,2019-10-06T17:07:16.000Z,6-3,331,03/13/1990,Alabama,DT,CAR,JAX,5,Bank of America Stadium,"Charlotte, NC",Outdoors,Natural Grass,Cloudy,72.0,59,4,ESE
61580,2019100600,20191006000215,away,83.09,35.29,4.15,1.79,0.41,262.89,346.57,2539237,D.J. Hayden,25,2019,30,1,12:43:00,CAR,1,10,JAX,0,0,2561184,SHOTGUN,"2 RB, 1 TE, 2 WR",6,"3 DL, 3 LB, 5 DB",right,2019-10-06T17:07:17.000Z,2019-10-06T17:07:16.000Z,5-11,190,06/27/1990,Houston,CB,CAR,JAX,5,Bank of America Stadium,"Charlotte, NC",Outdoors,Natural Grass,Cloudy,72.0,59,4,ESE
61581,2019100600,20191006000215,away,85.06,43.63,4.16,0.86,0.41,150.88,95.14,2541162,A.J. Bouye,21,2019,30,1,12:43:00,CAR,1,10,JAX,0,0,2561184,SHOTGUN,"2 RB, 1 TE, 2 WR",6,"3 DL, 3 LB, 5 DB",right,2019-10-06T17:07:17.000Z,2019-10-06T17:07:16.000Z,6-0,191,08/16/1991,Central Florida,CB,CAR,JAX,5,Bank of America Stadium,"Charlotte, NC",Outdoors,Natural Grass,Cloudy,72.0,59,4,ESE
61582,2019100600,20191006000215,away,84.49,24.75,0.78,1.46,0.08,270.37,222.07,2555329,Myles Jack,44,2019,30,1,12:43:00,CAR,1,10,JAX,0,0,2561184,SHOTGUN,"2 RB, 1 TE, 2 WR",6,"3 DL, 3 LB, 5 DB",right,2019-10-06T17:07:17.000Z,2019-10-06T17:07:16.000Z,6-1,244,09/03/1995,UCLA,OLB,CAR,JAX,5,Bank of America Stadium,"Charlotte, NC",Outdoors,Natural Grass,Cloudy,72.0,59,4,ESE
61583,2019100600,20191006000215,away,78.08,28.25,3.43,0.39,0.35,191.73,246.89,2555421,Yannick Ngakoue,91,2019,30,1,12:43:00,CAR,1,10,JAX,0,0,2561184,SHOTGUN,"2 RB, 1 TE, 2 WR",6,"3 DL, 3 LB, 5 DB",right,2019-10-06T17:07:17.000Z,2019-10-06T17:07:16.000Z,6-2,246,03/31/1995,Maryland,DE,CAR,JAX,5,Bank of America Stadium,"Charlotte, NC",Outdoors,Natural Grass,Cloudy,72.0,59,4,ESE
61584,2019100600,20191006000215,away,95.7,27.77,0.7,0.91,0.07,281.44,48.76,2556711,Jarrod Wilson,26,2019,30,1,12:43:00,CAR,1,10,JAX,0,0,2561184,SHOTGUN,"2 RB, 1 TE, 2 WR",6,"3 DL, 3 LB, 5 DB",right,2019-10-06T17:07:17.000Z,2019-10-06T17:07:16.000Z,6-2,210,02/09/1994,Michigan,SS,CAR,JAX,5,Bank of America Stadium,"Charlotte, NC",Outdoors,Natural Grass,Cloudy,72.0,59,4,ESE
61585,2019100600,20191006000215,away,81.88,17.78,2.59,1.99,0.24,315.72,314.58,2561008,Ronnie Harrison,36,2019,30,1,12:43:00,CAR,1,10,JAX,0,0,2561184,SHOTGUN,"2 RB, 1 TE, 2 WR",6,"3 DL, 3 LB, 5 DB",right,2019-10-06T17:07:17.000Z,2019-10-06T17:07:16.000Z,6-3,214,04/18/1997,Alabama,DB,CAR,JAX,5,Bank of America Stadium,"Charlotte, NC",Outdoors,Natural Grass,Cloudy,72.0,59,4,ESE
61586,2019100600,20191006000215,away,87.65,14.37,1.34,2.6,0.13,261.64,2.68,2561340,Tre Herndon,37,2019,30,1,12:43:00,CAR,1,10,JAX,0,0,2561184,SHOTGUN,"2 RB, 1 TE, 2 WR",6,"3 DL, 3 LB, 5 DB",right,2019-10-06T17:07:17.000Z,2019-10-06T17:07:16.000Z,5-11,185,03/05/1996,Vanderbilt,CB,CAR,JAX,5,Bank of America Stadium,"Charlotte, NC",Outdoors,Natural Grass,Cloudy,72.0,59,4,ESE
61587,2019100600,20191006000215,away,79.85,21.06,2.0,0.3,0.2,237.6,340.71,2562619,Josh Allen,41,2019,30,1,12:43:00,CAR,1,10,JAX,0,0,2561184,SHOTGUN,"2 RB, 1 TE, 2 WR",6,"3 DL, 3 LB, 5 DB",right,2019-10-06T17:07:17.000Z,2019-10-06T17:07:16.000Z,6-5,262,07/13/1997,Kentucky,LB,CAR,JAX,5,Bank of America Stadium,"Charlotte, NC",Outdoors,Natural Grass,Cloudy,72.0,59,4,ESE
61588,2019100600,20191006000215,away,84.79,22.23,0.64,1.36,0.07,247.89,313.83,2562954,Quincy Williams,56,2019,30,1,12:43:00,CAR,1,10,JAX,0,0,2561184,SHOTGUN,"2 RB, 1 TE, 2 WR",6,"3 DL, 3 LB, 5 DB",right,2019-10-06T17:07:17.000Z,2019-10-06T17:07:16.000Z,5-11,226,08/28/1996,Murray State,LB,CAR,JAX,5,Bank of America Stadium,"Charlotte, NC",Outdoors,Natural Grass,Cloudy,72.0,59,4,ESE
61589,2019100600,20191006000215,home,78.84,21.09,1.27,0.89,0.13,73.51,359.23,2495700,Greg Olsen,88,2019,30,1,12:43:00,CAR,1,10,JAX,0,0,2561184,SHOTGUN,"2 RB, 1 TE, 2 WR",6,"3 DL, 3 LB, 5 DB",right,2019-10-06T17:07:17.000Z,2019-10-06T17:07:16.000Z,6-5,255,03/11/1985,Miami,TE,CAR,JAX,5,Bank of America Stadium,"Charlotte, NC",Outdoors,Natural Grass,Cloudy,72.0,59,4,ESE
61590,2019100600,20191006000215,home,78.56,23.51,2.91,1.34,0.31,110.67,159.46,2538145,Greg Van Roten,73,2019,30,1,12:43:00,CAR,1,10,JAX,0,0,2561184,SHOTGUN,"2 RB, 1 TE, 2 WR",6,"3 DL, 3 LB, 5 DB",right,2019-10-06T17:07:17.000Z,2019-10-06T17:07:16.000Z,6-3,305,02/26/1990,Pennsylvania,G,CAR,JAX,5,Bank of America Stadium,"Charlotte, NC",Outdoors,Natural Grass,Cloudy,72.0,59,4,ESE
61591,2019100600,20191006000215,home,79.57,25.8,1.44,1.06,0.15,4.19,17.69,2550155,Matt Paradis,61,2019,30,1,12:43:00,CAR,1,10,JAX,0,0,2561184,SHOTGUN,"2 RB, 1 TE, 2 WR",6,"3 DL, 3 LB, 5 DB",right,2019-10-06T17:07:17.000Z,2019-10-06T17:07:16.000Z,6-3,300,10/12/1989,Boise State,C,CAR,JAX,5,Bank of America Stadium,"Charlotte, NC",Outdoors,Natural Grass,Cloudy,72.0,59,4,ESE
61592,2019100600,20191006000215,home,79.13,24.01,1.79,0.93,0.19,79.96,10.5,2552357,Daryl Williams,60,2019,30,1,12:43:00,CAR,1,10,JAX,0,0,2561184,SHOTGUN,"2 RB, 1 TE, 2 WR",6,"3 DL, 3 LB, 5 DB",right,2019-10-06T17:07:17.000Z,2019-10-06T17:07:16.000Z,6-6,330,08/31/1992,Oklahoma,T,CAR,JAX,5,Bank of America Stadium,"Charlotte, NC",Outdoors,Natural Grass,Cloudy,72.0,59,4,ESE
61593,2019100600,20191006000215,home,79.92,23.17,2.72,1.34,0.28,12.19,31.67,2557871,Taylor Moton,72,2019,30,1,12:43:00,CAR,1,10,JAX,0,0,2561184,SHOTGUN,"2 RB, 1 TE, 2 WR",6,"3 DL, 3 LB, 5 DB",right,2019-10-06T17:07:17.000Z,2019-10-06T17:07:16.000Z,6-5,325,03/18/1994,Western Michigan,T,CAR,JAX,5,Bank of America Stadium,"Charlotte, NC",Outdoors,Natural Grass,Cloudy,72.0,59,4,ESE
61594,2019100600,20191006000215,home,72.58,36.29,6.3,1.56,0.64,73.92,9.86,2557997,Christian McCaffrey,22,2019,30,1,12:43:00,CAR,1,10,JAX,0,0,2561184,SHOTGUN,"2 RB, 1 TE, 2 WR",6,"3 DL, 3 LB, 5 DB",right,2019-10-06T17:07:17.000Z,2019-10-06T17:07:16.000Z,5-11,205,06/07/1996,Stanford,RB,CAR,JAX,5,Bank of America Stadium,"Charlotte, NC",Outdoors,Natural Grass,Cloudy,72.0,59,4,ESE
61595,2019100600,20191006000215,home,79.65,17.54,3.92,0.8,0.37,69.18,32.44,2558066,Curtis Samuel,10,2019,30,1,12:43:00,CAR,1,10,JAX,0,0,2561184,SHOTGUN,"2 RB, 1 TE, 2 WR",6,"3 DL, 3 LB, 5 DB",right,2019-10-06T17:07:17.000Z,2019-10-06T17:07:16.000Z,5-11,195,08/11/1996,Ohio State,WR,CAR,JAX,5,Bank of America Stadium,"Charlotte, NC",Outdoors,Natural Grass,Cloudy,72.0,59,4,ESE
61596,2019100600,20191006000215,home,80.69,43.47,3.88,2.64,0.37,85.66,85.32,2560813,D.J. Moore,12,2019,30,1,12:43:00,CAR,1,10,JAX,0,0,2561184,SHOTGUN,"2 RB, 1 TE, 2 WR",6,"3 DL, 3 LB, 5 DB",right,2019-10-06T17:07:17.000Z,2019-10-06T17:07:16.000Z,6-0,215,04/14/1997,Maryland,WR,CAR,JAX,5,Bank of America Stadium,"Charlotte, NC",Outdoors,Natural Grass,Cloudy,72.0,59,4,ESE
61597,2019100600,20191006000215,home,75.08,24.81,2.05,2.16,0.19,25.07,335.77,2561177,Kyle Allen,7,2019,30,1,12:43:00,CAR,1,10,JAX,0,0,2561184,SHOTGUN,"2 RB, 1 TE, 2 WR",6,"3 DL, 3 LB, 5 DB",right,2019-10-06T17:07:17.000Z,2019-10-06T17:07:16.000Z,6-3,211,03/08/1996,Houston,QB,CAR,JAX,5,Bank of America Stadium,"Charlotte, NC",Outdoors,Natural Grass,Cloudy,72.0,59,4,ESE
61598,2019100600,20191006000215,home,75.76,25.01,4.31,2.81,0.42,92.09,132.23,2561184,Reggie Bonnafon,39,2019,30,1,12:43:00,CAR,1,10,JAX,0,0,2561184,SHOTGUN,"2 RB, 1 TE, 2 WR",6,"3 DL, 3 LB, 5 DB",right,2019-10-06T17:07:17.000Z,2019-10-06T17:07:16.000Z,6-0,215,01/04/1996,Louisville,RB,CAR,JAX,5,Bank of America Stadium,"Charlotte, NC",Outdoors,Natural Grass,Cloudy,72.0,59,4,ESE
61599,2019100600,20191006000215,home,78.08,26.24,1.6,2.65,0.16,6.26,277.13,2562251,Dennis Daley,65,2019,30,1,12:43:00,CAR,1,10,JAX,0,0,2561184,SHOTGUN,"2 RB, 1 TE, 2 WR",6,"3 DL, 3 LB, 5 DB",right,2019-10-06T17:07:17.000Z,2019-10-06T17:07:16.000Z,6-6,324,08/07/1996,South Carolina,T,CAR,JAX,5,Bank of America Stadium,"Charlotte, NC",Outdoors,Natural Grass,Cloudy,72.0,59,4,ESE
