,GameId,PlayId,Team,X,Y,S,A,Dis,Orientation,Dir,NflId,DisplayName,JerseyNumber,Season,YardLine,Quarter,GameClock,PossessionTeam,Down,Distance,FieldPosition,HomeScoreBeforePlay,VisitorScoreBeforePlay,NflIdRusher,OffenseFormation,OffensePersonnel,DefendersInTheBox,DefensePersonnel,PlayDirection,TimeHandoff,TimeSnap,PlayerHeight,PlayerWeight,PlayerBirthDate,PlayerCollegeName,Position,HomeTeamAbbr,VisitorTeamAbbr,Week,Stadium,Location,StadiumType,Turf,GameWeather,Temperature,Humidity,WindSpeed,WindDirection
52316,2019092905,20190929052491,away,66.02,25.74,1.86,1.88,0.18,105.23,66.88,2532986,Tahir Whitehead,59,2019,40,3,14:22:00,IND,1,10,IND,10,21,2558123,SINGLEBACK,"1 RB, 1 TE, 3 WR",7,"4 DL, 2 LB, 5 DB",left,2019-09-29T18:52:46.000Z,2019-09-29T18:52:44.000Z,6-1,241,04/02/1990,Temple,OLB,IND,OAK,4,Lucas Oil Stadium,"Indianapolis, Ind.",Retr. Roof-Closed,Artificial,Cloudy,77.0,72,10,NNE
52317,2019092905,20190929052491,away,68.9,24.38,0.63,2.24,0.07,26.0,249.75,2540147,Johnathan Hankins,90,2019,40,3,14:22:00,IND,1,10,IND,10,21,2558123,SINGLEBACK,"1 RB, 1 TE, 3 WR",7,"4 DL, 2 LB, 5 DB",left,2019-09-29T18:52:46.000Z,2019-09-29T18:52:44.000Z,6-3,340,03/30/1992,Ohio State,DT,IND,OAK,4,Lucas Oil Stadium,"Indianapolis, Ind.",Retr. Roof-Closed,Artificial,Cloudy,77.0,72,10,NNE
52318,2019092905,20190929052491,away,65.89,30.87,0.56,1.0,0.06,66.22,266.79,2543492,Lamarcus Joyner,29,2019,40,3,14:22:00,IND,1,10,IND,10,21,2558123,SINGLEBACK,"1 RB, 1 TE, 3 WR",7,"4 DL, 2 LB, 5 DB",left,2019-09-29T18:52:46.000Z,2019-09-29T18:52:44.000Z,5-8,185,11/27/1990,Florida State,FS,IND,OAK,4,Lucas Oil Stadium,"Indianapolis, Ind.",Retr. Roof-Closed,Artificial,Cloudy,77.0,72,10,NNE
52319,2019092905,20190929052491,away,70.19,30.37,0.81,1.76,0.08,144.53,36.38,2550437,Josh Mauro,97,2019,40,3,14:22:00,IND,1,10,IND,10,21,2558123,SINGLEBACK,"1 RB, 1 TE, 3 WR",7,"4 DL, 2 LB, 5 DB",left,2019-09-29T18:52:46.000Z,2019-09-29T18:52:44.000Z,6-6,290,02/17/1991,Stanford,DE,IND,OAK,4,Lucas Oil Stadium,"Indianapolis, Ind.",Retr. Roof-Closed,Artificial,Cloudy,77.0,72,10,NNE
52320,2019092905,20190929052491,away,67.08,18.21,4.95,3.19,0.49,39.45,58.28,2555342,Karl Joseph,42,2019,40,3,14:22:00,IND,1,10,IND,10,21,2558123,SINGLEBACK,"1 RB, 1 TE, 3 WR",7,"4 DL, 2 LB, 5 DB",left,2019-09-29T18:52:46.000Z,2019-09-29T18:52:44.000Z,5-10,200,09/08/1993,West Virginia,SS,IND,OAK,4,Lucas Oil Stadium,"Indianapolis, Ind.",Retr. Roof-Closed,Artificial,Cloudy,77.0,72,10,NNE
52321,2019092905,20190929052491,away,60.78,10.52,2.5,2.6,0.25,56.19,308.59,2555394,Daryl Worley,20,2019,40,3,14:22:00,IND,1,10,IND,10,21,2558123,SINGLEBACK,"1 RB, 1 TE, 3 WR",7,"4 DL, 2 LB, 5 DB",left,2019-09-29T18:52:46.000Z,2019-09-29T18:52:44.000Z,6-1,215,02/22/1995,West Virginia,CB,IND,OAK,4,Lucas Oil Stadium,"Indianapolis, Ind.",Retr. Roof-Closed,Artificial,Cloudy,77.0,72,10,NNE
52322,2019092905,20190929052491,away,52.95,24.48,3.1,0.89,0.31,64.92,265.76,2555568,Erik Harris,25,2019,40,3,14:22:00,IND,1,10,IND,10,21,2558123,SINGLEBACK,"1 RB, 1 TE, 3 WR",7,"4 DL, 2 LB, 5 DB",left,2019-09-29T18:52:46.000Z,2019-09-29T18:52:44.000Z,6-2,220,04/02/1990,"California, Pa.",SS,IND,OAK,4,Lucas Oil Stadium,"Indianapolis, Ind.",Retr. Roof-Closed,Artificial,Cloudy,77.0,72,10,NNE
52323,2019092905,20190929052491,away,64.05,33.56,0.36,0.2,0.04,155.3,303.05,2558062,Gareon Conley,21,2019,40,3,14:22:00,IND,1,10,IND,10,21,2558123,SINGLEBACK,"1 RB, 1 TE, 3 WR",7,"4 DL, 2 LB, 5 DB",left,2019-09-29T18:52:46.000Z,2019-09-29T18:52:44.000Z,6-0,190,06/29/1995,Ohio State,CB,IND,OAK,4,Lucas Oil Stadium,"Indianapolis, Ind.",Retr. Roof-Closed,Artificial,Cloudy,77.0,72,10,NNE
52324,2019092905,20190929052491,away,69.8,21.53,5.17,3.52,0.51,48.1,52.08,2559054,Nicholas Morrow,50,2019,40,3,14:22:00,IND,1,10,IND,10,21,2558123,SINGLEBACK,"1 RB, 1 TE, 3 WR",7,"4 DL, 2 LB, 5 DB",left,2019-09-29T18:52:46.000Z,2019-09-29T18:52:44.000Z,6-0,225,07/10/1995,Greenville,ILB,IND,OAK,4,Lucas Oil Stadium,"Indianapolis, Ind.",Retr. Roof-Closed,Artificial,Cloudy,77.0,72,10,NNE
52325,2019092905,20190929052491,away,69.16,25.56,1.55,0.68,0.15,100.5,193.71,2560080,P.J. Hall,92,2019,40,3,14:22:00,IND,1,10,IND,10,21,2558123,SINGLEBACK,"1 RB, 1 TE, 3 WR",7,"4 DL, 2 LB, 5 DB",left,2019-09-29T18:52:46.000Z,2019-09-29T18:52:44.000Z,6-0,305,04/05/1995,Sam Houston State,DT,IND,OAK,4,Lucas Oil Stadium,"Indianapolis, Ind.",Retr. Roof-Closed,Artificial,Cloudy,77.0,72,10,NNE
52326,2019092905,20190929052491,away,68.61,22.6,2.58,2.17,0.27,47.8,313.0,2562263,Clelin Ferrell,96,2019,40,3,14:22:00,IND,1,10,IND,10,21,2558123,SINGLEBACK,"1 RB, 1 TE, 3 WR",7,"4 DL, 2 LB, 5 DB",left,2019-09-29T18:52:46.000Z,2019-09-29T18:52:44.000Z,6-4,265,05/17/1997,Clemson,DL,IND,OAK,4,Lucas Oil Stadium,"Indianapolis, Ind.",Retr. Roof-Closed,Artificial,Cloudy,77.0,72,10,NNE
52327,2019092905,20190929052491,home,69.11,21.95,3.14,1.14,0.32,4.44,295.4,2495137,Anthony Castonzo,74,2019,40,3,14:22:00,IND,1,10,IND,10,21,2558123,SINGLEBACK,"1 RB, 1 TE, 3 WR",7,"4 DL, 2 LB, 5 DB",left,2019-09-29T18:52:46.000Z,2019-09-29T18:52:44.000Z,6-7,307,08/09/1988,Boston College,T,IND,OAK,4,Lucas Oil Stadium,"Indianapolis, Ind.",Retr. Roof-Closed,Artificial,Cloudy,77.0,72,10,NNE
52328,2019092905,20190929052491,home,71.16,29.03,1.65,1.12,0.17,312.04,329.56,2540232,Jack Doyle,84,2019,40,3,14:22:00,IND,1,10,IND,10,21,2558123,SINGLEBACK,"1 RB, 1 TE, 3 WR",7,"4 DL, 2 LB, 5 DB",left,2019-09-29T18:52:46.000Z,2019-09-29T18:52:44.000Z,6-6,262,05/05/1990,Western Kentucky,TE,IND,OAK,4,Lucas Oil Stadium,"Indianapolis, Ind.",Retr. Roof-Closed,Artificial,Cloudy,77.0,72,10,NNE
52329,2019092905,20190929052491,home,69.33,24.8,1.67,0.75,0.18,262.1,244.56,2552467,Mark Glowinski,64,2019,40,3,14:22:00,IND,1,10,IND,10,21,2558123,SINGLEBACK,"1 RB, 1 TE, 3 WR",7,"4 DL, 2 LB, 5 DB",left,2019-09-29T18:52:46.000Z,2019-09-29T18:52:44.000Z,6-4,310,05/03/1992,West Virginia,G,IND,OAK,4,Lucas Oil Stadium,"Indianapolis, Ind.",Retr. Roof-Closed,Artificial,Cloudy,77.0,72,10,NNE
52330,2019092905,20190929052491,home,69.47,24.01,0.47,0.99,0.05,265.83,287.51,2555191,Ryan Kelly,78,2019,40,3,14:22:00,IND,1,10,IND,10,21,2558123,SINGLEBACK,"1 RB, 1 TE, 3 WR",7,"4 DL, 2 LB, 5 DB",left,2019-09-29T18:52:46.000Z,2019-09-29T18:52:44.000Z,6-4,309,05/30/1993,Alabama,C,IND,OAK,4,Lucas Oil Stadium,"Indianapolis, Ind.",Retr. Roof-Closed,Artificial,Cloudy,77.0,72,10,NNE
52331,2019092905,20190929052491,home,74.29,23.03,4.03,1.81,0.4,92.94,89.27,2555261,Jacoby Brissett,7,2019,40,3,14:22:00,IND,1,10,IND,10,21,2558123,SINGLEBACK,"1 RB, 1 TE, 3 WR",7,"4 DL, 2 LB, 5 DB",left,2019-09-29T18:52:46.000Z,2019-09-29T18:52:44.000Z,6-4,235,12/11/1992,North Carolina State,QB,IND,OAK,4,Lucas Oil Stadium,"Indianapolis, Ind.",Retr. Roof-Closed,Artificial,Cloudy,77.0,72,10,NNE
52332,2019092905,20190929052491,home,75.35,23.78,4.57,3.17,0.44,295.77,283.58,2558123,Marlon Mack,25,2019,40,3,14:22:00,IND,1,10,IND,10,21,2558123,SINGLEBACK,"1 RB, 1 TE, 3 WR",7,"4 DL, 2 LB, 5 DB",left,2019-09-29T18:52:46.000Z,2019-09-29T18:52:44.000Z,6-0,210,03/07/1996,South Florida,RB,IND,OAK,4,Lucas Oil Stadium,"Indianapolis, Ind.",Retr. Roof-Closed,Artificial,Cloudy,77.0,72,10,NNE
52333,2019092905,20190929052491,home,70.48,29.76,0.64,0.73,0.06,305.46,286.02,2558877,Zach Pascal,14,2019,40,3,14:22:00,IND,1,10,IND,10,21,2558123,SINGLEBACK,"1 RB, 1 TE, 3 WR",7,"4 DL, 2 LB, 5 DB",left,2019-09-29T18:52:46.000Z,2019-09-29T18:52:44.000Z,6-2,214,12/18/1994,Old Dominion,WR,IND,OAK,4,Lucas Oil Stadium,"Indianapolis, Ind.",Retr. Roof-Closed,Artificial,Cloudy,77.0,72,10,NNE
52334,2019092905,20190929052491,home,69.15,22.53,2.53,0.45,0.26,272.26,290.23,2560820,Quenton Nelson,56,2019,40,3,14:22:00,IND,1,10,IND,10,21,2558123,SINGLEBACK,"1 RB, 1 TE, 3 WR",7,"4 DL, 2 LB, 5 DB",left,2019-09-29T18:52:46.000Z,2019-09-29T18:52:44.000Z,6-5,330,03/19/1996,Notre Dame,G,IND,OAK,4,Lucas Oil Stadium,"Indianapolis, Ind.",Retr. Roof-Closed,Artificial,Cloudy,77.0,72,10,NNE
52335,2019092905,20190929052491,home,69.68,25.62,1.71,1.11,0.18,252.49,213.45,2560876,Braden Smith,72,2019,40,3,14:22:00,IND,1,10,IND,10,21,2558123,SINGLEBACK,"1 RB, 1 TE, 3 WR",7,"4 DL, 2 LB, 5 DB",left,2019-09-29T18:52:46.000Z,2019-09-29T18:52:44.000Z,6-6,315,03/25/1996,Auburn,G,IND,OAK,4,Lucas Oil Stadium,"Indianapolis, Ind.",Retr. Roof-Closed,Artificial,Cloudy,77.0,72,10,NNE
52336,2019092905,20190929052491,home,67.1,11.72,5.45,2.38,0.53,286.51,290.98,2560987,Deon Cain,11,2019,40,3,14:22:00,IND,1,10,IND,10,21,2558123,SINGLEBACK,"1 RB, 1 TE, 3 WR",7,"4 DL, 2 LB, 5 DB",left,2019-09-29T18:52:46.000Z,2019-09-29T18:52:44.000Z,6-2,202,08/09/1996,Clemson,WR,IND,OAK,4,Lucas Oil Stadium,"Indianapolis, Ind.",Retr. Roof-Closed,Artificial,Cloudy,77.0,72,10,NNE
52337,2019092905,20190929052491,home,69.11,30.94,3.56,0.87,0.35,258.78,279.6,2562495,Parris Campbell,15,2019,40,3,14:22:00,IND,1,10,IND,10,21,2558123,SINGLEBACK,"1 RB, 1 TE, 3 WR",7,"4 DL, 2 LB, 5 DB",left,2019-09-29T18:52:46.000Z,2019-09-29T18:52:44.000Z,6-0,205,07/16/1997,Ohio State,WR,IND,OAK,4,Lucas Oil Stadium,"Indianapolis, Ind.",Retr. Roof-Closed,Artificial,Cloudy,77.0,72,10,NNE
