,GameId,PlayId,Team,X,Y,S,A,Dis,Orientation,Dir,NflId,DisplayName,JerseyNumber,Season,YardLine,Quarter,GameClock,PossessionTeam,Down,Distance,FieldPosition,HomeScoreBeforePlay,VisitorScoreBeforePlay,NflIdRusher,OffenseFormation,OffensePersonnel,DefendersInTheBox,DefensePersonnel,PlayDirection,TimeHandoff,TimeSnap,PlayerHeight,PlayerWeight,PlayerBirthDate,PlayerCollegeName,Position,HomeTeamAbbr,VisitorTeamAbbr,Week,Stadium,Location,StadiumType,Turf,GameWeather,Temperature,Humidity,WindSpeed,WindDirection
36476,2019092205,20190922050136,away,76.94,36.36,5.63,1.45,0.56,48.3,22.49,2532986,Tahir Whitehead,59,2019,30,1,13:45:00,MIN,1,10,MIN,0,0,2557991,SINGLEBACK,"1 RB, 2 TE, 2 WR",6,"4 DL, 3 LB, 4 DB",left,2019-09-22T17:05:10.000Z,2019-09-22T17:05:08.000Z,6-1,241,04/02/1990,Temple,OLB,MIN,OAK,3,U.S. Bank Stadium,"Minneapolis, MN",Indoors,Field Turf,N/A (Indoors),,0,,
36477,2019092205,20190922050136,away,75.73,31.35,4.96,1.19,0.49,25.64,19.98,2533058,Vontaze Burfict,55,2019,30,1,13:45:00,MIN,1,10,MIN,0,0,2557991,SINGLEBACK,"1 RB, 2 TE, 2 WR",6,"4 DL, 3 LB, 4 DB",left,2019-09-22T17:05:10.000Z,2019-09-22T17:05:08.000Z,6-1,255,09/24/1990,Arizona State,OLB,MIN,OAK,3,U.S. Bank Stadium,"Minneapolis, MN",Indoors,Field Turf,N/A (Indoors),,0,,
36478,2019092205,20190922050136,away,80.9,31.75,3.13,1.12,0.33,343.93,31.41,2540147,Johnathan Hankins,90,2019,30,1,13:45:00,MIN,1,10,MIN,0,0,2557991,SINGLEBACK,"1 RB, 2 TE, 2 WR",6,"4 DL, 3 LB, 4 DB",left,2019-09-22T17:05:10.000Z,2019-09-22T17:05:08.000Z,6-3,340,03/30/1992,Ohio State,DT,MIN,OAK,3,U.S. Bank Stadium,"Minneapolis, MN",Indoors,Field Turf,N/A (Indoors),,0,,
36479,2019092205,20190922050136,away,82.32,34.46,2.8,1.2,0.29,95.98,81.88,2550437,Josh Mauro,97,2019,30,1,13:45:00,MIN,1,10,MIN,0,0,2557991,SINGLEBACK,"1 RB, 2 TE, 2 WR",6,"4 DL, 3 LB, 4 DB",left,2019-09-22T17:05:10.000Z,2019-09-22T17:05:08.000Z,6-6,290,02/17/1991,Stanford,DE,MIN,OAK,3,U.S. Bank Stadium,"Minneapolis, MN",Indoors,Field Turf,N/A (Indoors),,0,,
36480,2019092205,20190922050136,away,67.04,21.06,2.83,1.93,0.28,76.14,305.59,2553822,Curtis Riley,35,2019,30,1,13:45:00,MIN,1,10,MIN,0,0,2557991,SINGLEBACK,"1 RB, 2 TE, 2 WR",6,"4 DL, 3 LB, 4 DB",left,2019-09-22T17:05:10.000Z,2019-09-22T17:05:08.000Z,6-0,190,07/18/1992,Fresno State,CB,MIN,OAK,3,U.S. Bank Stadium,"Minneapolis, MN",Indoors,Field Turf,N/A (Indoors),,0,,
36481,2019092205,20190922050136,away,67.92,37.63,3.14,4.45,0.3,85.34,17.06,2555342,Karl Joseph,42,2019,30,1,13:45:00,MIN,1,10,MIN,0,0,2557991,SINGLEBACK,"1 RB, 2 TE, 2 WR",6,"4 DL, 3 LB, 4 DB",left,2019-09-22T17:05:10.000Z,2019-09-22T17:05:08.000Z,5-10,200,09/08/1993,West Virginia,SS,MIN,OAK,3,U.S. Bank Stadium,"Minneapolis, MN",Indoors,Field Turf,N/A (Indoors),,0,,
36482,2019092205,20190922050136,away,70.51,10.7,3.4,2.33,0.33,63.78,296.98,2555394,Daryl Worley,20,2019,30,1,13:45:00,MIN,1,10,MIN,0,0,2557991,SINGLEBACK,"1 RB, 2 TE, 2 WR",6,"4 DL, 3 LB, 4 DB",left,2019-09-22T17:05:10.000Z,2019-09-22T17:05:08.000Z,6-1,215,02/22/1995,West Virginia,CB,MIN,OAK,3,U.S. Bank Stadium,"Minneapolis, MN",Indoors,Field Turf,N/A (Indoors),,0,,
36483,2019092205,20190922050136,away,76.42,23.4,4.93,2.95,0.48,26.74,352.09,2557972,Marquel Lee,52,2019,30,1,13:45:00,MIN,1,10,MIN,0,0,2557991,SINGLEBACK,"1 RB, 2 TE, 2 WR",6,"4 DL, 3 LB, 4 DB",left,2019-09-22T17:05:10.000Z,2019-09-22T17:05:08.000Z,6-3,235,10/21/1995,Wake Forest,MLB,MIN,OAK,3,U.S. Bank Stadium,"Minneapolis, MN",Indoors,Field Turf,N/A (Indoors),,0,,
36484,2019092205,20190922050136,away,80.24,39.28,4.33,3.58,0.42,100.58,12.7,2558062,Gareon Conley,21,2019,30,1,13:45:00,MIN,1,10,MIN,0,0,2557991,SINGLEBACK,"1 RB, 2 TE, 2 WR",6,"4 DL, 3 LB, 4 DB",left,2019-09-22T17:05:10.000Z,2019-09-22T17:05:08.000Z,6-0,190,06/29/1995,Ohio State,CB,MIN,OAK,3,U.S. Bank Stadium,"Minneapolis, MN",Indoors,Field Turf,N/A (Indoors),,0,,
36485,2019092205,20190922050136,away,81.34,34.31,2.91,1.39,0.3,82.7,30.19,2560748,Maurice Hurst,73,2019,30,1,13:45:00,MIN,1,10,MIN,0,0,2557991,SINGLEBACK,"1 RB, 2 TE, 2 WR",6,"4 DL, 3 LB, 4 DB",left,2019-09-22T17:05:10.000Z,2019-09-22T17:05:08.000Z,6-1,291,05/09/1995,Michigan,DT,MIN,OAK,3,U.S. Bank Stadium,"Minneapolis, MN",Indoors,Field Turf,N/A (Indoors),,0,,
36486,2019092205,20190922050136,away,80.15,28.95,5.08,1.7,0.51,20.37,1.31,2562263,Clelin Ferrell,96,2019,30,1,13:45:00,MIN,1,10,MIN,0,0,2557991,SINGLEBACK,"1 RB, 2 TE, 2 WR",6,"4 DL, 3 LB, 4 DB",left,2019-09-22T17:05:10.000Z,2019-09-22T17:05:08.000Z,6-4,265,05/17/1997,Clemson,DL,MIN,OAK,3,U.S. Bank Stadium,"Minneapolis, MN",Indoors,Field Turf,N/A (Indoors),,0,,
36487,2019092205,20190922050136,home,82.01,34.94,2.3,2.42,0.22,142.91,79.48,2495438,Kyle Rudolph,82,2019,30,1,13:45:00,MIN,1,10,MIN,0,0,2557991,SINGLEBACK,"1 RB, 2 TE, 2 WR",6,"4 DL, 3 LB, 4 DB",left,2019-09-22T17:05:10.000Z,2019-09-22T17:05:08.000Z,6-6,265,11/09/1989,Notre Dame,TE,MIN,OAK,3,U.S. Bank Stadium,"Minneapolis, MN",Indoors,Field Turf,N/A (Indoors),,0,,
36488,2019092205,20190922050136,home,84.57,31.71,3.94,2.4,0.39,52.08,70.21,2532820,Kirk Cousins,8,2019,30,1,13:45:00,MIN,1,10,MIN,0,0,2557991,SINGLEBACK,"1 RB, 2 TE, 2 WR",6,"4 DL, 3 LB, 4 DB",left,2019-09-22T17:05:10.000Z,2019-09-22T17:05:08.000Z,6-3,202,08/19/1988,Michigan State,QB,MIN,OAK,3,U.S. Bank Stadium,"Minneapolis, MN",Indoors,Field Turf,N/A (Indoors),,0,,
36489,2019092205,20190922050136,home,79.53,30.8,4.85,0.67,0.5,291.2,329.68,2533042,Riley Reiff,71,2019,30,1,13:45:00,MIN,1,10,MIN,0,0,2557991,SINGLEBACK,"1 RB, 2 TE, 2 WR",6,"4 DL, 3 LB, 4 DB",left,2019-09-22T17:05:10.000Z,2019-09-22T17:05:08.000Z,6-6,305,12/01/1988,Iowa,T,MIN,OAK,3,U.S. Bank Stadium,"Minneapolis, MN",Indoors,Field Turf,N/A (Indoors),,0,,
36490,2019092205,20190922050136,home,82.02,33.66,1.85,0.64,0.18,284.75,41.14,2541142,Josh Kline,64,2019,30,1,13:45:00,MIN,1,10,MIN,0,0,2557991,SINGLEBACK,"1 RB, 2 TE, 2 WR",6,"4 DL, 3 LB, 4 DB",left,2019-09-22T17:05:10.000Z,2019-09-22T17:05:08.000Z,6-3,300,12/29/1989,Kent State,G,MIN,OAK,3,U.S. Bank Stadium,"Minneapolis, MN",Indoors,Field Turf,N/A (Indoors),,0,,
36491,2019092205,20190922050136,home,78.91,23.25,6.23,2.07,0.61,333.0,333.56,2541785,Adam Thielen,19,2019,30,1,13:45:00,MIN,1,10,MIN,0,0,2557991,SINGLEBACK,"1 RB, 2 TE, 2 WR",6,"4 DL, 3 LB, 4 DB",left,2019-09-22T17:05:10.000Z,2019-09-22T17:05:08.000Z,6-2,200,08/22/1990,Minn. State-Mankato,WR,MIN,OAK,3,U.S. Bank Stadium,"Minneapolis, MN",Indoors,Field Turf,N/A (Indoors),,0,,
36492,2019092205,20190922050136,home,78.23,13.14,6.46,2.56,0.63,297.33,310.88,2552608,Stefon Diggs,14,2019,30,1,13:45:00,MIN,1,10,MIN,0,0,2557991,SINGLEBACK,"1 RB, 2 TE, 2 WR",6,"4 DL, 3 LB, 4 DB",left,2019-09-22T17:05:10.000Z,2019-09-22T17:05:08.000Z,6-0,191,11/29/1993,Maryland,WR,MIN,OAK,3,U.S. Bank Stadium,"Minneapolis, MN",Indoors,Field Turf,N/A (Indoors),,0,,
36493,2019092205,20190922050136,home,86.79,34.8,6.38,1.75,0.63,298.63,346.56,2557991,Dalvin Cook,33,2019,30,1,13:45:00,MIN,1,10,MIN,0,0,2557991,SINGLEBACK,"1 RB, 2 TE, 2 WR",6,"4 DL, 3 LB, 4 DB",left,2019-09-22T17:05:10.000Z,2019-09-22T17:05:08.000Z,5-10,210,08/10/1995,Florida State,RB,MIN,OAK,3,U.S. Bank Stadium,"Minneapolis, MN",Indoors,Field Turf,N/A (Indoors),,0,,
36494,2019092205,20190922050136,home,80.81,31.83,2.45,2.35,0.25,297.58,351.16,2558848,Pat Elflein,65,2019,30,1,13:45:00,MIN,1,10,MIN,0,0,2557991,SINGLEBACK,"1 RB, 2 TE, 2 WR",6,"4 DL, 3 LB, 4 DB",left,2019-09-22T17:05:10.000Z,2019-09-22T17:05:08.000Z,6-3,303,07/06/1994,Ohio State,G,MIN,OAK,3,U.S. Bank Stadium,"Minneapolis, MN",Indoors,Field Turf,N/A (Indoors),,0,,
36495,2019092205,20190922050136,home,81.83,36.99,4.39,2.63,0.46,308.42,345.03,2560831,Brian O'Neill,75,2019,30,1,13:45:00,MIN,1,10,MIN,0,0,2557991,SINGLEBACK,"1 RB, 2 TE, 2 WR",6,"4 DL, 3 LB, 4 DB",left,2019-09-22T17:05:10.000Z,2019-09-22T17:05:08.000Z,6-7,297,09/15/1995,Pittsburgh,T,MIN,OAK,3,U.S. Bank Stadium,"Minneapolis, MN",Indoors,Field Turf,N/A (Indoors),,0,,
36496,2019092205,20190922050136,home,77.68,32.94,4.02,1.36,0.41,237.9,307.68,2562632,Garrett Bradbury,56,2019,30,1,13:45:00,MIN,1,10,MIN,0,0,2557991,SINGLEBACK,"1 RB, 2 TE, 2 WR",6,"4 DL, 3 LB, 4 DB",left,2019-09-22T17:05:10.000Z,2019-09-22T17:05:08.000Z,6-3,305,06/20/1995,North Carolina State,C,MIN,OAK,3,U.S. Bank Stadium,"Minneapolis, MN",Indoors,Field Turf,N/A (Indoors),,0,,
36497,2019092205,20190922050136,home,81.32,38.66,5.22,0.4,0.52,298.45,341.01,2562738,Irv Smith,84,2019,30,1,13:45:00,MIN,1,10,MIN,0,0,2557991,SINGLEBACK,"1 RB, 2 TE, 2 WR",6,"4 DL, 3 LB, 4 DB",left,2019-09-22T17:05:10.000Z,2019-09-22T17:05:08.000Z,6-2,240,08/09/1998,Alabama,TE,MIN,OAK,3,U.S. Bank Stadium,"Minneapolis, MN",Indoors,Field Turf,N/A (Indoors),,0,,
