,GameId,PlayId,Team,X,Y,S,A,Dis,Orientation,Dir,NflId,DisplayName,JerseyNumber,Season,YardLine,Quarter,GameClock,PossessionTeam,Down,Distance,FieldPosition,HomeScoreBeforePlay,VisitorScoreBeforePlay,NflIdRusher,OffenseFormation,OffensePersonnel,DefendersInTheBox,DefensePersonnel,PlayDirection,TimeHandoff,TimeSnap,PlayerHeight,PlayerWeight,PlayerBirthDate,PlayerCollegeName,Position,HomeTeamAbbr,VisitorTeamAbbr,Week,Stadium,Location,StadiumType,Turf,GameWeather,Temperature,Humidity,WindSpeed,WindDirection
25762,2019091509,20190915094024,away,78.12,28.26,1.79,1.08,0.19,247.48,336.51,2495435,Tyron Smith,77,2019,32,4,01:07:00,DAL,3,5,DAL,21,31,2555224,I_FORM,"6 OL, 2 RB, 1 TE, 1 WR",9,"3 DL, 4 LB, 4 DB",left,2019-09-15T19:54:36.000Z,2019-09-15T19:54:35.000Z,6-5,320,12/12/1990,Southern California,T,WAS,DAL,2,FedExField,"Landover, MD",Outdoor,Grass,Sunny,80.0,46,7,WNW
25763,2019091509,20190915094024,away,80.2,31.79,4.2,1.69,0.42,279.37,298.71,2536044,Jamize Olawale,49,2019,32,4,01:07:00,DAL,3,5,DAL,21,31,2555224,I_FORM,"6 OL, 2 RB, 1 TE, 1 WR",9,"3 DL, 4 LB, 4 DB",left,2019-09-15T19:54:36.000Z,2019-09-15T19:54:35.000Z,6-1,240,04/17/1989,North Texas,FB,WAS,DAL,2,FedExField,"Landover, MD",Outdoor,Grass,Sunny,80.0,46,7,WNW
25764,2019091509,20190915094024,away,77.37,30.96,1.94,0.17,0.21,230.52,320.95,2540161,Travis Frederick,72,2019,32,4,01:07:00,DAL,3,5,DAL,21,31,2555224,I_FORM,"6 OL, 2 RB, 1 TE, 1 WR",9,"3 DL, 4 LB, 4 DB",left,2019-09-15T19:54:36.000Z,2019-09-15T19:54:35.000Z,6-4,320,03/18/1991,Wisconsin,C,WAS,DAL,2,FedExField,"Landover, MD",Outdoor,Grass,Sunny,80.0,46,7,WNW
25765,2019091509,20190915094024,away,78.15,32.75,1.79,0.88,0.18,279.16,351.81,2543480,Zack Martin,70,2019,32,4,01:07:00,DAL,3,5,DAL,21,31,2555224,I_FORM,"6 OL, 2 RB, 1 TE, 1 WR",9,"3 DL, 4 LB, 4 DB",left,2019-09-15T19:54:36.000Z,2019-09-15T19:54:35.000Z,6-4,315,11/20/1990,Notre Dame,G,WAS,DAL,2,FedExField,"Landover, MD",Outdoor,Grass,Sunny,80.0,46,7,WNW
25766,2019091509,20190915094024,away,78.04,27.41,1.96,1.13,0.21,277.35,326.49,2543654,Cameron Fleming,75,2019,32,4,01:07:00,DAL,3,5,DAL,21,31,2555224,I_FORM,"6 OL, 2 RB, 1 TE, 1 WR",9,"3 DL, 4 LB, 4 DB",left,2019-09-15T19:54:36.000Z,2019-09-15T19:54:35.000Z,6-5,320,09/03/1992,Stanford,T,WAS,DAL,2,FedExField,"Landover, MD",Outdoor,Grass,Sunny,80.0,46,7,WNW
25767,2019091509,20190915094024,away,80.05,35.27,2.32,1.72,0.23,39.31,33.57,2553505,La'el Collins,71,2019,32,4,01:07:00,DAL,3,5,DAL,21,31,2555224,I_FORM,"6 OL, 2 RB, 1 TE, 1 WR",9,"3 DL, 4 LB, 4 DB",left,2019-09-15T19:54:36.000Z,2019-09-15T19:54:35.000Z,6-4,320,07/26/1993,Louisiana State,T,WAS,DAL,2,FedExField,"Landover, MD",Outdoor,Grass,Sunny,80.0,46,7,WNW
25768,2019091509,20190915094024,away,82.4,30.97,4.36,1.3,0.43,272.24,296.39,2555224,Ezekiel Elliott,21,2019,32,4,01:07:00,DAL,3,5,DAL,21,31,2555224,I_FORM,"6 OL, 2 RB, 1 TE, 1 WR",9,"3 DL, 4 LB, 4 DB",left,2019-09-15T19:54:36.000Z,2019-09-15T19:54:35.000Z,6-0,228,07/22/1995,Ohio State,RB,WAS,DAL,2,FedExField,"Landover, MD",Outdoor,Grass,Sunny,80.0,46,7,WNW
25769,2019091509,20190915094024,away,83.08,29.96,4.19,0.57,0.41,0.15,89.41,2555260,Dak Prescott,4,2019,32,4,01:07:00,DAL,3,5,DAL,21,31,2555224,I_FORM,"6 OL, 2 RB, 1 TE, 1 WR",9,"3 DL, 4 LB, 4 DB",left,2019-09-15T19:54:36.000Z,2019-09-15T19:54:35.000Z,6-2,238,07/29/1993,Mississippi State,QB,WAS,DAL,2,FedExField,"Landover, MD",Outdoor,Grass,Sunny,80.0,46,7,WNW
25770,2019091509,20190915094024,away,78.69,26.13,2.08,1.08,0.21,223.06,337.34,2559193,Blake Jarwin,89,2019,32,4,01:07:00,DAL,3,5,DAL,21,31,2555224,I_FORM,"6 OL, 2 RB, 1 TE, 1 WR",9,"3 DL, 4 LB, 4 DB",left,2019-09-15T19:54:36.000Z,2019-09-15T19:54:35.000Z,6-5,260,07/16/1994,Oklahoma State,TE,WAS,DAL,2,FedExField,"Landover, MD",Outdoor,Grass,Sunny,80.0,46,7,WNW
25771,2019091509,20190915094024,away,77.87,30.04,1.82,1.9,0.21,281.71,5.64,2560934,Connor Williams,52,2019,32,4,01:07:00,DAL,3,5,DAL,21,31,2555224,I_FORM,"6 OL, 2 RB, 1 TE, 1 WR",9,"3 DL, 4 LB, 4 DB",left,2019-09-15T19:54:36.000Z,2019-09-15T19:54:35.000Z,6-5,298,05/12/1997,Texas,G,WAS,DAL,2,FedExField,"Landover, MD",Outdoor,Grass,Sunny,80.0,46,7,WNW
25772,2019091509,20190915094024,away,77.34,43.72,4.07,3.03,0.39,278.48,245.15,2560936,Ced Wilson,11,2019,32,4,01:07:00,DAL,3,5,DAL,21,31,2555224,I_FORM,"6 OL, 2 RB, 1 TE, 1 WR",9,"3 DL, 4 LB, 4 DB",left,2019-09-15T19:54:36.000Z,2019-09-15T19:54:35.000Z,6-2,188,03/10/1995,Boise State,WR,WAS,DAL,2,FedExField,"Landover, MD",Outdoor,Grass,Sunny,80.0,46,7,WNW
25773,2019091509,20190915094024,home,76.14,44.15,2.7,2.66,0.26,109.7,242.08,2532920,Josh Norman,24,2019,32,4,01:07:00,DAL,3,5,DAL,21,31,2555224,I_FORM,"6 OL, 2 RB, 1 TE, 1 WR",9,"3 DL, 4 LB, 4 DB",left,2019-09-15T19:54:36.000Z,2019-09-15T19:54:35.000Z,6-0,200,12/15/1987,Coastal Carolina,CB,WAS,DAL,2,FedExField,"Landover, MD",Outdoor,Grass,Sunny,80.0,46,7,WNW
25774,2019091509,20190915094024,home,75.69,30.6,2.83,0.7,0.29,87.45,13.49,2539978,Jon Bostic,53,2019,32,4,01:07:00,DAL,3,5,DAL,21,31,2555224,I_FORM,"6 OL, 2 RB, 1 TE, 1 WR",9,"3 DL, 4 LB, 4 DB",left,2019-09-15T19:54:36.000Z,2019-09-15T19:54:35.000Z,6-1,245,05/05/1991,Florida,ILB,WAS,DAL,2,FedExField,"Landover, MD",Outdoor,Grass,Sunny,80.0,46,7,WNW
25775,2019091509,20190915094024,home,76.9,27.54,2.36,2.19,0.23,66.67,2.43,2552454,Landon Collins,20,2019,32,4,01:07:00,DAL,3,5,DAL,21,31,2555224,I_FORM,"6 OL, 2 RB, 1 TE, 1 WR",9,"3 DL, 4 LB, 4 DB",left,2019-09-15T19:54:36.000Z,2019-09-15T19:54:35.000Z,6-0,218,01/10/1994,Alabama,SS,WAS,DAL,2,FedExField,"Landover, MD",Outdoor,Grass,Sunny,80.0,46,7,WNW
25776,2019091509,20190915094024,home,73.83,23.78,2.93,1.81,0.28,46.26,7.03,2553710,Deshazor Everett,22,2019,32,4,01:07:00,DAL,3,5,DAL,21,31,2555224,I_FORM,"6 OL, 2 RB, 1 TE, 1 WR",9,"3 DL, 4 LB, 4 DB",left,2019-09-15T19:54:36.000Z,2019-09-15T19:54:35.000Z,6-0,203,02/22/1992,Texas A&M,SS,WAS,DAL,2,FedExField,"Landover, MD",Outdoor,Grass,Sunny,80.0,46,7,WNW
25777,2019091509,20190915094024,home,77.52,33.23,1.79,0.75,0.18,116.8,355.68,2555240,Matthew Ioannidis,98,2019,32,4,01:07:00,DAL,3,5,DAL,21,31,2555224,I_FORM,"6 OL, 2 RB, 1 TE, 1 WR",9,"3 DL, 4 LB, 4 DB",left,2019-09-15T19:54:36.000Z,2019-09-15T19:54:35.000Z,6-3,310,01/11/1994,Temple,DE,WAS,DAL,2,FedExField,"Landover, MD",Outdoor,Grass,Sunny,80.0,46,7,WNW
25778,2019091509,20190915094024,home,80.55,35.83,3.14,1.58,0.32,146.75,84.45,2557853,Ryan Anderson,52,2019,32,4,01:07:00,DAL,3,5,DAL,21,31,2555224,I_FORM,"6 OL, 2 RB, 1 TE, 1 WR",9,"3 DL, 4 LB, 4 DB",left,2019-09-15T19:54:36.000Z,2019-09-15T19:54:35.000Z,6-2,253,08/12/1994,Alabama,OLB,WAS,DAL,2,FedExField,"Landover, MD",Outdoor,Grass,Sunny,80.0,46,7,WNW
25779,2019091509,20190915094024,home,70.11,30.38,1.97,1.1,0.19,79.72,43.0,2558133,Montae Nicholson,35,2019,32,4,01:07:00,DAL,3,5,DAL,21,31,2555224,I_FORM,"6 OL, 2 RB, 1 TE, 1 WR",9,"3 DL, 4 LB, 4 DB",left,2019-09-15T19:54:36.000Z,2019-09-15T19:54:35.000Z,6-2,212,12/04/1995,Michigan State,FS,WAS,DAL,2,FedExField,"Landover, MD",Outdoor,Grass,Sunny,80.0,46,7,WNW
25780,2019091509,20190915094024,home,77.61,28.0,1.68,0.43,0.17,74.85,354.79,2560834,Daron Payne,94,2019,32,4,01:07:00,DAL,3,5,DAL,21,31,2555224,I_FORM,"6 OL, 2 RB, 1 TE, 1 WR",9,"3 DL, 4 LB, 4 DB",left,2019-09-15T19:54:36.000Z,2019-09-15T19:54:35.000Z,6-3,320,05/27/1997,Alabama,NT,WAS,DAL,2,FedExField,"Landover, MD",Outdoor,Grass,Sunny,80.0,46,7,WNW
25781,2019091509,20190915094024,home,77.61,30.31,1.26,0.55,0.13,346.23,7.2,2560871,Tim Settle,97,2019,32,4,01:07:00,DAL,3,5,DAL,21,31,2555224,I_FORM,"6 OL, 2 RB, 1 TE, 1 WR",9,"3 DL, 4 LB, 4 DB",left,2019-09-15T19:54:36.000Z,2019-09-15T19:54:35.000Z,6-3,308,07/11/1997,Virginia Tech,NT,WAS,DAL,2,FedExField,"Landover, MD",Outdoor,Grass,Sunny,80.0,46,7,WNW
25782,2019091509,20190915094024,home,78.2,25.66,1.99,2.2,0.2,50.92,346.27,2562749,Montez Sweat,90,2019,32,4,01:07:00,DAL,3,5,DAL,21,31,2555224,I_FORM,"6 OL, 2 RB, 1 TE, 1 WR",9,"3 DL, 4 LB, 4 DB",left,2019-09-15T19:54:36.000Z,2019-09-15T19:54:35.000Z,6-6,262,09/04/1996,Mississippi State,LB,WAS,DAL,2,FedExField,"Landover, MD",Outdoor,Grass,Sunny,80.0,46,7,WNW
25783,2019091509,20190915094024,home,75.96,33.0,2.47,2.68,0.26,112.77,53.45,2562872,Cole Holcomb,55,2019,32,4,01:07:00,DAL,3,5,DAL,21,31,2555224,I_FORM,"6 OL, 2 RB, 1 TE, 1 WR",9,"3 DL, 4 LB, 4 DB",left,2019-09-15T19:54:36.000Z,2019-09-15T19:54:35.000Z,6-1,240,07/30/1996,North Carolina,LB,WAS,DAL,2,FedExField,"Landover, MD",Outdoor,Grass,Sunny,80.0,46,7,WNW
