,GameId,PlayId,Team,X,Y,S,A,Dis,Orientation,Dir,NflId,DisplayName,JerseyNumber,Season,YardLine,Quarter,GameClock,PossessionTeam,Down,Distance,FieldPosition,HomeScoreBeforePlay,VisitorScoreBeforePlay,NflIdRusher,OffenseFormation,OffensePersonnel,DefendersInTheBox,DefensePersonnel,PlayDirection,TimeHandoff,TimeSnap,PlayerHeight,PlayerWeight,PlayerBirthDate,PlayerCollegeName,Position,HomeTeamAbbr,VisitorTeamAbbr,Week,Stadium,Location,StadiumType,Turf,GameWeather,Temperature,Humidity,WindSpeed,WindDirection
61622,2019100600,20191006000390,away,65.18,29.16,0.54,0.9,0.06,230.5,224.63,2543729,Brandon Linder,65,2019,45,1,08:55:00,JAX,1,10,JAX,7,0,2557973,SINGLEBACK,"1 RB, 1 TE, 3 WR",6,"4 DL, 2 LB, 5 DB",left,2019-10-06T17:15:16.000Z,2019-10-06T17:15:15.000Z,6-6,315,01/25/1992,Miami,C,CAR,JAX,5,Bank of America Stadium,"Charlotte, NC",Outdoors,Natural Grass,Cloudy,72.0,59,4,ESE
61623,2019100600,20191006000390,away,66.5,30.03,3.56,1.61,0.36,308.79,353.82,2550589,Andrew Norwell,68,2019,45,1,08:55:00,JAX,1,10,JAX,7,0,2557973,SINGLEBACK,"1 RB, 1 TE, 3 WR",6,"4 DL, 2 LB, 5 DB",left,2019-10-06T17:15:16.000Z,2019-10-06T17:15:15.000Z,6-6,325,10/25/1991,Ohio State,G,CAR,JAX,5,Bank of America Stadium,"Charlotte, NC",Outdoors,Natural Grass,Cloudy,72.0,59,4,ESE
61624,2019100600,20191006000390,away,65.13,30.7,1.43,0.65,0.14,255.79,231.01,2552330,A.J. Cann,60,2019,45,1,08:55:00,JAX,1,10,JAX,7,0,2557973,SINGLEBACK,"1 RB, 1 TE, 3 WR",6,"4 DL, 2 LB, 5 DB",left,2019-10-06T17:15:16.000Z,2019-10-06T17:15:15.000Z,6-3,325,10/23/1991,South Carolina,G,CAR,JAX,5,Bank of America Stadium,"Charlotte, NC",Outdoors,Natural Grass,Cloudy,72.0,59,4,ESE
61625,2019100600,20191006000390,away,64.72,9.08,2.27,2.13,0.22,260.98,231.68,2552652,Chris Conley,18,2019,45,1,08:55:00,JAX,1,10,JAX,7,0,2557973,SINGLEBACK,"1 RB, 1 TE, 3 WR",6,"4 DL, 2 LB, 5 DB",left,2019-10-06T17:15:16.000Z,2019-10-06T17:15:15.000Z,6-3,205,10/25/1992,Georgia,WR,CAR,JAX,5,Bank of America Stadium,"Charlotte, NC",Outdoors,Natural Grass,Cloudy,72.0,59,4,ESE
61626,2019100600,20191006000390,away,65.81,35.31,1.67,0.96,0.16,36.2,20.04,2553318,James O'Shaughnessy,80,2019,45,1,08:55:00,JAX,1,10,JAX,7,0,2557973,SINGLEBACK,"1 RB, 1 TE, 3 WR",6,"4 DL, 2 LB, 5 DB",left,2019-10-06T17:15:16.000Z,2019-10-06T17:15:15.000Z,6-4,245,01/14/1992,Illinois State,TE,CAR,JAX,5,Bank of America Stadium,"Charlotte, NC",Outdoors,Natural Grass,Cloudy,72.0,59,4,ESE
61627,2019100600,20191006000390,away,67.93,18.21,3.63,1.94,0.35,263.91,165.08,2557895,Dede Westbrook,12,2019,45,1,08:55:00,JAX,1,10,JAX,7,0,2557973,SINGLEBACK,"1 RB, 1 TE, 3 WR",6,"4 DL, 2 LB, 5 DB",left,2019-10-06T17:15:16.000Z,2019-10-06T17:15:15.000Z,6-0,176,11/21/1993,Oklahoma,WR,CAR,JAX,5,Bank of America Stadium,"Charlotte, NC",Outdoors,Natural Grass,Cloudy,72.0,59,4,ESE
61628,2019100600,20191006000390,away,69.73,30.24,4.05,2.4,0.39,240.04,286.04,2557973,Leonard Fournette,27,2019,45,1,08:55:00,JAX,1,10,JAX,7,0,2557973,SINGLEBACK,"1 RB, 1 TE, 3 WR",6,"4 DL, 2 LB, 5 DB",left,2019-10-06T17:15:16.000Z,2019-10-06T17:15:15.000Z,6-0,228,01/18/1995,Louisiana State,RB,CAR,JAX,5,Bank of America Stadium,"Charlotte, NC",Outdoors,Natural Grass,Cloudy,72.0,59,4,ESE
61629,2019100600,20191006000390,away,65.46,27.56,1.8,0.43,0.19,222.56,324.94,2558004,Cam Robinson,74,2019,45,1,08:55:00,JAX,1,10,JAX,7,0,2557973,SINGLEBACK,"1 RB, 1 TE, 3 WR",6,"4 DL, 2 LB, 5 DB",left,2019-10-06T17:15:16.000Z,2019-10-06T17:15:15.000Z,6-6,320,10/09/1995,Alabama,T,CAR,JAX,5,Bank of America Stadium,"Charlotte, NC",Outdoors,Natural Grass,Cloudy,72.0,59,4,ESE
61630,2019100600,20191006000390,away,64.68,37.52,3.37,2.75,0.34,262.14,259.95,2561018,D.J. Chark,17,2019,45,1,08:55:00,JAX,1,10,JAX,7,0,2557973,SINGLEBACK,"1 RB, 1 TE, 3 WR",6,"4 DL, 2 LB, 5 DB",left,2019-10-06T17:15:16.000Z,2019-10-06T17:15:15.000Z,6-4,198,09/23/1996,Louisiana State,WR,CAR,JAX,5,Bank of America Stadium,"Charlotte, NC",Outdoors,Natural Grass,Cloudy,72.0,59,4,ESE
61631,2019100600,20191006000390,away,64.97,31.58,1.36,0.77,0.14,207.85,227.36,2562756,Jawaan Taylor,75,2019,45,1,08:55:00,JAX,1,10,JAX,7,0,2557973,SINGLEBACK,"1 RB, 1 TE, 3 WR",6,"4 DL, 2 LB, 5 DB",left,2019-10-06T17:15:16.000Z,2019-10-06T17:15:15.000Z,6-5,312,11/25/1997,Florida,T,CAR,JAX,5,Bank of America Stadium,"Charlotte, NC",Outdoors,Natural Grass,Cloudy,72.0,59,4,ESE
61632,2019100600,20191006000390,away,68.48,29.66,4.84,3.32,0.46,316.35,95.85,2562796,Gardner Minshew,15,2019,45,1,08:55:00,JAX,1,10,JAX,7,0,2557973,SINGLEBACK,"1 RB, 1 TE, 3 WR",6,"4 DL, 2 LB, 5 DB",left,2019-10-06T17:15:16.000Z,2019-10-06T17:15:15.000Z,6-1,225,05/16/1996,Washington State,QB,CAR,JAX,5,Bank of America Stadium,"Charlotte, NC",Outdoors,Natural Grass,Cloudy,72.0,59,4,ESE
61633,2019100600,20191006000390,home,64.31,31.06,1.18,1.61,0.11,162.54,234.36,496816,Gerald McCoy,93,2019,45,1,08:55:00,JAX,1,10,JAX,7,0,2557973,SINGLEBACK,"1 RB, 1 TE, 3 WR",6,"4 DL, 2 LB, 5 DB",left,2019-10-06T17:15:16.000Z,2019-10-06T17:15:15.000Z,6-4,300,02/25/1988,Oklahoma,DT,CAR,JAX,5,Bank of America Stadium,"Charlotte, NC",Outdoors,Natural Grass,Cloudy,72.0,59,4,ESE
61634,2019100600,20191006000390,home,64.67,26.93,2.06,1.31,0.22,61.95,355.6,2530474,Mario Addison,97,2019,45,1,08:55:00,JAX,1,10,JAX,7,0,2557973,SINGLEBACK,"1 RB, 1 TE, 3 WR",6,"4 DL, 2 LB, 5 DB",left,2019-10-06T17:15:16.000Z,2019-10-06T17:15:15.000Z,6-3,260,09/06/1987,Troy,DE,CAR,JAX,5,Bank of America Stadium,"Charlotte, NC",Outdoors,Natural Grass,Cloudy,72.0,59,4,ESE
61635,2019100600,20191006000390,home,65.94,36.31,1.5,1.84,0.14,168.52,76.44,2532871,Bruce Irvin,55,2019,45,1,08:55:00,JAX,1,10,JAX,7,0,2557973,SINGLEBACK,"1 RB, 1 TE, 3 WR",6,"4 DL, 2 LB, 5 DB",left,2019-10-06T17:15:16.000Z,2019-10-06T17:15:15.000Z,6-3,250,11/01/1987,West Virginia,DE,CAR,JAX,5,Bank of America Stadium,"Charlotte, NC",Outdoors,Natural Grass,Cloudy,72.0,59,4,ESE
61636,2019100600,20191006000390,home,62.7,30.78,1.68,1.17,0.16,113.23,54.06,2533056,Luke Kuechly,59,2019,45,1,08:55:00,JAX,1,10,JAX,7,0,2557973,SINGLEBACK,"1 RB, 1 TE, 3 WR",6,"4 DL, 2 LB, 5 DB",left,2019-10-06T17:15:16.000Z,2019-10-06T17:15:15.000Z,6-3,238,04/20/1991,Boston College,MLB,CAR,JAX,5,Bank of America Stadium,"Charlotte, NC",Outdoors,Natural Grass,Cloudy,72.0,59,4,ESE
61637,2019100600,20191006000390,home,64.35,28.93,0.62,1.89,0.05,47.23,297.0,2533435,Dontari Poe,95,2019,45,1,08:55:00,JAX,1,10,JAX,7,0,2557973,SINGLEBACK,"1 RB, 1 TE, 3 WR",6,"4 DL, 2 LB, 5 DB",left,2019-10-06T17:15:16.000Z,2019-10-06T17:15:15.000Z,6-3,346,08/18/1990,Memphis,NT,CAR,JAX,5,Bank of America Stadium,"Charlotte, NC",Outdoors,Natural Grass,Cloudy,72.0,59,4,ESE
61638,2019100600,20191006000390,home,57.12,17.77,3.39,2.12,0.33,125.69,129.01,2540152,Eric Reid,25,2019,45,1,08:55:00,JAX,1,10,JAX,7,0,2557973,SINGLEBACK,"1 RB, 1 TE, 3 WR",6,"4 DL, 2 LB, 5 DB",left,2019-10-06T17:15:16.000Z,2019-10-06T17:15:15.000Z,6-1,213,12/10/1991,Louisiana State,SS,CAR,JAX,5,Bank of America Stadium,"Charlotte, NC",Outdoors,Natural Grass,Cloudy,72.0,59,4,ESE
61639,2019100600,20191006000390,home,63.1,9.5,1.14,4.64,0.1,91.34,235.23,2543799,Ross Cockrell,47,2019,45,1,08:55:00,JAX,1,10,JAX,7,0,2557973,SINGLEBACK,"1 RB, 1 TE, 3 WR",6,"4 DL, 2 LB, 5 DB",left,2019-10-06T17:15:16.000Z,2019-10-06T17:15:15.000Z,6-0,191,08/06/1991,Duke,CB,CAR,JAX,5,Bank of America Stadium,"Charlotte, NC",Outdoors,Natural Grass,Cloudy,72.0,59,4,ESE
61640,2019100600,20191006000390,home,48.67,33.61,1.49,0.69,0.15,110.66,210.69,2543830,Tre Boston,33,2019,45,1,08:55:00,JAX,1,10,JAX,7,0,2557973,SINGLEBACK,"1 RB, 1 TE, 3 WR",6,"4 DL, 2 LB, 5 DB",left,2019-10-06T17:15:16.000Z,2019-10-06T17:15:15.000Z,6-1,205,06/25/1992,North Carolina,FS,CAR,JAX,5,Bank of America Stadium,"Charlotte, NC",Outdoors,Natural Grass,Cloudy,72.0,59,4,ESE
61641,2019100600,20191006000390,home,61.58,33.76,1.94,3.21,0.18,76.91,67.52,2552447,Shaq Thompson,54,2019,45,1,08:55:00,JAX,1,10,JAX,7,0,2557973,SINGLEBACK,"1 RB, 1 TE, 3 WR",6,"4 DL, 2 LB, 5 DB",left,2019-10-06T17:15:16.000Z,2019-10-06T17:15:15.000Z,6-0,230,04/21/1994,Washington,OLB,CAR,JAX,5,Bank of America Stadium,"Charlotte, NC",Outdoors,Natural Grass,Cloudy,72.0,59,4,ESE
61642,2019100600,20191006000390,home,58.15,40.57,1.35,1.56,0.13,170.41,234.13,2555175,James Bradberry,24,2019,45,1,08:55:00,JAX,1,10,JAX,7,0,2557973,SINGLEBACK,"1 RB, 1 TE, 3 WR",6,"4 DL, 2 LB, 5 DB",left,2019-10-06T17:15:16.000Z,2019-10-06T17:15:15.000Z,6-1,212,08/04/1993,Samford,CB,CAR,JAX,5,Bank of America Stadium,"Charlotte, NC",Outdoors,Natural Grass,Cloudy,72.0,59,4,ESE
61643,2019100600,20191006000390,home,64.86,23.89,5.35,2.37,0.53,8.76,27.54,2556934,Javien Elliott,23,2019,45,1,08:55:00,JAX,1,10,JAX,7,0,2557973,SINGLEBACK,"1 RB, 1 TE, 3 WR",6,"4 DL, 2 LB, 5 DB",left,2019-10-06T17:15:16.000Z,2019-10-06T17:15:15.000Z,5-11,176,07/18/1993,Florida State,CB,CAR,JAX,5,Bank of America Stadium,"Charlotte, NC",Outdoors,Natural Grass,Cloudy,72.0,59,4,ESE
