,GameId,PlayId,Team,X,Y,S,A,Dis,Orientation,Dir,NflId,DisplayName,JerseyNumber,Season,YardLine,Quarter,GameClock,PossessionTeam,Down,Distance,FieldPosition,HomeScoreBeforePlay,VisitorScoreBeforePlay,NflIdRusher,OffenseFormation,OffensePersonnel,DefendersInTheBox,DefensePersonnel,PlayDirection,TimeHandoff,TimeSnap,PlayerHeight,PlayerWeight,PlayerBirthDate,PlayerCollegeName,Position,HomeTeamAbbr,VisitorTeamAbbr,Week,Stadium,Location,StadiumType,Turf,GameWeather,Temperature,Humidity,WindSpeed,WindDirection
3960,2019090803,20190908032289,away,57.82,31.22,1.65,1.88,0.17,290.79,103.26,2508080,Earl Thomas,29,2019,35,3,14:34:00,MIA,1,10,MIA,10,42,2555230,SINGLEBACK,"1 RB, 2 TE, 2 WR",6,"2 DL, 4 LB, 5 DB",right,2019-09-08T18:51:10.000Z,2019-09-08T18:51:09.000Z,5-10,202,05/07/1989,Texas,FS,MIA,BAL,1,Hard Rock Stadium,"Miami Gardens, FL",Outdoor,Natural grass,Mostly Cloudy,91.0,56,8,SSE
3961,2019090803,20190908032289,away,55.21,19.23,1.94,2.61,0.2,282.36,232.68,2540164,Tony Jefferson,23,2019,35,3,14:34:00,MIA,1,10,MIA,10,42,2555230,SINGLEBACK,"1 RB, 2 TE, 2 WR",6,"2 DL, 4 LB, 5 DB",right,2019-09-08T18:51:10.000Z,2019-09-08T18:51:09.000Z,5-11,211,01/27/1992,Oklahoma,SS,MIA,BAL,1,Hard Rock Stadium,"Miami Gardens, FL",Outdoor,Natural grass,Mostly Cloudy,91.0,56,8,SSE
3962,2019090803,20190908032289,away,45.7,29.25,0.96,1.02,0.1,219.92,93.6,2541302,Brandon Williams,98,2019,35,3,14:34:00,MIA,1,10,MIA,10,42,2555230,SINGLEBACK,"1 RB, 2 TE, 2 WR",6,"2 DL, 4 LB, 5 DB",right,2019-09-08T18:51:10.000Z,2019-09-08T18:51:09.000Z,6-1,336,02/21/1989,Missouri Southern,DT,MIA,BAL,1,Hard Rock Stadium,"Miami Gardens, FL",Outdoor,Natural grass,Mostly Cloudy,91.0,56,8,SSE
3963,2019090803,20190908032289,away,44.95,24.34,1.34,2.58,0.13,299.85,37.68,2555505,Matt Judon,99,2019,35,3,14:34:00,MIA,1,10,MIA,10,42,2555230,SINGLEBACK,"1 RB, 2 TE, 2 WR",6,"2 DL, 4 LB, 5 DB",right,2019-09-08T18:51:10.000Z,2019-09-08T18:51:09.000Z,6-3,261,08/15/1992,Grand Valley State,OLB,MIA,BAL,1,Hard Rock Stadium,"Miami Gardens, FL",Outdoor,Natural grass,Mostly Cloudy,91.0,56,8,SSE
3964,2019090803,20190908032289,away,49.4,25.99,1.76,1.73,0.16,288.83,329.9,2556642,Patrick Onwuasor,48,2019,35,3,14:34:00,MIA,1,10,MIA,10,42,2555230,SINGLEBACK,"1 RB, 2 TE, 2 WR",6,"2 DL, 4 LB, 5 DB",right,2019-09-08T18:51:10.000Z,2019-09-08T18:51:09.000Z,6-0,227,08/22/1992,Portland State,ILB,MIA,BAL,1,Hard Rock Stadium,"Miami Gardens, FL",Outdoor,Natural grass,Mostly Cloudy,91.0,56,8,SSE
3965,2019090803,20190908032289,away,45.69,26.53,0.94,0.86,0.09,309.81,103.93,2556650,Michael Pierce,97,2019,35,3,14:34:00,MIA,1,10,MIA,10,42,2555230,SINGLEBACK,"1 RB, 2 TE, 2 WR",6,"2 DL, 4 LB, 5 DB",right,2019-09-08T18:51:10.000Z,2019-09-08T18:51:09.000Z,6-0,340,11/06/1992,Samford,DT,MIA,BAL,1,Hard Rock Stadium,"Miami Gardens, FL",Outdoor,Natural grass,Mostly Cloudy,91.0,56,8,SSE
3966,2019090803,20190908032289,away,52.64,10.54,2.72,1.8,0.27,337.28,81.42,2558067,Marlon Humphrey,44,2019,35,3,14:34:00,MIA,1,10,MIA,10,42,2555230,SINGLEBACK,"1 RB, 2 TE, 2 WR",6,"2 DL, 4 LB, 5 DB",right,2019-09-08T18:51:10.000Z,2019-09-08T18:51:09.000Z,6-0,197,07/08/1996,Alabama,CB,MIA,BAL,1,Hard Rock Stadium,"Miami Gardens, FL",Outdoor,Natural grass,Mostly Cloudy,91.0,56,8,SSE
3967,2019090803,20190908032289,away,44.26,33.49,1.2,1.3,0.12,224.77,255.69,2558166,Tyus Bowser,54,2019,35,3,14:34:00,MIA,1,10,MIA,10,42,2555230,SINGLEBACK,"1 RB, 2 TE, 2 WR",6,"2 DL, 4 LB, 5 DB",right,2019-09-08T18:51:10.000Z,2019-09-08T18:51:09.000Z,6-3,240,05/23/1995,Houston,OLB,MIA,BAL,1,Hard Rock Stadium,"Miami Gardens, FL",Outdoor,Natural grass,Mostly Cloudy,91.0,56,8,SSE
3968,2019090803,20190908032289,away,43.56,22.02,4.87,1.12,0.49,305.33,325.69,2558248,Chuck Clark,36,2019,35,3,14:34:00,MIA,1,10,MIA,10,42,2555230,SINGLEBACK,"1 RB, 2 TE, 2 WR",6,"2 DL, 4 LB, 5 DB",right,2019-09-08T18:51:10.000Z,2019-09-08T18:51:09.000Z,6-0,205,04/19/1995,Virginia Tech,FS,MIA,BAL,1,Hard Rock Stadium,"Miami Gardens, FL",Outdoor,Natural grass,Mostly Cloudy,91.0,56,8,SSE
3969,2019090803,20190908032289,away,49.12,31.84,1.69,2.24,0.16,258.35,267.75,2560947,Kenny Young,40,2019,35,3,14:34:00,MIA,1,10,MIA,10,42,2555230,SINGLEBACK,"1 RB, 2 TE, 2 WR",6,"2 DL, 4 LB, 5 DB",right,2019-09-08T18:51:10.000Z,2019-09-08T18:51:09.000Z,6-1,235,11/15/1994,UCLA,LB,MIA,BAL,1,Hard Rock Stadium,"Miami Gardens, FL",Outdoor,Natural grass,Mostly Cloudy,91.0,56,8,SSE
3970,2019090803,20190908032289,away,50.96,36.89,0.39,0.17,0.04,266.45,71.69,2560963,Anthony Averett,34,2019,35,3,14:34:00,MIA,1,10,MIA,10,42,2555230,SINGLEBACK,"1 RB, 2 TE, 2 WR",6,"2 DL, 4 LB, 5 DB",right,2019-09-08T18:51:10.000Z,2019-09-08T18:51:09.000Z,5-11,178,11/30/1994,Alabama,CB,MIA,BAL,1,Hard Rock Stadium,"Miami Gardens, FL",Outdoor,Natural grass,Mostly Cloudy,91.0,56,8,SSE
3971,2019090803,20190908032289,home,45.35,26.97,1.11,0.34,0.12,79.31,110.93,2495299,Daniel Kilgore,67,2019,35,3,14:34:00,MIA,1,10,MIA,10,42,2555230,SINGLEBACK,"1 RB, 2 TE, 2 WR",6,"2 DL, 4 LB, 5 DB",right,2019-09-08T18:51:10.000Z,2019-09-08T18:51:09.000Z,6-3,291,12/18/1987,Appalachian State,C,MIA,BAL,1,Hard Rock Stadium,"Miami Gardens, FL",Outdoor,Natural grass,Mostly Cloudy,91.0,56,8,SSE
3972,2019090803,20190908032289,home,40.77,27.32,3.83,1.79,0.38,309.79,256.29,2506581,Ryan Fitzpatrick,14,2019,35,3,14:34:00,MIA,1,10,MIA,10,42,2555230,SINGLEBACK,"1 RB, 2 TE, 2 WR",6,"2 DL, 4 LB, 5 DB",right,2019-09-08T18:51:10.000Z,2019-09-08T18:51:09.000Z,6-2,228,11/24/1982,Harvard,QB,MIA,BAL,1,Hard Rock Stadium,"Miami Gardens, FL",Outdoor,Natural grass,Mostly Cloudy,91.0,56,8,SSE
3973,2019090803,20190908032289,home,44.34,32.69,0.63,1.68,0.06,358.61,50.7,2552403,Nick O'Leary,83,2019,35,3,14:34:00,MIA,1,10,MIA,10,42,2555230,SINGLEBACK,"1 RB, 2 TE, 2 WR",6,"2 DL, 4 LB, 5 DB",right,2019-09-08T18:51:10.000Z,2019-09-08T18:51:09.000Z,6-3,252,08/31/1992,Florida State,TE,MIA,BAL,1,Hard Rock Stadium,"Miami Gardens, FL",Outdoor,Natural grass,Mostly Cloudy,91.0,56,8,SSE
3974,2019090803,20190908032289,home,46.13,10.3,4.29,3.48,0.4,92.47,68.86,2552409,DeVante Parker,11,2019,35,3,14:34:00,MIA,1,10,MIA,10,42,2555230,SINGLEBACK,"1 RB, 2 TE, 2 WR",6,"2 DL, 4 LB, 5 DB",right,2019-09-08T18:51:10.000Z,2019-09-08T18:51:09.000Z,6-3,216,01/20/1993,Louisville,WR,MIA,BAL,1,Hard Rock Stadium,"Miami Gardens, FL",Outdoor,Natural grass,Mostly Cloudy,91.0,56,8,SSE
3975,2019090803,20190908032289,home,45.16,29.69,1.69,0.79,0.17,129.12,117.81,2553705,Jesse Davis,77,2019,35,3,14:34:00,MIA,1,10,MIA,10,42,2555230,SINGLEBACK,"1 RB, 2 TE, 2 WR",6,"2 DL, 4 LB, 5 DB",right,2019-09-08T18:51:10.000Z,2019-09-08T18:51:09.000Z,6-6,325,09/15/1991,Idaho,G,MIA,BAL,1,Hard Rock Stadium,"Miami Gardens, FL",Outdoor,Natural grass,Mostly Cloudy,91.0,56,8,SSE
3976,2019090803,20190908032289,home,40.34,28.12,4.78,3.41,0.46,85.22,71.52,2555230,Kenyan Drake,32,2019,35,3,14:34:00,MIA,1,10,MIA,10,42,2555230,SINGLEBACK,"1 RB, 2 TE, 2 WR",6,"2 DL, 4 LB, 5 DB",right,2019-09-08T18:51:10.000Z,2019-09-08T18:51:09.000Z,6-1,211,01/26/1994,Alabama,RB,MIA,BAL,1,Hard Rock Stadium,"Miami Gardens, FL",Outdoor,Natural grass,Mostly Cloudy,91.0,56,8,SSE
3977,2019090803,20190908032289,home,44.8,18.66,4.57,2.07,0.45,74.68,48.74,2556190,Jakeem Grant,19,2019,35,3,14:34:00,MIA,1,10,MIA,10,42,2555230,SINGLEBACK,"1 RB, 2 TE, 2 WR",6,"2 DL, 4 LB, 5 DB",right,2019-09-08T18:51:10.000Z,2019-09-08T18:51:09.000Z,5-7,169,10/30/1992,Texas Tech,WR,MIA,BAL,1,Hard Rock Stadium,"Miami Gardens, FL",Outdoor,Natural grass,Mostly Cloudy,91.0,56,8,SSE
3978,2019090803,20190908032289,home,44.35,24.92,1.19,0.53,0.13,118.43,76.78,2557963,Julie'n Davenport,70,2019,35,3,14:34:00,MIA,1,10,MIA,10,42,2555230,SINGLEBACK,"1 RB, 2 TE, 2 WR",6,"2 DL, 4 LB, 5 DB",right,2019-09-08T18:51:10.000Z,2019-09-08T18:51:09.000Z,6-7,325,01/09/1995,Bucknell,T,MIA,BAL,1,Hard Rock Stadium,"Miami Gardens, FL",Outdoor,Natural grass,Mostly Cloudy,91.0,56,8,SSE
3979,2019090803,20190908032289,home,43.89,28.79,3.92,2.01,0.4,251.73,19.2,2558181,Danny Isidora,65,2019,35,3,14:34:00,MIA,1,10,MIA,10,42,2555230,SINGLEBACK,"1 RB, 2 TE, 2 WR",6,"2 DL, 4 LB, 5 DB",right,2019-09-08T18:51:10.000Z,2019-09-08T18:51:09.000Z,6-3,306,06/05/1994,Miami (Fla.),G,MIA,BAL,1,Hard Rock Stadium,"Miami Gardens, FL",Outdoor,Natural grass,Mostly Cloudy,91.0,56,8,SSE
3980,2019090803,20190908032289,home,45.28,35.65,4.5,2.1,0.44,103.7,99.86,2560994,Mike Gesicki,88,2019,35,3,14:34:00,MIA,1,10,MIA,10,42,2555230,SINGLEBACK,"1 RB, 2 TE, 2 WR",6,"2 DL, 4 LB, 5 DB",right,2019-09-08T18:51:10.000Z,2019-09-08T18:51:09.000Z,6-6,252,10/03/1995,Penn State,TE,MIA,BAL,1,Hard Rock Stadium,"Miami Gardens, FL",Outdoor,Natural grass,Mostly Cloudy,91.0,56,8,SSE
3981,2019090803,20190908032289,home,45.1,28.95,1.62,0.45,0.16,86.73,110.21,2562255,Michael Deiter,63,2019,35,3,14:34:00,MIA,1,10,MIA,10,42,2555230,SINGLEBACK,"1 RB, 2 TE, 2 WR",6,"2 DL, 4 LB, 5 DB",right,2019-09-08T18:51:10.000Z,2019-09-08T18:51:09.000Z,6-6,310,09/03/1996,Wisconsin,OG,MIA,BAL,1,Hard Rock Stadium,"Miami Gardens, FL",Outdoor,Natural grass,Mostly Cloudy,91.0,56,8,SSE
