,GameId,PlayId,Team,X,Y,S,A,Dis,Orientation,Dir,NflId,DisplayName,JerseyNumber,Season,YardLine,Quarter,GameClock,PossessionTeam,Down,Distance,FieldPosition,HomeScoreBeforePlay,VisitorScoreBeforePlay,NflIdRusher,OffenseFormation,OffensePersonnel,DefendersInTheBox,DefensePersonnel,PlayDirection,TimeHandoff,TimeSnap,PlayerHeight,PlayerWeight,PlayerBirthDate,PlayerCollegeName,Position,HomeTeamAbbr,VisitorTeamAbbr,Week,Stadium,Location,StadiumType,Turf,GameWeather,Temperature,Humidity,WindSpeed,WindDirection
52778,2019092905,20190929054487,away,90.78,30.99,1.76,0.24,0.18,253.27,323.95,2495171,Rodney Hudson,61,2019,19,4,01:06:00,OAK,1,10,OAK,24,31,2562377,I_FORM,"2 RB, 2 TE, 1 WR",7,"4 DL, 3 LB, 4 DB",left,2019-09-29T20:11:31.000Z,2019-09-29T20:11:30.000Z,6-2,315,07/12/1989,Florida State,C,IND,OAK,4,Lucas Oil Stadium,"Indianapolis, Ind.",Retr. Roof-Closed,Artificial,Cloudy,77.0,72,10,NNE
52779,2019092905,20190929054487,away,89.86,29.73,3.13,0.45,0.31,272.49,314.99,2506420,Richie Incognito,64,2019,19,4,01:06:00,OAK,1,10,OAK,24,31,2562377,I_FORM,"2 RB, 2 TE, 1 WR",7,"4 DL, 3 LB, 4 DB",left,2019-09-29T20:11:31.000Z,2019-09-29T20:11:30.000Z,6-3,325,07/05/1983,Nebraska,G,IND,OAK,4,Lucas Oil Stadium,"Indianapolis, Ind.",Retr. Roof-Closed,Artificial,Cloudy,77.0,72,10,NNE
52780,2019092905,20190929054487,away,95.09,30.19,3.98,1.25,0.39,6.64,70.98,2543499,Derek Carr,4,2019,19,4,01:06:00,OAK,1,10,OAK,24,31,2562377,I_FORM,"2 RB, 2 TE, 1 WR",7,"4 DL, 3 LB, 4 DB",left,2019-09-29T20:11:31.000Z,2019-09-29T20:11:30.000Z,6-3,210,03/28/1991,Fresno State,QB,IND,OAK,4,Lucas Oil Stadium,"Indianapolis, Ind.",Retr. Roof-Closed,Artificial,Cloudy,77.0,72,10,NNE
52781,2019092905,20190929054487,away,91.86,34.7,1.91,1.22,0.2,311.81,358.54,2552350,Trent Brown,77,2019,19,4,01:06:00,OAK,1,10,OAK,24,31,2562377,I_FORM,"2 RB, 2 TE, 1 WR",7,"4 DL, 3 LB, 4 DB",left,2019-09-29T20:11:31.000Z,2019-09-29T20:11:30.000Z,6-8,380,04/13/1993,Florida,T,IND,OAK,4,Lucas Oil Stadium,"Indianapolis, Ind.",Retr. Roof-Closed,Artificial,Cloudy,77.0,72,10,NNE
52782,2019092905,20190929054487,away,91.89,26.17,2.92,0.8,0.29,235.41,4.69,2552408,Darren Waller,83,2019,19,4,01:06:00,OAK,1,10,OAK,24,31,2562377,I_FORM,"2 RB, 2 TE, 1 WR",7,"4 DL, 3 LB, 4 DB",left,2019-09-29T20:11:31.000Z,2019-09-29T20:11:30.000Z,6-6,255,09/13/1992,Georgia Tech,TE,IND,OAK,4,Lucas Oil Stadium,"Indianapolis, Ind.",Retr. Roof-Closed,Artificial,Cloudy,77.0,72,10,NNE
52783,2019092905,20190929054487,away,90.23,31.51,2.28,3.05,0.22,278.1,325.95,2553460,Denzelle Good,71,2019,19,4,01:06:00,OAK,1,10,OAK,24,31,2562377,I_FORM,"2 RB, 2 TE, 1 WR",7,"4 DL, 3 LB, 4 DB",left,2019-09-29T20:11:31.000Z,2019-09-29T20:11:30.000Z,6-5,340,03/08/1991,Mars Hill,OT,IND,OAK,4,Lucas Oil Stadium,"Indianapolis, Ind.",Retr. Roof-Closed,Artificial,Cloudy,77.0,72,10,NNE
52784,2019092905,20190929054487,away,91.49,28.77,2.13,0.67,0.22,318.16,358.21,2560811,Kolton Miller,74,2019,19,4,01:06:00,OAK,1,10,OAK,24,31,2562377,I_FORM,"2 RB, 2 TE, 1 WR",7,"4 DL, 3 LB, 4 DB",left,2019-09-29T20:11:31.000Z,2019-09-29T20:11:30.000Z,6-8,325,10/09/1995,UCLA,T,IND,OAK,4,Lucas Oil Stadium,"Indianapolis, Ind.",Retr. Roof-Closed,Artificial,Cloudy,77.0,72,10,NNE
52785,2019092905,20190929054487,away,92.46,32.29,5.02,0.83,0.5,280.22,310.66,2562288,Alec Ingold,45,2019,19,4,01:06:00,OAK,1,10,OAK,24,31,2562377,I_FORM,"2 RB, 2 TE, 1 WR",7,"4 DL, 3 LB, 4 DB",left,2019-09-29T20:11:31.000Z,2019-09-29T20:11:30.000Z,6-1,242,07/09/1996,Wisconsin,RB,IND,OAK,4,Lucas Oil Stadium,"Indianapolis, Ind.",Retr. Roof-Closed,Artificial,Cloudy,77.0,72,10,NNE
52786,2019092905,20190929054487,away,91.36,27.75,2.39,1.17,0.25,279.39,355.38,2562317,Foster Moreau,87,2019,19,4,01:06:00,OAK,1,10,OAK,24,31,2562377,I_FORM,"2 RB, 2 TE, 1 WR",7,"4 DL, 3 LB, 4 DB",left,2019-09-29T20:11:31.000Z,2019-09-29T20:11:30.000Z,6-4,250,05/06/1997,Louisiana State,TE,IND,OAK,4,Lucas Oil Stadium,"Indianapolis, Ind.",Retr. Roof-Closed,Artificial,Cloudy,77.0,72,10,NNE
52787,2019092905,20190929054487,away,95.83,31.15,5.17,2.86,0.5,286.73,292.61,2562377,Josh Jacobs,28,2019,19,4,01:06:00,OAK,1,10,OAK,24,31,2562377,I_FORM,"2 RB, 2 TE, 1 WR",7,"4 DL, 3 LB, 4 DB",left,2019-09-29T20:11:31.000Z,2019-09-29T20:11:30.000Z,5-10,220,02/11/1998,Alabama,RB,IND,OAK,4,Lucas Oil Stadium,"Indianapolis, Ind.",Retr. Roof-Closed,Artificial,Cloudy,77.0,72,10,NNE
52788,2019092905,20190929054487,away,89.47,43.6,4.92,2.96,0.48,240.18,289.03,2562393,Keelan Doss,18,2019,19,4,01:06:00,OAK,1,10,OAK,24,31,2562377,I_FORM,"2 RB, 2 TE, 1 WR",7,"4 DL, 3 LB, 4 DB",left,2019-09-29T20:11:31.000Z,2019-09-29T20:11:30.000Z,6-3,215,03/21/1996,California-Davis,WR,IND,OAK,4,Lucas Oil Stadium,"Indianapolis, Ind.",Retr. Roof-Closed,Artificial,Cloudy,77.0,72,10,NNE
52789,2019092905,20190929054487,home,91.56,35.49,1.3,2.08,0.12,145.87,38.4,2495493,Justin Houston,99,2019,19,4,01:06:00,OAK,1,10,OAK,24,31,2562377,I_FORM,"2 RB, 2 TE, 1 WR",7,"4 DL, 3 LB, 4 DB",left,2019-09-29T20:11:31.000Z,2019-09-29T20:11:30.000Z,6-3,270,01/21/1989,Georgia,DE,IND,OAK,4,Lucas Oil Stadium,"Indianapolis, Ind.",Retr. Roof-Closed,Artificial,Cloudy,77.0,72,10,NNE
52790,2019092905,20190929054487,home,91.25,29.11,2.46,0.39,0.27,87.8,19.24,2550646,Denico Autry,96,2019,19,4,01:06:00,OAK,1,10,OAK,24,31,2562377,I_FORM,"2 RB, 2 TE, 1 WR",7,"4 DL, 3 LB, 4 DB",left,2019-09-29T20:11:31.000Z,2019-09-29T20:11:30.000Z,6-5,285,07/15/1990,Mississippi State,DT,IND,OAK,4,Lucas Oil Stadium,"Indianapolis, Ind.",Retr. Roof-Closed,Artificial,Cloudy,77.0,72,10,NNE
52791,2019092905,20190929054487,home,77.33,35.14,0.33,2.05,0.03,80.36,24.95,2552386,Clayton Geathers,26,2019,19,4,01:06:00,OAK,1,10,OAK,24,31,2562377,I_FORM,"2 RB, 2 TE, 1 WR",7,"4 DL, 3 LB, 4 DB",left,2019-09-29T20:11:31.000Z,2019-09-29T20:11:30.000Z,6-2,216,06/01/1992,Central Florida,FS,IND,OAK,4,Lucas Oil Stadium,"Indianapolis, Ind.",Retr. Roof-Closed,Artificial,Cloudy,77.0,72,10,NNE
52792,2019092905,20190929054487,home,90.89,27.49,2.91,1.72,0.3,68.77,5.08,2558131,Al-Quadin Muhammad,97,2019,19,4,01:06:00,OAK,1,10,OAK,24,31,2562377,I_FORM,"2 RB, 2 TE, 1 WR",7,"4 DL, 3 LB, 4 DB",left,2019-09-29T20:11:31.000Z,2019-09-29T20:11:30.000Z,6-4,250,03/28/1995,Miami,DE,IND,OAK,4,Lucas Oil Stadium,"Indianapolis, Ind.",Retr. Roof-Closed,Artificial,Cloudy,77.0,72,10,NNE
52793,2019092905,20190929054487,home,90.24,30.65,0.56,0.03,0.06,79.59,308.16,2558766,Grover Stewart,90,2019,19,4,01:06:00,OAK,1,10,OAK,24,31,2562377,I_FORM,"2 RB, 2 TE, 1 WR",7,"4 DL, 3 LB, 4 DB",left,2019-09-29T20:11:31.000Z,2019-09-29T20:11:30.000Z,6-4,315,10/20/1993,"Albany State, Ga.",DT,IND,OAK,4,Lucas Oil Stadium,"Indianapolis, Ind.",Retr. Roof-Closed,Artificial,Cloudy,77.0,72,10,NNE
52794,2019092905,20190929054487,home,87.64,29.77,3.45,1.34,0.34,86.49,28.68,2558851,Anthony Walker,50,2019,19,4,01:06:00,OAK,1,10,OAK,24,31,2562377,I_FORM,"2 RB, 2 TE, 1 WR",7,"4 DL, 3 LB, 4 DB",left,2019-09-29T20:11:31.000Z,2019-09-29T20:11:30.000Z,6-1,230,08/08/1995,Northwestern,ILB,IND,OAK,4,Lucas Oil Stadium,"Indianapolis, Ind.",Retr. Roof-Closed,Artificial,Cloudy,77.0,72,10,NNE
52795,2019092905,20190929054487,home,89.79,23.0,3.46,1.7,0.34,52.04,3.83,2558976,Kenny Moore,23,2019,19,4,01:06:00,OAK,1,10,OAK,24,31,2562377,I_FORM,"2 RB, 2 TE, 1 WR",7,"4 DL, 3 LB, 4 DB",left,2019-09-29T20:11:31.000Z,2019-09-29T20:11:30.000Z,5-9,190,08/23/1995,Valdosta State,CB,IND,OAK,4,Lucas Oil Stadium,"Indianapolis, Ind.",Retr. Roof-Closed,Artificial,Cloudy,77.0,72,10,NNE
52796,2019092905,20190929054487,home,88.25,31.97,4.43,1.51,0.43,109.26,54.04,2562416,Bobby Okereke,58,2019,19,4,01:06:00,OAK,1,10,OAK,24,31,2562377,I_FORM,"2 RB, 2 TE, 1 WR",7,"4 DL, 3 LB, 4 DB",left,2019-09-29T20:11:31.000Z,2019-09-29T20:11:30.000Z,6-1,234,07/29/1996,Stanford,LB,IND,OAK,4,Lucas Oil Stadium,"Indianapolis, Ind.",Retr. Roof-Closed,Artificial,Cloudy,77.0,72,10,NNE
52797,2019092905,20190929054487,home,91.46,26.17,2.73,1.64,0.27,54.06,22.43,2562602,Khari Willis,37,2019,19,4,01:06:00,OAK,1,10,OAK,24,31,2562377,I_FORM,"2 RB, 2 TE, 1 WR",7,"4 DL, 3 LB, 4 DB",left,2019-09-29T20:11:31.000Z,2019-09-29T20:11:30.000Z,5-11,215,05/07/1996,Michigan State,DB,IND,OAK,4,Lucas Oil Stadium,"Indianapolis, Ind.",Retr. Roof-Closed,Artificial,Cloudy,77.0,72,10,NNE
52798,2019092905,20190929054487,home,87.22,42.79,3.48,3.12,0.34,35.44,277.08,2562614,Rock Ya-Sin,34,2019,19,4,01:06:00,OAK,1,10,OAK,24,31,2562377,I_FORM,"2 RB, 2 TE, 1 WR",7,"4 DL, 3 LB, 4 DB",left,2019-09-29T20:11:31.000Z,2019-09-29T20:11:30.000Z,6-0,190,05/23/1996,Temple,DB,IND,OAK,4,Lucas Oil Stadium,"Indianapolis, Ind.",Retr. Roof-Closed,Artificial,Cloudy,77.0,72,10,NNE
52799,2019092905,20190929054487,home,88.47,34.04,3.99,1.42,0.39,106.46,81.53,2562955,E.J. Speed,45,2019,19,4,01:06:00,OAK,1,10,OAK,24,31,2562377,I_FORM,"2 RB, 2 TE, 1 WR",7,"4 DL, 3 LB, 4 DB",left,2019-09-29T20:11:31.000Z,2019-09-29T20:11:30.000Z,6-3,230,06/01/1995,Tarleton State,LB,IND,OAK,4,Lucas Oil Stadium,"Indianapolis, Ind.",Retr. Roof-Closed,Artificial,Cloudy,77.0,72,10,NNE
