,GameId,PlayId,Team,X,Y,S,A,Dis,Orientation,Dir,NflId,DisplayName,JerseyNumber,Season,YardLine,Quarter,GameClock,PossessionTeam,Down,Distance,FieldPosition,HomeScoreBeforePlay,VisitorScoreBeforePlay,NflIdRusher,OffenseFormation,OffensePersonnel,DefendersInTheBox,DefensePersonnel,PlayDirection,TimeHandoff,TimeSnap,PlayerHeight,PlayerWeight,PlayerBirthDate,PlayerCollegeName,Position,HomeTeamAbbr,VisitorTeamAbbr,Week,Stadium,Location,StadiumType,Turf,GameWeather,Temperature,Humidity,WindSpeed,WindDirection
12672,2019090812,20190908122897,away,99.14,11.43,2.87,2.68,0.27,340.84,37.1,496733,Joe Haden,23,2019,15,3,02:11:00,NE,1,10,PIT,27,3,2539265,I_FORM,"2 RB, 1 TE, 2 WR",7,"3 DL, 4 LB, 4 DB",right,2019-09-09T02:30:00.000Z,2019-09-09T02:29:59.000Z,5-11,195,04/14/1989,Florida,CB,NE,PIT,1,Gillette Stadium,"Foxborough, MA",Outdoor,Field Turf,Partly cloudy and mild,66.0,62,2,NW
12673,2019090812,20190908122897,away,94.74,27.49,2.14,0.81,0.26,289.32,331.57,496760,Tyson Alualu,94,2019,15,3,02:11:00,NE,1,10,PIT,27,3,2539265,I_FORM,"2 RB, 1 TE, 2 WR",7,"3 DL, 4 LB, 4 DB",right,2019-09-09T02:30:00.000Z,2019-09-09T02:29:59.000Z,6-3,304,05/12/1987,California,DE,NE,PIT,1,Gillette Stadium,"Foxborough, MA",Outdoor,Field Turf,Partly cloudy and mild,66.0,62,2,NW
12674,2019090812,20190908122897,away,94.03,18.55,5.46,2.53,0.55,291.72,263.29,2540221,Vince Williams,98,2019,15,3,02:11:00,NE,1,10,PIT,27,3,2539265,I_FORM,"2 RB, 1 TE, 2 WR",7,"3 DL, 4 LB, 4 DB",right,2019-09-09T02:30:00.000Z,2019-09-09T02:29:59.000Z,6-1,233,12/27/1989,Florida State,ILB,NE,PIT,1,Gillette Stadium,"Foxborough, MA",Outdoor,Field Turf,Partly cloudy and mild,66.0,62,2,NW
12675,2019090812,20190908122897,away,94.05,20.64,2.42,1.69,0.24,304.65,292.31,2543483,Stephon Tuitt,91,2019,15,3,02:11:00,NE,1,10,PIT,27,3,2539265,I_FORM,"2 RB, 1 TE, 2 WR",7,"3 DL, 4 LB, 4 DB",right,2019-09-09T02:30:00.000Z,2019-09-09T02:29:59.000Z,6-6,303,05/23/1993,Notre Dame,DE,NE,PIT,1,Gillette Stadium,"Foxborough, MA",Outdoor,Field Turf,Partly cloudy and mild,66.0,62,2,NW
12676,2019090812,20190908122897,away,96.1,23.91,0.9,1.03,0.1,264.41,40.33,2550154,Dan McCullers,93,2019,15,3,02:11:00,NE,1,10,PIT,27,3,2539265,I_FORM,"2 RB, 1 TE, 2 WR",7,"3 DL, 4 LB, 4 DB",right,2019-09-09T02:30:00.000Z,2019-09-09T02:29:59.000Z,6-7,352,08/11/1992,Tennessee,DT,NE,PIT,1,Gillette Stadium,"Foxborough, MA",Outdoor,Field Turf,Partly cloudy and mild,66.0,62,2,NW
12677,2019090812,20190908122897,away,96.5,31.84,1.71,1.71,0.16,247.33,115.33,2552265,Steven Nelson,22,2019,15,3,02:11:00,NE,1,10,PIT,27,3,2539265,I_FORM,"2 RB, 1 TE, 2 WR",7,"3 DL, 4 LB, 4 DB",right,2019-09-09T02:30:00.000Z,2019-09-09T02:29:59.000Z,5-11,194,01/22/1993,Oregon State,CB,NE,PIT,1,Gillette Stadium,"Foxborough, MA",Outdoor,Field Turf,Partly cloudy and mild,66.0,62,2,NW
12678,2019090812,20190908122897,away,94.29,30.34,2.25,1.69,0.22,187.73,298.11,2552289,Bud Dupree,48,2019,15,3,02:11:00,NE,1,10,PIT,27,3,2539265,I_FORM,"2 RB, 1 TE, 2 WR",7,"3 DL, 4 LB, 4 DB",right,2019-09-09T02:30:00.000Z,2019-09-09T02:29:59.000Z,6-4,269,02/12/1993,Kentucky,OLB,NE,PIT,1,Gillette Stadium,"Foxborough, MA",Outdoor,Field Turf,Partly cloudy and mild,66.0,62,2,NW
12679,2019090812,20190908122897,away,95.14,28.58,2.06,2.01,0.19,287.02,318.86,2558064,T.J. Watt,90,2019,15,3,02:11:00,NE,1,10,PIT,27,3,2539265,I_FORM,"2 RB, 1 TE, 2 WR",7,"3 DL, 4 LB, 4 DB",right,2019-09-09T02:30:00.000Z,2019-09-09T02:29:59.000Z,6-4,252,10/11/1994,Wisconsin,OLB,NE,PIT,1,Gillette Stadium,"Foxborough, MA",Outdoor,Field Turf,Partly cloudy and mild,66.0,62,2,NW
12680,2019090812,20190908122897,away,99.57,20.73,4.01,1.36,0.39,293.79,320.39,2560712,Terrell Edmunds,34,2019,15,3,02:11:00,NE,1,10,PIT,27,3,2539265,I_FORM,"2 RB, 1 TE, 2 WR",7,"3 DL, 4 LB, 4 DB",right,2019-09-09T02:30:00.000Z,2019-09-09T02:29:59.000Z,6-1,217,01/20/1997,Virginia Tech,S,NE,PIT,1,Gillette Stadium,"Foxborough, MA",Outdoor,Field Turf,Partly cloudy and mild,66.0,62,2,NW
12681,2019090812,20190908122897,away,106.64,29.8,0.38,0.29,0.03,256.4,77.56,2560778,Kam Kelly,29,2019,15,3,02:11:00,NE,1,10,PIT,27,3,2539265,I_FORM,"2 RB, 1 TE, 2 WR",7,"3 DL, 4 LB, 4 DB",right,2019-09-09T02:30:00.000Z,2019-09-09T02:29:59.000Z,6-2,205,08/19/1996,San Diego State,DB,NE,PIT,1,Gillette Stadium,"Foxborough, MA",Outdoor,Field Turf,Partly cloudy and mild,66.0,62,2,NW
12682,2019090812,20190908122897,away,97.14,25.67,2.14,1.02,0.22,218.14,295.87,2562243,Devin Bush,55,2019,15,3,02:11:00,NE,1,10,PIT,27,3,2539265,I_FORM,"2 RB, 1 TE, 2 WR",7,"3 DL, 4 LB, 4 DB",right,2019-09-09T02:30:00.000Z,2019-09-09T02:29:59.000Z,5-11,233,07/18/1998,Michigan,LB,NE,PIT,1,Gillette Stadium,"Foxborough, MA",Outdoor,Field Turf,Partly cloudy and mild,66.0,62,2,NW
12683,2019090812,20190908122897,home,95.2,31.6,3.38,1.51,0.33,83.53,99.44,238498,Julian Edelman,11,2019,15,3,02:11:00,NE,1,10,PIT,27,3,2539265,I_FORM,"2 RB, 1 TE, 2 WR",7,"3 DL, 4 LB, 4 DB",right,2019-09-09T02:30:00.000Z,2019-09-09T02:29:59.000Z,5-10,200,05/22/1986,Kent State,WR,NE,PIT,1,Gillette Stadium,"Foxborough, MA",Outdoor,Field Turf,Partly cloudy and mild,66.0,62,2,NW
12684,2019090812,20190908122897,home,93.01,19.66,1.81,1.31,0.18,153.59,219.65,2495131,Marcus Cannon,61,2019,15,3,02:11:00,NE,1,10,PIT,27,3,2539265,I_FORM,"2 RB, 1 TE, 2 WR",7,"3 DL, 4 LB, 4 DB",right,2019-09-09T02:30:00.000Z,2019-09-09T02:29:59.000Z,6-6,335,05/06/1988,Texas Christian,T,NE,PIT,1,Gillette Stadium,"Foxborough, MA",Outdoor,Field Turf,Partly cloudy and mild,66.0,62,2,NW
12685,2019090812,20190908122897,home,90.89,23.81,3.56,0.84,0.35,354.22,272.31,2504211,Tom Brady,12,2019,15,3,02:11:00,NE,1,10,PIT,27,3,2539265,I_FORM,"2 RB, 1 TE, 2 WR",7,"3 DL, 4 LB, 4 DB",right,2019-09-09T02:30:00.000Z,2019-09-09T02:29:59.000Z,6-4,225,08/03/1977,Michigan,QB,NE,PIT,1,Gillette Stadium,"Foxborough, MA",Outdoor,Field Turf,Partly cloudy and mild,66.0,62,2,NW
12686,2019090812,20190908122897,home,93.5,25.05,4.62,0.82,0.45,44.08,68.22,2508101,James Develin,46,2019,15,3,02:11:00,NE,1,10,PIT,27,3,2539265,I_FORM,"2 RB, 1 TE, 2 WR",7,"3 DL, 4 LB, 4 DB",right,2019-09-09T02:30:00.000Z,2019-09-09T02:29:59.000Z,6-3,255,07/23/1988,Brown,FB,NE,PIT,1,Gillette Stadium,"Foxborough, MA",Outdoor,Field Turf,Partly cloudy and mild,66.0,62,2,NW
12687,2019090812,20190908122897,home,90.01,24.55,4.93,2.84,0.48,86.32,76.84,2539265,Rex Burkhead,34,2019,15,3,02:11:00,NE,1,10,PIT,27,3,2539265,I_FORM,"2 RB, 1 TE, 2 WR",7,"3 DL, 4 LB, 4 DB",right,2019-09-09T02:30:00.000Z,2019-09-09T02:29:59.000Z,5-10,215,07/02/1990,Nebraska,RB,NE,PIT,1,Gillette Stadium,"Foxborough, MA",Outdoor,Field Turf,Partly cloudy and mild,66.0,62,2,NW
12688,2019090812,20190908122897,home,95.73,12.41,4.77,4.23,0.45,44.58,29.95,2552424,Phillip Dorsett,13,2019,15,3,02:11:00,NE,1,10,PIT,27,3,2539265,I_FORM,"2 RB, 1 TE, 2 WR",7,"3 DL, 4 LB, 4 DB",right,2019-09-09T02:30:00.000Z,2019-09-09T02:29:59.000Z,5-10,192,01/05/1993,Miami,WR,NE,PIT,1,Gillette Stadium,"Foxborough, MA",Outdoor,Field Turf,Partly cloudy and mild,66.0,62,2,NW
12689,2019090812,20190908122897,home,93.78,21.64,0.55,1.26,0.06,194.12,257.59,2552563,Shaq Mason,69,2019,15,3,02:11:00,NE,1,10,PIT,27,3,2539265,I_FORM,"2 RB, 1 TE, 2 WR",7,"3 DL, 4 LB, 4 DB",right,2019-09-09T02:30:00.000Z,2019-09-09T02:29:59.000Z,6-1,310,08/28/1993,Georgia Tech,G,NE,PIT,1,Gillette Stadium,"Foxborough, MA",Outdoor,Field Turf,Partly cloudy and mild,66.0,62,2,NW
12690,2019090812,20190908122897,home,95.32,23.94,0.69,0.68,0.07,132.78,49.57,2555145,Ted Karras,75,2019,15,3,02:11:00,NE,1,10,PIT,27,3,2539265,I_FORM,"2 RB, 1 TE, 2 WR",7,"3 DL, 4 LB, 4 DB",right,2019-09-09T02:30:00.000Z,2019-09-09T02:29:59.000Z,6-4,305,03/15/1993,Illinois,C,NE,PIT,1,Gillette Stadium,"Foxborough, MA",Outdoor,Field Turf,Partly cloudy and mild,66.0,62,2,NW
12691,2019090812,20190908122897,home,94.25,27.1,2.12,0.69,0.22,75.0,358.61,2555281,Joe Thuney,62,2019,15,3,02:11:00,NE,1,10,PIT,27,3,2539265,I_FORM,"2 RB, 1 TE, 2 WR",7,"3 DL, 4 LB, 4 DB",right,2019-09-09T02:30:00.000Z,2019-09-09T02:29:59.000Z,6-5,308,11/18/1992,North Carolina State,G,NE,PIT,1,Gillette Stadium,"Foxborough, MA",Outdoor,Field Turf,Partly cloudy and mild,66.0,62,2,NW
12692,2019090812,20190908122897,home,94.07,29.72,1.53,2.08,0.15,15.61,12.44,2560751,Ryan Izzo,85,2019,15,3,02:11:00,NE,1,10,PIT,27,3,2539265,I_FORM,"2 RB, 1 TE, 2 WR",7,"3 DL, 4 LB, 4 DB",right,2019-09-09T02:30:00.000Z,2019-09-09T02:29:59.000Z,6-5,255,12/21/1995,Florida State,TE,NE,PIT,1,Gillette Stadium,"Foxborough, MA",Outdoor,Field Turf,Partly cloudy and mild,66.0,62,2,NW
12693,2019090812,20190908122897,home,94.18,28.26,2.29,1.69,0.23,13.41,350.85,2560945,Isaiah Wynn,76,2019,15,3,02:11:00,NE,1,10,PIT,27,3,2539265,I_FORM,"2 RB, 1 TE, 2 WR",7,"3 DL, 4 LB, 4 DB",right,2019-09-09T02:30:00.000Z,2019-09-09T02:29:59.000Z,6-2,310,12/09/1995,Georgia,T,NE,PIT,1,Gillette Stadium,"Foxborough, MA",Outdoor,Field Turf,Partly cloudy and mild,66.0,62,2,NW
