,GameId,PlayId,Team,X,Y,S,A,Dis,Orientation,Dir,NflId,DisplayName,JerseyNumber,Season,YardLine,Quarter,GameClock,PossessionTeam,Down,Distance,FieldPosition,HomeScoreBeforePlay,VisitorScoreBeforePlay,NflIdRusher,OffenseFormation,OffensePersonnel,DefendersInTheBox,DefensePersonnel,PlayDirection,TimeHandoff,TimeSnap,PlayerHeight,PlayerWeight,PlayerBirthDate,PlayerCollegeName,Position,HomeTeamAbbr,VisitorTeamAbbr,Week,Stadium,Location,StadiumType,Turf,GameWeather,Temperature,Humidity,WindSpeed,WindDirection
13992,2019090901,20190909010778,away,53.0,26.42,4.49,2.93,0.45,101.71,112.79,382,Joe Flacco,5,2019,38,2,15:00:00,DEN,1,10,OAK,7,0,2560733,SINGLEBACK,"1 RB, 3 TE, 1 WR",7,"4 DL, 3 LB, 4 DB",left,2019-09-10T02:51:31.000Z,2019-09-10T02:51:29.000Z,6-6,245,01/16/1985,Delaware,QB,OAK,DEN,1,Oakland-Alameda County Coliseum,"Oakland, CA",Outdoor,Natural Grass,Breezy,68.0,66,15,W
13993,2019090901,20190909010778,away,46.08,27.05,3.95,1.59,0.41,310.93,214.57,2533454,Ronald Leary,65,2019,38,2,15:00:00,DEN,1,10,OAK,7,0,2560733,SINGLEBACK,"1 RB, 3 TE, 1 WR",7,"4 DL, 3 LB, 4 DB",left,2019-09-10T02:51:31.000Z,2019-09-10T02:51:29.000Z,6-3,320,04/29/1989,Memphis,G,OAK,DEN,1,Oakland-Alameda County Coliseum,"Oakland, CA",Outdoor,Natural Grass,Breezy,68.0,66,15,W
13994,2019090901,20190909010778,away,48.41,27.73,4.57,1.15,0.46,257.42,177.6,2543755,Ja'Wuan James,70,2019,38,2,15:00:00,DEN,1,10,OAK,7,0,2560733,SINGLEBACK,"1 RB, 3 TE, 1 WR",7,"4 DL, 3 LB, 4 DB",left,2019-09-10T02:51:31.000Z,2019-09-10T02:51:29.000Z,6-6,312,06/03/1992,Tennessee,OT,OAK,DEN,1,Oakland-Alameda County Coliseum,"Oakland, CA",Outdoor,Natural Grass,Breezy,68.0,66,15,W
13995,2019090901,20190909010778,away,47.99,30.5,4.07,0.72,0.4,271.38,198.31,2552399,Jeff Heuerman,82,2019,38,2,15:00:00,DEN,1,10,OAK,7,0,2560733,SINGLEBACK,"1 RB, 3 TE, 1 WR",7,"4 DL, 3 LB, 4 DB",left,2019-09-10T02:51:31.000Z,2019-09-10T02:51:29.000Z,6-5,255,11/24/1992,Ohio State,TE,OAK,DEN,1,Oakland-Alameda County Coliseum,"Oakland, CA",Outdoor,Natural Grass,Breezy,68.0,66,15,W
13996,2019090901,20190909010778,away,48.94,25.73,3.27,1.8,0.34,270.14,191.22,2555133,Connor McGovern,60,2019,38,2,15:00:00,DEN,1,10,OAK,7,0,2560733,SINGLEBACK,"1 RB, 3 TE, 1 WR",7,"4 DL, 3 LB, 4 DB",left,2019-09-10T02:51:31.000Z,2019-09-10T02:51:29.000Z,6-4,306,04/27/1993,Missouri,G,OAK,DEN,1,Oakland-Alameda County Coliseum,"Oakland, CA",Outdoor,Natural Grass,Breezy,68.0,66,15,W
13997,2019090901,20190909010778,away,49.62,22.64,4.35,0.83,0.44,286.79,176.65,2558014,Garett Bolles,72,2019,38,2,15:00:00,DEN,1,10,OAK,7,0,2560733,SINGLEBACK,"1 RB, 3 TE, 1 WR",7,"4 DL, 3 LB, 4 DB",left,2019-09-10T02:51:31.000Z,2019-09-10T02:51:29.000Z,6-5,300,05/27/1992,Utah,T,OAK,DEN,1,Oakland-Alameda County Coliseum,"Oakland, CA",Outdoor,Natural Grass,Breezy,68.0,66,15,W
13998,2019090901,20190909010778,away,47.18,9.76,1.9,1.37,0.2,279.59,266.29,2558985,Tim Patrick,81,2019,38,2,15:00:00,DEN,1,10,OAK,7,0,2560733,SINGLEBACK,"1 RB, 3 TE, 1 WR",7,"4 DL, 3 LB, 4 DB",left,2019-09-10T02:51:31.000Z,2019-09-10T02:51:29.000Z,6-4,212,11/23/1993,Utah,WR,OAK,DEN,1,Oakland-Alameda County Coliseum,"Oakland, CA",Outdoor,Natural Grass,Breezy,68.0,66,15,W
13999,2019090901,20190909010778,away,53.33,25.24,6.42,0.81,0.64,227.21,209.91,2560733,Royce Freeman,28,2019,38,2,15:00:00,DEN,1,10,OAK,7,0,2560733,SINGLEBACK,"1 RB, 3 TE, 1 WR",7,"4 DL, 3 LB, 4 DB",left,2019-09-10T02:51:31.000Z,2019-09-10T02:51:29.000Z,6-0,238,02/24/1996,Oregon,RB,OAK,DEN,1,Oakland-Alameda County Coliseum,"Oakland, CA",Outdoor,Natural Grass,Breezy,68.0,66,15,W
14000,2019090901,20190909010778,away,48.46,31.42,4.18,0.46,0.42,230.1,205.29,2560734,Troy Fumagalli,84,2019,38,2,15:00:00,DEN,1,10,OAK,7,0,2560733,SINGLEBACK,"1 RB, 3 TE, 1 WR",7,"4 DL, 3 LB, 4 DB",left,2019-09-10T02:51:31.000Z,2019-09-10T02:51:29.000Z,6-6,248,02/17/1995,Wisconsin,TE,OAK,DEN,1,Oakland-Alameda County Coliseum,"Oakland, CA",Outdoor,Natural Grass,Breezy,68.0,66,15,W
14001,2019090901,20190909010778,away,47.61,20.87,5.66,1.8,0.56,245.74,194.25,2562383,Noah Fant,87,2019,38,2,15:00:00,DEN,1,10,OAK,7,0,2560733,SINGLEBACK,"1 RB, 3 TE, 1 WR",7,"4 DL, 3 LB, 4 DB",left,2019-09-10T02:51:31.000Z,2019-09-10T02:51:29.000Z,6-4,249,11/20/1997,Iowa,TE,OAK,DEN,1,Oakland-Alameda County Coliseum,"Oakland, CA",Outdoor,Natural Grass,Breezy,68.0,66,15,W
14002,2019090901,20190909010778,away,47.84,24.22,4.83,0.92,0.49,257.01,198.14,2562714,Dalton Risner,66,2019,38,2,15:00:00,DEN,1,10,OAK,7,0,2560733,SINGLEBACK,"1 RB, 3 TE, 1 WR",7,"4 DL, 3 LB, 4 DB",left,2019-09-10T02:51:31.000Z,2019-09-10T02:51:29.000Z,6-5,312,07/13/1995,Kansas State,G,OAK,DEN,1,Oakland-Alameda County Coliseum,"Oakland, CA",Outdoor,Natural Grass,Breezy,68.0,66,15,W
14003,2019090901,20190909010778,home,44.32,28.94,5.3,0.98,0.53,118.44,158.13,2532986,Tahir Whitehead,59,2019,38,2,15:00:00,DEN,1,10,OAK,7,0,2560733,SINGLEBACK,"1 RB, 3 TE, 1 WR",7,"4 DL, 3 LB, 4 DB",left,2019-09-10T02:51:31.000Z,2019-09-10T02:51:29.000Z,6-1,241,04/02/1990,Temple,OLB,OAK,DEN,1,Oakland-Alameda County Coliseum,"Oakland, CA",Outdoor,Natural Grass,Breezy,68.0,66,15,W
14004,2019090901,20190909010778,home,44.48,24.66,6.05,1.04,0.6,116.68,155.91,2533058,Vontaze Burfict,55,2019,38,2,15:00:00,DEN,1,10,OAK,7,0,2560733,SINGLEBACK,"1 RB, 3 TE, 1 WR",7,"4 DL, 3 LB, 4 DB",left,2019-09-10T02:51:31.000Z,2019-09-10T02:51:29.000Z,6-1,255,09/24/1990,Arizona State,OLB,OAK,DEN,1,Oakland-Alameda County Coliseum,"Oakland, CA",Outdoor,Natural Grass,Breezy,68.0,66,15,W
14005,2019090901,20190909010778,home,48.16,25.92,3.43,1.61,0.36,127.89,185.74,2540147,Johnathan Hankins,90,2019,38,2,15:00:00,DEN,1,10,OAK,7,0,2560733,SINGLEBACK,"1 RB, 3 TE, 1 WR",7,"4 DL, 3 LB, 4 DB",left,2019-09-10T02:51:31.000Z,2019-09-10T02:51:29.000Z,6-3,340,03/30/1992,Ohio State,DT,OAK,DEN,1,Oakland-Alameda County Coliseum,"Oakland, CA",Outdoor,Natural Grass,Breezy,68.0,66,15,W
14006,2019090901,20190909010778,home,48.56,31.97,3.42,1.29,0.36,174.2,171.72,2550437,Josh Mauro,97,2019,38,2,15:00:00,DEN,1,10,OAK,7,0,2560733,SINGLEBACK,"1 RB, 3 TE, 1 WR",7,"4 DL, 3 LB, 4 DB",left,2019-09-10T02:51:31.000Z,2019-09-10T02:51:29.000Z,6-6,290,02/17/1991,Stanford,DE,OAK,DEN,1,Oakland-Alameda County Coliseum,"Oakland, CA",Outdoor,Natural Grass,Breezy,68.0,66,15,W
14007,2019090901,20190909010778,home,35.05,35.1,2.75,2.16,0.27,111.51,224.43,2555342,Karl Joseph,42,2019,38,2,15:00:00,DEN,1,10,OAK,7,0,2560733,SINGLEBACK,"1 RB, 3 TE, 1 WR",7,"4 DL, 3 LB, 4 DB",left,2019-09-10T02:51:31.000Z,2019-09-10T02:51:29.000Z,5-10,200,09/08/1993,West Virginia,SS,OAK,DEN,1,Oakland-Alameda County Coliseum,"Oakland, CA",Outdoor,Natural Grass,Breezy,68.0,66,15,W
14008,2019090901,20190909010778,home,47.62,34.94,4.57,2.69,0.45,130.72,167.06,2555394,Daryl Worley,20,2019,38,2,15:00:00,DEN,1,10,OAK,7,0,2560733,SINGLEBACK,"1 RB, 3 TE, 1 WR",7,"4 DL, 3 LB, 4 DB",left,2019-09-10T02:51:31.000Z,2019-09-10T02:51:29.000Z,6-1,215,02/22/1995,West Virginia,CB,OAK,DEN,1,Oakland-Alameda County Coliseum,"Oakland, CA",Outdoor,Natural Grass,Breezy,68.0,66,15,W
14009,2019090901,20190909010778,home,46.52,20.75,5.84,2.2,0.59,103.34,162.31,2557972,Marquel Lee,52,2019,38,2,15:00:00,DEN,1,10,OAK,7,0,2560733,SINGLEBACK,"1 RB, 3 TE, 1 WR",7,"4 DL, 3 LB, 4 DB",left,2019-09-10T02:51:31.000Z,2019-09-10T02:51:29.000Z,6-3,235,10/21/1995,Wake Forest,MLB,OAK,DEN,1,Oakland-Alameda County Coliseum,"Oakland, CA",Outdoor,Natural Grass,Breezy,68.0,66,15,W
14010,2019090901,20190909010778,home,46.52,9.81,1.32,1.76,0.12,81.28,279.23,2558062,Gareon Conley,21,2019,38,2,15:00:00,DEN,1,10,OAK,7,0,2560733,SINGLEBACK,"1 RB, 3 TE, 1 WR",7,"4 DL, 3 LB, 4 DB",left,2019-09-10T02:51:31.000Z,2019-09-10T02:51:29.000Z,6-0,190,06/29/1995,Ohio State,CB,OAK,DEN,1,Oakland-Alameda County Coliseum,"Oakland, CA",Outdoor,Natural Grass,Breezy,68.0,66,15,W
14011,2019090901,20190909010778,home,47.92,27.74,4.45,0.96,0.47,126.92,171.77,2560080,P.J. Hall,92,2019,38,2,15:00:00,DEN,1,10,OAK,7,0,2560733,SINGLEBACK,"1 RB, 3 TE, 1 WR",7,"4 DL, 3 LB, 4 DB",left,2019-09-10T02:51:31.000Z,2019-09-10T02:51:29.000Z,6-0,305,04/05/1995,Sam Houston State,DT,OAK,DEN,1,Oakland-Alameda County Coliseum,"Oakland, CA",Outdoor,Natural Grass,Breezy,68.0,66,15,W
14012,2019090901,20190909010778,home,48.89,22.91,3.86,1.25,0.39,112.56,172.16,2562439,Maxx Crosby,98,2019,38,2,15:00:00,DEN,1,10,OAK,7,0,2560733,SINGLEBACK,"1 RB, 3 TE, 1 WR",7,"4 DL, 3 LB, 4 DB",left,2019-09-10T02:51:31.000Z,2019-09-10T02:51:29.000Z,6-5,255,08/22/1997,Eastern Michigan,DE,OAK,DEN,1,Oakland-Alameda County Coliseum,"Oakland, CA",Outdoor,Natural Grass,Breezy,68.0,66,15,W
14013,2019090901,20190909010778,home,34.01,17.05,3.63,0.6,0.37,84.65,225.03,2562616,Johnathan Abram,24,2019,38,2,15:00:00,DEN,1,10,OAK,7,0,2560733,SINGLEBACK,"1 RB, 3 TE, 1 WR",7,"4 DL, 3 LB, 4 DB",left,2019-09-10T02:51:31.000Z,2019-09-10T02:51:29.000Z,6-0,205,10/25/1996,Mississippi State,S,OAK,DEN,1,Oakland-Alameda County Coliseum,"Oakland, CA",Outdoor,Natural Grass,Breezy,68.0,66,15,W
