,GameId,PlayId,Team,X,Y,S,A,Dis,Orientation,Dir,NflId,DisplayName,JerseyNumber,Season,YardLine,Quarter,GameClock,PossessionTeam,Down,Distance,FieldPosition,HomeScoreBeforePlay,VisitorScoreBeforePlay,NflIdRusher,OffenseFormation,OffensePersonnel,DefendersInTheBox,DefensePersonnel,PlayDirection,TimeHandoff,TimeSnap,PlayerHeight,PlayerWeight,PlayerBirthDate,PlayerCollegeName,Position,HomeTeamAbbr,VisitorTeamAbbr,Week,Stadium,Location,StadiumType,Turf,GameWeather,Temperature,Humidity,WindSpeed,WindDirection
37488,2019092205,20190922053255,away,20.27,18.95,3.07,3.4,0.31,64.28,132.88,2532974,Kyle Wilber,58,2019,12,4,06:11:00,MIN,1,10,OAK,31,7,2562682,SINGLEBACK,"1 RB, 3 TE, 1 WR",7,"4 DL, 3 LB, 4 DB",left,2019-09-22T19:33:02.000Z,2019-09-22T19:33:01.000Z,6-4,240,04/26/1989,Wake Forest,OLB,MIN,OAK,3,U.S. Bank Stadium,"Minneapolis, MN",Indoors,Field Turf,N/A (Indoors),,0,,
37489,2019092205,20190922053255,away,19.24,28.47,3.27,0.46,0.33,103.02,162.94,2532986,Tahir Whitehead,59,2019,12,4,06:11:00,MIN,1,10,OAK,31,7,2562682,SINGLEBACK,"1 RB, 3 TE, 1 WR",7,"4 DL, 3 LB, 4 DB",left,2019-09-22T19:33:02.000Z,2019-09-22T19:33:01.000Z,6-1,241,04/02/1990,Temple,OLB,MIN,OAK,3,U.S. Bank Stadium,"Minneapolis, MN",Indoors,Field Turf,N/A (Indoors),,0,,
37490,2019092205,20190922053255,away,18.9,22.37,4.73,0.85,0.47,114.32,119.06,2533058,Vontaze Burfict,55,2019,12,4,06:11:00,MIN,1,10,OAK,31,7,2562682,SINGLEBACK,"1 RB, 3 TE, 1 WR",7,"4 DL, 3 LB, 4 DB",left,2019-09-22T19:33:02.000Z,2019-09-22T19:33:01.000Z,6-1,255,09/24/1990,Arizona State,OLB,MIN,OAK,3,U.S. Bank Stadium,"Minneapolis, MN",Indoors,Field Turf,N/A (Indoors),,0,,
37491,2019092205,20190922053255,away,21.38,21.4,2.24,0.66,0.22,75.82,183.22,2540147,Johnathan Hankins,90,2019,12,4,06:11:00,MIN,1,10,OAK,31,7,2562682,SINGLEBACK,"1 RB, 3 TE, 1 WR",7,"4 DL, 3 LB, 4 DB",left,2019-09-22T19:33:02.000Z,2019-09-22T19:33:01.000Z,6-3,340,03/30/1992,Ohio State,DT,MIN,OAK,3,U.S. Bank Stadium,"Minneapolis, MN",Indoors,Field Turf,N/A (Indoors),,0,,
37492,2019092205,20190922053255,away,14.9,34.37,3.16,1.98,0.31,109.05,208.86,2555342,Karl Joseph,42,2019,12,4,06:11:00,MIN,1,10,OAK,31,7,2562682,SINGLEBACK,"1 RB, 3 TE, 1 WR",7,"4 DL, 3 LB, 4 DB",left,2019-09-22T19:33:02.000Z,2019-09-22T19:33:01.000Z,5-10,200,09/08/1993,West Virginia,SS,MIN,OAK,3,U.S. Bank Stadium,"Minneapolis, MN",Indoors,Field Turf,N/A (Indoors),,0,,
37493,2019092205,20190922053255,away,15.69,10.06,1.69,1.6,0.18,67.66,248.28,2555394,Daryl Worley,20,2019,12,4,06:11:00,MIN,1,10,OAK,31,7,2562682,SINGLEBACK,"1 RB, 3 TE, 1 WR",7,"4 DL, 3 LB, 4 DB",left,2019-09-22T19:33:02.000Z,2019-09-22T19:33:01.000Z,6-1,215,02/22/1995,West Virginia,CB,MIN,OAK,3,U.S. Bank Stadium,"Minneapolis, MN",Indoors,Field Turf,N/A (Indoors),,0,,
37494,2019092205,20190922053255,away,7.63,26.18,0.8,3.87,0.07,86.39,151.95,2555568,Erik Harris,25,2019,12,4,06:11:00,MIN,1,10,OAK,31,7,2562682,SINGLEBACK,"1 RB, 3 TE, 1 WR",7,"4 DL, 3 LB, 4 DB",left,2019-09-22T19:33:02.000Z,2019-09-22T19:33:01.000Z,6-2,220,04/02/1990,"California, Pa.",SS,MIN,OAK,3,U.S. Bank Stadium,"Minneapolis, MN",Indoors,Field Turf,N/A (Indoors),,0,,
37495,2019092205,20190922053255,away,20.91,24.5,2.15,0.65,0.24,95.58,182.18,2560080,P.J. Hall,92,2019,12,4,06:11:00,MIN,1,10,OAK,31,7,2562682,SINGLEBACK,"1 RB, 3 TE, 1 WR",7,"4 DL, 3 LB, 4 DB",left,2019-09-22T19:33:02.000Z,2019-09-22T19:33:01.000Z,6-0,305,04/05/1995,Sam Houston State,DT,MIN,OAK,3,U.S. Bank Stadium,"Minneapolis, MN",Indoors,Field Turf,N/A (Indoors),,0,,
37496,2019092205,20190922053255,away,23.05,17.02,2.86,1.65,0.29,27.19,159.12,2562263,Clelin Ferrell,96,2019,12,4,06:11:00,MIN,1,10,OAK,31,7,2562682,SINGLEBACK,"1 RB, 3 TE, 1 WR",7,"4 DL, 3 LB, 4 DB",left,2019-09-22T19:33:02.000Z,2019-09-22T19:33:01.000Z,6-4,265,05/17/1997,Clemson,DL,MIN,OAK,3,U.S. Bank Stadium,"Minneapolis, MN",Indoors,Field Turf,N/A (Indoors),,0,,
37497,2019092205,20190922053255,away,13.98,42.48,3.14,2.0,0.31,97.93,230.21,2562380,Trayvon Mullen,27,2019,12,4,06:11:00,MIN,1,10,OAK,31,7,2562682,SINGLEBACK,"1 RB, 3 TE, 1 WR",7,"4 DL, 3 LB, 4 DB",left,2019-09-22T19:33:02.000Z,2019-09-22T19:33:01.000Z,6-2,200,09/20/1997,Clemson,CB,MIN,OAK,3,U.S. Bank Stadium,"Minneapolis, MN",Indoors,Field Turf,N/A (Indoors),,0,,
37498,2019092205,20190922053255,away,21.57,25.67,2.42,1.48,0.24,207.08,189.32,2562439,Maxx Crosby,98,2019,12,4,06:11:00,MIN,1,10,OAK,31,7,2562682,SINGLEBACK,"1 RB, 3 TE, 1 WR",7,"4 DL, 3 LB, 4 DB",left,2019-09-22T19:33:02.000Z,2019-09-22T19:33:01.000Z,6-5,255,08/22/1997,Eastern Michigan,DE,MIN,OAK,3,U.S. Bank Stadium,"Minneapolis, MN",Indoors,Field Turf,N/A (Indoors),,0,,
37499,2019092205,20190922053255,home,22.34,25.12,3.29,1.05,0.33,255.87,189.63,2495438,Kyle Rudolph,82,2019,12,4,06:11:00,MIN,1,10,OAK,31,7,2562682,SINGLEBACK,"1 RB, 3 TE, 1 WR",7,"4 DL, 3 LB, 4 DB",left,2019-09-22T19:33:02.000Z,2019-09-22T19:33:01.000Z,6-6,265,11/09/1989,Notre Dame,TE,MIN,OAK,3,U.S. Bank Stadium,"Minneapolis, MN",Indoors,Field Turf,N/A (Indoors),,0,,
37500,2019092205,20190922053255,home,26.52,22.9,4.62,1.27,0.46,91.56,100.82,2532820,Kirk Cousins,8,2019,12,4,06:11:00,MIN,1,10,OAK,31,7,2562682,SINGLEBACK,"1 RB, 3 TE, 1 WR",7,"4 DL, 3 LB, 4 DB",left,2019-09-22T19:33:02.000Z,2019-09-22T19:33:01.000Z,6-3,202,08/19/1988,Michigan State,QB,MIN,OAK,3,U.S. Bank Stadium,"Minneapolis, MN",Indoors,Field Turf,N/A (Indoors),,0,,
37501,2019092205,20190922053255,home,23.14,17.8,2.71,0.52,0.28,166.85,178.74,2533042,Riley Reiff,71,2019,12,4,06:11:00,MIN,1,10,OAK,31,7,2562682,SINGLEBACK,"1 RB, 3 TE, 1 WR",7,"4 DL, 3 LB, 4 DB",left,2019-09-22T19:33:02.000Z,2019-09-22T19:33:01.000Z,6-6,305,12/01/1988,Iowa,T,MIN,OAK,3,U.S. Bank Stadium,"Minneapolis, MN",Indoors,Field Turf,N/A (Indoors),,0,,
37502,2019092205,20190922053255,home,21.71,24.18,2.34,1.48,0.24,253.18,185.52,2543805,Dakota Dozier,78,2019,12,4,06:11:00,MIN,1,10,OAK,31,7,2562682,SINGLEBACK,"1 RB, 3 TE, 1 WR",7,"4 DL, 3 LB, 4 DB",left,2019-09-22T19:33:02.000Z,2019-09-22T19:33:01.000Z,6-4,313,04/30/1991,Furman,G,MIN,OAK,3,U.S. Bank Stadium,"Minneapolis, MN",Indoors,Field Turf,N/A (Indoors),,0,,
37503,2019092205,20190922053255,home,20.97,19.57,2.55,2.6,0.26,199.96,198.96,2558848,Pat Elflein,65,2019,12,4,06:11:00,MIN,1,10,OAK,31,7,2562682,SINGLEBACK,"1 RB, 3 TE, 1 WR",7,"4 DL, 3 LB, 4 DB",left,2019-09-22T19:33:02.000Z,2019-09-22T19:33:01.000Z,6-3,303,07/06/1994,Ohio State,G,MIN,OAK,3,U.S. Bank Stadium,"Minneapolis, MN",Indoors,Field Turf,N/A (Indoors),,0,,
37504,2019092205,20190922053255,home,21.09,25.06,2.04,1.69,0.2,297.36,210.74,2560831,Brian O'Neill,75,2019,12,4,06:11:00,MIN,1,10,OAK,31,7,2562682,SINGLEBACK,"1 RB, 3 TE, 1 WR",7,"4 DL, 3 LB, 4 DB",left,2019-09-22T19:33:02.000Z,2019-09-22T19:33:01.000Z,6-7,297,09/15/1995,Pittsburgh,T,MIN,OAK,3,U.S. Bank Stadium,"Minneapolis, MN",Indoors,Field Turf,N/A (Indoors),,0,,
37505,2019092205,20190922053255,home,21.51,41.39,5.47,2.39,0.54,230.97,233.8,2561027,Tyler Conklin,83,2019,12,4,06:11:00,MIN,1,10,OAK,31,7,2562682,SINGLEBACK,"1 RB, 3 TE, 1 WR",7,"4 DL, 3 LB, 4 DB",left,2019-09-22T19:33:02.000Z,2019-09-22T19:33:01.000Z,6-3,254,07/30/1995,Central Michigan,TE,MIN,OAK,3,U.S. Bank Stadium,"Minneapolis, MN",Indoors,Field Turf,N/A (Indoors),,0,,
37506,2019092205,20190922053255,home,19.07,10.66,5.25,0.06,0.52,265.2,255.47,2562465,Bisi Johnson,81,2019,12,4,06:11:00,MIN,1,10,OAK,31,7,2562682,SINGLEBACK,"1 RB, 3 TE, 1 WR",7,"4 DL, 3 LB, 4 DB",left,2019-09-22T19:33:02.000Z,2019-09-22T19:33:01.000Z,6-0,203,03/17/1997,Colorado State,WR,MIN,OAK,3,U.S. Bank Stadium,"Minneapolis, MN",Indoors,Field Turf,N/A (Indoors),,0,,
37507,2019092205,20190922053255,home,21.92,21.59,1.66,0.79,0.18,227.78,192.91,2562632,Garrett Bradbury,56,2019,12,4,06:11:00,MIN,1,10,OAK,31,7,2562682,SINGLEBACK,"1 RB, 3 TE, 1 WR",7,"4 DL, 3 LB, 4 DB",left,2019-09-22T19:33:02.000Z,2019-09-22T19:33:01.000Z,6-3,305,06/20/1995,North Carolina State,C,MIN,OAK,3,U.S. Bank Stadium,"Minneapolis, MN",Indoors,Field Turf,N/A (Indoors),,0,,
37508,2019092205,20190922053255,home,25.85,21.56,5.06,1.04,0.5,251.89,235.15,2562682,Alexander Mattison,25,2019,12,4,06:11:00,MIN,1,10,OAK,31,7,2562682,SINGLEBACK,"1 RB, 3 TE, 1 WR",7,"4 DL, 3 LB, 4 DB",left,2019-09-22T19:33:02.000Z,2019-09-22T19:33:01.000Z,5-11,220,06/19/1998,Boise State,RB,MIN,OAK,3,U.S. Bank Stadium,"Minneapolis, MN",Indoors,Field Turf,N/A (Indoors),,0,,
37509,2019092205,20190922053255,home,20.43,32.71,5.18,1.26,0.51,252.22,231.98,2562738,Irv Smith,84,2019,12,4,06:11:00,MIN,1,10,OAK,31,7,2562682,SINGLEBACK,"1 RB, 3 TE, 1 WR",7,"4 DL, 3 LB, 4 DB",left,2019-09-22T19:33:02.000Z,2019-09-22T19:33:01.000Z,6-2,240,08/09/1998,Alabama,TE,MIN,OAK,3,U.S. Bank Stadium,"Minneapolis, MN",Indoors,Field Turf,N/A (Indoors),,0,,
