,GameId,PlayId,Team,X,Y,S,A,Dis,Orientation,Dir,NflId,DisplayName,JerseyNumber,Season,YardLine,Quarter,GameClock,PossessionTeam,Down,Distance,FieldPosition,HomeScoreBeforePlay,VisitorScoreBeforePlay,NflIdRusher,OffenseFormation,OffensePersonnel,DefendersInTheBox,DefensePersonnel,PlayDirection,TimeHandoff,TimeSnap,PlayerHeight,PlayerWeight,PlayerBirthDate,PlayerCollegeName,Position,HomeTeamAbbr,VisitorTeamAbbr,Week,Stadium,Location,StadiumType,Turf,GameWeather,Temperature,Humidity,WindSpeed,WindDirection
24134,2019091508,20190915081558,away,55.96,31.91,1.76,1.42,0.18,151.9,121.29,2495137,Anthony Castonzo,74,2019,47,2,03:14:00,IND,2,7,IND,7,13,2558123,SHOTGUN,"1 RB, 1 TE, 3 WR",5,"2 DL, 4 LB, 5 DB",right,2019-09-15T18:09:04.000Z,2019-09-15T18:09:03.000Z,6-7,307,08/09/1988,Boston College,T,TEN,IND,2,Nissan Stadium,"Nashville, TN",Outdoors,Grass,Sunny,93.0,45,1,NE
24135,2019091508,20190915081558,away,57.18,45.73,3.93,2.58,0.4,94.43,62.77,2532865,T.Y. Hilton,13,2019,47,2,03:14:00,IND,2,7,IND,7,13,2558123,SHOTGUN,"1 RB, 1 TE, 3 WR",5,"2 DL, 4 LB, 5 DB",right,2019-09-15T18:09:04.000Z,2019-09-15T18:09:03.000Z,5-10,183,11/14/1989,Florida International,WR,TEN,IND,2,Nissan Stadium,"Nashville, TN",Outdoors,Grass,Sunny,93.0,45,1,NE
24136,2019091508,20190915081558,away,55.98,28.49,0.97,0.98,0.1,51.39,23.74,2552467,Mark Glowinski,64,2019,47,2,03:14:00,IND,2,7,IND,7,13,2558123,SHOTGUN,"1 RB, 1 TE, 3 WR",5,"2 DL, 4 LB, 5 DB",right,2019-09-15T18:09:04.000Z,2019-09-15T18:09:03.000Z,6-4,310,05/03/1992,West Virginia,G,TEN,IND,2,Nissan Stadium,"Nashville, TN",Outdoors,Grass,Sunny,93.0,45,1,NE
24137,2019091508,20190915081558,away,56.81,30.45,1.09,0.8,0.11,4.13,53.25,2555191,Ryan Kelly,78,2019,47,2,03:14:00,IND,2,7,IND,7,13,2558123,SHOTGUN,"1 RB, 1 TE, 3 WR",5,"2 DL, 4 LB, 5 DB",right,2019-09-15T18:09:04.000Z,2019-09-15T18:09:03.000Z,6-4,309,05/30/1993,Alabama,C,TEN,IND,2,Nissan Stadium,"Nashville, TN",Outdoors,Grass,Sunny,93.0,45,1,NE
24138,2019091508,20190915081558,away,51.63,29.17,1.46,2.25,0.14,117.98,222.01,2555261,Jacoby Brissett,7,2019,47,2,03:14:00,IND,2,7,IND,7,13,2558123,SHOTGUN,"1 RB, 1 TE, 3 WR",5,"2 DL, 4 LB, 5 DB",right,2019-09-15T18:09:04.000Z,2019-09-15T18:09:03.000Z,6-4,235,12/11/1992,North Carolina State,QB,TEN,IND,2,Nissan Stadium,"Nashville, TN",Outdoors,Grass,Sunny,93.0,45,1,NE
24139,2019091508,20190915081558,away,56.68,20.62,4.66,2.91,0.46,78.87,89.71,2556396,Chester Rogers,80,2019,47,2,03:14:00,IND,2,7,IND,7,13,2558123,SHOTGUN,"1 RB, 1 TE, 3 WR",5,"2 DL, 4 LB, 5 DB",right,2019-09-15T18:09:04.000Z,2019-09-15T18:09:03.000Z,6-0,184,01/12/1994,Grambling,WR,TEN,IND,2,Nissan Stadium,"Nashville, TN",Outdoors,Grass,Sunny,93.0,45,1,NE
24140,2019091508,20190915081558,away,51.82,28.29,2.16,1.87,0.22,132.8,53.62,2558123,Marlon Mack,25,2019,47,2,03:14:00,IND,2,7,IND,7,13,2558123,SHOTGUN,"1 RB, 1 TE, 3 WR",5,"2 DL, 4 LB, 5 DB",right,2019-09-15T18:09:04.000Z,2019-09-15T18:09:03.000Z,6-0,210,03/07/1996,South Florida,RB,TEN,IND,2,Nissan Stadium,"Nashville, TN",Outdoors,Grass,Sunny,93.0,45,1,NE
24141,2019091508,20190915081558,away,55.19,26.41,3.33,1.26,0.33,66.75,34.41,2558832,Mo Alie-Cox,81,2019,47,2,03:14:00,IND,2,7,IND,7,13,2558123,SHOTGUN,"1 RB, 1 TE, 3 WR",5,"2 DL, 4 LB, 5 DB",right,2019-09-15T18:09:04.000Z,2019-09-15T18:09:03.000Z,6-5,267,09/19/1993,Virginia Commonwealth,TE,TEN,IND,2,Nissan Stadium,"Nashville, TN",Outdoors,Grass,Sunny,93.0,45,1,NE
24142,2019091508,20190915081558,away,57.25,22.97,3.61,2.14,0.36,88.91,70.52,2558877,Zach Pascal,14,2019,47,2,03:14:00,IND,2,7,IND,7,13,2558123,SHOTGUN,"1 RB, 1 TE, 3 WR",5,"2 DL, 4 LB, 5 DB",right,2019-09-15T18:09:04.000Z,2019-09-15T18:09:03.000Z,6-2,214,12/18/1994,Old Dominion,WR,TEN,IND,2,Nissan Stadium,"Nashville, TN",Outdoors,Grass,Sunny,93.0,45,1,NE
24143,2019091508,20190915081558,away,55.81,30.83,0.91,0.42,0.11,82.51,104.12,2560820,Quenton Nelson,56,2019,47,2,03:14:00,IND,2,7,IND,7,13,2558123,SHOTGUN,"1 RB, 1 TE, 3 WR",5,"2 DL, 4 LB, 5 DB",right,2019-09-15T18:09:04.000Z,2019-09-15T18:09:03.000Z,6-5,330,03/19/1996,Notre Dame,G,TEN,IND,2,Nissan Stadium,"Nashville, TN",Outdoors,Grass,Sunny,93.0,45,1,NE
24144,2019091508,20190915081558,away,56.75,27.79,2.66,1.7,0.27,22.95,52.91,2560876,Braden Smith,72,2019,47,2,03:14:00,IND,2,7,IND,7,13,2558123,SHOTGUN,"1 RB, 1 TE, 3 WR",5,"2 DL, 4 LB, 5 DB",right,2019-09-15T18:09:04.000Z,2019-09-15T18:09:03.000Z,6-6,315,03/25/1996,Auburn,G,TEN,IND,2,Nissan Stadium,"Nashville, TN",Outdoors,Grass,Sunny,93.0,45,1,NE
24145,2019091508,20190915081558,home,56.69,28.48,0.87,1.35,0.09,254.9,359.94,2495476,Jurrell Casey,99,2019,47,2,03:14:00,IND,2,7,IND,7,13,2558123,SHOTGUN,"1 RB, 1 TE, 3 WR",5,"2 DL, 4 LB, 5 DB",right,2019-09-15T18:09:04.000Z,2019-09-15T18:09:03.000Z,6-1,305,12/05/1989,Southern California,DT,TEN,IND,2,Nissan Stadium,"Nashville, TN",Outdoors,Grass,Sunny,93.0,45,1,NE
24146,2019091508,20190915081558,home,65.99,40.09,4.06,0.69,0.4,276.55,329.19,2539320,Kenny Vaccaro,24,2019,47,2,03:14:00,IND,2,7,IND,7,13,2558123,SHOTGUN,"1 RB, 1 TE, 3 WR",5,"2 DL, 4 LB, 5 DB",right,2019-09-15T18:09:04.000Z,2019-09-15T18:09:03.000Z,6-0,214,02/15/1991,Texas,SS,TEN,IND,2,Nissan Stadium,"Nashville, TN",Outdoors,Grass,Sunny,93.0,45,1,NE
24147,2019091508,20190915081558,home,60.27,21.96,3.09,1.54,0.3,217.18,143.03,2540162,Logan Ryan,26,2019,47,2,03:14:00,IND,2,7,IND,7,13,2558123,SHOTGUN,"1 RB, 1 TE, 3 WR",5,"2 DL, 4 LB, 5 DB",right,2019-09-15T18:09:04.000Z,2019-09-15T18:09:03.000Z,5-11,195,02/09/1991,Rutgers,CB,TEN,IND,2,Nissan Stadium,"Nashville, TN",Outdoors,Grass,Sunny,93.0,45,1,NE
24148,2019091508,20190915081558,home,56.4,31.03,0.86,1.41,0.11,244.02,347.72,2543504,DaQuan Jones,90,2019,47,2,03:14:00,IND,2,7,IND,7,13,2558123,SHOTGUN,"1 RB, 1 TE, 3 WR",5,"2 DL, 4 LB, 5 DB",right,2019-09-15T18:09:04.000Z,2019-09-15T18:09:03.000Z,6-4,322,12/27/1991,Penn State,DE,TEN,IND,2,Nissan Stadium,"Nashville, TN",Outdoors,Grass,Sunny,93.0,45,1,NE
24149,2019091508,20190915081558,home,56.88,41.86,5.21,3.52,0.5,233.21,190.51,2550613,Malcolm Butler,21,2019,47,2,03:14:00,IND,2,7,IND,7,13,2558123,SHOTGUN,"1 RB, 1 TE, 3 WR",5,"2 DL, 4 LB, 5 DB",right,2019-09-15T18:09:04.000Z,2019-09-15T18:09:03.000Z,5-11,190,03/02/1990,West Alabama,CB,TEN,IND,2,Nissan Stadium,"Nashville, TN",Outdoors,Grass,Sunny,93.0,45,1,NE
24150,2019091508,20190915081558,home,70.6,23.78,2.86,1.28,0.28,329.16,27.54,2555158,Kevin Byard,31,2019,47,2,03:14:00,IND,2,7,IND,7,13,2558123,SHOTGUN,"1 RB, 1 TE, 3 WR",5,"2 DL, 4 LB, 5 DB",right,2019-09-15T18:09:04.000Z,2019-09-15T18:09:03.000Z,5-11,212,08/17/1993,Middle Tennessee,FS,TEN,IND,2,Nissan Stadium,"Nashville, TN",Outdoors,Grass,Sunny,93.0,45,1,NE
24151,2019091508,20190915081558,home,56.94,31.74,0.98,2.39,0.11,298.6,154.69,2555339,Kamalei Correa,44,2019,47,2,03:14:00,IND,2,7,IND,7,13,2558123,SHOTGUN,"1 RB, 1 TE, 3 WR",5,"2 DL, 4 LB, 5 DB",right,2019-09-15T18:09:04.000Z,2019-09-15T18:09:03.000Z,6-3,241,04/27/1994,Boise State,ILB,TEN,IND,2,Nissan Stadium,"Nashville, TN",Outdoors,Grass,Sunny,93.0,45,1,NE
24152,2019091508,20190915081558,home,60.23,30.12,1.58,1.22,0.15,293.34,302.95,2558005,Jayon Brown,55,2019,47,2,03:14:00,IND,2,7,IND,7,13,2558123,SHOTGUN,"1 RB, 1 TE, 3 WR",5,"2 DL, 4 LB, 5 DB",right,2019-09-15T18:09:04.000Z,2019-09-15T18:09:03.000Z,6-0,226,02/26/1995,UCLA,ILB,TEN,IND,2,Nissan Stadium,"Nashville, TN",Outdoors,Grass,Sunny,93.0,45,1,NE
24153,2019091508,20190915081558,home,64.47,19.12,0.72,1.65,0.07,236.96,64.8,2558065,Adoree' Jackson,25,2019,47,2,03:14:00,IND,2,7,IND,7,13,2558123,SHOTGUN,"1 RB, 1 TE, 3 WR",5,"2 DL, 4 LB, 5 DB",right,2019-09-15T18:09:04.000Z,2019-09-15T18:09:03.000Z,5-11,185,09/18/1995,Southern California,CB,TEN,IND,2,Nissan Stadium,"Nashville, TN",Outdoors,Grass,Sunny,93.0,45,1,NE
24154,2019091508,20190915081558,home,61.01,27.51,1.97,2.57,0.19,293.84,303.53,2560718,Rashaan Evans,54,2019,47,2,03:14:00,IND,2,7,IND,7,13,2558123,SHOTGUN,"1 RB, 1 TE, 3 WR",5,"2 DL, 4 LB, 5 DB",right,2019-09-15T18:09:04.000Z,2019-09-15T18:09:03.000Z,6-2,234,11/08/1995,Alabama,LB,TEN,IND,2,Nissan Stadium,"Nashville, TN",Outdoors,Grass,Sunny,93.0,45,1,NE
24155,2019091508,20190915081558,home,56.72,26.15,3.45,1.21,0.34,259.32,344.86,2561328,Sharif Finch,56,2019,47,2,03:14:00,IND,2,7,IND,7,13,2558123,SHOTGUN,"1 RB, 1 TE, 3 WR",5,"2 DL, 4 LB, 5 DB",right,2019-09-15T18:09:04.000Z,2019-09-15T18:09:03.000Z,6-4,250,10/01/1995,Temple,OLB,TEN,IND,2,Nissan Stadium,"Nashville, TN",Outdoors,Grass,Sunny,93.0,45,1,NE
