,GameId,PlayId,Team,X,Y,S,A,Dis,Orientation,Dir,NflId,DisplayName,JerseyNumber,Season,YardLine,Quarter,GameClock,PossessionTeam,Down,Distance,FieldPosition,HomeScoreBeforePlay,VisitorScoreBeforePlay,NflIdRusher,OffenseFormation,OffensePersonnel,DefendersInTheBox,DefensePersonnel,PlayDirection,TimeHandoff,TimeSnap,PlayerHeight,PlayerWeight,PlayerBirthDate,PlayerCollegeName,Position,HomeTeamAbbr,VisitorTeamAbbr,Week,Stadium,Location,StadiumType,Turf,GameWeather,Temperature,Humidity,WindSpeed,WindDirection
66396,2019100604,20191006043294,away,12.88,23.9,2.52,2.4,0.24,48.71,1.43,2495438,Kyle Rudolph,82,2019,5,4,15:00:00,MIN,2,17,MIN,10,25,2562682,SHOTGUN,"1 RB, 1 TE, 3 WR",7,"2 DL, 4 LB, 5 DB",right,2019-10-06T19:26:06.000Z,2019-10-06T19:26:05.000Z,6-6,265,11/09/1989,Notre Dame,TE,NYG,MIN,5,MetLife Stadium,"East Rutherford, NJ",,UBU Speed Series-S5-M,Cloudy,66.0,73,10,South
66397,2019100604,20191006043294,away,10.18,27.54,0.64,1.59,0.06,85.45,270.05,2532820,Kirk Cousins,8,2019,5,4,15:00:00,MIN,2,17,MIN,10,25,2562682,SHOTGUN,"1 RB, 1 TE, 3 WR",7,"2 DL, 4 LB, 5 DB",right,2019-10-06T19:26:06.000Z,2019-10-06T19:26:05.000Z,6-3,202,08/19/1988,Michigan State,QB,NYG,MIN,5,MetLife Stadium,"East Rutherford, NJ",,UBU Speed Series-S5-M,Cloudy,66.0,73,10,South
66398,2019100604,20191006043294,away,13.59,32.04,2.84,0.58,0.29,56.05,343.24,2533042,Riley Reiff,71,2019,5,4,15:00:00,MIN,2,17,MIN,10,25,2562682,SHOTGUN,"1 RB, 1 TE, 3 WR",7,"2 DL, 4 LB, 5 DB",right,2019-10-06T19:26:06.000Z,2019-10-06T19:26:05.000Z,6-6,305,12/01/1988,Iowa,T,NYG,MIN,5,MetLife Stadium,"East Rutherford, NJ",,UBU Speed Series-S5-M,Cloudy,66.0,73,10,South
66399,2019100604,20191006043294,away,15.02,27.48,3.58,0.72,0.36,52.29,30.96,2541142,Josh Kline,64,2019,5,4,15:00:00,MIN,2,17,MIN,10,25,2562682,SHOTGUN,"1 RB, 1 TE, 3 WR",7,"2 DL, 4 LB, 5 DB",right,2019-10-06T19:26:06.000Z,2019-10-06T19:26:05.000Z,6-3,300,12/29/1989,Kent State,G,NYG,MIN,5,MetLife Stadium,"East Rutherford, NJ",,UBU Speed Series-S5-M,Cloudy,66.0,73,10,South
66400,2019100604,20191006043294,away,14.86,36.51,3.97,2.15,0.39,99.43,56.99,2541785,Adam Thielen,19,2019,5,4,15:00:00,MIN,2,17,MIN,10,25,2562682,SHOTGUN,"1 RB, 1 TE, 3 WR",7,"2 DL, 4 LB, 5 DB",right,2019-10-06T19:26:06.000Z,2019-10-06T19:26:05.000Z,6-2,200,08/22/1990,Minn. State-Mankato,WR,NYG,MIN,5,MetLife Stadium,"East Rutherford, NJ",,UBU Speed Series-S5-M,Cloudy,66.0,73,10,South
66401,2019100604,20191006043294,away,15.43,43.43,3.84,4.53,0.36,94.81,92.05,2552608,Stefon Diggs,14,2019,5,4,15:00:00,MIN,2,17,MIN,10,25,2562682,SHOTGUN,"1 RB, 1 TE, 3 WR",7,"2 DL, 4 LB, 5 DB",right,2019-10-06T19:26:06.000Z,2019-10-06T19:26:05.000Z,6-0,191,11/29/1993,Maryland,WR,NYG,MIN,5,MetLife Stadium,"East Rutherford, NJ",,UBU Speed Series-S5-M,Cloudy,66.0,73,10,South
66402,2019100604,20191006043294,away,14.66,30.77,3.62,1.43,0.37,69.3,23.76,2558848,Pat Elflein,65,2019,5,4,15:00:00,MIN,2,17,MIN,10,25,2562682,SHOTGUN,"1 RB, 1 TE, 3 WR",7,"2 DL, 4 LB, 5 DB",right,2019-10-06T19:26:06.000Z,2019-10-06T19:26:05.000Z,6-3,303,07/06/1994,Ohio State,G,NYG,MIN,5,MetLife Stadium,"East Rutherford, NJ",,UBU Speed Series-S5-M,Cloudy,66.0,73,10,South
66403,2019100604,20191006043294,away,13.57,26.32,3.54,0.43,0.37,99.27,354.7,2560831,Brian O'Neill,75,2019,5,4,15:00:00,MIN,2,17,MIN,10,25,2562682,SHOTGUN,"1 RB, 1 TE, 3 WR",7,"2 DL, 4 LB, 5 DB",right,2019-10-06T19:26:06.000Z,2019-10-06T19:26:05.000Z,6-7,297,09/15/1995,Pittsburgh,T,NYG,MIN,5,MetLife Stadium,"East Rutherford, NJ",,UBU Speed Series-S5-M,Cloudy,66.0,73,10,South
66404,2019100604,20191006043294,away,15.2,22.04,4.06,4.87,0.41,82.3,39.29,2562465,Bisi Johnson,81,2019,5,4,15:00:00,MIN,2,17,MIN,10,25,2562682,SHOTGUN,"1 RB, 1 TE, 3 WR",7,"2 DL, 4 LB, 5 DB",right,2019-10-06T19:26:06.000Z,2019-10-06T19:26:05.000Z,6-0,203,03/17/1997,Colorado State,WR,NYG,MIN,5,MetLife Stadium,"East Rutherford, NJ",,UBU Speed Series-S5-M,Cloudy,66.0,73,10,South
66405,2019100604,20191006043294,away,14.12,29.34,3.05,0.19,0.31,89.47,351.89,2562632,Garrett Bradbury,56,2019,5,4,15:00:00,MIN,2,17,MIN,10,25,2562682,SHOTGUN,"1 RB, 1 TE, 3 WR",7,"2 DL, 4 LB, 5 DB",right,2019-10-06T19:26:06.000Z,2019-10-06T19:26:05.000Z,6-3,305,06/20/1995,North Carolina State,C,NYG,MIN,5,MetLife Stadium,"East Rutherford, NJ",,UBU Speed Series-S5-M,Cloudy,66.0,73,10,South
66406,2019100604,20191006043294,away,10.59,26.23,4.96,5.04,0.46,46.19,5.54,2562682,Alexander Mattison,25,2019,5,4,15:00:00,MIN,2,17,MIN,10,25,2562682,SHOTGUN,"1 RB, 1 TE, 3 WR",7,"2 DL, 4 LB, 5 DB",right,2019-10-06T19:26:06.000Z,2019-10-06T19:26:05.000Z,5-11,220,06/19/1998,Boise State,RB,NYG,MIN,5,MetLife Stadium,"East Rutherford, NJ",,UBU Speed Series-S5-M,Cloudy,66.0,73,10,South
66407,2019100604,20191006043294,home,28.31,35.04,1.46,0.7,0.15,272.27,92.6,2495807,Antoine Bethea,41,2019,5,4,15:00:00,MIN,2,17,MIN,10,25,2562682,SHOTGUN,"1 RB, 1 TE, 3 WR",7,"2 DL, 4 LB, 5 DB",right,2019-10-06T19:26:06.000Z,2019-10-06T19:26:05.000Z,5-11,206,07/27/1984,Howard,FS,NYG,MIN,5,MetLife Stadium,"East Rutherford, NJ",,UBU Speed Series-S5-M,Cloudy,66.0,73,10,South
66408,2019100604,20191006043294,home,22.47,18.89,1.58,1.72,0.15,294.19,40.01,2532875,Janoris Jenkins,20,2019,5,4,15:00:00,MIN,2,17,MIN,10,25,2562682,SHOTGUN,"1 RB, 1 TE, 3 WR",7,"2 DL, 4 LB, 5 DB",right,2019-10-06T19:26:06.000Z,2019-10-06T19:26:05.000Z,5-10,190,10/29/1988,North Alabama,CB,NYG,MIN,5,MetLife Stadium,"East Rutherford, NJ",,UBU Speed Series-S5-M,Cloudy,66.0,73,10,South
66409,2019100604,20191006043294,home,14.18,23.78,3.47,2.64,0.34,272.4,315.8,2552273,Markus Golden,44,2019,5,4,15:00:00,MIN,2,17,MIN,10,25,2562682,SHOTGUN,"1 RB, 1 TE, 3 WR",7,"2 DL, 4 LB, 5 DB",right,2019-10-06T19:26:06.000Z,2019-10-06T19:26:05.000Z,6-3,260,03/13/1991,Missouri,OLB,NYG,MIN,5,MetLife Stadium,"East Rutherford, NJ",,UBU Speed Series-S5-M,Cloudy,66.0,73,10,South
66410,2019100604,20191006043294,home,18.66,30.27,3.23,3.96,0.31,285.85,338.07,2553441,David Mayo,55,2019,5,4,15:00:00,MIN,2,17,MIN,10,25,2562682,SHOTGUN,"1 RB, 1 TE, 3 WR",7,"2 DL, 4 LB, 5 DB",right,2019-10-06T19:26:06.000Z,2019-10-06T19:26:05.000Z,6-2,245,08/08/1993,Texas State,MLB,NYG,MIN,5,MetLife Stadium,"East Rutherford, NJ",,UBU Speed Series-S5-M,Cloudy,66.0,73,10,South
66411,2019100604,20191006043294,home,14.45,28.94,2.3,1.35,0.25,260.05,334.33,2557846,Dalvin Tomlinson,94,2019,5,4,15:00:00,MIN,2,17,MIN,10,25,2562682,SHOTGUN,"1 RB, 1 TE, 3 WR",7,"2 DL, 4 LB, 5 DB",right,2019-10-06T19:26:06.000Z,2019-10-06T19:26:05.000Z,6-3,318,02/28/1994,Alabama,DT,NYG,MIN,5,MetLife Stadium,"East Rutherford, NJ",,UBU Speed Series-S5-M,Cloudy,66.0,73,10,South
66412,2019100604,20191006043294,home,17.83,22.87,1.17,2.44,0.11,269.93,4.89,2557980,Jabrill Peppers,21,2019,5,4,15:00:00,MIN,2,17,MIN,10,25,2562682,SHOTGUN,"1 RB, 1 TE, 3 WR",7,"2 DL, 4 LB, 5 DB",right,2019-10-06T19:26:06.000Z,2019-10-06T19:26:05.000Z,5-11,213,10/04/1995,Michigan,FS,NYG,MIN,5,MetLife Stadium,"East Rutherford, NJ",,UBU Speed Series-S5-M,Cloudy,66.0,73,10,South
66413,2019100604,20191006043294,home,17.26,35.23,2.68,2.16,0.26,283.68,18.17,2561001,Grant Haley,34,2019,5,4,15:00:00,MIN,2,17,MIN,10,25,2562682,SHOTGUN,"1 RB, 1 TE, 3 WR",7,"2 DL, 4 LB, 5 DB",right,2019-10-06T19:26:06.000Z,2019-10-06T19:26:05.000Z,5-9,190,01/06/1996,Penn State,CB,NYG,MIN,5,MetLife Stadium,"East Rutherford, NJ",,UBU Speed Series-S5-M,Cloudy,66.0,73,10,South
66414,2019100604,20191006043294,home,24.02,44.55,2.55,0.28,0.26,234.13,88.13,2562227,Deandre Baker,27,2019,5,4,15:00:00,MIN,2,17,MIN,10,25,2562682,SHOTGUN,"1 RB, 1 TE, 3 WR",7,"2 DL, 4 LB, 5 DB",right,2019-10-06T19:26:06.000Z,2019-10-06T19:26:05.000Z,5-11,180,09/04/1997,Georgia,CB,NYG,MIN,5,MetLife Stadium,"East Rutherford, NJ",,UBU Speed Series-S5-M,Cloudy,66.0,73,10,South
66415,2019100604,20191006043294,home,14.53,26.31,2.72,1.84,0.29,266.36,341.98,2562301,Dexter Lawrence,97,2019,5,4,15:00:00,MIN,2,17,MIN,10,25,2562682,SHOTGUN,"1 RB, 1 TE, 3 WR",7,"2 DL, 4 LB, 5 DB",right,2019-10-06T19:26:06.000Z,2019-10-06T19:26:05.000Z,6-4,342,11/12/1997,Clemson,DT,NYG,MIN,5,MetLife Stadium,"East Rutherford, NJ",,UBU Speed Series-S5-M,Cloudy,66.0,73,10,South
66416,2019100604,20191006043294,home,13.9,33.13,2.57,1.72,0.25,229.41,311.61,2562613,Oshane Ximines,53,2019,5,4,15:00:00,MIN,2,17,MIN,10,25,2562682,SHOTGUN,"1 RB, 1 TE, 3 WR",7,"2 DL, 4 LB, 5 DB",right,2019-10-06T19:26:06.000Z,2019-10-06T19:26:05.000Z,6-4,250,12/07/1996,Old Dominion,LB,NYG,MIN,5,MetLife Stadium,"East Rutherford, NJ",,UBU Speed Series-S5-M,Cloudy,66.0,73,10,South
66417,2019100604,20191006043294,home,18.78,26.89,2.68,3.12,0.25,274.7,338.27,2562816,Josiah Tauaefa,48,2019,5,4,15:00:00,MIN,2,17,MIN,10,25,2562682,SHOTGUN,"1 RB, 1 TE, 3 WR",7,"2 DL, 4 LB, 5 DB",right,2019-10-06T19:26:06.000Z,2019-10-06T19:26:05.000Z,6-1,232,03/05/1997,Texas-San Antonio,LB,NYG,MIN,5,MetLife Stadium,"East Rutherford, NJ",,UBU Speed Series-S5-M,Cloudy,66.0,73,10,South
