,GameId,PlayId,Team,X,Y,S,A,Dis,Orientation,Dir,NflId,DisplayName,JerseyNumber,Season,YardLine,Quarter,GameClock,PossessionTeam,Down,Distance,FieldPosition,HomeScoreBeforePlay,VisitorScoreBeforePlay,NflIdRusher,OffenseFormation,OffensePersonnel,DefendersInTheBox,DefensePersonnel,PlayDirection,TimeHandoff,TimeSnap,PlayerHeight,PlayerWeight,PlayerBirthDate,PlayerCollegeName,Position,HomeTeamAbbr,VisitorTeamAbbr,Week,Stadium,Location,StadiumType,Turf,GameWeather,Temperature,Humidity,WindSpeed,WindDirection
25146,2019091509,20190915091401,away,36.74,25.06,1.75,1.85,0.18,133.29,126.08,2495435,Tyron Smith,77,2019,26,2,08:42:00,DAL,1,10,DAL,7,0,2555224,SINGLEBACK,"1 RB, 2 TE, 2 WR",8,"3 DL, 4 LB, 4 DB",right,2019-09-15T18:00:39.000Z,2019-09-15T18:00:38.000Z,6-5,320,12/12/1990,Southern California,T,WAS,DAL,2,FedExField,"Landover, MD",Outdoor,Grass,Sunny,80.0,46,7,WNW
25147,2019091509,20190915091401,away,35.21,15.92,1.38,1.95,0.14,145.54,173.78,2505629,Jason Witten,82,2019,26,2,08:42:00,DAL,1,10,DAL,7,0,2555224,SINGLEBACK,"1 RB, 2 TE, 2 WR",8,"3 DL, 4 LB, 4 DB",right,2019-09-15T18:00:39.000Z,2019-09-15T18:00:38.000Z,6-6,263,05/06/1982,Tennessee,TE,WAS,DAL,2,FedExField,"Landover, MD",Outdoor,Grass,Sunny,80.0,46,7,WNW
25148,2019091509,20190915091401,away,36.87,22.29,1.05,1.13,0.12,168.51,111.78,2540161,Travis Frederick,72,2019,26,2,08:42:00,DAL,1,10,DAL,7,0,2555224,SINGLEBACK,"1 RB, 2 TE, 2 WR",8,"3 DL, 4 LB, 4 DB",right,2019-09-15T18:00:39.000Z,2019-09-15T18:00:38.000Z,6-4,320,03/18/1991,Wisconsin,C,WAS,DAL,2,FedExField,"Landover, MD",Outdoor,Grass,Sunny,80.0,46,7,WNW
25149,2019091509,20190915091401,away,35.69,21.7,0.86,1.56,0.08,55.89,287.91,2543480,Zack Martin,70,2019,26,2,08:42:00,DAL,1,10,DAL,7,0,2555224,SINGLEBACK,"1 RB, 2 TE, 2 WR",8,"3 DL, 4 LB, 4 DB",right,2019-09-15T18:00:39.000Z,2019-09-15T18:00:38.000Z,6-4,315,11/20/1990,Notre Dame,G,WAS,DAL,2,FedExField,"Landover, MD",Outdoor,Grass,Sunny,80.0,46,7,WNW
25150,2019091509,20190915091401,away,37.62,28.89,4.02,1.03,0.4,73.52,90.21,2552487,Amari Cooper,19,2019,26,2,08:42:00,DAL,1,10,DAL,7,0,2555224,SINGLEBACK,"1 RB, 2 TE, 2 WR",8,"3 DL, 4 LB, 4 DB",right,2019-09-15T18:00:39.000Z,2019-09-15T18:00:38.000Z,6-1,211,06/17/1994,Alabama,WR,WAS,DAL,2,FedExField,"Landover, MD",Outdoor,Grass,Sunny,80.0,46,7,WNW
25151,2019091509,20190915091401,away,35.87,20.65,0.45,0.72,0.05,117.68,90.96,2553505,La'el Collins,71,2019,26,2,08:42:00,DAL,1,10,DAL,7,0,2555224,SINGLEBACK,"1 RB, 2 TE, 2 WR",8,"3 DL, 4 LB, 4 DB",right,2019-09-15T18:00:39.000Z,2019-09-15T18:00:38.000Z,6-4,320,07/26/1993,Louisiana State,T,WAS,DAL,2,FedExField,"Landover, MD",Outdoor,Grass,Sunny,80.0,46,7,WNW
25152,2019091509,20190915091401,away,30.3,22.04,4.61,3.18,0.45,88.94,98.91,2555224,Ezekiel Elliott,21,2019,26,2,08:42:00,DAL,1,10,DAL,7,0,2555224,SINGLEBACK,"1 RB, 2 TE, 2 WR",8,"3 DL, 4 LB, 4 DB",right,2019-09-15T18:00:39.000Z,2019-09-15T18:00:38.000Z,6-0,228,07/22/1995,Ohio State,RB,WAS,DAL,2,FedExField,"Landover, MD",Outdoor,Grass,Sunny,80.0,46,7,WNW
25153,2019091509,20190915091401,away,29.88,23.16,4.53,2.93,0.45,264.12,278.22,2555260,Dak Prescott,4,2019,26,2,08:42:00,DAL,1,10,DAL,7,0,2555224,SINGLEBACK,"1 RB, 2 TE, 2 WR",8,"3 DL, 4 LB, 4 DB",right,2019-09-15T18:00:39.000Z,2019-09-15T18:00:38.000Z,6-2,238,07/29/1993,Mississippi State,QB,WAS,DAL,2,FedExField,"Landover, MD",Outdoor,Grass,Sunny,80.0,46,7,WNW
25154,2019091509,20190915091401,away,34.15,21.95,4.65,0.73,0.47,9.97,5.99,2559193,Blake Jarwin,89,2019,26,2,08:42:00,DAL,1,10,DAL,7,0,2555224,SINGLEBACK,"1 RB, 2 TE, 2 WR",8,"3 DL, 4 LB, 4 DB",right,2019-09-15T18:00:39.000Z,2019-09-15T18:00:38.000Z,6-5,260,07/16/1994,Oklahoma State,TE,WAS,DAL,2,FedExField,"Landover, MD",Outdoor,Grass,Sunny,80.0,46,7,WNW
25155,2019091509,20190915091401,away,38.26,45.2,5.06,1.87,0.5,90.5,89.72,2560735,Michael Gallup,13,2019,26,2,08:42:00,DAL,1,10,DAL,7,0,2555224,SINGLEBACK,"1 RB, 2 TE, 2 WR",8,"3 DL, 4 LB, 4 DB",right,2019-09-15T18:00:39.000Z,2019-09-15T18:00:38.000Z,6-1,200,03/04/1996,Colorado State,WR,WAS,DAL,2,FedExField,"Landover, MD",Outdoor,Grass,Sunny,80.0,46,7,WNW
25156,2019091509,20190915091401,away,35.79,24.3,0.56,0.77,0.06,11.14,155.36,2560934,Connor Williams,52,2019,26,2,08:42:00,DAL,1,10,DAL,7,0,2555224,SINGLEBACK,"1 RB, 2 TE, 2 WR",8,"3 DL, 4 LB, 4 DB",right,2019-09-15T18:00:39.000Z,2019-09-15T18:00:38.000Z,6-5,298,05/12/1997,Texas,G,WAS,DAL,2,FedExField,"Landover, MD",Outdoor,Grass,Sunny,80.0,46,7,WNW
25157,2019091509,20190915091401,home,41.34,30.55,1.34,0.83,0.14,231.2,210.29,306,Dominique Rodgers-Cromartie,45,2019,26,2,08:42:00,DAL,1,10,DAL,7,0,2555224,SINGLEBACK,"1 RB, 2 TE, 2 WR",8,"3 DL, 4 LB, 4 DB",right,2019-09-15T18:00:39.000Z,2019-09-15T18:00:38.000Z,6-2,205,04/07/1986,Tennessee State,CB,WAS,DAL,2,FedExField,"Landover, MD",Outdoor,Grass,Sunny,80.0,46,7,WNW
25158,2019091509,20190915091401,home,35.37,25.6,3.68,1.7,0.37,243.22,216.62,2495190,Ryan Kerrigan,91,2019,26,2,08:42:00,DAL,1,10,DAL,7,0,2555224,SINGLEBACK,"1 RB, 2 TE, 2 WR",8,"3 DL, 4 LB, 4 DB",right,2019-09-15T18:00:39.000Z,2019-09-15T18:00:38.000Z,6-4,265,08/16/1988,Purdue,OLB,WAS,DAL,2,FedExField,"Landover, MD",Outdoor,Grass,Sunny,80.0,46,7,WNW
25159,2019091509,20190915091401,home,44.98,44.52,3.76,0.55,0.37,177.83,88.67,2532920,Josh Norman,24,2019,26,2,08:42:00,DAL,1,10,DAL,7,0,2555224,SINGLEBACK,"1 RB, 2 TE, 2 WR",8,"3 DL, 4 LB, 4 DB",right,2019-09-15T18:00:39.000Z,2019-09-15T18:00:38.000Z,6-0,200,12/15/1987,Coastal Carolina,CB,WAS,DAL,2,FedExField,"Landover, MD",Outdoor,Grass,Sunny,80.0,46,7,WNW
25160,2019091509,20190915091401,home,38.73,19.35,1.3,0.46,0.13,283.16,251.11,2539978,Jon Bostic,53,2019,26,2,08:42:00,DAL,1,10,DAL,7,0,2555224,SINGLEBACK,"1 RB, 2 TE, 2 WR",8,"3 DL, 4 LB, 4 DB",right,2019-09-15T18:00:39.000Z,2019-09-15T18:00:38.000Z,6-1,245,05/05/1991,Florida,ILB,WAS,DAL,2,FedExField,"Landover, MD",Outdoor,Grass,Sunny,80.0,46,7,WNW
25161,2019091509,20190915091401,home,39.75,17.12,2.11,2.34,0.2,279.79,294.61,2552454,Landon Collins,20,2019,26,2,08:42:00,DAL,1,10,DAL,7,0,2555224,SINGLEBACK,"1 RB, 2 TE, 2 WR",8,"3 DL, 4 LB, 4 DB",right,2019-09-15T18:00:39.000Z,2019-09-15T18:00:38.000Z,6-0,218,01/10/1994,Alabama,SS,WAS,DAL,2,FedExField,"Landover, MD",Outdoor,Grass,Sunny,80.0,46,7,WNW
25162,2019091509,20190915091401,home,36.29,19.95,0.21,1.38,0.02,294.78,151.33,2555240,Matthew Ioannidis,98,2019,26,2,08:42:00,DAL,1,10,DAL,7,0,2555224,SINGLEBACK,"1 RB, 2 TE, 2 WR",8,"3 DL, 4 LB, 4 DB",right,2019-09-15T18:00:39.000Z,2019-09-15T18:00:38.000Z,6-3,310,01/11/1994,Temple,DE,WAS,DAL,2,FedExField,"Landover, MD",Outdoor,Grass,Sunny,80.0,46,7,WNW
25163,2019091509,20190915091401,home,35.1,15.24,1.65,0.33,0.17,315.62,233.71,2557853,Ryan Anderson,52,2019,26,2,08:42:00,DAL,1,10,DAL,7,0,2555224,SINGLEBACK,"1 RB, 2 TE, 2 WR",8,"3 DL, 4 LB, 4 DB",right,2019-09-15T18:00:39.000Z,2019-09-15T18:00:38.000Z,6-2,253,08/12/1994,Alabama,OLB,WAS,DAL,2,FedExField,"Landover, MD",Outdoor,Grass,Sunny,80.0,46,7,WNW
25164,2019091509,20190915091401,home,47.43,27.55,0.34,0.66,0.03,245.07,209.48,2558133,Montae Nicholson,35,2019,26,2,08:42:00,DAL,1,10,DAL,7,0,2555224,SINGLEBACK,"1 RB, 2 TE, 2 WR",8,"3 DL, 4 LB, 4 DB",right,2019-09-15T18:00:39.000Z,2019-09-15T18:00:38.000Z,6-2,212,12/04/1995,Michigan State,FS,WAS,DAL,2,FedExField,"Landover, MD",Outdoor,Grass,Sunny,80.0,46,7,WNW
25165,2019091509,20190915091401,home,36.16,23.61,1.34,2.21,0.14,251.21,197.12,2560834,Daron Payne,94,2019,26,2,08:42:00,DAL,1,10,DAL,7,0,2555224,SINGLEBACK,"1 RB, 2 TE, 2 WR",8,"3 DL, 4 LB, 4 DB",right,2019-09-15T18:00:39.000Z,2019-09-15T18:00:38.000Z,6-3,320,05/27/1997,Alabama,NT,WAS,DAL,2,FedExField,"Landover, MD",Outdoor,Grass,Sunny,80.0,46,7,WNW
25166,2019091509,20190915091401,home,35.99,21.94,1.49,3.4,0.14,273.46,300.88,2560871,Tim Settle,97,2019,26,2,08:42:00,DAL,1,10,DAL,7,0,2555224,SINGLEBACK,"1 RB, 2 TE, 2 WR",8,"3 DL, 4 LB, 4 DB",right,2019-09-15T18:00:39.000Z,2019-09-15T18:00:38.000Z,6-3,308,07/11/1997,Virginia Tech,NT,WAS,DAL,2,FedExField,"Landover, MD",Outdoor,Grass,Sunny,80.0,46,7,WNW
25167,2019091509,20190915091401,home,37.98,23.77,1.77,2.42,0.19,267.87,262.04,2561003,Shaun Dion Hamilton,51,2019,26,2,08:42:00,DAL,1,10,DAL,7,0,2555224,SINGLEBACK,"1 RB, 2 TE, 2 WR",8,"3 DL, 4 LB, 4 DB",right,2019-09-15T18:00:39.000Z,2019-09-15T18:00:38.000Z,6-0,235,09/11/1995,Alabama,LB,WAS,DAL,2,FedExField,"Landover, MD",Outdoor,Grass,Sunny,80.0,46,7,WNW
