,GameId,PlayId,Team,X,Y,S,A,Dis,Orientation,Dir,NflId,DisplayName,JerseyNumber,Season,YardLine,Quarter,GameClock,PossessionTeam,Down,Distance,FieldPosition,HomeScoreBeforePlay,VisitorScoreBeforePlay,NflIdRusher,OffenseFormation,OffensePersonnel,DefendersInTheBox,DefensePersonnel,PlayDirection,TimeHandoff,TimeSnap,PlayerHeight,PlayerWeight,PlayerBirthDate,PlayerCollegeName,Position,HomeTeamAbbr,VisitorTeamAbbr,Week,Stadium,Location,StadiumType,Turf,GameWeather,Temperature,Humidity,WindSpeed,WindDirection
30338,2019091600,20190916003843,away,74.29,33.06,3.57,0.3,0.36,292.05,354.48,2540292,JC Tretter,64,2019,36,4,04:22:00,CLV,1,10,CLV,3,23,2563327,SINGLEBACK,"1 RB, 1 TE, 3 WR",7,"3 DL, 3 LB, 5 DB",left,2019-09-17T03:04:13.000Z,2019-09-17T03:04:11.000Z,6-4,307,02/12/1991,Cornell,T,NYJ,CLE,2,MetLife Stadium,"East Rutherford, NJ",Outdoors,FieldTurf,Cloudy,72.0,69,3,N
30339,2019091600,20190916003843,away,73.22,27.72,5.28,1.98,0.52,295.19,322.84,2541187,Demetrius Harris,88,2019,36,4,04:22:00,CLV,1,10,CLV,3,23,2563327,SINGLEBACK,"1 RB, 1 TE, 3 WR",7,"3 DL, 3 LB, 5 DB",left,2019-09-17T03:04:13.000Z,2019-09-17T03:04:11.000Z,6-7,230,07/29/1991,Wisconsin-Milwaukee,TE,NYJ,CLE,2,MetLife Stadium,"East Rutherford, NJ",Outdoors,FieldTurf,Cloudy,72.0,69,3,N
30340,2019091600,20190916003843,away,75.45,34.17,3.18,1.07,0.3,242.27,13.69,2541312,Eric Kush,72,2019,36,4,04:22:00,CLV,1,10,CLV,3,23,2563327,SINGLEBACK,"1 RB, 1 TE, 3 WR",7,"3 DL, 3 LB, 5 DB",left,2019-09-17T03:04:13.000Z,2019-09-17T03:04:11.000Z,6-4,317,09/09/1989,"California, Pa.",OG,NYJ,CLE,2,MetLife Stadium,"East Rutherford, NJ",Outdoors,FieldTurf,Cloudy,72.0,69,3,N
30341,2019091600,20190916003843,away,74.65,36.75,3.36,1.35,0.35,332.99,356.94,2541716,Chris Hubbard,74,2019,36,4,04:22:00,CLV,1,10,CLV,3,23,2563327,SINGLEBACK,"1 RB, 1 TE, 3 WR",7,"3 DL, 3 LB, 5 DB",left,2019-09-17T03:04:13.000Z,2019-09-17T03:04:11.000Z,6-4,295,04/23/1991,Alabama-Birmingham,G,NYJ,CLE,2,MetLife Stadium,"East Rutherford, NJ",Outdoors,FieldTurf,Cloudy,72.0,69,3,N
30342,2019091600,20190916003843,away,74.25,30.59,4.18,0.46,0.41,344.11,350.08,2543458,Greg Robinson,78,2019,36,4,04:22:00,CLV,1,10,CLV,3,23,2563327,SINGLEBACK,"1 RB, 1 TE, 3 WR",7,"3 DL, 3 LB, 5 DB",left,2019-09-17T03:04:13.000Z,2019-09-17T03:04:11.000Z,6-5,332,10/21/1992,Auburn,OT,NYJ,CLE,2,MetLife Stadium,"East Rutherford, NJ",Outdoors,FieldTurf,Cloudy,72.0,69,3,N
30343,2019091600,20190916003843,away,74.17,21.58,3.06,2.53,0.29,305.16,321.11,2543488,Jarvis Landry,80,2019,36,4,04:22:00,CLV,1,10,CLV,3,23,2563327,SINGLEBACK,"1 RB, 1 TE, 3 WR",7,"3 DL, 3 LB, 5 DB",left,2019-09-17T03:04:13.000Z,2019-09-17T03:04:11.000Z,5-11,196,11/28/1992,Louisiana State,WR,NYJ,CLE,2,MetLife Stadium,"East Rutherford, NJ",Outdoors,FieldTurf,Cloudy,72.0,69,3,N
30344,2019091600,20190916003843,away,71.52,45.65,5.31,2.18,0.52,272.0,275.1,2543496,Odell Beckham,13,2019,36,4,04:22:00,CLV,1,10,CLV,3,23,2563327,SINGLEBACK,"1 RB, 1 TE, 3 WR",7,"3 DL, 3 LB, 5 DB",left,2019-09-17T03:04:13.000Z,2019-09-17T03:04:11.000Z,5-11,198,11/05/1992,Louisiana State,WR,NYJ,CLE,2,MetLife Stadium,"East Rutherford, NJ",Outdoors,FieldTurf,Cloudy,72.0,69,3,N
30345,2019091600,20190916003843,away,74.71,32.1,4.63,1.92,0.52,325.16,345.46,2543737,Joel Bitonio,75,2019,36,4,04:22:00,CLV,1,10,CLV,3,23,2563327,SINGLEBACK,"1 RB, 1 TE, 3 WR",7,"3 DL, 3 LB, 5 DB",left,2019-09-17T03:04:13.000Z,2019-09-17T03:04:11.000Z,6-4,320,10/11/1991,Nevada,G,NYJ,CLE,2,MetLife Stadium,"East Rutherford, NJ",Outdoors,FieldTurf,Cloudy,72.0,69,3,N
30346,2019091600,20190916003843,away,78.8,31.79,5.07,2.02,0.51,35.29,67.62,2560800,Baker Mayfield,6,2019,36,4,04:22:00,CLV,1,10,CLV,3,23,2563327,SINGLEBACK,"1 RB, 1 TE, 3 WR",7,"3 DL, 3 LB, 5 DB",left,2019-09-17T03:04:13.000Z,2019-09-17T03:04:11.000Z,6-1,215,04/14/1995,Oklahoma,QB,NYJ,CLE,2,MetLife Stadium,"East Rutherford, NJ",Outdoors,FieldTurf,Cloudy,72.0,69,3,N
30347,2019091600,20190916003843,away,72.85,10.22,4.73,1.9,0.46,262.12,241.99,2561054,Damion Ratley,18,2019,36,4,04:22:00,CLV,1,10,CLV,3,23,2563327,SINGLEBACK,"1 RB, 1 TE, 3 WR",7,"3 DL, 3 LB, 5 DB",left,2019-09-17T03:04:13.000Z,2019-09-17T03:04:11.000Z,6-2,200,04/16/1995,Texas A&M,WR,NYJ,CLE,2,MetLife Stadium,"East Rutherford, NJ",Outdoors,FieldTurf,Cloudy,72.0,69,3,N
30348,2019091600,20190916003843,away,79.28,32.77,5.71,1.95,0.56,302.26,330.82,2563327,D'Ernest Johnson,30,2019,36,4,04:22:00,CLV,1,10,CLV,3,23,2563327,SINGLEBACK,"1 RB, 1 TE, 3 WR",7,"3 DL, 3 LB, 5 DB",left,2019-09-17T03:04:13.000Z,2019-09-17T03:04:11.000Z,5-10,208,02/27/1996,South Florida,RB,NYJ,CLE,2,MetLife Stadium,"East Rutherford, NJ",Outdoors,FieldTurf,Cloudy,72.0,69,3,N
30349,2019091600,20190916003843,home,73.58,32.83,3.84,1.09,0.38,80.95,357.15,2507590,Steve McLendon,99,2019,36,4,04:22:00,CLV,1,10,CLV,3,23,2563327,SINGLEBACK,"1 RB, 1 TE, 3 WR",7,"3 DL, 3 LB, 5 DB",left,2019-09-17T03:04:13.000Z,2019-09-17T03:04:11.000Z,6-3,310,01/03/1986,Troy,NT,NYJ,CLE,2,MetLife Stadium,"East Rutherford, NJ",Outdoors,FieldTurf,Cloudy,72.0,69,3,N
30350,2019091600,20190916003843,home,71.02,27.35,4.41,2.65,0.43,67.24,1.79,2540287,Rontez Miles,45,2019,36,4,04:22:00,CLV,1,10,CLV,3,23,2563327,SINGLEBACK,"1 RB, 1 TE, 3 WR",7,"3 DL, 3 LB, 5 DB",left,2019-09-17T03:04:13.000Z,2019-09-17T03:04:11.000Z,6-0,203,11/25/1988,"California, Pa.",FS,NYJ,CLE,2,MetLife Stadium,"East Rutherford, NJ",Outdoors,FieldTurf,Cloudy,72.0,69,3,N
30351,2019091600,20190916003843,home,74.74,33.81,3.22,2.48,0.33,96.61,10.85,2552272,Henry Anderson,96,2019,36,4,04:22:00,CLV,1,10,CLV,3,23,2563327,SINGLEBACK,"1 RB, 1 TE, 3 WR",7,"3 DL, 3 LB, 5 DB",left,2019-09-17T03:04:13.000Z,2019-09-17T03:04:11.000Z,6-6,301,08/03/1991,Stanford,DE,NYJ,CLE,2,MetLife Stadium,"East Rutherford, NJ",Outdoors,FieldTurf,Cloudy,72.0,69,3,N
30352,2019091600,20190916003843,home,70.42,11.6,3.69,2.29,0.36,152.1,242.26,2553353,Darryl Roberts,27,2019,36,4,04:22:00,CLV,1,10,CLV,3,23,2563327,SINGLEBACK,"1 RB, 1 TE, 3 WR",7,"3 DL, 3 LB, 5 DB",left,2019-09-17T03:04:13.000Z,2019-09-17T03:04:11.000Z,6-0,182,11/26/1990,Marshall,CB,NYJ,CLE,2,MetLife Stadium,"East Rutherford, NJ",Outdoors,FieldTurf,Cloudy,72.0,69,3,N
30353,2019091600,20190916003843,home,71.49,32.56,5.41,1.05,0.54,52.66,15.82,2553657,Neville Hewitt,46,2019,36,4,04:22:00,CLV,1,10,CLV,3,23,2563327,SINGLEBACK,"1 RB, 1 TE, 3 WR",7,"3 DL, 3 LB, 5 DB",left,2019-09-17T03:04:13.000Z,2019-09-17T03:04:11.000Z,6-2,234,04/06/1993,Marshall,OLB,NYJ,CLE,2,MetLife Stadium,"East Rutherford, NJ",Outdoors,FieldTurf,Cloudy,72.0,69,3,N
30354,2019091600,20190916003843,home,67.03,21.09,2.12,1.59,0.21,91.22,324.02,2556445,Brian Poole,34,2019,36,4,04:22:00,CLV,1,10,CLV,3,23,2563327,SINGLEBACK,"1 RB, 1 TE, 3 WR",7,"3 DL, 3 LB, 5 DB",left,2019-09-17T03:04:13.000Z,2019-09-17T03:04:11.000Z,5-10,211,10/20/1992,Florida,CB,NYJ,CLE,2,MetLife Stadium,"East Rutherford, NJ",Outdoors,FieldTurf,Cloudy,72.0,69,3,N
30355,2019091600,20190916003843,home,57.58,32.14,2.74,2.15,0.26,75.47,330.28,2557995,Marcus Maye,20,2019,36,4,04:22:00,CLV,1,10,CLV,3,23,2563327,SINGLEBACK,"1 RB, 1 TE, 3 WR",7,"3 DL, 3 LB, 5 DB",left,2019-09-17T03:04:13.000Z,2019-09-17T03:04:11.000Z,6-0,207,03/09/1993,Florida,FS,NYJ,CLE,2,MetLife Stadium,"East Rutherford, NJ",Outdoors,FieldTurf,Cloudy,72.0,69,3,N
30356,2019091600,20190916003843,home,66.95,45.93,4.45,1.43,0.44,159.24,277.76,2558108,Nate Hairston,21,2019,36,4,04:22:00,CLV,1,10,CLV,3,23,2563327,SINGLEBACK,"1 RB, 1 TE, 3 WR",7,"3 DL, 3 LB, 5 DB",left,2019-09-17T03:04:13.000Z,2019-09-17T03:04:11.000Z,6-0,185,06/30/1994,Temple,CB,NYJ,CLE,2,MetLife Stadium,"East Rutherford, NJ",Outdoors,FieldTurf,Cloudy,72.0,69,3,N
30357,2019091600,20190916003843,home,74.01,25.72,5.02,3.36,0.48,21.0,10.42,2558165,Tarell Basham,93,2019,36,4,04:22:00,CLV,1,10,CLV,3,23,2563327,SINGLEBACK,"1 RB, 1 TE, 3 WR",7,"3 DL, 3 LB, 5 DB",left,2019-09-17T03:04:13.000Z,2019-09-17T03:04:11.000Z,6-4,266,03/18/1994,Ohio,LB,NYJ,CLE,2,MetLife Stadium,"East Rutherford, NJ",Outdoors,FieldTurf,Cloudy,72.0,69,3,N
30358,2019091600,20190916003843,home,73.59,30.98,4.47,0.63,0.44,77.43,354.0,2560722,Foley Fatukasi,94,2019,36,4,04:22:00,CLV,1,10,CLV,3,23,2563327,SINGLEBACK,"1 RB, 1 TE, 3 WR",7,"3 DL, 3 LB, 5 DB",left,2019-09-17T03:04:13.000Z,2019-09-17T03:04:11.000Z,6-4,318,03/04/1995,Connecticut,DT,NYJ,CLE,2,MetLife Stadium,"East Rutherford, NJ",Outdoors,FieldTurf,Cloudy,72.0,69,3,N
30359,2019091600,20190916003843,home,74.42,37.46,3.88,1.47,0.38,145.54,19.55,2562496,Blake Cashman,53,2019,36,4,04:22:00,CLV,1,10,CLV,3,23,2563327,SINGLEBACK,"1 RB, 1 TE, 3 WR",7,"3 DL, 3 LB, 5 DB",left,2019-09-17T03:04:13.000Z,2019-09-17T03:04:11.000Z,6-1,235,05/10/1996,Minnesota,LB,NYJ,CLE,2,MetLife Stadium,"East Rutherford, NJ",Outdoors,FieldTurf,Cloudy,72.0,69,3,N
