,GameId,PlayId,Team,X,Y,S,A,Dis,Orientation,Dir,NflId,DisplayName,JerseyNumber,Season,YardLine,Quarter,GameClock,PossessionTeam,Down,Distance,FieldPosition,HomeScoreBeforePlay,VisitorScoreBeforePlay,NflIdRusher,OffenseFormation,OffensePersonnel,DefendersInTheBox,DefensePersonnel,PlayDirection,TimeHandoff,TimeSnap,PlayerHeight,PlayerWeight,PlayerBirthDate,PlayerCollegeName,Position,HomeTeamAbbr,VisitorTeamAbbr,Week,Stadium,Location,StadiumType,Turf,GameWeather,Temperature,Humidity,WindSpeed,WindDirection
45144,2019092300,20190923001241,away,76.51,27.49,1.38,0.36,0.14,283.59,305.98,2539933,Kyle Long,75,2019,33,2,13:23:00,CHI,1,10,CHI,0,7,2562502,SHOTGUN,"1 RB, 2 TE, 2 WR",7,"3 DL, 4 LB, 4 DB",left,2019-09-24T01:02:34.000Z,2019-09-24T01:02:33.000Z,6-6,332,12/05/1988,Oregon,OG,WAS,CHI,3,FedexField,"Landover, MD",Outdoor,Grass,Cloudy,87.0,39,5,SW
45145,2019092300,20190923001241,away,78.79,26.66,4.86,1.88,0.48,26.09,207.13,2543509,Allen Robinson,12,2019,33,2,13:23:00,CHI,1,10,CHI,0,7,2562502,SHOTGUN,"1 RB, 2 TE, 2 WR",7,"3 DL, 4 LB, 4 DB",left,2019-09-24T01:02:34.000Z,2019-09-24T01:02:33.000Z,6-2,220,08/24/1993,Penn State,WR,WAS,CHI,3,FedexField,"Landover, MD",Outdoor,Grass,Cloudy,87.0,39,5,SW
45146,2019092300,20190923001241,away,76.87,24.28,3.59,2.08,0.36,99.37,343.58,2550169,Charles Leno Jr.,72,2019,33,2,13:23:00,CHI,1,10,CHI,0,7,2562502,SHOTGUN,"1 RB, 2 TE, 2 WR",7,"3 DL, 4 LB, 4 DB",left,2019-09-24T01:02:34.000Z,2019-09-24T01:02:33.000Z,6-3,305,10/09/1991,Boise State,T,WAS,CHI,3,FedexField,"Landover, MD",Outdoor,Grass,Cloudy,87.0,39,5,SW
45147,2019092300,20190923001241,away,78.07,29.8,0.73,0.5,0.08,334.46,344.6,2550221,Cornelius Lucas,73,2019,33,2,13:23:00,CHI,1,10,CHI,0,7,2562502,SHOTGUN,"1 RB, 2 TE, 2 WR",7,"3 DL, 4 LB, 4 DB",left,2019-09-24T01:02:34.000Z,2019-09-24T01:02:33.000Z,6-8,328,07/18/1991,Kansas State,T,WAS,CHI,3,FedexField,"Landover, MD",Outdoor,Grass,Cloudy,87.0,39,5,SW
45148,2019092300,20190923001241,away,76.54,42.83,3.62,2.96,0.35,245.26,247.02,2550617,Taylor Gabriel,18,2019,33,2,13:23:00,CHI,1,10,CHI,0,7,2562502,SHOTGUN,"1 RB, 2 TE, 2 WR",7,"3 DL, 4 LB, 4 DB",left,2019-09-24T01:02:34.000Z,2019-09-24T01:02:33.000Z,5-7,167,02/17/1991,Abilene Christian,WR,WAS,CHI,3,FedexField,"Landover, MD",Outdoor,Grass,Cloudy,87.0,39,5,SW
45149,2019092300,20190923001241,away,76.72,25.51,1.96,2.15,0.2,295.11,334.65,2555132,Cody Whitehair,65,2019,33,2,13:23:00,CHI,1,10,CHI,0,7,2562502,SHOTGUN,"1 RB, 2 TE, 2 WR",7,"3 DL, 4 LB, 4 DB",left,2019-09-24T01:02:34.000Z,2019-09-24T01:02:33.000Z,6-3,309,07/11/1992,Kansas State,OG,WAS,CHI,3,FedexField,"Landover, MD",Outdoor,Grass,Cloudy,87.0,39,5,SW
45150,2019092300,20190923001241,away,77.83,21.7,4.49,2.88,0.44,354.3,1.46,2556852,J.P. Holtz,81,2019,33,2,13:23:00,CHI,1,10,CHI,0,7,2562502,SHOTGUN,"1 RB, 2 TE, 2 WR",7,"3 DL, 4 LB, 4 DB",left,2019-09-24T01:02:34.000Z,2019-09-24T01:02:33.000Z,6-3,240,08/28/1993,Pittsburgh,TE,WAS,CHI,3,FedexField,"Landover, MD",Outdoor,Grass,Cloudy,87.0,39,5,SW
45151,2019092300,20190923001241,away,81.86,24.94,1.32,2.84,0.14,250.39,194.24,2558008,Mitchell Trubisky,10,2019,33,2,13:23:00,CHI,1,10,CHI,0,7,2562502,SHOTGUN,"1 RB, 2 TE, 2 WR",7,"3 DL, 4 LB, 4 DB",left,2019-09-24T01:02:34.000Z,2019-09-24T01:02:33.000Z,6-2,215,08/20/1994,North Carolina,QB,WAS,CHI,3,FedexField,"Landover, MD",Outdoor,Grass,Cloudy,87.0,39,5,SW
45152,2019092300,20190923001241,away,76.82,23.01,3.18,3.02,0.34,351.17,334.43,2558144,Adam Shaheen,87,2019,33,2,13:23:00,CHI,1,10,CHI,0,7,2562502,SHOTGUN,"1 RB, 2 TE, 2 WR",7,"3 DL, 4 LB, 4 DB",left,2019-09-24T01:02:34.000Z,2019-09-24T01:02:33.000Z,6-6,257,10/24/1994,Ashland,TE,WAS,CHI,3,FedexField,"Landover, MD",Outdoor,Grass,Cloudy,87.0,39,5,SW
45153,2019092300,20190923001241,away,76.49,26.1,1.84,0.4,0.19,265.36,311.19,2561035,James Daniels,68,2019,33,2,13:23:00,CHI,1,10,CHI,0,7,2562502,SHOTGUN,"1 RB, 2 TE, 2 WR",7,"3 DL, 4 LB, 4 DB",left,2019-09-24T01:02:34.000Z,2019-09-24T01:02:33.000Z,6-3,305,09/13/1997,Iowa,C,WAS,CHI,3,FedexField,"Landover, MD",Outdoor,Grass,Cloudy,87.0,39,5,SW
45154,2019092300,20190923001241,away,81.29,24.43,4.09,2.75,0.4,278.84,310.01,2562502,David Montgomery,32,2019,33,2,13:23:00,CHI,1,10,CHI,0,7,2562502,SHOTGUN,"1 RB, 2 TE, 2 WR",7,"3 DL, 4 LB, 4 DB",left,2019-09-24T01:02:34.000Z,2019-09-24T01:02:33.000Z,5-10,222,06/07/1997,Iowa State,RB,WAS,CHI,3,FedexField,"Landover, MD",Outdoor,Grass,Cloudy,87.0,39,5,SW
45155,2019092300,20190923001241,home,77.82,30.66,0.88,3.02,0.1,133.73,70.21,2495190,Ryan Kerrigan,91,2019,33,2,13:23:00,CHI,1,10,CHI,0,7,2562502,SHOTGUN,"1 RB, 2 TE, 2 WR",7,"3 DL, 4 LB, 4 DB",left,2019-09-24T01:02:34.000Z,2019-09-24T01:02:33.000Z,6-4,265,08/16/1988,Purdue,OLB,WAS,CHI,3,FedexField,"Landover, MD",Outdoor,Grass,Cloudy,87.0,39,5,SW
45156,2019092300,20190923001241,home,74.72,43.33,3.58,2.87,0.36,99.18,256.85,2532920,Josh Norman,24,2019,33,2,13:23:00,CHI,1,10,CHI,0,7,2562502,SHOTGUN,"1 RB, 2 TE, 2 WR",7,"3 DL, 4 LB, 4 DB",left,2019-09-24T01:02:34.000Z,2019-09-24T01:02:33.000Z,6-0,200,12/15/1987,Coastal Carolina,CB,WAS,CHI,3,FedexField,"Landover, MD",Outdoor,Grass,Cloudy,87.0,39,5,SW
45157,2019092300,20190923001241,home,74.54,22.27,2.88,1.98,0.28,75.87,67.96,2539978,Jon Bostic,53,2019,33,2,13:23:00,CHI,1,10,CHI,0,7,2562502,SHOTGUN,"1 RB, 2 TE, 2 WR",7,"3 DL, 4 LB, 4 DB",left,2019-09-24T01:02:34.000Z,2019-09-24T01:02:33.000Z,6-1,245,05/05/1991,Florida,ILB,WAS,CHI,3,FedexField,"Landover, MD",Outdoor,Grass,Cloudy,87.0,39,5,SW
45158,2019092300,20190923001241,home,71.1,17.89,1.7,3.34,0.15,66.89,93.41,2552454,Landon Collins,20,2019,33,2,13:23:00,CHI,1,10,CHI,0,7,2562502,SHOTGUN,"1 RB, 2 TE, 2 WR",7,"3 DL, 4 LB, 4 DB",left,2019-09-24T01:02:34.000Z,2019-09-24T01:02:33.000Z,6-0,218,01/10/1994,Alabama,SS,WAS,CHI,3,FedexField,"Landover, MD",Outdoor,Grass,Cloudy,87.0,39,5,SW
45159,2019092300,20190923001241,home,75.88,27.74,1.13,0.65,0.12,103.6,316.4,2555240,Matthew Ioannidis,98,2019,33,2,13:23:00,CHI,1,10,CHI,0,7,2562502,SHOTGUN,"1 RB, 2 TE, 2 WR",7,"3 DL, 4 LB, 4 DB",left,2019-09-24T01:02:34.000Z,2019-09-24T01:02:33.000Z,6-3,310,01/11/1994,Temple,DE,WAS,CHI,3,FedexField,"Landover, MD",Outdoor,Grass,Cloudy,87.0,39,5,SW
45160,2019092300,20190923001241,home,76.18,24.04,2.68,0.28,0.27,76.98,350.58,2557844,Jonathan Allen,93,2019,33,2,13:23:00,CHI,1,10,CHI,0,7,2562502,SHOTGUN,"1 RB, 2 TE, 2 WR",7,"3 DL, 4 LB, 4 DB",left,2019-09-24T01:02:34.000Z,2019-09-24T01:02:33.000Z,6-3,300,01/16/1995,Alabama,DE,WAS,CHI,3,FedexField,"Landover, MD",Outdoor,Grass,Cloudy,87.0,39,5,SW
45161,2019092300,20190923001241,home,77.42,22.27,4.8,0.72,0.48,55.29,18.3,2557853,Ryan Anderson,52,2019,33,2,13:23:00,CHI,1,10,CHI,0,7,2562502,SHOTGUN,"1 RB, 2 TE, 2 WR",7,"3 DL, 4 LB, 4 DB",left,2019-09-24T01:02:34.000Z,2019-09-24T01:02:33.000Z,6-2,253,08/12/1994,Alabama,OLB,WAS,CHI,3,FedexField,"Landover, MD",Outdoor,Grass,Cloudy,87.0,39,5,SW
45162,2019092300,20190923001241,home,56.29,27.47,1.38,0.98,0.13,90.0,250.73,2558133,Montae Nicholson,35,2019,33,2,13:23:00,CHI,1,10,CHI,0,7,2562502,SHOTGUN,"1 RB, 2 TE, 2 WR",7,"3 DL, 4 LB, 4 DB",left,2019-09-24T01:02:34.000Z,2019-09-24T01:02:33.000Z,6-2,212,12/04/1995,Michigan State,FS,WAS,CHI,3,FedexField,"Landover, MD",Outdoor,Grass,Cloudy,87.0,39,5,SW
45163,2019092300,20190923001241,home,74.82,30.43,1.84,3.01,0.17,122.13,111.88,2558136,Fabian Moreau,31,2019,33,2,13:23:00,CHI,1,10,CHI,0,7,2562502,SHOTGUN,"1 RB, 2 TE, 2 WR",7,"3 DL, 4 LB, 4 DB",left,2019-09-24T01:02:34.000Z,2019-09-24T01:02:33.000Z,6-0,204,04/09/1994,UCLA,CB,WAS,CHI,3,FedexField,"Landover, MD",Outdoor,Grass,Cloudy,87.0,39,5,SW
45164,2019092300,20190923001241,home,76.18,25.77,1.0,0.68,0.1,21.54,314.61,2560834,Daron Payne,94,2019,33,2,13:23:00,CHI,1,10,CHI,0,7,2562502,SHOTGUN,"1 RB, 2 TE, 2 WR",7,"3 DL, 4 LB, 4 DB",left,2019-09-24T01:02:34.000Z,2019-09-24T01:02:33.000Z,6-3,320,05/27/1997,Alabama,NT,WAS,CHI,3,FedexField,"Landover, MD",Outdoor,Grass,Cloudy,87.0,39,5,SW
45165,2019092300,20190923001241,home,74.15,26.0,1.03,1.26,0.11,97.75,53.85,2562872,Cole Holcomb,55,2019,33,2,13:23:00,CHI,1,10,CHI,0,7,2562502,SHOTGUN,"1 RB, 2 TE, 2 WR",7,"3 DL, 4 LB, 4 DB",left,2019-09-24T01:02:34.000Z,2019-09-24T01:02:33.000Z,6-1,240,07/30/1996,North Carolina,LB,WAS,CHI,3,FedexField,"Landover, MD",Outdoor,Grass,Cloudy,87.0,39,5,SW
