,GameId,PlayId,Team,X,Y,S,A,Dis,Orientation,Dir,NflId,DisplayName,JerseyNumber,Season,YardLine,Quarter,GameClock,PossessionTeam,Down,Distance,FieldPosition,HomeScoreBeforePlay,VisitorScoreBeforePlay,NflIdRusher,OffenseFormation,OffensePersonnel,DefendersInTheBox,DefensePersonnel,PlayDirection,TimeHandoff,TimeSnap,PlayerHeight,PlayerWeight,PlayerBirthDate,PlayerCollegeName,Position,HomeTeamAbbr,VisitorTeamAbbr,Week,Stadium,Location,StadiumType,Turf,GameWeather,Temperature,Humidity,WindSpeed,WindDirection
67716,2019100605,20191006053780,away,90.53,32.96,3.82,3.95,0.36,187.06,135.0,2495108,Prince Amukamara,20,2019,22,4,02:49:00,OAK,1,10,CHI,17,21,2562377,SINGLEBACK,"1 RB, 1 TE, 3 WR",7,"2 DL, 4 LB, 5 DB",right,2019-10-06T19:55:56.000Z,2019-10-06T19:55:54.000Z,6-0,204,06/06/1989,Nebraska,CB,OAK,CHI,5,Tottenham Hotspur Stadium,"London, England",Outdoors,Turf,Cloudy,59.0,60,15,WNW
67717,2019100605,20191006053780,away,91.8,12.37,3.4,2.02,0.33,275.4,108.09,2495343,Buster Skrine,24,2019,22,4,02:49:00,OAK,1,10,CHI,17,21,2562377,SINGLEBACK,"1 RB, 1 TE, 3 WR",7,"2 DL, 4 LB, 5 DB",right,2019-10-06T19:55:56.000Z,2019-10-06T19:55:54.000Z,5-9,185,04/26/1989,Chattanooga,CB,OAK,CHI,5,Tottenham Hotspur Stadium,"London, England",Outdoors,Turf,Cloudy,59.0,60,15,WNW
67718,2019100605,20191006053780,away,89.91,21.31,4.82,0.81,0.48,269.12,202.25,2532961,Danny Trevathan,59,2019,22,4,02:49:00,OAK,1,10,CHI,17,21,2562377,SINGLEBACK,"1 RB, 1 TE, 3 WR",7,"2 DL, 4 LB, 5 DB",right,2019-10-06T19:55:56.000Z,2019-10-06T19:55:54.000Z,6-0,239,03/24/1990,Kentucky,ILB,OAK,CHI,5,Tottenham Hotspur Stadium,"London, England",Outdoors,Turf,Cloudy,59.0,60,15,WNW
67719,2019100605,20191006053780,away,89.24,22.08,4.39,0.55,0.44,212.65,164.74,2541479,Nick Williams,97,2019,22,4,02:49:00,OAK,1,10,CHI,17,21,2562377,SINGLEBACK,"1 RB, 1 TE, 3 WR",7,"2 DL, 4 LB, 5 DB",right,2019-10-06T19:55:56.000Z,2019-10-06T19:55:54.000Z,6-4,309,02/21/1990,Samford,DT,OAK,CHI,5,Tottenham Hotspur Stadium,"London, England",Outdoors,Turf,Cloudy,59.0,60,15,WNW
67720,2019100605,20191006053780,away,88.15,25.02,4.67,2.77,0.46,215.95,165.93,2543463,Khalil Mack,52,2019,22,4,02:49:00,OAK,1,10,CHI,17,21,2562377,SINGLEBACK,"1 RB, 1 TE, 3 WR",7,"2 DL, 4 LB, 5 DB",right,2019-10-06T19:55:56.000Z,2019-10-06T19:55:54.000Z,6-3,269,02/22/1991,Buffalo,OLB,OAK,CHI,5,Tottenham Hotspur Stadium,"London, England",Outdoors,Turf,Cloudy,59.0,60,15,WNW
67721,2019100605,20191006053780,away,104.47,21.65,2.56,4.32,0.23,251.8,188.75,2543470,Ha Ha Clinton-Dix,21,2019,22,4,02:49:00,OAK,1,10,CHI,17,21,2562377,SINGLEBACK,"1 RB, 1 TE, 3 WR",7,"2 DL, 4 LB, 5 DB",right,2019-10-06T19:55:56.000Z,2019-10-06T19:55:54.000Z,6-1,211,12/21/1992,Alabama,FS,OAK,CHI,5,Tottenham Hotspur Stadium,"London, England",Outdoors,Turf,Cloudy,59.0,60,15,WNW
67722,2019100605,20191006053780,away,95.69,10.71,2.67,3.36,0.27,217.14,89.59,2543681,Kyle Fuller,23,2019,22,4,02:49:00,OAK,1,10,CHI,17,21,2562377,SINGLEBACK,"1 RB, 1 TE, 3 WR",7,"2 DL, 4 LB, 5 DB",right,2019-10-06T19:55:56.000Z,2019-10-06T19:55:54.000Z,5-11,194,02/16/1992,Virginia Tech,CB,OAK,CHI,5,Tottenham Hotspur Stadium,"London, England",Outdoors,Turf,Cloudy,59.0,60,15,WNW
67723,2019100605,20191006053780,away,87.57,16.92,2.19,3.1,0.22,279.95,181.26,2555285,Leonard Floyd,94,2019,22,4,02:49:00,OAK,1,10,CHI,17,21,2562377,SINGLEBACK,"1 RB, 1 TE, 3 WR",7,"2 DL, 4 LB, 5 DB",right,2019-10-06T19:55:56.000Z,2019-10-06T19:55:54.000Z,6-5,240,09/08/1992,Georgia,OLB,OAK,CHI,5,Tottenham Hotspur Stadium,"London, England",Outdoors,Turf,Cloudy,59.0,60,15,WNW
67724,2019100605,20191006053780,away,89.19,19.6,3.07,0.75,0.33,252.07,162.32,2556665,Roy Robertson-Harris,95,2019,22,4,02:49:00,OAK,1,10,CHI,17,21,2562377,SINGLEBACK,"1 RB, 1 TE, 3 WR",7,"2 DL, 4 LB, 5 DB",right,2019-10-06T19:55:56.000Z,2019-10-06T19:55:54.000Z,6-5,294,07/23/1993,Texas-El Paso,DE,OAK,CHI,5,Tottenham Hotspur Stadium,"London, England",Outdoors,Turf,Cloudy,59.0,60,15,WNW
67725,2019100605,20191006053780,away,90.0,25.89,4.83,2.58,0.48,222.89,191.97,2558176,Eddie Jackson,39,2019,22,4,02:49:00,OAK,1,10,CHI,17,21,2562377,SINGLEBACK,"1 RB, 1 TE, 3 WR",7,"2 DL, 4 LB, 5 DB",right,2019-10-06T19:55:56.000Z,2019-10-06T19:55:54.000Z,6-0,202,12/10/1993,Alabama,FS,OAK,CHI,5,Tottenham Hotspur Stadium,"London, England",Outdoors,Turf,Cloudy,59.0,60,15,WNW
67726,2019100605,20191006053780,away,91.05,18.85,4.36,1.59,0.43,275.63,193.96,2560877,Roquan Smith,58,2019,22,4,02:49:00,OAK,1,10,CHI,17,21,2562377,SINGLEBACK,"1 RB, 1 TE, 3 WR",7,"2 DL, 4 LB, 5 DB",right,2019-10-06T19:55:56.000Z,2019-10-06T19:55:54.000Z,6-0,230,04/08/1997,Georgia,LB,OAK,CHI,5,Tottenham Hotspur Stadium,"London, England",Outdoors,Turf,Cloudy,59.0,60,15,WNW
67727,2019100605,20191006053780,home,88.49,19.86,3.85,1.04,0.4,150.4,160.93,2495171,Rodney Hudson,61,2019,22,4,02:49:00,OAK,1,10,CHI,17,21,2562377,SINGLEBACK,"1 RB, 1 TE, 3 WR",7,"2 DL, 4 LB, 5 DB",right,2019-10-06T19:55:56.000Z,2019-10-06T19:55:54.000Z,6-2,315,07/12/1989,Florida State,C,OAK,CHI,5,Tottenham Hotspur Stadium,"London, England",Outdoors,Turf,Cloudy,59.0,60,15,WNW
67728,2019100605,20191006053780,home,88.42,21.82,3.85,1.04,0.4,137.86,168.93,2506420,Richie Incognito,64,2019,22,4,02:49:00,OAK,1,10,CHI,17,21,2562377,SINGLEBACK,"1 RB, 1 TE, 3 WR",7,"2 DL, 4 LB, 5 DB",right,2019-10-06T19:55:56.000Z,2019-10-06T19:55:54.000Z,6-3,325,07/05/1983,Nebraska,G,OAK,CHI,5,Tottenham Hotspur Stadium,"London, England",Outdoors,Turf,Cloudy,59.0,60,15,WNW
67729,2019100605,20191006053780,home,83.09,22.04,4.74,1.32,0.47,248.58,249.08,2543499,Derek Carr,4,2019,22,4,02:49:00,OAK,1,10,CHI,17,21,2562377,SINGLEBACK,"1 RB, 1 TE, 3 WR",7,"2 DL, 4 LB, 5 DB",right,2019-10-06T19:55:56.000Z,2019-10-06T19:55:54.000Z,6-3,210,03/28/1991,Fresno State,QB,OAK,CHI,5,Tottenham Hotspur Stadium,"London, England",Outdoors,Turf,Cloudy,59.0,60,15,WNW
67730,2019100605,20191006053780,home,86.89,17.56,3.08,1.47,0.32,130.65,179.58,2552350,Trent Brown,77,2019,22,4,02:49:00,OAK,1,10,CHI,17,21,2562377,SINGLEBACK,"1 RB, 1 TE, 3 WR",7,"2 DL, 4 LB, 5 DB",right,2019-10-06T19:55:56.000Z,2019-10-06T19:55:54.000Z,6-8,380,04/13/1993,Florida,T,OAK,CHI,5,Tottenham Hotspur Stadium,"London, England",Outdoors,Turf,Cloudy,59.0,60,15,WNW
67731,2019100605,20191006053780,home,88.38,19.09,3.91,1.31,0.38,113.1,159.91,2553460,Denzelle Good,71,2019,22,4,02:49:00,OAK,1,10,CHI,17,21,2562377,SINGLEBACK,"1 RB, 1 TE, 3 WR",7,"2 DL, 4 LB, 5 DB",right,2019-10-06T19:55:56.000Z,2019-10-06T19:55:54.000Z,6-5,340,03/08/1991,Mars Hill,OT,OAK,CHI,5,Tottenham Hotspur Stadium,"London, England",Outdoors,Turf,Cloudy,59.0,60,15,WNW
67732,2019100605,20191006053780,home,89.06,31.47,3.99,2.7,0.39,114.99,134.71,2555413,Trevor Davis,11,2019,22,4,02:49:00,OAK,1,10,CHI,17,21,2562377,SINGLEBACK,"1 RB, 1 TE, 3 WR",7,"2 DL, 4 LB, 5 DB",right,2019-10-06T19:55:56.000Z,2019-10-06T19:55:54.000Z,6-1,188,07/04/1993,California,WR,OAK,CHI,5,Tottenham Hotspur Stadium,"London, England",Outdoors,Turf,Cloudy,59.0,60,15,WNW
67733,2019100605,20191006053780,home,88.78,22.54,4.63,0.91,0.48,155.64,163.94,2560811,Kolton Miller,74,2019,22,4,02:49:00,OAK,1,10,CHI,17,21,2562377,SINGLEBACK,"1 RB, 1 TE, 3 WR",7,"2 DL, 4 LB, 5 DB",right,2019-10-06T19:55:56.000Z,2019-10-06T19:55:54.000Z,6-8,325,10/09/1995,UCLA,T,OAK,CHI,5,Tottenham Hotspur Stadium,"London, England",Outdoors,Turf,Cloudy,59.0,60,15,WNW
67734,2019100605,20191006053780,home,90.91,9.05,6.08,2.9,0.6,84.57,89.36,2560961,Marcell Ateman,88,2019,22,4,02:49:00,OAK,1,10,CHI,17,21,2562377,SINGLEBACK,"1 RB, 1 TE, 3 WR",7,"2 DL, 4 LB, 5 DB",right,2019-10-06T19:55:56.000Z,2019-10-06T19:55:54.000Z,6-4,215,09/16/1994,Oklahoma State,WR,OAK,CHI,5,Tottenham Hotspur Stadium,"London, England",Outdoors,Turf,Cloudy,59.0,60,15,WNW
67735,2019100605,20191006053780,home,87.39,25.0,4.7,0.11,0.48,120.46,166.53,2562317,Foster Moreau,87,2019,22,4,02:49:00,OAK,1,10,CHI,17,21,2562377,SINGLEBACK,"1 RB, 1 TE, 3 WR",7,"2 DL, 4 LB, 5 DB",right,2019-10-06T19:55:56.000Z,2019-10-06T19:55:54.000Z,6-4,250,05/06/1997,Louisiana State,TE,OAK,CHI,5,Tottenham Hotspur Stadium,"London, England",Outdoors,Turf,Cloudy,59.0,60,15,WNW
67736,2019100605,20191006053780,home,84.0,20.89,5.81,1.9,0.57,112.27,136.56,2562377,Josh Jacobs,28,2019,22,4,02:49:00,OAK,1,10,CHI,17,21,2562377,SINGLEBACK,"1 RB, 1 TE, 3 WR",7,"2 DL, 4 LB, 5 DB",right,2019-10-06T19:55:56.000Z,2019-10-06T19:55:54.000Z,5-10,220,02/11/1998,Alabama,RB,OAK,CHI,5,Tottenham Hotspur Stadium,"London, England",Outdoors,Turf,Cloudy,59.0,60,15,WNW
67737,2019100605,20191006053780,home,89.49,12.61,4.87,1.38,0.48,85.19,103.86,2562712,Hunter Renfrow,13,2019,22,4,02:49:00,OAK,1,10,CHI,17,21,2562377,SINGLEBACK,"1 RB, 1 TE, 3 WR",7,"2 DL, 4 LB, 5 DB",right,2019-10-06T19:55:56.000Z,2019-10-06T19:55:54.000Z,5-10,185,12/21/1995,Clemson,WR,OAK,CHI,5,Tottenham Hotspur Stadium,"London, England",Outdoors,Turf,Cloudy,59.0,60,15,WNW
