,GameId,PlayId,Team,X,Y,S,A,Dis,Orientation,Dir,NflId,DisplayName,JerseyNumber,Season,YardLine,Quarter,GameClock,PossessionTeam,Down,Distance,FieldPosition,HomeScoreBeforePlay,VisitorScoreBeforePlay,NflIdRusher,OffenseFormation,OffensePersonnel,DefendersInTheBox,DefensePersonnel,PlayDirection,TimeHandoff,TimeSnap,PlayerHeight,PlayerWeight,PlayerBirthDate,PlayerCollegeName,Position,HomeTeamAbbr,VisitorTeamAbbr,Week,Stadium,Location,StadiumType,Turf,GameWeather,Temperature,Humidity,WindSpeed,WindDirection
32538,2019092201,20190922011394,away,87.88,26.15,2.35,1.81,0.21,53.66,316.49,2535693,Johnson Bademosi,24,2019,20,2,11:58:00,DAL,2,10,DAL,10,3,2555224,SHOTGUN,"1 RB, 1 TE, 3 WR",5,"3 DL, 2 LB, 6 DB",left,2019-09-22T17:57:51.000Z,2019-09-22T17:57:49.000Z,6-0,219,07/23/1990,Stanford,CB,DAL,MIA,3,AT&T Stadium,"Arlington, Texas",indoor,Artificial,,,0,,
32539,2019092201,20190922011394,away,76.45,31.29,0.97,6.6,0.1,104.82,133.11,2552434,Bobby McCain,28,2019,20,2,11:58:00,DAL,2,10,DAL,10,3,2555224,SHOTGUN,"1 RB, 1 TE, 3 WR",5,"3 DL, 2 LB, 6 DB",left,2019-09-22T17:57:51.000Z,2019-09-22T17:57:49.000Z,5-11,192,08/18/1993,Memphis,CB,DAL,MIA,3,AT&T Stadium,"Arlington, Texas",indoor,Artificial,,,0,,
32540,2019092201,20190922011394,away,81.22,9.78,1.44,1.29,0.14,89.89,291.52,2555539,Xavien Howard,25,2019,20,2,11:58:00,DAL,2,10,DAL,10,3,2555224,SHOTGUN,"1 RB, 1 TE, 3 WR",5,"3 DL, 2 LB, 6 DB",left,2019-09-22T17:57:51.000Z,2019-09-22T17:57:49.000Z,6-1,200,07/04/1993,Baylor,CB,DAL,MIA,3,AT&T Stadium,"Arlington, Texas",indoor,Artificial,,,0,,
32541,2019092201,20190922011394,away,91.09,33.98,1.35,2.31,0.13,159.9,141.77,2557882,Taco Charlton,96,2019,20,2,11:58:00,DAL,2,10,DAL,10,3,2555224,SHOTGUN,"1 RB, 1 TE, 3 WR",5,"3 DL, 2 LB, 6 DB",left,2019-09-22T17:57:51.000Z,2019-09-22T17:57:49.000Z,6-6,270,11/07/1994,Michigan,DE,DAL,MIA,3,AT&T Stadium,"Arlington, Texas",indoor,Artificial,,,0,,
32542,2019092201,20190922011394,away,90.3,25.84,2.57,1.77,0.26,36.31,18.85,2558001,Charles Harris,90,2019,20,2,11:58:00,DAL,2,10,DAL,10,3,2555224,SHOTGUN,"1 RB, 1 TE, 3 WR",5,"3 DL, 2 LB, 6 DB",left,2019-09-22T17:57:51.000Z,2019-09-22T17:57:49.000Z,6-3,250,03/06/1995,Missouri,DE,DAL,MIA,3,AT&T Stadium,"Arlington, Texas",indoor,Artificial,,,0,,
32543,2019092201,20190922011394,away,87.32,19.17,2.13,3.9,0.19,35.8,346.73,2559283,Jomal Wiltz,33,2019,20,2,11:58:00,DAL,2,10,DAL,10,3,2555224,SHOTGUN,"1 RB, 1 TE, 3 WR",5,"3 DL, 2 LB, 6 DB",left,2019-09-22T17:57:51.000Z,2019-09-22T17:57:49.000Z,5-10,180,10/23/1994,Iowa State,CB,DAL,MIA,3,AT&T Stadium,"Arlington, Texas",indoor,Artificial,,,0,,
32544,2019092201,20190922011394,away,90.04,32.37,1.28,2.66,0.13,171.58,33.63,2560966,Jerome Baker,55,2019,20,2,11:58:00,DAL,2,10,DAL,10,3,2555224,SHOTGUN,"1 RB, 1 TE, 3 WR",5,"3 DL, 2 LB, 6 DB",left,2019-09-22T17:57:51.000Z,2019-09-22T17:57:49.000Z,6-2,225,12/25/1996,Ohio State,LB,DAL,MIA,3,AT&T Stadium,"Arlington, Texas",indoor,Artificial,,,0,,
32545,2019092201,20190922011394,away,79.94,23.82,4.64,3.19,0.45,94.52,38.08,2561256,Steven Parker,26,2019,20,2,11:58:00,DAL,2,10,DAL,10,3,2555224,SHOTGUN,"1 RB, 1 TE, 3 WR",5,"3 DL, 2 LB, 6 DB",left,2019-09-22T17:57:51.000Z,2019-09-22T17:57:49.000Z,6-1,210,12/14/1995,Oklahoma,DB,DAL,MIA,3,AT&T Stadium,"Arlington, Texas",indoor,Artificial,,,0,,
32546,2019092201,20190922011394,away,90.42,28.08,0.25,1.86,0.03,59.86,7.67,2561336,Trent Harris,97,2019,20,2,11:58:00,DAL,2,10,DAL,10,3,2555224,SHOTGUN,"1 RB, 1 TE, 3 WR",5,"3 DL, 2 LB, 6 DB",left,2019-09-22T17:57:51.000Z,2019-09-22T17:57:49.000Z,6-2,255,09/17/1995,Miami,LB,DAL,MIA,3,AT&T Stadium,"Arlington, Texas",indoor,Artificial,,,0,,
32547,2019092201,20190922011394,away,89.97,30.63,1.31,1.73,0.12,40.61,18.22,2562038,Sam Eguavoen,49,2019,20,2,11:58:00,DAL,2,10,DAL,10,3,2555224,SHOTGUN,"1 RB, 1 TE, 3 WR",5,"3 DL, 2 LB, 6 DB",left,2019-09-22T17:57:51.000Z,2019-09-22T17:57:49.000Z,6-0,236,02/22/1993,Texas Tech,LB,DAL,MIA,3,AT&T Stadium,"Arlington, Texas",indoor,Artificial,,,0,,
32548,2019092201,20190922011394,away,86.28,44.68,3.25,3.66,0.31,92.73,268.48,2562776,Ken Webster,31,2019,20,2,11:58:00,DAL,2,10,DAL,10,3,2555224,SHOTGUN,"1 RB, 1 TE, 3 WR",5,"3 DL, 2 LB, 6 DB",left,2019-09-22T17:57:51.000Z,2019-09-22T17:57:49.000Z,5-11,202,06/19/1996,Mississippi,DB,DAL,MIA,3,AT&T Stadium,"Arlington, Texas",indoor,Artificial,,,0,,
32549,2019092201,20190922011394,home,92.03,29.85,4.23,1.56,0.42,358.49,357.62,2495435,Tyron Smith,77,2019,20,2,11:58:00,DAL,2,10,DAL,10,3,2555224,SHOTGUN,"1 RB, 1 TE, 3 WR",5,"3 DL, 2 LB, 6 DB",left,2019-09-22T17:57:51.000Z,2019-09-22T17:57:49.000Z,6-5,320,12/12/1990,Southern California,T,DAL,MIA,3,AT&T Stadium,"Arlington, Texas",indoor,Artificial,,,0,,
32550,2019092201,20190922011394,home,89.18,18.74,2.99,1.92,0.3,280.5,276.98,2495448,Randall Cobb,18,2019,20,2,11:58:00,DAL,2,10,DAL,10,3,2555224,SHOTGUN,"1 RB, 1 TE, 3 WR",5,"3 DL, 2 LB, 6 DB",left,2019-09-22T17:57:51.000Z,2019-09-22T17:57:49.000Z,5-10,192,08/22/1990,Kentucky,WR,DAL,MIA,3,AT&T Stadium,"Arlington, Texas",indoor,Artificial,,,0,,
32551,2019092201,20190922011394,home,90.62,28.69,0.24,1.8,0.02,180.01,45.23,2540161,Travis Frederick,72,2019,20,2,11:58:00,DAL,2,10,DAL,10,3,2555224,SHOTGUN,"1 RB, 1 TE, 3 WR",5,"3 DL, 2 LB, 6 DB",left,2019-09-22T17:57:51.000Z,2019-09-22T17:57:49.000Z,6-4,320,03/18/1991,Wisconsin,C,DAL,MIA,3,AT&T Stadium,"Arlington, Texas",indoor,Artificial,,,0,,
32552,2019092201,20190922011394,home,90.3,31.27,1.37,2.83,0.15,184.33,310.17,2543480,Zack Martin,70,2019,20,2,11:58:00,DAL,2,10,DAL,10,3,2555224,SHOTGUN,"1 RB, 1 TE, 3 WR",5,"3 DL, 2 LB, 6 DB",left,2019-09-22T17:57:51.000Z,2019-09-22T17:57:49.000Z,6-4,315,11/20/1990,Notre Dame,G,DAL,MIA,3,AT&T Stadium,"Arlington, Texas",indoor,Artificial,,,0,,
32553,2019092201,20190922011394,home,87.9,9.7,5.26,2.32,0.51,275.95,288.4,2552487,Amari Cooper,19,2019,20,2,11:58:00,DAL,2,10,DAL,10,3,2555224,SHOTGUN,"1 RB, 1 TE, 3 WR",5,"3 DL, 2 LB, 6 DB",left,2019-09-22T17:57:51.000Z,2019-09-22T17:57:49.000Z,6-1,211,06/17/1994,Alabama,WR,DAL,MIA,3,AT&T Stadium,"Arlington, Texas",indoor,Artificial,,,0,,
32554,2019092201,20190922011394,home,90.46,32.0,0.75,3.05,0.07,287.19,304.12,2553505,La'el Collins,71,2019,20,2,11:58:00,DAL,2,10,DAL,10,3,2555224,SHOTGUN,"1 RB, 1 TE, 3 WR",5,"3 DL, 2 LB, 6 DB",left,2019-09-22T17:57:51.000Z,2019-09-22T17:57:49.000Z,6-4,320,07/26/1993,Louisiana State,T,DAL,MIA,3,AT&T Stadium,"Arlington, Texas",indoor,Artificial,,,0,,
32555,2019092201,20190922011394,home,94.37,29.05,4.17,3.94,0.4,313.12,345.95,2555224,Ezekiel Elliott,21,2019,20,2,11:58:00,DAL,2,10,DAL,10,3,2555224,SHOTGUN,"1 RB, 1 TE, 3 WR",5,"3 DL, 2 LB, 6 DB",left,2019-09-22T17:57:51.000Z,2019-09-22T17:57:49.000Z,6-0,228,07/22/1995,Ohio State,RB,DAL,MIA,3,AT&T Stadium,"Arlington, Texas",indoor,Artificial,,,0,,
32556,2019092201,20190922011394,home,95.03,28.23,3.45,3.03,0.33,232.29,177.7,2555260,Dak Prescott,4,2019,20,2,11:58:00,DAL,2,10,DAL,10,3,2555224,SHOTGUN,"1 RB, 1 TE, 3 WR",5,"3 DL, 2 LB, 6 DB",left,2019-09-22T17:57:51.000Z,2019-09-22T17:57:49.000Z,6-2,238,07/29/1993,Mississippi State,QB,DAL,MIA,3,AT&T Stadium,"Arlington, Texas",indoor,Artificial,,,0,,
32557,2019092201,20190922011394,home,89.64,26.95,3.6,0.29,0.36,235.12,306.44,2559193,Blake Jarwin,89,2019,20,2,11:58:00,DAL,2,10,DAL,10,3,2555224,SHOTGUN,"1 RB, 1 TE, 3 WR",5,"3 DL, 2 LB, 6 DB",left,2019-09-22T17:57:51.000Z,2019-09-22T17:57:49.000Z,6-5,260,07/16/1994,Oklahoma State,TE,DAL,MIA,3,AT&T Stadium,"Arlington, Texas",indoor,Artificial,,,0,,
32558,2019092201,20190922011394,home,91.55,31.89,3.82,1.66,0.39,344.7,352.28,2560934,Connor Williams,52,2019,20,2,11:58:00,DAL,2,10,DAL,10,3,2555224,SHOTGUN,"1 RB, 1 TE, 3 WR",5,"3 DL, 2 LB, 6 DB",left,2019-09-22T17:57:51.000Z,2019-09-22T17:57:49.000Z,6-5,298,05/12/1997,Texas,G,DAL,MIA,3,AT&T Stadium,"Arlington, Texas",indoor,Artificial,,,0,,
32559,2019092201,20190922011394,home,87.2,44.51,5.04,0.19,0.51,294.62,265.66,2560936,Ced Wilson,11,2019,20,2,11:58:00,DAL,2,10,DAL,10,3,2555224,SHOTGUN,"1 RB, 1 TE, 3 WR",5,"3 DL, 2 LB, 6 DB",left,2019-09-22T17:57:51.000Z,2019-09-22T17:57:49.000Z,6-2,188,03/10/1995,Boise State,WR,DAL,MIA,3,AT&T Stadium,"Arlington, Texas",indoor,Artificial,,,0,,
