,GameId,PlayId,Team,X,Y,S,A,Dis,Orientation,Dir,NflId,DisplayName,JerseyNumber,Season,YardLine,Quarter,GameClock,PossessionTeam,Down,Distance,FieldPosition,HomeScoreBeforePlay,VisitorScoreBeforePlay,NflIdRusher,OffenseFormation,OffensePersonnel,DefendersInTheBox,DefensePersonnel,PlayDirection,TimeHandoff,TimeSnap,PlayerHeight,PlayerWeight,PlayerBirthDate,PlayerCollegeName,Position,HomeTeamAbbr,VisitorTeamAbbr,Week,Stadium,Location,StadiumType,Turf,GameWeather,Temperature,Humidity,WindSpeed,WindDirection
4686,2019090804,20190908040877,away,25.95,27.41,1.62,1.8,0.16,248.1,321.58,2495116,Allen Bailey,93,2019,17,1,01:15:00,MIN,3,1,MIN,14,0,2557991,SHOTGUN,"1 RB, 1 TE, 3 WR",6,"3 DL, 3 LB, 5 DB",right,2019-09-08T17:40:49.000Z,2019-09-08T17:40:48.000Z,6-3,288,03/25/1989,Miami,DE,MIN,ATL,1,U.S. Bank Stadium,"Minneapolis, MN",Indoors,Field Turf,N/A (Indoors),,0,,
4687,2019090804,20190908040877,away,27.01,24.23,3.06,1.24,0.31,292.97,1.62,2532992,Jack Crawford,95,2019,17,1,01:15:00,MIN,3,1,MIN,14,0,2557991,SHOTGUN,"1 RB, 1 TE, 3 WR",6,"3 DL, 3 LB, 5 DB",right,2019-09-08T17:40:49.000Z,2019-09-08T17:40:48.000Z,6-5,288,09/07/1988,Penn State,DE,MIN,ATL,1,U.S. Bank Stadium,"Minneapolis, MN",Indoors,Field Turf,N/A (Indoors),,0,,
4688,2019090804,20190908040877,away,33.25,39.24,0.33,1.11,0.03,283.11,321.39,2539334,Desmond Trufant,21,2019,17,1,01:15:00,MIN,3,1,MIN,14,0,2557991,SHOTGUN,"1 RB, 1 TE, 3 WR",6,"3 DL, 3 LB, 5 DB",right,2019-09-08T17:40:49.000Z,2019-09-08T17:40:48.000Z,6-0,190,09/10/1990,Washington,CB,MIN,ATL,1,U.S. Bank Stadium,"Minneapolis, MN",Indoors,Field Turf,N/A (Indoors),,0,,
4689,2019090804,20190908040877,away,38.22,26.07,1.83,3.44,0.17,254.77,283.3,2543850,Ricardo Allen,37,2019,17,1,01:15:00,MIN,3,1,MIN,14,0,2557991,SHOTGUN,"1 RB, 1 TE, 3 WR",6,"3 DL, 3 LB, 5 DB",right,2019-09-08T17:40:49.000Z,2019-09-08T17:40:48.000Z,5-9,186,12/18/1991,Purdue,SS,MIN,ATL,1,U.S. Bank Stadium,"Minneapolis, MN",Indoors,Field Turf,N/A (Indoors),,0,,
4690,2019090804,20190908040877,away,27.88,17.46,2.39,3.18,0.23,347.75,33.74,2552301,Vic Beasley,44,2019,17,1,01:15:00,MIN,3,1,MIN,14,0,2557991,SHOTGUN,"1 RB, 1 TE, 3 WR",6,"3 DL, 3 LB, 5 DB",right,2019-09-08T17:40:49.000Z,2019-09-08T17:40:48.000Z,6-3,246,07/08/1992,Clemson,OLB,MIN,ATL,1,U.S. Bank Stadium,"Minneapolis, MN",Indoors,Field Turf,N/A (Indoors),,0,,
4691,2019090804,20190908040877,away,27.01,25.41,1.98,0.97,0.21,283.86,354.01,2552329,Tyeler Davison,96,2019,17,1,01:15:00,MIN,3,1,MIN,14,0,2557991,SHOTGUN,"1 RB, 1 TE, 3 WR",6,"3 DL, 3 LB, 5 DB",right,2019-09-08T17:40:49.000Z,2019-09-08T17:40:48.000Z,6-2,309,09/03/1992,Fresno State,DT,MIN,ATL,1,U.S. Bank Stadium,"Minneapolis, MN",Indoors,Field Turf,N/A (Indoors),,0,,
4692,2019090804,20190908040877,away,29.41,23.13,2.94,1.53,0.29,284.31,312.76,2555162,Deion Jones,45,2019,17,1,01:15:00,MIN,3,1,MIN,14,0,2557991,SHOTGUN,"1 RB, 1 TE, 3 WR",6,"3 DL, 3 LB, 5 DB",right,2019-09-08T17:40:49.000Z,2019-09-08T17:40:48.000Z,6-1,227,11/04/1994,Louisiana State,MLB,MIN,ATL,1,U.S. Bank Stadium,"Minneapolis, MN",Indoors,Field Turf,N/A (Indoors),,0,,
4693,2019090804,20190908040877,away,25.76,30.02,2.22,2.47,0.22,215.55,297.65,2555255,De'Vondre Campbell,59,2019,17,1,01:15:00,MIN,3,1,MIN,14,0,2557991,SHOTGUN,"1 RB, 1 TE, 3 WR",6,"3 DL, 3 LB, 5 DB",right,2019-09-08T17:40:49.000Z,2019-09-08T17:40:48.000Z,6-3,232,07/01/1993,Minnesota,OLB,MIN,ATL,1,U.S. Bank Stadium,"Minneapolis, MN",Indoors,Field Turf,N/A (Indoors),,0,,
4694,2019090804,20190908040877,away,28.55,18.31,1.41,3.96,0.13,278.25,63.13,2555543,Keanu Neal,22,2019,17,1,01:15:00,MIN,3,1,MIN,14,0,2557991,SHOTGUN,"1 RB, 1 TE, 3 WR",6,"3 DL, 3 LB, 5 DB",right,2019-09-08T17:40:49.000Z,2019-09-08T17:40:48.000Z,6-0,211,07/26/1995,Florida,FS,MIN,ATL,1,U.S. Bank Stadium,"Minneapolis, MN",Indoors,Field Turf,N/A (Indoors),,0,,
4695,2019090804,20190908040877,away,28.12,39.28,0.98,2.19,0.09,274.45,115.2,2558184,Damontae Kazee,27,2019,17,1,01:15:00,MIN,3,1,MIN,14,0,2557991,SHOTGUN,"1 RB, 1 TE, 3 WR",6,"3 DL, 3 LB, 5 DB",right,2019-09-08T17:40:49.000Z,2019-09-08T17:40:48.000Z,5-11,190,06/05/1993,San Diego State,SS,MIN,ATL,1,U.S. Bank Stadium,"Minneapolis, MN",Indoors,Field Turf,N/A (Indoors),,0,,
4696,2019090804,20190908040877,away,30.15,38.13,0.83,1.57,0.07,271.17,26.33,2560830,Isaiah Oliver,26,2019,17,1,01:15:00,MIN,3,1,MIN,14,0,2557991,SHOTGUN,"1 RB, 1 TE, 3 WR",6,"3 DL, 3 LB, 5 DB",right,2019-09-08T17:40:49.000Z,2019-09-08T17:40:48.000Z,6-0,210,09/30/1996,Colorado,CB,MIN,ATL,1,U.S. Bank Stadium,"Minneapolis, MN",Indoors,Field Turf,N/A (Indoors),,0,,
4697,2019090804,20190908040877,home,27.17,18.2,2.28,1.82,0.22,101.19,81.8,2495438,Kyle Rudolph,82,2019,17,1,01:15:00,MIN,3,1,MIN,14,0,2557991,SHOTGUN,"1 RB, 1 TE, 3 WR",6,"3 DL, 3 LB, 5 DB",right,2019-09-08T17:40:49.000Z,2019-09-08T17:40:48.000Z,6-6,265,11/09/1989,Notre Dame,TE,MIN,ATL,1,U.S. Bank Stadium,"Minneapolis, MN",Indoors,Field Turf,N/A (Indoors),,0,,
4698,2019090804,20190908040877,home,22.72,23.9,0.9,1.32,0.08,109.43,124.08,2532820,Kirk Cousins,8,2019,17,1,01:15:00,MIN,3,1,MIN,14,0,2557991,SHOTGUN,"1 RB, 1 TE, 3 WR",6,"3 DL, 3 LB, 5 DB",right,2019-09-08T17:40:49.000Z,2019-09-08T17:40:48.000Z,6-3,202,08/19/1988,Michigan State,QB,MIN,ATL,1,U.S. Bank Stadium,"Minneapolis, MN",Indoors,Field Turf,N/A (Indoors),,0,,
4699,2019090804,20190908040877,home,25.46,29.22,1.79,1.76,0.19,4.4,357.8,2533042,Riley Reiff,71,2019,17,1,01:15:00,MIN,3,1,MIN,14,0,2557991,SHOTGUN,"1 RB, 1 TE, 3 WR",6,"3 DL, 3 LB, 5 DB",right,2019-09-08T17:40:49.000Z,2019-09-08T17:40:48.000Z,6-6,305,12/01/1988,Iowa,T,MIN,ATL,1,U.S. Bank Stadium,"Minneapolis, MN",Indoors,Field Turf,N/A (Indoors),,0,,
4700,2019090804,20190908040877,home,26.08,24.35,2.89,0.35,0.29,82.97,5.73,2541142,Josh Kline,64,2019,17,1,01:15:00,MIN,3,1,MIN,14,0,2557991,SHOTGUN,"1 RB, 1 TE, 3 WR",6,"3 DL, 3 LB, 5 DB",right,2019-09-08T17:40:49.000Z,2019-09-08T17:40:48.000Z,6-3,300,12/29/1989,Kent State,G,MIN,ATL,1,U.S. Bank Stadium,"Minneapolis, MN",Indoors,Field Turf,N/A (Indoors),,0,,
4701,2019090804,20190908040877,home,25.85,38.91,2.59,0.24,0.26,104.57,67.04,2541785,Adam Thielen,19,2019,17,1,01:15:00,MIN,3,1,MIN,14,0,2557991,SHOTGUN,"1 RB, 1 TE, 3 WR",6,"3 DL, 3 LB, 5 DB",right,2019-09-08T17:40:49.000Z,2019-09-08T17:40:48.000Z,6-2,200,08/22/1990,Minn. State-Mankato,WR,MIN,ATL,1,U.S. Bank Stadium,"Minneapolis, MN",Indoors,Field Turf,N/A (Indoors),,0,,
4702,2019090804,20190908040877,home,24.19,41.93,0.82,0.42,0.08,133.21,33.09,2552608,Stefon Diggs,14,2019,17,1,01:15:00,MIN,3,1,MIN,14,0,2557991,SHOTGUN,"1 RB, 1 TE, 3 WR",6,"3 DL, 3 LB, 5 DB",right,2019-09-08T17:40:49.000Z,2019-09-08T17:40:48.000Z,6-0,191,11/29/1993,Maryland,WR,MIN,ATL,1,U.S. Bank Stadium,"Minneapolis, MN",Indoors,Field Turf,N/A (Indoors),,0,,
4703,2019090804,20190908040877,home,22.93,23.24,3.63,2.32,0.35,54.41,40.81,2557991,Dalvin Cook,33,2019,17,1,01:15:00,MIN,3,1,MIN,14,0,2557991,SHOTGUN,"1 RB, 1 TE, 3 WR",6,"3 DL, 3 LB, 5 DB",right,2019-09-08T17:40:49.000Z,2019-09-08T17:40:48.000Z,5-10,210,08/10/1995,Florida State,RB,MIN,ATL,1,U.S. Bank Stadium,"Minneapolis, MN",Indoors,Field Turf,N/A (Indoors),,0,,
4704,2019090804,20190908040877,home,25.37,27.15,1.44,1.24,0.14,62.87,341.99,2558848,Pat Elflein,65,2019,17,1,01:15:00,MIN,3,1,MIN,14,0,2557991,SHOTGUN,"1 RB, 1 TE, 3 WR",6,"3 DL, 3 LB, 5 DB",right,2019-09-08T17:40:49.000Z,2019-09-08T17:40:48.000Z,6-3,303,07/06/1994,Ohio State,G,MIN,ATL,1,U.S. Bank Stadium,"Minneapolis, MN",Indoors,Field Turf,N/A (Indoors),,0,,
4705,2019090804,20190908040877,home,26.53,23.34,2.65,1.59,0.27,61.16,17.27,2560831,Brian O'Neill,75,2019,17,1,01:15:00,MIN,3,1,MIN,14,0,2557991,SHOTGUN,"1 RB, 1 TE, 3 WR",6,"3 DL, 3 LB, 5 DB",right,2019-09-08T17:40:49.000Z,2019-09-08T17:40:48.000Z,6-7,297,09/15/1995,Pittsburgh,T,MIN,ATL,1,U.S. Bank Stadium,"Minneapolis, MN",Indoors,Field Turf,N/A (Indoors),,0,,
4706,2019090804,20190908040877,home,27.29,39.81,1.98,1.11,0.2,123.59,87.34,2562465,Bisi Johnson,81,2019,17,1,01:15:00,MIN,3,1,MIN,14,0,2557991,SHOTGUN,"1 RB, 1 TE, 3 WR",6,"3 DL, 3 LB, 5 DB",right,2019-09-08T17:40:49.000Z,2019-09-08T17:40:48.000Z,6-0,203,03/17/1997,Colorado State,WR,MIN,ATL,1,U.S. Bank Stadium,"Minneapolis, MN",Indoors,Field Turf,N/A (Indoors),,0,,
4707,2019090804,20190908040877,home,26.19,25.51,2.31,0.56,0.23,109.14,3.12,2562632,Garrett Bradbury,56,2019,17,1,01:15:00,MIN,3,1,MIN,14,0,2557991,SHOTGUN,"1 RB, 1 TE, 3 WR",6,"3 DL, 3 LB, 5 DB",right,2019-09-08T17:40:49.000Z,2019-09-08T17:40:48.000Z,6-3,305,06/20/1995,North Carolina State,C,MIN,ATL,1,U.S. Bank Stadium,"Minneapolis, MN",Indoors,Field Turf,N/A (Indoors),,0,,
