,GameId,PlayId,Team,X,Y,S,A,Dis,Orientation,Dir,NflId,DisplayName,JerseyNumber,Season,YardLine,Quarter,GameClock,PossessionTeam,Down,Distance,FieldPosition,HomeScoreBeforePlay,VisitorScoreBeforePlay,NflIdRusher,OffenseFormation,OffensePersonnel,DefendersInTheBox,DefensePersonnel,PlayDirection,TimeHandoff,TimeSnap,PlayerHeight,PlayerWeight,PlayerBirthDate,PlayerCollegeName,Position,HomeTeamAbbr,VisitorTeamAbbr,Week,Stadium,Location,StadiumType,Turf,GameWeather,Temperature,Humidity,WindSpeed,WindDirection
4642,2019090804,20190908040713,away,45.85,25.29,2.91,0.68,0.29,169.47,109.91,310,Matt Ryan,2,2019,32,1,03:58:00,ATL,1,10,MIN,14,0,2561061,I_FORM,"2 RB, 2 TE, 1 WR",8,"4 DL, 3 LB, 4 DB",left,2019-09-08T17:33:05.000Z,2019-09-08T17:33:03.000Z,6-4,217,05/17/1985,Boston College,QB,MIN,ATL,1,U.S. Bank Stadium,"Minneapolis, MN",Indoors,Field Turf,N/A (Indoors),,0,,
4643,2019090804,20190908040713,away,42.43,23.32,3.24,0.73,0.33,242.24,185.19,71375,Alex Mack,51,2019,32,1,03:58:00,ATL,1,10,MIN,14,0,2561061,I_FORM,"2 RB, 2 TE, 1 WR",8,"4 DL, 3 LB, 4 DB",left,2019-09-08T17:33:05.000Z,2019-09-08T17:33:03.000Z,6-4,311,11/19/1985,California,C,MIN,ATL,1,U.S. Bank Stadium,"Minneapolis, MN",Indoors,Field Turf,N/A (Indoors),,0,,
4644,2019090804,20190908040713,away,42.46,21.92,3.43,1.26,0.35,272.82,207.01,2495134,James Carpenter,77,2019,32,1,03:58:00,ATL,1,10,MIN,14,0,2561061,I_FORM,"2 RB, 2 TE, 1 WR",8,"4 DL, 3 LB, 4 DB",left,2019-09-08T17:33:05.000Z,2019-09-08T17:33:03.000Z,6-5,321,03/22/1989,Alabama,G,MIN,ATL,1,U.S. Bank Stadium,"Minneapolis, MN",Indoors,Field Turf,N/A (Indoors),,0,,
4645,2019090804,20190908040713,away,43.3,28.78,3.1,3.98,0.28,278.56,155.87,2495234,Luke Stocker,80,2019,32,1,03:58:00,ATL,1,10,MIN,14,0,2561061,I_FORM,"2 RB, 2 TE, 1 WR",8,"4 DL, 3 LB, 4 DB",left,2019-09-08T17:33:05.000Z,2019-09-08T17:33:03.000Z,6-5,253,07/17/1988,Tennessee,TE,MIN,ATL,1,U.S. Bank Stadium,"Minneapolis, MN",Indoors,Field Turf,N/A (Indoors),,0,,
4646,2019090804,20190908040713,away,43.28,20.53,3.17,1.13,0.33,218.81,173.61,2543758,Jake Matthews,70,2019,32,1,03:58:00,ATL,1,10,MIN,14,0,2561061,I_FORM,"2 RB, 2 TE, 1 WR",8,"4 DL, 3 LB, 4 DB",left,2019-09-08T17:33:05.000Z,2019-09-08T17:33:03.000Z,6-5,309,02/11/1992,Texas A&M,T,MIN,ATL,1,U.S. Bank Stadium,"Minneapolis, MN",Indoors,Field Turf,N/A (Indoors),,0,,
4647,2019090804,20190908040713,away,45.76,22.94,1.73,5.07,0.17,292.44,288.05,2550400,Keith Smith,40,2019,32,1,03:58:00,ATL,1,10,MIN,14,0,2561061,I_FORM,"2 RB, 2 TE, 1 WR",8,"4 DL, 3 LB, 4 DB",left,2019-09-08T17:33:05.000Z,2019-09-08T17:33:03.000Z,6-0,240,04/08/1992,San Jose State,FB,MIN,ATL,1,U.S. Bank Stadium,"Minneapolis, MN",Indoors,Field Turf,N/A (Indoors),,0,,
4648,2019090804,20190908040713,away,42.58,26.19,4.99,1.1,0.51,243.42,196.64,2552366,Ty Sambrailo,74,2019,32,1,03:58:00,ATL,1,10,MIN,14,0,2561061,I_FORM,"2 RB, 2 TE, 1 WR",8,"4 DL, 3 LB, 4 DB",left,2019-09-08T17:33:05.000Z,2019-09-08T17:33:03.000Z,6-5,315,03/10/1992,Colorado State,T,MIN,ATL,1,U.S. Bank Stadium,"Minneapolis, MN",Indoors,Field Turf,N/A (Indoors),,0,,
4649,2019090804,20190908040713,away,43.67,19.42,3.37,1.2,0.33,254.14,183.55,2555415,Austin Hooper,81,2019,32,1,03:58:00,ATL,1,10,MIN,14,0,2561061,I_FORM,"2 RB, 2 TE, 1 WR",8,"4 DL, 3 LB, 4 DB",left,2019-09-08T17:33:05.000Z,2019-09-08T17:33:03.000Z,6-4,254,10/29/1994,Stanford,TE,MIN,ATL,1,U.S. Bank Stadium,"Minneapolis, MN",Indoors,Field Turf,N/A (Indoors),,0,,
4650,2019090804,20190908040713,away,49.11,23.33,5.08,1.98,0.5,237.86,187.28,2559924,Ito Smith,25,2019,32,1,03:58:00,ATL,1,10,MIN,14,0,2561061,I_FORM,"2 RB, 2 TE, 1 WR",8,"4 DL, 3 LB, 4 DB",left,2019-09-08T17:33:05.000Z,2019-09-08T17:33:03.000Z,5-9,195,09/11/1995,Southern Mississippi,RB,MIN,ATL,1,U.S. Bank Stadium,"Minneapolis, MN",Indoors,Field Turf,N/A (Indoors),,0,,
4651,2019090804,20190908040713,away,44.54,15.35,3.81,4.67,0.36,8.38,60.17,2561061,Russell Gage,83,2019,32,1,03:58:00,ATL,1,10,MIN,14,0,2561061,I_FORM,"2 RB, 2 TE, 1 WR",8,"4 DL, 3 LB, 4 DB",left,2019-09-08T17:33:05.000Z,2019-09-08T17:33:03.000Z,6-0,184,01/22/1996,Louisiana State,WR,MIN,ATL,1,U.S. Bank Stadium,"Minneapolis, MN",Indoors,Field Turf,N/A (Indoors),,0,,
4652,2019090804,20190908040713,away,41.66,24.88,4.08,0.51,0.43,251.82,204.01,2562303,Chris Lindstrom,63,2019,32,1,03:58:00,ATL,1,10,MIN,14,0,2561061,I_FORM,"2 RB, 2 TE, 1 WR",8,"4 DL, 3 LB, 4 DB",left,2019-09-08T17:33:05.000Z,2019-09-08T17:33:03.000Z,6-4,307,02/08/1997,Boston College,G,MIN,ATL,1,U.S. Bank Stadium,"Minneapolis, MN",Indoors,Field Turf,N/A (Indoors),,0,,
4653,2019090804,20190908040713,home,43.15,22.74,2.79,1.1,0.28,121.33,102.26,496790,Everson Griffen,97,2019,32,1,03:58:00,ATL,1,10,MIN,14,0,2561061,I_FORM,"2 RB, 2 TE, 1 WR",8,"4 DL, 3 LB, 4 DB",left,2019-09-08T17:33:05.000Z,2019-09-08T17:33:03.000Z,6-3,273,12/22/1987,Southern California,DE,MIN,ATL,1,U.S. Bank Stadium,"Minneapolis, MN",Indoors,Field Turf,N/A (Indoors),,0,,
4654,2019090804,20190908040713,home,41.24,23.14,3.9,0.66,0.39,128.18,189.27,496802,Linval Joseph,98,2019,32,1,03:58:00,ATL,1,10,MIN,14,0,2561061,I_FORM,"2 RB, 2 TE, 1 WR",8,"4 DL, 3 LB, 4 DB",left,2019-09-08T17:33:05.000Z,2019-09-08T17:33:03.000Z,6-4,329,10/10/1988,East Carolina,DT,MIN,ATL,1,U.S. Bank Stadium,"Minneapolis, MN",Indoors,Field Turf,N/A (Indoors),,0,,
4655,2019090804,20190908040713,home,38.46,16.73,2.45,2.15,0.23,69.7,164.21,2532948,Harrison Smith,22,2019,32,1,03:58:00,ATL,1,10,MIN,14,0,2561061,I_FORM,"2 RB, 2 TE, 1 WR",8,"4 DL, 3 LB, 4 DB",left,2019-09-08T17:33:05.000Z,2019-09-08T17:33:03.000Z,6-2,214,02/02/1989,Notre Dame,FS,MIN,ATL,1,U.S. Bank Stadium,"Minneapolis, MN",Indoors,Field Turf,N/A (Indoors),,0,,
4656,2019090804,20190908040713,home,42.83,19.72,2.18,1.77,0.21,137.64,156.63,2543459,Anthony Barr,55,2019,32,1,03:58:00,ATL,1,10,MIN,14,0,2561061,I_FORM,"2 RB, 2 TE, 1 WR",8,"4 DL, 3 LB, 4 DB",left,2019-09-08T17:33:05.000Z,2019-09-08T17:33:03.000Z,6-5,255,03/18/1992,UCLA,OLB,MIN,ATL,1,U.S. Bank Stadium,"Minneapolis, MN",Indoors,Field Turf,N/A (Indoors),,0,,
4657,2019090804,20190908040713,home,41.06,25.62,3.78,2.28,0.37,143.41,195.61,2543706,Shamar Stephen,93,2019,32,1,03:58:00,ATL,1,10,MIN,14,0,2561061,I_FORM,"2 RB, 2 TE, 1 WR",8,"4 DL, 3 LB, 4 DB",left,2019-09-08T17:33:05.000Z,2019-09-08T17:33:03.000Z,6-5,310,02/25/1991,Connecticut,NT,MIN,ATL,1,U.S. Bank Stadium,"Minneapolis, MN",Indoors,Field Turf,N/A (Indoors),,0,,
4658,2019090804,20190908040713,home,39.46,21.87,2.62,1.42,0.26,95.22,167.37,2552312,Eric Kendricks,54,2019,32,1,03:58:00,ATL,1,10,MIN,14,0,2561061,I_FORM,"2 RB, 2 TE, 1 WR",8,"4 DL, 3 LB, 4 DB",left,2019-09-08T17:33:05.000Z,2019-09-08T17:33:03.000Z,6-0,232,02/29/1992,UCLA,MLB,MIN,ATL,1,U.S. Bank Stadium,"Minneapolis, MN",Indoors,Field Turf,N/A (Indoors),,0,,
4659,2019090804,20190908040713,home,38.21,32.9,0.95,2.93,0.08,122.16,157.35,2552448,Trae Waynes,26,2019,32,1,03:58:00,ATL,1,10,MIN,14,0,2561061,I_FORM,"2 RB, 2 TE, 1 WR",8,"4 DL, 3 LB, 4 DB",left,2019-09-08T17:33:05.000Z,2019-09-08T17:33:03.000Z,6-0,190,07/25/1992,Michigan State,CB,MIN,ATL,1,U.S. Bank Stadium,"Minneapolis, MN",Indoors,Field Turf,N/A (Indoors),,0,,
4660,2019090804,20190908040713,home,42.56,28.86,2.92,0.31,0.3,98.95,139.95,2552603,Danielle Hunter,99,2019,32,1,03:58:00,ATL,1,10,MIN,14,0,2561061,I_FORM,"2 RB, 2 TE, 1 WR",8,"4 DL, 3 LB, 4 DB",left,2019-09-08T17:33:05.000Z,2019-09-08T17:33:03.000Z,6-5,252,10/29/1994,Louisiana State,DE,MIN,ATL,1,U.S. Bank Stadium,"Minneapolis, MN",Indoors,Field Turf,N/A (Indoors),,0,,
4661,2019090804,20190908040713,home,32.39,29.11,3.18,1.24,0.32,116.65,231.86,2553655,Anthony Harris,41,2019,32,1,03:58:00,ATL,1,10,MIN,14,0,2561061,I_FORM,"2 RB, 2 TE, 1 WR",8,"4 DL, 3 LB, 4 DB",left,2019-09-08T17:33:05.000Z,2019-09-08T17:33:03.000Z,6-1,202,10/09/1991,Virginia,FS,MIN,ATL,1,U.S. Bank Stadium,"Minneapolis, MN",Indoors,Field Turf,N/A (Indoors),,0,,
4662,2019090804,20190908040713,home,38.71,26.01,1.35,2.52,0.15,87.92,151.82,2558033,Ben Gedeon,42,2019,32,1,03:58:00,ATL,1,10,MIN,14,0,2561061,I_FORM,"2 RB, 2 TE, 1 WR",8,"4 DL, 3 LB, 4 DB",left,2019-09-08T17:33:05.000Z,2019-09-08T17:33:03.000Z,6-2,244,10/16/1994,Michigan,OLB,MIN,ATL,1,U.S. Bank Stadium,"Minneapolis, MN",Indoors,Field Turf,N/A (Indoors),,0,,
4663,2019090804,20190908040713,home,39.88,14.66,2.0,2.29,0.2,63.48,323.76,2562630,Kris Boyd,38,2019,32,1,03:58:00,ATL,1,10,MIN,14,0,2561061,I_FORM,"2 RB, 2 TE, 1 WR",8,"4 DL, 3 LB, 4 DB",left,2019-09-08T17:33:05.000Z,2019-09-08T17:33:03.000Z,5-11,201,09/12/1996,Texas,DB,MIN,ATL,1,U.S. Bank Stadium,"Minneapolis, MN",Indoors,Field Turf,N/A (Indoors),,0,,
