,GameId,PlayId,Team,X,Y,S,A,Dis,Orientation,Dir,NflId,DisplayName,JerseyNumber,Season,YardLine,Quarter,GameClock,PossessionTeam,Down,Distance,FieldPosition,HomeScoreBeforePlay,VisitorScoreBeforePlay,NflIdRusher,OffenseFormation,OffensePersonnel,DefendersInTheBox,DefensePersonnel,PlayDirection,TimeHandoff,TimeSnap,PlayerHeight,PlayerWeight,PlayerBirthDate,PlayerCollegeName,Position,HomeTeamAbbr,VisitorTeamAbbr,Week,Stadium,Location,StadiumType,Turf,GameWeather,Temperature,Humidity,WindSpeed,WindDirection
72292,2019100610,20191006103242,away,63.62,23.98,1.17,1.14,0.12,56.48,304.37,382,Joe Flacco,5,2019,41,4,10:58:00,DEN,1,15,LAC,7,17,2559947,SHOTGUN,"1 RB, 1 TE, 3 WR",6,"3 DL, 3 LB, 5 DB",right,2019-10-06T22:29:47.000Z,2019-10-06T22:29:45.000Z,6-6,245,01/16/1985,Delaware,QB,LAC,DEN,5,Dignity Health Sports Park,"Carson, CA",,Grass,Sunny,85.0,35,12,W
72293,2019100610,20191006103242,away,68.03,10.74,4.82,3.6,0.47,22.49,25.43,497322,Emmanuel Sanders,10,2019,41,4,10:58:00,DEN,1,15,LAC,7,17,2559947,SHOTGUN,"1 RB, 1 TE, 3 WR",6,"3 DL, 3 LB, 5 DB",right,2019-10-06T22:29:47.000Z,2019-10-06T22:29:45.000Z,5-11,180,03/17/1987,Southern Methodist,WR,LAC,DEN,5,Dignity Health Sports Park,"Carson, CA",,Grass,Sunny,85.0,35,12,W
72294,2019100610,20191006103242,away,67.67,22.51,1.07,1.11,0.13,50.22,279.63,2533454,Ronald Leary,65,2019,41,4,10:58:00,DEN,1,15,LAC,7,17,2559947,SHOTGUN,"1 RB, 1 TE, 3 WR",6,"3 DL, 3 LB, 5 DB",right,2019-10-06T22:29:47.000Z,2019-10-06T22:29:45.000Z,6-3,320,04/29/1989,Memphis,G,LAC,DEN,5,Dignity Health Sports Park,"Carson, CA",,Grass,Sunny,85.0,35,12,W
72295,2019100610,20191006103242,away,68.59,24.35,0.42,0.78,0.04,65.44,57.92,2555133,Connor McGovern,60,2019,41,4,10:58:00,DEN,1,15,LAC,7,17,2559947,SHOTGUN,"1 RB, 1 TE, 3 WR",6,"3 DL, 3 LB, 5 DB",right,2019-10-06T22:29:47.000Z,2019-10-06T22:29:45.000Z,6-4,306,04/27/1993,Missouri,G,LAC,DEN,5,Dignity Health Sports Park,"Carson, CA",,Grass,Sunny,85.0,35,12,W
72296,2019100610,20191006103242,away,66.92,27.25,0.81,1.36,0.07,26.67,309.01,2558014,Garett Bolles,72,2019,41,4,10:58:00,DEN,1,15,LAC,7,17,2559947,SHOTGUN,"1 RB, 1 TE, 3 WR",6,"3 DL, 3 LB, 5 DB",right,2019-10-06T22:29:47.000Z,2019-10-06T22:29:45.000Z,6-5,300,05/27/1992,Utah,T,LAC,DEN,5,Dignity Health Sports Park,"Carson, CA",,Grass,Sunny,85.0,35,12,W
72297,2019100610,20191006103242,away,69.46,21.34,2.53,0.86,0.26,108.77,80.16,2559295,Elijah Wilkinson,68,2019,41,4,10:58:00,DEN,1,15,LAC,7,17,2559947,SHOTGUN,"1 RB, 1 TE, 3 WR",6,"3 DL, 3 LB, 5 DB",right,2019-10-06T22:29:47.000Z,2019-10-06T22:29:45.000Z,6-6,329,02/10/1995,Massachusetts,T,LAC,DEN,5,Dignity Health Sports Park,"Carson, CA",,Grass,Sunny,85.0,35,12,W
72298,2019100610,20191006103242,away,64.61,24.72,3.94,3.52,0.38,76.14,116.66,2559947,Phillip Lindsay,30,2019,41,4,10:58:00,DEN,1,15,LAC,7,17,2559947,SHOTGUN,"1 RB, 1 TE, 3 WR",6,"3 DL, 3 LB, 5 DB",right,2019-10-06T22:29:47.000Z,2019-10-06T22:29:45.000Z,5-8,190,07/24/1994,Colorado,RB,LAC,DEN,5,Dignity Health Sports Park,"Carson, CA",,Grass,Sunny,85.0,35,12,W
72299,2019100610,20191006103242,away,70.18,44.18,4.99,3.68,0.49,89.09,99.93,2560888,Courtland Sutton,14,2019,41,4,10:58:00,DEN,1,15,LAC,7,17,2559947,SHOTGUN,"1 RB, 1 TE, 3 WR",6,"3 DL, 3 LB, 5 DB",right,2019-10-06T22:29:47.000Z,2019-10-06T22:29:45.000Z,6-4,216,10/10/1995,Southern Methodist,WR,LAC,DEN,5,Dignity Health Sports Park,"Carson, CA",,Grass,Sunny,85.0,35,12,W
72300,2019100610,20191006103242,away,68.58,33.53,4.41,5.21,0.41,99.94,130.19,2561002,DaeSean Hamilton,17,2019,41,4,10:58:00,DEN,1,15,LAC,7,17,2559947,SHOTGUN,"1 RB, 1 TE, 3 WR",6,"3 DL, 3 LB, 5 DB",right,2019-10-06T22:29:47.000Z,2019-10-06T22:29:45.000Z,6-1,206,03/10/1995,Penn State,WR,LAC,DEN,5,Dignity Health Sports Park,"Carson, CA",,Grass,Sunny,85.0,35,12,W
72301,2019100610,20191006103242,away,68.53,19.32,1.12,3.01,0.13,169.51,58.98,2562383,Noah Fant,87,2019,41,4,10:58:00,DEN,1,15,LAC,7,17,2559947,SHOTGUN,"1 RB, 1 TE, 3 WR",6,"3 DL, 3 LB, 5 DB",right,2019-10-06T22:29:47.000Z,2019-10-06T22:29:45.000Z,6-4,249,11/20/1997,Iowa,TE,LAC,DEN,5,Dignity Health Sports Park,"Carson, CA",,Grass,Sunny,85.0,35,12,W
72302,2019100610,20191006103242,away,68.01,23.87,2.44,1.0,0.25,162.78,165.65,2562714,Dalton Risner,66,2019,41,4,10:58:00,DEN,1,15,LAC,7,17,2559947,SHOTGUN,"1 RB, 1 TE, 3 WR",6,"3 DL, 3 LB, 5 DB",right,2019-10-06T22:29:47.000Z,2019-10-06T22:29:45.000Z,6-5,312,07/13/1995,Kansas State,G,LAC,DEN,5,Dignity Health Sports Park,"Carson, CA",,Grass,Sunny,85.0,35,12,W
72303,2019100610,20191006103242,home,69.05,24.51,0.41,2.16,0.05,232.69,324.51,2495677,Brandon Mebane,92,2019,41,4,10:58:00,DEN,1,15,LAC,7,17,2559947,SHOTGUN,"1 RB, 1 TE, 3 WR",6,"3 DL, 3 LB, 5 DB",right,2019-10-06T22:29:47.000Z,2019-10-06T22:29:45.000Z,6-1,311,01/15/1985,California,NT,LAC,DEN,5,Dignity Health Sports Park,"Carson, CA",,Grass,Sunny,85.0,35,12,W
72304,2019100610,20191006103242,home,75.05,44.8,2.47,3.48,0.23,205.91,102.26,2532861,Casey Hayward,26,2019,41,4,10:58:00,DEN,1,15,LAC,7,17,2559947,SHOTGUN,"1 RB, 1 TE, 3 WR",6,"3 DL, 3 LB, 5 DB",right,2019-10-06T22:29:47.000Z,2019-10-06T22:29:45.000Z,5-11,192,09/09/1989,Vanderbilt,CB,LAC,DEN,5,Dignity Health Sports Park,"Carson, CA",,Grass,Sunny,85.0,35,12,W
72305,2019100610,20191006103242,home,67.62,28.65,2.2,1.81,0.21,245.31,254.84,2555249,Joey Bosa,97,2019,41,4,10:58:00,DEN,1,15,LAC,7,17,2559947,SHOTGUN,"1 RB, 1 TE, 3 WR",6,"3 DL, 3 LB, 5 DB",right,2019-10-06T22:29:47.000Z,2019-10-06T22:29:45.000Z,6-5,280,07/11/1995,Ohio State,DE,LAC,DEN,5,Dignity Health Sports Park,"Carson, CA",,Grass,Sunny,85.0,35,12,W
72306,2019100610,20191006103242,home,73.31,21.85,2.29,2.31,0.22,261.18,242.21,2556148,Jatavis Brown,57,2019,41,4,10:58:00,DEN,1,15,LAC,7,17,2559947,SHOTGUN,"1 RB, 1 TE, 3 WR",6,"3 DL, 3 LB, 5 DB",right,2019-10-06T22:29:47.000Z,2019-10-06T22:29:45.000Z,5-11,221,02/18/1994,Akron,OLB,LAC,DEN,5,Dignity Health Sports Park,"Carson, CA",,Grass,Sunny,85.0,35,12,W
72307,2019100610,20191006103242,home,73.1,31.83,0.98,2.0,0.09,255.71,146.14,2557927,Desmond King,20,2019,41,4,10:58:00,DEN,1,15,LAC,7,17,2559947,SHOTGUN,"1 RB, 1 TE, 3 WR",6,"3 DL, 3 LB, 5 DB",right,2019-10-06T22:29:47.000Z,2019-10-06T22:29:45.000Z,5-10,201,12/14/1994,Iowa,CB,LAC,DEN,5,Dignity Health Sports Park,"Carson, CA",,Grass,Sunny,85.0,35,12,W
72308,2019100610,20191006103242,home,86.21,29.87,2.14,1.05,0.21,298.76,97.73,2558182,Rayshawn Jenkins,23,2019,41,4,10:58:00,DEN,1,15,LAC,7,17,2559947,SHOTGUN,"1 RB, 1 TE, 3 WR",6,"3 DL, 3 LB, 5 DB",right,2019-10-06T22:29:47.000Z,2019-10-06T22:29:45.000Z,6-2,220,01/25/1994,Miami,SS,LAC,DEN,5,Dignity Health Sports Park,"Carson, CA",,Grass,Sunny,85.0,35,12,W
72309,2019100610,20191006103242,home,70.41,9.9,2.46,2.61,0.24,310.82,32.27,2559164,Michael Davis,43,2019,41,4,10:58:00,DEN,1,15,LAC,7,17,2559947,SHOTGUN,"1 RB, 1 TE, 3 WR",6,"3 DL, 3 LB, 5 DB",right,2019-10-06T22:29:47.000Z,2019-10-06T22:29:45.000Z,6-2,196,01/06/1995,Brigham Young,CB,LAC,DEN,5,Dignity Health Sports Park,"Carson, CA",,Grass,Sunny,85.0,35,12,W
72310,2019100610,20191006103242,home,68.32,22.59,1.96,1.11,0.21,263.43,282.53,2560769,Justin Jones,93,2019,41,4,10:58:00,DEN,1,15,LAC,7,17,2559947,SHOTGUN,"1 RB, 1 TE, 3 WR",6,"3 DL, 3 LB, 5 DB",right,2019-10-06T22:29:47.000Z,2019-10-06T22:29:45.000Z,6-3,309,08/28/1996,North Carolina State,DT,LAC,DEN,5,Dignity Health Sports Park,"Carson, CA",,Grass,Sunny,85.0,35,12,W
72311,2019100610,20191006103242,home,68.75,18.31,2.69,1.18,0.26,331.3,316.61,2560826,Uchenna Nwosu,42,2019,41,4,10:58:00,DEN,1,15,LAC,7,17,2559947,SHOTGUN,"1 RB, 1 TE, 3 WR",6,"3 DL, 3 LB, 5 DB",right,2019-10-06T22:29:47.000Z,2019-10-06T22:29:45.000Z,6-2,251,12/28/1996,Southern California,LB,LAC,DEN,5,Dignity Health Sports Park,"Carson, CA",,Grass,Sunny,85.0,35,12,W
72312,2019100610,20191006103242,home,73.05,24.88,3.38,3.69,0.31,254.51,209.54,2562765,Drue Tranquill,49,2019,41,4,10:58:00,DEN,1,15,LAC,7,17,2559947,SHOTGUN,"1 RB, 1 TE, 3 WR",6,"3 DL, 3 LB, 5 DB",right,2019-10-06T22:29:47.000Z,2019-10-06T22:29:45.000Z,6-2,234,08/15/1995,Notre Dame,LB,LAC,DEN,5,Dignity Health Sports Park,"Carson, CA",,Grass,Sunny,85.0,35,12,W
72313,2019100610,20191006103242,home,73.77,16.49,0.41,0.66,0.04,300.99,76.45,2562981,Roderic Teamer,36,2019,41,4,10:58:00,DEN,1,15,LAC,7,17,2559947,SHOTGUN,"1 RB, 1 TE, 3 WR",6,"3 DL, 3 LB, 5 DB",right,2019-10-06T22:29:47.000Z,2019-10-06T22:29:45.000Z,5-11,205,05/12/1997,Tulane,DB,LAC,DEN,5,Dignity Health Sports Park,"Carson, CA",,Grass,Sunny,85.0,35,12,W
