,GameId,PlayId,Team,X,Y,S,A,Dis,Orientation,Dir,NflId,DisplayName,JerseyNumber,Season,YardLine,Quarter,GameClock,PossessionTeam,Down,Distance,FieldPosition,HomeScoreBeforePlay,VisitorScoreBeforePlay,NflIdRusher,OffenseFormation,OffensePersonnel,DefendersInTheBox,DefensePersonnel,PlayDirection,TimeHandoff,TimeSnap,PlayerHeight,PlayerWeight,PlayerBirthDate,PlayerCollegeName,Position,HomeTeamAbbr,VisitorTeamAbbr,Week,Stadium,Location,StadiumType,Turf,GameWeather,Temperature,Humidity,WindSpeed,WindDirection
55836,2019092909,20190929090091,away,66.19,23.18,2.15,0.71,0.21,135.05,341.97,2507716,Demar Dotson,69,2019,43,1,14:25:00,TB,1,10,LA,0,0,2556466,SINGLEBACK,"1 RB, 2 TE, 2 WR",8,"4 DL, 3 LB, 4 DB",right,2019-09-29T20:07:20.000Z,2019-09-29T20:07:18.000Z,6-9,315,10/11/1985,Southern Mississippi,OT,LA,TB,4,Los Angeles Memorial Coliseum,"Los Angeles, Calif.",Outdoor,Grass,Mostly Sunny,74.0,41,2,SW
55837,2019092909,20190929090091,away,67.6,24.15,1.26,1.25,0.12,118.87,25.19,2541159,Ryan Jensen,66,2019,43,1,14:25:00,TB,1,10,LA,0,0,2556466,SINGLEBACK,"1 RB, 2 TE, 2 WR",8,"4 DL, 3 LB, 4 DB",right,2019-09-29T20:07:20.000Z,2019-09-29T20:07:18.000Z,6-4,319,05/27/1991,Colorado State-Pueblo,C,LA,TB,4,Los Angeles Memorial Coliseum,"Los Angeles, Calif.",Outdoor,Grass,Mostly Sunny,74.0,41,2,SW
55838,2019092909,20190929090091,away,69.9,33.68,5.02,1.02,0.5,94.57,81.49,2543468,Mike Evans,13,2019,43,1,14:25:00,TB,1,10,LA,0,0,2556466,SINGLEBACK,"1 RB, 2 TE, 2 WR",8,"4 DL, 3 LB, 4 DB",right,2019-09-29T20:07:20.000Z,2019-09-29T20:07:18.000Z,6-5,231,08/21/1993,Texas A&M,WR,LA,TB,4,Los Angeles Memorial Coliseum,"Los Angeles, Calif.",Outdoor,Grass,Mostly Sunny,74.0,41,2,SW
55839,2019092909,20190929090091,away,62.31,23.8,4.29,1.32,0.43,295.68,258.94,2552033,Jameis Winston,3,2019,43,1,14:25:00,TB,1,10,LA,0,0,2556466,SINGLEBACK,"1 RB, 2 TE, 2 WR",8,"4 DL, 3 LB, 4 DB",right,2019-09-29T20:07:20.000Z,2019-09-29T20:07:18.000Z,6-4,231,01/06/1994,Florida State,QB,LA,TB,4,Los Angeles Memorial Coliseum,"Los Angeles, Calif.",Outdoor,Grass,Mostly Sunny,74.0,41,2,SW
55840,2019092909,20190929090091,away,66.94,25.37,0.33,1.5,0.03,21.52,294.14,2552332,Ali Marpet,74,2019,43,1,14:25:00,TB,1,10,LA,0,0,2556466,SINGLEBACK,"1 RB, 2 TE, 2 WR",8,"4 DL, 3 LB, 4 DB",right,2019-09-29T20:07:20.000Z,2019-09-29T20:07:18.000Z,6-4,307,04/17/1993,Hobart,G,LA,TB,4,Los Angeles Memorial Coliseum,"Los Angeles, Calif.",Outdoor,Grass,Mostly Sunny,74.0,41,2,SW
55841,2019092909,20190929090091,away,67.93,26.4,1.52,1.02,0.16,125.12,79.1,2552460,Donovan Smith,76,2019,43,1,14:25:00,TB,1,10,LA,0,0,2556466,SINGLEBACK,"1 RB, 2 TE, 2 WR",8,"4 DL, 3 LB, 4 DB",right,2019-09-29T20:07:20.000Z,2019-09-29T20:07:18.000Z,6-6,338,06/23/1993,Penn State,T,LA,TB,4,Los Angeles Memorial Coliseum,"Los Angeles, Calif.",Outdoor,Grass,Mostly Sunny,74.0,41,2,SW
55842,2019092909,20190929090091,away,62.35,24.88,4.29,2.41,0.41,69.06,68.64,2556466,Peyton Barber,25,2019,43,1,14:25:00,TB,1,10,LA,0,0,2556466,SINGLEBACK,"1 RB, 2 TE, 2 WR",8,"4 DL, 3 LB, 4 DB",right,2019-09-29T20:07:20.000Z,2019-09-29T20:07:18.000Z,5-11,225,02/27/1994,Auburn,RB,LA,TB,4,Los Angeles Memorial Coliseum,"Los Angeles, Calif.",Outdoor,Grass,Mostly Sunny,74.0,41,2,SW
55843,2019092909,20190929090091,away,65.65,29.56,0.45,1.36,0.05,11.51,334.65,2557856,O.J. Howard,80,2019,43,1,14:25:00,TB,1,10,LA,0,0,2556466,SINGLEBACK,"1 RB, 2 TE, 2 WR",8,"4 DL, 3 LB, 4 DB",right,2019-09-29T20:07:20.000Z,2019-09-29T20:07:18.000Z,6-6,250,11/18/1994,Alabama,TE,LA,TB,4,Los Angeles Memorial Coliseum,"Los Angeles, Calif.",Outdoor,Grass,Mostly Sunny,74.0,41,2,SW
55844,2019092909,20190929090091,away,68.5,10.31,5.36,1.51,0.53,56.44,62.12,2558105,Chris Godwin,12,2019,43,1,14:25:00,TB,1,10,LA,0,0,2556466,SINGLEBACK,"1 RB, 2 TE, 2 WR",8,"4 DL, 3 LB, 4 DB",right,2019-09-29T20:07:20.000Z,2019-09-29T20:07:18.000Z,6-1,209,02/27/1996,Penn State,WR,LA,TB,4,Los Angeles Memorial Coliseum,"Los Angeles, Calif.",Outdoor,Grass,Mostly Sunny,74.0,41,2,SW
55845,2019092909,20190929090091,away,66.97,21.51,2.46,1.08,0.25,89.7,35.0,2559044,Antony Auclair,82,2019,43,1,14:25:00,TB,1,10,LA,0,0,2556466,SINGLEBACK,"1 RB, 2 TE, 2 WR",8,"4 DL, 3 LB, 4 DB",right,2019-09-29T20:07:20.000Z,2019-09-29T20:07:18.000Z,6-6,256,05/28/1993,"Laval, Can.",TE,LA,TB,4,Los Angeles Memorial Coliseum,"Los Angeles, Calif.",Outdoor,Grass,Mostly Sunny,74.0,41,2,SW
55846,2019092909,20190929090091,away,66.67,26.52,4.38,1.52,0.45,34.6,20.87,2560991,Alex Cappa,65,2019,43,1,14:25:00,TB,1,10,LA,0,0,2556466,SINGLEBACK,"1 RB, 2 TE, 2 WR",8,"4 DL, 3 LB, 4 DB",right,2019-09-29T20:07:20.000Z,2019-09-29T20:07:18.000Z,6-6,305,01/27/1995,Humboldt State,G,LA,TB,4,Los Angeles Memorial Coliseum,"Los Angeles, Calif.",Outdoor,Grass,Mostly Sunny,74.0,41,2,SW
55847,2019092909,20190929090091,home,76.77,10.12,2.58,2.06,0.26,342.51,37.05,1302,Aqib Talib,21,2019,43,1,14:25:00,TB,1,10,LA,0,0,2556466,SINGLEBACK,"1 RB, 2 TE, 2 WR",8,"4 DL, 3 LB, 4 DB",right,2019-09-29T20:07:20.000Z,2019-09-29T20:07:18.000Z,6-1,209,02/13/1986,Kansas,CB,LA,TB,4,Los Angeles Memorial Coliseum,"Los Angeles, Calif.",Outdoor,Grass,Mostly Sunny,74.0,41,2,SW
55848,2019092909,20190929090091,home,68.43,18.18,1.36,0.9,0.13,325.34,38.37,80431,Clay Matthews,52,2019,43,1,14:25:00,TB,1,10,LA,0,0,2556466,SINGLEBACK,"1 RB, 2 TE, 2 WR",8,"4 DL, 3 LB, 4 DB",right,2019-09-29T20:07:20.000Z,2019-09-29T20:07:18.000Z,6-3,255,05/14/1986,Southern California,OLB,LA,TB,4,Los Angeles Memorial Coliseum,"Los Angeles, Calif.",Outdoor,Grass,Mostly Sunny,74.0,41,2,SW
55849,2019092909,20190929090091,home,82.75,30.21,3.06,1.95,0.3,309.52,37.02,2495775,Eric Weddle,32,2019,43,1,14:25:00,TB,1,10,LA,0,0,2556466,SINGLEBACK,"1 RB, 2 TE, 2 WR",8,"4 DL, 3 LB, 4 DB",right,2019-09-29T20:07:20.000Z,2019-09-29T20:07:18.000Z,5-11,195,01/04/1985,Utah,FS,LA,TB,4,Los Angeles Memorial Coliseum,"Los Angeles, Calif.",Outdoor,Grass,Mostly Sunny,74.0,41,2,SW
55850,2019092909,20190929090091,home,67.07,23.17,1.59,0.58,0.16,312.62,329.82,2533050,Michael Brockers,90,2019,43,1,14:25:00,TB,1,10,LA,0,0,2556466,SINGLEBACK,"1 RB, 2 TE, 2 WR",8,"4 DL, 3 LB, 4 DB",right,2019-09-29T20:07:20.000Z,2019-09-29T20:07:18.000Z,6-5,305,12/21/1990,Louisiana State,DT,LA,TB,4,Los Angeles Memorial Coliseum,"Los Angeles, Calif.",Outdoor,Grass,Mostly Sunny,74.0,41,2,SW
55851,2019092909,20190929090091,home,67.54,25.78,0.71,1.25,0.08,255.07,328.2,2543485,Aaron Donald,99,2019,43,1,14:25:00,TB,1,10,LA,0,0,2556466,SINGLEBACK,"1 RB, 2 TE, 2 WR",8,"4 DL, 3 LB, 4 DB",right,2019-09-29T20:07:20.000Z,2019-09-29T20:07:18.000Z,6-1,280,05/23/1991,Pittsburgh,DT,LA,TB,4,Los Angeles Memorial Coliseum,"Los Angeles, Calif.",Outdoor,Grass,Mostly Sunny,74.0,41,2,SW
55852,2019092909,20190929090091,home,69.62,25.9,2.83,1.47,0.28,252.31,330.97,2552307,Bryce Hager,54,2019,43,1,14:25:00,TB,1,10,LA,0,0,2556466,SINGLEBACK,"1 RB, 2 TE, 2 WR",8,"4 DL, 3 LB, 4 DB",right,2019-09-29T20:07:20.000Z,2019-09-29T20:07:18.000Z,6-1,237,05/04/1992,Baylor,ILB,LA,TB,4,Los Angeles Memorial Coliseum,"Los Angeles, Calif.",Outdoor,Grass,Mostly Sunny,74.0,41,2,SW
55853,2019092909,20190929090091,home,71.2,33.57,2.49,0.7,0.25,275.49,85.56,2552488,Marcus Peters,22,2019,43,1,14:25:00,TB,1,10,LA,0,0,2556466,SINGLEBACK,"1 RB, 2 TE, 2 WR",8,"4 DL, 3 LB, 4 DB",right,2019-09-29T20:07:20.000Z,2019-09-29T20:07:18.000Z,6-0,197,01/09/1993,Washington,CB,LA,TB,4,Los Angeles Memorial Coliseum,"Los Angeles, Calif.",Outdoor,Grass,Mostly Sunny,74.0,41,2,SW
55854,2019092909,20190929090091,home,65.76,30.4,1.24,2.32,0.12,185.56,279.93,2553431,Dante Fowler,56,2019,43,1,14:25:00,TB,1,10,LA,0,0,2556466,SINGLEBACK,"1 RB, 2 TE, 2 WR",8,"4 DL, 3 LB, 4 DB",right,2019-09-29T20:07:20.000Z,2019-09-29T20:07:18.000Z,6-3,255,08/03/1994,Florida,OLB,LA,TB,4,Los Angeles Memorial Coliseum,"Los Angeles, Calif.",Outdoor,Grass,Mostly Sunny,74.0,41,2,SW
55855,2019092909,20190929090091,home,69.19,29.57,1.9,1.42,0.19,250.97,306.82,2556593,Cory Littleton,58,2019,43,1,14:25:00,TB,1,10,LA,0,0,2556466,SINGLEBACK,"1 RB, 2 TE, 2 WR",8,"4 DL, 3 LB, 4 DB",right,2019-09-29T20:07:20.000Z,2019-09-29T20:07:18.000Z,6-3,228,11/18/1993,Washington,ILB,LA,TB,4,Los Angeles Memorial Coliseum,"Los Angeles, Calif.",Outdoor,Grass,Mostly Sunny,74.0,41,2,SW
55856,2019092909,20190929090091,home,72.4,19.31,0.68,0.62,0.07,256.07,99.45,2558183,John Johnson,43,2019,43,1,14:25:00,TB,1,10,LA,0,0,2556466,SINGLEBACK,"1 RB, 2 TE, 2 WR",8,"4 DL, 3 LB, 4 DB",right,2019-09-29T20:07:20.000Z,2019-09-29T20:07:18.000Z,6-0,209,12/19/1995,Boston College,SS,LA,TB,4,Los Angeles Memorial Coliseum,"Los Angeles, Calif.",Outdoor,Grass,Mostly Sunny,74.0,41,2,SW
55857,2019092909,20190929090091,home,68.15,23.98,1.07,0.89,0.11,337.43,14.34,2561079,Sebastian Joseph-Day,69,2019,43,1,14:25:00,TB,1,10,LA,0,0,2556466,SINGLEBACK,"1 RB, 2 TE, 2 WR",8,"4 DL, 3 LB, 4 DB",right,2019-09-29T20:07:20.000Z,2019-09-29T20:07:18.000Z,6-4,310,03/21/1995,Rutgers,DT,LA,TB,4,Los Angeles Memorial Coliseum,"Los Angeles, Calif.",Outdoor,Grass,Mostly Sunny,74.0,41,2,SW
