,GameId,PlayId,Team,X,Y,S,A,Dis,Orientation,Dir,NflId,DisplayName,JerseyNumber,Season,YardLine,Quarter,GameClock,PossessionTeam,Down,Distance,FieldPosition,HomeScoreBeforePlay,VisitorScoreBeforePlay,NflIdRusher,OffenseFormation,OffensePersonnel,DefendersInTheBox,DefensePersonnel,PlayDirection,TimeHandoff,TimeSnap,PlayerHeight,PlayerWeight,PlayerBirthDate,PlayerCollegeName,Position,HomeTeamAbbr,VisitorTeamAbbr,Week,Stadium,Location,StadiumType,Turf,GameWeather,Temperature,Humidity,WindSpeed,WindDirection
7260,2019090807,20190908070431,away,105.29,9.77,2.26,1.03,0.22,341.29,83.1,2543811,Pierre Desir,35,2019,9,1,05:02:00,LAC,1,9,IND,0,0,2560756,SINGLEBACK,"1 RB, 1 TE, 3 WR",6,"4 DL, 2 LB, 5 DB",right,2019-09-08T20:20:06.000Z,2019-09-08T20:20:05.000Z,6-1,192,09/08/1990,Lindenwood,CB,LAC,IND,1,Dignity Health Sports Park,"Carson, CA",,Grass,Sunny,77.0,52,10,SW
7261,2019090807,20190908070431,away,110.88,17.24,0.83,0.78,0.08,253.1,2.17,2552386,Clayton Geathers,26,2019,9,1,05:02:00,LAC,1,9,IND,0,0,2560756,SINGLEBACK,"1 RB, 1 TE, 3 WR",6,"4 DL, 2 LB, 5 DB",right,2019-09-08T20:20:06.000Z,2019-09-08T20:20:05.000Z,6-2,216,06/01/1992,Central Florida,FS,LAC,IND,1,Dignity Health Sports Park,"Carson, CA",,Grass,Sunny,77.0,52,10,SW
7262,2019090807,20190908070431,away,101.07,24.68,0.71,1.34,0.08,302.57,317.92,2555248,Jihad Ward,51,2019,9,1,05:02:00,LAC,1,9,IND,0,0,2560756,SINGLEBACK,"1 RB, 1 TE, 3 WR",6,"4 DL, 2 LB, 5 DB",right,2019-09-08T20:20:06.000Z,2019-09-08T20:20:05.000Z,6-5,287,05/11/1994,Illinois,DT,LAC,IND,1,Dignity Health Sports Park,"Carson, CA",,Grass,Sunny,77.0,52,10,SW
7263,2019090807,20190908070431,away,111.02,29.74,0.47,1.34,0.05,317.93,42.0,2558060,Malik Hooker,29,2019,9,1,05:02:00,LAC,1,9,IND,0,0,2560756,SINGLEBACK,"1 RB, 1 TE, 3 WR",6,"4 DL, 2 LB, 5 DB",right,2019-09-08T20:20:06.000Z,2019-09-08T20:20:05.000Z,6-1,212,04/02/1996,Ohio State,FS,LAC,IND,1,Dignity Health Sports Park,"Carson, CA",,Grass,Sunny,77.0,52,10,SW
7264,2019090807,20190908070431,away,101.14,26.05,0.09,0.4,0.01,257.02,69.37,2558766,Grover Stewart,90,2019,9,1,05:02:00,LAC,1,9,IND,0,0,2560756,SINGLEBACK,"1 RB, 1 TE, 3 WR",6,"4 DL, 2 LB, 5 DB",right,2019-09-08T20:20:06.000Z,2019-09-08T20:20:05.000Z,6-4,315,10/20/1993,"Albany State, Ga.",DT,LAC,IND,1,Dignity Health Sports Park,"Carson, CA",,Grass,Sunny,77.0,52,10,SW
7265,2019090807,20190908070431,away,104.35,22.21,1.43,1.7,0.14,288.52,285.86,2558851,Anthony Walker,50,2019,9,1,05:02:00,LAC,1,9,IND,0,0,2560756,SINGLEBACK,"1 RB, 1 TE, 3 WR",6,"4 DL, 2 LB, 5 DB",right,2019-09-08T20:20:06.000Z,2019-09-08T20:20:05.000Z,6-1,230,08/08/1995,Northwestern,ILB,LAC,IND,1,Dignity Health Sports Park,"Carson, CA",,Grass,Sunny,77.0,52,10,SW
7266,2019090807,20190908070431,away,104.53,17.64,1.26,2.36,0.12,273.38,350.15,2558976,Kenny Moore,23,2019,9,1,05:02:00,LAC,1,9,IND,0,0,2560756,SINGLEBACK,"1 RB, 1 TE, 3 WR",6,"4 DL, 2 LB, 5 DB",right,2019-09-08T20:20:06.000Z,2019-09-08T20:20:05.000Z,5-9,190,08/23/1995,Valdosta State,CB,LAC,IND,1,Dignity Health Sports Park,"Carson, CA",,Grass,Sunny,77.0,52,10,SW
7267,2019090807,20190908070431,away,103.73,27.11,1.42,0.27,0.14,276.5,293.5,2560789,Darius Leonard,53,2019,9,1,05:02:00,LAC,1,9,IND,0,0,2560756,SINGLEBACK,"1 RB, 1 TE, 3 WR",6,"4 DL, 2 LB, 5 DB",right,2019-09-08T20:20:06.000Z,2019-09-08T20:20:05.000Z,6-2,230,07/27/1995,South Carolina State,LB,LAC,IND,1,Dignity Health Sports Park,"Carson, CA",,Grass,Sunny,77.0,52,10,SW
7268,2019090807,20190908070431,away,100.98,27.55,0.3,2.26,0.03,239.79,142.64,2560905,Kemoko Turay,57,2019,9,1,05:02:00,LAC,1,9,IND,0,0,2560756,SINGLEBACK,"1 RB, 1 TE, 3 WR",6,"4 DL, 2 LB, 5 DB",right,2019-09-08T20:20:06.000Z,2019-09-08T20:20:05.000Z,6-5,248,07/11/1995,Rutgers,DE,LAC,IND,1,Dignity Health Sports Park,"Carson, CA",,Grass,Sunny,77.0,52,10,SW
7269,2019090807,20190908070431,away,101.59,22.02,4.51,1.36,0.45,288.17,350.98,2562229,Ben Banogu,52,2019,9,1,05:02:00,LAC,1,9,IND,0,0,2560756,SINGLEBACK,"1 RB, 1 TE, 3 WR",6,"4 DL, 2 LB, 5 DB",right,2019-09-08T20:20:06.000Z,2019-09-08T20:20:05.000Z,6-3,252,01/19/1996,Texas Christian,DE,LAC,IND,1,Dignity Health Sports Park,"Carson, CA",,Grass,Sunny,77.0,52,10,SW
7270,2019090807,20190908070431,away,105.79,33.07,0.35,1.94,0.04,250.23,288.63,2562614,Rock Ya-Sin,34,2019,9,1,05:02:00,LAC,1,9,IND,0,0,2560756,SINGLEBACK,"1 RB, 1 TE, 3 WR",6,"4 DL, 2 LB, 5 DB",right,2019-09-08T20:20:06.000Z,2019-09-08T20:20:05.000Z,6-0,190,05/23/1996,Temple,DB,LAC,IND,1,Dignity Health Sports Park,"Carson, CA",,Grass,Sunny,77.0,52,10,SW
7271,2019090807,20190908070431,home,100.77,24.1,0.47,1.18,0.06,351.27,316.77,2495216,Mike Pouncey,53,2019,9,1,05:02:00,LAC,1,9,IND,0,0,2560756,SINGLEBACK,"1 RB, 1 TE, 3 WR",6,"4 DL, 2 LB, 5 DB",right,2019-09-08T20:20:06.000Z,2019-09-08T20:20:05.000Z,6-5,298,07/24/1989,Florida,C,LAC,IND,1,Dignity Health Sports Park,"Carson, CA",,Grass,Sunny,77.0,52,10,SW
7272,2019090807,20190908070431,home,96.96,24.38,4.24,0.85,0.42,352.68,282.59,2506121,Philip Rivers,17,2019,9,1,05:02:00,LAC,1,9,IND,0,0,2560756,SINGLEBACK,"1 RB, 1 TE, 3 WR",6,"4 DL, 2 LB, 5 DB",right,2019-09-08T20:20:06.000Z,2019-09-08T20:20:05.000Z,6-5,228,12/08/1981,North Carolina State,QB,LAC,IND,1,Dignity Health Sports Park,"Carson, CA",,Grass,Sunny,77.0,52,10,SW
7273,2019090807,20190908070431,home,100.91,17.0,4.25,2.69,0.41,74.25,55.88,2532790,Travis Benjamin,12,2019,9,1,05:02:00,LAC,1,9,IND,0,0,2560756,SINGLEBACK,"1 RB, 1 TE, 3 WR",6,"4 DL, 2 LB, 5 DB",right,2019-09-08T20:20:06.000Z,2019-09-08T20:20:05.000Z,5-10,175,12/29/1989,Miami,WR,LAC,IND,1,Dignity Health Sports Park,"Carson, CA",,Grass,Sunny,77.0,52,10,SW
7274,2019090807,20190908070431,home,102.64,30.15,3.3,1.61,0.33,67.53,80.38,2540154,Keenan Allen,13,2019,9,1,05:02:00,LAC,1,9,IND,0,0,2560756,SINGLEBACK,"1 RB, 1 TE, 3 WR",6,"4 DL, 2 LB, 5 DB",right,2019-09-08T20:20:06.000Z,2019-09-08T20:20:05.000Z,6-2,211,04/27/1992,California,WR,LAC,IND,1,Dignity Health Sports Park,"Carson, CA",,Grass,Sunny,77.0,52,10,SW
7275,2019090807,20190908070431,home,102.44,23.45,2.91,1.44,0.3,108.46,75.1,2543732,Michael Schofield,75,2019,9,1,05:02:00,LAC,1,9,IND,0,0,2560756,SINGLEBACK,"1 RB, 1 TE, 3 WR",6,"4 DL, 2 LB, 5 DB",right,2019-09-08T20:20:06.000Z,2019-09-08T20:20:05.000Z,6-6,301,11/15/1990,Michigan,G,LAC,IND,1,Dignity Health Sports Park,"Carson, CA",,Grass,Sunny,77.0,52,10,SW
7276,2019090807,20190908070431,home,100.06,27.21,1.33,1.76,0.14,76.24,122.61,2555341,Hunter Henry,86,2019,9,1,05:02:00,LAC,1,9,IND,0,0,2560756,SINGLEBACK,"1 RB, 1 TE, 3 WR",6,"4 DL, 2 LB, 5 DB",right,2019-09-08T20:20:06.000Z,2019-09-08T20:20:05.000Z,6-5,250,12/07/1994,Arkansas,TE,LAC,IND,1,Dignity Health Sports Park,"Carson, CA",,Grass,Sunny,77.0,52,10,SW
7277,2019090807,20190908070431,home,100.46,25.36,0.3,1.3,0.04,123.98,99.14,2557873,Dan Feeney,66,2019,9,1,05:02:00,LAC,1,9,IND,0,0,2560756,SINGLEBACK,"1 RB, 1 TE, 3 WR",6,"4 DL, 2 LB, 5 DB",right,2019-09-08T20:20:06.000Z,2019-09-08T20:20:05.000Z,6-4,310,05/29/1994,Indiana,G,LAC,IND,1,Dignity Health Sports Park,"Carson, CA",,Grass,Sunny,77.0,52,10,SW
7278,2019090807,20190908070431,home,100.81,21.46,1.64,1.93,0.19,110.92,8.8,2558026,Sam Tevi,69,2019,9,1,05:02:00,LAC,1,9,IND,0,0,2560756,SINGLEBACK,"1 RB, 1 TE, 3 WR",6,"4 DL, 2 LB, 5 DB",right,2019-09-08T20:20:06.000Z,2019-09-08T20:20:05.000Z,6-5,315,11/15/1994,Utah,T,LAC,IND,1,Dignity Health Sports Park,"Carson, CA",,Grass,Sunny,77.0,52,10,SW
7279,2019090807,20190908070431,home,102.1,11.41,3.73,1.57,0.37,78.07,80.29,2558846,Mike Williams,81,2019,9,1,05:02:00,LAC,1,9,IND,0,0,2560756,SINGLEBACK,"1 RB, 1 TE, 3 WR",6,"4 DL, 2 LB, 5 DB",right,2019-09-08T20:20:06.000Z,2019-09-08T20:20:05.000Z,6-4,218,10/04/1994,Clemson,WR,LAC,IND,1,Dignity Health Sports Park,"Carson, CA",,Grass,Sunny,77.0,52,10,SW
7280,2019090807,20190908070431,home,95.76,25.07,3.55,2.84,0.34,79.63,74.85,2560756,Justin Jackson,22,2019,9,1,05:02:00,LAC,1,9,IND,0,0,2560756,SINGLEBACK,"1 RB, 1 TE, 3 WR",6,"4 DL, 2 LB, 5 DB",right,2019-09-08T20:20:06.000Z,2019-09-08T20:20:05.000Z,6-0,200,04/22/1996,Northwestern,RB,LAC,IND,1,Dignity Health Sports Park,"Carson, CA",,Grass,Sunny,77.0,52,10,SW
7281,2019090807,20190908070431,home,100.55,26.24,0.86,1.98,0.08,95.3,121.95,2561544,Trent Scott,78,2019,9,1,05:02:00,LAC,1,9,IND,0,0,2560756,SINGLEBACK,"1 RB, 1 TE, 3 WR",6,"4 DL, 2 LB, 5 DB",right,2019-09-08T20:20:06.000Z,2019-09-08T20:20:05.000Z,6-5,320,01/25/1994,Grambling,T,LAC,IND,1,Dignity Health Sports Park,"Carson, CA",,Grass,Sunny,77.0,52,10,SW
