,GameId,PlayId,Team,X,Y,S,A,Dis,Orientation,Dir,NflId,DisplayName,JerseyNumber,Season,YardLine,Quarter,GameClock,PossessionTeam,Down,Distance,FieldPosition,HomeScoreBeforePlay,VisitorScoreBeforePlay,NflIdRusher,OffenseFormation,OffensePersonnel,DefendersInTheBox,DefensePersonnel,PlayDirection,TimeHandoff,TimeSnap,PlayerHeight,PlayerWeight,PlayerBirthDate,PlayerCollegeName,Position,HomeTeamAbbr,VisitorTeamAbbr,Week,Stadium,Location,StadiumType,Turf,GameWeather,Temperature,Humidity,WindSpeed,WindDirection
43120,2019092212,20190922120981,away,29.1,31.35,1.52,0.45,0.17,124.59,57.82,81821,Ramon Foster,73,2019,19,2,14:12:00,PIT,1,10,PIT,0,6,2557978,PISTOL,"1 RB, 2 TE, 2 WR",8,"4 DL, 3 LB, 4 DB",right,2019-09-22T21:03:35.000Z,2019-09-22T21:03:34.000Z,6-5,328,01/07/1986,Tennessee,G,SF,PIT,3,Levis Stadium,"Santa Clara, CSA",Outdoor,Natural grass,partly cloudy,79.0,36,3,NW
43121,2019092212,20190922120981,away,28.1,30.47,0.67,0.56,0.1,78.18,9.07,497042,Maurkice Pouncey,53,2019,19,2,14:12:00,PIT,1,10,PIT,0,6,2557978,PISTOL,"1 RB, 2 TE, 2 WR",8,"4 DL, 3 LB, 4 DB",right,2019-09-22T21:03:35.000Z,2019-09-22T21:03:34.000Z,6-4,304,07/24/1989,Florida,C,SF,PIT,3,Levis Stadium,"Santa Clara, CSA",Outdoor,Natural grass,partly cloudy,79.0,36,3,NW
43122,2019092212,20190922120981,away,28.78,28.76,1.49,0.4,0.15,122.27,42.2,2533043,David DeCastro,66,2019,19,2,14:12:00,PIT,1,10,PIT,0,6,2557978,PISTOL,"1 RB, 2 TE, 2 WR",8,"4 DL, 3 LB, 4 DB",right,2019-09-22T21:03:35.000Z,2019-09-22T21:03:34.000Z,6-5,316,01/11/1990,Stanford,G,SF,PIT,3,Levis Stadium,"Santa Clara, CSA",Outdoor,Natural grass,partly cloudy,79.0,36,3,NW
43123,2019092212,20190922120981,away,28.02,33.74,0.33,2.06,0.03,110.71,200.84,2540215,Vance McDonald,89,2019,19,2,14:12:00,PIT,1,10,PIT,0,6,2557978,PISTOL,"1 RB, 2 TE, 2 WR",8,"4 DL, 3 LB, 4 DB",right,2019-09-22T21:03:35.000Z,2019-09-22T21:03:34.000Z,6-4,267,06/13/1990,Rice,TE,SF,PIT,3,Levis Stadium,"Santa Clara, CSA",Outdoor,Natural grass,partly cloudy,79.0,36,3,NW
43124,2019092212,20190922120981,away,29.34,31.95,2.51,0.22,0.25,115.26,98.01,2550130,Alejandro Villanueva,78,2019,19,2,14:12:00,PIT,1,10,PIT,0,6,2557978,PISTOL,"1 RB, 2 TE, 2 WR",8,"4 DL, 3 LB, 4 DB",right,2019-09-22T21:03:35.000Z,2019-09-22T21:03:34.000Z,6-9,320,09/22/1988,Army,T,SF,PIT,3,Levis Stadium,"Santa Clara, CSA",Outdoor,Natural grass,partly cloudy,79.0,36,3,NW
43125,2019092212,20190922120981,away,26.46,24.7,3.17,2.97,0.31,128.52,311.06,2550521,Xavier Grimble,85,2019,19,2,14:12:00,PIT,1,10,PIT,0,6,2557978,PISTOL,"1 RB, 2 TE, 2 WR",8,"4 DL, 3 LB, 4 DB",right,2019-09-22T21:03:35.000Z,2019-09-22T21:03:34.000Z,6-4,261,09/22/1992,USC,TE,SF,PIT,3,Levis Stadium,"Santa Clara, CSA",Outdoor,Natural grass,partly cloudy,79.0,36,3,NW
43126,2019092212,20190922120981,away,28.02,27.84,1.48,0.85,0.16,72.64,36.6,2550561,Matt Feiler,71,2019,19,2,14:12:00,PIT,1,10,PIT,0,6,2557978,PISTOL,"1 RB, 2 TE, 2 WR",8,"4 DL, 3 LB, 4 DB",right,2019-09-22T21:03:35.000Z,2019-09-22T21:03:34.000Z,6-6,330,07/07/1992,Bloomsburg,T,SF,PIT,3,Levis Stadium,"Santa Clara, CSA",Outdoor,Natural grass,partly cloudy,79.0,36,3,NW
43127,2019092212,20190922120981,away,24.04,31.36,5.75,1.24,0.57,64.49,63.68,2557978,James Conner,30,2019,19,2,14:12:00,PIT,1,10,PIT,0,6,2557978,PISTOL,"1 RB, 2 TE, 2 WR",8,"4 DL, 3 LB, 4 DB",right,2019-09-22T21:03:35.000Z,2019-09-22T21:03:34.000Z,6-1,233,05/05/1995,Pittsburgh,RB,SF,PIT,3,Levis Stadium,"Santa Clara, CSA",Outdoor,Natural grass,partly cloudy,79.0,36,3,NW
43128,2019092212,20190922120981,away,30.12,46.3,4.41,2.14,0.43,135.87,41.86,2558149,JuJu Smith-Schuster,19,2019,19,2,14:12:00,PIT,1,10,PIT,0,6,2557978,PISTOL,"1 RB, 2 TE, 2 WR",8,"4 DL, 3 LB, 4 DB",right,2019-09-22T21:03:35.000Z,2019-09-22T21:03:34.000Z,6-1,215,11/22/1996,Southern California,WR,SF,PIT,3,Levis Stadium,"Santa Clara, CSA",Outdoor,Natural grass,partly cloudy,79.0,36,3,NW
43129,2019092212,20190922120981,away,23.38,30.44,1.99,1.49,0.21,8.83,337.81,2560860,Mason Rudolph,2,2019,19,2,14:12:00,PIT,1,10,PIT,0,6,2557978,PISTOL,"1 RB, 2 TE, 2 WR",8,"4 DL, 3 LB, 4 DB",right,2019-09-22T21:03:35.000Z,2019-09-22T21:03:34.000Z,6-5,235,07/17/1995,Oklahoma State,QB,SF,PIT,3,Levis Stadium,"Santa Clara, CSA",Outdoor,Natural grass,partly cloudy,79.0,36,3,NW
43130,2019092212,20190922120981,away,30.19,39.02,5.25,2.87,0.51,85.2,55.97,2560920,James Washington,13,2019,19,2,14:12:00,PIT,1,10,PIT,0,6,2557978,PISTOL,"1 RB, 2 TE, 2 WR",8,"4 DL, 3 LB, 4 DB",right,2019-09-22T21:03:35.000Z,2019-09-22T21:03:34.000Z,5-11,213,04/02/1996,Oklahoma State,WR,SF,PIT,3,Levis Stadium,"Santa Clara, CSA",Outdoor,Natural grass,partly cloudy,79.0,36,3,NW
43131,2019092212,20190922120981,home,31.53,38.37,4.5,2.93,0.44,340.47,61.15,2495507,Richard Sherman,25,2019,19,2,14:12:00,PIT,1,10,PIT,0,6,2557978,PISTOL,"1 RB, 2 TE, 2 WR",8,"4 DL, 3 LB, 4 DB",right,2019-09-22T21:03:35.000Z,2019-09-22T21:03:34.000Z,6-3,195,03/30/1988,Stanford,CB,SF,PIT,3,Levis Stadium,"Santa Clara, CSA",Outdoor,Natural grass,partly cloudy,79.0,36,3,NW
43132,2019092212,20190922120981,home,29.68,34.78,1.74,3.17,0.17,255.61,212.83,2552391,Jaquiski Tartt,29,2019,19,2,14:12:00,PIT,1,10,PIT,0,6,2557978,PISTOL,"1 RB, 2 TE, 2 WR",8,"4 DL, 3 LB, 4 DB",right,2019-09-22T21:03:35.000Z,2019-09-22T21:03:34.000Z,6-1,215,02/12/1992,Samford,FS,SF,PIT,3,Levis Stadium,"Santa Clara, CSA",Outdoor,Natural grass,partly cloudy,79.0,36,3,NW
43133,2019092212,20190922120981,home,29.25,24.73,1.65,2.53,0.16,289.56,294.56,2552592,Kwon Alexander,56,2019,19,2,14:12:00,PIT,1,10,PIT,0,6,2557978,PISTOL,"1 RB, 2 TE, 2 WR",8,"4 DL, 3 LB, 4 DB",right,2019-09-22T21:03:35.000Z,2019-09-22T21:03:34.000Z,6-1,227,08/03/1994,Louisiana State,MLB,SF,PIT,3,Levis Stadium,"Santa Clara, CSA",Outdoor,Natural grass,partly cloudy,79.0,36,3,NW
43134,2019092212,20190922120981,home,28.95,30.69,0.93,0.99,0.09,251.52,357.07,2555241,Sheldon Day,96,2019,19,2,14:12:00,PIT,1,10,PIT,0,6,2557978,PISTOL,"1 RB, 2 TE, 2 WR",8,"4 DL, 3 LB, 4 DB",right,2019-09-22T21:03:35.000Z,2019-09-22T21:03:34.000Z,6-1,294,07/01/1994,Notre Dame,DT,SF,PIT,3,Levis Stadium,"Santa Clara, CSA",Outdoor,Natural grass,partly cloudy,79.0,36,3,NW
43135,2019092212,20190922120981,home,26.55,24.02,3.17,2.2,0.32,303.9,312.75,2555251,Ronald Blair,98,2019,19,2,14:12:00,PIT,1,10,PIT,0,6,2557978,PISTOL,"1 RB, 2 TE, 2 WR",8,"4 DL, 3 LB, 4 DB",right,2019-09-22T21:03:35.000Z,2019-09-22T21:03:34.000Z,6-4,270,01/21/1993,Appalachian State,DE,SF,PIT,3,Levis Stadium,"Santa Clara, CSA",Outdoor,Natural grass,partly cloudy,79.0,36,3,NW
43136,2019092212,20190922120981,home,28.91,28.0,1.3,1.74,0.17,302.38,50.28,2555275,DeForest Buckner,99,2019,19,2,14:12:00,PIT,1,10,PIT,0,6,2557978,PISTOL,"1 RB, 2 TE, 2 WR",8,"4 DL, 3 LB, 4 DB",right,2019-09-22T21:03:35.000Z,2019-09-22T21:03:34.000Z,6-7,300,03/17/1994,Oregon,DE,SF,PIT,3,Levis Stadium,"Santa Clara, CSA",Outdoor,Natural grass,partly cloudy,79.0,36,3,NW
43137,2019092212,20190922120981,home,28.63,34.07,0.88,1.2,0.09,275.06,246.34,2558018,Solomon Thomas,94,2019,19,2,14:12:00,PIT,1,10,PIT,0,6,2557978,PISTOL,"1 RB, 2 TE, 2 WR",8,"4 DL, 3 LB, 4 DB",right,2019-09-22T21:03:35.000Z,2019-09-22T21:03:34.000Z,6-3,280,08/26/1995,Stanford,DE,SF,PIT,3,Levis Stadium,"Santa Clara, CSA",Outdoor,Natural grass,partly cloudy,79.0,36,3,NW
43138,2019092212,20190922120981,home,31.32,45.89,3.69,2.83,0.35,307.91,39.09,2558157,Ahkello Witherspoon,23,2019,19,2,14:12:00,PIT,1,10,PIT,0,6,2557978,PISTOL,"1 RB, 2 TE, 2 WR",8,"4 DL, 3 LB, 4 DB",right,2019-09-22T21:03:35.000Z,2019-09-22T21:03:34.000Z,6-3,195,03/21/1995,Colorado,CB,SF,PIT,3,Levis Stadium,"Santa Clara, CSA",Outdoor,Natural grass,partly cloudy,79.0,36,3,NW
43139,2019092212,20190922120981,home,31.71,29.53,3.04,0.68,0.29,291.03,297.94,2560917,Fred Warner,54,2019,19,2,14:12:00,PIT,1,10,PIT,0,6,2557978,PISTOL,"1 RB, 2 TE, 2 WR",8,"4 DL, 3 LB, 4 DB",right,2019-09-22T21:03:35.000Z,2019-09-22T21:03:34.000Z,6-3,236,11/19/1996,Brigham Young,LB,SF,PIT,3,Levis Stadium,"Santa Clara, CSA",Outdoor,Natural grass,partly cloudy,79.0,36,3,NW
43140,2019092212,20190922120981,home,44.94,29.83,1.8,1.02,0.18,268.97,78.04,2561117,Tarvarius Moore,33,2019,19,2,14:12:00,PIT,1,10,PIT,0,6,2557978,PISTOL,"1 RB, 2 TE, 2 WR",8,"4 DL, 3 LB, 4 DB",right,2019-09-22T21:03:35.000Z,2019-09-22T21:03:34.000Z,6-2,200,08/16/1996,Southern Mississippi,DB,SF,PIT,3,Levis Stadium,"Santa Clara, CSA",Outdoor,Natural grass,partly cloudy,79.0,36,3,NW
43141,2019092212,20190922120981,home,31.78,31.98,2.18,0.77,0.21,276.27,283.65,2562428,Dre Greenlaw,57,2019,19,2,14:12:00,PIT,1,10,PIT,0,6,2557978,PISTOL,"1 RB, 2 TE, 2 WR",8,"4 DL, 3 LB, 4 DB",right,2019-09-22T21:03:35.000Z,2019-09-22T21:03:34.000Z,6-0,225,05/25/1997,Arkansas,LB,SF,PIT,3,Levis Stadium,"Santa Clara, CSA",Outdoor,Natural grass,partly cloudy,79.0,36,3,NW
