,GameId,PlayId,Team,X,Y,S,A,Dis,Orientation,Dir,NflId,DisplayName,JerseyNumber,Season,YardLine,Quarter,GameClock,PossessionTeam,Down,Distance,FieldPosition,HomeScoreBeforePlay,VisitorScoreBeforePlay,NflIdRusher,OffenseFormation,OffensePersonnel,DefendersInTheBox,DefensePersonnel,PlayDirection,TimeHandoff,TimeSnap,PlayerHeight,PlayerWeight,PlayerBirthDate,PlayerCollegeName,Position,HomeTeamAbbr,VisitorTeamAbbr,Week,Stadium,Location,StadiumType,Turf,GameWeather,Temperature,Humidity,WindSpeed,WindDirection
1386,2019090800,20190908003490,away,38.19,34.56,4.67,1.66,0.48,30.99,14.09,2495977,Andrew Whitworth,77,2019,30,3,00:11:00,LA,1,5,LA,13,23,2555334,SINGLEBACK,"1 RB, 1 TE, 3 WR",5,"3 DL, 3 LB, 5 DB",right,2019-09-08T19:32:51.000Z,2019-09-08T19:32:49.000Z,6-7,330,12/12/1981,Louisiana State,T,CAR,LA,1,Bank of America Stadium,Charlotte North Carolina,Outdoor,Grass,Sunny,87.0,53,3,NNE
1387,2019090800,20190908003490,away,37.01,31.89,3.23,1.2,0.31,179.5,255.13,2540169,Robert Woods,17,2019,30,3,00:11:00,LA,1,5,LA,13,23,2555334,SINGLEBACK,"1 RB, 1 TE, 3 WR",5,"3 DL, 3 LB, 5 DB",right,2019-09-08T19:32:51.000Z,2019-09-08T19:32:49.000Z,6-0,193,04/10/1992,Southern California,WR,CAR,LA,1,Bank of America Stadium,Charlotte North Carolina,Outdoor,Grass,Sunny,87.0,53,3,NNE
1388,2019090800,20190908003490,away,34.29,23.37,7.35,0.62,0.74,192.43,202.17,2543498,Brandin Cooks,12,2019,30,3,00:11:00,LA,1,5,LA,13,23,2555334,SINGLEBACK,"1 RB, 1 TE, 3 WR",5,"3 DL, 3 LB, 5 DB",right,2019-09-08T19:32:51.000Z,2019-09-08T19:32:49.000Z,5-10,183,09/25/1993,Oregon State,WR,CAR,LA,1,Bank of America Stadium,Charlotte North Carolina,Outdoor,Grass,Sunny,87.0,53,3,NNE
1389,2019090800,20190908003490,away,39.93,28.03,4.19,1.7,0.42,350.11,6.52,2552363,Rob Havenstein,79,2019,30,3,00:11:00,LA,1,5,LA,13,23,2555334,SINGLEBACK,"1 RB, 1 TE, 3 WR",5,"3 DL, 3 LB, 5 DB",right,2019-09-08T19:32:51.000Z,2019-09-08T19:32:49.000Z,6-8,328,05/13/1992,Wisconsin,T,CAR,LA,1,Bank of America Stadium,Charlotte North Carolina,Outdoor,Grass,Sunny,87.0,53,3,NNE
1390,2019090800,20190908003490,away,32.38,30.93,5.81,1.94,0.57,45.64,5.94,2552475,Todd Gurley,30,2019,30,3,00:11:00,LA,1,5,LA,13,23,2555334,SINGLEBACK,"1 RB, 1 TE, 3 WR",5,"3 DL, 3 LB, 5 DB",right,2019-09-08T19:32:51.000Z,2019-09-08T19:32:49.000Z,6-1,224,08/03/1994,Georgia,RB,CAR,LA,1,Bank of America Stadium,Charlotte North Carolina,Outdoor,Grass,Sunny,87.0,53,3,NNE
1391,2019090800,20190908003490,away,40.13,30.19,5.03,0.31,0.53,1.27,15.86,2555180,Austin Blythe,66,2019,30,3,00:11:00,LA,1,5,LA,13,23,2555334,SINGLEBACK,"1 RB, 1 TE, 3 WR",5,"3 DL, 3 LB, 5 DB",right,2019-09-08T19:32:51.000Z,2019-09-08T19:32:49.000Z,6-3,300,06/16/1992,Iowa,C,CAR,LA,1,Bank of America Stadium,Charlotte North Carolina,Outdoor,Grass,Sunny,87.0,53,3,NNE
1392,2019090800,20190908003490,away,36.2,27.33,1.96,1.77,0.2,272.58,253.79,2555334,Jared Goff,16,2019,30,3,00:11:00,LA,1,5,LA,13,23,2555334,SINGLEBACK,"1 RB, 1 TE, 3 WR",5,"3 DL, 3 LB, 5 DB",right,2019-09-08T19:32:51.000Z,2019-09-08T19:32:49.000Z,6-4,223,10/14/1994,California,QB,CAR,LA,1,Bank of America Stadium,Charlotte North Carolina,Outdoor,Grass,Sunny,87.0,53,3,NNE
1393,2019090800,20190908003490,away,38.26,19.61,2.49,1.65,0.25,164.34,185.92,2555364,Tyler Higbee,89,2019,30,3,00:11:00,LA,1,5,LA,13,23,2555334,SINGLEBACK,"1 RB, 1 TE, 3 WR",5,"3 DL, 3 LB, 5 DB",right,2019-09-08T19:32:51.000Z,2019-09-08T19:32:49.000Z,6-6,257,01/01/1993,Western Kentucky,TE,CAR,LA,1,Bank of America Stadium,Charlotte North Carolina,Outdoor,Grass,Sunny,87.0,53,3,NNE
1394,2019090800,20190908003490,away,39.89,16.02,5.42,2.83,0.53,141.33,130.22,2557898,Cooper Kupp,18,2019,30,3,00:11:00,LA,1,5,LA,13,23,2555334,SINGLEBACK,"1 RB, 1 TE, 3 WR",5,"3 DL, 3 LB, 5 DB",right,2019-09-08T19:32:51.000Z,2019-09-08T19:32:49.000Z,6-2,208,06/15/1993,Eastern Washington,WR,CAR,LA,1,Bank of America Stadium,Charlotte North Carolina,Outdoor,Grass,Sunny,87.0,53,3,NNE
1395,2019090800,20190908003490,away,39.0,31.79,2.86,1.24,0.3,175.91,5.4,2560825,Joe Noteboom,70,2019,30,3,00:11:00,LA,1,5,LA,13,23,2555334,SINGLEBACK,"1 RB, 1 TE, 3 WR",5,"3 DL, 3 LB, 5 DB",right,2019-09-08T19:32:51.000Z,2019-09-08T19:32:49.000Z,6-5,321,06/19/1995,Texas Christian,T,CAR,LA,1,Bank of America Stadium,Charlotte North Carolina,Outdoor,Grass,Sunny,87.0,53,3,NNE
1396,2019090800,20190908003490,away,37.07,29.79,3.46,1.5,0.38,80.26,303.56,2560954,Brian Allen,55,2019,30,3,00:11:00,LA,1,5,LA,13,23,2555334,SINGLEBACK,"1 RB, 1 TE, 3 WR",5,"3 DL, 3 LB, 5 DB",right,2019-09-08T19:32:51.000Z,2019-09-08T19:32:49.000Z,6-2,302,10/11/1995,Michigan State,C,CAR,LA,1,Bank of America Stadium,Charlotte North Carolina,Outdoor,Grass,Sunny,87.0,53,3,NNE
1397,2019090800,20190908003490,home,38.35,27.21,2.79,0.76,0.28,319.11,316.61,2507837,Kyle Love,77,2019,30,3,00:11:00,LA,1,5,LA,13,23,2555334,SINGLEBACK,"1 RB, 1 TE, 3 WR",5,"3 DL, 3 LB, 5 DB",right,2019-09-08T19:32:51.000Z,2019-09-08T19:32:49.000Z,6-1,310,11/18/1986,Mississippi State,NT,CAR,LA,1,Bank of America Stadium,Charlotte North Carolina,Outdoor,Grass,Sunny,87.0,53,3,NNE
1398,2019090800,20190908003490,home,41.36,30.86,5.91,2.32,0.58,335.92,342.3,2533056,Luke Kuechly,59,2019,30,3,00:11:00,LA,1,5,LA,13,23,2555334,SINGLEBACK,"1 RB, 1 TE, 3 WR",5,"3 DL, 3 LB, 5 DB",right,2019-09-08T19:32:51.000Z,2019-09-08T19:32:49.000Z,6-3,238,04/20/1991,Boston College,MLB,CAR,LA,1,Bank of America Stadium,Charlotte North Carolina,Outdoor,Grass,Sunny,87.0,53,3,NNE
1399,2019090800,20190908003490,home,37.76,30.0,3.63,1.2,0.35,250.94,308.26,2533435,Dontari Poe,95,2019,30,3,00:11:00,LA,1,5,LA,13,23,2555334,SINGLEBACK,"1 RB, 1 TE, 3 WR",5,"3 DL, 3 LB, 5 DB",right,2019-09-08T19:32:51.000Z,2019-09-08T19:32:49.000Z,6-3,346,08/18/1990,Memphis,NT,CAR,LA,1,Bank of America Stadium,Charlotte North Carolina,Outdoor,Grass,Sunny,87.0,53,3,NNE
1400,2019090800,20190908003490,home,49.34,18.59,3.72,0.27,0.37,220.9,137.09,2540152,Eric Reid,25,2019,30,3,00:11:00,LA,1,5,LA,13,23,2555334,SINGLEBACK,"1 RB, 1 TE, 3 WR",5,"3 DL, 3 LB, 5 DB",right,2019-09-08T19:32:51.000Z,2019-09-08T19:32:49.000Z,6-1,213,12/10/1991,Louisiana State,SS,CAR,LA,1,Bank of America Stadium,Charlotte North Carolina,Outdoor,Grass,Sunny,87.0,53,3,NNE
1401,2019090800,20190908003490,home,52.31,29.93,2.03,2.74,0.2,244.01,101.44,2543830,Tre Boston,33,2019,30,3,00:11:00,LA,1,5,LA,13,23,2555334,SINGLEBACK,"1 RB, 1 TE, 3 WR",5,"3 DL, 3 LB, 5 DB",right,2019-09-08T19:32:51.000Z,2019-09-08T19:32:49.000Z,6-1,205,06/25/1992,North Carolina,FS,CAR,LA,1,Bank of America Stadium,Charlotte North Carolina,Outdoor,Grass,Sunny,87.0,53,3,NNE
1402,2019090800,20190908003490,home,38.57,18.88,4.12,2.2,0.41,235.85,201.81,2552447,Shaq Thompson,54,2019,30,3,00:11:00,LA,1,5,LA,13,23,2555334,SINGLEBACK,"1 RB, 1 TE, 3 WR",5,"3 DL, 3 LB, 5 DB",right,2019-09-08T19:32:51.000Z,2019-09-08T19:32:49.000Z,6-0,230,04/21/1994,Washington,OLB,CAR,LA,1,Bank of America Stadium,Charlotte North Carolina,Outdoor,Grass,Sunny,87.0,53,3,NNE
1403,2019090800,20190908003490,home,38.47,24.54,2.17,1.73,0.22,307.31,302.48,2553310,Efe Obada,94,2019,30,3,00:11:00,LA,1,5,LA,13,23,2555334,SINGLEBACK,"1 RB, 1 TE, 3 WR",5,"3 DL, 3 LB, 5 DB",right,2019-09-08T19:32:51.000Z,2019-09-08T19:32:49.000Z,6-6,265,04/13/1992,No College,DE,CAR,LA,1,Bank of America Stadium,Charlotte North Carolina,Outdoor,Grass,Sunny,87.0,53,3,NNE
1404,2019090800,20190908003490,home,44.73,12.49,2.91,1.44,0.29,270.42,214.94,2555175,James Bradberry,24,2019,30,3,00:11:00,LA,1,5,LA,13,23,2555334,SINGLEBACK,"1 RB, 1 TE, 3 WR",5,"3 DL, 3 LB, 5 DB",right,2019-09-08T19:32:51.000Z,2019-09-08T19:32:49.000Z,6-1,212,08/04/1993,Samford,CB,CAR,LA,1,Bank of America Stadium,Charlotte North Carolina,Outdoor,Grass,Sunny,87.0,53,3,NNE
1405,2019090800,20190908003490,home,44.32,36.72,2.99,4.82,0.28,233.54,319.74,2560753,Donte Jackson,26,2019,30,3,00:11:00,LA,1,5,LA,13,23,2555334,SINGLEBACK,"1 RB, 1 TE, 3 WR",5,"3 DL, 3 LB, 5 DB",right,2019-09-08T19:32:51.000Z,2019-09-08T19:32:49.000Z,5-10,180,11/08/1995,Louisiana State,DB,CAR,LA,1,Bank of America Stadium,Charlotte North Carolina,Outdoor,Grass,Sunny,87.0,53,3,NNE
1406,2019090800,20190908003490,home,39.34,31.21,3.97,2.94,0.39,328.16,295.67,2560775,Rashaan Gaulden,28,2019,30,3,00:11:00,LA,1,5,LA,13,23,2555334,SINGLEBACK,"1 RB, 1 TE, 3 WR",5,"3 DL, 3 LB, 5 DB",right,2019-09-08T19:32:51.000Z,2019-09-08T19:32:49.000Z,6-1,200,01/23/1995,Tennessee,DB,CAR,LA,1,Bank of America Stadium,Charlotte North Carolina,Outdoor,Grass,Sunny,87.0,53,3,NNE
1407,2019090800,20190908003490,home,36.95,31.42,3.59,0.39,0.35,242.78,261.02,2561009,Marquis Haynes,98,2019,30,3,00:11:00,LA,1,5,LA,13,23,2555334,SINGLEBACK,"1 RB, 1 TE, 3 WR",5,"3 DL, 3 LB, 5 DB",right,2019-09-08T19:32:51.000Z,2019-09-08T19:32:49.000Z,6-2,235,12/16/1993,Mississippi,DL,CAR,LA,1,Bank of America Stadium,Charlotte North Carolina,Outdoor,Grass,Sunny,87.0,53,3,NNE
