,GameId,PlayId,Team,X,Y,S,A,Dis,Orientation,Dir,NflId,DisplayName,JerseyNumber,Season,YardLine,Quarter,GameClock,PossessionTeam,Down,Distance,FieldPosition,HomeScoreBeforePlay,VisitorScoreBeforePlay,NflIdRusher,OffenseFormation,OffensePersonnel,DefendersInTheBox,DefensePersonnel,PlayDirection,TimeHandoff,TimeSnap,PlayerHeight,PlayerWeight,PlayerBirthDate,PlayerCollegeName,Position,HomeTeamAbbr,VisitorTeamAbbr,Week,Stadium,Location,StadiumType,Turf,GameWeather,Temperature,Humidity,WindSpeed,WindDirection
46662,2019092600,20190926003696,away,110.16,21.9,1.57,1.32,0.16,237.54,158.77,2495298,Jason Kelce,62,2019,1,4,09:00:00,PHI,1,10,PHI,27,34,2555418,SINGLEBACK,"6 OL, 1 RB, 2 TE, 1 WR",7,"3 DL, 4 LB, 4 DB",left,2019-09-27T03:20:22.000Z,2019-09-27T03:20:20.000Z,6-3,295,11/05/1987,Cincinnati,C,GB,PHI,4,Lambeau Field,"Green Bay, WI",Outdoor,SISGrass,Cloudy,60.0,62,3,S
46663,2019092600,20190926003696,away,110.96,18.92,1.97,1.79,0.21,213.05,172.53,2505827,Jason Peters,71,2019,1,4,09:00:00,PHI,1,10,PHI,27,34,2555418,SINGLEBACK,"6 OL, 1 RB, 2 TE, 1 WR",7,"3 DL, 4 LB, 4 DB",left,2019-09-27T03:20:22.000Z,2019-09-27T03:20:20.000Z,6-4,328,01/22/1982,Arkansas,OT,GB,PHI,4,Lambeau Field,"Green Bay, WI",Outdoor,SISGrass,Cloudy,60.0,62,3,S
46664,2019092600,20190926003696,away,109.21,22.18,2.28,2.03,0.24,197.39,183.69,2534434,Brandon Brooks,79,2019,1,4,09:00:00,PHI,1,10,PHI,27,34,2555418,SINGLEBACK,"6 OL, 1 RB, 2 TE, 1 WR",7,"3 DL, 4 LB, 4 DB",left,2019-09-27T03:20:22.000Z,2019-09-27T03:20:20.000Z,6-5,335,08/19/1989,"Miami, O.",G,GB,PHI,4,Lambeau Field,"Green Bay, WI",Outdoor,SISGrass,Cloudy,60.0,62,3,S
46665,2019092600,20190926003696,away,109.29,24.38,1.92,1.98,0.2,206.31,184.25,2539286,Lane Johnson,65,2019,1,4,09:00:00,PHI,1,10,PHI,27,34,2555418,SINGLEBACK,"6 OL, 1 RB, 2 TE, 1 WR",7,"3 DL, 4 LB, 4 DB",left,2019-09-27T03:20:22.000Z,2019-09-27T03:20:20.000Z,6-6,317,05/08/1990,Oklahoma,T,GB,PHI,4,Lambeau Field,"Green Bay, WI",Outdoor,SISGrass,Cloudy,60.0,62,3,S
46666,2019092600,20190926003696,away,107.22,14.69,5.37,1.55,0.53,269.59,260.2,2540158,Zach Ertz,86,2019,1,4,09:00:00,PHI,1,10,PHI,27,34,2555418,SINGLEBACK,"6 OL, 1 RB, 2 TE, 1 WR",7,"3 DL, 4 LB, 4 DB",left,2019-09-27T03:20:22.000Z,2019-09-27T03:20:20.000Z,6-5,250,11/10/1990,Stanford,TE,GB,PHI,4,Lambeau Field,"Green Bay, WI",Outdoor,SISGrass,Cloudy,60.0,62,3,S
46667,2019092600,20190926003696,away,109.99,25.61,2.52,0.79,0.27,278.6,205.6,2555196,Halapoulivaati Vaitai,72,2019,1,4,09:00:00,PHI,1,10,PHI,27,34,2555418,SINGLEBACK,"6 OL, 1 RB, 2 TE, 1 WR",7,"3 DL, 4 LB, 4 DB",left,2019-09-27T03:20:22.000Z,2019-09-27T03:20:20.000Z,6-6,320,06/16/1993,Texas Christian,T,GB,PHI,4,Lambeau Field,"Green Bay, WI",Outdoor,SISGrass,Cloudy,60.0,62,3,S
46668,2019092600,20190926003696,away,114.28,22.63,4.43,1.37,0.44,60.13,107.53,2555259,Carson Wentz,11,2019,1,4,09:00:00,PHI,1,10,PHI,27,34,2555418,SINGLEBACK,"6 OL, 1 RB, 2 TE, 1 WR",7,"3 DL, 4 LB, 4 DB",left,2019-09-27T03:20:22.000Z,2019-09-27T03:20:20.000Z,6-5,237,12/30/1992,North Dakota State,QB,GB,PHI,4,Lambeau Field,"Green Bay, WI",Outdoor,SISGrass,Cloudy,60.0,62,3,S
46669,2019092600,20190926003696,away,113.53,23.39,4.71,2.03,0.46,285.07,282.54,2555418,Jordan Howard,24,2019,1,4,09:00:00,PHI,1,10,PHI,27,34,2555418,SINGLEBACK,"6 OL, 1 RB, 2 TE, 1 WR",7,"3 DL, 4 LB, 4 DB",left,2019-09-27T03:20:22.000Z,2019-09-27T03:20:20.000Z,6-0,224,11/02/1994,Indiana,RB,GB,PHI,4,Lambeau Field,"Green Bay, WI",Outdoor,SISGrass,Cloudy,60.0,62,3,S
46670,2019092600,20190926003696,away,110.23,20.61,1.55,0.83,0.19,230.26,162.23,2555495,Isaac Seumalo,73,2019,1,4,09:00:00,PHI,1,10,PHI,27,34,2555418,SINGLEBACK,"6 OL, 1 RB, 2 TE, 1 WR",7,"3 DL, 4 LB, 4 DB",left,2019-09-27T03:20:22.000Z,2019-09-27T03:20:20.000Z,6-4,303,10/29/1993,Oregon State,G,GB,PHI,4,Lambeau Field,"Green Bay, WI",Outdoor,SISGrass,Cloudy,60.0,62,3,S
46671,2019092600,20190926003696,away,108.7,7.54,2.96,0.71,0.3,254.83,226.13,2558262,Mack Hollins,16,2019,1,4,09:00:00,PHI,1,10,PHI,27,34,2555418,SINGLEBACK,"6 OL, 1 RB, 2 TE, 1 WR",7,"3 DL, 4 LB, 4 DB",left,2019-09-27T03:20:22.000Z,2019-09-27T03:20:20.000Z,6-4,221,09/16/1993,North Carolina,WR,GB,PHI,4,Lambeau Field,"Green Bay, WI",Outdoor,SISGrass,Cloudy,60.0,62,3,S
46672,2019092600,20190926003696,away,109.11,28.32,3.08,1.78,0.3,275.68,256.1,2560995,Dallas Goedert,88,2019,1,4,09:00:00,PHI,1,10,PHI,27,34,2555418,SINGLEBACK,"6 OL, 1 RB, 2 TE, 1 WR",7,"3 DL, 4 LB, 4 DB",left,2019-09-27T03:20:22.000Z,2019-09-27T03:20:20.000Z,6-5,256,01/03/1995,South Dakota State,TE,GB,PHI,4,Lambeau Field,"Green Bay, WI",Outdoor,SISGrass,Cloudy,60.0,62,3,S
46673,2019092600,20190926003696,home,109.72,29.2,3.09,2.02,0.31,164.98,167.45,2552276,Preston Smith,91,2019,1,4,09:00:00,PHI,1,10,PHI,27,34,2555418,SINGLEBACK,"6 OL, 1 RB, 2 TE, 1 WR",7,"3 DL, 4 LB, 4 DB",left,2019-09-27T03:20:22.000Z,2019-09-27T03:20:20.000Z,6-5,265,11/17/1992,Mississippi State,OLB,GB,PHI,4,Lambeau Field,"Green Bay, WI",Outdoor,SISGrass,Cloudy,60.0,62,3,S
46674,2019092600,20190926003696,home,110.79,18.28,1.04,4.8,0.11,23.72,160.22,2552279,Za'Darius Smith,55,2019,1,4,09:00:00,PHI,1,10,PHI,27,34,2555418,SINGLEBACK,"6 OL, 1 RB, 2 TE, 1 WR",7,"3 DL, 4 LB, 4 DB",left,2019-09-27T03:20:22.000Z,2019-09-27T03:20:20.000Z,6-4,272,09/08/1992,Kentucky,OLB,GB,PHI,4,Lambeau Field,"Green Bay, WI",Outdoor,SISGrass,Cloudy,60.0,62,3,S
46675,2019092600,20190926003696,home,103.7,15.07,3.48,3.41,0.33,117.86,257.8,2552385,Adrian Amos,31,2019,1,4,09:00:00,PHI,1,10,PHI,27,34,2555418,SINGLEBACK,"6 OL, 1 RB, 2 TE, 1 WR",7,"3 DL, 4 LB, 4 DB",left,2019-09-27T03:20:22.000Z,2019-09-27T03:20:20.000Z,6-0,214,04/29/1993,Penn State,FS,GB,PHI,4,Lambeau Field,"Green Bay, WI",Outdoor,SISGrass,Cloudy,60.0,62,3,S
46676,2019092600,20190926003696,home,108.68,23.53,3.06,2.77,0.31,133.03,147.86,2555161,Blake Martinez,50,2019,1,4,09:00:00,PHI,1,10,PHI,27,34,2555418,SINGLEBACK,"6 OL, 1 RB, 2 TE, 1 WR",7,"3 DL, 4 LB, 4 DB",left,2019-09-27T03:20:22.000Z,2019-09-27T03:20:20.000Z,6-2,237,01/09/1994,Stanford,ILB,GB,PHI,4,Lambeau Field,"Green Bay, WI",Outdoor,SISGrass,Cloudy,60.0,62,3,S
46677,2019092600,20190926003696,home,109.2,25.99,1.49,0.76,0.15,131.84,190.58,2555274,Dean Lowry,94,2019,1,4,09:00:00,PHI,1,10,PHI,27,34,2555418,SINGLEBACK,"6 OL, 1 RB, 2 TE, 1 WR",7,"3 DL, 4 LB, 4 DB",left,2019-09-27T03:20:22.000Z,2019-09-27T03:20:20.000Z,6-6,296,06/09/1994,Northwestern,DE,GB,PHI,4,Lambeau Field,"Green Bay, WI",Outdoor,SISGrass,Cloudy,60.0,62,3,S
46678,2019092600,20190926003696,home,109.45,20.26,1.08,0.84,0.11,22.69,172.05,2555282,Kenny Clark,97,2019,1,4,09:00:00,PHI,1,10,PHI,27,34,2555418,SINGLEBACK,"6 OL, 1 RB, 2 TE, 1 WR",7,"3 DL, 4 LB, 4 DB",left,2019-09-27T03:20:22.000Z,2019-09-27T03:20:20.000Z,6-3,314,10/04/1995,UCLA,NT,GB,PHI,4,Lambeau Field,"Green Bay, WI",Outdoor,SISGrass,Cloudy,60.0,62,3,S
46679,2019092600,20190926003696,home,109.46,21.63,2.29,1.91,0.24,44.53,111.54,2555522,B.J. Goodson,93,2019,1,4,09:00:00,PHI,1,10,PHI,27,34,2555418,SINGLEBACK,"6 OL, 1 RB, 2 TE, 1 WR",7,"3 DL, 4 LB, 4 DB",left,2019-09-27T03:20:22.000Z,2019-09-27T03:20:20.000Z,6-1,242,05/29/1993,Clemson,ILB,GB,PHI,4,Lambeau Field,"Green Bay, WI",Outdoor,SISGrass,Cloudy,60.0,62,3,S
46680,2019092600,20190926003696,home,107.2,8.01,2.73,2.26,0.27,126.64,227.96,2557996,Kevin King,20,2019,1,4,09:00:00,PHI,1,10,PHI,27,34,2555418,SINGLEBACK,"6 OL, 1 RB, 2 TE, 1 WR",7,"3 DL, 4 LB, 4 DB",left,2019-09-27T03:20:22.000Z,2019-09-27T03:20:20.000Z,6-3,200,05/05/1995,Washington,CB,GB,PHI,4,Lambeau Field,"Green Bay, WI",Outdoor,SISGrass,Cloudy,60.0,62,3,S
46681,2019092600,20190926003696,home,106.76,29.8,2.47,0.8,0.24,181.74,156.96,2560952,Jaire Alexander,23,2019,1,4,09:00:00,PHI,1,10,PHI,27,34,2555418,SINGLEBACK,"6 OL, 1 RB, 2 TE, 1 WR",7,"3 DL, 4 LB, 4 DB",left,2019-09-27T03:20:22.000Z,2019-09-27T03:20:20.000Z,5-10,196,02/09/1997,Louisville,CB,GB,PHI,4,Lambeau Field,"Green Bay, WI",Outdoor,SISGrass,Cloudy,60.0,62,3,S
46682,2019092600,20190926003696,home,109.04,21.81,2.64,0.8,0.28,143.54,161.1,2561227,Tyler Lancaster,95,2019,1,4,09:00:00,PHI,1,10,PHI,27,34,2555418,SINGLEBACK,"6 OL, 1 RB, 2 TE, 1 WR",7,"3 DL, 4 LB, 4 DB",left,2019-09-27T03:20:22.000Z,2019-09-27T03:20:20.000Z,6-3,315,11/04/1994,Northwestern,DT,GB,PHI,4,Lambeau Field,"Green Bay, WI",Outdoor,SISGrass,Cloudy,60.0,62,3,S
46683,2019092600,20190926003696,home,95.5,22.55,0.43,2.3,0.03,92.97,84.14,2562724,Darnell Savage,26,2019,1,4,09:00:00,PHI,1,10,PHI,27,34,2555418,SINGLEBACK,"6 OL, 1 RB, 2 TE, 1 WR",7,"3 DL, 4 LB, 4 DB",left,2019-09-27T03:20:22.000Z,2019-09-27T03:20:20.000Z,5-11,200,07/30/1997,Maryland,DB,GB,PHI,4,Lambeau Field,"Green Bay, WI",Outdoor,SISGrass,Cloudy,60.0,62,3,S
