,GameId,PlayId,Team,X,Y,S,A,Dis,Orientation,Dir,NflId,DisplayName,JerseyNumber,Season,YardLine,Quarter,GameClock,PossessionTeam,Down,Distance,FieldPosition,HomeScoreBeforePlay,VisitorScoreBeforePlay,NflIdRusher,OffenseFormation,OffensePersonnel,DefendersInTheBox,DefensePersonnel,PlayDirection,TimeHandoff,TimeSnap,PlayerHeight,PlayerWeight,PlayerBirthDate,PlayerCollegeName,Position,HomeTeamAbbr,VisitorTeamAbbr,Week,Stadium,Location,StadiumType,Turf,GameWeather,Temperature,Humidity,WindSpeed,WindDirection
72182,2019100610,20191006102798,away,112.68,29.17,3.14,3.56,0.31,269.42,340.51,496735,Kareem Jackson,22,2019,2,3,03:01:00,LAC,2,2,DEN,0,17,2552469,SHOTGUN,"2 QB, 1 RB, 1 TE, 2 WR",7,"4 DL, 3 LB, 4 DB",right,2019-10-06T22:12:26.000Z,2019-10-06T22:12:25.000Z,5-10,185,04/10/1988,Alabama,CB,LAC,DEN,5,Dignity Health Sports Park,"Carson, CA",,Grass,Sunny,85.0,35,12,W
72183,2019100610,20191006102798,away,107.58,34.25,2.19,0.2,0.22,284.66,217.6,2495202,Von Miller,58,2019,2,3,03:01:00,LAC,2,2,DEN,0,17,2552469,SHOTGUN,"2 QB, 1 RB, 1 TE, 2 WR",7,"4 DL, 3 LB, 4 DB",right,2019-10-06T22:12:26.000Z,2019-10-06T22:12:25.000Z,6-3,250,03/26/1989,Texas A&M,OLB,LAC,DEN,5,Dignity Health Sports Park,"Carson, CA",,Grass,Sunny,85.0,35,12,W
72184,2019100610,20191006102798,away,110.49,7.5,0.04,0.78,0.0,8.67,266.1,2530510,Chris Harris,25,2019,2,3,03:01:00,LAC,2,2,DEN,0,17,2552469,SHOTGUN,"2 QB, 1 RB, 1 TE, 2 WR",7,"4 DL, 3 LB, 4 DB",right,2019-10-06T22:12:26.000Z,2019-10-06T22:12:25.000Z,5-10,199,06/18/1989,Kansas,CB,LAC,DEN,5,Dignity Health Sports Park,"Carson, CA",,Grass,Sunny,85.0,35,12,W
72185,2019100610,20191006102798,away,106.97,25.04,1.81,1.71,0.16,327.92,238.9,2533026,Derek Wolfe,95,2019,2,3,03:01:00,LAC,2,2,DEN,0,17,2552469,SHOTGUN,"2 QB, 1 RB, 1 TE, 2 WR",7,"4 DL, 3 LB, 4 DB",right,2019-10-06T22:12:26.000Z,2019-10-06T22:12:25.000Z,6-5,285,02/24/1990,Cincinnati,DE,LAC,DEN,5,Dignity Health Sports Park,"Carson, CA",,Grass,Sunny,85.0,35,12,W
72186,2019100610,20191006102798,away,106.96,26.6,2.27,0.45,0.23,245.09,210.89,2541634,Mike Purcell,98,2019,2,3,03:01:00,LAC,2,2,DEN,0,17,2552469,SHOTGUN,"2 QB, 1 RB, 1 TE, 2 WR",7,"4 DL, 3 LB, 4 DB",right,2019-10-06T22:12:26.000Z,2019-10-06T22:12:25.000Z,6-3,328,04/20/1991,Wyoming,NT,LAC,DEN,5,Dignity Health Sports Park,"Carson, CA",,Grass,Sunny,85.0,35,12,W
72187,2019100610,20191006102798,away,107.83,28.57,2.15,2.59,0.22,291.44,168.95,2549926,Shelby Harris,96,2019,2,3,03:01:00,LAC,2,2,DEN,0,17,2552469,SHOTGUN,"2 QB, 1 RB, 1 TE, 2 WR",7,"4 DL, 3 LB, 4 DB",right,2019-10-06T22:12:26.000Z,2019-10-06T22:12:25.000Z,6-2,290,08/11/1991,Illinois State,NT,LAC,DEN,5,Dignity Health Sports Park,"Carson, CA",,Grass,Sunny,85.0,35,12,W
72188,2019100610,20191006102798,away,108.81,32.16,2.33,1.17,0.23,266.76,268.98,2550930,Todd Davis,51,2019,2,3,03:01:00,LAC,2,2,DEN,0,17,2552469,SHOTGUN,"2 QB, 1 RB, 1 TE, 2 WR",7,"4 DL, 3 LB, 4 DB",right,2019-10-06T22:12:26.000Z,2019-10-06T22:12:25.000Z,6-1,230,05/17/1992,Sacramento State,ILB,LAC,DEN,5,Dignity Health Sports Park,"Carson, CA",,Grass,Sunny,85.0,35,12,W
72189,2019100610,20191006102798,away,111.42,23.45,1.47,1.35,0.15,267.65,344.76,2555550,Justin Simmons,31,2019,2,3,03:01:00,LAC,2,2,DEN,0,17,2552469,SHOTGUN,"2 QB, 1 RB, 1 TE, 2 WR",7,"4 DL, 3 LB, 4 DB",right,2019-10-06T22:12:26.000Z,2019-10-06T22:12:25.000Z,6-2,202,11/19/1993,Boston College,SS,LAC,DEN,5,Dignity Health Sports Park,"Carson, CA",,Grass,Sunny,85.0,35,12,W
72190,2019100610,20191006102798,away,107.39,30.95,2.57,0.76,0.27,233.82,207.49,2557894,DeMarcus Walker,57,2019,2,3,03:01:00,LAC,2,2,DEN,0,17,2552469,SHOTGUN,"2 QB, 1 RB, 1 TE, 2 WR",7,"4 DL, 3 LB, 4 DB",right,2019-10-06T22:12:26.000Z,2019-10-06T22:12:25.000Z,6-4,280,09/30/1994,Florida State,DE,LAC,DEN,5,Dignity Health Sports Park,"Carson, CA",,Grass,Sunny,85.0,35,12,W
72191,2019100610,20191006102798,away,109.01,43.99,1.59,2.13,0.16,301.74,13.33,2561005,Davontae Harris,27,2019,2,3,03:01:00,LAC,2,2,DEN,0,17,2552469,SHOTGUN,"2 QB, 1 RB, 1 TE, 2 WR",7,"4 DL, 3 LB, 4 DB",right,2019-10-06T22:12:26.000Z,2019-10-06T22:12:25.000Z,5-11,200,01/21/1995,Illinois State,CB,LAC,DEN,5,Dignity Health Sports Park,"Carson, CA",,Grass,Sunny,85.0,35,12,W
72192,2019100610,20191006102798,away,106.94,22.94,2.75,0.13,0.27,314.39,271.43,2562825,Malik Reed,59,2019,2,3,03:01:00,LAC,2,2,DEN,0,17,2552469,SHOTGUN,"2 QB, 1 RB, 1 TE, 2 WR",7,"4 DL, 3 LB, 4 DB",right,2019-10-06T22:12:26.000Z,2019-10-06T22:12:25.000Z,6-2,235,08/05/1996,Nevada,LB,LAC,DEN,5,Dignity Health Sports Park,"Carson, CA",,Grass,Sunny,85.0,35,12,W
72193,2019100610,20191006102798,home,103.3,29.72,1.56,2.12,0.14,64.47,107.99,2495240,Tyrod Taylor,5,2019,2,3,03:01:00,LAC,2,2,DEN,0,17,2552469,SHOTGUN,"2 QB, 1 RB, 1 TE, 2 WR",7,"4 DL, 3 LB, 4 DB",right,2019-10-06T22:12:26.000Z,2019-10-06T22:12:25.000Z,6-1,215,08/03/1989,Virginia Tech,QB,LAC,DEN,5,Dignity Health Sports Park,"Carson, CA",,Grass,Sunny,85.0,35,12,W
72194,2019100610,20191006102798,home,105.28,29.15,5.75,1.89,0.56,29.5,359.58,2495288,Virgil Green,88,2019,2,3,03:01:00,LAC,2,2,DEN,0,17,2552469,SHOTGUN,"2 QB, 1 RB, 1 TE, 2 WR",7,"4 DL, 3 LB, 4 DB",right,2019-10-06T22:12:26.000Z,2019-10-06T22:12:25.000Z,6-5,255,08/03/1988,Nevada,TE,LAC,DEN,5,Dignity Health Sports Park,"Carson, CA",,Grass,Sunny,85.0,35,12,W
72195,2019100610,20191006102798,home,105.15,6.56,0.16,0.14,0.01,54.44,124.1,2506121,Philip Rivers,17,2019,2,3,03:01:00,LAC,2,2,DEN,0,17,2552469,SHOTGUN,"2 QB, 1 RB, 1 TE, 2 WR",7,"4 DL, 3 LB, 4 DB",right,2019-10-06T22:12:26.000Z,2019-10-06T22:12:25.000Z,6-5,228,12/08/1981,North Carolina State,QB,LAC,DEN,5,Dignity Health Sports Park,"Carson, CA",,Grass,Sunny,85.0,35,12,W
72196,2019100610,20191006102798,home,108.82,24.6,3.17,1.3,0.31,103.77,70.74,2540154,Keenan Allen,13,2019,2,3,03:01:00,LAC,2,2,DEN,0,17,2552469,SHOTGUN,"2 QB, 1 RB, 1 TE, 2 WR",7,"4 DL, 3 LB, 4 DB",right,2019-10-06T22:12:26.000Z,2019-10-06T22:12:25.000Z,6-2,211,04/27/1992,California,WR,LAC,DEN,5,Dignity Health Sports Park,"Carson, CA",,Grass,Sunny,85.0,35,12,W
72197,2019100610,20191006102798,home,105.93,26.38,1.9,1.33,0.19,116.46,209.31,2543732,Michael Schofield,75,2019,2,3,03:01:00,LAC,2,2,DEN,0,17,2552469,SHOTGUN,"2 QB, 1 RB, 1 TE, 2 WR",7,"4 DL, 3 LB, 4 DB",right,2019-10-06T22:12:26.000Z,2019-10-06T22:12:25.000Z,6-6,301,11/15/1990,Michigan,G,LAC,DEN,5,Dignity Health Sports Park,"Carson, CA",,Grass,Sunny,85.0,35,12,W
72198,2019100610,20191006102798,home,104.03,30.28,4.06,2.25,0.4,112.36,138.55,2552469,Melvin Gordon,25,2019,2,3,03:01:00,LAC,2,2,DEN,0,17,2552469,SHOTGUN,"2 QB, 1 RB, 1 TE, 2 WR",7,"4 DL, 3 LB, 4 DB",right,2019-10-06T22:12:26.000Z,2019-10-06T22:12:25.000Z,6-1,215,04/13/1993,Wisconsin,RB,LAC,DEN,5,Dignity Health Sports Park,"Carson, CA",,Grass,Sunny,85.0,35,12,W
72199,2019100610,20191006102798,home,106.43,27.24,2.38,1.06,0.24,179.37,203.37,2557873,Dan Feeney,66,2019,2,3,03:01:00,LAC,2,2,DEN,0,17,2552469,SHOTGUN,"2 QB, 1 RB, 1 TE, 2 WR",7,"4 DL, 3 LB, 4 DB",right,2019-10-06T22:12:26.000Z,2019-10-06T22:12:25.000Z,6-4,310,05/29/1994,Indiana,G,LAC,DEN,5,Dignity Health Sports Park,"Carson, CA",,Grass,Sunny,85.0,35,12,W
72200,2019100610,20191006102798,home,107.09,28.99,2.27,0.54,0.23,136.62,170.7,2557890,Forrest Lamp,77,2019,2,3,03:01:00,LAC,2,2,DEN,0,17,2552469,SHOTGUN,"2 QB, 1 RB, 1 TE, 2 WR",7,"4 DL, 3 LB, 4 DB",right,2019-10-06T22:12:26.000Z,2019-10-06T22:12:25.000Z,6-4,309,02/20/1994,Western Kentucky,OG,LAC,DEN,5,Dignity Health Sports Park,"Carson, CA",,Grass,Sunny,85.0,35,12,W
72201,2019100610,20191006102798,home,105.8,25.43,2.05,0.82,0.2,143.17,214.25,2558026,Sam Tevi,69,2019,2,3,03:01:00,LAC,2,2,DEN,0,17,2552469,SHOTGUN,"2 QB, 1 RB, 1 TE, 2 WR",7,"4 DL, 3 LB, 4 DB",right,2019-10-06T22:12:26.000Z,2019-10-06T22:12:25.000Z,6-5,315,11/15/1994,Utah,T,LAC,DEN,5,Dignity Health Sports Park,"Carson, CA",,Grass,Sunny,85.0,35,12,W
72202,2019100610,20191006102798,home,107.83,44.18,2.7,3.01,0.26,75.3,52.98,2558846,Mike Williams,81,2019,2,3,03:01:00,LAC,2,2,DEN,0,17,2552469,SHOTGUN,"2 QB, 1 RB, 1 TE, 2 WR",7,"4 DL, 3 LB, 4 DB",right,2019-10-06T22:12:26.000Z,2019-10-06T22:12:25.000Z,6-4,218,10/04/1994,Clemson,WR,LAC,DEN,5,Dignity Health Sports Park,"Carson, CA",,Grass,Sunny,85.0,35,12,W
72203,2019100610,20191006102798,home,107.17,31.83,1.08,1.53,0.11,147.79,180.07,2561544,Trent Scott,78,2019,2,3,03:01:00,LAC,2,2,DEN,0,17,2552469,SHOTGUN,"2 QB, 1 RB, 1 TE, 2 WR",7,"4 DL, 3 LB, 4 DB",right,2019-10-06T22:12:26.000Z,2019-10-06T22:12:25.000Z,6-5,320,01/25/1994,Grambling,T,LAC,DEN,5,Dignity Health Sports Park,"Carson, CA",,Grass,Sunny,85.0,35,12,W
