,GameId,PlayId,Team,X,Y,S,A,Dis,Orientation,Dir,NflId,DisplayName,JerseyNumber,Season,YardLine,Quarter,GameClock,PossessionTeam,Down,Distance,FieldPosition,HomeScoreBeforePlay,VisitorScoreBeforePlay,NflIdRusher,OffenseFormation,OffensePersonnel,DefendersInTheBox,DefensePersonnel,PlayDirection,TimeHandoff,TimeSnap,PlayerHeight,PlayerWeight,PlayerBirthDate,PlayerCollegeName,Position,HomeTeamAbbr,VisitorTeamAbbr,Week,Stadium,Location,StadiumType,Turf,GameWeather,Temperature,Humidity,WindSpeed,WindDirection
1012,2019090800,20190908001427,away,10.17,27.39,1.77,0.53,0.19,4.46,273.32,2495977,Andrew Whitworth,77,2019,3,2,09:32:00,LA,1,10,LA,0,10,2552475,SINGLEBACK,"1 RB, 2 TE, 2 WR",6,"3 DL, 4 LB, 4 DB",right,2019-09-08T18:01:02.000Z,2019-09-08T18:01:01.000Z,6-7,330,12/12/1981,Louisiana State,T,CAR,LA,1,Bank of America Stadium,Charlotte North Carolina,Outdoor,Grass,Sunny,87.0,53,3,NNE
1013,2019090800,20190908001427,away,12.63,33.67,2.79,2.13,0.27,52.6,90.44,2540169,Robert Woods,17,2019,3,2,09:32:00,LA,1,10,LA,0,10,2552475,SINGLEBACK,"1 RB, 2 TE, 2 WR",6,"3 DL, 4 LB, 4 DB",right,2019-09-08T18:01:02.000Z,2019-09-08T18:01:01.000Z,6-0,193,04/10/1992,Southern California,WR,CAR,LA,1,Bank of America Stadium,Charlotte North Carolina,Outdoor,Grass,Sunny,87.0,53,3,NNE
1014,2019090800,20190908001427,away,14.5,35.54,4.54,1.82,0.45,92.01,84.06,2543498,Brandin Cooks,12,2019,3,2,09:32:00,LA,1,10,LA,0,10,2552475,SINGLEBACK,"1 RB, 2 TE, 2 WR",6,"3 DL, 4 LB, 4 DB",right,2019-09-08T18:01:02.000Z,2019-09-08T18:01:01.000Z,5-10,183,09/25/1993,Oregon State,WR,CAR,LA,1,Bank of America Stadium,Charlotte North Carolina,Outdoor,Grass,Sunny,87.0,53,3,NNE
1015,2019090800,20190908001427,away,12.09,22.41,1.84,0.24,0.2,85.69,11.05,2552363,Rob Havenstein,79,2019,3,2,09:32:00,LA,1,10,LA,0,10,2552475,SINGLEBACK,"1 RB, 2 TE, 2 WR",6,"3 DL, 4 LB, 4 DB",right,2019-09-08T18:01:02.000Z,2019-09-08T18:01:01.000Z,6-8,328,05/13/1992,Wisconsin,T,CAR,LA,1,Bank of America Stadium,Charlotte North Carolina,Outdoor,Grass,Sunny,87.0,53,3,NNE
1016,2019090800,20190908001427,away,7.61,22.27,4.66,2.06,0.45,101.19,120.04,2552475,Todd Gurley,30,2019,3,2,09:32:00,LA,1,10,LA,0,10,2552475,SINGLEBACK,"1 RB, 2 TE, 2 WR",6,"3 DL, 4 LB, 4 DB",right,2019-09-08T18:01:02.000Z,2019-09-08T18:01:01.000Z,6-1,224,08/03/1994,Georgia,RB,CAR,LA,1,Bank of America Stadium,Charlotte North Carolina,Outdoor,Grass,Sunny,87.0,53,3,NNE
1017,2019090800,20190908001427,away,12.26,23.1,1.76,1.22,0.19,53.57,7.68,2555180,Austin Blythe,66,2019,3,2,09:32:00,LA,1,10,LA,0,10,2552475,SINGLEBACK,"1 RB, 2 TE, 2 WR",6,"3 DL, 4 LB, 4 DB",right,2019-09-08T18:01:02.000Z,2019-09-08T18:01:01.000Z,6-3,300,06/16/1992,Iowa,C,CAR,LA,1,Bank of America Stadium,Charlotte North Carolina,Outdoor,Grass,Sunny,87.0,53,3,NNE
1018,2019090800,20190908001427,away,8.49,23.26,3.59,1.5,0.35,221.93,255.55,2555334,Jared Goff,16,2019,3,2,09:32:00,LA,1,10,LA,0,10,2552475,SINGLEBACK,"1 RB, 2 TE, 2 WR",6,"3 DL, 4 LB, 4 DB",right,2019-09-08T18:01:02.000Z,2019-09-08T18:01:01.000Z,6-4,223,10/14/1994,California,QB,CAR,LA,1,Bank of America Stadium,Charlotte North Carolina,Outdoor,Grass,Sunny,87.0,53,3,NNE
1019,2019090800,20190908001427,away,12.04,21.18,2.3,1.15,0.23,117.19,7.78,2555364,Tyler Higbee,89,2019,3,2,09:32:00,LA,1,10,LA,0,10,2552475,SINGLEBACK,"1 RB, 2 TE, 2 WR",6,"3 DL, 4 LB, 4 DB",right,2019-09-08T18:01:02.000Z,2019-09-08T18:01:01.000Z,6-6,257,01/01/1993,Western Kentucky,TE,CAR,LA,1,Bank of America Stadium,Charlotte North Carolina,Outdoor,Grass,Sunny,87.0,53,3,NNE
1020,2019090800,20190908001427,away,11.29,20.38,2.82,1.49,0.28,79.62,356.44,2557889,Gerald Everett,81,2019,3,2,09:32:00,LA,1,10,LA,0,10,2552475,SINGLEBACK,"1 RB, 2 TE, 2 WR",6,"3 DL, 4 LB, 4 DB",right,2019-09-08T18:01:02.000Z,2019-09-08T18:01:01.000Z,6-3,240,06/25/1994,South Alabama,TE,CAR,LA,1,Bank of America Stadium,Charlotte North Carolina,Outdoor,Grass,Sunny,87.0,53,3,NNE
1021,2019090800,20190908001427,away,12.18,26.38,1.89,0.96,0.19,54.12,11.11,2560825,Joe Noteboom,70,2019,3,2,09:32:00,LA,1,10,LA,0,10,2552475,SINGLEBACK,"1 RB, 2 TE, 2 WR",6,"3 DL, 4 LB, 4 DB",right,2019-09-08T18:01:02.000Z,2019-09-08T18:01:01.000Z,6-5,321,06/19/1995,Texas Christian,T,CAR,LA,1,Bank of America Stadium,Charlotte North Carolina,Outdoor,Grass,Sunny,87.0,53,3,NNE
1022,2019090800,20190908001427,away,12.18,24.92,1.3,1.04,0.15,4.88,56.73,2560954,Brian Allen,55,2019,3,2,09:32:00,LA,1,10,LA,0,10,2552475,SINGLEBACK,"1 RB, 2 TE, 2 WR",6,"3 DL, 4 LB, 4 DB",right,2019-09-08T18:01:02.000Z,2019-09-08T18:01:01.000Z,6-2,302,10/11/1995,Michigan State,C,CAR,LA,1,Bank of America Stadium,Charlotte North Carolina,Outdoor,Grass,Sunny,87.0,53,3,NNE
1023,2019090800,20190908001427,home,12.67,22.91,1.64,0.53,0.16,305.07,344.61,2507837,Kyle Love,77,2019,3,2,09:32:00,LA,1,10,LA,0,10,2552475,SINGLEBACK,"1 RB, 2 TE, 2 WR",6,"3 DL, 4 LB, 4 DB",right,2019-09-08T18:01:02.000Z,2019-09-08T18:01:01.000Z,6-1,310,11/18/1986,Mississippi State,NT,CAR,LA,1,Bank of America Stadium,Charlotte North Carolina,Outdoor,Grass,Sunny,87.0,53,3,NNE
1024,2019090800,20190908001427,home,13.24,23.9,3.55,1.08,0.36,261.95,295.09,2533056,Luke Kuechly,59,2019,3,2,09:32:00,LA,1,10,LA,0,10,2552475,SINGLEBACK,"1 RB, 2 TE, 2 WR",6,"3 DL, 4 LB, 4 DB",right,2019-09-08T18:01:02.000Z,2019-09-08T18:01:01.000Z,6-3,238,04/20/1991,Boston College,MLB,CAR,LA,1,Bank of America Stadium,Charlotte North Carolina,Outdoor,Grass,Sunny,87.0,53,3,NNE
1025,2019090800,20190908001427,home,13.04,25.16,1.53,1.92,0.13,218.9,26.5,2533435,Dontari Poe,95,2019,3,2,09:32:00,LA,1,10,LA,0,10,2552475,SINGLEBACK,"1 RB, 2 TE, 2 WR",6,"3 DL, 4 LB, 4 DB",right,2019-09-08T18:01:02.000Z,2019-09-08T18:01:01.000Z,6-3,346,08/18/1990,Memphis,NT,CAR,LA,1,Bank of America Stadium,Charlotte North Carolina,Outdoor,Grass,Sunny,87.0,53,3,NNE
1026,2019090800,20190908001427,home,15.54,33.76,1.06,2.23,0.11,248.0,32.37,2540152,Eric Reid,25,2019,3,2,09:32:00,LA,1,10,LA,0,10,2552475,SINGLEBACK,"1 RB, 2 TE, 2 WR",6,"3 DL, 4 LB, 4 DB",right,2019-09-08T18:01:02.000Z,2019-09-08T18:01:01.000Z,6-1,213,12/10/1991,Louisiana State,SS,CAR,LA,1,Bank of America Stadium,Charlotte North Carolina,Outdoor,Grass,Sunny,87.0,53,3,NNE
1027,2019090800,20190908001427,home,32.82,26.48,1.12,0.19,0.11,270.93,73.7,2543830,Tre Boston,33,2019,3,2,09:32:00,LA,1,10,LA,0,10,2552475,SINGLEBACK,"1 RB, 2 TE, 2 WR",6,"3 DL, 4 LB, 4 DB",right,2019-09-08T18:01:02.000Z,2019-09-08T18:01:01.000Z,6-1,205,06/25/1992,North Carolina,FS,CAR,LA,1,Bank of America Stadium,Charlotte North Carolina,Outdoor,Grass,Sunny,87.0,53,3,NNE
1028,2019090800,20190908001427,home,11.84,20.67,3.34,0.75,0.34,342.09,325.9,2552447,Shaq Thompson,54,2019,3,2,09:32:00,LA,1,10,LA,0,10,2552475,SINGLEBACK,"1 RB, 2 TE, 2 WR",6,"3 DL, 4 LB, 4 DB",right,2019-09-08T18:01:02.000Z,2019-09-08T18:01:01.000Z,6-0,230,04/21/1994,Washington,OLB,CAR,LA,1,Bank of America Stadium,Charlotte North Carolina,Outdoor,Grass,Sunny,87.0,53,3,NNE
1029,2019090800,20190908001427,home,12.58,20.69,1.39,1.2,0.14,299.04,342.5,2553310,Efe Obada,94,2019,3,2,09:32:00,LA,1,10,LA,0,10,2552475,SINGLEBACK,"1 RB, 2 TE, 2 WR",6,"3 DL, 4 LB, 4 DB",right,2019-09-08T18:01:02.000Z,2019-09-08T18:01:01.000Z,6-6,265,04/13/1992,No College,DE,CAR,LA,1,Bank of America Stadium,Charlotte North Carolina,Outdoor,Grass,Sunny,87.0,53,3,NNE
1030,2019090800,20190908001427,home,16.33,15.65,3.65,3.65,0.35,330.02,322.31,2555175,James Bradberry,24,2019,3,2,09:32:00,LA,1,10,LA,0,10,2552475,SINGLEBACK,"1 RB, 2 TE, 2 WR",6,"3 DL, 4 LB, 4 DB",right,2019-09-08T18:01:02.000Z,2019-09-08T18:01:01.000Z,6-1,212,08/04/1993,Samford,CB,CAR,LA,1,Bank of America Stadium,Charlotte North Carolina,Outdoor,Grass,Sunny,87.0,53,3,NNE
1031,2019090800,20190908001427,home,19.37,36.85,1.89,1.07,0.19,171.56,77.33,2560753,Donte Jackson,26,2019,3,2,09:32:00,LA,1,10,LA,0,10,2552475,SINGLEBACK,"1 RB, 2 TE, 2 WR",6,"3 DL, 4 LB, 4 DB",right,2019-09-08T18:01:02.000Z,2019-09-08T18:01:01.000Z,5-10,180,11/08/1995,Louisiana State,DB,CAR,LA,1,Bank of America Stadium,Charlotte North Carolina,Outdoor,Grass,Sunny,87.0,53,3,NNE
1032,2019090800,20190908001427,home,10.36,28.53,2.92,1.49,0.29,227.36,263.24,2561009,Marquis Haynes,98,2019,3,2,09:32:00,LA,1,10,LA,0,10,2552475,SINGLEBACK,"1 RB, 2 TE, 2 WR",6,"3 DL, 4 LB, 4 DB",right,2019-09-08T18:01:02.000Z,2019-09-08T18:01:01.000Z,6-2,235,12/16/1993,Mississippi,DL,CAR,LA,1,Bank of America Stadium,Charlotte North Carolina,Outdoor,Grass,Sunny,87.0,53,3,NNE
1033,2019090800,20190908001427,home,13.84,26.92,2.79,0.34,0.27,275.74,290.47,2561093,Jermaine Carter,56,2019,3,2,09:32:00,LA,1,10,LA,0,10,2552475,SINGLEBACK,"1 RB, 2 TE, 2 WR",6,"3 DL, 4 LB, 4 DB",right,2019-09-08T18:01:02.000Z,2019-09-08T18:01:01.000Z,6-1,225,01/14/1995,Maryland,LB,CAR,LA,1,Bank of America Stadium,Charlotte North Carolina,Outdoor,Grass,Sunny,87.0,53,3,NNE
