,GameId,PlayId,Team,X,Y,S,A,Dis,Orientation,Dir,NflId,DisplayName,JerseyNumber,Season,YardLine,Quarter,GameClock,PossessionTeam,Down,Distance,FieldPosition,HomeScoreBeforePlay,VisitorScoreBeforePlay,NflIdRusher,OffenseFormation,OffensePersonnel,DefendersInTheBox,DefensePersonnel,PlayDirection,TimeHandoff,TimeSnap,PlayerHeight,PlayerWeight,PlayerBirthDate,PlayerCollegeName,Position,HomeTeamAbbr,VisitorTeamAbbr,Week,Stadium,Location,StadiumType,Turf,GameWeather,Temperature,Humidity,WindSpeed,WindDirection
8404,2019090808,20190908081299,away,26.06,25.65,0.53,1.3,0.05,89.42,105.06,496762,Geno Atkins,97,2019,17,2,08:13:00,SEA,1,10,CIN,0,3,2558865,SINGLEBACK,"2 RB, 1 TE, 2 WR",6,"4 DL, 2 LB, 5 DB",left,2019-09-08T21:01:13.000Z,2019-09-08T21:01:12.000Z,6-1,300,03/28/1988,Georgia,DT,SEA,CIN,1,CenturyLink Field,"Seattle, WA",Outdoor,FieldTurf,Cloudy,64.0,82,7,S
8405,2019090808,20190908081299,away,26.58,18.58,1.8,1.68,0.18,61.49,107.29,496780,Carlos Dunlap,96,2019,17,2,08:13:00,SEA,1,10,CIN,0,3,2558865,SINGLEBACK,"2 RB, 1 TE, 2 WR",6,"4 DL, 2 LB, 5 DB",left,2019-09-08T21:01:13.000Z,2019-09-08T21:01:12.000Z,6-6,285,02/28/1989,Florida,DE,SEA,CIN,1,CenturyLink Field,"Seattle, WA",Outdoor,FieldTurf,Cloudy,64.0,82,7,S
8406,2019090808,20190908081299,away,23.41,31.62,2.2,0.9,0.22,95.45,300.19,2533060,Dre Kirkpatrick,27,2019,17,2,08:13:00,SEA,1,10,CIN,0,3,2558865,SINGLEBACK,"2 RB, 1 TE, 2 WR",6,"4 DL, 2 LB, 5 DB",left,2019-09-08T21:01:13.000Z,2019-09-08T21:01:12.000Z,6-2,190,10/26/1989,Alabama,CB,SEA,CIN,1,CenturyLink Field,"Seattle, WA",Outdoor,FieldTurf,Cloudy,64.0,82,7,S
8407,2019090808,20190908081299,away,16.94,28.72,0.38,0.23,0.05,88.06,290.93,2539233,Shawn Williams,36,2019,17,2,08:13:00,SEA,1,10,CIN,0,3,2558865,SINGLEBACK,"2 RB, 1 TE, 2 WR",6,"4 DL, 2 LB, 5 DB",left,2019-09-08T21:01:13.000Z,2019-09-08T21:01:12.000Z,6-0,210,05/13/1991,Georgia,SS,SEA,CIN,1,CenturyLink Field,"Seattle, WA",Outdoor,FieldTurf,Cloudy,64.0,82,7,S
8408,2019090808,20190908081299,away,24.4,15.01,0.41,0.54,0.04,77.14,44.76,2539338,B.W. Webb,23,2019,17,2,08:13:00,SEA,1,10,CIN,0,3,2558865,SINGLEBACK,"2 RB, 1 TE, 2 WR",6,"4 DL, 2 LB, 5 DB",left,2019-09-08T21:01:13.000Z,2019-09-08T21:01:12.000Z,5-11,190,05/03/1990,William & Mary,CB,SEA,CIN,1,CenturyLink Field,"Seattle, WA",Outdoor,FieldTurf,Cloudy,64.0,82,7,S
8409,2019090808,20190908081299,away,23.77,19.59,1.63,3.4,0.14,90.09,124.48,2543814,Preston Brown,52,2019,17,2,08:13:00,SEA,1,10,CIN,0,3,2558865,SINGLEBACK,"2 RB, 1 TE, 2 WR",6,"4 DL, 2 LB, 5 DB",left,2019-09-08T21:01:13.000Z,2019-09-08T21:01:12.000Z,6-1,251,10/27/1992,Louisville,MLB,SEA,CIN,1,CenturyLink Field,"Seattle, WA",Outdoor,FieldTurf,Cloudy,64.0,82,7,S
8410,2019090808,20190908081299,away,26.92,22.08,2.39,1.61,0.24,77.69,153.68,2555267,Andrew Billings,99,2019,17,2,08:13:00,SEA,1,10,CIN,0,3,2558865,SINGLEBACK,"2 RB, 1 TE, 2 WR",6,"4 DL, 2 LB, 5 DB",left,2019-09-08T21:01:13.000Z,2019-09-08T21:01:12.000Z,6-1,328,03/06/1995,Baylor,DT,SEA,CIN,1,CenturyLink Field,"Seattle, WA",Outdoor,FieldTurf,Cloudy,64.0,82,7,S
8411,2019090808,20190908081299,away,23.72,23.73,1.14,3.23,0.11,86.51,67.79,2555528,Nick Vigil,59,2019,17,2,08:13:00,SEA,1,10,CIN,0,3,2558865,SINGLEBACK,"2 RB, 1 TE, 2 WR",6,"4 DL, 2 LB, 5 DB",left,2019-09-08T21:01:13.000Z,2019-09-08T21:01:12.000Z,6-2,235,08/20/1993,Utah State,OLB,SEA,CIN,1,CenturyLink Field,"Seattle, WA",Outdoor,FieldTurf,Cloudy,64.0,82,7,S
8412,2019090808,20190908081299,away,20.24,12.51,0.68,0.09,0.11,21.83,236.95,2556367,William Jackson,22,2019,17,2,08:13:00,SEA,1,10,CIN,0,3,2558865,SINGLEBACK,"2 RB, 1 TE, 2 WR",6,"4 DL, 2 LB, 5 DB",left,2019-09-08T21:01:13.000Z,2019-09-08T21:01:12.000Z,6-0,196,10/27/1992,Houston,CB,SEA,CIN,1,CenturyLink Field,"Seattle, WA",Outdoor,FieldTurf,Cloudy,64.0,82,7,S
8413,2019090808,20190908081299,away,26.05,28.11,1.24,2.41,0.11,87.97,123.82,2560745,Sam Hubbard,94,2019,17,2,08:13:00,SEA,1,10,CIN,0,3,2558865,SINGLEBACK,"2 RB, 1 TE, 2 WR",6,"4 DL, 2 LB, 5 DB",left,2019-09-08T21:01:13.000Z,2019-09-08T21:01:12.000Z,6-5,265,06/29/1995,Ohio State,DE,SEA,CIN,1,CenturyLink Field,"Seattle, WA",Outdoor,FieldTurf,Cloudy,64.0,82,7,S
8414,2019090808,20190908081299,away,16.27,17.95,1.11,1.01,0.11,91.73,323.26,2560970,Jessie Bates,30,2019,17,2,08:13:00,SEA,1,10,CIN,0,3,2558865,SINGLEBACK,"2 RB, 1 TE, 2 WR",6,"4 DL, 2 LB, 5 DB",left,2019-09-08T21:01:13.000Z,2019-09-08T21:01:12.000Z,6-1,200,02/26/1997,Wake Forest,S,SEA,CIN,1,CenturyLink Field,"Seattle, WA",Outdoor,FieldTurf,Cloudy,64.0,82,7,S
8415,2019090808,20190908081299,home,28.24,19.42,1.8,1.42,0.18,264.99,181.98,808,Duane Brown,76,2019,17,2,08:13:00,SEA,1,10,CIN,0,3,2558865,SINGLEBACK,"2 RB, 1 TE, 2 WR",6,"4 DL, 2 LB, 5 DB",left,2019-09-08T21:01:13.000Z,2019-09-08T21:01:12.000Z,6-4,315,08/30/1985,Virginia Tech,T,SEA,CIN,1,CenturyLink Field,"Seattle, WA",Outdoor,FieldTurf,Cloudy,64.0,82,7,S
8416,2019090808,20190908081299,home,28.95,23.38,2.06,4.83,0.18,211.52,110.08,2532975,Russell Wilson,3,2019,17,2,08:13:00,SEA,1,10,CIN,0,3,2558865,SINGLEBACK,"2 RB, 1 TE, 2 WR",6,"4 DL, 2 LB, 5 DB",left,2019-09-08T21:01:13.000Z,2019-09-08T21:01:12.000Z,5-11,215,11/29/1988,Wisconsin,QB,SEA,CIN,1,CenturyLink Field,"Seattle, WA",Outdoor,FieldTurf,Cloudy,64.0,82,7,S
8417,2019090808,20190908081299,home,27.48,25.26,0.89,1.15,0.09,259.65,313.6,2540166,D.J. Fluker,78,2019,17,2,08:13:00,SEA,1,10,CIN,0,3,2558865,SINGLEBACK,"2 RB, 1 TE, 2 WR",6,"4 DL, 2 LB, 5 DB",left,2019-09-08T21:01:13.000Z,2019-09-08T21:01:12.000Z,6-5,342,03/13/1991,Alabama,OG,SEA,CIN,1,CenturyLink Field,"Seattle, WA",Outdoor,FieldTurf,Cloudy,64.0,82,7,S
8418,2019090808,20190908081299,home,27.22,16.17,1.6,3.49,0.15,317.81,290.95,2541966,Jaron Brown,18,2019,17,2,08:13:00,SEA,1,10,CIN,0,3,2558865,SINGLEBACK,"2 RB, 1 TE, 2 WR",6,"4 DL, 2 LB, 5 DB",left,2019-09-08T21:01:13.000Z,2019-09-08T21:01:12.000Z,6-3,205,01/08/1990,Clemson,WR,SEA,CIN,1,CenturyLink Field,"Seattle, WA",Outdoor,FieldTurf,Cloudy,64.0,82,7,S
8419,2019090808,20190908081299,home,27.72,22.24,2.54,1.22,0.26,238.27,166.89,2550135,Justin Britt,68,2019,17,2,08:13:00,SEA,1,10,CIN,0,3,2558865,SINGLEBACK,"2 RB, 1 TE, 2 WR",6,"4 DL, 2 LB, 5 DB",left,2019-09-08T21:01:13.000Z,2019-09-08T21:01:12.000Z,6-6,315,05/29/1991,Missouri,C,SEA,CIN,1,CenturyLink Field,"Seattle, WA",Outdoor,FieldTurf,Cloudy,64.0,82,7,S
8420,2019090808,20190908081299,home,26.95,26.44,1.95,1.33,0.2,242.72,252.54,2555395,Germain Ifedi,65,2019,17,2,08:13:00,SEA,1,10,CIN,0,3,2558865,SINGLEBACK,"2 RB, 1 TE, 2 WR",6,"4 DL, 2 LB, 5 DB",left,2019-09-08T21:01:13.000Z,2019-09-08T21:01:12.000Z,6-5,325,06/02/1994,Texas A&M,G,SEA,CIN,1,CenturyLink Field,"Seattle, WA",Outdoor,FieldTurf,Cloudy,64.0,82,7,S
8421,2019090808,20190908081299,home,27.59,20.98,2.14,1.42,0.22,246.83,203.23,2557891,Ethan Pocic,77,2019,17,2,08:13:00,SEA,1,10,CIN,0,3,2558865,SINGLEBACK,"2 RB, 1 TE, 2 WR",6,"4 DL, 2 LB, 5 DB",left,2019-09-08T21:01:13.000Z,2019-09-08T21:01:12.000Z,6-6,320,08/05/1995,Louisiana State,C,SEA,CIN,1,CenturyLink Field,"Seattle, WA",Outdoor,FieldTurf,Cloudy,64.0,82,7,S
8422,2019090808,20190908081299,home,30.17,22.37,6.43,1.45,0.64,2.07,4.22,2558865,Chris Carson,32,2019,17,2,08:13:00,SEA,1,10,CIN,0,3,2558865,SINGLEBACK,"2 RB, 1 TE, 2 WR",6,"4 DL, 2 LB, 5 DB",left,2019-09-08T21:01:13.000Z,2019-09-08T21:01:12.000Z,5-11,222,09/16/1994,Oklahoma State,RB,SEA,CIN,1,CenturyLink Field,"Seattle, WA",Outdoor,FieldTurf,Cloudy,64.0,82,7,S
8423,2019090808,20190908081299,home,34.32,22.98,1.93,3.17,0.19,234.67,212.14,2560835,Rashaad Penny,20,2019,17,2,08:13:00,SEA,1,10,CIN,0,3,2558865,SINGLEBACK,"2 RB, 1 TE, 2 WR",6,"4 DL, 2 LB, 5 DB",left,2019-09-08T21:01:13.000Z,2019-09-08T21:01:12.000Z,5-11,220,02/02/1996,San Diego State,RB,SEA,CIN,1,CenturyLink Field,"Seattle, WA",Outdoor,FieldTurf,Cloudy,64.0,82,7,S
8424,2019090808,20190908081299,home,27.67,28.74,0.68,3.55,0.06,271.62,339.64,2561046,Will Dissly,88,2019,17,2,08:13:00,SEA,1,10,CIN,0,3,2558865,SINGLEBACK,"2 RB, 1 TE, 2 WR",6,"4 DL, 2 LB, 5 DB",left,2019-09-08T21:01:13.000Z,2019-09-08T21:01:12.000Z,6-4,267,07/08/1996,Washington,TE,SEA,CIN,1,CenturyLink Field,"Seattle, WA",Outdoor,FieldTurf,Cloudy,64.0,82,7,S
8425,2019090808,20190908081299,home,28.33,14.56,1.94,4.55,0.18,285.15,279.62,2561671,Malik Turner,17,2019,17,2,08:13:00,SEA,1,10,CIN,0,3,2558865,SINGLEBACK,"2 RB, 1 TE, 2 WR",6,"4 DL, 2 LB, 5 DB",left,2019-09-08T21:01:13.000Z,2019-09-08T21:01:12.000Z,6-2,200,01/30/1996,Illinois,WR,SEA,CIN,1,CenturyLink Field,"Seattle, WA",Outdoor,FieldTurf,Cloudy,64.0,82,7,S
