,GameId,PlayId,Team,X,Y,S,A,Dis,Orientation,Dir,NflId,DisplayName,JerseyNumber,Season,YardLine,Quarter,GameClock,PossessionTeam,Down,Distance,FieldPosition,HomeScoreBeforePlay,VisitorScoreBeforePlay,NflIdRusher,OffenseFormation,OffensePersonnel,DefendersInTheBox,DefensePersonnel,PlayDirection,TimeHandoff,TimeSnap,PlayerHeight,PlayerWeight,PlayerBirthDate,PlayerCollegeName,Position,HomeTeamAbbr,VisitorTeamAbbr,Week,Stadium,Location,StadiumType,Turf,GameWeather,Temperature,Humidity,WindSpeed,WindDirection
29700,2019091600,20190916001346,away,58.47,26.44,2.67,3.03,0.27,264.94,143.84,496727,Morgan Burnett,42,2019,30,2,10:11:00,NYJ,1,5,NYJ,0,13,2540175,SINGLEBACK,"1 RB, 1 TE, 3 WR",7,"3 DL, 3 LB, 5 DB",right,2019-09-17T01:13:00.000Z,2019-09-17T01:12:59.000Z,6-1,209,01/13/1989,Georgia Tech,SS,NYJ,CLE,2,MetLife Stadium,"East Rutherford, NJ",Outdoors,FieldTurf,Cloudy,72.0,69,3,N
29701,2019091600,20190916001346,away,38.82,32.16,5.29,2.47,0.52,222.9,185.5,2533534,Olivier Vernon,54,2019,30,2,10:11:00,NYJ,1,5,NYJ,0,13,2540175,SINGLEBACK,"1 RB, 1 TE, 3 WR",7,"3 DL, 3 LB, 5 DB",right,2019-09-17T01:13:00.000Z,2019-09-17T01:12:59.000Z,6-2,262,10/07/1990,Miami,OLB,NYJ,CLE,2,MetLife Stadium,"East Rutherford, NJ",Outdoors,FieldTurf,Cloudy,72.0,69,3,N
29702,2019091600,20190916001346,away,39.31,27.81,4.1,0.76,0.42,216.78,187.91,2540142,Sheldon Richardson,98,2019,30,2,10:11:00,NYJ,1,5,NYJ,0,13,2540175,SINGLEBACK,"1 RB, 1 TE, 3 WR",7,"3 DL, 3 LB, 5 DB",right,2019-09-17T01:13:00.000Z,2019-09-17T01:12:59.000Z,6-3,294,11/29/1990,Missouri,DT,NYJ,CLE,2,MetLife Stadium,"East Rutherford, NJ",Outdoors,FieldTurf,Cloudy,72.0,69,3,N
29703,2019091600,20190916001346,away,38.91,21.79,4.15,1.22,0.43,266.35,189.53,2543692,Chris Smith,50,2019,30,2,10:11:00,NYJ,1,5,NYJ,0,13,2540175,SINGLEBACK,"1 RB, 1 TE, 3 WR",7,"3 DL, 3 LB, 5 DB",right,2019-09-17T01:13:00.000Z,2019-09-17T01:12:59.000Z,6-1,266,02/11/1992,Arkansas,DE,NYJ,CLE,2,MetLife Stadium,"East Rutherford, NJ",Outdoors,FieldTurf,Cloudy,72.0,69,3,N
29704,2019091600,20190916001346,away,39.38,26.25,3.69,1.87,0.38,240.83,223.71,2543720,Christian Kirksey,58,2019,30,2,10:11:00,NYJ,1,5,NYJ,0,13,2540175,SINGLEBACK,"1 RB, 1 TE, 3 WR",7,"3 DL, 3 LB, 5 DB",right,2019-09-17T01:13:00.000Z,2019-09-17T01:12:59.000Z,6-2,235,08/31/1992,Iowa,OLB,NYJ,CLE,2,MetLife Stadium,"East Rutherford, NJ",Outdoors,FieldTurf,Cloudy,72.0,69,3,N
29705,2019091600,20190916001346,away,42.27,30.58,5.56,2.03,0.55,229.79,188.42,2552697,Jermaine Whitehead,35,2019,30,2,10:11:00,NYJ,1,5,NYJ,0,13,2540175,SINGLEBACK,"1 RB, 1 TE, 3 WR",7,"3 DL, 3 LB, 5 DB",right,2019-09-17T01:13:00.000Z,2019-09-17T01:12:59.000Z,5-11,195,03/12/1993,Auburn,FS,NYJ,CLE,2,MetLife Stadium,"East Rutherford, NJ",Outdoors,FieldTurf,Cloudy,72.0,69,3,N
29706,2019091600,20190916001346,away,40.55,21.97,5.38,0.58,0.53,262.09,215.54,2555166,Joe Schobert,53,2019,30,2,10:11:00,NYJ,1,5,NYJ,0,13,2540175,SINGLEBACK,"1 RB, 1 TE, 3 WR",7,"3 DL, 3 LB, 5 DB",right,2019-09-17T01:13:00.000Z,2019-09-17T01:12:59.000Z,6-1,245,11/06/1993,Wisconsin,MLB,NYJ,CLE,2,MetLife Stadium,"East Rutherford, NJ",Outdoors,FieldTurf,Cloudy,72.0,69,3,N
29707,2019091600,20190916001346,away,41.23,18.57,3.01,0.67,0.29,303.99,210.28,2555173,Eric Murray,22,2019,30,2,10:11:00,NYJ,1,5,NYJ,0,13,2540175,SINGLEBACK,"1 RB, 1 TE, 3 WR",7,"3 DL, 3 LB, 5 DB",right,2019-09-17T01:13:00.000Z,2019-09-17T01:12:59.000Z,5-11,199,01/07/1994,Minnesota,FS,NYJ,CLE,2,MetLife Stadium,"East Rutherford, NJ",Outdoors,FieldTurf,Cloudy,72.0,69,3,N
29708,2019091600,20190916001346,away,49.63,11.43,3.54,0.56,0.35,288.72,78.35,2560916,Denzel Ward,21,2019,30,2,10:11:00,NYJ,1,5,NYJ,0,13,2540175,SINGLEBACK,"1 RB, 1 TE, 3 WR",7,"3 DL, 3 LB, 5 DB",right,2019-09-17T01:13:00.000Z,2019-09-17T01:12:59.000Z,5-11,191,04/28/1997,Ohio State,CB,NYJ,CLE,2,MetLife Stadium,"East Rutherford, NJ",Outdoors,FieldTurf,Cloudy,72.0,69,3,N
29709,2019091600,20190916001346,away,38.24,24.53,3.68,0.08,0.38,296.98,213.97,2561458,Daniel Ekuale,96,2019,30,2,10:11:00,NYJ,1,5,NYJ,0,13,2540175,SINGLEBACK,"1 RB, 1 TE, 3 WR",7,"3 DL, 3 LB, 5 DB",right,2019-09-17T01:13:00.000Z,2019-09-17T01:12:59.000Z,6-3,300,01/13/1994,Washington State,DT,NYJ,CLE,2,MetLife Stadium,"East Rutherford, NJ",Outdoors,FieldTurf,Cloudy,72.0,69,3,N
29710,2019091600,20190916001346,away,49.6,42.03,2.97,3.74,0.29,182.09,144.9,2562785,Greedy Williams,26,2019,30,2,10:11:00,NYJ,1,5,NYJ,0,13,2540175,SINGLEBACK,"1 RB, 1 TE, 3 WR",7,"3 DL, 3 LB, 5 DB",right,2019-09-17T01:13:00.000Z,2019-09-17T01:12:59.000Z,6-2,184,12/03/1997,Louisiana State,DB,NYJ,CLE,2,MetLife Stadium,"East Rutherford, NJ",Outdoors,FieldTurf,Cloudy,72.0,69,3,N
29711,2019091600,20190916001346,home,38.74,25.91,3.22,1.67,0.34,316.59,187.84,2495655,Ryan Kalil,55,2019,30,2,10:11:00,NYJ,1,5,NYJ,0,13,2540175,SINGLEBACK,"1 RB, 1 TE, 3 WR",7,"3 DL, 3 LB, 5 DB",right,2019-09-17T01:13:00.000Z,2019-09-17T01:12:59.000Z,6-2,300,03/29/1985,Southern California,C,NYJ,CLE,2,MetLife Stadium,"East Rutherford, NJ",Outdoors,FieldTurf,Cloudy,72.0,69,3,N
29712,2019091600,20190916001346,home,38.3,28.06,4.14,0.19,0.42,139.48,191.56,2532922,Kelechi Osemele,70,2019,30,2,10:11:00,NYJ,1,5,NYJ,0,13,2540175,SINGLEBACK,"1 RB, 1 TE, 3 WR",7,"3 DL, 3 LB, 5 DB",right,2019-09-17T01:13:00.000Z,2019-09-17T01:12:59.000Z,6-5,330,06/24/1989,Iowa State,G,NYJ,CLE,2,MetLife Stadium,"East Rutherford, NJ",Outdoors,FieldTurf,Cloudy,72.0,69,3,N
29713,2019091600,20190916001346,home,40.48,30.04,4.91,0.78,0.51,101.83,149.87,2533442,Kelvin Beachum,68,2019,30,2,10:11:00,NYJ,1,5,NYJ,0,13,2540175,SINGLEBACK,"1 RB, 1 TE, 3 WR",7,"3 DL, 3 LB, 5 DB",right,2019-09-17T01:13:00.000Z,2019-09-17T01:12:59.000Z,6-3,308,06/08/1989,Southern Methodist,T,NYJ,CLE,2,MetLife Stadium,"East Rutherford, NJ",Outdoors,FieldTurf,Cloudy,72.0,69,3,N
29714,2019091600,20190916001346,home,41.0,40.62,5.21,3.17,0.51,113.88,143.83,2535964,Josh Bellamy,15,2019,30,2,10:11:00,NYJ,1,5,NYJ,0,13,2540175,SINGLEBACK,"1 RB, 1 TE, 3 WR",7,"3 DL, 3 LB, 5 DB",right,2019-09-17T01:13:00.000Z,2019-09-17T01:12:59.000Z,6-0,208,05/18/1989,Louisville,WR,NYJ,CLE,2,MetLife Stadium,"East Rutherford, NJ",Outdoors,FieldTurf,Cloudy,72.0,69,3,N
29715,2019091600,20190916001346,home,37.96,25.04,2.99,1.36,0.31,104.77,205.55,2539247,Brian Winters,67,2019,30,2,10:11:00,NYJ,1,5,NYJ,0,13,2540175,SINGLEBACK,"1 RB, 1 TE, 3 WR",7,"3 DL, 3 LB, 5 DB",right,2019-09-17T01:13:00.000Z,2019-09-17T01:12:59.000Z,6-4,320,07/10/1991,Kent State,G,NYJ,CLE,2,MetLife Stadium,"East Rutherford, NJ",Outdoors,FieldTurf,Cloudy,72.0,69,3,N
29716,2019091600,20190916001346,home,34.27,26.9,5.53,1.71,0.54,119.17,146.28,2540175,Le'Veon Bell,26,2019,30,2,10:11:00,NYJ,1,5,NYJ,0,13,2540175,SINGLEBACK,"1 RB, 1 TE, 3 WR",7,"3 DL, 3 LB, 5 DB",right,2019-09-17T01:13:00.000Z,2019-09-17T01:12:59.000Z,6-1,225,02/18/1992,Michigan State,RB,NYJ,CLE,2,MetLife Stadium,"East Rutherford, NJ",Outdoors,FieldTurf,Cloudy,72.0,69,3,N
29717,2019091600,20190916001346,home,38.4,21.79,4.2,1.74,0.42,101.38,182.03,2541316,Ryan Griffin,84,2019,30,2,10:11:00,NYJ,1,5,NYJ,0,13,2540175,SINGLEBACK,"1 RB, 1 TE, 3 WR",7,"3 DL, 3 LB, 5 DB",right,2019-09-17T01:13:00.000Z,2019-09-17T01:12:59.000Z,6-6,255,01/11/1990,Connecticut,TE,NYJ,CLE,2,MetLife Stadium,"East Rutherford, NJ",Outdoors,FieldTurf,Cloudy,72.0,69,3,N
29718,2019091600,20190916001346,home,39.62,19.28,2.69,4.75,0.27,106.15,114.49,2552415,Jamison Crowder,82,2019,30,2,10:11:00,NYJ,1,5,NYJ,0,13,2540175,SINGLEBACK,"1 RB, 1 TE, 3 WR",7,"3 DL, 3 LB, 5 DB",right,2019-09-17T01:13:00.000Z,2019-09-17T01:12:59.000Z,5-9,177,06/17/1993,Duke,WR,NYJ,CLE,2,MetLife Stadium,"East Rutherford, NJ",Outdoors,FieldTurf,Cloudy,72.0,69,3,N
29719,2019091600,20190916001346,home,34.88,27.74,4.41,1.76,0.44,248.48,244.6,2553457,Trevor Siemian,19,2019,30,2,10:11:00,NYJ,1,5,NYJ,0,13,2540175,SINGLEBACK,"1 RB, 1 TE, 3 WR",7,"3 DL, 3 LB, 5 DB",right,2019-09-17T01:13:00.000Z,2019-09-17T01:12:59.000Z,6-3,220,12/26/1991,Northwestern,QB,NYJ,CLE,2,MetLife Stadium,"East Rutherford, NJ",Outdoors,FieldTurf,Cloudy,72.0,69,3,N
29720,2019091600,20190916001346,home,38.73,22.89,4.18,0.81,0.44,165.04,171.08,2555193,Brandon Shell,72,2019,30,2,10:11:00,NYJ,1,5,NYJ,0,13,2540175,SINGLEBACK,"1 RB, 1 TE, 3 WR",7,"3 DL, 3 LB, 5 DB",right,2019-09-17T01:13:00.000Z,2019-09-17T01:12:59.000Z,6-5,324,02/06/1992,South Carolina,T,NYJ,CLE,2,MetLife Stadium,"East Rutherford, NJ",Outdoors,FieldTurf,Cloudy,72.0,69,3,N
29721,2019091600,20190916001346,home,42.2,11.29,5.32,2.07,0.52,83.4,80.03,2556462,Robby Anderson,11,2019,30,2,10:11:00,NYJ,1,5,NYJ,0,13,2540175,SINGLEBACK,"1 RB, 1 TE, 3 WR",7,"3 DL, 3 LB, 5 DB",right,2019-09-17T01:13:00.000Z,2019-09-17T01:12:59.000Z,6-3,190,05/09/1993,Temple,WR,NYJ,CLE,2,MetLife Stadium,"East Rutherford, NJ",Outdoors,FieldTurf,Cloudy,72.0,69,3,N
