,GameId,PlayId,Team,X,Y,S,A,Dis,Orientation,Dir,NflId,DisplayName,JerseyNumber,Season,YardLine,Quarter,GameClock,PossessionTeam,Down,Distance,FieldPosition,HomeScoreBeforePlay,VisitorScoreBeforePlay,NflIdRusher,OffenseFormation,OffensePersonnel,DefendersInTheBox,DefensePersonnel,PlayDirection,TimeHandoff,TimeSnap,PlayerHeight,PlayerWeight,PlayerBirthDate,PlayerCollegeName,Position,HomeTeamAbbr,VisitorTeamAbbr,Week,Stadium,Location,StadiumType,Turf,GameWeather,Temperature,Humidity,WindSpeed,WindDirection
19866,2019091504,20190915040051,away,34.45,25.0,1.49,0.84,0.15,96.9,0.2,2543729,Brandon Linder,65,2019,25,1,15:00:00,JAX,1,10,JAX,0,0,2557973,SHOTGUN,"1 RB, 1 TE, 3 WR",7,"3 DL, 3 LB, 5 DB",right,2019-09-15T17:03:14.000Z,2019-09-15T17:03:13.000Z,6-6,315,01/25/1992,Miami,C,HOU,JAX,2,NRG Stadium,"Houston, TX",Retractable Roof,Artifical,Sunny,89.0,52,10mph,North East
19867,2019091504,20190915040051,away,34.15,25.95,0.8,0.84,0.09,51.9,35.83,2550589,Andrew Norwell,68,2019,25,1,15:00:00,JAX,1,10,JAX,0,0,2557973,SHOTGUN,"1 RB, 1 TE, 3 WR",7,"3 DL, 3 LB, 5 DB",right,2019-09-15T17:03:14.000Z,2019-09-15T17:03:13.000Z,6-6,325,10/25/1991,Ohio State,G,HOU,JAX,2,NRG Stadium,"Houston, TX",Retractable Roof,Artifical,Sunny,89.0,52,10mph,North East
19868,2019091504,20190915040051,away,34.42,23.45,1.96,1.02,0.2,104.3,30.03,2552330,A.J. Cann,60,2019,25,1,15:00:00,JAX,1,10,JAX,0,0,2557973,SHOTGUN,"1 RB, 1 TE, 3 WR",7,"3 DL, 3 LB, 5 DB",right,2019-09-15T17:03:14.000Z,2019-09-15T17:03:13.000Z,6-3,325,10/23/1991,South Carolina,G,HOU,JAX,2,NRG Stadium,"Houston, TX",Retractable Roof,Artifical,Sunny,89.0,52,10mph,North East
19869,2019091504,20190915040051,away,35.55,45.19,2.94,2.06,0.29,74.89,72.04,2552652,Chris Conley,18,2019,25,1,15:00:00,JAX,1,10,JAX,0,0,2557973,SHOTGUN,"1 RB, 1 TE, 3 WR",7,"3 DL, 3 LB, 5 DB",right,2019-09-15T17:03:14.000Z,2019-09-15T17:03:13.000Z,6-3,205,10/25/1992,Georgia,WR,HOU,JAX,2,NRG Stadium,"Houston, TX",Retractable Roof,Artifical,Sunny,89.0,52,10mph,North East
19870,2019091504,20190915040051,away,35.37,20.5,2.95,0.86,0.29,108.67,57.17,2553318,James O'Shaughnessy,80,2019,25,1,15:00:00,JAX,1,10,JAX,0,0,2557973,SHOTGUN,"1 RB, 1 TE, 3 WR",7,"3 DL, 3 LB, 5 DB",right,2019-09-15T17:03:14.000Z,2019-09-15T17:03:13.000Z,6-4,245,01/14/1992,Illinois State,TE,HOU,JAX,2,NRG Stadium,"Houston, TX",Retractable Roof,Artifical,Sunny,89.0,52,10mph,North East
19871,2019091504,20190915040051,away,34.58,33.39,3.63,4.05,0.35,89.63,96.82,2557895,Dede Westbrook,12,2019,25,1,15:00:00,JAX,1,10,JAX,0,0,2557973,SHOTGUN,"1 RB, 1 TE, 3 WR",7,"3 DL, 3 LB, 5 DB",right,2019-09-15T17:03:14.000Z,2019-09-15T17:03:13.000Z,6-0,176,11/21/1993,Oklahoma,WR,HOU,JAX,2,NRG Stadium,"Houston, TX",Retractable Roof,Artifical,Sunny,89.0,52,10mph,North East
19872,2019091504,20190915040051,away,30.43,23.27,4.46,3.49,0.43,76.21,36.06,2557973,Leonard Fournette,27,2019,25,1,15:00:00,JAX,1,10,JAX,0,0,2557973,SHOTGUN,"1 RB, 1 TE, 3 WR",7,"3 DL, 3 LB, 5 DB",right,2019-09-15T17:03:14.000Z,2019-09-15T17:03:13.000Z,6-0,228,01/18/1995,Louisiana State,RB,HOU,JAX,2,NRG Stadium,"Houston, TX",Retractable Roof,Artifical,Sunny,89.0,52,10mph,North East
19873,2019091504,20190915040051,away,33.41,28.16,2.22,0.34,0.21,51.33,353.5,2560853,Will Richardson,76,2019,25,1,15:00:00,JAX,1,10,JAX,0,0,2557973,SHOTGUN,"1 RB, 1 TE, 3 WR",7,"3 DL, 3 LB, 5 DB",right,2019-09-15T17:03:14.000Z,2019-09-15T17:03:13.000Z,6-6,303,01/04/1996,North Carolina State,T,HOU,JAX,2,NRG Stadium,"Houston, TX",Retractable Roof,Artifical,Sunny,89.0,52,10mph,North East
19874,2019091504,20190915040051,away,34.29,39.27,2.73,3.48,0.26,69.5,47.14,2561018,D.J. Chark,17,2019,25,1,15:00:00,JAX,1,10,JAX,0,0,2557973,SHOTGUN,"1 RB, 1 TE, 3 WR",7,"3 DL, 3 LB, 5 DB",right,2019-09-15T17:03:14.000Z,2019-09-15T17:03:13.000Z,6-4,198,09/23/1996,Louisiana State,WR,HOU,JAX,2,NRG Stadium,"Houston, TX",Retractable Roof,Artifical,Sunny,89.0,52,10mph,North East
19875,2019091504,20190915040051,away,34.51,22.4,2.39,0.61,0.25,65.82,31.02,2562756,Jawaan Taylor,75,2019,25,1,15:00:00,JAX,1,10,JAX,0,0,2557973,SHOTGUN,"1 RB, 1 TE, 3 WR",7,"3 DL, 3 LB, 5 DB",right,2019-09-15T17:03:14.000Z,2019-09-15T17:03:13.000Z,6-5,312,11/25/1997,Florida,T,HOU,JAX,2,NRG Stadium,"Houston, TX",Retractable Roof,Artifical,Sunny,89.0,52,10mph,North East
19876,2019091504,20190915040051,away,30.33,24.24,0.77,0.56,0.07,105.0,54.77,2562796,Gardner Minshew,15,2019,25,1,15:00:00,JAX,1,10,JAX,0,0,2557973,SHOTGUN,"1 RB, 1 TE, 3 WR",7,"3 DL, 3 LB, 5 DB",right,2019-09-15T17:03:14.000Z,2019-09-15T17:03:13.000Z,6-1,225,05/16/1996,Washington State,QB,HOU,JAX,2,NRG Stadium,"Houston, TX",Retractable Roof,Artifical,Sunny,89.0,52,10mph,North East
19877,2019091504,20190915040051,home,34.69,19.07,2.22,1.6,0.22,315.25,332.07,2495488,J.J. Watt,99,2019,25,1,15:00:00,JAX,1,10,JAX,0,0,2557973,SHOTGUN,"1 RB, 1 TE, 3 WR",7,"3 DL, 3 LB, 5 DB",right,2019-09-15T17:03:14.000Z,2019-09-15T17:03:13.000Z,6-5,288,03/22/1989,Wisconsin,DE,HOU,JAX,2,NRG Stadium,"Houston, TX",Retractable Roof,Artifical,Sunny,89.0,52,10mph,North East
19878,2019091504,20190915040051,home,42.42,32.77,0.81,1.61,0.07,265.62,93.97,2495872,Johnathan Joseph,24,2019,25,1,15:00:00,JAX,1,10,JAX,0,0,2557973,SHOTGUN,"1 RB, 1 TE, 3 WR",7,"3 DL, 3 LB, 5 DB",right,2019-09-15T17:03:14.000Z,2019-09-15T17:03:13.000Z,5-11,185,04/16/1984,South Carolina,CB,HOU,JAX,2,NRG Stadium,"Houston, TX",Retractable Roof,Artifical,Sunny,89.0,52,10mph,North East
19879,2019091504,20190915040051,home,35.81,19.98,1.36,0.27,0.13,309.25,57.4,2532848,Tashaun Gipson,39,2019,25,1,15:00:00,JAX,1,10,JAX,0,0,2557973,SHOTGUN,"1 RB, 1 TE, 3 WR",7,"3 DL, 3 LB, 5 DB",right,2019-09-15T17:03:14.000Z,2019-09-15T17:03:13.000Z,6-1,212,08/07/1990,Wyoming,FS,HOU,JAX,2,NRG Stadium,"Houston, TX",Retractable Roof,Artifical,Sunny,89.0,52,10mph,North East
19880,2019091504,20190915040051,home,34.21,29.05,1.58,3.16,0.17,241.92,298.06,2533049,Whitney Mercilus,59,2019,25,1,15:00:00,JAX,1,10,JAX,0,0,2557973,SHOTGUN,"1 RB, 1 TE, 3 WR",7,"3 DL, 3 LB, 5 DB",right,2019-09-15T17:03:14.000Z,2019-09-15T17:03:13.000Z,6-4,258,07/21/1990,Illinois,OLB,HOU,JAX,2,NRG Stadium,"Houston, TX",Retractable Roof,Artifical,Sunny,89.0,52,10mph,North East
19881,2019091504,20190915040051,home,35.95,39.39,1.73,2.26,0.17,270.33,39.3,2543505,Bradley Roby,21,2019,25,1,15:00:00,JAX,1,10,JAX,0,0,2557973,SHOTGUN,"1 RB, 1 TE, 3 WR",7,"3 DL, 3 LB, 5 DB",right,2019-09-15T17:03:14.000Z,2019-09-15T17:03:13.000Z,5-11,194,05/01/1992,Ohio State,CB,HOU,JAX,2,NRG Stadium,"Houston, TX",Retractable Roof,Artifical,Sunny,89.0,52,10mph,North East
19882,2019091504,20190915040051,home,35.1,25.05,1.27,1.1,0.13,283.79,340.53,2552490,Benardrick McKinney,55,2019,25,1,15:00:00,JAX,1,10,JAX,0,0,2557973,SHOTGUN,"1 RB, 1 TE, 3 WR",7,"3 DL, 3 LB, 5 DB",right,2019-09-15T17:03:14.000Z,2019-09-15T17:03:13.000Z,6-4,257,11/19/1992,Mississippi State,ILB,HOU,JAX,2,NRG Stadium,"Houston, TX",Retractable Roof,Artifical,Sunny,89.0,52,10mph,North East
19883,2019091504,20190915040051,home,35.05,26.62,1.37,1.94,0.13,260.04,322.48,2552670,Angelo Blackson,97,2019,25,1,15:00:00,JAX,1,10,JAX,0,0,2557973,SHOTGUN,"1 RB, 1 TE, 3 WR",7,"3 DL, 3 LB, 5 DB",right,2019-09-15T17:03:14.000Z,2019-09-15T17:03:13.000Z,6-4,318,11/14/1992,Auburn,DE,HOU,JAX,2,NRG Stadium,"Houston, TX",Retractable Roof,Artifical,Sunny,89.0,52,10mph,North East
19884,2019091504,20190915040051,home,35.3,22.82,2.42,1.09,0.23,275.25,356.22,2555388,D.J. Reader,98,2019,25,1,15:00:00,JAX,1,10,JAX,0,0,2557973,SHOTGUN,"1 RB, 1 TE, 3 WR",7,"3 DL, 3 LB, 5 DB",right,2019-09-15T17:03:14.000Z,2019-09-15T17:03:13.000Z,6-3,347,07/01/1994,Clemson,DT,HOU,JAX,2,NRG Stadium,"Houston, TX",Retractable Roof,Artifical,Sunny,89.0,52,10mph,North East
19885,2019091504,20190915040051,home,38.09,22.95,3.37,2.14,0.33,275.12,330.12,2558094,Zach Cunningham,41,2019,25,1,15:00:00,JAX,1,10,JAX,0,0,2557973,SHOTGUN,"1 RB, 1 TE, 3 WR",7,"3 DL, 3 LB, 5 DB",right,2019-09-15T17:03:14.000Z,2019-09-15T17:03:13.000Z,6-3,238,12/12/1994,Vanderbilt,ILB,HOU,JAX,2,NRG Stadium,"Houston, TX",Retractable Roof,Artifical,Sunny,89.0,52,10mph,North East
19886,2019091504,20190915040051,home,47.57,28.44,1.09,2.74,0.11,263.46,258.41,2560851,Justin Reid,20,2019,25,1,15:00:00,JAX,1,10,JAX,0,0,2557973,SHOTGUN,"1 RB, 1 TE, 3 WR",7,"3 DL, 3 LB, 5 DB",right,2019-09-15T17:03:14.000Z,2019-09-15T17:03:13.000Z,6-1,204,02/15/1997,Stanford,SS,HOU,JAX,2,NRG Stadium,"Houston, TX",Retractable Roof,Artifical,Sunny,89.0,52,10mph,North East
19887,2019091504,20190915040051,home,36.7,45.45,3.02,2.3,0.29,200.47,56.62,2562295,Lonnie Johnson,32,2019,25,1,15:00:00,JAX,1,10,JAX,0,0,2557973,SHOTGUN,"1 RB, 1 TE, 3 WR",7,"3 DL, 3 LB, 5 DB",right,2019-09-15T17:03:14.000Z,2019-09-15T17:03:13.000Z,6-2,213,11/04/1995,Kentucky,DB,HOU,JAX,2,NRG Stadium,"Houston, TX",Retractable Roof,Artifical,Sunny,89.0,52,10mph,North East
