,GameId,PlayId,Team,X,Y,S,A,Dis,Orientation,Dir,NflId,DisplayName,JerseyNumber,Season,YardLine,Quarter,GameClock,PossessionTeam,Down,Distance,FieldPosition,HomeScoreBeforePlay,VisitorScoreBeforePlay,NflIdRusher,OffenseFormation,OffensePersonnel,DefendersInTheBox,DefensePersonnel,PlayDirection,TimeHandoff,TimeSnap,PlayerHeight,PlayerWeight,PlayerBirthDate,PlayerCollegeName,Position,HomeTeamAbbr,VisitorTeamAbbr,Week,Stadium,Location,StadiumType,Turf,GameWeather,Temperature,Humidity,WindSpeed,WindDirection
8096,2019090807,20190908073708,away,50.82,31.04,3.47,1.35,0.35,150.19,158.93,2495493,Justin Houston,99,2019,40,5,08:44:00,LAC,1,10,IND,24,24,2559169,I_FORM,"2 RB, 2 TE, 1 WR",8,"3 DL, 4 LB, 4 DB",left,2019-09-08T23:05:25.000Z,2019-09-08T23:05:23.000Z,6-3,270,01/21/1989,Georgia,DE,LAC,IND,1,Dignity Health Sports Park,"Carson, CA",,Grass,Sunny,77.0,52,10,SW
8097,2019090807,20190908073708,away,51.74,27.97,2.13,0.37,0.26,62.47,102.16,2539310,Margus Hunt,92,2019,40,5,08:44:00,LAC,1,10,IND,24,24,2559169,I_FORM,"2 RB, 2 TE, 1 WR",8,"3 DL, 4 LB, 4 DB",left,2019-09-08T23:05:25.000Z,2019-09-08T23:05:23.000Z,6-8,295,07/14/1987,Southern Methodist,DT,LAC,IND,1,Dignity Health Sports Park,"Carson, CA",,Grass,Sunny,77.0,52,10,SW
8098,2019090807,20190908073708,away,49.43,35.55,3.25,2.57,0.32,154.5,156.85,2543811,Pierre Desir,35,2019,40,5,08:44:00,LAC,1,10,IND,24,24,2559169,I_FORM,"2 RB, 2 TE, 1 WR",8,"3 DL, 4 LB, 4 DB",left,2019-09-08T23:05:25.000Z,2019-09-08T23:05:23.000Z,6-1,192,09/08/1990,Lindenwood,CB,LAC,IND,1,Dignity Health Sports Park,"Carson, CA",,Grass,Sunny,77.0,52,10,SW
8099,2019090807,20190908073708,away,51.52,29.45,4.0,0.64,0.41,91.76,141.51,2550646,Denico Autry,96,2019,40,5,08:44:00,LAC,1,10,IND,24,24,2559169,I_FORM,"2 RB, 2 TE, 1 WR",8,"3 DL, 4 LB, 4 DB",left,2019-09-08T23:05:25.000Z,2019-09-08T23:05:23.000Z,6-5,285,07/15/1990,Mississippi State,DT,LAC,IND,1,Dignity Health Sports Park,"Carson, CA",,Grass,Sunny,77.0,52,10,SW
8100,2019090807,20190908073708,away,46.63,28.83,5.01,3.0,0.49,113.21,159.53,2552386,Clayton Geathers,26,2019,40,5,08:44:00,LAC,1,10,IND,24,24,2559169,I_FORM,"2 RB, 2 TE, 1 WR",8,"3 DL, 4 LB, 4 DB",left,2019-09-08T23:05:25.000Z,2019-09-08T23:05:23.000Z,6-2,216,06/01/1992,Central Florida,FS,LAC,IND,1,Dignity Health Sports Park,"Carson, CA",,Grass,Sunny,77.0,52,10,SW
8101,2019090807,20190908073708,away,29.39,25.45,3.09,2.81,0.29,63.1,249.75,2558060,Malik Hooker,29,2019,40,5,08:44:00,LAC,1,10,IND,24,24,2559169,I_FORM,"2 RB, 2 TE, 1 WR",8,"3 DL, 4 LB, 4 DB",left,2019-09-08T23:05:25.000Z,2019-09-08T23:05:23.000Z,6-1,212,04/02/1996,Ohio State,FS,LAC,IND,1,Dignity Health Sports Park,"Carson, CA",,Grass,Sunny,77.0,52,10,SW
8102,2019090807,20190908073708,away,51.51,23.16,3.76,1.53,0.4,53.08,141.41,2558131,Al-Quadin Muhammad,97,2019,40,5,08:44:00,LAC,1,10,IND,24,24,2559169,I_FORM,"2 RB, 2 TE, 1 WR",8,"3 DL, 4 LB, 4 DB",left,2019-09-08T23:05:25.000Z,2019-09-08T23:05:23.000Z,6-4,250,03/28/1995,Miami,DE,LAC,IND,1,Dignity Health Sports Park,"Carson, CA",,Grass,Sunny,77.0,52,10,SW
8103,2019090807,20190908073708,away,48.66,23.3,4.11,1.4,0.4,97.25,129.75,2558851,Anthony Walker,50,2019,40,5,08:44:00,LAC,1,10,IND,24,24,2559169,I_FORM,"2 RB, 2 TE, 1 WR",8,"3 DL, 4 LB, 4 DB",left,2019-09-08T23:05:25.000Z,2019-09-08T23:05:23.000Z,6-1,230,08/08/1995,Northwestern,ILB,LAC,IND,1,Dignity Health Sports Park,"Carson, CA",,Grass,Sunny,77.0,52,10,SW
8104,2019090807,20190908073708,away,48.05,10.22,2.91,8.14,0.26,123.98,243.96,2558976,Kenny Moore,23,2019,40,5,08:44:00,LAC,1,10,IND,24,24,2559169,I_FORM,"2 RB, 2 TE, 1 WR",8,"3 DL, 4 LB, 4 DB",left,2019-09-08T23:05:25.000Z,2019-09-08T23:05:23.000Z,5-9,190,08/23/1995,Valdosta State,CB,LAC,IND,1,Dignity Health Sports Park,"Carson, CA",,Grass,Sunny,77.0,52,10,SW
8105,2019090807,20190908073708,away,48.14,25.82,4.71,1.77,0.46,128.5,145.66,2560789,Darius Leonard,53,2019,40,5,08:44:00,LAC,1,10,IND,24,24,2559169,I_FORM,"2 RB, 2 TE, 1 WR",8,"3 DL, 4 LB, 4 DB",left,2019-09-08T23:05:25.000Z,2019-09-08T23:05:23.000Z,6-2,230,07/27/1995,South Carolina State,LB,LAC,IND,1,Dignity Health Sports Park,"Carson, CA",,Grass,Sunny,77.0,52,10,SW
8106,2019090807,20190908073708,away,48.96,19.68,3.91,1.87,0.39,60.85,135.59,2561149,Matthew Adams,49,2019,40,5,08:44:00,LAC,1,10,IND,24,24,2559169,I_FORM,"2 RB, 2 TE, 1 WR",8,"3 DL, 4 LB, 4 DB",left,2019-09-08T23:05:25.000Z,2019-09-08T23:05:23.000Z,6-0,229,12/12/1995,Houston,ILB,LAC,IND,1,Dignity Health Sports Park,"Carson, CA",,Grass,Sunny,77.0,52,10,SW
8107,2019090807,20190908073708,home,52.08,27.69,2.02,0.67,0.21,276.79,134.37,2495216,Mike Pouncey,53,2019,40,5,08:44:00,LAC,1,10,IND,24,24,2559169,I_FORM,"2 RB, 2 TE, 1 WR",8,"3 DL, 4 LB, 4 DB",left,2019-09-08T23:05:25.000Z,2019-09-08T23:05:23.000Z,6-5,298,07/24/1989,Florida,C,LAC,IND,1,Dignity Health Sports Park,"Carson, CA",,Grass,Sunny,77.0,52,10,SW
8108,2019090807,20190908073708,home,51.35,30.42,4.14,0.68,0.42,214.1,179.01,2495288,Virgil Green,88,2019,40,5,08:44:00,LAC,1,10,IND,24,24,2559169,I_FORM,"2 RB, 2 TE, 1 WR",8,"3 DL, 4 LB, 4 DB",left,2019-09-08T23:05:25.000Z,2019-09-08T23:05:23.000Z,6-5,255,08/03/1988,Nevada,TE,LAC,IND,1,Dignity Health Sports Park,"Carson, CA",,Grass,Sunny,77.0,52,10,SW
8109,2019090807,20190908073708,home,54.31,27.69,4.26,1.56,0.42,154.22,119.78,2506121,Philip Rivers,17,2019,40,5,08:44:00,LAC,1,10,IND,24,24,2559169,I_FORM,"2 RB, 2 TE, 1 WR",8,"3 DL, 4 LB, 4 DB",left,2019-09-08T23:05:25.000Z,2019-09-08T23:05:23.000Z,6-5,228,12/08/1981,North Carolina State,QB,LAC,IND,1,Dignity Health Sports Park,"Carson, CA",,Grass,Sunny,77.0,52,10,SW
8110,2019090807,20190908073708,home,49.41,10.16,4.6,3.15,0.45,247.87,258.93,2530700,Dontrelle Inman,15,2019,40,5,08:44:00,LAC,1,10,IND,24,24,2559169,I_FORM,"2 RB, 2 TE, 1 WR",8,"3 DL, 4 LB, 4 DB",left,2019-09-08T23:05:25.000Z,2019-09-08T23:05:23.000Z,6-3,205,01/31/1989,Virginia,WR,LAC,IND,1,Dignity Health Sports Park,"Carson, CA",,Grass,Sunny,77.0,52,10,SW
8111,2019090807,20190908073708,home,48.97,28.9,3.94,0.69,0.41,226.68,231.24,2543732,Michael Schofield,75,2019,40,5,08:44:00,LAC,1,10,IND,24,24,2559169,I_FORM,"2 RB, 2 TE, 1 WR",8,"3 DL, 4 LB, 4 DB",left,2019-09-08T23:05:25.000Z,2019-09-08T23:05:23.000Z,6-6,301,11/15/1990,Michigan,G,LAC,IND,1,Dignity Health Sports Park,"Carson, CA",,Grass,Sunny,77.0,52,10,SW
8112,2019090807,20190908073708,home,54.02,26.03,5.48,2.55,0.54,252.82,204.85,2555220,Derek Watt,34,2019,40,5,08:44:00,LAC,1,10,IND,24,24,2559169,I_FORM,"2 RB, 2 TE, 1 WR",8,"3 DL, 4 LB, 4 DB",left,2019-09-08T23:05:25.000Z,2019-09-08T23:05:23.000Z,6-2,234,11/07/1992,Wisconsin,FB,LAC,IND,1,Dignity Health Sports Park,"Carson, CA",,Grass,Sunny,77.0,52,10,SW
8113,2019090807,20190908073708,home,51.22,21.42,4.15,1.96,0.41,236.18,192.21,2555341,Hunter Henry,86,2019,40,5,08:44:00,LAC,1,10,IND,24,24,2559169,I_FORM,"2 RB, 2 TE, 1 WR",8,"3 DL, 4 LB, 4 DB",left,2019-09-08T23:05:25.000Z,2019-09-08T23:05:23.000Z,6-5,250,12/07/1994,Arkansas,TE,LAC,IND,1,Dignity Health Sports Park,"Carson, CA",,Grass,Sunny,77.0,52,10,SW
8114,2019090807,20190908073708,home,50.7,27.11,1.24,0.66,0.13,301.23,216.08,2557873,Dan Feeney,66,2019,40,5,08:44:00,LAC,1,10,IND,24,24,2559169,I_FORM,"2 RB, 2 TE, 1 WR",8,"3 DL, 4 LB, 4 DB",left,2019-09-08T23:05:25.000Z,2019-09-08T23:05:23.000Z,6-4,310,05/29/1994,Indiana,G,LAC,IND,1,Dignity Health Sports Park,"Carson, CA",,Grass,Sunny,77.0,52,10,SW
8115,2019090807,20190908073708,home,51.7,29.89,2.97,1.35,0.31,222.17,167.45,2558026,Sam Tevi,69,2019,40,5,08:44:00,LAC,1,10,IND,24,24,2559169,I_FORM,"2 RB, 2 TE, 1 WR",8,"3 DL, 4 LB, 4 DB",left,2019-09-08T23:05:25.000Z,2019-09-08T23:05:23.000Z,6-5,315,11/15/1994,Utah,T,LAC,IND,1,Dignity Health Sports Park,"Carson, CA",,Grass,Sunny,77.0,52,10,SW
8116,2019090807,20190908073708,home,55.98,27.14,5.1,3.02,0.49,253.47,217.27,2559169,Austin Ekeler,30,2019,40,5,08:44:00,LAC,1,10,IND,24,24,2559169,I_FORM,"2 RB, 2 TE, 1 WR",8,"3 DL, 4 LB, 4 DB",left,2019-09-08T23:05:25.000Z,2019-09-08T23:05:23.000Z,5-10,200,05/17/1995,"Western State, Colo.",RB,LAC,IND,1,Dignity Health Sports Park,"Carson, CA",,Grass,Sunny,77.0,52,10,SW
8117,2019090807,20190908073708,home,51.95,23.68,2.49,1.26,0.25,222.92,167.28,2561544,Trent Scott,78,2019,40,5,08:44:00,LAC,1,10,IND,24,24,2559169,I_FORM,"2 RB, 2 TE, 1 WR",8,"3 DL, 4 LB, 4 DB",left,2019-09-08T23:05:25.000Z,2019-09-08T23:05:23.000Z,6-5,320,01/25/1994,Grambling,T,LAC,IND,1,Dignity Health Sports Park,"Carson, CA",,Grass,Sunny,77.0,52,10,SW
