,GameId,PlayId,Team,X,Y,S,A,Dis,Orientation,Dir,NflId,DisplayName,JerseyNumber,Season,YardLine,Quarter,GameClock,PossessionTeam,Down,Distance,FieldPosition,HomeScoreBeforePlay,VisitorScoreBeforePlay,NflIdRusher,OffenseFormation,OffensePersonnel,DefendersInTheBox,DefensePersonnel,PlayDirection,TimeHandoff,TimeSnap,PlayerHeight,PlayerWeight,PlayerBirthDate,PlayerCollegeName,Position,HomeTeamAbbr,VisitorTeamAbbr,Week,Stadium,Location,StadiumType,Turf,GameWeather,Temperature,Humidity,WindSpeed,WindDirection
45694,2019092300,20190923003924,away,88.54,26.66,1.1,0.92,0.11,283.53,335.88,2539933,Kyle Long,75,2019,22,4,07:02:00,CHI,1,10,CHI,15,28,2562502,SHOTGUN,"1 RB, 2 TE, 2 WR",8,"3 DL, 4 LB, 4 DB",left,2019-09-24T03:01:52.000Z,2019-09-24T03:01:51.000Z,6-6,332,12/05/1988,Oregon,OG,WAS,CHI,3,FedexField,"Landover, MD",Outdoor,Grass,Cloudy,87.0,39,5,SW
45695,2019092300,20190923003924,away,89.34,35.96,3.01,3.52,0.28,101.18,309.4,2543509,Allen Robinson,12,2019,22,4,07:02:00,CHI,1,10,CHI,15,28,2562502,SHOTGUN,"1 RB, 2 TE, 2 WR",8,"3 DL, 4 LB, 4 DB",left,2019-09-24T03:01:52.000Z,2019-09-24T03:01:51.000Z,6-2,220,08/24/1993,Penn State,WR,WAS,CHI,3,FedexField,"Landover, MD",Outdoor,Grass,Cloudy,87.0,39,5,SW
45696,2019092300,20190923003924,away,88.54,22.57,2.6,0.86,0.26,69.21,332.76,2550169,Charles Leno Jr.,72,2019,22,4,07:02:00,CHI,1,10,CHI,15,28,2562502,SHOTGUN,"1 RB, 2 TE, 2 WR",8,"3 DL, 4 LB, 4 DB",left,2019-09-24T03:01:52.000Z,2019-09-24T03:01:51.000Z,6-3,305,10/09/1991,Boise State,T,WAS,CHI,3,FedexField,"Landover, MD",Outdoor,Grass,Cloudy,87.0,39,5,SW
45697,2019092300,20190923003924,away,89.36,28.71,0.97,0.44,0.1,319.18,13.69,2550221,Cornelius Lucas,73,2019,22,4,07:02:00,CHI,1,10,CHI,15,28,2562502,SHOTGUN,"1 RB, 2 TE, 2 WR",8,"3 DL, 4 LB, 4 DB",left,2019-09-24T03:01:52.000Z,2019-09-24T03:01:51.000Z,6-8,328,07/18/1991,Kansas State,T,WAS,CHI,3,FedexField,"Landover, MD",Outdoor,Grass,Cloudy,87.0,39,5,SW
45698,2019092300,20190923003924,away,89.0,19.89,3.25,1.66,0.32,278.82,338.71,2550284,Trey Burton,80,2019,22,4,07:02:00,CHI,1,10,CHI,15,28,2562502,SHOTGUN,"1 RB, 2 TE, 2 WR",8,"3 DL, 4 LB, 4 DB",left,2019-09-24T03:01:52.000Z,2019-09-24T03:01:51.000Z,6-2,238,10/29/1991,Florida,TE,WAS,CHI,3,FedexField,"Landover, MD",Outdoor,Grass,Cloudy,87.0,39,5,SW
45699,2019092300,20190923003924,away,88.26,24.06,2.82,0.5,0.28,6.18,323.23,2555132,Cody Whitehair,65,2019,22,4,07:02:00,CHI,1,10,CHI,15,28,2562502,SHOTGUN,"1 RB, 2 TE, 2 WR",8,"3 DL, 4 LB, 4 DB",left,2019-09-24T03:01:52.000Z,2019-09-24T03:01:51.000Z,6-3,309,07/11/1992,Kansas State,OG,WAS,CHI,3,FedexField,"Landover, MD",Outdoor,Grass,Cloudy,87.0,39,5,SW
45700,2019092300,20190923003924,away,93.11,24.11,0.75,2.45,0.06,233.56,227.8,2558008,Mitchell Trubisky,10,2019,22,4,07:02:00,CHI,1,10,CHI,15,28,2562502,SHOTGUN,"1 RB, 2 TE, 2 WR",8,"3 DL, 4 LB, 4 DB",left,2019-09-24T03:01:52.000Z,2019-09-24T03:01:51.000Z,6-2,215,08/20/1994,North Carolina,QB,WAS,CHI,3,FedexField,"Landover, MD",Outdoor,Grass,Cloudy,87.0,39,5,SW
45701,2019092300,20190923003924,away,88.04,21.39,3.01,1.61,0.3,307.45,312.74,2558144,Adam Shaheen,87,2019,22,4,07:02:00,CHI,1,10,CHI,15,28,2562502,SHOTGUN,"1 RB, 2 TE, 2 WR",8,"3 DL, 4 LB, 4 DB",left,2019-09-24T03:01:52.000Z,2019-09-24T03:01:51.000Z,6-6,257,10/24/1994,Ashland,TE,WAS,CHI,3,FedexField,"Landover, MD",Outdoor,Grass,Cloudy,87.0,39,5,SW
45702,2019092300,20190923003924,away,87.86,43.12,3.06,2.71,0.3,262.66,256.31,2560939,Javon Wims,83,2019,22,4,07:02:00,CHI,1,10,CHI,15,28,2562502,SHOTGUN,"1 RB, 2 TE, 2 WR",8,"3 DL, 4 LB, 4 DB",left,2019-09-24T03:01:52.000Z,2019-09-24T03:01:51.000Z,6-2,221,09/11/1994,Georgia,WR,WAS,CHI,3,FedexField,"Landover, MD",Outdoor,Grass,Cloudy,87.0,39,5,SW
45703,2019092300,20190923003924,away,88.28,25.05,1.83,0.2,0.2,253.38,322.84,2561035,James Daniels,68,2019,22,4,07:02:00,CHI,1,10,CHI,15,28,2562502,SHOTGUN,"1 RB, 2 TE, 2 WR",8,"3 DL, 4 LB, 4 DB",left,2019-09-24T03:01:52.000Z,2019-09-24T03:01:51.000Z,6-3,305,09/13/1997,Iowa,C,WAS,CHI,3,FedexField,"Landover, MD",Outdoor,Grass,Cloudy,87.0,39,5,SW
45704,2019092300,20190923003924,away,92.87,23.22,3.77,3.51,0.36,283.13,307.75,2562502,David Montgomery,32,2019,22,4,07:02:00,CHI,1,10,CHI,15,28,2562502,SHOTGUN,"1 RB, 2 TE, 2 WR",8,"3 DL, 4 LB, 4 DB",left,2019-09-24T03:01:52.000Z,2019-09-24T03:01:51.000Z,5-10,222,06/07/1997,Iowa State,RB,WAS,CHI,3,FedexField,"Landover, MD",Outdoor,Grass,Cloudy,87.0,39,5,SW
45705,2019092300,20190923003924,home,88.81,29.7,1.73,1.77,0.18,116.31,85.97,2495190,Ryan Kerrigan,91,2019,22,4,07:02:00,CHI,1,10,CHI,15,28,2562502,SHOTGUN,"1 RB, 2 TE, 2 WR",8,"3 DL, 4 LB, 4 DB",left,2019-09-24T03:01:52.000Z,2019-09-24T03:01:51.000Z,6-4,265,08/16/1988,Purdue,OLB,WAS,CHI,3,FedexField,"Landover, MD",Outdoor,Grass,Cloudy,87.0,39,5,SW
45706,2019092300,20190923003924,home,85.98,43.47,3.28,2.45,0.32,199.9,248.61,2532920,Josh Norman,24,2019,22,4,07:02:00,CHI,1,10,CHI,15,28,2562502,SHOTGUN,"1 RB, 2 TE, 2 WR",8,"3 DL, 4 LB, 4 DB",left,2019-09-24T03:01:52.000Z,2019-09-24T03:01:51.000Z,6-0,200,12/15/1987,Coastal Carolina,CB,WAS,CHI,3,FedexField,"Landover, MD",Outdoor,Grass,Cloudy,87.0,39,5,SW
45707,2019092300,20190923003924,home,85.45,22.08,2.39,1.0,0.23,93.43,28.9,2539978,Jon Bostic,53,2019,22,4,07:02:00,CHI,1,10,CHI,15,28,2562502,SHOTGUN,"1 RB, 2 TE, 2 WR",8,"3 DL, 4 LB, 4 DB",left,2019-09-24T03:01:52.000Z,2019-09-24T03:01:51.000Z,6-1,245,05/05/1991,Florida,ILB,WAS,CHI,3,FedexField,"Landover, MD",Outdoor,Grass,Cloudy,87.0,39,5,SW
45708,2019092300,20190923003924,home,83.2,17.94,3.07,3.24,0.29,67.63,45.63,2552454,Landon Collins,20,2019,22,4,07:02:00,CHI,1,10,CHI,15,28,2562502,SHOTGUN,"1 RB, 2 TE, 2 WR",8,"3 DL, 4 LB, 4 DB",left,2019-09-24T03:01:52.000Z,2019-09-24T03:01:51.000Z,6-0,218,01/10/1994,Alabama,SS,WAS,CHI,3,FedexField,"Landover, MD",Outdoor,Grass,Cloudy,87.0,39,5,SW
45709,2019092300,20190923003924,home,87.88,26.87,0.75,0.87,0.07,97.09,358.72,2555240,Matthew Ioannidis,98,2019,22,4,07:02:00,CHI,1,10,CHI,15,28,2562502,SHOTGUN,"1 RB, 2 TE, 2 WR",8,"3 DL, 4 LB, 4 DB",left,2019-09-24T03:01:52.000Z,2019-09-24T03:01:51.000Z,6-3,310,01/11/1994,Temple,DE,WAS,CHI,3,FedexField,"Landover, MD",Outdoor,Grass,Cloudy,87.0,39,5,SW
45710,2019092300,20190923003924,home,87.9,22.45,1.46,1.44,0.15,64.43,350.47,2557844,Jonathan Allen,93,2019,22,4,07:02:00,CHI,1,10,CHI,15,28,2562502,SHOTGUN,"1 RB, 2 TE, 2 WR",8,"3 DL, 4 LB, 4 DB",left,2019-09-24T03:01:52.000Z,2019-09-24T03:01:51.000Z,6-3,300,01/16/1995,Alabama,DE,WAS,CHI,3,FedexField,"Landover, MD",Outdoor,Grass,Cloudy,87.0,39,5,SW
45711,2019092300,20190923003924,home,88.2,19.97,3.84,1.49,0.38,44.94,4.75,2557853,Ryan Anderson,52,2019,22,4,07:02:00,CHI,1,10,CHI,15,28,2562502,SHOTGUN,"1 RB, 2 TE, 2 WR",8,"3 DL, 4 LB, 4 DB",left,2019-09-24T03:01:52.000Z,2019-09-24T03:01:51.000Z,6-2,253,08/12/1994,Alabama,OLB,WAS,CHI,3,FedexField,"Landover, MD",Outdoor,Grass,Cloudy,87.0,39,5,SW
45712,2019092300,20190923003924,home,71.67,27.07,1.48,0.39,0.15,86.54,306.92,2558133,Montae Nicholson,35,2019,22,4,07:02:00,CHI,1,10,CHI,15,28,2562502,SHOTGUN,"1 RB, 2 TE, 2 WR",8,"3 DL, 4 LB, 4 DB",left,2019-09-24T03:01:52.000Z,2019-09-24T03:01:51.000Z,6-2,212,12/04/1995,Michigan State,FS,WAS,CHI,3,FedexField,"Landover, MD",Outdoor,Grass,Cloudy,87.0,39,5,SW
45713,2019092300,20190923003924,home,86.88,35.76,1.39,3.03,0.13,74.94,316.2,2558136,Fabian Moreau,31,2019,22,4,07:02:00,CHI,1,10,CHI,15,28,2562502,SHOTGUN,"1 RB, 2 TE, 2 WR",8,"3 DL, 4 LB, 4 DB",left,2019-09-24T03:01:52.000Z,2019-09-24T03:01:51.000Z,6-0,204,04/09/1994,UCLA,CB,WAS,CHI,3,FedexField,"Landover, MD",Outdoor,Grass,Cloudy,87.0,39,5,SW
45714,2019092300,20190923003924,home,87.67,24.81,1.79,1.84,0.17,35.45,331.11,2560834,Daron Payne,94,2019,22,4,07:02:00,CHI,1,10,CHI,15,28,2562502,SHOTGUN,"1 RB, 2 TE, 2 WR",8,"3 DL, 4 LB, 4 DB",left,2019-09-24T03:01:52.000Z,2019-09-24T03:01:51.000Z,6-3,320,05/27/1997,Alabama,NT,WAS,CHI,3,FedexField,"Landover, MD",Outdoor,Grass,Cloudy,87.0,39,5,SW
45715,2019092300,20190923003924,home,85.48,25.45,2.48,0.98,0.24,104.91,25.17,2562872,Cole Holcomb,55,2019,22,4,07:02:00,CHI,1,10,CHI,15,28,2562502,SHOTGUN,"1 RB, 2 TE, 2 WR",8,"3 DL, 4 LB, 4 DB",left,2019-09-24T03:01:52.000Z,2019-09-24T03:01:51.000Z,6-1,240,07/30/1996,North Carolina,LB,WAS,CHI,3,FedexField,"Landover, MD",Outdoor,Grass,Cloudy,87.0,39,5,SW
