,GameId,PlayId,Team,X,Y,S,A,Dis,Orientation,Dir,NflId,DisplayName,JerseyNumber,Season,YardLine,Quarter,GameClock,PossessionTeam,Down,Distance,FieldPosition,HomeScoreBeforePlay,VisitorScoreBeforePlay,NflIdRusher,OffenseFormation,OffensePersonnel,DefendersInTheBox,DefensePersonnel,PlayDirection,TimeHandoff,TimeSnap,PlayerHeight,PlayerWeight,PlayerBirthDate,PlayerCollegeName,Position,HomeTeamAbbr,VisitorTeamAbbr,Week,Stadium,Location,StadiumType,Turf,GameWeather,Temperature,Humidity,WindSpeed,WindDirection
37642,2019092206,20190922060381,away,104.75,20.73,0.87,0.04,0.13,215.0,224.39,2552272,Henry Anderson,96,2019,5,1,08:00:00,NE,1,5,NYJ,0,0,2560809,SHOTGUN,"1 RB, 1 TE, 3 WR",6,"3 DL, 3 LB, 5 DB",right,2019-09-22T17:14:57.000Z,2019-09-22T17:14:56.000Z,6-6,301,08/03/1991,Stanford,DE,NE,NYJ,3,Gillette Stadium,"Foxborough, MA",Outdoor,Field Turf,Sunny and warm,81.0,49,10,SW
37643,2019092206,20190922060381,away,104.08,24.08,3.84,0.57,0.4,222.89,201.48,2552486,Leonard Williams,92,2019,5,1,08:00:00,NE,1,5,NYJ,0,0,2560809,SHOTGUN,"1 RB, 1 TE, 3 WR",6,"3 DL, 3 LB, 5 DB",right,2019-09-22T17:14:57.000Z,2019-09-22T17:14:56.000Z,6-5,302,06/20/1994,Southern California,DE,NE,NYJ,3,Gillette Stadium,"Foxborough, MA",Outdoor,Field Turf,Sunny and warm,81.0,49,10,SW
37644,2019092206,20190922060381,away,106.6,35.31,0.56,0.36,0.06,209.27,130.4,2553353,Darryl Roberts,27,2019,5,1,08:00:00,NE,1,5,NYJ,0,0,2560809,SHOTGUN,"1 RB, 1 TE, 3 WR",6,"3 DL, 3 LB, 5 DB",right,2019-09-22T17:14:57.000Z,2019-09-22T17:14:56.000Z,6-0,182,11/26/1990,Marshall,CB,NE,NYJ,3,Gillette Stadium,"Foxborough, MA",Outdoor,Field Turf,Sunny and warm,81.0,49,10,SW
37645,2019092206,20190922060381,away,109.43,23.44,2.18,2.19,0.2,293.84,131.59,2553657,Neville Hewitt,46,2019,5,1,08:00:00,NE,1,5,NYJ,0,0,2560809,SHOTGUN,"1 RB, 1 TE, 3 WR",6,"3 DL, 3 LB, 5 DB",right,2019-09-22T17:14:57.000Z,2019-09-22T17:14:56.000Z,6-2,234,04/06/1993,Marshall,OLB,NE,NYJ,3,Gillette Stadium,"Foxborough, MA",Outdoor,Field Turf,Sunny and warm,81.0,49,10,SW
37646,2019092206,20190922060381,away,107.89,27.62,2.68,1.23,0.26,286.51,193.36,2556445,Brian Poole,34,2019,5,1,08:00:00,NE,1,5,NYJ,0,0,2560809,SHOTGUN,"1 RB, 1 TE, 3 WR",6,"3 DL, 3 LB, 5 DB",right,2019-09-22T17:14:57.000Z,2019-09-22T17:14:56.000Z,5-10,211,10/20/1992,Florida,CB,NE,NYJ,3,Gillette Stadium,"Foxborough, MA",Outdoor,Field Turf,Sunny and warm,81.0,49,10,SW
37647,2019092206,20190922060381,away,112.05,29.51,0.66,2.56,0.05,293.56,158.16,2557979,Jamal Adams,33,2019,5,1,08:00:00,NE,1,5,NYJ,0,0,2560809,SHOTGUN,"1 RB, 1 TE, 3 WR",6,"3 DL, 3 LB, 5 DB",right,2019-09-22T17:14:57.000Z,2019-09-22T17:14:56.000Z,6-1,213,10/17/1995,Louisiana State,SS,NE,NYJ,3,Gillette Stadium,"Foxborough, MA",Outdoor,Field Turf,Sunny and warm,81.0,49,10,SW
37648,2019092206,20190922060381,away,111.78,18.09,1.09,0.8,0.11,99.26,109.27,2557995,Marcus Maye,20,2019,5,1,08:00:00,NE,1,5,NYJ,0,0,2560809,SHOTGUN,"1 RB, 1 TE, 3 WR",6,"3 DL, 3 LB, 5 DB",right,2019-09-22T17:14:57.000Z,2019-09-22T17:14:56.000Z,6-0,207,03/09/1993,Florida,FS,NE,NYJ,3,Gillette Stadium,"Foxborough, MA",Outdoor,Field Turf,Sunny and warm,81.0,49,10,SW
37649,2019092206,20190922060381,away,105.55,12.99,1.32,0.47,0.13,306.59,204.53,2558108,Nate Hairston,21,2019,5,1,08:00:00,NE,1,5,NYJ,0,0,2560809,SHOTGUN,"1 RB, 1 TE, 3 WR",6,"3 DL, 3 LB, 5 DB",right,2019-09-22T17:14:57.000Z,2019-09-22T17:14:56.000Z,6-0,185,06/30/1994,Temple,CB,NE,NYJ,3,Gillette Stadium,"Foxborough, MA",Outdoor,Field Turf,Sunny and warm,81.0,49,10,SW
37650,2019092206,20190922060381,away,105.3,28.4,2.67,3.57,0.25,240.09,177.75,2558165,Tarell Basham,93,2019,5,1,08:00:00,NE,1,5,NYJ,0,0,2560809,SHOTGUN,"1 RB, 1 TE, 3 WR",6,"3 DL, 3 LB, 5 DB",right,2019-09-22T17:14:57.000Z,2019-09-22T17:14:56.000Z,6-4,266,03/18/1994,Ohio,LB,NE,NYJ,3,Gillette Stadium,"Foxborough, MA",Outdoor,Field Turf,Sunny and warm,81.0,49,10,SW
37651,2019092206,20190922060381,away,104.08,22.34,2.76,0.59,0.32,303.74,218.44,2560722,Foley Fatukasi,94,2019,5,1,08:00:00,NE,1,5,NYJ,0,0,2560809,SHOTGUN,"1 RB, 1 TE, 3 WR",6,"3 DL, 3 LB, 5 DB",right,2019-09-22T17:14:57.000Z,2019-09-22T17:14:56.000Z,6-4,318,03/04/1995,Connecticut,DT,NE,NYJ,3,Gillette Stadium,"Foxborough, MA",Outdoor,Field Turf,Sunny and warm,81.0,49,10,SW
37652,2019092206,20190922060381,away,105.48,18.0,0.76,1.66,0.08,301.22,352.68,2562496,Blake Cashman,53,2019,5,1,08:00:00,NE,1,5,NYJ,0,0,2560809,SHOTGUN,"1 RB, 1 TE, 3 WR",6,"3 DL, 3 LB, 5 DB",right,2019-09-22T17:14:57.000Z,2019-09-22T17:14:56.000Z,6-1,235,05/10/1996,Minnesota,LB,NE,NYJ,3,Gillette Stadium,"Foxborough, MA",Outdoor,Field Turf,Sunny and warm,81.0,49,10,SW
37653,2019092206,20190922060381,home,104.59,13.63,1.9,1.03,0.19,112.65,134.77,238498,Julian Edelman,11,2019,5,1,08:00:00,NE,1,5,NYJ,0,0,2560809,SHOTGUN,"1 RB, 1 TE, 3 WR",6,"3 DL, 3 LB, 5 DB",right,2019-09-22T17:14:57.000Z,2019-09-22T17:14:56.000Z,5-10,200,05/22/1986,Kent State,WR,NE,NYJ,3,Gillette Stadium,"Foxborough, MA",Outdoor,Field Turf,Sunny and warm,81.0,49,10,SW
37654,2019092206,20190922060381,home,103.27,24.46,3.78,1.34,0.39,130.04,188.83,497030,Marshall Newhouse,72,2019,5,1,08:00:00,NE,1,5,NYJ,0,0,2560809,SHOTGUN,"1 RB, 1 TE, 3 WR",6,"3 DL, 3 LB, 5 DB",right,2019-09-22T17:14:57.000Z,2019-09-22T17:14:56.000Z,6-4,328,09/29/1988,Texas Christian,T,NE,NYJ,3,Gillette Stadium,"Foxborough, MA",Outdoor,Field Turf,Sunny and warm,81.0,49,10,SW
37655,2019092206,20190922060381,home,104.09,20.23,1.04,0.69,0.11,54.95,132.46,2495131,Marcus Cannon,61,2019,5,1,08:00:00,NE,1,5,NYJ,0,0,2560809,SHOTGUN,"1 RB, 1 TE, 3 WR",6,"3 DL, 3 LB, 5 DB",right,2019-09-22T17:14:57.000Z,2019-09-22T17:14:56.000Z,6-6,335,05/06/1988,Texas Christian,T,NE,NYJ,3,Gillette Stadium,"Foxborough, MA",Outdoor,Field Turf,Sunny and warm,81.0,49,10,SW
37656,2019092206,20190922060381,home,99.71,23.84,0.9,1.67,0.09,93.06,290.84,2504211,Tom Brady,12,2019,5,1,08:00:00,NE,1,5,NYJ,0,0,2560809,SHOTGUN,"1 RB, 1 TE, 3 WR",6,"3 DL, 3 LB, 5 DB",right,2019-09-22T17:14:57.000Z,2019-09-22T17:14:56.000Z,6-4,225,08/03/1977,Michigan,QB,NE,NYJ,3,Gillette Stadium,"Foxborough, MA",Outdoor,Field Turf,Sunny and warm,81.0,49,10,SW
37657,2019092206,20190922060381,home,103.94,27.54,2.68,1.74,0.26,97.88,128.25,2537931,Josh Gordon,10,2019,5,1,08:00:00,NE,1,5,NYJ,0,0,2560809,SHOTGUN,"1 RB, 1 TE, 3 WR",6,"3 DL, 3 LB, 5 DB",right,2019-09-22T17:14:57.000Z,2019-09-22T17:14:56.000Z,6-3,225,04/13/1991,Baylor,WR,NE,NYJ,3,Gillette Stadium,"Foxborough, MA",Outdoor,Field Turf,Sunny and warm,81.0,49,10,SW
37658,2019092206,20190922060381,home,104.59,31.47,4.51,3.82,0.43,146.74,147.63,2552424,Phillip Dorsett,13,2019,5,1,08:00:00,NE,1,5,NYJ,0,0,2560809,SHOTGUN,"1 RB, 1 TE, 3 WR",6,"3 DL, 3 LB, 5 DB",right,2019-09-22T17:14:57.000Z,2019-09-22T17:14:56.000Z,5-10,192,01/05/1993,Miami,WR,NE,NYJ,3,Gillette Stadium,"Foxborough, MA",Outdoor,Field Turf,Sunny and warm,81.0,49,10,SW
37659,2019092206,20190922060381,home,102.92,20.38,3.14,1.04,0.31,150.09,186.76,2552563,Shaq Mason,69,2019,5,1,08:00:00,NE,1,5,NYJ,0,0,2560809,SHOTGUN,"1 RB, 1 TE, 3 WR",6,"3 DL, 3 LB, 5 DB",right,2019-09-22T17:14:57.000Z,2019-09-22T17:14:56.000Z,6-1,310,08/28/1993,Georgia Tech,G,NE,NYJ,3,Gillette Stadium,"Foxborough, MA",Outdoor,Field Turf,Sunny and warm,81.0,49,10,SW
37660,2019092206,20190922060381,home,103.26,21.65,3.32,1.32,0.34,192.75,188.1,2555145,Ted Karras,75,2019,5,1,08:00:00,NE,1,5,NYJ,0,0,2560809,SHOTGUN,"1 RB, 1 TE, 3 WR",6,"3 DL, 3 LB, 5 DB",right,2019-09-22T17:14:57.000Z,2019-09-22T17:14:56.000Z,6-4,305,03/15/1993,Illinois,C,NE,NYJ,3,Gillette Stadium,"Foxborough, MA",Outdoor,Field Turf,Sunny and warm,81.0,49,10,SW
37661,2019092206,20190922060381,home,103.07,23.2,2.9,1.04,0.29,143.1,185.44,2555281,Joe Thuney,62,2019,5,1,08:00:00,NE,1,5,NYJ,0,0,2560809,SHOTGUN,"1 RB, 1 TE, 3 WR",6,"3 DL, 3 LB, 5 DB",right,2019-09-22T17:14:57.000Z,2019-09-22T17:14:56.000Z,6-5,308,11/18/1992,North Carolina State,G,NE,NYJ,3,Gillette Stadium,"Foxborough, MA",Outdoor,Field Turf,Sunny and warm,81.0,49,10,SW
37662,2019092206,20190922060381,home,104.78,19.07,3.66,1.22,0.36,128.63,84.63,2560751,Ryan Izzo,85,2019,5,1,08:00:00,NE,1,5,NYJ,0,0,2560809,SHOTGUN,"1 RB, 1 TE, 3 WR",6,"3 DL, 3 LB, 5 DB",right,2019-09-22T17:14:57.000Z,2019-09-22T17:14:56.000Z,6-5,255,12/21/1995,Florida State,TE,NE,NYJ,3,Gillette Stadium,"Foxborough, MA",Outdoor,Field Turf,Sunny and warm,81.0,49,10,SW
37663,2019092206,20190922060381,home,100.45,23.88,5.42,3.61,0.53,157.19,168.41,2560809,Sony Michel,26,2019,5,1,08:00:00,NE,1,5,NYJ,0,0,2560809,SHOTGUN,"1 RB, 1 TE, 3 WR",6,"3 DL, 3 LB, 5 DB",right,2019-09-22T17:14:57.000Z,2019-09-22T17:14:56.000Z,5-11,215,02/17/1995,Georgia,RB,NE,NYJ,3,Gillette Stadium,"Foxborough, MA",Outdoor,Field Turf,Sunny and warm,81.0,49,10,SW
