,GameId,PlayId,Team,X,Y,S,A,Dis,Orientation,Dir,NflId,DisplayName,JerseyNumber,Season,YardLine,Quarter,GameClock,PossessionTeam,Down,Distance,FieldPosition,HomeScoreBeforePlay,VisitorScoreBeforePlay,NflIdRusher,OffenseFormation,OffensePersonnel,DefendersInTheBox,DefensePersonnel,PlayDirection,TimeHandoff,TimeSnap,PlayerHeight,PlayerWeight,PlayerBirthDate,PlayerCollegeName,Position,HomeTeamAbbr,VisitorTeamAbbr,Week,Stadium,Location,StadiumType,Turf,GameWeather,Temperature,Humidity,WindSpeed,WindDirection
3806,2019090803,20190908031438,away,26.05,31.8,5.11,3.34,0.49,323.32,327.56,2495466,Mark Ingram,21,2019,10,2,08:24:00,BLT,1,10,MIA,3,28,2495466,PISTOL,"2 RB, 2 TE, 1 WR",7,"4 DL, 3 LB, 4 DB",left,2019-09-08T18:05:40.000Z,2019-09-08T18:05:39.000Z,5-9,215,12/21/1989,Alabama,RB,MIA,BAL,1,Hard Rock Stadium,"Miami Gardens, FL",Outdoor,Natural grass,Mostly Cloudy,91.0,56,8,SSE
3807,2019090803,20190908031438,away,20.03,33.75,3.69,0.78,0.37,281.39,341.06,2507188,Marshal Yanda,73,2019,10,2,08:24:00,BLT,1,10,MIA,3,28,2495466,PISTOL,"2 RB, 2 TE, 1 WR",7,"4 DL, 3 LB, 4 DB",left,2019-09-08T18:05:40.000Z,2019-09-08T18:05:39.000Z,6-3,305,09/15/1984,Iowa,G,MIA,BAL,1,Hard Rock Stadium,"Miami Gardens, FL",Outdoor,Natural grass,Mostly Cloudy,91.0,56,8,SSE
3808,2019090803,20190908031438,away,18.7,44.66,3.19,2.58,0.31,260.13,259.43,2550597,Seth Roberts,11,2019,10,2,08:24:00,BLT,1,10,MIA,3,28,2495466,PISTOL,"2 RB, 2 TE, 1 WR",7,"4 DL, 3 LB, 4 DB",left,2019-09-08T18:05:40.000Z,2019-09-08T18:05:39.000Z,6-2,195,02/22/1991,West Alabama,WR,MIA,BAL,1,Hard Rock Stadium,"Miami Gardens, FL",Outdoor,Natural grass,Mostly Cloudy,91.0,56,8,SSE
3809,2019090803,20190908031438,away,21.68,36.82,3.39,0.39,0.34,278.63,354.28,2552402,Nick Boyle,86,2019,10,2,08:24:00,BLT,1,10,MIA,3,28,2495466,PISTOL,"2 RB, 2 TE, 1 WR",7,"4 DL, 3 LB, 4 DB",left,2019-09-08T18:05:40.000Z,2019-09-08T18:05:39.000Z,6-4,270,02/17/1993,Delaware,TE,MIA,BAL,1,Hard Rock Stadium,"Miami Gardens, FL",Outdoor,Natural grass,Mostly Cloudy,91.0,56,8,SSE
3810,2019090803,20190908031438,away,19.46,28.82,3.27,0.43,0.35,251.8,313.8,2555204,Ronnie Stanley,79,2019,10,2,08:24:00,BLT,1,10,MIA,3,28,2495466,PISTOL,"2 RB, 2 TE, 1 WR",7,"4 DL, 3 LB, 4 DB",left,2019-09-08T18:05:40.000Z,2019-09-08T18:05:39.000Z,6-6,315,03/18/1994,Notre Dame,T,MIA,BAL,1,Hard Rock Stadium,"Miami Gardens, FL",Outdoor,Natural grass,Mostly Cloudy,91.0,56,8,SSE
3811,2019090803,20190908031438,away,20.15,32.79,3.54,0.46,0.35,289.39,346.27,2556683,Matt Skura,68,2019,10,2,08:24:00,BLT,1,10,MIA,3,28,2495466,PISTOL,"2 RB, 2 TE, 1 WR",7,"4 DL, 3 LB, 4 DB",left,2019-09-08T18:05:40.000Z,2019-09-08T18:05:39.000Z,6-3,313,02/17/1993,Duke,C,MIA,BAL,1,Hard Rock Stadium,"Miami Gardens, FL",Outdoor,Natural grass,Mostly Cloudy,91.0,56,8,SSE
3812,2019090803,20190908031438,away,23.6,34.96,5.18,2.1,0.5,277.79,346.35,2558990,Patrick Ricard,42,2019,10,2,08:24:00,BLT,1,10,MIA,3,28,2495466,PISTOL,"2 RB, 2 TE, 1 WR",7,"4 DL, 3 LB, 4 DB",left,2019-09-08T18:05:40.000Z,2019-09-08T18:05:39.000Z,6-3,311,05/27/1994,Maine,FB,MIA,BAL,1,Hard Rock Stadium,"Miami Gardens, FL",Outdoor,Natural grass,Mostly Cloudy,91.0,56,8,SSE
3813,2019090803,20190908031438,away,20.14,31.72,3.91,0.76,0.4,266.56,347.14,2559827,Bradley Bozeman,77,2019,10,2,08:24:00,BLT,1,10,MIA,3,28,2495466,PISTOL,"2 RB, 2 TE, 1 WR",7,"4 DL, 3 LB, 4 DB",left,2019-09-08T18:05:40.000Z,2019-09-08T18:05:39.000Z,6-3,317,11/24/1994,Alabama,C,MIA,BAL,1,Hard Rock Stadium,"Miami Gardens, FL",Outdoor,Natural grass,Mostly Cloudy,91.0,56,8,SSE
3814,2019090803,20190908031438,away,21.31,28.25,3.63,0.68,0.36,279.6,0.57,2560747,Hayden Hurst,81,2019,10,2,08:24:00,BLT,1,10,MIA,3,28,2495466,PISTOL,"2 RB, 2 TE, 1 WR",7,"4 DL, 3 LB, 4 DB",left,2019-09-08T18:05:40.000Z,2019-09-08T18:05:39.000Z,6-4,245,08/24/1993,South Carolina,TE,MIA,BAL,1,Hard Rock Stadium,"Miami Gardens, FL",Outdoor,Natural grass,Mostly Cloudy,91.0,56,8,SSE
3815,2019090803,20190908031438,away,25.43,30.83,1.31,3.68,0.13,70.07,67.91,2560757,Lamar Jackson,8,2019,10,2,08:24:00,BLT,1,10,MIA,3,28,2495466,PISTOL,"2 RB, 2 TE, 1 WR",7,"4 DL, 3 LB, 4 DB",left,2019-09-08T18:05:40.000Z,2019-09-08T18:05:39.000Z,6-2,212,01/07/1997,Louisville,QB,MIA,BAL,1,Hard Rock Stadium,"Miami Gardens, FL",Outdoor,Natural grass,Mostly Cloudy,91.0,56,8,SSE
3816,2019090803,20190908031438,away,21.26,34.77,2.68,1.21,0.28,268.67,12.31,2560981,Orlando Brown,78,2019,10,2,08:24:00,BLT,1,10,MIA,3,28,2495466,PISTOL,"2 RB, 2 TE, 1 WR",7,"4 DL, 3 LB, 4 DB",left,2019-09-08T18:05:40.000Z,2019-09-08T18:05:39.000Z,6-8,345,05/02/1996,Oklahoma,T,MIA,BAL,1,Hard Rock Stadium,"Miami Gardens, FL",Outdoor,Natural grass,Mostly Cloudy,91.0,56,8,SSE
3817,2019090803,20190908031438,home,19.88,31.06,3.44,1.36,0.34,43.34,357.21,2539231,John Jenkins,95,2019,10,2,08:24:00,BLT,1,10,MIA,3,28,2495466,PISTOL,"2 RB, 2 TE, 1 WR",7,"4 DL, 3 LB, 4 DB",left,2019-09-08T18:05:40.000Z,2019-09-08T18:05:39.000Z,6-3,327,07/11/1989,Georgia,NT,MIA,BAL,1,Hard Rock Stadium,"Miami Gardens, FL",Outdoor,Natural grass,Mostly Cloudy,91.0,56,8,SSE
3818,2019090803,20190908031438,home,17.24,37.97,3.98,1.81,0.39,82.3,22.76,2552255,Eric Rowe,21,2019,10,2,08:24:00,BLT,1,10,MIA,3,28,2495466,PISTOL,"2 RB, 2 TE, 1 WR",7,"4 DL, 3 LB, 4 DB",left,2019-09-08T18:05:40.000Z,2019-09-08T18:05:39.000Z,6-1,205,10/03/1992,Utah,CB,MIA,BAL,1,Hard Rock Stadium,"Miami Gardens, FL",Outdoor,Natural grass,Mostly Cloudy,91.0,56,8,SSE
3819,2019090803,20190908031438,home,17.35,25.94,2.98,0.88,0.3,72.63,20.02,2552434,Bobby McCain,28,2019,10,2,08:24:00,BLT,1,10,MIA,3,28,2495466,PISTOL,"2 RB, 2 TE, 1 WR",7,"4 DL, 3 LB, 4 DB",left,2019-09-08T18:05:40.000Z,2019-09-08T18:05:39.000Z,5-11,192,08/18/1993,Memphis,CB,MIA,BAL,1,Hard Rock Stadium,"Miami Gardens, FL",Outdoor,Natural grass,Mostly Cloudy,91.0,56,8,SSE
3820,2019090803,20190908031438,home,17.53,45.22,3.16,1.15,0.3,80.23,298.66,2555539,Xavien Howard,25,2019,10,2,08:24:00,BLT,1,10,MIA,3,28,2495466,PISTOL,"2 RB, 2 TE, 1 WR",7,"4 DL, 3 LB, 4 DB",left,2019-09-08T18:05:40.000Z,2019-09-08T18:05:39.000Z,6-1,200,07/04/1993,Baylor,CB,MIA,BAL,1,Hard Rock Stadium,"Miami Gardens, FL",Outdoor,Natural grass,Mostly Cloudy,91.0,56,8,SSE
3821,2019090803,20190908031438,home,20.51,28.26,2.94,2.04,0.31,51.54,359.34,2558001,Charles Harris,90,2019,10,2,08:24:00,BLT,1,10,MIA,3,28,2495466,PISTOL,"2 RB, 2 TE, 1 WR",7,"4 DL, 3 LB, 4 DB",left,2019-09-08T18:05:40.000Z,2019-09-08T18:05:39.000Z,6-3,250,03/06/1995,Missouri,DE,MIA,BAL,1,Hard Rock Stadium,"Miami Gardens, FL",Outdoor,Natural grass,Mostly Cloudy,91.0,56,8,SSE
3822,2019090803,20190908031438,home,16.8,31.3,4.16,0.89,0.41,79.01,23.12,2558070,Raekwon McMillan,52,2019,10,2,08:24:00,BLT,1,10,MIA,3,28,2495466,PISTOL,"2 RB, 2 TE, 1 WR",7,"4 DL, 3 LB, 4 DB",left,2019-09-08T18:05:40.000Z,2019-09-08T18:05:39.000Z,6-2,242,11/17/1995,Ohio State,LB,MIA,BAL,1,Hard Rock Stadium,"Miami Gardens, FL",Outdoor,Natural grass,Mostly Cloudy,91.0,56,8,SSE
3823,2019090803,20190908031438,home,18.86,33.89,3.61,2.43,0.34,262.8,13.54,2560725,Minkah Fitzpatrick,29,2019,10,2,08:24:00,BLT,1,10,MIA,3,28,2495466,PISTOL,"2 RB, 2 TE, 1 WR",7,"4 DL, 3 LB, 4 DB",left,2019-09-08T18:05:40.000Z,2019-09-08T18:05:39.000Z,6-1,207,11/17/1996,Alabama,S,MIA,BAL,1,Hard Rock Stadium,"Miami Gardens, FL",Outdoor,Natural grass,Mostly Cloudy,91.0,56,8,SSE
3824,2019090803,20190908031438,home,20.66,25.99,5.04,2.19,0.5,62.63,24.06,2560966,Jerome Baker,55,2019,10,2,08:24:00,BLT,1,10,MIA,3,28,2495466,PISTOL,"2 RB, 2 TE, 1 WR",7,"4 DL, 3 LB, 4 DB",left,2019-09-08T18:05:40.000Z,2019-09-08T18:05:39.000Z,6-2,225,12/25/1996,Ohio State,LB,MIA,BAL,1,Hard Rock Stadium,"Miami Gardens, FL",Outdoor,Natural grass,Mostly Cloudy,91.0,56,8,SSE
3825,2019090803,20190908031438,home,20.9,37.23,3.32,4.22,0.32,118.91,28.63,2562038,Sam Eguavoen,49,2019,10,2,08:24:00,BLT,1,10,MIA,3,28,2495466,PISTOL,"2 RB, 2 TE, 1 WR",7,"4 DL, 3 LB, 4 DB",left,2019-09-08T18:05:40.000Z,2019-09-08T18:05:39.000Z,6-0,236,02/22/1993,Texas Tech,LB,MIA,BAL,1,Hard Rock Stadium,"Miami Gardens, FL",Outdoor,Natural grass,Mostly Cloudy,91.0,56,8,SSE
3826,2019090803,20190908031438,home,20.51,34.95,2.81,0.89,0.29,115.93,28.94,2562302,Jonathan Ledbetter,98,2019,10,2,08:24:00,BLT,1,10,MIA,3,28,2495466,PISTOL,"2 RB, 2 TE, 1 WR",7,"4 DL, 3 LB, 4 DB",left,2019-09-08T18:05:40.000Z,2019-09-08T18:05:39.000Z,6-4,280,09/12/1997,Georgia,DE,MIA,BAL,1,Hard Rock Stadium,"Miami Gardens, FL",Outdoor,Natural grass,Mostly Cloudy,91.0,56,8,SSE
3827,2019090803,20190908031438,home,19.35,32.88,3.27,1.13,0.34,253.7,345.7,2562782,Christian Wilkins,94,2019,10,2,08:24:00,BLT,1,10,MIA,3,28,2495466,PISTOL,"2 RB, 2 TE, 1 WR",7,"4 DL, 3 LB, 4 DB",left,2019-09-08T18:05:40.000Z,2019-09-08T18:05:39.000Z,6-4,315,12/20/1995,Clemson,DT,MIA,BAL,1,Hard Rock Stadium,"Miami Gardens, FL",Outdoor,Natural grass,Mostly Cloudy,91.0,56,8,SSE
