,GameId,PlayId,Team,X,Y,S,A,Dis,Orientation,Dir,NflId,DisplayName,JerseyNumber,Season,YardLine,Quarter,GameClock,PossessionTeam,Down,Distance,FieldPosition,HomeScoreBeforePlay,VisitorScoreBeforePlay,NflIdRusher,OffenseFormation,OffensePersonnel,DefendersInTheBox,DefensePersonnel,PlayDirection,TimeHandoff,TimeSnap,PlayerHeight,PlayerWeight,PlayerBirthDate,PlayerCollegeName,Position,HomeTeamAbbr,VisitorTeamAbbr,Week,Stadium,Location,StadiumType,Turf,GameWeather,Temperature,Humidity,WindSpeed,WindDirection
32604,2019092201,20190922011545,away,57.68,21.44,2.22,2.46,0.23,125.61,90.67,1037880,J'Marcus Webb,61,2019,47,2,08:59:00,MIA,1,10,MIA,10,3,2555230,SINGLEBACK,"1 RB, 1 TE, 3 WR",5,"4 DL, 2 LB, 5 DB",right,2019-09-22T18:04:59.000Z,2019-09-22T18:04:57.000Z,6-7,320,08/08/1988,West Texas A&M,T,DAL,MIA,3,AT&T Stadium,"Arlington, Texas",indoor,Artificial,,,0,,
32605,2019092201,20190922011545,away,59.08,25.07,3.15,1.57,0.32,45.63,88.68,2495299,Daniel Kilgore,67,2019,47,2,08:59:00,MIA,1,10,MIA,10,3,2555230,SINGLEBACK,"1 RB, 1 TE, 3 WR",5,"4 DL, 2 LB, 5 DB",right,2019-09-22T18:04:59.000Z,2019-09-22T18:04:57.000Z,6-3,291,12/18/1987,Appalachian State,C,DAL,MIA,3,AT&T Stadium,"Arlington, Texas",indoor,Artificial,,,0,,
32606,2019092201,20190922011545,away,51.97,25.4,4.85,1.97,0.48,289.09,285.21,2506581,Ryan Fitzpatrick,14,2019,47,2,08:59:00,MIA,1,10,MIA,10,3,2555230,SINGLEBACK,"1 RB, 1 TE, 3 WR",5,"4 DL, 2 LB, 5 DB",right,2019-09-22T18:04:59.000Z,2019-09-22T18:04:57.000Z,6-2,228,11/24/1982,Harvard,QB,DAL,MIA,3,AT&T Stadium,"Arlington, Texas",indoor,Artificial,,,0,,
32607,2019092201,20190922011545,away,58.03,30.36,3.92,0.85,0.39,140.06,126.7,2552409,DeVante Parker,11,2019,47,2,08:59:00,MIA,1,10,MIA,10,3,2555230,SINGLEBACK,"1 RB, 1 TE, 3 WR",5,"4 DL, 2 LB, 5 DB",right,2019-09-22T18:04:59.000Z,2019-09-22T18:04:57.000Z,6-3,216,01/20/1993,Louisville,WR,DAL,MIA,3,AT&T Stadium,"Arlington, Texas",indoor,Artificial,,,0,,
32608,2019092201,20190922011545,away,54.04,27.51,3.12,1.72,0.32,263.87,295.09,2555181,Evan Boehm,76,2019,47,2,08:59:00,MIA,1,10,MIA,10,3,2555230,SINGLEBACK,"1 RB, 1 TE, 3 WR",5,"4 DL, 2 LB, 5 DB",right,2019-09-22T18:04:59.000Z,2019-09-22T18:04:57.000Z,6-3,321,08/19/1993,Missouri,G,DAL,MIA,3,AT&T Stadium,"Arlington, Texas",indoor,Artificial,,,0,,
32609,2019092201,20190922011545,away,52.14,25.8,3.97,3.69,0.39,99.52,76.39,2555230,Kenyan Drake,32,2019,47,2,08:59:00,MIA,1,10,MIA,10,3,2555230,SINGLEBACK,"1 RB, 1 TE, 3 WR",5,"4 DL, 2 LB, 5 DB",right,2019-09-22T18:04:59.000Z,2019-09-22T18:04:57.000Z,6-1,211,01/26/1994,Alabama,RB,DAL,MIA,3,AT&T Stadium,"Arlington, Texas",indoor,Artificial,,,0,,
32610,2019092201,20190922011545,away,53.19,17.4,6.62,2.52,0.68,140.51,181.23,2556190,Jakeem Grant,19,2019,47,2,08:59:00,MIA,1,10,MIA,10,3,2555230,SINGLEBACK,"1 RB, 1 TE, 3 WR",5,"4 DL, 2 LB, 5 DB",right,2019-09-22T18:04:59.000Z,2019-09-22T18:04:57.000Z,5-7,169,10/30/1992,Texas Tech,WR,DAL,MIA,3,AT&T Stadium,"Arlington, Texas",indoor,Artificial,,,0,,
32611,2019092201,20190922011545,away,55.41,24.59,2.3,0.58,0.23,115.23,333.16,2558181,Danny Isidora,65,2019,47,2,08:59:00,MIA,1,10,MIA,10,3,2555230,SINGLEBACK,"1 RB, 1 TE, 3 WR",5,"4 DL, 2 LB, 5 DB",right,2019-09-22T18:04:59.000Z,2019-09-22T18:04:57.000Z,6-3,306,06/05/1994,Miami (Fla.),G,DAL,MIA,3,AT&T Stadium,"Arlington, Texas",indoor,Artificial,,,0,,
32612,2019092201,20190922011545,away,54.89,25.01,4.13,0.67,0.41,133.96,170.98,2560880,Durham Smythe,81,2019,47,2,08:59:00,MIA,1,10,MIA,10,3,2555230,SINGLEBACK,"1 RB, 1 TE, 3 WR",5,"4 DL, 2 LB, 5 DB",right,2019-09-22T18:04:59.000Z,2019-09-22T18:04:57.000Z,6-6,260,08/09/1995,Notre Dame,TE,DAL,MIA,3,AT&T Stadium,"Arlington, Texas",indoor,Artificial,,,0,,
32613,2019092201,20190922011545,away,54.49,30.64,3.49,3.38,0.35,297.53,309.45,2562255,Michael Deiter,63,2019,47,2,08:59:00,MIA,1,10,MIA,10,3,2555230,SINGLEBACK,"1 RB, 1 TE, 3 WR",5,"4 DL, 2 LB, 5 DB",right,2019-09-22T18:04:59.000Z,2019-09-22T18:04:57.000Z,6-6,310,09/03/1996,Wisconsin,OG,DAL,MIA,3,AT&T Stadium,"Arlington, Texas",indoor,Artificial,,,0,,
32614,2019092201,20190922011545,away,58.59,12.76,5.0,2.1,0.49,80.53,60.12,2562805,Preston Williams,18,2019,47,2,08:59:00,MIA,1,10,MIA,10,3,2555230,SINGLEBACK,"1 RB, 1 TE, 3 WR",5,"4 DL, 2 LB, 5 DB",right,2019-09-22T18:04:59.000Z,2019-09-22T18:04:57.000Z,6-5,218,03/27/1997,Colorado State,WR,DAL,MIA,3,AT&T Stadium,"Arlington, Texas",indoor,Artificial,,,0,,
32615,2019092201,20190922011545,home,53.81,30.79,3.7,0.81,0.38,155.54,286.72,2495485,Robert Quinn,58,2019,47,2,08:59:00,MIA,1,10,MIA,10,3,2555230,SINGLEBACK,"1 RB, 1 TE, 3 WR",5,"4 DL, 2 LB, 5 DB",right,2019-09-22T18:04:59.000Z,2019-09-22T18:04:57.000Z,6-4,257,05/18/1990,North Carolina,DE,DAL,MIA,3,AT&T Stadium,"Arlington, Texas",indoor,Artificial,,,0,,
32616,2019092201,20190922011545,home,75.56,23.91,3.99,1.08,0.39,287.25,98.17,2541832,Jeff Heath,38,2019,47,2,08:59:00,MIA,1,10,MIA,10,3,2555230,SINGLEBACK,"1 RB, 1 TE, 3 WR",5,"4 DL, 2 LB, 5 DB",right,2019-09-22T18:04:59.000Z,2019-09-22T18:04:57.000Z,6-1,212,05/14/1991,Saginaw Valley State,SS,DAL,MIA,3,AT&T Stadium,"Arlington, Texas",indoor,Artificial,,,0,,
32617,2019092201,20190922011545,home,55.84,21.95,3.83,0.1,0.38,13.06,324.11,2543490,Demarcus Lawrence,90,2019,47,2,08:59:00,MIA,1,10,MIA,10,3,2555230,SINGLEBACK,"1 RB, 1 TE, 3 WR",5,"4 DL, 2 LB, 5 DB",right,2019-09-22T18:04:59.000Z,2019-09-22T18:04:57.000Z,6-3,265,04/28/1992,Boise State,DE,DAL,MIA,3,AT&T Stadium,"Arlington, Texas",indoor,Artificial,,,0,,
32618,2019092201,20190922011545,home,61.59,25.37,0.94,0.78,0.09,280.28,208.58,2550262,Joe Thomas,48,2019,47,2,08:59:00,MIA,1,10,MIA,10,3,2555230,SINGLEBACK,"1 RB, 1 TE, 3 WR",5,"4 DL, 2 LB, 5 DB",right,2019-09-22T18:04:59.000Z,2019-09-22T18:04:57.000Z,6-1,232,05/06/1991,South Carolina State,ILB,DAL,MIA,3,AT&T Stadium,"Arlington, Texas",indoor,Artificial,,,0,,
32619,2019092201,20190922011545,home,61.94,33.01,2.09,0.25,0.21,245.96,218.8,2552568,Byron Jones,31,2019,47,2,08:59:00,MIA,1,10,MIA,10,3,2555230,SINGLEBACK,"1 RB, 1 TE, 3 WR",5,"4 DL, 2 LB, 5 DB",right,2019-09-22T18:04:59.000Z,2019-09-22T18:04:57.000Z,6-1,205,09/26/1992,Connecticut,CB,DAL,MIA,3,AT&T Stadium,"Arlington, Texas",indoor,Artificial,,,0,,
32620,2019092201,20190922011545,home,55.58,25.45,2.79,0.93,0.29,253.85,322.38,2552602,Christian Covington,95,2019,47,2,08:59:00,MIA,1,10,MIA,10,3,2555230,SINGLEBACK,"1 RB, 1 TE, 3 WR",5,"4 DL, 2 LB, 5 DB",right,2019-09-22T18:04:59.000Z,2019-09-22T18:04:57.000Z,6-2,305,10/16/1993,Rice,DE,DAL,MIA,3,AT&T Stadium,"Arlington, Texas",indoor,Artificial,,,0,,
32621,2019092201,20190922011545,home,55.93,19.52,5.15,4.95,0.51,310.4,313.83,2555154,Darian Thompson,23,2019,47,2,08:59:00,MIA,1,10,MIA,10,3,2555230,SINGLEBACK,"1 RB, 1 TE, 3 WR",5,"4 DL, 2 LB, 5 DB",right,2019-09-22T18:04:59.000Z,2019-09-22T18:04:57.000Z,6-2,213,09/22/1993,Boise State,FS,DAL,MIA,3,AT&T Stadium,"Arlington, Texas",indoor,Artificial,,,0,,
32622,2019092201,20190922011545,home,53.61,27.95,3.98,1.46,0.41,66.75,279.67,2555400,Maliek Collins,96,2019,47,2,08:59:00,MIA,1,10,MIA,10,3,2555230,SINGLEBACK,"1 RB, 1 TE, 3 WR",5,"4 DL, 2 LB, 5 DB",right,2019-09-22T18:04:59.000Z,2019-09-22T18:04:57.000Z,6-2,308,04/08/1995,Nebraska,DT,DAL,MIA,3,AT&T Stadium,"Arlington, Texas",indoor,Artificial,,,0,,
32623,2019092201,20190922011545,home,61.54,29.03,2.44,1.57,0.24,245.11,234.89,2555531,Anthony Brown,30,2019,47,2,08:59:00,MIA,1,10,MIA,10,3,2555230,SINGLEBACK,"1 RB, 1 TE, 3 WR",5,"4 DL, 2 LB, 5 DB",right,2019-09-22T18:04:59.000Z,2019-09-22T18:04:57.000Z,5-11,196,12/15/1993,Purdue,CB,DAL,MIA,3,AT&T Stadium,"Arlington, Texas",indoor,Artificial,,,0,,
32624,2019092201,20190922011545,home,61.23,11.41,3.58,3.68,0.35,338.81,63.89,2557840,Chidobe Awuzie,24,2019,47,2,08:59:00,MIA,1,10,MIA,10,3,2555230,SINGLEBACK,"1 RB, 1 TE, 3 WR",5,"4 DL, 2 LB, 5 DB",right,2019-09-22T18:04:59.000Z,2019-09-22T18:04:57.000Z,6-0,202,05/24/1995,Colorado,CB,DAL,MIA,3,AT&T Stadium,"Arlington, Texas",indoor,Artificial,,,0,,
32625,2019092201,20190922011545,home,61.63,20.06,2.97,0.54,0.3,272.5,201.1,2560908,Leighton Vander Esch,55,2019,47,2,08:59:00,MIA,1,10,MIA,10,3,2555230,SINGLEBACK,"1 RB, 1 TE, 3 WR",5,"4 DL, 2 LB, 5 DB",right,2019-09-22T18:04:59.000Z,2019-09-22T18:04:57.000Z,6-4,256,02/08/1996,Boise State,LB,DAL,MIA,3,AT&T Stadium,"Arlington, Texas",indoor,Artificial,,,0,,
