,GameId,PlayId,Team,X,Y,S,A,Dis,Orientation,Dir,NflId,DisplayName,JerseyNumber,Season,YardLine,Quarter,GameClock,PossessionTeam,Down,Distance,FieldPosition,HomeScoreBeforePlay,VisitorScoreBeforePlay,NflIdRusher,OffenseFormation,OffensePersonnel,DefendersInTheBox,DefensePersonnel,PlayDirection,TimeHandoff,TimeSnap,PlayerHeight,PlayerWeight,PlayerBirthDate,PlayerCollegeName,Position,HomeTeamAbbr,VisitorTeamAbbr,Week,Stadium,Location,StadiumType,Turf,GameWeather,Temperature,Humidity,WindSpeed,WindDirection
70774,2019100609,20191006092206,away,39.18,31.79,4.4,2.34,0.43,103.86,120.67,238498,Julian Edelman,11,2019,28,2,01:48:00,NE,1,10,NE,7,9,2543773,SHOTGUN,"1 RB, 1 TE, 3 WR",6,"3 DL, 3 LB, 5 DB",right,2019-10-06T18:32:12.000Z,2019-10-06T18:32:11.000Z,5-10,200,05/22/1986,Kent State,WR,WAS,NE,5,FedExField,"Landover, MD",Outdoor,Grass,Cloudy,70.0,66,8,S
70775,2019100609,20191006092206,away,38.14,26.26,1.94,0.24,0.2,112.64,115.36,497030,Marshall Newhouse,72,2019,28,2,01:48:00,NE,1,10,NE,7,9,2543773,SHOTGUN,"1 RB, 1 TE, 3 WR",6,"3 DL, 3 LB, 5 DB",right,2019-10-06T18:32:12.000Z,2019-10-06T18:32:11.000Z,6-4,328,09/29/1988,Texas Christian,T,WAS,NE,5,FedExField,"Landover, MD",Outdoor,Grass,Cloudy,70.0,66,8,S
70776,2019100609,20191006092206,away,36.28,21.22,1.44,1.84,0.15,162.57,296.44,2495131,Marcus Cannon,61,2019,28,2,01:48:00,NE,1,10,NE,7,9,2543773,SHOTGUN,"1 RB, 1 TE, 3 WR",6,"3 DL, 3 LB, 5 DB",right,2019-10-06T18:32:12.000Z,2019-10-06T18:32:11.000Z,6-6,335,05/06/1988,Texas Christian,T,WAS,NE,5,FedExField,"Landover, MD",Outdoor,Grass,Cloudy,70.0,66,8,S
70777,2019100609,20191006092206,away,32.74,23.84,1.15,1.95,0.12,111.59,281.76,2504211,Tom Brady,12,2019,28,2,01:48:00,NE,1,10,NE,7,9,2543773,SHOTGUN,"1 RB, 1 TE, 3 WR",6,"3 DL, 3 LB, 5 DB",right,2019-10-06T18:32:12.000Z,2019-10-06T18:32:11.000Z,6-4,225,08/03/1977,Michigan,QB,WAS,NE,5,FedExField,"Landover, MD",Outdoor,Grass,Cloudy,70.0,66,8,S
70778,2019100609,20191006092206,away,38.92,8.75,3.28,2.09,0.32,78.22,71.75,2537931,Josh Gordon,10,2019,28,2,01:48:00,NE,1,10,NE,7,9,2543773,SHOTGUN,"1 RB, 1 TE, 3 WR",6,"3 DL, 3 LB, 5 DB",right,2019-10-06T18:32:12.000Z,2019-10-06T18:32:11.000Z,6-3,225,04/13/1991,Baylor,WR,WAS,NE,5,FedExField,"Landover, MD",Outdoor,Grass,Cloudy,70.0,66,8,S
70779,2019100609,20191006092206,away,33.23,22.82,3.4,3.14,0.33,73.03,29.94,2543773,James White,28,2019,28,2,01:48:00,NE,1,10,NE,7,9,2543773,SHOTGUN,"1 RB, 1 TE, 3 WR",6,"3 DL, 3 LB, 5 DB",right,2019-10-06T18:32:12.000Z,2019-10-06T18:32:11.000Z,5-10,205,02/03/1992,Wisconsin,RB,WAS,NE,5,FedExField,"Landover, MD",Outdoor,Grass,Cloudy,70.0,66,8,S
70780,2019100609,20191006092206,away,36.7,23.77,2.9,1.53,0.32,69.44,5.38,2552563,Shaq Mason,69,2019,28,2,01:48:00,NE,1,10,NE,7,9,2543773,SHOTGUN,"1 RB, 1 TE, 3 WR",6,"3 DL, 3 LB, 5 DB",right,2019-10-06T18:32:12.000Z,2019-10-06T18:32:11.000Z,6-1,310,08/28/1993,Georgia Tech,G,WAS,NE,5,FedExField,"Landover, MD",Outdoor,Grass,Cloudy,70.0,66,8,S
70781,2019100609,20191006092206,away,35.72,29.47,2.12,3.57,0.19,24.42,298.35,2553667,Matt LaCosse,83,2019,28,2,01:48:00,NE,1,10,NE,7,9,2543773,SHOTGUN,"1 RB, 1 TE, 3 WR",6,"3 DL, 3 LB, 5 DB",right,2019-10-06T18:32:12.000Z,2019-10-06T18:32:11.000Z,6-6,255,09/21/1992,Illinois,TE,WAS,NE,5,FedExField,"Landover, MD",Outdoor,Grass,Cloudy,70.0,66,8,S
70782,2019100609,20191006092206,away,37.17,21.86,2.04,1.54,0.21,217.27,214.07,2555145,Ted Karras,75,2019,28,2,01:48:00,NE,1,10,NE,7,9,2543773,SHOTGUN,"1 RB, 1 TE, 3 WR",6,"3 DL, 3 LB, 5 DB",right,2019-10-06T18:32:12.000Z,2019-10-06T18:32:11.000Z,6-4,305,03/15/1993,Illinois,C,WAS,NE,5,FedExField,"Landover, MD",Outdoor,Grass,Cloudy,70.0,66,8,S
70783,2019100609,20191006092206,away,38.13,25.47,1.54,0.17,0.16,86.26,101.72,2555281,Joe Thuney,62,2019,28,2,01:48:00,NE,1,10,NE,7,9,2543773,SHOTGUN,"1 RB, 1 TE, 3 WR",6,"3 DL, 3 LB, 5 DB",right,2019-10-06T18:32:12.000Z,2019-10-06T18:32:11.000Z,6-5,308,11/18/1992,North Carolina State,G,WAS,NE,5,FedExField,"Landover, MD",Outdoor,Grass,Cloudy,70.0,66,8,S
70784,2019100609,20191006092206,away,37.74,35.49,4.05,3.64,0.39,84.27,99.29,2562492,Jakobi Meyers,16,2019,28,2,01:48:00,NE,1,10,NE,7,9,2543773,SHOTGUN,"1 RB, 1 TE, 3 WR",6,"3 DL, 3 LB, 5 DB",right,2019-10-06T18:32:12.000Z,2019-10-06T18:32:11.000Z,6-2,200,11/09/1996,North Carolina State,WR,WAS,NE,5,FedExField,"Landover, MD",Outdoor,Grass,Cloudy,70.0,66,8,S
70785,2019100609,20191006092206,home,36.51,18.83,3.18,1.02,0.31,323.73,296.95,2495190,Ryan Kerrigan,91,2019,28,2,01:48:00,NE,1,10,NE,7,9,2543773,SHOTGUN,"1 RB, 1 TE, 3 WR",6,"3 DL, 3 LB, 5 DB",right,2019-10-06T18:32:12.000Z,2019-10-06T18:32:11.000Z,6-4,265,08/16/1988,Purdue,OLB,WAS,NE,5,FedExField,"Landover, MD",Outdoor,Grass,Cloudy,70.0,66,8,S
70786,2019100609,20191006092206,home,42.91,8.33,1.3,2.21,0.12,285.52,298.05,2532920,Josh Norman,24,2019,28,2,01:48:00,NE,1,10,NE,7,9,2543773,SHOTGUN,"1 RB, 1 TE, 3 WR",6,"3 DL, 3 LB, 5 DB",right,2019-10-06T18:32:12.000Z,2019-10-06T18:32:11.000Z,6-0,200,12/15/1987,Coastal Carolina,CB,WAS,NE,5,FedExField,"Landover, MD",Outdoor,Grass,Cloudy,70.0,66,8,S
70787,2019100609,20191006092206,home,41.44,26.76,2.3,2.23,0.22,269.15,276.83,2539978,Jon Bostic,53,2019,28,2,01:48:00,NE,1,10,NE,7,9,2543773,SHOTGUN,"1 RB, 1 TE, 3 WR",6,"3 DL, 3 LB, 5 DB",right,2019-10-06T18:32:12.000Z,2019-10-06T18:32:11.000Z,6-1,245,05/05/1991,Florida,ILB,WAS,NE,5,FedExField,"Landover, MD",Outdoor,Grass,Cloudy,70.0,66,8,S
70788,2019100609,20191006092206,home,48.02,30.28,1.26,2.6,0.11,266.62,227.48,2552454,Landon Collins,20,2019,28,2,01:48:00,NE,1,10,NE,7,9,2543773,SHOTGUN,"1 RB, 1 TE, 3 WR",6,"3 DL, 3 LB, 5 DB",right,2019-10-06T18:32:12.000Z,2019-10-06T18:32:11.000Z,6-0,218,01/10/1994,Alabama,SS,WAS,NE,5,FedExField,"Landover, MD",Outdoor,Grass,Cloudy,70.0,66,8,S
70789,2019100609,20191006092206,home,46.34,37.54,1.15,1.18,0.11,241.85,107.82,2553796,Quinton Dunbar,23,2019,28,2,01:48:00,NE,1,10,NE,7,9,2543773,SHOTGUN,"1 RB, 1 TE, 3 WR",6,"3 DL, 3 LB, 5 DB",right,2019-10-06T18:32:12.000Z,2019-10-06T18:32:11.000Z,6-2,202,07/22/1992,Florida,CB,WAS,NE,5,FedExField,"Landover, MD",Outdoor,Grass,Cloudy,70.0,66,8,S
70790,2019100609,20191006092206,home,36.97,20.76,2.09,0.24,0.21,255.46,277.0,2555240,Matthew Ioannidis,98,2019,28,2,01:48:00,NE,1,10,NE,7,9,2543773,SHOTGUN,"1 RB, 1 TE, 3 WR",6,"3 DL, 3 LB, 5 DB",right,2019-10-06T18:32:12.000Z,2019-10-06T18:32:11.000Z,6-3,310,01/11/1994,Temple,DE,WAS,NE,5,FedExField,"Landover, MD",Outdoor,Grass,Cloudy,70.0,66,8,S
70791,2019100609,20191006092206,home,35.9,30.66,4.52,1.35,0.45,219.89,262.95,2555312,Noah Spence,54,2019,28,2,01:48:00,NE,1,10,NE,7,9,2543773,SHOTGUN,"1 RB, 1 TE, 3 WR",6,"3 DL, 3 LB, 5 DB",right,2019-10-06T18:32:12.000Z,2019-10-06T18:32:11.000Z,6-2,251,01/08/1994,Eastern Kentucky,DE,WAS,NE,5,FedExField,"Landover, MD",Outdoor,Grass,Cloudy,70.0,66,8,S
70792,2019100609,20191006092206,home,38.85,25.43,0.86,0.82,0.09,252.82,156.48,2558111,Treyvon Hester,96,2019,28,2,01:48:00,NE,1,10,NE,7,9,2543773,SHOTGUN,"1 RB, 1 TE, 3 WR",6,"3 DL, 3 LB, 5 DB",right,2019-10-06T18:32:12.000Z,2019-10-06T18:32:11.000Z,6-2,304,09/21/1992,Toledo,DT,WAS,NE,5,FedExField,"Landover, MD",Outdoor,Grass,Cloudy,70.0,66,8,S
70793,2019100609,20191006092206,home,49.57,17.43,1.79,1.06,0.17,265.29,140.51,2558133,Montae Nicholson,35,2019,28,2,01:48:00,NE,1,10,NE,7,9,2543773,SHOTGUN,"1 RB, 1 TE, 3 WR",6,"3 DL, 3 LB, 5 DB",right,2019-10-06T18:32:12.000Z,2019-10-06T18:32:11.000Z,6-2,212,12/04/1995,Michigan State,FS,WAS,NE,5,FedExField,"Landover, MD",Outdoor,Grass,Cloudy,70.0,66,8,S
70794,2019100609,20191006092206,home,42.07,32.43,0.65,1.68,0.06,242.47,215.43,2558136,Fabian Moreau,31,2019,28,2,01:48:00,NE,1,10,NE,7,9,2543773,SHOTGUN,"1 RB, 1 TE, 3 WR",6,"3 DL, 3 LB, 5 DB",right,2019-10-06T18:32:12.000Z,2019-10-06T18:32:11.000Z,6-0,204,04/09/1994,UCLA,CB,WAS,NE,5,FedExField,"Landover, MD",Outdoor,Grass,Cloudy,70.0,66,8,S
70795,2019100609,20191006092206,home,42.12,22.25,1.53,1.89,0.15,271.04,350.03,2562872,Cole Holcomb,55,2019,28,2,01:48:00,NE,1,10,NE,7,9,2543773,SHOTGUN,"1 RB, 1 TE, 3 WR",6,"3 DL, 3 LB, 5 DB",right,2019-10-06T18:32:12.000Z,2019-10-06T18:32:11.000Z,6-1,240,07/30/1996,North Carolina,LB,WAS,NE,5,FedExField,"Landover, MD",Outdoor,Grass,Cloudy,70.0,66,8,S
