,GameId,PlayId,Team,X,Y,S,A,Dis,Orientation,Dir,NflId,DisplayName,JerseyNumber,Season,YardLine,Quarter,GameClock,PossessionTeam,Down,Distance,FieldPosition,HomeScoreBeforePlay,VisitorScoreBeforePlay,NflIdRusher,OffenseFormation,OffensePersonnel,DefendersInTheBox,DefensePersonnel,PlayDirection,TimeHandoff,TimeSnap,PlayerHeight,PlayerWeight,PlayerBirthDate,PlayerCollegeName,Position,HomeTeamAbbr,VisitorTeamAbbr,Week,Stadium,Location,StadiumType,Turf,GameWeather,Temperature,Humidity,WindSpeed,WindDirection
47080,2019092900,20190929001257,away,22.64,28.13,3.0,1.18,0.3,269.83,268.53,2354,Wesley Woodyard,59,2019,10,2,13:21:00,ATL,2,10,ATL,7,14,2543583,SHOTGUN,"1 RB, 1 TE, 3 WR",7,"2 DL, 4 LB, 5 DB",right,2019-09-29T17:52:47.000Z,2019-09-29T17:52:46.000Z,6-0,233,07/21/1986,Kentucky,ILB,ATL,TEN,4,Mercedes-Benz Stadium,"Atlanta, GA","Domed, closed",FieldTurf,,,0,,
47081,2019092900,20190929001257,away,20.44,30.41,1.86,0.52,0.19,263.53,175.72,2495476,Jurrell Casey,99,2019,10,2,13:21:00,ATL,2,10,ATL,7,14,2543583,SHOTGUN,"1 RB, 1 TE, 3 WR",7,"2 DL, 4 LB, 5 DB",right,2019-09-29T17:52:47.000Z,2019-09-29T17:52:46.000Z,6-1,305,12/05/1989,Southern California,DT,ATL,TEN,4,Mercedes-Benz Stadium,"Atlanta, GA","Domed, closed",FieldTurf,,,0,,
47082,2019092900,20190929001257,away,17.35,25.21,4.21,0.94,0.42,350.97,286.55,2506314,Cameron Wake,91,2019,10,2,13:21:00,ATL,2,10,ATL,7,14,2543583,SHOTGUN,"1 RB, 1 TE, 3 WR",7,"2 DL, 4 LB, 5 DB",right,2019-09-29T17:52:47.000Z,2019-09-29T17:52:46.000Z,6-3,263,01/30/1982,Penn State,OLB,ATL,TEN,4,Mercedes-Benz Stadium,"Atlanta, GA","Domed, closed",FieldTurf,,,0,,
47083,2019092900,20190929001257,away,23.74,35.77,3.66,2.32,0.35,230.79,237.91,2539320,Kenny Vaccaro,24,2019,10,2,13:21:00,ATL,2,10,ATL,7,14,2543583,SHOTGUN,"1 RB, 1 TE, 3 WR",7,"2 DL, 4 LB, 5 DB",right,2019-09-29T17:52:47.000Z,2019-09-29T17:52:46.000Z,6-0,214,02/15/1991,Texas,SS,ATL,TEN,4,Mercedes-Benz Stadium,"Atlanta, GA","Domed, closed",FieldTurf,,,0,,
47084,2019092900,20190929001257,away,24.32,17.97,0.78,1.85,0.07,279.29,359.65,2540162,Logan Ryan,26,2019,10,2,13:21:00,ATL,2,10,ATL,7,14,2543583,SHOTGUN,"1 RB, 1 TE, 3 WR",7,"2 DL, 4 LB, 5 DB",right,2019-09-29T17:52:47.000Z,2019-09-29T17:52:46.000Z,5-11,195,02/09/1991,Rutgers,CB,ATL,TEN,4,Mercedes-Benz Stadium,"Atlanta, GA","Domed, closed",FieldTurf,,,0,,
47085,2019092900,20190929001257,away,20.26,27.24,1.86,0.32,0.18,316.86,188.46,2543504,DaQuan Jones,90,2019,10,2,13:21:00,ATL,2,10,ATL,7,14,2543583,SHOTGUN,"1 RB, 1 TE, 3 WR",7,"2 DL, 4 LB, 5 DB",right,2019-09-29T17:52:47.000Z,2019-09-29T17:52:46.000Z,6-4,322,12/27/1991,Penn State,DE,ATL,TEN,4,Mercedes-Benz Stadium,"Atlanta, GA","Domed, closed",FieldTurf,,,0,,
47086,2019092900,20190929001257,away,21.62,21.01,1.78,3.4,0.16,288.81,81.05,2550613,Malcolm Butler,21,2019,10,2,13:21:00,ATL,2,10,ATL,7,14,2543583,SHOTGUN,"1 RB, 1 TE, 3 WR",7,"2 DL, 4 LB, 5 DB",right,2019-09-29T17:52:47.000Z,2019-09-29T17:52:46.000Z,5-11,190,03/02/1990,West Alabama,CB,ATL,TEN,4,Mercedes-Benz Stadium,"Atlanta, GA","Domed, closed",FieldTurf,,,0,,
47087,2019092900,20190929001257,away,36.72,26.29,2.09,0.73,0.2,279.52,68.06,2555158,Kevin Byard,31,2019,10,2,13:21:00,ATL,2,10,ATL,7,14,2543583,SHOTGUN,"1 RB, 1 TE, 3 WR",7,"2 DL, 4 LB, 5 DB",right,2019-09-29T17:52:47.000Z,2019-09-29T17:52:46.000Z,5-11,212,08/17/1993,Middle Tennessee,FS,ATL,TEN,4,Mercedes-Benz Stadium,"Atlanta, GA","Domed, closed",FieldTurf,,,0,,
47088,2019092900,20190929001257,away,20.84,32.43,3.79,2.05,0.37,241.39,165.37,2555339,Kamalei Correa,44,2019,10,2,13:21:00,ATL,2,10,ATL,7,14,2543583,SHOTGUN,"1 RB, 1 TE, 3 WR",7,"2 DL, 4 LB, 5 DB",right,2019-09-29T17:52:47.000Z,2019-09-29T17:52:46.000Z,6-3,241,04/27/1994,Boise State,ILB,ATL,TEN,4,Mercedes-Benz Stadium,"Atlanta, GA","Domed, closed",FieldTurf,,,0,,
47089,2019092900,20190929001257,away,22.24,11.22,2.45,2.8,0.22,199.73,106.93,2558065,Adoree' Jackson,25,2019,10,2,13:21:00,ATL,2,10,ATL,7,14,2543583,SHOTGUN,"1 RB, 1 TE, 3 WR",7,"2 DL, 4 LB, 5 DB",right,2019-09-29T17:52:47.000Z,2019-09-29T17:52:46.000Z,5-11,185,09/18/1995,Southern California,CB,ATL,TEN,4,Mercedes-Benz Stadium,"Atlanta, GA","Domed, closed",FieldTurf,,,0,,
47090,2019092900,20190929001257,away,23.88,31.91,2.75,2.67,0.27,263.13,266.67,2560718,Rashaan Evans,54,2019,10,2,13:21:00,ATL,2,10,ATL,7,14,2543583,SHOTGUN,"1 RB, 1 TE, 3 WR",7,"2 DL, 4 LB, 5 DB",right,2019-09-29T17:52:47.000Z,2019-09-29T17:52:46.000Z,6-2,234,11/08/1995,Alabama,LB,ATL,TEN,4,Mercedes-Benz Stadium,"Atlanta, GA","Domed, closed",FieldTurf,,,0,,
47091,2019092900,20190929001257,home,15.3,30.03,1.04,2.42,0.09,175.38,278.08,310,Matt Ryan,2,2019,10,2,13:21:00,ATL,2,10,ATL,7,14,2543583,SHOTGUN,"1 RB, 1 TE, 3 WR",7,"2 DL, 4 LB, 5 DB",right,2019-09-29T17:52:47.000Z,2019-09-29T17:52:46.000Z,6-4,217,05/17/1985,Boston College,QB,ATL,TEN,4,Mercedes-Benz Stadium,"Atlanta, GA","Domed, closed",FieldTurf,,,0,,
47092,2019092900,20190929001257,home,21.93,29.68,2.53,1.42,0.24,77.83,107.71,71375,Alex Mack,51,2019,10,2,13:21:00,ATL,2,10,ATL,7,14,2543583,SHOTGUN,"1 RB, 1 TE, 3 WR",7,"2 DL, 4 LB, 5 DB",right,2019-09-29T17:52:47.000Z,2019-09-29T17:52:46.000Z,6-4,311,11/19/1985,California,C,ATL,TEN,4,Mercedes-Benz Stadium,"Atlanta, GA","Domed, closed",FieldTurf,,,0,,
47093,2019092900,20190929001257,home,19.58,30.03,1.8,0.57,0.18,86.45,166.39,2495134,James Carpenter,77,2019,10,2,13:21:00,ATL,2,10,ATL,7,14,2543583,SHOTGUN,"1 RB, 1 TE, 3 WR",7,"2 DL, 4 LB, 5 DB",right,2019-09-29T17:52:47.000Z,2019-09-29T17:52:46.000Z,6-5,321,03/22/1989,Alabama,G,ATL,TEN,4,Mercedes-Benz Stadium,"Atlanta, GA","Domed, closed",FieldTurf,,,0,,
47094,2019092900,20190929001257,home,20.81,21.61,2.91,0.62,0.29,126.8,86.66,2495454,Julio Jones,11,2019,10,2,13:21:00,ATL,2,10,ATL,7,14,2543583,SHOTGUN,"1 RB, 1 TE, 3 WR",7,"2 DL, 4 LB, 5 DB",right,2019-09-29T17:52:47.000Z,2019-09-29T17:52:46.000Z,6-3,220,02/08/1989,Alabama,WR,ATL,TEN,4,Mercedes-Benz Stadium,"Atlanta, GA","Domed, closed",FieldTurf,,,0,,
47095,2019092900,20190929001257,home,20.01,18.24,3.93,3.42,0.37,92.14,73.81,2533040,Mohamed Sanu,12,2019,10,2,13:21:00,ATL,2,10,ATL,7,14,2543583,SHOTGUN,"1 RB, 1 TE, 3 WR",7,"2 DL, 4 LB, 5 DB",right,2019-09-29T17:52:47.000Z,2019-09-29T17:52:46.000Z,6-2,215,08/22/1989,Rutgers,WR,ATL,TEN,4,Mercedes-Benz Stadium,"Atlanta, GA","Domed, closed",FieldTurf,,,0,,
47096,2019092900,20190929001257,home,15.79,28.8,2.3,4.42,0.22,76.76,75.22,2543583,Devonta Freeman,24,2019,10,2,13:21:00,ATL,2,10,ATL,7,14,2543583,SHOTGUN,"1 RB, 1 TE, 3 WR",7,"2 DL, 4 LB, 5 DB",right,2019-09-29T17:52:47.000Z,2019-09-29T17:52:46.000Z,5-8,206,03/15/1992,Florida State,RB,ATL,TEN,4,Mercedes-Benz Stadium,"Atlanta, GA","Domed, closed",FieldTurf,,,0,,
47097,2019092900,20190929001257,home,18.59,29.51,4.51,0.95,0.45,125.12,174.88,2543758,Jake Matthews,70,2019,10,2,13:21:00,ATL,2,10,ATL,7,14,2543583,SHOTGUN,"1 RB, 1 TE, 3 WR",7,"2 DL, 4 LB, 5 DB",right,2019-09-29T17:52:47.000Z,2019-09-29T17:52:46.000Z,6-5,309,02/11/1992,Texas A&M,T,ATL,TEN,4,Mercedes-Benz Stadium,"Atlanta, GA","Domed, closed",FieldTurf,,,0,,
47098,2019092900,20190929001257,home,20.75,10.53,3.77,2.75,0.37,67.49,107.74,2552418,Justin Hardy,14,2019,10,2,13:21:00,ATL,2,10,ATL,7,14,2543583,SHOTGUN,"1 RB, 1 TE, 3 WR",7,"2 DL, 4 LB, 5 DB",right,2019-09-29T17:52:47.000Z,2019-09-29T17:52:46.000Z,5-10,192,12/18/1991,East Carolina,WR,ATL,TEN,4,Mercedes-Benz Stadium,"Atlanta, GA","Domed, closed",FieldTurf,,,0,,
47099,2019092900,20190929001257,home,19.99,32.36,3.38,0.15,0.34,94.4,154.66,2555415,Austin Hooper,81,2019,10,2,13:21:00,ATL,2,10,ATL,7,14,2543583,SHOTGUN,"1 RB, 1 TE, 3 WR",7,"2 DL, 4 LB, 5 DB",right,2019-09-29T17:52:47.000Z,2019-09-29T17:52:46.000Z,6-4,254,10/29/1994,Stanford,TE,ATL,TEN,4,Mercedes-Benz Stadium,"Atlanta, GA","Domed, closed",FieldTurf,,,0,,
47100,2019092900,20190929001257,home,19.84,27.85,1.32,1.36,0.14,120.72,177.14,2556373,Wes Schweitzer,71,2019,10,2,13:21:00,ATL,2,10,ATL,7,14,2543583,SHOTGUN,"1 RB, 1 TE, 3 WR",7,"2 DL, 4 LB, 5 DB",right,2019-09-29T17:52:47.000Z,2019-09-29T17:52:46.000Z,6-4,314,09/11/1993,San Jose State,G,ATL,TEN,4,Mercedes-Benz Stadium,"Atlanta, GA","Domed, closed",FieldTurf,,,0,,
47101,2019092900,20190929001257,home,17.93,25.88,1.04,1.76,0.11,197.76,267.09,2562311,Kaleb McGary,76,2019,10,2,13:21:00,ATL,2,10,ATL,7,14,2543583,SHOTGUN,"1 RB, 1 TE, 3 WR",7,"2 DL, 4 LB, 5 DB",right,2019-09-29T17:52:47.000Z,2019-09-29T17:52:46.000Z,6-6,306,02/22/1995,Washington,T,ATL,TEN,4,Mercedes-Benz Stadium,"Atlanta, GA","Domed, closed",FieldTurf,,,0,,
