,GameId,PlayId,Team,X,Y,S,A,Dis,Orientation,Dir,NflId,DisplayName,JerseyNumber,Season,YardLine,Quarter,GameClock,PossessionTeam,Down,Distance,FieldPosition,HomeScoreBeforePlay,VisitorScoreBeforePlay,NflIdRusher,OffenseFormation,OffensePersonnel,DefendersInTheBox,DefensePersonnel,PlayDirection,TimeHandoff,TimeSnap,PlayerHeight,PlayerWeight,PlayerBirthDate,PlayerCollegeName,Position,HomeTeamAbbr,VisitorTeamAbbr,Week,Stadium,Location,StadiumType,Turf,GameWeather,Temperature,Humidity,WindSpeed,WindDirection
49852,2019092903,20190929030824,away,18.15,27.46,5.72,1.96,0.56,33.63,32.62,79607,LeSean McCoy,25,2019,14,1,02:58:00,KC,1,10,KC,10,0,79607,SINGLEBACK,"1 RB, 2 TE, 2 WR",7,"3 DL, 3 LB, 5 DB",right,2019-09-29T17:36:38.000Z,2019-09-29T17:36:37.000Z,5-11,210,07/12/1988,Pittsburgh,RB,DET,KC,4,Ford Field,Detroit,Indoors,Field Turf,Controlled Climate,68.0,70,,
49853,2019092903,20190929030824,away,23.91,24.8,4.32,0.87,0.46,95.49,21.38,2532945,Mitchell Schwartz,71,2019,14,1,02:58:00,KC,1,10,KC,10,0,79607,SINGLEBACK,"1 RB, 2 TE, 2 WR",7,"3 DL, 3 LB, 5 DB",right,2019-09-29T17:36:38.000Z,2019-09-29T17:36:37.000Z,6-5,320,06/08/1989,California,T,DET,KC,4,Ford Field,Detroit,Indoors,Field Turf,Controlled Climate,68.0,70,,
49854,2019092903,20190929030824,away,23.03,19.55,2.17,2.68,0.2,89.31,27.03,2540258,Travis Kelce,87,2019,14,1,02:58:00,KC,1,10,KC,10,0,79607,SINGLEBACK,"1 RB, 2 TE, 2 WR",7,"3 DL, 3 LB, 5 DB",right,2019-09-29T17:36:38.000Z,2019-09-29T17:36:37.000Z,6-5,260,10/05/1989,Cincinnati,TE,DET,KC,4,Ford Field,Detroit,Indoors,Field Turf,Controlled Climate,68.0,70,,
49855,2019092903,20190929030824,away,26.46,35.7,5.63,2.17,0.55,94.06,90.17,2543457,Sammy Watkins,14,2019,14,1,02:58:00,KC,1,10,KC,10,0,79607,SINGLEBACK,"1 RB, 2 TE, 2 WR",7,"3 DL, 3 LB, 5 DB",right,2019-09-29T17:36:38.000Z,2019-09-29T17:36:37.000Z,6-1,211,06/14/1993,Clemson,WR,DET,KC,4,Ford Field,Detroit,Indoors,Field Turf,Controlled Climate,68.0,70,,
49856,2019092903,20190929030824,away,25.85,25.39,3.3,2.96,0.33,194.16,27.63,2543816,Laurent Duvernay-Tardif,76,2019,14,1,02:58:00,KC,1,10,KC,10,0,79607,SINGLEBACK,"1 RB, 2 TE, 2 WR",7,"3 DL, 3 LB, 5 DB",right,2019-09-29T17:36:38.000Z,2019-09-29T17:36:37.000Z,6-5,321,02/11/1991,McGill,G,DET,KC,4,Ford Field,Detroit,Indoors,Field Turf,Controlled Climate,68.0,70,,
49857,2019092903,20190929030824,away,24.13,30.9,4.26,0.81,0.44,25.71,21.05,2552240,Cameron Erving,75,2019,14,1,02:58:00,KC,1,10,KC,10,0,79607,SINGLEBACK,"1 RB, 2 TE, 2 WR",7,"3 DL, 3 LB, 5 DB",right,2019-09-29T17:36:38.000Z,2019-09-29T17:36:37.000Z,6-5,313,08/23/1992,Florida State,G,DET,KC,4,Ford Field,Detroit,Indoors,Field Turf,Controlled Climate,68.0,70,,
49858,2019092903,20190929030824,away,23.6,31.91,4.77,1.38,0.47,44.53,8.91,2552478,Blake Bell,81,2019,14,1,02:58:00,KC,1,10,KC,10,0,79607,SINGLEBACK,"1 RB, 2 TE, 2 WR",7,"3 DL, 3 LB, 5 DB",right,2019-09-29T17:36:38.000Z,2019-09-29T17:36:37.000Z,6-6,252,08/07/1991,Oklahoma,TE,DET,KC,4,Ford Field,Detroit,Indoors,Field Turf,Controlled Climate,68.0,70,,
49859,2019092903,20190929030824,away,23.64,27.6,3.22,0.66,0.33,77.55,5.38,2553452,Austin Reiter,62,2019,14,1,02:58:00,KC,1,10,KC,10,0,79607,SINGLEBACK,"1 RB, 2 TE, 2 WR",7,"3 DL, 3 LB, 5 DB",right,2019-09-29T17:36:38.000Z,2019-09-29T17:36:37.000Z,6-3,300,11/27/1991,South Florida,C,DET,KC,4,Ford Field,Detroit,Indoors,Field Turf,Controlled Climate,68.0,70,,
49860,2019092903,20190929030824,away,18.03,26.11,4.89,3.4,0.49,269.98,276.74,2558125,Patrick Mahomes,15,2019,14,1,02:58:00,KC,1,10,KC,10,0,79607,SINGLEBACK,"1 RB, 2 TE, 2 WR",7,"3 DL, 3 LB, 5 DB",right,2019-09-29T17:36:38.000Z,2019-09-29T17:36:37.000Z,6-3,230,09/17/1995,Texas Tech,QB,DET,KC,4,Ford Field,Detroit,Indoors,Field Turf,Controlled Climate,68.0,70,,
49861,2019092903,20190929030824,away,23.38,28.75,3.58,2.05,0.36,70.43,345.67,2559354,Andrew Wylie,77,2019,14,1,02:58:00,KC,1,10,KC,10,0,79607,SINGLEBACK,"1 RB, 2 TE, 2 WR",7,"3 DL, 3 LB, 5 DB",right,2019-09-29T17:36:38.000Z,2019-09-29T17:36:37.000Z,6-6,309,08/19/1994,Eastern Michigan,OT,DET,KC,4,Ford Field,Detroit,Indoors,Field Turf,Controlled Climate,68.0,70,,
49862,2019092903,20190929030824,away,25.53,7.77,5.36,4.38,0.52,105.44,125.3,2562580,Mecole Hardman,17,2019,14,1,02:58:00,KC,1,10,KC,10,0,79607,SINGLEBACK,"1 RB, 2 TE, 2 WR",7,"3 DL, 3 LB, 5 DB",right,2019-09-29T17:36:38.000Z,2019-09-29T17:36:37.000Z,5-10,187,03/12/1998,Georgia,WR,DET,KC,4,Ford Field,Detroit,Indoors,Field Turf,Controlled Climate,68.0,70,,
49863,2019092903,20190929030824,home,28.29,17.38,1.83,2.58,0.18,281.85,336.34,2534830,Tavon Wilson,32,2019,14,1,02:58:00,KC,1,10,KC,10,0,79607,SINGLEBACK,"1 RB, 2 TE, 2 WR",7,"3 DL, 3 LB, 5 DB",right,2019-09-29T17:36:38.000Z,2019-09-29T17:36:37.000Z,6-0,208,03/19/1990,Illinois,SS,DET,KC,4,Ford Field,Detroit,Indoors,Field Turf,Controlled Climate,68.0,70,,
49864,2019092903,20190929030824,home,25.47,24.6,2.96,0.59,0.3,334.24,3.55,2535718,Damon Harrison,98,2019,14,1,02:58:00,KC,1,10,KC,10,0,79607,SINGLEBACK,"1 RB, 2 TE, 2 WR",7,"3 DL, 3 LB, 5 DB",right,2019-09-29T17:36:38.000Z,2019-09-29T17:36:37.000Z,6-3,350,11/29/1988,William Penn,DT,DET,KC,4,Ford Field,Detroit,Indoors,Field Turf,Controlled Climate,68.0,70,,
49865,2019092903,20190929030824,home,27.04,9.55,4.55,3.86,0.44,204.74,114.64,2541200,Rashaan Melvin,29,2019,14,1,02:58:00,KC,1,10,KC,10,0,79607,SINGLEBACK,"1 RB, 2 TE, 2 WR",7,"3 DL, 3 LB, 5 DB",right,2019-09-29T17:36:38.000Z,2019-09-29T17:36:37.000Z,6-2,196,10/02/1989,Northern Illinois,CB,DET,KC,4,Ford Field,Detroit,Indoors,Field Turf,Controlled Climate,68.0,70,,
49866,2019092903,20190929030824,home,21.53,18.17,3.97,1.92,0.4,2.11,295.36,2543869,Devon Kennard,42,2019,14,1,02:58:00,KC,1,10,KC,10,0,79607,SINGLEBACK,"1 RB, 2 TE, 2 WR",7,"3 DL, 3 LB, 5 DB",right,2019-09-29T17:36:38.000Z,2019-09-29T17:36:37.000Z,6-3,256,06/24/1991,Southern California,OLB,DET,KC,4,Ford Field,Detroit,Indoors,Field Turf,Controlled Climate,68.0,70,,
49867,2019092903,20190929030824,home,35.33,26.53,4.2,3.13,0.41,327.42,340.25,2552262,Quandre Diggs,28,2019,14,1,02:58:00,KC,1,10,KC,10,0,79607,SINGLEBACK,"1 RB, 2 TE, 2 WR",7,"3 DL, 3 LB, 5 DB",right,2019-09-29T17:36:38.000Z,2019-09-29T17:36:37.000Z,5-9,197,01/22/1993,Texas,CB,DET,KC,4,Ford Field,Detroit,Indoors,Field Turf,Controlled Climate,68.0,70,,
49868,2019092903,20190929030824,home,24.46,31.86,4.42,1.59,0.44,287.76,3.43,2552278,Trey Flowers,90,2019,14,1,02:58:00,KC,1,10,KC,10,0,79607,SINGLEBACK,"1 RB, 2 TE, 2 WR",7,"3 DL, 3 LB, 5 DB",right,2019-09-29T17:36:38.000Z,2019-09-29T17:36:37.000Z,6-2,265,08/16/1993,Arkansas,DE,DET,KC,4,Ford Field,Detroit,Indoors,Field Turf,Controlled Climate,68.0,70,,
49869,2019092903,20190929030824,home,34.12,34.91,2.77,0.83,0.28,273.79,88.16,2553637,Justin Coleman,27,2019,14,1,02:58:00,KC,1,10,KC,10,0,79607,SINGLEBACK,"1 RB, 2 TE, 2 WR",7,"3 DL, 3 LB, 5 DB",right,2019-09-29T17:36:38.000Z,2019-09-29T17:36:37.000Z,5-11,190,03/27/1993,Tennessee,CB,DET,KC,4,Ford Field,Detroit,Indoors,Field Turf,Controlled Climate,68.0,70,,
49870,2019092903,20190929030824,home,24.45,27.96,3.07,0.31,0.33,266.75,0.84,2555265,A'Shawn Robinson,91,2019,14,1,02:58:00,KC,1,10,KC,10,0,79607,SINGLEBACK,"1 RB, 2 TE, 2 WR",7,"3 DL, 3 LB, 5 DB",right,2019-09-29T17:36:38.000Z,2019-09-29T17:36:37.000Z,6-4,330,03/21/1995,Alabama,DT,DET,KC,4,Ford Field,Detroit,Indoors,Field Turf,Controlled Climate,68.0,70,,
49871,2019092903,20190929030824,home,24.44,22.82,6.06,2.17,0.6,320.67,321.75,2557855,Jarrad Davis,40,2019,14,1,02:58:00,KC,1,10,KC,10,0,79607,SINGLEBACK,"1 RB, 2 TE, 2 WR",7,"3 DL, 3 LB, 5 DB",right,2019-09-29T17:36:38.000Z,2019-09-29T17:36:37.000Z,6-1,245,11/16/1994,Florida,MLB,DET,KC,4,Ford Field,Detroit,Indoors,Field Turf,Controlled Climate,68.0,70,,
49872,2019092903,20190929030824,home,27.68,31.49,5.14,1.71,0.51,266.84,326.98,2560913,Tracy Walker,21,2019,14,1,02:58:00,KC,1,10,KC,10,0,79607,SINGLEBACK,"1 RB, 2 TE, 2 WR",7,"3 DL, 3 LB, 5 DB",right,2019-09-29T17:36:38.000Z,2019-09-29T17:36:37.000Z,6-1,210,02/01/1995,Louisiana-Lafayette,DB,DET,KC,4,Ford Field,Detroit,Indoors,Field Turf,Controlled Climate,68.0,70,,
49873,2019092903,20190929030824,home,24.36,29.01,4.73,1.42,0.47,253.39,322.43,2562755,Jahlani Tavai,51,2019,14,1,02:58:00,KC,1,10,KC,10,0,79607,SINGLEBACK,"1 RB, 2 TE, 2 WR",7,"3 DL, 3 LB, 5 DB",right,2019-09-29T17:36:38.000Z,2019-09-29T17:36:37.000Z,6-2,250,09/28/1996,Hawaii,LB,DET,KC,4,Ford Field,Detroit,Indoors,Field Turf,Controlled Climate,68.0,70,,
