,GameId,PlayId,Team,X,Y,S,A,Dis,Orientation,Dir,NflId,DisplayName,JerseyNumber,Season,YardLine,Quarter,GameClock,PossessionTeam,Down,Distance,FieldPosition,HomeScoreBeforePlay,VisitorScoreBeforePlay,NflIdRusher,OffenseFormation,OffensePersonnel,DefendersInTheBox,DefensePersonnel,PlayDirection,TimeHandoff,TimeSnap,PlayerHeight,PlayerWeight,PlayerBirthDate,PlayerCollegeName,Position,HomeTeamAbbr,VisitorTeamAbbr,Week,Stadium,Location,StadiumType,Turf,GameWeather,Temperature,Humidity,WindSpeed,WindDirection
62810,2019100601,20191006010323,away,19.62,26.26,1.54,1.22,0.15,62.58,140.31,89758,Clinton McDonald,93,2019,8,1,09:53:00,CIN,1,8,ARZ,0,0,2557976,SINGLEBACK,"1 RB, 1 TE, 3 WR",7,"3 DL, 4 LB, 4 DB",left,2019-10-06T17:10:22.000Z,2019-10-06T17:10:21.000Z,6-2,297,01/06/1987,Memphis,DT,CIN,ARI,5,Paul Brown Stadium,"Cincinnati, OH",Outdoor,Twenty Four/Seven Turf,Cloudy,76.0,68,"6 mph, Gusts to 10",SW
62811,2019100601,20191006010323,away,19.56,35.29,0.71,3.71,0.08,140.61,130.47,2495218,Brooks Reed,50,2019,8,1,09:53:00,CIN,1,8,ARZ,0,0,2557976,SINGLEBACK,"1 RB, 1 TE, 3 WR",7,"3 DL, 4 LB, 4 DB",left,2019-10-06T17:10:22.000Z,2019-10-06T17:10:21.000Z,6-3,254,02/28/1987,Arizona,OLB,CIN,ARI,5,Paul Brown Stadium,"Cincinnati, OH",Outdoor,Twenty Four/Seven Turf,Cloudy,76.0,68,"6 mph, Gusts to 10",SW
62812,2019100601,20191006010323,away,15.47,45.26,3.59,2.04,0.35,53.32,273.52,2507917,Tramaine Brock,20,2019,8,1,09:53:00,CIN,1,8,ARZ,0,0,2557976,SINGLEBACK,"1 RB, 1 TE, 3 WR",7,"3 DL, 4 LB, 4 DB",left,2019-10-06T17:10:22.000Z,2019-10-06T17:10:21.000Z,6-0,188,08/20/1988,Belhaven,CB,CIN,ARI,5,Paul Brown Stadium,"Cincinnati, OH",Outdoor,Twenty Four/Seven Turf,Cloudy,76.0,68,"6 mph, Gusts to 10",SW
62813,2019100601,20191006010323,away,19.39,24.56,1.02,2.75,0.12,55.44,98.92,2533538,Chandler Jones,55,2019,8,1,09:53:00,CIN,1,8,ARZ,0,0,2557976,SINGLEBACK,"1 RB, 1 TE, 3 WR",7,"3 DL, 4 LB, 4 DB",left,2019-10-06T17:10:22.000Z,2019-10-06T17:10:21.000Z,6-5,265,02/27/1990,Syracuse,OLB,CIN,ARI,5,Paul Brown Stadium,"Cincinnati, OH",Outdoor,Twenty Four/Seven Turf,Cloudy,76.0,68,"6 mph, Gusts to 10",SW
62814,2019100601,20191006010323,away,20.02,28.84,2.5,1.84,0.26,136.15,129.71,2550575,Zach Kerr,92,2019,8,1,09:53:00,CIN,1,8,ARZ,0,0,2557976,SINGLEBACK,"1 RB, 1 TE, 3 WR",7,"3 DL, 4 LB, 4 DB",left,2019-10-06T17:10:22.000Z,2019-10-06T17:10:21.000Z,6-2,334,08/29/1990,Delaware,NT,CIN,ARI,5,Paul Brown Stadium,"Cincinnati, OH",Outdoor,Twenty Four/Seven Turf,Cloudy,76.0,68,"6 mph, Gusts to 10",SW
62815,2019100601,20191006010323,away,17.22,33.54,3.05,2.0,0.3,89.0,122.75,2552315,Jordan Hicks,58,2019,8,1,09:53:00,CIN,1,8,ARZ,0,0,2557976,SINGLEBACK,"1 RB, 1 TE, 3 WR",7,"3 DL, 4 LB, 4 DB",left,2019-10-06T17:10:22.000Z,2019-10-06T17:10:21.000Z,6-1,236,06/27/1992,Texas,MLB,CIN,ARI,5,Paul Brown Stadium,"Cincinnati, OH",Outdoor,Twenty Four/Seven Turf,Cloudy,76.0,68,"6 mph, Gusts to 10",SW
62816,2019100601,20191006010323,away,17.55,28.67,0.62,2.78,0.07,107.87,58.64,2557887,Haason Reddick,43,2019,8,1,09:53:00,CIN,1,8,ARZ,0,0,2557976,SINGLEBACK,"1 RB, 1 TE, 3 WR",7,"3 DL, 4 LB, 4 DB",left,2019-10-06T17:10:22.000Z,2019-10-06T17:10:21.000Z,6-1,235,09/22/1994,Temple,ILB,CIN,ARI,5,Paul Brown Stadium,"Cincinnati, OH",Outdoor,Twenty Four/Seven Turf,Cloudy,76.0,68,"6 mph, Gusts to 10",SW
62817,2019100601,20191006010323,away,13.96,17.32,1.24,2.26,0.14,65.01,222.45,2558009,Budda Baker,32,2019,8,1,09:53:00,CIN,1,8,ARZ,0,0,2557976,SINGLEBACK,"1 RB, 1 TE, 3 WR",7,"3 DL, 4 LB, 4 DB",left,2019-10-06T17:10:22.000Z,2019-10-06T17:10:21.000Z,5-10,195,01/10/1996,Washington,FS,CIN,ARI,5,Paul Brown Stadium,"Cincinnati, OH",Outdoor,Twenty Four/Seven Turf,Cloudy,76.0,68,"6 mph, Gusts to 10",SW
62818,2019100601,20191006010323,away,11.18,11.84,0.64,1.42,0.05,105.38,246.6,2562318,Byron Murphy,33,2019,8,1,09:53:00,CIN,1,8,ARZ,0,0,2557976,SINGLEBACK,"1 RB, 1 TE, 3 WR",7,"3 DL, 4 LB, 4 DB",left,2019-10-06T17:10:22.000Z,2019-10-06T17:10:21.000Z,5-11,190,01/18/1998,Washington,DB,CIN,ARI,5,Paul Brown Stadium,"Cincinnati, OH",Outdoor,Twenty Four/Seven Turf,Cloudy,76.0,68,"6 mph, Gusts to 10",SW
62819,2019100601,20191006010323,away,18.59,31.35,1.15,1.28,0.12,83.28,185.31,2562429,Michael Dogbe,91,2019,8,1,09:53:00,CIN,1,8,ARZ,0,0,2557976,SINGLEBACK,"1 RB, 1 TE, 3 WR",7,"3 DL, 4 LB, 4 DB",left,2019-10-06T17:10:22.000Z,2019-10-06T17:10:21.000Z,6-3,284,05/05/1996,Temple,DE,CIN,ARI,5,Paul Brown Stadium,"Cincinnati, OH",Outdoor,Twenty Four/Seven Turf,Cloudy,76.0,68,"6 mph, Gusts to 10",SW
62820,2019100601,20191006010323,away,9.61,27.39,0.27,0.71,0.03,110.16,141.58,2563339,Jalen Thompson,34,2019,8,1,09:53:00,CIN,1,8,ARZ,0,0,2557976,SINGLEBACK,"1 RB, 1 TE, 3 WR",7,"3 DL, 4 LB, 4 DB",left,2019-10-06T17:10:22.000Z,2019-10-06T17:10:21.000Z,5-11,190,07/18/1998,Washington State,DB,CIN,ARI,5,Paul Brown Stadium,"Cincinnati, OH",Outdoor,Twenty Four/Seven Turf,Cloudy,76.0,68,"6 mph, Gusts to 10",SW
62821,2019100601,20191006010323,home,20.08,25.49,1.1,1.06,0.11,217.26,166.1,71465,Andre Smith,71,2019,8,1,09:53:00,CIN,1,8,ARZ,0,0,2557976,SINGLEBACK,"1 RB, 1 TE, 3 WR",7,"3 DL, 4 LB, 4 DB",left,2019-10-06T17:10:22.000Z,2019-10-06T17:10:21.000Z,6-4,330,01/25/1987,Alabama,T,CIN,ARI,5,Paul Brown Stadium,"Cincinnati, OH",Outdoor,Twenty Four/Seven Turf,Cloudy,76.0,68,"6 mph, Gusts to 10",SW
62822,2019100601,20191006010323,home,23.29,30.49,4.28,0.75,0.43,48.03,75.95,2495143,Andy Dalton,14,2019,8,1,09:53:00,CIN,1,8,ARZ,0,0,2557976,SINGLEBACK,"1 RB, 1 TE, 3 WR",7,"3 DL, 4 LB, 4 DB",left,2019-10-06T17:10:22.000Z,2019-10-06T17:10:21.000Z,6-2,220,10/29/1987,Texas Christian,QB,CIN,ARI,5,Paul Brown Stadium,"Cincinnati, OH",Outdoor,Twenty Four/Seven Turf,Cloudy,76.0,68,"6 mph, Gusts to 10",SW
62823,2019100601,20191006010323,home,17.98,28.25,0.96,2.54,0.1,297.73,226.23,2550208,Trey Hopkins,66,2019,8,1,09:53:00,CIN,1,8,ARZ,0,0,2557976,SINGLEBACK,"1 RB, 1 TE, 3 WR",7,"3 DL, 4 LB, 4 DB",left,2019-10-06T17:10:22.000Z,2019-10-06T17:10:21.000Z,6-3,316,07/06/1992,Texas,G,CIN,ARI,5,Paul Brown Stadium,"Cincinnati, OH",Outdoor,Twenty Four/Seven Turf,Cloudy,76.0,68,"6 mph, Gusts to 10",SW
62824,2019100601,20191006010323,home,19.24,31.29,1.18,1.55,0.12,253.59,192.59,2552335,Bobby Hart,68,2019,8,1,09:53:00,CIN,1,8,ARZ,0,0,2557976,SINGLEBACK,"1 RB, 1 TE, 3 WR",7,"3 DL, 4 LB, 4 DB",left,2019-10-06T17:10:22.000Z,2019-10-06T17:10:21.000Z,6-5,310,08/21/1994,Florida State,OT,CIN,ARI,5,Paul Brown Stadium,"Cincinnati, OH",Outdoor,Twenty Four/Seven Turf,Cloudy,76.0,68,"6 mph, Gusts to 10",SW
62825,2019100601,20191006010323,home,19.8,34.51,0.36,0.4,0.04,334.69,146.84,2552559,C.J. Uzomah,87,2019,8,1,09:53:00,CIN,1,8,ARZ,0,0,2557976,SINGLEBACK,"1 RB, 1 TE, 3 WR",7,"3 DL, 4 LB, 4 DB",left,2019-10-06T17:10:22.000Z,2019-10-06T17:10:21.000Z,6-6,260,01/14/1993,Auburn,TE,CIN,ARI,5,Paul Brown Stadium,"Cincinnati, OH",Outdoor,Twenty Four/Seven Turf,Cloudy,76.0,68,"6 mph, Gusts to 10",SW
62826,2019100601,20191006010323,home,20.07,29.3,2.18,1.66,0.22,203.69,132.85,2553436,John Miller,67,2019,8,1,09:53:00,CIN,1,8,ARZ,0,0,2557976,SINGLEBACK,"1 RB, 1 TE, 3 WR",7,"3 DL, 4 LB, 4 DB",left,2019-10-06T17:10:22.000Z,2019-10-06T17:10:21.000Z,6-3,315,08/12/1993,Louisville,G,CIN,ARI,5,Paul Brown Stadium,"Cincinnati, OH",Outdoor,Twenty Four/Seven Turf,Cloudy,76.0,68,"6 mph, Gusts to 10",SW
62827,2019100601,20191006010323,home,16.5,18.14,4.05,1.18,0.41,249.4,262.31,2555466,Tyler Boyd,83,2019,8,1,09:53:00,CIN,1,8,ARZ,0,0,2557976,SINGLEBACK,"1 RB, 1 TE, 3 WR",7,"3 DL, 4 LB, 4 DB",left,2019-10-06T17:10:22.000Z,2019-10-06T17:10:21.000Z,6-2,203,11/15/1994,Pittsburgh,WR,CIN,ARI,5,Paul Brown Stadium,"Cincinnati, OH",Outdoor,Twenty Four/Seven Turf,Cloudy,76.0,68,"6 mph, Gusts to 10",SW
62828,2019100601,20191006010323,home,16.99,46.12,5.45,3.57,0.53,263.86,292.17,2556519,Alex Erickson,12,2019,8,1,09:53:00,CIN,1,8,ARZ,0,0,2557976,SINGLEBACK,"1 RB, 1 TE, 3 WR",7,"3 DL, 4 LB, 4 DB",left,2019-10-06T17:10:22.000Z,2019-10-06T17:10:21.000Z,6-0,195,11/06/1992,Wisconsin,WR,CIN,ARI,5,Paul Brown Stadium,"Cincinnati, OH",Outdoor,Twenty Four/Seven Turf,Cloudy,76.0,68,"6 mph, Gusts to 10",SW
62829,2019100601,20191006010323,home,23.36,31.2,4.17,2.9,0.41,269.87,279.01,2557976,Joe Mixon,28,2019,8,1,09:53:00,CIN,1,8,ARZ,0,0,2557976,SINGLEBACK,"1 RB, 1 TE, 3 WR",7,"3 DL, 4 LB, 4 DB",left,2019-10-06T17:10:22.000Z,2019-10-06T17:10:21.000Z,6-1,220,07/24/1996,Oklahoma,HB,CIN,ARI,5,Paul Brown Stadium,"Cincinnati, OH",Outdoor,Twenty Four/Seven Turf,Cloudy,76.0,68,"6 mph, Gusts to 10",SW
62830,2019100601,20191006010323,home,15.8,10.88,5.04,3.04,0.49,277.08,262.4,2560890,Auden Tate,19,2019,8,1,09:53:00,CIN,1,8,ARZ,0,0,2557976,SINGLEBACK,"1 RB, 1 TE, 3 WR",7,"3 DL, 4 LB, 4 DB",left,2019-10-06T17:10:22.000Z,2019-10-06T17:10:21.000Z,6-5,228,02/03/1997,Florida State,WR,CIN,ARI,5,Paul Brown Stadium,"Cincinnati, OH",Outdoor,Twenty Four/Seven Turf,Cloudy,76.0,68,"6 mph, Gusts to 10",SW
62831,2019100601,20191006010323,home,20.0,26.9,1.25,0.5,0.13,240.32,142.7,2562679,Mike Jordan,60,2019,8,1,09:53:00,CIN,1,8,ARZ,0,0,2557976,SINGLEBACK,"1 RB, 1 TE, 3 WR",7,"3 DL, 4 LB, 4 DB",left,2019-10-06T17:10:22.000Z,2019-10-06T17:10:21.000Z,6-6,315,01/25/1998,Ohio State,OG,CIN,ARI,5,Paul Brown Stadium,"Cincinnati, OH",Outdoor,Twenty Four/Seven Turf,Cloudy,76.0,68,"6 mph, Gusts to 10",SW
