,GameId,PlayId,Team,X,Y,S,A,Dis,Orientation,Dir,NflId,DisplayName,JerseyNumber,Season,YardLine,Quarter,GameClock,PossessionTeam,Down,Distance,FieldPosition,HomeScoreBeforePlay,VisitorScoreBeforePlay,NflIdRusher,OffenseFormation,OffensePersonnel,DefendersInTheBox,DefensePersonnel,PlayDirection,TimeHandoff,TimeSnap,PlayerHeight,PlayerWeight,PlayerBirthDate,PlayerCollegeName,Position,HomeTeamAbbr,VisitorTeamAbbr,Week,Stadium,Location,StadiumType,Turf,GameWeather,Temperature,Humidity,WindSpeed,WindDirection
30184,2019091600,20190916003234,away,58.78,24.59,0.64,0.56,0.07,309.17,209.25,2533534,Olivier Vernon,54,2019,49,4,14:17:00,NYJ,2,10,NYJ,3,23,2540175,SINGLEBACK,"1 RB, 1 TE, 3 WR",6,"3 DL, 3 LB, 5 DB",right,2019-09-17T02:41:56.000Z,2019-09-17T02:41:54.000Z,6-2,262,10/07/1990,Miami,OLB,NYJ,CLE,2,MetLife Stadium,"East Rutherford, NJ",Outdoors,FieldTurf,Cloudy,72.0,69,3,N
30185,2019091600,20190916003234,away,59.43,31.64,2.21,1.41,0.22,242.27,272.38,2543720,Christian Kirksey,58,2019,49,4,14:17:00,NYJ,2,10,NYJ,3,23,2540175,SINGLEBACK,"1 RB, 1 TE, 3 WR",6,"3 DL, 3 LB, 5 DB",right,2019-09-17T02:41:56.000Z,2019-09-17T02:41:54.000Z,6-2,235,08/31/1992,Iowa,OLB,NYJ,CLE,2,MetLife Stadium,"East Rutherford, NJ",Outdoors,FieldTurf,Cloudy,72.0,69,3,N
30186,2019091600,20190916003234,away,59.52,20.92,0.11,1.25,0.01,322.68,104.76,2550164,T.J. Carrie,38,2019,49,4,14:17:00,NYJ,2,10,NYJ,3,23,2540175,SINGLEBACK,"1 RB, 1 TE, 3 WR",6,"3 DL, 3 LB, 5 DB",right,2019-09-17T02:41:56.000Z,2019-09-17T02:41:54.000Z,6-0,204,07/28/1990,Ohio,CB,NYJ,CLE,2,MetLife Stadium,"East Rutherford, NJ",Outdoors,FieldTurf,Cloudy,72.0,69,3,N
30187,2019091600,20190916003234,away,61.54,34.52,1.4,2.44,0.13,244.15,207.05,2552697,Jermaine Whitehead,35,2019,49,4,14:17:00,NYJ,2,10,NYJ,3,23,2540175,SINGLEBACK,"1 RB, 1 TE, 3 WR",6,"3 DL, 3 LB, 5 DB",right,2019-09-17T02:41:56.000Z,2019-09-17T02:41:54.000Z,5-11,195,03/12/1993,Auburn,FS,NYJ,CLE,2,MetLife Stadium,"East Rutherford, NJ",Outdoors,FieldTurf,Cloudy,72.0,69,3,N
30188,2019091600,20190916003234,away,62.23,27.24,1.16,1.04,0.11,259.58,208.93,2555166,Joe Schobert,53,2019,49,4,14:17:00,NYJ,2,10,NYJ,3,23,2540175,SINGLEBACK,"1 RB, 1 TE, 3 WR",6,"3 DL, 3 LB, 5 DB",right,2019-09-17T02:41:56.000Z,2019-09-17T02:41:54.000Z,6-1,245,11/06/1993,Wisconsin,MLB,NYJ,CLE,2,MetLife Stadium,"East Rutherford, NJ",Outdoors,FieldTurf,Cloudy,72.0,69,3,N
30189,2019091600,20190916003234,away,74.35,28.14,2.28,1.2,0.22,281.05,74.73,2555173,Eric Murray,22,2019,49,4,14:17:00,NYJ,2,10,NYJ,3,23,2540175,SINGLEBACK,"1 RB, 1 TE, 3 WR",6,"3 DL, 3 LB, 5 DB",right,2019-09-17T02:41:56.000Z,2019-09-17T02:41:54.000Z,5-11,199,01/07/1994,Minnesota,FS,NYJ,CLE,2,MetLife Stadium,"East Rutherford, NJ",Outdoors,FieldTurf,Cloudy,72.0,69,3,N
30190,2019091600,20190916003234,away,55.69,34.48,2.82,1.36,0.29,211.44,255.17,2557965,Myles Garrett,95,2019,49,4,14:17:00,NYJ,2,10,NYJ,3,23,2540175,SINGLEBACK,"1 RB, 1 TE, 3 WR",6,"3 DL, 3 LB, 5 DB",right,2019-09-17T02:41:56.000Z,2019-09-17T02:41:54.000Z,6-4,272,12/29/1995,Texas A&M,DE,NYJ,CLE,2,MetLife Stadium,"East Rutherford, NJ",Outdoors,FieldTurf,Cloudy,72.0,69,3,N
30191,2019091600,20190916003234,away,56.14,28.98,3.39,1.11,0.34,192.27,295.31,2559079,Devaroe Lawrence,99,2019,49,4,14:17:00,NYJ,2,10,NYJ,3,23,2540175,SINGLEBACK,"1 RB, 1 TE, 3 WR",6,"3 DL, 3 LB, 5 DB",right,2019-09-17T02:41:56.000Z,2019-09-17T02:41:54.000Z,6-2,294,10/13/1992,Auburn,DT,NYJ,CLE,2,MetLife Stadium,"East Rutherford, NJ",Outdoors,FieldTurf,Cloudy,72.0,69,3,N
30192,2019091600,20190916003234,away,66.25,17.45,1.19,3.95,0.1,306.67,314.84,2560916,Denzel Ward,21,2019,49,4,14:17:00,NYJ,2,10,NYJ,3,23,2540175,SINGLEBACK,"1 RB, 1 TE, 3 WR",6,"3 DL, 3 LB, 5 DB",right,2019-09-17T02:41:56.000Z,2019-09-17T02:41:54.000Z,5-11,191,04/28/1997,Ohio State,CB,NYJ,CLE,2,MetLife Stadium,"East Rutherford, NJ",Outdoors,FieldTurf,Cloudy,72.0,69,3,N
30193,2019091600,20190916003234,away,58.51,29.25,3.96,1.62,0.39,249.53,207.68,2561458,Daniel Ekuale,96,2019,49,4,14:17:00,NYJ,2,10,NYJ,3,23,2540175,SINGLEBACK,"1 RB, 1 TE, 3 WR",6,"3 DL, 3 LB, 5 DB",right,2019-09-17T02:41:56.000Z,2019-09-17T02:41:54.000Z,6-3,300,01/13/1994,Washington State,DT,NYJ,CLE,2,MetLife Stadium,"East Rutherford, NJ",Outdoors,FieldTurf,Cloudy,72.0,69,3,N
30194,2019091600,20190916003234,away,66.69,42.51,3.9,0.65,0.39,164.17,101.18,2562785,Greedy Williams,26,2019,49,4,14:17:00,NYJ,2,10,NYJ,3,23,2540175,SINGLEBACK,"1 RB, 1 TE, 3 WR",6,"3 DL, 3 LB, 5 DB",right,2019-09-17T02:41:56.000Z,2019-09-17T02:41:54.000Z,6-2,184,12/03/1997,Louisiana State,DB,NYJ,CLE,2,MetLife Stadium,"East Rutherford, NJ",Outdoors,FieldTurf,Cloudy,72.0,69,3,N
30195,2019091600,20190916003234,home,58.25,30.0,2.26,1.63,0.23,159.96,164.49,2532922,Kelechi Osemele,70,2019,49,4,14:17:00,NYJ,2,10,NYJ,3,23,2540175,SINGLEBACK,"1 RB, 1 TE, 3 WR",6,"3 DL, 3 LB, 5 DB",right,2019-09-17T02:41:56.000Z,2019-09-17T02:41:54.000Z,6-5,330,06/24/1989,Iowa State,G,NYJ,CLE,2,MetLife Stadium,"East Rutherford, NJ",Outdoors,FieldTurf,Cloudy,72.0,69,3,N
30196,2019091600,20190916003234,home,56.06,33.68,1.51,1.59,0.15,311.68,278.11,2533442,Kelvin Beachum,68,2019,49,4,14:17:00,NYJ,2,10,NYJ,3,23,2540175,SINGLEBACK,"1 RB, 1 TE, 3 WR",6,"3 DL, 3 LB, 5 DB",right,2019-09-17T02:41:56.000Z,2019-09-17T02:41:54.000Z,6-3,308,06/08/1989,Southern Methodist,T,NYJ,CLE,2,MetLife Stadium,"East Rutherford, NJ",Outdoors,FieldTurf,Cloudy,72.0,69,3,N
30197,2019091600,20190916003234,home,59.53,21.87,1.79,1.47,0.19,187.52,103.6,2535964,Josh Bellamy,15,2019,49,4,14:17:00,NYJ,2,10,NYJ,3,23,2540175,SINGLEBACK,"1 RB, 1 TE, 3 WR",6,"3 DL, 3 LB, 5 DB",right,2019-09-17T02:41:56.000Z,2019-09-17T02:41:54.000Z,6-0,208,05/18/1989,Louisville,WR,NYJ,CLE,2,MetLife Stadium,"East Rutherford, NJ",Outdoors,FieldTurf,Cloudy,72.0,69,3,N
30198,2019091600,20190916003234,home,57.73,30.33,1.85,1.57,0.19,83.63,27.43,2539247,Brian Winters,67,2019,49,4,14:17:00,NYJ,2,10,NYJ,3,23,2540175,SINGLEBACK,"1 RB, 1 TE, 3 WR",6,"3 DL, 3 LB, 5 DB",right,2019-09-17T02:41:56.000Z,2019-09-17T02:41:54.000Z,6-4,320,07/10/1991,Kent State,G,NYJ,CLE,2,MetLife Stadium,"East Rutherford, NJ",Outdoors,FieldTurf,Cloudy,72.0,69,3,N
30199,2019091600,20190916003234,home,54.02,27.94,4.78,2.34,0.47,103.16,116.62,2540175,Le'Veon Bell,26,2019,49,4,14:17:00,NYJ,2,10,NYJ,3,23,2540175,SINGLEBACK,"1 RB, 1 TE, 3 WR",6,"3 DL, 3 LB, 5 DB",right,2019-09-17T02:41:56.000Z,2019-09-17T02:41:54.000Z,6-1,225,02/18/1992,Michigan State,RB,NYJ,CLE,2,MetLife Stadium,"East Rutherford, NJ",Outdoors,FieldTurf,Cloudy,72.0,69,3,N
30200,2019091600,20190916003234,home,56.43,28.25,3.04,4.0,0.31,332.78,343.47,2541316,Ryan Griffin,84,2019,49,4,14:17:00,NYJ,2,10,NYJ,3,23,2540175,SINGLEBACK,"1 RB, 1 TE, 3 WR",6,"3 DL, 3 LB, 5 DB",right,2019-09-17T02:41:56.000Z,2019-09-17T02:41:54.000Z,6-6,255,01/11/1990,Connecticut,TE,NYJ,CLE,2,MetLife Stadium,"East Rutherford, NJ",Outdoors,FieldTurf,Cloudy,72.0,69,3,N
30201,2019091600,20190916003234,home,60.2,27.59,3.3,0.39,0.33,96.13,132.51,2550205,Jonotthan Harrison,78,2019,49,4,14:17:00,NYJ,2,10,NYJ,3,23,2540175,SINGLEBACK,"1 RB, 1 TE, 3 WR",6,"3 DL, 3 LB, 5 DB",right,2019-09-17T02:41:56.000Z,2019-09-17T02:41:54.000Z,6-4,300,08/25/1991,Florida,C,NYJ,CLE,2,MetLife Stadium,"East Rutherford, NJ",Outdoors,FieldTurf,Cloudy,72.0,69,3,N
30202,2019091600,20190916003234,home,58.35,21.92,3.43,1.88,0.33,100.34,62.8,2552415,Jamison Crowder,82,2019,49,4,14:17:00,NYJ,2,10,NYJ,3,23,2540175,SINGLEBACK,"1 RB, 1 TE, 3 WR",6,"3 DL, 3 LB, 5 DB",right,2019-09-17T02:41:56.000Z,2019-09-17T02:41:54.000Z,5-9,177,06/17/1993,Duke,WR,NYJ,CLE,2,MetLife Stadium,"East Rutherford, NJ",Outdoors,FieldTurf,Cloudy,72.0,69,3,N
30203,2019091600,20190916003234,home,58.39,25.14,1.16,1.58,0.12,112.86,127.43,2555193,Brandon Shell,72,2019,49,4,14:17:00,NYJ,2,10,NYJ,3,23,2540175,SINGLEBACK,"1 RB, 1 TE, 3 WR",6,"3 DL, 3 LB, 5 DB",right,2019-09-17T02:41:56.000Z,2019-09-17T02:41:54.000Z,6-5,324,02/06/1992,South Carolina,T,NYJ,CLE,2,MetLife Stadium,"East Rutherford, NJ",Outdoors,FieldTurf,Cloudy,72.0,69,3,N
30204,2019091600,20190916003234,home,59.82,42.03,3.75,1.54,0.37,97.22,105.03,2556462,Robby Anderson,11,2019,49,4,14:17:00,NYJ,2,10,NYJ,3,23,2540175,SINGLEBACK,"1 RB, 1 TE, 3 WR",6,"3 DL, 3 LB, 5 DB",right,2019-09-17T02:41:56.000Z,2019-09-17T02:41:54.000Z,6-3,190,05/09/1993,Temple,WR,NYJ,CLE,2,MetLife Stadium,"East Rutherford, NJ",Outdoors,FieldTurf,Cloudy,72.0,69,3,N
30205,2019091600,20190916003234,home,54.01,28.78,4.0,0.68,0.4,204.53,258.8,2560720,Luke Falk,8,2019,49,4,14:17:00,NYJ,2,10,NYJ,3,23,2540175,SINGLEBACK,"1 RB, 1 TE, 3 WR",6,"3 DL, 3 LB, 5 DB",right,2019-09-17T02:41:56.000Z,2019-09-17T02:41:54.000Z,6-4,215,12/28/1994,Washington State,QB,NYJ,CLE,2,MetLife Stadium,"East Rutherford, NJ",Outdoors,FieldTurf,Cloudy,72.0,69,3,N
