,GameId,PlayId,Team,X,Y,S,A,Dis,Orientation,Dir,NflId,DisplayName,JerseyNumber,Season,YardLine,Quarter,GameClock,PossessionTeam,Down,Distance,FieldPosition,HomeScoreBeforePlay,VisitorScoreBeforePlay,NflIdRusher,OffenseFormation,OffensePersonnel,DefendersInTheBox,DefensePersonnel,PlayDirection,TimeHandoff,TimeSnap,PlayerHeight,PlayerWeight,PlayerBirthDate,PlayerCollegeName,Position,HomeTeamAbbr,VisitorTeamAbbr,Week,Stadium,Location,StadiumType,Turf,GameWeather,Temperature,Humidity,WindSpeed,WindDirection
19822,2019091503,20190915034233,away,62.98,23.4,5.14,2.42,0.52,24.49,16.54,496790,Everson Griffen,97,2019,49,4,01:47:00,GB,2,8,GB,21,16,2558204,SINGLEBACK,"1 RB, 3 TE, 1 WR",8,"4 DL, 3 LB, 4 DB",left,2019-09-15T20:16:22.000Z,2019-09-15T20:16:21.000Z,6-3,273,12/22/1987,Southern California,DE,GB,MIN,2,Lambeau Field,"Green Bay, WI",Outdoor,SISGrass,Cloudy,72.0,75,5,South
19823,2019091503,20190915034233,away,60.82,27.16,3.55,0.56,0.36,74.17,351.87,496802,Linval Joseph,98,2019,49,4,01:47:00,GB,2,8,GB,21,16,2558204,SINGLEBACK,"1 RB, 3 TE, 1 WR",8,"4 DL, 3 LB, 4 DB",left,2019-09-15T20:16:22.000Z,2019-09-15T20:16:21.000Z,6-4,329,10/10/1988,East Carolina,DT,GB,MIN,2,Lambeau Field,"Green Bay, WI",Outdoor,SISGrass,Cloudy,72.0,75,5,South
19824,2019091503,20190915034233,away,60.76,31.98,3.33,2.12,0.35,109.36,4.01,2532948,Harrison Smith,22,2019,49,4,01:47:00,GB,2,8,GB,21,16,2558204,SINGLEBACK,"1 RB, 3 TE, 1 WR",8,"4 DL, 3 LB, 4 DB",left,2019-09-15T20:16:22.000Z,2019-09-15T20:16:21.000Z,6-2,214,02/02/1989,Notre Dame,FS,GB,MIN,2,Lambeau Field,"Green Bay, WI",Outdoor,SISGrass,Cloudy,72.0,75,5,South
19825,2019091503,20190915034233,away,57.84,43.64,4.05,2.8,0.39,59.39,285.44,2540155,Xavier Rhodes,29,2019,49,4,01:47:00,GB,2,8,GB,21,16,2558204,SINGLEBACK,"1 RB, 3 TE, 1 WR",8,"4 DL, 3 LB, 4 DB",left,2019-09-15T20:16:22.000Z,2019-09-15T20:16:21.000Z,6-1,218,06/19/1990,Florida State,CB,GB,MIN,2,Lambeau Field,"Green Bay, WI",Outdoor,SISGrass,Cloudy,72.0,75,5,South
19826,2019091503,20190915034233,away,61.06,28.41,3.67,1.77,0.37,63.51,37.29,2543459,Anthony Barr,55,2019,49,4,01:47:00,GB,2,8,GB,21,16,2558204,SINGLEBACK,"1 RB, 3 TE, 1 WR",8,"4 DL, 3 LB, 4 DB",left,2019-09-15T20:16:22.000Z,2019-09-15T20:16:21.000Z,6-5,255,03/18/1992,UCLA,OLB,GB,MIN,2,Lambeau Field,"Green Bay, WI",Outdoor,SISGrass,Cloudy,72.0,75,5,South
19827,2019091503,20190915034233,away,60.6,24.44,2.85,0.34,0.29,73.05,351.26,2543706,Shamar Stephen,93,2019,49,4,01:47:00,GB,2,8,GB,21,16,2558204,SINGLEBACK,"1 RB, 3 TE, 1 WR",8,"4 DL, 3 LB, 4 DB",left,2019-09-15T20:16:22.000Z,2019-09-15T20:16:21.000Z,6-5,310,02/25/1991,Connecticut,NT,GB,MIN,2,Lambeau Field,"Green Bay, WI",Outdoor,SISGrass,Cloudy,72.0,75,5,South
19828,2019091503,20190915034233,away,59.13,25.4,4.4,0.72,0.44,83.76,16.61,2552312,Eric Kendricks,54,2019,49,4,01:47:00,GB,2,8,GB,21,16,2558204,SINGLEBACK,"1 RB, 3 TE, 1 WR",8,"4 DL, 3 LB, 4 DB",left,2019-09-15T20:16:22.000Z,2019-09-15T20:16:21.000Z,6-0,232,02/29/1992,UCLA,MLB,GB,MIN,2,Lambeau Field,"Green Bay, WI",Outdoor,SISGrass,Cloudy,72.0,75,5,South
19829,2019091503,20190915034233,away,58.29,18.2,3.91,2.73,0.38,44.55,12.26,2552448,Trae Waynes,26,2019,49,4,01:47:00,GB,2,8,GB,21,16,2558204,SINGLEBACK,"1 RB, 3 TE, 1 WR",8,"4 DL, 3 LB, 4 DB",left,2019-09-15T20:16:22.000Z,2019-09-15T20:16:21.000Z,6-0,190,07/25/1992,Michigan State,CB,GB,MIN,2,Lambeau Field,"Green Bay, WI",Outdoor,SISGrass,Cloudy,72.0,75,5,South
19830,2019091503,20190915034233,away,61.46,30.42,3.46,1.38,0.36,117.75,16.29,2552603,Danielle Hunter,99,2019,49,4,01:47:00,GB,2,8,GB,21,16,2558204,SINGLEBACK,"1 RB, 3 TE, 1 WR",8,"4 DL, 3 LB, 4 DB",left,2019-09-15T20:16:22.000Z,2019-09-15T20:16:21.000Z,6-5,252,10/29/1994,Louisiana State,DE,GB,MIN,2,Lambeau Field,"Green Bay, WI",Outdoor,SISGrass,Cloudy,72.0,75,5,South
19831,2019091503,20190915034233,away,54.62,26.94,2.02,1.97,0.2,74.81,33.92,2553655,Anthony Harris,41,2019,49,4,01:47:00,GB,2,8,GB,21,16,2558204,SINGLEBACK,"1 RB, 3 TE, 1 WR",8,"4 DL, 3 LB, 4 DB",left,2019-09-15T20:16:22.000Z,2019-09-15T20:16:21.000Z,6-1,202,10/09/1991,Virginia,FS,GB,MIN,2,Lambeau Field,"Green Bay, WI",Outdoor,SISGrass,Cloudy,72.0,75,5,South
19832,2019091503,20190915034233,away,61.37,18.61,3.46,2.28,0.34,59.72,6.01,2559012,Eric Wilson,50,2019,49,4,01:47:00,GB,2,8,GB,21,16,2558204,SINGLEBACK,"1 RB, 3 TE, 1 WR",8,"4 DL, 3 LB, 4 DB",left,2019-09-15T20:16:22.000Z,2019-09-15T20:16:21.000Z,6-1,230,09/26/1994,Cincinnati,OLB,GB,MIN,2,Lambeau Field,"Green Bay, WI",Outdoor,SISGrass,Cloudy,72.0,75,5,South
19833,2019091503,20190915034233,home,62.2,29.89,3.7,1.84,0.37,306.2,1.29,496988,Bryan Bulaga,75,2019,49,4,01:47:00,GB,2,8,GB,21,16,2558204,SINGLEBACK,"1 RB, 3 TE, 1 WR",8,"4 DL, 3 LB, 4 DB",left,2019-09-15T20:16:22.000Z,2019-09-15T20:16:21.000Z,6-5,314,03/21/1989,Iowa,OT,GB,MIN,2,Lambeau Field,"Green Bay, WI",Outdoor,SISGrass,Cloudy,72.0,75,5,South
19834,2019091503,20190915034233,home,61.8,32.04,4.66,0.76,0.47,279.42,345.69,497236,Jimmy Graham,80,2019,49,4,01:47:00,GB,2,8,GB,21,16,2558204,SINGLEBACK,"1 RB, 3 TE, 1 WR",8,"4 DL, 3 LB, 4 DB",left,2019-09-15T20:16:22.000Z,2019-09-15T20:16:21.000Z,6-7,265,11/24/1986,Miami,TE,GB,MIN,2,Lambeau Field,"Green Bay, WI",Outdoor,SISGrass,Cloudy,72.0,75,5,South
19835,2019091503,20190915034233,home,63.13,22.02,3.48,1.5,0.35,1.58,20.43,2495888,Marcedes Lewis,89,2019,49,4,01:47:00,GB,2,8,GB,21,16,2558204,SINGLEBACK,"1 RB, 3 TE, 1 WR",8,"4 DL, 3 LB, 4 DB",left,2019-09-15T20:16:22.000Z,2019-09-15T20:16:21.000Z,6-6,267,05/19/1984,UCLA,TE,GB,MIN,2,Lambeau Field,"Green Bay, WI",Outdoor,SISGrass,Cloudy,72.0,75,5,South
19836,2019091503,20190915034233,home,65.31,25.27,3.62,1.23,0.37,18.68,58.51,2506363,Aaron Rodgers,12,2019,49,4,01:47:00,GB,2,8,GB,21,16,2558204,SINGLEBACK,"1 RB, 3 TE, 1 WR",8,"4 DL, 3 LB, 4 DB",left,2019-09-15T20:16:22.000Z,2019-09-15T20:16:21.000Z,6-2,225,12/02/1983,California,QB,GB,MIN,2,Lambeau Field,"Green Bay, WI",Outdoor,SISGrass,Cloudy,72.0,75,5,South
19837,2019091503,20190915034233,home,61.6,23.89,3.53,1.22,0.36,289.36,336.99,2540183,David Bakhtiari,69,2019,49,4,01:47:00,GB,2,8,GB,21,16,2558204,SINGLEBACK,"1 RB, 3 TE, 1 WR",8,"4 DL, 3 LB, 4 DB",left,2019-09-15T20:16:22.000Z,2019-09-15T20:16:21.000Z,6-4,310,09/30/1991,Colorado,T,GB,MIN,2,Lambeau Field,"Green Bay, WI",Outdoor,SISGrass,Cloudy,72.0,75,5,South
19838,2019091503,20190915034233,home,61.2,24.7,3.58,1.03,0.36,288.07,340.32,2541898,Lane Taylor,65,2019,49,4,01:47:00,GB,2,8,GB,21,16,2558204,SINGLEBACK,"1 RB, 3 TE, 1 WR",8,"4 DL, 3 LB, 4 DB",left,2019-09-15T20:16:22.000Z,2019-09-15T20:16:21.000Z,6-3,324,11/22/1989,Oklahoma State,G,GB,MIN,2,Lambeau Field,"Green Bay, WI",Outdoor,SISGrass,Cloudy,72.0,75,5,South
19839,2019091503,20190915034233,home,59.8,44.21,5.54,1.64,0.55,276.61,287.86,2543495,Davante Adams,17,2019,49,4,01:47:00,GB,2,8,GB,21,16,2558204,SINGLEBACK,"1 RB, 3 TE, 1 WR",8,"4 DL, 3 LB, 4 DB",left,2019-09-15T20:16:22.000Z,2019-09-15T20:16:21.000Z,6-1,215,12/24/1992,Fresno State,WR,GB,MIN,2,Lambeau Field,"Green Bay, WI",Outdoor,SISGrass,Cloudy,72.0,75,5,South
19840,2019091503,20190915034233,home,61.99,27.0,3.39,0.74,0.35,319.89,354.09,2543631,Corey Linsley,63,2019,49,4,01:47:00,GB,2,8,GB,21,16,2558204,SINGLEBACK,"1 RB, 3 TE, 1 WR",8,"4 DL, 3 LB, 4 DB",left,2019-09-15T20:16:22.000Z,2019-09-15T20:16:21.000Z,6-3,301,07/27/1991,Ohio State,C,GB,MIN,2,Lambeau Field,"Green Bay, WI",Outdoor,SISGrass,Cloudy,72.0,75,5,South
19841,2019091503,20190915034233,home,62.14,27.86,3.79,2.29,0.37,328.07,359.12,2543740,Billy Turner,77,2019,49,4,01:47:00,GB,2,8,GB,21,16,2558204,SINGLEBACK,"1 RB, 3 TE, 1 WR",8,"4 DL, 3 LB, 4 DB",left,2019-09-15T20:16:22.000Z,2019-09-15T20:16:21.000Z,6-5,310,10/17/1991,North Dakota State,OG,GB,MIN,2,Lambeau Field,"Green Bay, WI",Outdoor,SISGrass,Cloudy,72.0,75,5,South
19842,2019091503,20190915034233,home,66.14,26.17,5.58,2.08,0.55,282.37,297.97,2558204,Jamaal Williams,30,2019,49,4,01:47:00,GB,2,8,GB,21,16,2558204,SINGLEBACK,"1 RB, 3 TE, 1 WR",8,"4 DL, 3 LB, 4 DB",left,2019-09-15T20:16:22.000Z,2019-09-15T20:16:21.000Z,6-0,213,04/03/1995,Brigham Young,RB,GB,MIN,2,Lambeau Field,"Green Bay, WI",Outdoor,SISGrass,Cloudy,72.0,75,5,South
19843,2019091503,20190915034233,home,62.19,19.04,2.23,0.79,0.22,211.42,330.27,2559270,Robert Tonyan,85,2019,49,4,01:47:00,GB,2,8,GB,21,16,2558204,SINGLEBACK,"1 RB, 3 TE, 1 WR",8,"4 DL, 3 LB, 4 DB",left,2019-09-15T20:16:22.000Z,2019-09-15T20:16:21.000Z,6-5,237,04/30/1994,Indiana State,TE,GB,MIN,2,Lambeau Field,"Green Bay, WI",Outdoor,SISGrass,Cloudy,72.0,75,5,South
