,GameId,PlayId,Team,X,Y,S,A,Dis,Orientation,Dir,NflId,DisplayName,JerseyNumber,Season,YardLine,Quarter,GameClock,PossessionTeam,Down,Distance,FieldPosition,HomeScoreBeforePlay,VisitorScoreBeforePlay,NflIdRusher,OffenseFormation,OffensePersonnel,DefendersInTheBox,DefensePersonnel,PlayDirection,TimeHandoff,TimeSnap,PlayerHeight,PlayerWeight,PlayerBirthDate,PlayerCollegeName,Position,HomeTeamAbbr,VisitorTeamAbbr,Week,Stadium,Location,StadiumType,Turf,GameWeather,Temperature,Humidity,WindSpeed,WindDirection
18260,2019091502,20190915022732,away,20.64,23.46,1.65,0.18,0.16,297.76,232.14,2495677,Brandon Mebane,92,2019,11,3,07:15:00,DET,3,2,DET,6,10,2560765,SHOTGUN,"1 RB, 1 TE, 3 WR",7,"4 DL, 2 LB, 5 DB",right,2019-09-15T19:01:55.000Z,2019-09-15T19:01:54.000Z,6-1,311,01/15/1985,California,NT,DET,LAC,2,Ford Field,Detroit,Indoors,Field Turf,Controlled Climate,68.0,70,,
18261,2019091502,20190915022732,away,23.9,24.29,3.07,1.06,0.31,282.58,308.36,2506352,Thomas Davis,58,2019,11,3,07:15:00,DET,3,2,DET,6,10,2560765,SHOTGUN,"1 RB, 1 TE, 3 WR",7,"4 DL, 2 LB, 5 DB",right,2019-09-15T19:01:55.000Z,2019-09-15T19:01:54.000Z,6-1,235,03/22/1983,Georgia,OLB,DET,LAC,2,Ford Field,Detroit,Indoors,Field Turf,Controlled Climate,68.0,70,,
18262,2019091502,20190915022732,away,25.3,8.31,2.34,1.35,0.23,357.81,71.95,2532861,Casey Hayward,26,2019,11,3,07:15:00,DET,3,2,DET,6,10,2560765,SHOTGUN,"1 RB, 1 TE, 3 WR",7,"4 DL, 2 LB, 5 DB",right,2019-09-15T19:01:55.000Z,2019-09-15T19:01:54.000Z,5-11,192,09/09/1989,Vanderbilt,CB,DET,LAC,2,Ford Field,Detroit,Indoors,Field Turf,Controlled Climate,68.0,70,,
18263,2019091502,20190915022732,away,21.4,21.25,2.44,1.09,0.24,295.03,352.3,2532870,Melvin Ingram,54,2019,11,3,07:15:00,DET,3,2,DET,6,10,2560765,SHOTGUN,"1 RB, 1 TE, 3 WR",7,"4 DL, 2 LB, 5 DB",right,2019-09-15T19:01:55.000Z,2019-09-15T19:01:54.000Z,6-2,247,04/26/1989,South Carolina,DE,DET,LAC,2,Ford Field,Detroit,Indoors,Field Turf,Controlled Climate,68.0,70,,
18264,2019091502,20190915022732,away,20.94,19.66,3.85,0.68,0.39,288.43,331.67,2550842,Adrian Phillips,31,2019,11,3,07:15:00,DET,3,2,DET,6,10,2560765,SHOTGUN,"1 RB, 1 TE, 3 WR",7,"4 DL, 2 LB, 5 DB",right,2019-09-15T19:01:55.000Z,2019-09-15T19:01:54.000Z,5-11,210,03/28/1992,Texas,SS,DET,LAC,2,Ford Field,Detroit,Indoors,Field Turf,Controlled Climate,68.0,70,,
18265,2019091502,20190915022732,away,21.7,26.38,1.65,1.73,0.17,235.55,166.03,2555249,Joey Bosa,97,2019,11,3,07:15:00,DET,3,2,DET,6,10,2560765,SHOTGUN,"1 RB, 1 TE, 3 WR",7,"4 DL, 2 LB, 5 DB",right,2019-09-15T19:01:55.000Z,2019-09-15T19:01:54.000Z,6-5,280,07/11/1995,Ohio State,DE,DET,LAC,2,Ford Field,Detroit,Indoors,Field Turf,Controlled Climate,68.0,70,,
18266,2019091502,20190915022732,away,24.41,33.07,1.12,1.98,0.12,263.24,38.33,2557927,Desmond King,20,2019,11,3,07:15:00,DET,3,2,DET,6,10,2560765,SHOTGUN,"1 RB, 1 TE, 3 WR",7,"4 DL, 2 LB, 5 DB",right,2019-09-15T19:01:55.000Z,2019-09-15T19:01:54.000Z,5-10,201,12/14/1994,Iowa,CB,DET,LAC,2,Ford Field,Detroit,Indoors,Field Turf,Controlled Climate,68.0,70,,
18267,2019091502,20190915022732,away,38.2,29.45,2.93,1.15,0.29,266.23,99.2,2558182,Rayshawn Jenkins,23,2019,11,3,07:15:00,DET,3,2,DET,6,10,2560765,SHOTGUN,"1 RB, 1 TE, 3 WR",7,"4 DL, 2 LB, 5 DB",right,2019-09-15T19:01:55.000Z,2019-09-15T19:01:54.000Z,6-2,220,01/25/1994,Miami,SS,DET,LAC,2,Ford Field,Detroit,Indoors,Field Turf,Controlled Climate,68.0,70,,
18268,2019091502,20190915022732,away,26.16,43.55,3.18,1.45,0.31,174.44,85.04,2560719,Brandon Facyson,28,2019,11,3,07:15:00,DET,3,2,DET,6,10,2560765,SHOTGUN,"1 RB, 1 TE, 3 WR",7,"4 DL, 2 LB, 5 DB",right,2019-09-15T19:01:55.000Z,2019-09-15T19:01:54.000Z,6-2,197,09/08/1994,Virginia Tech,CB,DET,LAC,2,Ford Field,Detroit,Indoors,Field Turf,Controlled Climate,68.0,70,,
18269,2019091502,20190915022732,away,20.73,21.64,1.49,1.09,0.16,278.8,299.88,2560769,Justin Jones,93,2019,11,3,07:15:00,DET,3,2,DET,6,10,2560765,SHOTGUN,"1 RB, 1 TE, 3 WR",7,"4 DL, 2 LB, 5 DB",right,2019-09-15T19:01:55.000Z,2019-09-15T19:01:54.000Z,6-3,309,08/28/1996,North Carolina State,DT,DET,LAC,2,Ford Field,Detroit,Indoors,Field Turf,Controlled Climate,68.0,70,,
18270,2019091502,20190915022732,away,23.18,27.17,3.71,2.13,0.36,266.35,287.4,2560928,Kyzir White,44,2019,11,3,07:15:00,DET,3,2,DET,6,10,2560765,SHOTGUN,"1 RB, 1 TE, 3 WR",7,"4 DL, 2 LB, 5 DB",right,2019-09-15T19:01:55.000Z,2019-09-15T19:01:54.000Z,6-2,216,03/24/1996,West Virginia,LB,DET,LAC,2,Ford Field,Detroit,Indoors,Field Turf,Controlled Climate,68.0,70,,
18271,2019091502,20190915022732,home,18.69,36.55,3.83,2.56,0.37,90.08,353.13,2649,Danny Amendola,80,2019,11,3,07:15:00,DET,3,2,DET,6,10,2560765,SHOTGUN,"1 RB, 1 TE, 3 WR",7,"4 DL, 2 LB, 5 DB",right,2019-09-15T19:01:55.000Z,2019-09-15T19:01:54.000Z,5-11,185,11/02/1985,Texas Tech,WR,DET,LAC,2,Ford Field,Detroit,Indoors,Field Turf,Controlled Climate,68.0,70,,
18272,2019091502,20190915022732,home,16.45,23.55,0.56,0.57,0.05,130.18,144.79,79860,Matthew Stafford,9,2019,11,3,07:15:00,DET,3,2,DET,6,10,2560765,SHOTGUN,"1 RB, 1 TE, 3 WR",7,"4 DL, 2 LB, 5 DB",right,2019-09-15T19:01:55.000Z,2019-09-15T19:01:54.000Z,6-3,220,02/07/1988,Georgia,QB,DET,LAC,2,Ford Field,Detroit,Indoors,Field Turf,Controlled Climate,68.0,70,,
18273,2019091502,20190915022732,home,21.47,8.81,3.86,2.23,0.37,84.89,96.38,2532884,Marvin Jones,11,2019,11,3,07:15:00,DET,3,2,DET,6,10,2560765,SHOTGUN,"1 RB, 1 TE, 3 WR",7,"4 DL, 2 LB, 5 DB",right,2019-09-15T19:01:55.000Z,2019-09-15T19:01:54.000Z,6-2,198,03/12/1990,California,WR,DET,LAC,2,Ford Field,Detroit,Indoors,Field Turf,Controlled Climate,68.0,70,,
18274,2019091502,20190915022732,home,20.18,22.24,1.6,2.66,0.16,93.56,343.26,2539340,Rick Wagner,71,2019,11,3,07:15:00,DET,3,2,DET,6,10,2560765,SHOTGUN,"1 RB, 1 TE, 3 WR",7,"4 DL, 2 LB, 5 DB",right,2019-09-15T19:01:55.000Z,2019-09-15T19:01:54.000Z,6-6,315,10/21/1989,Wisconsin,T,DET,LAC,2,Ford Field,Detroit,Indoors,Field Turf,Controlled Climate,68.0,70,,
18275,2019091502,20190915022732,home,20.69,21.32,2.41,1.35,0.24,154.05,9.45,2543767,Logan Thomas,82,2019,11,3,07:15:00,DET,3,2,DET,6,10,2560765,SHOTGUN,"1 RB, 1 TE, 3 WR",7,"4 DL, 2 LB, 5 DB",right,2019-09-15T19:01:55.000Z,2019-09-15T19:01:54.000Z,6-6,250,07/01/1991,Virginia Tech,TE,DET,LAC,2,Ford Field,Detroit,Indoors,Field Turf,Controlled Climate,68.0,70,,
18276,2019091502,20190915022732,home,20.92,25.83,0.74,1.08,0.08,52.78,86.53,2555136,Joe Dahl,66,2019,11,3,07:15:00,DET,3,2,DET,6,10,2560765,SHOTGUN,"1 RB, 1 TE, 3 WR",7,"4 DL, 2 LB, 5 DB",right,2019-09-15T19:01:55.000Z,2019-09-15T19:01:54.000Z,6-4,310,04/09/1993,Washington State,G,DET,LAC,2,Ford Field,Detroit,Indoors,Field Turf,Controlled Climate,68.0,70,,
18277,2019091502,20190915022732,home,21.64,23.65,2.41,1.3,0.24,55.58,38.11,2555182,Graham Glasgow,60,2019,11,3,07:15:00,DET,3,2,DET,6,10,2560765,SHOTGUN,"1 RB, 1 TE, 3 WR",7,"4 DL, 2 LB, 5 DB",right,2019-09-15T19:01:55.000Z,2019-09-15T19:01:54.000Z,6-6,310,08/19/1992,Michigan,C,DET,LAC,2,Ford Field,Detroit,Indoors,Field Turf,Controlled Climate,68.0,70,,
18278,2019091502,20190915022732,home,21.45,43.3,2.69,2.49,0.26,253.72,98.07,2558052,Kenny Golladay,19,2019,11,3,07:15:00,DET,3,2,DET,6,10,2560765,SHOTGUN,"1 RB, 1 TE, 3 WR",7,"4 DL, 2 LB, 5 DB",right,2019-09-15T19:01:55.000Z,2019-09-15T19:01:54.000Z,6-4,213,11/03/1993,Northern Illinois,WR,DET,LAC,2,Ford Field,Detroit,Indoors,Field Turf,Controlled Climate,68.0,70,,
18279,2019091502,20190915022732,home,16.47,22.26,3.94,3.73,0.38,50.73,27.21,2560765,Kerryon Johnson,33,2019,11,3,07:15:00,DET,3,2,DET,6,10,2560765,SHOTGUN,"1 RB, 1 TE, 3 WR",7,"4 DL, 2 LB, 5 DB",right,2019-09-15T19:01:55.000Z,2019-09-15T19:01:54.000Z,5-11,212,06/30/1997,Auburn,RB,DET,LAC,2,Ford Field,Detroit,Indoors,Field Turf,Controlled Climate,68.0,70,,
18280,2019091502,20190915022732,home,20.59,26.86,0.6,1.47,0.06,104.5,87.07,2561032,Tyrell Crosby,65,2019,11,3,07:15:00,DET,3,2,DET,6,10,2560765,SHOTGUN,"1 RB, 1 TE, 3 WR",7,"4 DL, 2 LB, 5 DB",right,2019-09-15T19:01:55.000Z,2019-09-15T19:01:54.000Z,6-4,310,09/05/1995,Oregon,T,DET,LAC,2,Ford Field,Detroit,Indoors,Field Turf,Controlled Climate,68.0,70,,
18281,2019091502,20190915022732,home,20.41,24.06,0.58,1.38,0.05,168.52,223.96,2561142,Frank Ragnow,77,2019,11,3,07:15:00,DET,3,2,DET,6,10,2560765,SHOTGUN,"1 RB, 1 TE, 3 WR",7,"4 DL, 2 LB, 5 DB",right,2019-09-15T19:01:55.000Z,2019-09-15T19:01:54.000Z,6-5,311,05/17/1996,Arkansas,C,DET,LAC,2,Ford Field,Detroit,Indoors,Field Turf,Controlled Climate,68.0,70,,
