,GameId,PlayId,Team,X,Y,S,A,Dis,Orientation,Dir,NflId,DisplayName,JerseyNumber,Season,YardLine,Quarter,GameClock,PossessionTeam,Down,Distance,FieldPosition,HomeScoreBeforePlay,VisitorScoreBeforePlay,NflIdRusher,OffenseFormation,OffensePersonnel,DefendersInTheBox,DefensePersonnel,PlayDirection,TimeHandoff,TimeSnap,PlayerHeight,PlayerWeight,PlayerBirthDate,PlayerCollegeName,Position,HomeTeamAbbr,VisitorTeamAbbr,Week,Stadium,Location,StadiumType,Turf,GameWeather,Temperature,Humidity,WindSpeed,WindDirection
44704,2019092213,20190922133198,away,58.99,10.59,1.6,1.96,0.15,344.0,96.7,1302,Aqib Talib,21,2019,38,4,12:12:00,CLV,1,10,CLV,13,17,2561021,PISTOL,"1 RB, 1 TE, 3 WR",5,"3 DL, 2 LB, 6 DB",right,2019-09-23T02:46:25.000Z,2019-09-23T02:46:24.000Z,6-1,209,02/13/1986,Kansas,CB,CLE,LA,3,First Energy Stadium,"Cleveland, Ohio",Outdoor,Grass,Mostly Clear,83.0,33,12,SSW
44705,2019092213,20190922133198,away,52.4,32.18,4.56,3.45,0.45,230.59,203.78,2495775,Eric Weddle,32,2019,38,4,12:12:00,CLV,1,10,CLV,13,17,2561021,PISTOL,"1 RB, 1 TE, 3 WR",5,"3 DL, 2 LB, 6 DB",right,2019-09-23T02:46:25.000Z,2019-09-23T02:46:24.000Z,5-11,195,01/04/1985,Utah,FS,CLE,LA,3,First Energy Stadium,"Cleveland, Ohio",Outdoor,Grass,Mostly Clear,83.0,33,12,SSW
44706,2019092213,20190922133198,away,52.99,16.2,2.98,1.55,0.29,275.59,184.14,2540197,Nickell Robey-Coleman,23,2019,38,4,12:12:00,CLV,1,10,CLV,13,17,2561021,PISTOL,"1 RB, 1 TE, 3 WR",5,"3 DL, 2 LB, 6 DB",right,2019-09-23T02:46:25.000Z,2019-09-23T02:46:24.000Z,5-8,178,01/17/1992,Southern California,CB,CLE,LA,3,First Energy Stadium,"Cleveland, Ohio",Outdoor,Grass,Mostly Clear,83.0,33,12,SSW
44707,2019092213,20190922133198,away,45.5,26.36,3.93,1.01,0.4,306.26,242.84,2543485,Aaron Donald,99,2019,38,4,12:12:00,CLV,1,10,CLV,13,17,2561021,PISTOL,"1 RB, 1 TE, 3 WR",5,"3 DL, 2 LB, 6 DB",right,2019-09-23T02:46:25.000Z,2019-09-23T02:46:24.000Z,6-1,280,05/23/1991,Pittsburgh,DT,CLE,LA,3,First Energy Stadium,"Cleveland, Ohio",Outdoor,Grass,Mostly Clear,83.0,33,12,SSW
44708,2019092213,20190922133198,away,50.17,42.63,2.88,3.48,0.27,210.98,132.42,2552488,Marcus Peters,22,2019,38,4,12:12:00,CLV,1,10,CLV,13,17,2561021,PISTOL,"1 RB, 1 TE, 3 WR",5,"3 DL, 2 LB, 6 DB",right,2019-09-23T02:46:25.000Z,2019-09-23T02:46:24.000Z,6-0,197,01/09/1993,Washington,CB,CLE,LA,3,First Energy Stadium,"Cleveland, Ohio",Outdoor,Grass,Mostly Clear,83.0,33,12,SSW
44709,2019092213,20190922133198,away,46.65,33.76,3.65,2.52,0.37,213.94,207.34,2553431,Dante Fowler,56,2019,38,4,12:12:00,CLV,1,10,CLV,13,17,2561021,PISTOL,"1 RB, 1 TE, 3 WR",5,"3 DL, 2 LB, 6 DB",right,2019-09-23T02:46:25.000Z,2019-09-23T02:46:24.000Z,6-3,255,08/03/1994,Florida,OLB,CLE,LA,3,First Energy Stadium,"Cleveland, Ohio",Outdoor,Grass,Mostly Clear,83.0,33,12,SSW
44710,2019092213,20190922133198,away,50.96,27.49,4.41,1.62,0.43,234.8,194.18,2556593,Cory Littleton,58,2019,38,4,12:12:00,CLV,1,10,CLV,13,17,2561021,PISTOL,"1 RB, 1 TE, 3 WR",5,"3 DL, 2 LB, 6 DB",right,2019-09-23T02:46:25.000Z,2019-09-23T02:46:24.000Z,6-3,228,11/18/1993,Washington,ILB,CLE,LA,3,First Energy Stadium,"Cleveland, Ohio",Outdoor,Grass,Mostly Clear,83.0,33,12,SSW
44711,2019092213,20190922133198,away,63.6,24.22,1.18,1.39,0.11,267.02,180.25,2558183,John Johnson,43,2019,38,4,12:12:00,CLV,1,10,CLV,13,17,2561021,PISTOL,"1 RB, 1 TE, 3 WR",5,"3 DL, 2 LB, 6 DB",right,2019-09-23T02:46:25.000Z,2019-09-23T02:46:24.000Z,6-0,209,12/19/1995,Boston College,SS,CLE,LA,3,First Energy Stadium,"Cleveland, Ohio",Outdoor,Grass,Mostly Clear,83.0,33,12,SSW
44712,2019092213,20190922133198,away,47.62,27.55,3.42,1.04,0.36,257.38,195.9,2558199,Tanzel Smart,92,2019,38,4,12:12:00,CLV,1,10,CLV,13,17,2561021,PISTOL,"1 RB, 1 TE, 3 WR",5,"3 DL, 2 LB, 6 DB",right,2019-09-23T02:46:25.000Z,2019-09-23T02:46:24.000Z,6-1,295,11/06/1994,Tulane,DT,CLE,LA,3,First Energy Stadium,"Cleveland, Ohio",Outdoor,Grass,Mostly Clear,83.0,33,12,SSW
44713,2019092213,20190922133198,away,47.21,21.87,3.17,1.67,0.31,273.36,207.84,2558830,Samson Ebukam,50,2019,38,4,12:12:00,CLV,1,10,CLV,13,17,2561021,PISTOL,"1 RB, 1 TE, 3 WR",5,"3 DL, 2 LB, 6 DB",right,2019-09-23T02:46:25.000Z,2019-09-23T02:46:24.000Z,6-3,245,05/09/1995,Eastern Washington,OLB,CLE,LA,3,First Energy Stadium,"Cleveland, Ohio",Outdoor,Grass,Mostly Clear,83.0,33,12,SSW
44714,2019092213,20190922133198,away,51.61,23.95,4.56,2.96,0.44,230.6,198.56,2562707,Taylor Rapp,24,2019,38,4,12:12:00,CLV,1,10,CLV,13,17,2561021,PISTOL,"1 RB, 1 TE, 3 WR",5,"3 DL, 2 LB, 6 DB",right,2019-09-23T02:46:25.000Z,2019-09-23T02:46:24.000Z,6-0,208,12/22/1997,Washington,DB,CLE,LA,3,First Energy Stadium,"Cleveland, Ohio",Outdoor,Grass,Mostly Clear,83.0,33,12,SSW
44715,2019092213,20190922133198,home,45.45,26.9,3.91,1.12,0.41,193.75,224.13,2540292,JC Tretter,64,2019,38,4,12:12:00,CLV,1,10,CLV,13,17,2561021,PISTOL,"1 RB, 1 TE, 3 WR",5,"3 DL, 2 LB, 6 DB",right,2019-09-23T02:46:25.000Z,2019-09-23T02:46:24.000Z,6-4,307,02/12/1991,Cornell,T,CLE,LA,3,First Energy Stadium,"Cleveland, Ohio",Outdoor,Grass,Mostly Clear,83.0,33,12,SSW
44716,2019092213,20190922133198,home,46.72,25.48,2.92,0.34,0.28,44.61,189.07,2541312,Eric Kush,72,2019,38,4,12:12:00,CLV,1,10,CLV,13,17,2561021,PISTOL,"1 RB, 1 TE, 3 WR",5,"3 DL, 2 LB, 6 DB",right,2019-09-23T02:46:25.000Z,2019-09-23T02:46:24.000Z,6-4,317,09/09/1989,"California, Pa.",OG,CLE,LA,3,First Energy Stadium,"Cleveland, Ohio",Outdoor,Grass,Mostly Clear,83.0,33,12,SSW
44717,2019092213,20190922133198,home,48.58,30.77,4.84,1.79,0.47,109.68,145.39,2543458,Greg Robinson,78,2019,38,4,12:12:00,CLV,1,10,CLV,13,17,2561021,PISTOL,"1 RB, 1 TE, 3 WR",5,"3 DL, 2 LB, 6 DB",right,2019-09-23T02:46:25.000Z,2019-09-23T02:46:24.000Z,6-5,332,10/21/1992,Auburn,OT,CLE,LA,3,First Energy Stadium,"Cleveland, Ohio",Outdoor,Grass,Mostly Clear,83.0,33,12,SSW
44718,2019092213,20190922133198,home,48.79,17.27,3.85,3.1,0.38,101.18,122.71,2543488,Jarvis Landry,80,2019,38,4,12:12:00,CLV,1,10,CLV,13,17,2561021,PISTOL,"1 RB, 1 TE, 3 WR",5,"3 DL, 2 LB, 6 DB",right,2019-09-23T02:46:25.000Z,2019-09-23T02:46:24.000Z,5-11,196,11/28/1992,Louisiana State,WR,CLE,LA,3,First Energy Stadium,"Cleveland, Ohio",Outdoor,Grass,Mostly Clear,83.0,33,12,SSW
44719,2019092213,20190922133198,home,48.69,9.87,4.38,2.65,0.42,73.34,96.62,2543496,Odell Beckham,13,2019,38,4,12:12:00,CLV,1,10,CLV,13,17,2561021,PISTOL,"1 RB, 1 TE, 3 WR",5,"3 DL, 2 LB, 6 DB",right,2019-09-23T02:46:25.000Z,2019-09-23T02:46:24.000Z,5-11,198,11/05/1992,Louisiana State,WR,CLE,LA,3,First Energy Stadium,"Cleveland, Ohio",Outdoor,Grass,Mostly Clear,83.0,33,12,SSW
44720,2019092213,20190922133198,home,46.81,27.77,4.11,0.97,0.43,106.9,181.7,2543737,Joel Bitonio,75,2019,38,4,12:12:00,CLV,1,10,CLV,13,17,2561021,PISTOL,"1 RB, 1 TE, 3 WR",5,"3 DL, 2 LB, 6 DB",right,2019-09-23T02:46:25.000Z,2019-09-23T02:46:24.000Z,6-4,320,10/11/1991,Nevada,G,CLE,LA,3,First Energy Stadium,"Cleveland, Ohio",Outdoor,Grass,Mostly Clear,83.0,33,12,SSW
44721,2019092213,20190922133198,home,47.71,23.48,3.94,1.09,0.43,109.02,152.93,2550495,Justin McCray,67,2019,38,4,12:12:00,CLV,1,10,CLV,13,17,2561021,PISTOL,"1 RB, 1 TE, 3 WR",5,"3 DL, 2 LB, 6 DB",right,2019-09-23T02:46:25.000Z,2019-09-23T02:46:24.000Z,6-3,317,05/31/1992,Central Florida,G,CLE,LA,3,First Energy Stadium,"Cleveland, Ohio",Outdoor,Grass,Mostly Clear,83.0,33,12,SSW
44722,2019092213,20190922133198,home,46.48,22.26,3.21,1.55,0.32,129.81,199.2,2559018,Pharaoh Brown,86,2019,38,4,12:12:00,CLV,1,10,CLV,13,17,2561021,PISTOL,"1 RB, 1 TE, 3 WR",5,"3 DL, 2 LB, 6 DB",right,2019-09-23T02:46:25.000Z,2019-09-23T02:46:24.000Z,6-6,258,05/04/1994,Oregon,TE,CLE,LA,3,First Energy Stadium,"Cleveland, Ohio",Outdoor,Grass,Mostly Clear,83.0,33,12,SSW
44723,2019092213,20190922133198,home,42.09,28.83,1.64,2.38,0.16,265.48,261.8,2560800,Baker Mayfield,6,2019,38,4,12:12:00,CLV,1,10,CLV,13,17,2561021,PISTOL,"1 RB, 1 TE, 3 WR",5,"3 DL, 2 LB, 6 DB",right,2019-09-23T02:46:25.000Z,2019-09-23T02:46:24.000Z,6-1,215,04/14/1995,Oklahoma,QB,CLE,LA,3,First Energy Stadium,"Cleveland, Ohio",Outdoor,Grass,Mostly Clear,83.0,33,12,SSW
44724,2019092213,20190922133198,home,41.89,27.65,4.11,1.58,0.4,129.31,148.69,2561021,Nick Chubb,24,2019,38,4,12:12:00,CLV,1,10,CLV,13,17,2561021,PISTOL,"1 RB, 1 TE, 3 WR",5,"3 DL, 2 LB, 6 DB",right,2019-09-23T02:46:25.000Z,2019-09-23T02:46:24.000Z,5-11,225,12/27/1995,Georgia,RB,CLE,LA,3,First Energy Stadium,"Cleveland, Ohio",Outdoor,Grass,Mostly Clear,83.0,33,12,SSW
44725,2019092213,20190922133198,home,48.47,41.83,3.61,2.84,0.35,141.97,146.67,2561054,Damion Ratley,18,2019,38,4,12:12:00,CLV,1,10,CLV,13,17,2561021,PISTOL,"1 RB, 1 TE, 3 WR",5,"3 DL, 2 LB, 6 DB",right,2019-09-23T02:46:25.000Z,2019-09-23T02:46:24.000Z,6-2,200,04/16/1995,Texas A&M,WR,CLE,LA,3,First Energy Stadium,"Cleveland, Ohio",Outdoor,Grass,Mostly Clear,83.0,33,12,SSW
