,GameId,PlayId,Team,X,Y,S,A,Dis,Orientation,Dir,NflId,DisplayName,JerseyNumber,Season,YardLine,Quarter,GameClock,PossessionTeam,Down,Distance,FieldPosition,HomeScoreBeforePlay,VisitorScoreBeforePlay,NflIdRusher,OffenseFormation,OffensePersonnel,DefendersInTheBox,DefensePersonnel,PlayDirection,TimeHandoff,TimeSnap,PlayerHeight,PlayerWeight,PlayerBirthDate,PlayerCollegeName,Position,HomeTeamAbbr,VisitorTeamAbbr,Week,Stadium,Location,StadiumType,Turf,GameWeather,Temperature,Humidity,WindSpeed,WindDirection
38038,2019092206,20190922062019,away,45.25,24.11,4.21,0.44,0.42,282.22,0.86,2552272,Henry Anderson,96,2019,35,3,13:57:00,NE,1,10,NE,20,0,2560809,SINGLEBACK,"1 RB, 1 TE, 3 WR",7,"3 DL, 3 LB, 5 DB",right,2019-09-22T18:37:18.000Z,2019-09-22T18:37:17.000Z,6-6,301,08/03/1991,Stanford,DE,NE,NYJ,3,Gillette Stadium,"Foxborough, MA",Outdoor,Field Turf,Sunny and warm,81.0,49,10,SW
38039,2019092206,20190922062019,away,54.31,42.75,2.72,5.23,0.25,292.16,105.96,2553353,Darryl Roberts,27,2019,35,3,13:57:00,NE,1,10,NE,20,0,2560809,SINGLEBACK,"1 RB, 1 TE, 3 WR",7,"3 DL, 3 LB, 5 DB",right,2019-09-22T18:37:18.000Z,2019-09-22T18:37:17.000Z,6-0,182,11/26/1990,Marshall,CB,NE,NYJ,3,Gillette Stadium,"Foxborough, MA",Outdoor,Field Turf,Sunny and warm,81.0,49,10,SW
38040,2019092206,20190922062019,away,48.28,26.8,5.42,2.93,0.53,325.3,357.48,2553657,Neville Hewitt,46,2019,35,3,13:57:00,NE,1,10,NE,20,0,2560809,SINGLEBACK,"1 RB, 1 TE, 3 WR",7,"3 DL, 3 LB, 5 DB",right,2019-09-22T18:37:18.000Z,2019-09-22T18:37:17.000Z,6-2,234,04/06/1993,Marshall,OLB,NE,NYJ,3,Gillette Stadium,"Foxborough, MA",Outdoor,Field Turf,Sunny and warm,81.0,49,10,SW
38041,2019092206,20190922062019,away,51.55,34.02,2.47,0.7,0.23,251.54,137.38,2556445,Brian Poole,34,2019,35,3,13:57:00,NE,1,10,NE,20,0,2560809,SINGLEBACK,"1 RB, 1 TE, 3 WR",7,"3 DL, 3 LB, 5 DB",right,2019-09-22T18:37:18.000Z,2019-09-22T18:37:17.000Z,5-10,211,10/20/1992,Florida,CB,NE,NYJ,3,Gillette Stadium,"Foxborough, MA",Outdoor,Field Turf,Sunny and warm,81.0,49,10,SW
38042,2019092206,20190922062019,away,48.26,31.74,4.36,2.11,0.43,294.24,340.99,2557979,Jamal Adams,33,2019,35,3,13:57:00,NE,1,10,NE,20,0,2560809,SINGLEBACK,"1 RB, 1 TE, 3 WR",7,"3 DL, 3 LB, 5 DB",right,2019-09-22T18:37:18.000Z,2019-09-22T18:37:17.000Z,6-1,213,10/17/1995,Louisiana State,SS,NE,NYJ,3,Gillette Stadium,"Foxborough, MA",Outdoor,Field Turf,Sunny and warm,81.0,49,10,SW
38043,2019092206,20190922062019,away,63.05,26.83,1.99,3.5,0.19,102.66,9.02,2557995,Marcus Maye,20,2019,35,3,13:57:00,NE,1,10,NE,20,0,2560809,SINGLEBACK,"1 RB, 1 TE, 3 WR",7,"3 DL, 3 LB, 5 DB",right,2019-09-22T18:37:18.000Z,2019-09-22T18:37:17.000Z,6-0,207,03/09/1993,Florida,FS,NE,NYJ,3,Gillette Stadium,"Foxborough, MA",Outdoor,Field Turf,Sunny and warm,81.0,49,10,SW
38044,2019092206,20190922062019,away,46.71,10.77,2.53,2.05,0.24,241.74,40.72,2558108,Nate Hairston,21,2019,35,3,13:57:00,NE,1,10,NE,20,0,2560809,SINGLEBACK,"1 RB, 1 TE, 3 WR",7,"3 DL, 3 LB, 5 DB",right,2019-09-22T18:37:18.000Z,2019-09-22T18:37:17.000Z,6-0,185,06/30/1994,Temple,CB,NE,NYJ,3,Gillette Stadium,"Foxborough, MA",Outdoor,Field Turf,Sunny and warm,81.0,49,10,SW
38045,2019092206,20190922062019,away,44.44,20.52,4.19,2.25,0.42,295.47,351.24,2558963,Harvey Langi,44,2019,35,3,13:57:00,NE,1,10,NE,20,0,2560809,SINGLEBACK,"1 RB, 1 TE, 3 WR",7,"3 DL, 3 LB, 5 DB",right,2019-09-22T18:37:18.000Z,2019-09-22T18:37:17.000Z,6-2,252,09/24/1992,Brigham Young,LB,NE,NYJ,3,Gillette Stadium,"Foxborough, MA",Outdoor,Field Turf,Sunny and warm,81.0,49,10,SW
38046,2019092206,20190922062019,away,42.25,25.78,4.34,1.54,0.46,13.14,314.36,2560722,Foley Fatukasi,94,2019,35,3,13:57:00,NE,1,10,NE,20,0,2560809,SINGLEBACK,"1 RB, 1 TE, 3 WR",7,"3 DL, 3 LB, 5 DB",right,2019-09-22T18:37:18.000Z,2019-09-22T18:37:17.000Z,6-4,318,03/04/1995,Connecticut,DT,NE,NYJ,3,Gillette Stadium,"Foxborough, MA",Outdoor,Field Turf,Sunny and warm,81.0,49,10,SW
38047,2019092206,20190922062019,away,42.26,30.19,4.1,1.44,0.41,245.88,275.49,2562496,Blake Cashman,53,2019,35,3,13:57:00,NE,1,10,NE,20,0,2560809,SINGLEBACK,"1 RB, 1 TE, 3 WR",7,"3 DL, 3 LB, 5 DB",right,2019-09-22T18:37:18.000Z,2019-09-22T18:37:17.000Z,6-1,235,05/10/1996,Minnesota,LB,NE,NYJ,3,Gillette Stadium,"Foxborough, MA",Outdoor,Field Turf,Sunny and warm,81.0,49,10,SW
38048,2019092206,20190922062019,away,43.65,28.22,3.42,1.04,0.34,282.7,328.52,2562818,Kyle Phillips,98,2019,35,3,13:57:00,NE,1,10,NE,20,0,2560809,SINGLEBACK,"1 RB, 1 TE, 3 WR",7,"3 DL, 3 LB, 5 DB",right,2019-09-22T18:37:18.000Z,2019-09-22T18:37:17.000Z,6-4,277,05/05/1997,Tennessee,DE,NE,NYJ,3,Gillette Stadium,"Foxborough, MA",Outdoor,Field Turf,Sunny and warm,81.0,49,10,SW
38049,2019092206,20190922062019,home,42.43,29.45,2.62,1.4,0.27,353.73,336.17,497030,Marshall Newhouse,72,2019,35,3,13:57:00,NE,1,10,NE,20,0,2560809,SINGLEBACK,"1 RB, 1 TE, 3 WR",7,"3 DL, 3 LB, 5 DB",right,2019-09-22T18:37:18.000Z,2019-09-22T18:37:17.000Z,6-4,328,09/29/1988,Texas Christian,T,NE,NYJ,3,Gillette Stadium,"Foxborough, MA",Outdoor,Field Turf,Sunny and warm,81.0,49,10,SW
38050,2019092206,20190922062019,home,44.36,23.82,3.6,1.2,0.39,23.3,0.81,2495131,Marcus Cannon,61,2019,35,3,13:57:00,NE,1,10,NE,20,0,2560809,SINGLEBACK,"1 RB, 1 TE, 3 WR",7,"3 DL, 3 LB, 5 DB",right,2019-09-22T18:37:18.000Z,2019-09-22T18:37:17.000Z,6-6,335,05/06/1988,Texas Christian,T,NE,NYJ,3,Gillette Stadium,"Foxborough, MA",Outdoor,Field Turf,Sunny and warm,81.0,49,10,SW
38051,2019092206,20190922062019,home,40.54,24.59,3.54,1.04,0.35,289.9,282.02,2504211,Tom Brady,12,2019,35,3,13:57:00,NE,1,10,NE,20,0,2560809,SINGLEBACK,"1 RB, 1 TE, 3 WR",7,"3 DL, 3 LB, 5 DB",right,2019-09-22T18:37:18.000Z,2019-09-22T18:37:17.000Z,6-4,225,08/03/1977,Michigan,QB,NE,NYJ,3,Gillette Stadium,"Foxborough, MA",Outdoor,Field Turf,Sunny and warm,81.0,49,10,SW
38052,2019092206,20190922062019,home,45.82,10.71,2.75,1.83,0.27,75.65,42.09,2537931,Josh Gordon,10,2019,35,3,13:57:00,NE,1,10,NE,20,0,2560809,SINGLEBACK,"1 RB, 1 TE, 3 WR",7,"3 DL, 3 LB, 5 DB",right,2019-09-22T18:37:18.000Z,2019-09-22T18:37:17.000Z,6-3,225,04/13/1991,Baylor,WR,NE,NYJ,3,Gillette Stadium,"Foxborough, MA",Outdoor,Field Turf,Sunny and warm,81.0,49,10,SW
38053,2019092206,20190922062019,home,47.19,44.67,5.65,3.1,0.55,97.42,94.46,2552424,Phillip Dorsett,13,2019,35,3,13:57:00,NE,1,10,NE,20,0,2560809,SINGLEBACK,"1 RB, 1 TE, 3 WR",7,"3 DL, 3 LB, 5 DB",right,2019-09-22T18:37:18.000Z,2019-09-22T18:37:17.000Z,5-10,192,01/05/1993,Miami,WR,NE,NYJ,3,Gillette Stadium,"Foxborough, MA",Outdoor,Field Turf,Sunny and warm,81.0,49,10,SW
38054,2019092206,20190922062019,home,43.66,25.7,4.22,1.63,0.46,356.91,353.22,2552563,Shaq Mason,69,2019,35,3,13:57:00,NE,1,10,NE,20,0,2560809,SINGLEBACK,"1 RB, 1 TE, 3 WR",7,"3 DL, 3 LB, 5 DB",right,2019-09-22T18:37:18.000Z,2019-09-22T18:37:17.000Z,6-1,310,08/28/1993,Georgia Tech,G,NE,NYJ,3,Gillette Stadium,"Foxborough, MA",Outdoor,Field Turf,Sunny and warm,81.0,49,10,SW
38055,2019092206,20190922062019,home,45.12,27.55,4.96,1.79,0.53,33.33,24.68,2555145,Ted Karras,75,2019,35,3,13:57:00,NE,1,10,NE,20,0,2560809,SINGLEBACK,"1 RB, 1 TE, 3 WR",7,"3 DL, 3 LB, 5 DB",right,2019-09-22T18:37:18.000Z,2019-09-22T18:37:17.000Z,6-4,305,03/15/1993,Illinois,C,NE,NYJ,3,Gillette Stadium,"Foxborough, MA",Outdoor,Field Turf,Sunny and warm,81.0,49,10,SW
38056,2019092206,20190922062019,home,43.25,28.74,3.53,1.12,0.37,127.51,341.66,2555281,Joe Thuney,62,2019,35,3,13:57:00,NE,1,10,NE,20,0,2560809,SINGLEBACK,"1 RB, 1 TE, 3 WR",7,"3 DL, 3 LB, 5 DB",right,2019-09-22T18:37:18.000Z,2019-09-22T18:37:17.000Z,6-5,308,11/18/1992,North Carolina State,G,NE,NYJ,3,Gillette Stadium,"Foxborough, MA",Outdoor,Field Turf,Sunny and warm,81.0,49,10,SW
38057,2019092206,20190922062019,home,41.98,31.2,2.5,3.65,0.24,191.63,253.95,2560751,Ryan Izzo,85,2019,35,3,13:57:00,NE,1,10,NE,20,0,2560809,SINGLEBACK,"1 RB, 1 TE, 3 WR",7,"3 DL, 3 LB, 5 DB",right,2019-09-22T18:37:18.000Z,2019-09-22T18:37:17.000Z,6-5,255,12/21/1995,Florida State,TE,NE,NYJ,3,Gillette Stadium,"Foxborough, MA",Outdoor,Field Turf,Sunny and warm,81.0,49,10,SW
38058,2019092206,20190922062019,home,38.75,27.29,5.57,2.09,0.55,71.46,24.67,2560809,Sony Michel,26,2019,35,3,13:57:00,NE,1,10,NE,20,0,2560809,SINGLEBACK,"1 RB, 1 TE, 3 WR",7,"3 DL, 3 LB, 5 DB",right,2019-09-22T18:37:18.000Z,2019-09-22T18:37:17.000Z,5-11,215,02/17/1995,Georgia,RB,NE,NYJ,3,Gillette Stadium,"Foxborough, MA",Outdoor,Field Turf,Sunny and warm,81.0,49,10,SW
38059,2019092206,20190922062019,home,45.86,33.97,3.27,1.43,0.33,100.78,114.29,2562492,Jakobi Meyers,16,2019,35,3,13:57:00,NE,1,10,NE,20,0,2560809,SINGLEBACK,"1 RB, 1 TE, 3 WR",7,"3 DL, 3 LB, 5 DB",right,2019-09-22T18:37:18.000Z,2019-09-22T18:37:17.000Z,6-2,200,11/09/1996,North Carolina State,WR,NE,NYJ,3,Gillette Stadium,"Foxborough, MA",Outdoor,Field Turf,Sunny and warm,81.0,49,10,SW
