,GameId,PlayId,Team,X,Y,S,A,Dis,Orientation,Dir,NflId,DisplayName,JerseyNumber,Season,YardLine,Quarter,GameClock,PossessionTeam,Down,Distance,FieldPosition,HomeScoreBeforePlay,VisitorScoreBeforePlay,NflIdRusher,OffenseFormation,OffensePersonnel,DefendersInTheBox,DefensePersonnel,PlayDirection,TimeHandoff,TimeSnap,PlayerHeight,PlayerWeight,PlayerBirthDate,PlayerCollegeName,Position,HomeTeamAbbr,VisitorTeamAbbr,Week,Stadium,Location,StadiumType,Turf,GameWeather,Temperature,Humidity,WindSpeed,WindDirection
46728,2019092600,20190926003790,away,79.46,26.53,2.85,1.02,0.31,344.8,333.49,2495298,Jason Kelce,62,2019,31,4,06:25:00,PHI,1,10,PHI,27,34,2562722,SHOTGUN,"1 RB, 1 TE, 3 WR",7,"2 DL, 4 LB, 5 DB",left,2019-09-27T03:23:07.000Z,2019-09-27T03:23:06.000Z,6-3,295,11/05/1987,Cincinnati,C,GB,PHI,4,Lambeau Field,"Green Bay, WI",Outdoor,SISGrass,Cloudy,60.0,62,3,S
46729,2019092600,20190926003790,away,79.76,22.8,2.17,1.4,0.22,294.95,349.35,2505827,Jason Peters,71,2019,31,4,06:25:00,PHI,1,10,PHI,27,34,2562722,SHOTGUN,"1 RB, 1 TE, 3 WR",7,"2 DL, 4 LB, 5 DB",left,2019-09-27T03:23:07.000Z,2019-09-27T03:23:06.000Z,6-4,328,01/22/1982,Arkansas,OT,GB,PHI,4,Lambeau Field,"Green Bay, WI",Outdoor,SISGrass,Cloudy,60.0,62,3,S
46730,2019092600,20190926003790,away,78.17,43.63,3.79,1.33,0.37,272.07,266.54,2533039,Alshon Jeffery,17,2019,31,4,06:25:00,PHI,1,10,PHI,27,34,2562722,SHOTGUN,"1 RB, 1 TE, 3 WR",7,"2 DL, 4 LB, 5 DB",left,2019-09-27T03:23:07.000Z,2019-09-27T03:23:06.000Z,6-3,218,02/14/1990,South Carolina,WR,GB,PHI,4,Lambeau Field,"Green Bay, WI",Outdoor,SISGrass,Cloudy,60.0,62,3,S
46731,2019092600,20190926003790,away,79.91,26.89,3.1,0.97,0.31,266.05,332.62,2534434,Brandon Brooks,79,2019,31,4,06:25:00,PHI,1,10,PHI,27,34,2562722,SHOTGUN,"1 RB, 1 TE, 3 WR",7,"2 DL, 4 LB, 5 DB",left,2019-09-27T03:23:07.000Z,2019-09-27T03:23:06.000Z,6-5,335,08/19/1989,"Miami, O.",G,GB,PHI,4,Lambeau Field,"Green Bay, WI",Outdoor,SISGrass,Cloudy,60.0,62,3,S
46732,2019092600,20190926003790,away,81.38,28.84,2.21,0.34,0.26,332.03,12.55,2539286,Lane Johnson,65,2019,31,4,06:25:00,PHI,1,10,PHI,27,34,2562722,SHOTGUN,"1 RB, 1 TE, 3 WR",7,"2 DL, 4 LB, 5 DB",left,2019-09-27T03:23:07.000Z,2019-09-27T03:23:06.000Z,6-6,317,05/08/1990,Oklahoma,T,GB,PHI,4,Lambeau Field,"Green Bay, WI",Outdoor,SISGrass,Cloudy,60.0,62,3,S
46733,2019092600,20190926003790,away,79.21,20.91,2.28,0.96,0.23,304.44,338.8,2540158,Zach Ertz,86,2019,31,4,06:25:00,PHI,1,10,PHI,27,34,2562722,SHOTGUN,"1 RB, 1 TE, 3 WR",7,"2 DL, 4 LB, 5 DB",left,2019-09-27T03:23:07.000Z,2019-09-27T03:23:06.000Z,6-5,250,11/10/1990,Stanford,TE,GB,PHI,4,Lambeau Field,"Green Bay, WI",Outdoor,SISGrass,Cloudy,60.0,62,3,S
46734,2019092600,20190926003790,away,78.39,36.38,5.22,2.43,0.51,275.04,280.04,2552600,Nelson Agholor,13,2019,31,4,06:25:00,PHI,1,10,PHI,27,34,2562722,SHOTGUN,"1 RB, 1 TE, 3 WR",7,"2 DL, 4 LB, 5 DB",left,2019-09-27T03:23:07.000Z,2019-09-27T03:23:06.000Z,6-0,198,05/24/1993,Southern California,WR,GB,PHI,4,Lambeau Field,"Green Bay, WI",Outdoor,SISGrass,Cloudy,60.0,62,3,S
46735,2019092600,20190926003790,away,83.97,23.59,1.02,2.0,0.09,233.92,198.07,2555259,Carson Wentz,11,2019,31,4,06:25:00,PHI,1,10,PHI,27,34,2562722,SHOTGUN,"1 RB, 1 TE, 3 WR",7,"2 DL, 4 LB, 5 DB",left,2019-09-27T03:23:07.000Z,2019-09-27T03:23:06.000Z,6-5,237,12/30/1992,North Dakota State,QB,GB,PHI,4,Lambeau Field,"Green Bay, WI",Outdoor,SISGrass,Cloudy,60.0,62,3,S
46736,2019092600,20190926003790,away,79.75,23.52,1.85,0.12,0.19,240.31,334.65,2555495,Isaac Seumalo,73,2019,31,4,06:25:00,PHI,1,10,PHI,27,34,2562722,SHOTGUN,"1 RB, 1 TE, 3 WR",7,"2 DL, 4 LB, 5 DB",left,2019-09-27T03:23:07.000Z,2019-09-27T03:23:06.000Z,6-4,303,10/29/1993,Oregon State,G,GB,PHI,4,Lambeau Field,"Green Bay, WI",Outdoor,SISGrass,Cloudy,60.0,62,3,S
46737,2019092600,20190926003790,away,77.14,13.33,5.83,1.73,0.57,250.14,288.71,2558262,Mack Hollins,16,2019,31,4,06:25:00,PHI,1,10,PHI,27,34,2562722,SHOTGUN,"1 RB, 1 TE, 3 WR",7,"2 DL, 4 LB, 5 DB",left,2019-09-27T03:23:07.000Z,2019-09-27T03:23:06.000Z,6-4,221,09/16/1993,North Carolina,WR,GB,PHI,4,Lambeau Field,"Green Bay, WI",Outdoor,SISGrass,Cloudy,60.0,62,3,S
46738,2019092600,20190926003790,away,83.53,23.46,4.92,3.61,0.47,256.48,327.29,2562722,Miles Sanders,26,2019,31,4,06:25:00,PHI,1,10,PHI,27,34,2562722,SHOTGUN,"1 RB, 1 TE, 3 WR",7,"2 DL, 4 LB, 5 DB",left,2019-09-27T03:23:07.000Z,2019-09-27T03:23:06.000Z,5-11,211,05/01/1997,Penn State,RB,GB,PHI,4,Lambeau Field,"Green Bay, WI",Outdoor,SISGrass,Cloudy,60.0,62,3,S
46739,2019092600,20190926003790,home,76.06,12.79,4.21,2.41,0.42,21.58,299.18,2506789,Tramon Williams,38,2019,31,4,06:25:00,PHI,1,10,PHI,27,34,2562722,SHOTGUN,"1 RB, 1 TE, 3 WR",7,"2 DL, 4 LB, 5 DB",left,2019-09-27T03:23:07.000Z,2019-09-27T03:23:06.000Z,5-11,192,03/16/1983,Louisiana Tech,CB,GB,PHI,4,Lambeau Field,"Green Bay, WI",Outdoor,SISGrass,Cloudy,60.0,62,3,S
46740,2019092600,20190926003790,home,81.0,29.83,2.64,3.98,0.27,125.44,49.78,2552276,Preston Smith,91,2019,31,4,06:25:00,PHI,1,10,PHI,27,34,2562722,SHOTGUN,"1 RB, 1 TE, 3 WR",7,"2 DL, 4 LB, 5 DB",left,2019-09-27T03:23:07.000Z,2019-09-27T03:23:06.000Z,6-5,265,11/17/1992,Mississippi State,OLB,GB,PHI,4,Lambeau Field,"Green Bay, WI",Outdoor,SISGrass,Cloudy,60.0,62,3,S
46741,2019092600,20190926003790,home,74.02,19.2,2.09,2.18,0.2,60.07,31.92,2552385,Adrian Amos,31,2019,31,4,06:25:00,PHI,1,10,PHI,27,34,2562722,SHOTGUN,"1 RB, 1 TE, 3 WR",7,"2 DL, 4 LB, 5 DB",left,2019-09-27T03:23:07.000Z,2019-09-27T03:23:06.000Z,6-0,214,04/29/1993,Penn State,FS,GB,PHI,4,Lambeau Field,"Green Bay, WI",Outdoor,SISGrass,Cloudy,60.0,62,3,S
46742,2019092600,20190926003790,home,76.35,27.8,3.14,1.97,0.3,86.39,29.75,2555161,Blake Martinez,50,2019,31,4,06:25:00,PHI,1,10,PHI,27,34,2562722,SHOTGUN,"1 RB, 1 TE, 3 WR",7,"2 DL, 4 LB, 5 DB",left,2019-09-27T03:23:07.000Z,2019-09-27T03:23:06.000Z,6-2,237,01/09/1994,Stanford,ILB,GB,PHI,4,Lambeau Field,"Green Bay, WI",Outdoor,SISGrass,Cloudy,60.0,62,3,S
46743,2019092600,20190926003790,home,79.16,23.16,1.26,1.23,0.14,30.27,2.11,2555274,Dean Lowry,94,2019,31,4,06:25:00,PHI,1,10,PHI,27,34,2562722,SHOTGUN,"1 RB, 1 TE, 3 WR",7,"2 DL, 4 LB, 5 DB",left,2019-09-27T03:23:07.000Z,2019-09-27T03:23:06.000Z,6-6,296,06/09/1994,Northwestern,DE,GB,PHI,4,Lambeau Field,"Green Bay, WI",Outdoor,SISGrass,Cloudy,60.0,62,3,S
46744,2019092600,20190926003790,home,78.77,27.18,2.8,2.43,0.27,110.68,335.57,2555282,Kenny Clark,97,2019,31,4,06:25:00,PHI,1,10,PHI,27,34,2562722,SHOTGUN,"1 RB, 1 TE, 3 WR",7,"2 DL, 4 LB, 5 DB",left,2019-09-27T03:23:07.000Z,2019-09-27T03:23:06.000Z,6-3,314,10/04/1995,UCLA,NT,GB,PHI,4,Lambeau Field,"Green Bay, WI",Outdoor,SISGrass,Cloudy,60.0,62,3,S
46745,2019092600,20190926003790,home,76.16,24.4,3.04,0.92,0.3,81.24,28.5,2555522,B.J. Goodson,93,2019,31,4,06:25:00,PHI,1,10,PHI,27,34,2562722,SHOTGUN,"1 RB, 1 TE, 3 WR",7,"2 DL, 4 LB, 5 DB",left,2019-09-27T03:23:07.000Z,2019-09-27T03:23:06.000Z,6-1,242,05/29/1993,Clemson,ILB,GB,PHI,4,Lambeau Field,"Green Bay, WI",Outdoor,SISGrass,Cloudy,60.0,62,3,S
46746,2019092600,20190926003790,home,75.73,37.05,2.95,2.78,0.28,160.15,286.95,2560887,Chandon Sullivan,39,2019,31,4,06:25:00,PHI,1,10,PHI,27,34,2562722,SHOTGUN,"1 RB, 1 TE, 3 WR",7,"2 DL, 4 LB, 5 DB",left,2019-09-27T03:23:07.000Z,2019-09-27T03:23:06.000Z,5-11,189,08/07/1996,Georgia State,CB,GB,PHI,4,Lambeau Field,"Green Bay, WI",Outdoor,SISGrass,Cloudy,60.0,62,3,S
46747,2019092600,20190926003790,home,75.6,44.65,2.99,1.36,0.3,160.38,276.24,2560952,Jaire Alexander,23,2019,31,4,06:25:00,PHI,1,10,PHI,27,34,2562722,SHOTGUN,"1 RB, 1 TE, 3 WR",7,"2 DL, 4 LB, 5 DB",left,2019-09-27T03:23:07.000Z,2019-09-27T03:23:06.000Z,5-10,196,02/09/1997,Louisville,CB,GB,PHI,4,Lambeau Field,"Green Bay, WI",Outdoor,SISGrass,Cloudy,60.0,62,3,S
46748,2019092600,20190926003790,home,78.58,21.46,3.07,1.1,0.3,103.49,9.38,2562376,Rashan Gary,52,2019,31,4,06:25:00,PHI,1,10,PHI,27,34,2562722,SHOTGUN,"1 RB, 1 TE, 3 WR",7,"2 DL, 4 LB, 5 DB",left,2019-09-27T03:23:07.000Z,2019-09-27T03:23:06.000Z,6-5,277,12/03/1997,Michigan,LB,GB,PHI,4,Lambeau Field,"Green Bay, WI",Outdoor,SISGrass,Cloudy,60.0,62,3,S
46749,2019092600,20190926003790,home,63.73,27.08,0.24,1.81,0.02,98.31,313.98,2562724,Darnell Savage,26,2019,31,4,06:25:00,PHI,1,10,PHI,27,34,2562722,SHOTGUN,"1 RB, 1 TE, 3 WR",7,"2 DL, 4 LB, 5 DB",left,2019-09-27T03:23:07.000Z,2019-09-27T03:23:06.000Z,5-11,200,07/30/1997,Maryland,DB,GB,PHI,4,Lambeau Field,"Green Bay, WI",Outdoor,SISGrass,Cloudy,60.0,62,3,S
