,GameId,PlayId,Team,X,Y,S,A,Dis,Orientation,Dir,NflId,DisplayName,JerseyNumber,Season,YardLine,Quarter,GameClock,PossessionTeam,Down,Distance,FieldPosition,HomeScoreBeforePlay,VisitorScoreBeforePlay,NflIdRusher,OffenseFormation,OffensePersonnel,DefendersInTheBox,DefensePersonnel,PlayDirection,TimeHandoff,TimeSnap,PlayerHeight,PlayerWeight,PlayerBirthDate,PlayerCollegeName,Position,HomeTeamAbbr,VisitorTeamAbbr,Week,Stadium,Location,StadiumType,Turf,GameWeather,Temperature,Humidity,WindSpeed,WindDirection
10318,2019090810,20190908101598,away,72.05,19.04,1.32,0.46,0.13,232.56,151.53,2495807,Antoine Bethea,41,2019,48,2,05:15:00,DAL,1,10,DAL,14,7,2555224,SINGLEBACK,"1 RB, 2 TE, 2 WR",7,"4 DL, 3 LB, 4 DB",right,2019-09-08T21:29:18.000Z,2019-09-08T21:29:17.000Z,5-11,206,07/27/1984,Howard,FS,DAL,NYG,1,AT&T Stadium,"Arlington, Texas",Indoor,Artificial,,,0,,
10319,2019090810,20190908101598,away,64.12,35.59,2.57,0.77,0.26,216.24,198.24,2532875,Janoris Jenkins,20,2019,48,2,05:15:00,DAL,1,10,DAL,14,7,2555224,SINGLEBACK,"1 RB, 2 TE, 2 WR",7,"4 DL, 3 LB, 4 DB",right,2019-09-08T21:29:18.000Z,2019-09-08T21:29:17.000Z,5-10,190,10/29/1988,North Alabama,CB,DAL,NYG,1,AT&T Stadium,"Arlington, Texas",Indoor,Artificial,,,0,,
10320,2019090810,20190908101598,away,60.62,26.44,1.27,3.55,0.13,273.0,202.16,2540143,Alec Ogletree,47,2019,48,2,05:15:00,DAL,1,10,DAL,14,7,2555224,SINGLEBACK,"1 RB, 2 TE, 2 WR",7,"4 DL, 3 LB, 4 DB",right,2019-09-08T21:29:18.000Z,2019-09-08T21:29:17.000Z,6-3,235,09/25/1991,Georgia,LB,DAL,NYG,1,AT&T Stadium,"Arlington, Texas",Indoor,Artificial,,,0,,
10321,2019090810,20190908101598,away,57.21,31.5,1.67,1.48,0.16,250.44,277.92,2552273,Markus Golden,44,2019,48,2,05:15:00,DAL,1,10,DAL,14,7,2555224,SINGLEBACK,"1 RB, 2 TE, 2 WR",7,"4 DL, 3 LB, 4 DB",right,2019-09-08T21:29:18.000Z,2019-09-08T21:29:17.000Z,6-3,260,03/13/1991,Missouri,OLB,DAL,NYG,1,AT&T Stadium,"Arlington, Texas",Indoor,Artificial,,,0,,
10322,2019090810,20190908101598,away,59.44,8.5,2.6,2.75,0.25,233.45,121.63,2556804,Antonio Hamilton,30,2019,48,2,05:15:00,DAL,1,10,DAL,14,7,2555224,SINGLEBACK,"1 RB, 2 TE, 2 WR",7,"4 DL, 3 LB, 4 DB",right,2019-09-08T21:29:18.000Z,2019-09-08T21:29:17.000Z,6-0,190,01/24/1993,South Carolina State,CB,DAL,NYG,1,AT&T Stadium,"Arlington, Texas",Indoor,Artificial,,,0,,
10323,2019090810,20190908101598,away,57.13,25.53,1.12,1.68,0.11,228.39,333.6,2557846,Dalvin Tomlinson,94,2019,48,2,05:15:00,DAL,1,10,DAL,14,7,2555224,SINGLEBACK,"1 RB, 2 TE, 2 WR",7,"4 DL, 3 LB, 4 DB",right,2019-09-08T21:29:18.000Z,2019-09-08T21:29:17.000Z,6-3,318,02/28/1994,Alabama,DT,DAL,NYG,1,AT&T Stadium,"Arlington, Texas",Indoor,Artificial,,,0,,
10324,2019090810,20190908101598,away,66.18,28.79,1.17,3.34,0.1,255.6,258.96,2557980,Jabrill Peppers,21,2019,48,2,05:15:00,DAL,1,10,DAL,14,7,2555224,SINGLEBACK,"1 RB, 2 TE, 2 WR",7,"4 DL, 3 LB, 4 DB",right,2019-09-08T21:29:18.000Z,2019-09-08T21:29:17.000Z,5-11,213,10/04/1995,Michigan,FS,DAL,NYG,1,AT&T Stadium,"Arlington, Texas",Indoor,Artificial,,,0,,
10325,2019090810,20190908101598,away,57.57,28.61,1.02,1.34,0.1,240.35,357.87,2560740,B.J. Hill,95,2019,48,2,05:15:00,DAL,1,10,DAL,14,7,2555224,SINGLEBACK,"1 RB, 2 TE, 2 WR",7,"4 DL, 3 LB, 4 DB",right,2019-09-08T21:29:18.000Z,2019-09-08T21:29:17.000Z,6-3,311,04/20/1995,North Carolina State,DT,DAL,NYG,1,AT&T Stadium,"Arlington, Texas",Indoor,Artificial,,,0,,
10326,2019090810,20190908101598,away,59.81,24.09,2.15,1.71,0.21,267.42,301.05,2561318,Tae Davis,58,2019,48,2,05:15:00,DAL,1,10,DAL,14,7,2555224,SINGLEBACK,"1 RB, 2 TE, 2 WR",7,"4 DL, 3 LB, 4 DB",right,2019-09-08T21:29:18.000Z,2019-09-08T21:29:17.000Z,6-1,224,08/14/1996,Chattanooga,ILB,DAL,NYG,1,AT&T Stadium,"Arlington, Texas",Indoor,Artificial,,,0,,
10327,2019090810,20190908101598,away,57.81,22.26,1.71,1.71,0.16,306.54,17.52,2562301,Dexter Lawrence,97,2019,48,2,05:15:00,DAL,1,10,DAL,14,7,2555224,SINGLEBACK,"1 RB, 2 TE, 2 WR",7,"4 DL, 3 LB, 4 DB",right,2019-09-08T21:29:18.000Z,2019-09-08T21:29:17.000Z,6-4,342,11/12/1997,Clemson,DT,DAL,NYG,1,AT&T Stadium,"Arlington, Texas",Indoor,Artificial,,,0,,
10328,2019090810,20190908101598,away,58.45,18.21,1.1,2.58,0.1,281.5,176.92,2562613,Oshane Ximines,53,2019,48,2,05:15:00,DAL,1,10,DAL,14,7,2555224,SINGLEBACK,"1 RB, 2 TE, 2 WR",7,"4 DL, 3 LB, 4 DB",right,2019-09-08T21:29:18.000Z,2019-09-08T21:29:17.000Z,6-4,250,12/07/1996,Old Dominion,LB,DAL,NYG,1,AT&T Stadium,"Arlington, Texas",Indoor,Artificial,,,0,,
10329,2019090810,20190908101598,home,57.16,27.92,0.8,0.5,0.09,31.51,49.55,2495435,Tyron Smith,77,2019,48,2,05:15:00,DAL,1,10,DAL,14,7,2555224,SINGLEBACK,"1 RB, 2 TE, 2 WR",7,"4 DL, 3 LB, 4 DB",right,2019-09-08T21:29:18.000Z,2019-09-08T21:29:17.000Z,6-5,320,12/12/1990,Southern California,T,DAL,NYG,1,AT&T Stadium,"Arlington, Texas",Indoor,Artificial,,,0,,
10330,2019090810,20190908101598,home,50.58,27.14,8.11,1.66,0.81,185.08,202.67,2539336,Tavon Austin,10,2019,48,2,05:15:00,DAL,1,10,DAL,14,7,2555224,SINGLEBACK,"1 RB, 2 TE, 2 WR",7,"4 DL, 3 LB, 4 DB",right,2019-09-08T21:29:18.000Z,2019-09-08T21:29:17.000Z,5-8,179,03/15/1990,West Virginia,WR,DAL,NYG,1,AT&T Stadium,"Arlington, Texas",Indoor,Artificial,,,0,,
10331,2019090810,20190908101598,home,56.88,24.72,0.45,0.55,0.05,63.73,349.2,2540161,Travis Frederick,72,2019,48,2,05:15:00,DAL,1,10,DAL,14,7,2555224,SINGLEBACK,"1 RB, 2 TE, 2 WR",7,"4 DL, 3 LB, 4 DB",right,2019-09-08T21:29:18.000Z,2019-09-08T21:29:17.000Z,6-4,320,03/18/1991,Wisconsin,C,DAL,NYG,1,AT&T Stadium,"Arlington, Texas",Indoor,Artificial,,,0,,
10332,2019090810,20190908101598,home,57.14,22.35,0.7,0.7,0.08,52.55,42.89,2543480,Zack Martin,70,2019,48,2,05:15:00,DAL,1,10,DAL,14,7,2555224,SINGLEBACK,"1 RB, 2 TE, 2 WR",7,"4 DL, 3 LB, 4 DB",right,2019-09-08T21:29:18.000Z,2019-09-08T21:29:17.000Z,6-4,315,11/20/1990,Notre Dame,G,DAL,NYG,1,AT&T Stadium,"Arlington, Texas",Indoor,Artificial,,,0,,
10333,2019090810,20190908101598,home,57.52,21.87,1.61,0.19,0.17,37.82,38.25,2553505,La'el Collins,71,2019,48,2,05:15:00,DAL,1,10,DAL,14,7,2555224,SINGLEBACK,"1 RB, 2 TE, 2 WR",7,"4 DL, 3 LB, 4 DB",right,2019-09-08T21:29:18.000Z,2019-09-08T21:29:17.000Z,6-4,320,07/26/1993,Louisiana State,T,DAL,NYG,1,AT&T Stadium,"Arlington, Texas",Indoor,Artificial,,,0,,
10334,2019090810,20190908101598,home,51.73,25.27,4.17,2.89,0.41,78.62,70.16,2555224,Ezekiel Elliott,21,2019,48,2,05:15:00,DAL,1,10,DAL,14,7,2555224,SINGLEBACK,"1 RB, 2 TE, 2 WR",7,"4 DL, 3 LB, 4 DB",right,2019-09-08T21:29:18.000Z,2019-09-08T21:29:17.000Z,6-0,228,07/22/1995,Ohio State,RB,DAL,NYG,1,AT&T Stadium,"Arlington, Texas",Indoor,Artificial,,,0,,
10335,2019090810,20190908101598,home,52.57,24.3,4.81,1.37,0.47,286.19,277.57,2555260,Dak Prescott,4,2019,48,2,05:15:00,DAL,1,10,DAL,14,7,2555224,SINGLEBACK,"1 RB, 2 TE, 2 WR",7,"4 DL, 3 LB, 4 DB",right,2019-09-08T21:29:18.000Z,2019-09-08T21:29:17.000Z,6-2,238,07/29/1993,Mississippi State,QB,DAL,NYG,1,AT&T Stadium,"Arlington, Texas",Indoor,Artificial,,,0,,
10336,2019090810,20190908101598,home,55.41,25.72,5.8,1.67,0.57,155.94,178.31,2559193,Blake Jarwin,89,2019,48,2,05:15:00,DAL,1,10,DAL,14,7,2555224,SINGLEBACK,"1 RB, 2 TE, 2 WR",7,"4 DL, 3 LB, 4 DB",right,2019-09-08T21:29:18.000Z,2019-09-08T21:29:17.000Z,6-5,260,07/16/1994,Oklahoma State,TE,DAL,NYG,1,AT&T Stadium,"Arlington, Texas",Indoor,Artificial,,,0,,
10337,2019090810,20190908101598,home,58.1,8.55,3.73,3.25,0.36,101.14,120.79,2560735,Michael Gallup,13,2019,48,2,05:15:00,DAL,1,10,DAL,14,7,2555224,SINGLEBACK,"1 RB, 2 TE, 2 WR",7,"4 DL, 3 LB, 4 DB",right,2019-09-08T21:29:18.000Z,2019-09-08T21:29:17.000Z,6-1,200,03/04/1996,Colorado State,WR,DAL,NYG,1,AT&T Stadium,"Arlington, Texas",Indoor,Artificial,,,0,,
10338,2019090810,20190908101598,home,56.23,30.43,1.98,1.26,0.2,21.28,359.12,2560866,Dalton Schultz,86,2019,48,2,05:15:00,DAL,1,10,DAL,14,7,2555224,SINGLEBACK,"1 RB, 2 TE, 2 WR",7,"4 DL, 3 LB, 4 DB",right,2019-09-08T21:29:18.000Z,2019-09-08T21:29:17.000Z,6-5,242,07/11/1996,Stanford,TE,DAL,NYG,1,AT&T Stadium,"Arlington, Texas",Indoor,Artificial,,,0,,
10339,2019090810,20190908101598,home,59.09,26.58,2.82,2.43,0.28,357.77,95.77,2560934,Connor Williams,52,2019,48,2,05:15:00,DAL,1,10,DAL,14,7,2555224,SINGLEBACK,"1 RB, 2 TE, 2 WR",7,"4 DL, 3 LB, 4 DB",right,2019-09-08T21:29:18.000Z,2019-09-08T21:29:17.000Z,6-5,298,05/12/1997,Texas,G,DAL,NYG,1,AT&T Stadium,"Arlington, Texas",Indoor,Artificial,,,0,,
