,GameId,PlayId,Team,X,Y,S,A,Dis,Orientation,Dir,NflId,DisplayName,JerseyNumber,Season,YardLine,Quarter,GameClock,PossessionTeam,Down,Distance,FieldPosition,HomeScoreBeforePlay,VisitorScoreBeforePlay,NflIdRusher,OffenseFormation,OffensePersonnel,DefendersInTheBox,DefensePersonnel,PlayDirection,TimeHandoff,TimeSnap,PlayerHeight,PlayerWeight,PlayerBirthDate,PlayerCollegeName,Position,HomeTeamAbbr,VisitorTeamAbbr,Week,Stadium,Location,StadiumType,Turf,GameWeather,Temperature,Humidity,WindSpeed,WindDirection
4554,2019090804,20190908040392,away,69.87,29.54,3.79,1.21,0.38,251.58,190.31,2495116,Allen Bailey,93,2019,40,1,09:17:00,MIN,2,9,ATL,7,0,2557991,I_FORM,"2 RB, 2 TE, 1 WR",8,"4 DL, 3 LB, 4 DB",right,2019-09-08T17:18:12.000Z,2019-09-08T17:18:11.000Z,6-3,288,03/25/1989,Miami,DE,MIN,ATL,1,U.S. Bank Stadium,"Minneapolis, MN",Indoors,Field Turf,N/A (Indoors),,0,,
4555,2019090804,20190908040392,away,75.31,44.53,5.34,1.99,0.52,111.13,80.84,2539334,Desmond Trufant,21,2019,40,1,09:17:00,MIN,2,9,ATL,7,0,2557991,I_FORM,"2 RB, 2 TE, 1 WR",8,"4 DL, 3 LB, 4 DB",right,2019-09-08T17:18:12.000Z,2019-09-08T17:18:11.000Z,6-0,190,09/10/1990,Washington,CB,MIN,ATL,1,U.S. Bank Stadium,"Minneapolis, MN",Indoors,Field Turf,N/A (Indoors),,0,,
4556,2019090804,20190908040392,away,87.13,29.4,2.87,1.91,0.28,233.75,134.05,2543850,Ricardo Allen,37,2019,40,1,09:17:00,MIN,2,9,ATL,7,0,2557991,I_FORM,"2 RB, 2 TE, 1 WR",8,"4 DL, 3 LB, 4 DB",right,2019-09-08T17:18:12.000Z,2019-09-08T17:18:11.000Z,5-9,186,12/18/1991,Purdue,SS,MIN,ATL,1,U.S. Bank Stadium,"Minneapolis, MN",Indoors,Field Turf,N/A (Indoors),,0,,
4557,2019090804,20190908040392,away,69.5,34.05,4.48,2.98,0.43,204.56,183.8,2552301,Vic Beasley,44,2019,40,1,09:17:00,MIN,2,9,ATL,7,0,2557991,I_FORM,"2 RB, 2 TE, 1 WR",8,"4 DL, 3 LB, 4 DB",right,2019-09-08T17:18:12.000Z,2019-09-08T17:18:11.000Z,6-3,246,07/08/1992,Clemson,OLB,MIN,ATL,1,U.S. Bank Stadium,"Minneapolis, MN",Indoors,Field Turf,N/A (Indoors),,0,,
4558,2019090804,20190908040392,away,67.59,28.26,2.26,3.03,0.23,241.94,255.21,2552327,Grady Jarrett,97,2019,40,1,09:17:00,MIN,2,9,ATL,7,0,2557991,I_FORM,"2 RB, 2 TE, 1 WR",8,"4 DL, 3 LB, 4 DB",right,2019-09-08T17:18:12.000Z,2019-09-08T17:18:11.000Z,6-0,305,04/28/1993,Clemson,DT,MIN,ATL,1,U.S. Bank Stadium,"Minneapolis, MN",Indoors,Field Turf,N/A (Indoors),,0,,
4559,2019090804,20190908040392,away,70.42,27.93,3.48,1.25,0.35,194.08,177.88,2552329,Tyeler Davison,96,2019,40,1,09:17:00,MIN,2,9,ATL,7,0,2557991,I_FORM,"2 RB, 2 TE, 1 WR",8,"4 DL, 3 LB, 4 DB",right,2019-09-08T17:18:12.000Z,2019-09-08T17:18:11.000Z,6-2,309,09/03/1992,Fresno State,DT,MIN,ATL,1,U.S. Bank Stadium,"Minneapolis, MN",Indoors,Field Turf,N/A (Indoors),,0,,
4560,2019090804,20190908040392,away,73.28,30.11,3.39,1.49,0.33,247.26,197.33,2555162,Deion Jones,45,2019,40,1,09:17:00,MIN,2,9,ATL,7,0,2557991,I_FORM,"2 RB, 2 TE, 1 WR",8,"4 DL, 3 LB, 4 DB",right,2019-09-08T17:18:12.000Z,2019-09-08T17:18:11.000Z,6-1,227,11/04/1994,Louisiana State,MLB,MIN,ATL,1,U.S. Bank Stadium,"Minneapolis, MN",Indoors,Field Turf,N/A (Indoors),,0,,
4561,2019090804,20190908040392,away,73.34,25.13,3.89,3.89,0.37,246.78,177.27,2555255,De'Vondre Campbell,59,2019,40,1,09:17:00,MIN,2,9,ATL,7,0,2557991,I_FORM,"2 RB, 2 TE, 1 WR",8,"4 DL, 3 LB, 4 DB",right,2019-09-08T17:18:12.000Z,2019-09-08T17:18:11.000Z,6-3,232,07/01/1993,Minnesota,OLB,MIN,ATL,1,U.S. Bank Stadium,"Minneapolis, MN",Indoors,Field Turf,N/A (Indoors),,0,,
4562,2019090804,20190908040392,away,72.39,24.51,2.71,4.01,0.26,259.67,151.76,2555543,Keanu Neal,22,2019,40,1,09:17:00,MIN,2,9,ATL,7,0,2557991,I_FORM,"2 RB, 2 TE, 1 WR",8,"4 DL, 3 LB, 4 DB",right,2019-09-08T17:18:12.000Z,2019-09-08T17:18:11.000Z,6-0,211,07/26/1995,Florida,FS,MIN,ATL,1,U.S. Bank Stadium,"Minneapolis, MN",Indoors,Field Turf,N/A (Indoors),,0,,
4563,2019090804,20190908040392,away,68.0,24.6,2.9,2.56,0.29,318.57,290.15,2557872,Takkarist McKinley,98,2019,40,1,09:17:00,MIN,2,9,ATL,7,0,2557991,I_FORM,"2 RB, 2 TE, 1 WR",8,"4 DL, 3 LB, 4 DB",right,2019-09-08T17:18:12.000Z,2019-09-08T17:18:11.000Z,6-2,265,11/02/1995,UCLA,DE,MIN,ATL,1,U.S. Bank Stadium,"Minneapolis, MN",Indoors,Field Turf,N/A (Indoors),,0,,
4564,2019090804,20190908040392,away,73.71,33.89,2.46,6.14,0.22,226.85,224.09,2560830,Isaiah Oliver,26,2019,40,1,09:17:00,MIN,2,9,ATL,7,0,2557991,I_FORM,"2 RB, 2 TE, 1 WR",8,"4 DL, 3 LB, 4 DB",right,2019-09-08T17:18:12.000Z,2019-09-08T17:18:11.000Z,6-0,210,09/30/1996,Colorado,CB,MIN,ATL,1,U.S. Bank Stadium,"Minneapolis, MN",Indoors,Field Turf,N/A (Indoors),,0,,
4565,2019090804,20190908040392,home,71.16,24.19,4.03,2.7,0.39,65.92,134.79,2495438,Kyle Rudolph,82,2019,40,1,09:17:00,MIN,2,9,ATL,7,0,2557991,I_FORM,"2 RB, 2 TE, 1 WR",8,"4 DL, 3 LB, 4 DB",right,2019-09-08T17:18:12.000Z,2019-09-08T17:18:11.000Z,6-6,265,11/09/1989,Notre Dame,TE,MIN,ATL,1,U.S. Bank Stadium,"Minneapolis, MN",Indoors,Field Turf,N/A (Indoors),,0,,
4566,2019090804,20190908040392,home,65.86,28.0,4.3,1.37,0.42,238.6,237.21,2532820,Kirk Cousins,8,2019,40,1,09:17:00,MIN,2,9,ATL,7,0,2557991,I_FORM,"2 RB, 2 TE, 1 WR",8,"4 DL, 3 LB, 4 DB",right,2019-09-08T17:18:12.000Z,2019-09-08T17:18:11.000Z,6-3,202,08/19/1988,Michigan State,QB,MIN,ATL,1,U.S. Bank Stadium,"Minneapolis, MN",Indoors,Field Turf,N/A (Indoors),,0,,
4567,2019090804,20190908040392,home,68.79,29.44,3.84,1.94,0.4,115.0,186.56,2533042,Riley Reiff,71,2019,40,1,09:17:00,MIN,2,9,ATL,7,0,2557991,I_FORM,"2 RB, 2 TE, 1 WR",8,"4 DL, 3 LB, 4 DB",right,2019-09-08T17:18:12.000Z,2019-09-08T17:18:11.000Z,6-6,305,12/01/1988,Iowa,T,MIN,ATL,1,U.S. Bank Stadium,"Minneapolis, MN",Indoors,Field Turf,N/A (Indoors),,0,,
4568,2019090804,20190908040392,home,67.76,25.75,2.09,1.67,0.22,166.89,204.52,2541142,Josh Kline,64,2019,40,1,09:17:00,MIN,2,9,ATL,7,0,2557991,I_FORM,"2 RB, 2 TE, 1 WR",8,"4 DL, 3 LB, 4 DB",right,2019-09-08T17:18:12.000Z,2019-09-08T17:18:11.000Z,6-3,300,12/29/1989,Kent State,G,MIN,ATL,1,U.S. Bank Stadium,"Minneapolis, MN",Indoors,Field Turf,N/A (Indoors),,0,,
4569,2019090804,20190908040392,home,72.32,43.89,6.02,2.74,0.59,89.93,84.61,2541785,Adam Thielen,19,2019,40,1,09:17:00,MIN,2,9,ATL,7,0,2557991,I_FORM,"2 RB, 2 TE, 1 WR",8,"4 DL, 3 LB, 4 DB",right,2019-09-08T17:18:12.000Z,2019-09-08T17:18:11.000Z,6-2,200,08/22/1990,Minn. State-Mankato,WR,MIN,ATL,1,U.S. Bank Stadium,"Minneapolis, MN",Indoors,Field Turf,N/A (Indoors),,0,,
4570,2019090804,20190908040392,home,66.78,26.75,4.23,2.64,0.42,131.99,134.85,2556803,C.J. Ham,30,2019,40,1,09:17:00,MIN,2,9,ATL,7,0,2557991,I_FORM,"2 RB, 2 TE, 1 WR",8,"4 DL, 3 LB, 4 DB",right,2019-09-08T17:18:12.000Z,2019-09-08T17:18:11.000Z,5-11,235,07/22/1993,"Augustana, S.D.",FB,MIN,ATL,1,U.S. Bank Stadium,"Minneapolis, MN",Indoors,Field Turf,N/A (Indoors),,0,,
4571,2019090804,20190908040392,home,62.94,27.07,5.45,2.45,0.53,117.38,162.88,2557991,Dalvin Cook,33,2019,40,1,09:17:00,MIN,2,9,ATL,7,0,2557991,I_FORM,"2 RB, 2 TE, 1 WR",8,"4 DL, 3 LB, 4 DB",right,2019-09-08T17:18:12.000Z,2019-09-08T17:18:11.000Z,5-10,210,08/10/1995,Florida State,RB,MIN,ATL,1,U.S. Bank Stadium,"Minneapolis, MN",Indoors,Field Turf,N/A (Indoors),,0,,
4572,2019090804,20190908040392,home,68.7,28.42,2.28,1.66,0.24,167.0,181.57,2558848,Pat Elflein,65,2019,40,1,09:17:00,MIN,2,9,ATL,7,0,2557991,I_FORM,"2 RB, 2 TE, 1 WR",8,"4 DL, 3 LB, 4 DB",right,2019-09-08T17:18:12.000Z,2019-09-08T17:18:11.000Z,6-3,303,07/06/1994,Ohio State,G,MIN,ATL,1,U.S. Bank Stadium,"Minneapolis, MN",Indoors,Field Turf,N/A (Indoors),,0,,
4573,2019090804,20190908040392,home,68.42,28.17,1.5,1.14,0.16,345.33,309.69,2560831,Brian O'Neill,75,2019,40,1,09:17:00,MIN,2,9,ATL,7,0,2557991,I_FORM,"2 RB, 2 TE, 1 WR",8,"4 DL, 3 LB, 4 DB",right,2019-09-08T17:18:12.000Z,2019-09-08T17:18:11.000Z,6-7,297,09/15/1995,Pittsburgh,T,MIN,ATL,1,U.S. Bank Stadium,"Minneapolis, MN",Indoors,Field Turf,N/A (Indoors),,0,,
4574,2019090804,20190908040392,home,71.06,27.17,3.63,0.34,0.37,63.97,142.68,2562632,Garrett Bradbury,56,2019,40,1,09:17:00,MIN,2,9,ATL,7,0,2557991,I_FORM,"2 RB, 2 TE, 1 WR",8,"4 DL, 3 LB, 4 DB",right,2019-09-08T17:18:12.000Z,2019-09-08T17:18:11.000Z,6-3,305,06/20/1995,North Carolina State,C,MIN,ATL,1,U.S. Bank Stadium,"Minneapolis, MN",Indoors,Field Turf,N/A (Indoors),,0,,
4575,2019090804,20190908040392,home,69.22,32.05,4.5,1.75,0.44,112.16,141.79,2562738,Irv Smith,84,2019,40,1,09:17:00,MIN,2,9,ATL,7,0,2557991,I_FORM,"2 RB, 2 TE, 1 WR",8,"4 DL, 3 LB, 4 DB",right,2019-09-08T17:18:12.000Z,2019-09-08T17:18:11.000Z,6-2,240,08/09/1998,Alabama,TE,MIN,ATL,1,U.S. Bank Stadium,"Minneapolis, MN",Indoors,Field Turf,N/A (Indoors),,0,,
