,GameId,PlayId,Team,X,Y,S,A,Dis,Orientation,Dir,NflId,DisplayName,JerseyNumber,Season,YardLine,Quarter,GameClock,PossessionTeam,Down,Distance,FieldPosition,HomeScoreBeforePlay,VisitorScoreBeforePlay,NflIdRusher,OffenseFormation,OffensePersonnel,DefendersInTheBox,DefensePersonnel,PlayDirection,TimeHandoff,TimeSnap,PlayerHeight,PlayerWeight,PlayerBirthDate,PlayerCollegeName,Position,HomeTeamAbbr,VisitorTeamAbbr,Week,Stadium,Location,StadiumType,Turf,GameWeather,Temperature,Humidity,WindSpeed,WindDirection
19756,2019091503,20190915034078,away,88.48,19.79,3.3,1.23,0.34,22.92,59.89,496790,Everson Griffen,97,2019,23,4,02:27:00,GB,2,8,GB,21,16,2558116,SINGLEBACK,"1 RB, 2 TE, 2 WR",7,"4 DL, 3 LB, 4 DB",left,2019-09-15T20:09:54.000Z,2019-09-15T20:09:52.000Z,6-3,273,12/22/1987,Southern California,DE,GB,MIN,2,Lambeau Field,"Green Bay, WI",Outdoor,SISGrass,Cloudy,72.0,75,5,South
19757,2019091503,20190915034078,away,85.92,25.13,2.25,1.38,0.22,41.54,337.31,496802,Linval Joseph,98,2019,23,4,02:27:00,GB,2,8,GB,21,16,2558116,SINGLEBACK,"1 RB, 2 TE, 2 WR",7,"4 DL, 3 LB, 4 DB",left,2019-09-15T20:09:54.000Z,2019-09-15T20:09:52.000Z,6-4,329,10/10/1988,East Carolina,DT,GB,MIN,2,Lambeau Field,"Green Bay, WI",Outdoor,SISGrass,Cloudy,72.0,75,5,South
19758,2019091503,20190915034078,away,70.16,17.93,3.16,1.31,0.32,75.11,261.15,2532948,Harrison Smith,22,2019,23,4,02:27:00,GB,2,8,GB,21,16,2558116,SINGLEBACK,"1 RB, 2 TE, 2 WR",7,"4 DL, 3 LB, 4 DB",left,2019-09-15T20:09:54.000Z,2019-09-15T20:09:52.000Z,6-2,214,02/02/1989,Notre Dame,FS,GB,MIN,2,Lambeau Field,"Green Bay, WI",Outdoor,SISGrass,Cloudy,72.0,75,5,South
19759,2019091503,20190915034078,away,83.98,37.06,1.64,1.57,0.16,138.14,352.57,2540155,Xavier Rhodes,29,2019,23,4,02:27:00,GB,2,8,GB,21,16,2558116,SINGLEBACK,"1 RB, 2 TE, 2 WR",7,"4 DL, 3 LB, 4 DB",left,2019-09-15T20:09:54.000Z,2019-09-15T20:09:52.000Z,6-1,218,06/19/1990,Florida State,CB,GB,MIN,2,Lambeau Field,"Green Bay, WI",Outdoor,SISGrass,Cloudy,72.0,75,5,South
19760,2019091503,20190915034078,away,84.94,23.68,4.17,3.88,0.4,50.75,359.71,2543459,Anthony Barr,55,2019,23,4,02:27:00,GB,2,8,GB,21,16,2558116,SINGLEBACK,"1 RB, 2 TE, 2 WR",7,"4 DL, 3 LB, 4 DB",left,2019-09-15T20:09:54.000Z,2019-09-15T20:09:52.000Z,6-5,255,03/18/1992,UCLA,OLB,GB,MIN,2,Lambeau Field,"Green Bay, WI",Outdoor,SISGrass,Cloudy,72.0,75,5,South
19761,2019091503,20190915034078,away,85.89,28.51,4.28,2.22,0.42,76.25,346.84,2543706,Shamar Stephen,93,2019,23,4,02:27:00,GB,2,8,GB,21,16,2558116,SINGLEBACK,"1 RB, 2 TE, 2 WR",7,"4 DL, 3 LB, 4 DB",left,2019-09-15T20:09:54.000Z,2019-09-15T20:09:52.000Z,6-5,310,02/25/1991,Connecticut,NT,GB,MIN,2,Lambeau Field,"Green Bay, WI",Outdoor,SISGrass,Cloudy,72.0,75,5,South
19762,2019091503,20190915034078,away,83.57,27.93,5.03,3.39,0.49,45.52,9.8,2552312,Eric Kendricks,54,2019,23,4,02:27:00,GB,2,8,GB,21,16,2558116,SINGLEBACK,"1 RB, 2 TE, 2 WR",7,"4 DL, 3 LB, 4 DB",left,2019-09-15T20:09:54.000Z,2019-09-15T20:09:52.000Z,6-0,232,02/29/1992,UCLA,MLB,GB,MIN,2,Lambeau Field,"Green Bay, WI",Outdoor,SISGrass,Cloudy,72.0,75,5,South
19763,2019091503,20190915034078,away,84.64,14.95,1.16,1.99,0.11,54.44,264.45,2552448,Trae Waynes,26,2019,23,4,02:27:00,GB,2,8,GB,21,16,2558116,SINGLEBACK,"1 RB, 2 TE, 2 WR",7,"4 DL, 3 LB, 4 DB",left,2019-09-15T20:09:54.000Z,2019-09-15T20:09:52.000Z,6-0,190,07/25/1992,Michigan State,CB,GB,MIN,2,Lambeau Field,"Green Bay, WI",Outdoor,SISGrass,Cloudy,72.0,75,5,South
19764,2019091503,20190915034078,away,86.53,31.36,3.53,1.24,0.38,66.01,0.18,2552603,Danielle Hunter,99,2019,23,4,02:27:00,GB,2,8,GB,21,16,2558116,SINGLEBACK,"1 RB, 2 TE, 2 WR",7,"4 DL, 3 LB, 4 DB",left,2019-09-15T20:09:54.000Z,2019-09-15T20:09:52.000Z,6-5,252,10/29/1994,Louisiana State,DE,GB,MIN,2,Lambeau Field,"Green Bay, WI",Outdoor,SISGrass,Cloudy,72.0,75,5,South
19765,2019091503,20190915034078,away,73.63,32.36,4.31,1.71,0.43,87.24,320.42,2553655,Anthony Harris,41,2019,23,4,02:27:00,GB,2,8,GB,21,16,2558116,SINGLEBACK,"1 RB, 2 TE, 2 WR",7,"4 DL, 3 LB, 4 DB",left,2019-09-15T20:09:54.000Z,2019-09-15T20:09:52.000Z,6-1,202,10/09/1991,Virginia,FS,GB,MIN,2,Lambeau Field,"Green Bay, WI",Outdoor,SISGrass,Cloudy,72.0,75,5,South
19766,2019091503,20190915034078,away,86.79,32.54,3.62,2.64,0.36,77.44,9.45,2559012,Eric Wilson,50,2019,23,4,02:27:00,GB,2,8,GB,21,16,2558116,SINGLEBACK,"1 RB, 2 TE, 2 WR",7,"4 DL, 3 LB, 4 DB",left,2019-09-15T20:09:54.000Z,2019-09-15T20:09:52.000Z,6-1,230,09/26/1994,Cincinnati,OLB,GB,MIN,2,Lambeau Field,"Green Bay, WI",Outdoor,SISGrass,Cloudy,72.0,75,5,South
19767,2019091503,20190915034078,home,87.69,30.33,4.39,0.83,0.44,311.52,343.71,496988,Bryan Bulaga,75,2019,23,4,02:27:00,GB,2,8,GB,21,16,2558116,SINGLEBACK,"1 RB, 2 TE, 2 WR",7,"4 DL, 3 LB, 4 DB",left,2019-09-15T20:09:54.000Z,2019-09-15T20:09:52.000Z,6-5,314,03/21/1989,Iowa,OT,GB,MIN,2,Lambeau Field,"Green Bay, WI",Outdoor,SISGrass,Cloudy,72.0,75,5,South
19768,2019091503,20190915034078,home,87.49,31.26,4.94,1.96,0.48,277.29,347.64,2495888,Marcedes Lewis,89,2019,23,4,02:27:00,GB,2,8,GB,21,16,2558116,SINGLEBACK,"1 RB, 2 TE, 2 WR",7,"4 DL, 3 LB, 4 DB",left,2019-09-15T20:09:54.000Z,2019-09-15T20:09:52.000Z,6-6,267,05/19/1984,UCLA,TE,GB,MIN,2,Lambeau Field,"Green Bay, WI",Outdoor,SISGrass,Cloudy,72.0,75,5,South
19769,2019091503,20190915034078,home,90.44,25.48,2.85,1.29,0.29,29.82,62.86,2506363,Aaron Rodgers,12,2019,23,4,02:27:00,GB,2,8,GB,21,16,2558116,SINGLEBACK,"1 RB, 2 TE, 2 WR",7,"4 DL, 3 LB, 4 DB",left,2019-09-15T20:09:54.000Z,2019-09-15T20:09:52.000Z,6-2,225,12/02/1983,California,QB,GB,MIN,2,Lambeau Field,"Green Bay, WI",Outdoor,SISGrass,Cloudy,72.0,75,5,South
19770,2019091503,20190915034078,home,88.23,20.8,1.11,1.77,0.11,158.45,49.11,2540183,David Bakhtiari,69,2019,23,4,02:27:00,GB,2,8,GB,21,16,2558116,SINGLEBACK,"1 RB, 2 TE, 2 WR",7,"4 DL, 3 LB, 4 DB",left,2019-09-15T20:09:54.000Z,2019-09-15T20:09:52.000Z,6-4,310,09/30/1991,Colorado,T,GB,MIN,2,Lambeau Field,"Green Bay, WI",Outdoor,SISGrass,Cloudy,72.0,75,5,South
19771,2019091503,20190915034078,home,87.06,25.31,3.19,0.99,0.34,280.16,340.88,2541898,Lane Taylor,65,2019,23,4,02:27:00,GB,2,8,GB,21,16,2558116,SINGLEBACK,"1 RB, 2 TE, 2 WR",7,"4 DL, 3 LB, 4 DB",left,2019-09-15T20:09:54.000Z,2019-09-15T20:09:52.000Z,6-3,324,11/22/1989,Oklahoma State,G,GB,MIN,2,Lambeau Field,"Green Bay, WI",Outdoor,SISGrass,Cloudy,72.0,75,5,South
19772,2019091503,20190915034078,home,86.02,36.59,3.75,0.6,0.37,294.11,287.36,2543495,Davante Adams,17,2019,23,4,02:27:00,GB,2,8,GB,21,16,2558116,SINGLEBACK,"1 RB, 2 TE, 2 WR",7,"4 DL, 3 LB, 4 DB",left,2019-09-15T20:09:54.000Z,2019-09-15T20:09:52.000Z,6-1,215,12/24/1992,Fresno State,WR,GB,MIN,2,Lambeau Field,"Green Bay, WI",Outdoor,SISGrass,Cloudy,72.0,75,5,South
19773,2019091503,20190915034078,home,86.52,25.77,2.34,0.38,0.26,257.81,337.68,2543631,Corey Linsley,63,2019,23,4,02:27:00,GB,2,8,GB,21,16,2558116,SINGLEBACK,"1 RB, 2 TE, 2 WR",7,"4 DL, 3 LB, 4 DB",left,2019-09-15T20:09:54.000Z,2019-09-15T20:09:52.000Z,6-3,301,07/27/1991,Ohio State,C,GB,MIN,2,Lambeau Field,"Green Bay, WI",Outdoor,SISGrass,Cloudy,72.0,75,5,South
19774,2019091503,20190915034078,home,86.75,28.42,4.18,0.72,0.42,303.1,333.85,2543740,Billy Turner,77,2019,23,4,02:27:00,GB,2,8,GB,21,16,2558116,SINGLEBACK,"1 RB, 2 TE, 2 WR",7,"4 DL, 3 LB, 4 DB",left,2019-09-15T20:09:54.000Z,2019-09-15T20:09:52.000Z,6-5,310,10/17/1991,North Dakota State,OG,GB,MIN,2,Lambeau Field,"Green Bay, WI",Outdoor,SISGrass,Cloudy,72.0,75,5,South
19775,2019091503,20190915034078,home,93.11,27.59,6.29,1.44,0.62,300.95,342.53,2558116,Aaron Jones,33,2019,23,4,02:27:00,GB,2,8,GB,21,16,2558116,SINGLEBACK,"1 RB, 2 TE, 2 WR",7,"4 DL, 3 LB, 4 DB",left,2019-09-15T20:09:54.000Z,2019-09-15T20:09:52.000Z,5-9,208,12/02/1994,Texas-El Paso,RB,GB,MIN,2,Lambeau Field,"Green Bay, WI",Outdoor,SISGrass,Cloudy,72.0,75,5,South
19776,2019091503,20190915034078,home,87.9,32.64,4.45,1.52,0.44,235.79,341.34,2559270,Robert Tonyan,85,2019,23,4,02:27:00,GB,2,8,GB,21,16,2558116,SINGLEBACK,"1 RB, 2 TE, 2 WR",7,"4 DL, 3 LB, 4 DB",left,2019-09-15T20:09:54.000Z,2019-09-15T20:09:52.000Z,6-5,237,04/30/1994,Indiana State,TE,GB,MIN,2,Lambeau Field,"Green Bay, WI",Outdoor,SISGrass,Cloudy,72.0,75,5,South
19777,2019091503,20190915034078,home,85.55,15.27,2.87,1.53,0.29,243.15,271.34,2560907,Marquez Valdes-Scantling,83,2019,23,4,02:27:00,GB,2,8,GB,21,16,2558116,SINGLEBACK,"1 RB, 2 TE, 2 WR",7,"4 DL, 3 LB, 4 DB",left,2019-09-15T20:09:54.000Z,2019-09-15T20:09:52.000Z,6-4,207,10/10/1994,South Florida,WR,GB,MIN,2,Lambeau Field,"Green Bay, WI",Outdoor,SISGrass,Cloudy,72.0,75,5,South
