,GameId,PlayId,Team,X,Y,S,A,Dis,Orientation,Dir,NflId,DisplayName,JerseyNumber,Season,YardLine,Quarter,GameClock,PossessionTeam,Down,Distance,FieldPosition,HomeScoreBeforePlay,VisitorScoreBeforePlay,NflIdRusher,OffenseFormation,OffensePersonnel,DefendersInTheBox,DefensePersonnel,PlayDirection,TimeHandoff,TimeSnap,PlayerHeight,PlayerWeight,PlayerBirthDate,PlayerCollegeName,Position,HomeTeamAbbr,VisitorTeamAbbr,Week,Stadium,Location,StadiumType,Turf,GameWeather,Temperature,Humidity,WindSpeed,WindDirection
2926,2019090802,20190908021973,away,35.37,23.47,3.35,1.03,0.34,282.23,173.5,2539319,Alex Okafor,97,2019,25,3,15:00:00,JAX,1,10,JAX,13,23,2557973,SINGLEBACK,"1 RB, 1 TE, 3 WR",7,"4 DL, 2 LB, 5 DB",right,2019-09-08T18:42:49.000Z,2019-09-08T18:42:48.000Z,6-4,260,02/08/1991,Texas,DE,JAX,KC,1,TIAA Bank Field,"Jacksonville, FL",Open,Grass,Clear,91.0,54,6mph,WSW
2927,2019090802,20190908021973,away,44.91,36.83,4.52,2.3,0.46,286.48,82.73,2540180,Tyrann Mathieu,32,2019,25,3,15:00:00,JAX,1,10,JAX,13,23,2557973,SINGLEBACK,"1 RB, 1 TE, 3 WR",7,"4 DL, 2 LB, 5 DB",right,2019-09-08T18:42:49.000Z,2019-09-08T18:42:48.000Z,5-9,190,05/13/1992,Louisiana State,FS,JAX,KC,1,TIAA Bank Field,"Jacksonville, FL",Open,Grass,Clear,91.0,54,6mph,WSW
2928,2019090802,20190908021973,away,36.46,8.94,2.37,1.63,0.23,260.33,118.19,2543571,Bashaud Breeland,21,2019,25,3,15:00:00,JAX,1,10,JAX,13,23,2557973,SINGLEBACK,"1 RB, 1 TE, 3 WR",7,"4 DL, 2 LB, 5 DB",right,2019-09-08T18:42:49.000Z,2019-09-08T18:42:48.000Z,5-11,195,01/30/1992,Clemson,CB,JAX,KC,1,TIAA Bank Field,"Jacksonville, FL",Open,Grass,Clear,91.0,54,6mph,WSW
2929,2019090802,20190908021973,away,37.79,25.02,4.77,1.48,0.47,253.05,212.54,2543592,Anthony Hitchens,53,2019,25,3,15:00:00,JAX,1,10,JAX,13,23,2557973,SINGLEBACK,"1 RB, 1 TE, 3 WR",7,"4 DL, 2 LB, 5 DB",right,2019-09-08T18:42:49.000Z,2019-09-08T18:42:48.000Z,6-0,235,06/10/1992,Iowa,MLB,JAX,KC,1,TIAA Bank Field,"Jacksonville, FL",Open,Grass,Clear,91.0,54,6mph,WSW
2930,2019090802,20190908021973,away,34.06,32.04,4.13,1.49,0.42,247.97,193.56,2552629,Frank Clark,55,2019,25,3,15:00:00,JAX,1,10,JAX,13,23,2557973,SINGLEBACK,"1 RB, 1 TE, 3 WR",7,"4 DL, 2 LB, 5 DB",right,2019-09-08T18:42:49.000Z,2019-09-08T18:42:48.000Z,6-3,260,06/14/1993,Michigan,DE,JAX,KC,1,TIAA Bank Field,"Jacksonville, FL",Open,Grass,Clear,91.0,54,6mph,WSW
2931,2019090802,20190908021973,away,38.22,27.12,5.04,1.99,0.49,243.48,201.9,2552686,Damien Wilson,54,2019,25,3,15:00:00,JAX,1,10,JAX,13,23,2557973,SINGLEBACK,"1 RB, 1 TE, 3 WR",7,"4 DL, 2 LB, 5 DB",right,2019-09-08T18:42:49.000Z,2019-09-08T18:42:48.000Z,6-0,243,05/28/1993,Minnesota,OLB,JAX,KC,1,TIAA Bank Field,"Jacksonville, FL",Open,Grass,Clear,91.0,54,6mph,WSW
2932,2019090802,20190908021973,away,38.08,19.67,1.88,3.72,0.17,281.15,204.26,2555349,Kendall Fuller,29,2019,25,3,15:00:00,JAX,1,10,JAX,13,23,2557973,SINGLEBACK,"1 RB, 1 TE, 3 WR",7,"4 DL, 2 LB, 5 DB",right,2019-09-08T18:42:49.000Z,2019-09-08T18:42:48.000Z,5-11,198,02/13/1995,Virginia Tech,CB,JAX,KC,1,TIAA Bank Field,"Jacksonville, FL",Open,Grass,Clear,91.0,54,6mph,WSW
2933,2019090802,20190908021973,away,34.35,26.87,2.25,1.88,0.23,263.34,190.97,2556369,Chris Jones,95,2019,25,3,15:00:00,JAX,1,10,JAX,13,23,2557973,SINGLEBACK,"1 RB, 1 TE, 3 WR",7,"4 DL, 2 LB, 5 DB",right,2019-09-08T18:42:49.000Z,2019-09-08T18:42:48.000Z,6-6,308,07/03/1994,Mississippi State,DT,JAX,KC,1,TIAA Bank Field,"Jacksonville, FL",Open,Grass,Clear,91.0,54,6mph,WSW
2934,2019090802,20190908021973,away,34.39,28.23,3.39,2.11,0.33,248.95,184.78,2560823,Derrick Nnadi,91,2019,25,3,15:00:00,JAX,1,10,JAX,13,23,2557973,SINGLEBACK,"1 RB, 1 TE, 3 WR",7,"4 DL, 2 LB, 5 DB",right,2019-09-08T18:42:49.000Z,2019-09-08T18:42:48.000Z,6-1,310,05/09/1996,Florida State,NT,JAX,KC,1,TIAA Bank Field,"Jacksonville, FL",Open,Grass,Clear,91.0,54,6mph,WSW
2935,2019090802,20190908021973,away,35.87,43.63,1.88,3.17,0.18,233.84,144.93,2561417,Charvarius Ward,35,2019,25,3,15:00:00,JAX,1,10,JAX,13,23,2557973,SINGLEBACK,"1 RB, 1 TE, 3 WR",7,"4 DL, 2 LB, 5 DB",right,2019-09-08T18:42:49.000Z,2019-09-08T18:42:48.000Z,6-1,195,05/16/1996,Middle Tennessee,DB,JAX,KC,1,TIAA Bank Field,"Jacksonville, FL",Open,Grass,Clear,91.0,54,6mph,WSW
2936,2019090802,20190908021973,away,50.82,21.8,4.63,1.06,0.46,224.88,172.88,2562761,Juan Thornhill,22,2019,25,3,15:00:00,JAX,1,10,JAX,13,23,2557973,SINGLEBACK,"1 RB, 1 TE, 3 WR",7,"4 DL, 2 LB, 5 DB",right,2019-09-08T18:42:49.000Z,2019-09-08T18:42:48.000Z,6-0,205,10/19/1995,Virginia,DB,JAX,KC,1,TIAA Bank Field,"Jacksonville, FL",Open,Grass,Clear,91.0,54,6mph,WSW
2937,2019090802,20190908021973,home,33.72,26.89,3.61,0.96,0.37,123.84,188.17,2543729,Brandon Linder,65,2019,25,3,15:00:00,JAX,1,10,JAX,13,23,2557973,SINGLEBACK,"1 RB, 1 TE, 3 WR",7,"4 DL, 2 LB, 5 DB",right,2019-09-08T18:42:49.000Z,2019-09-08T18:42:48.000Z,6-6,315,01/25/1992,Miami,C,JAX,KC,1,TIAA Bank Field,"Jacksonville, FL",Open,Grass,Clear,91.0,54,6mph,WSW
2938,2019090802,20190908021973,home,33.49,28.0,3.66,1.46,0.37,146.33,189.67,2550589,Andrew Norwell,68,2019,25,3,15:00:00,JAX,1,10,JAX,13,23,2557973,SINGLEBACK,"1 RB, 1 TE, 3 WR",7,"4 DL, 2 LB, 5 DB",right,2019-09-08T18:42:49.000Z,2019-09-08T18:42:48.000Z,6-6,325,10/25/1991,Ohio State,G,JAX,KC,1,TIAA Bank Field,"Jacksonville, FL",Open,Grass,Clear,91.0,54,6mph,WSW
2939,2019090802,20190908021973,home,34.19,25.89,2.84,0.69,0.3,32.81,170.35,2552330,A.J. Cann,60,2019,25,3,15:00:00,JAX,1,10,JAX,13,23,2557973,SINGLEBACK,"1 RB, 1 TE, 3 WR",7,"4 DL, 2 LB, 5 DB",right,2019-09-08T18:42:49.000Z,2019-09-08T18:42:48.000Z,6-3,325,10/23/1991,South Carolina,G,JAX,KC,1,TIAA Bank Field,"Jacksonville, FL",Open,Grass,Clear,91.0,54,6mph,WSW
2940,2019090802,20190908021973,home,35.1,41.89,4.11,2.93,0.4,116.23,155.67,2552652,Chris Conley,18,2019,25,3,15:00:00,JAX,1,10,JAX,13,23,2557973,SINGLEBACK,"1 RB, 1 TE, 3 WR",7,"4 DL, 2 LB, 5 DB",right,2019-09-08T18:42:49.000Z,2019-09-08T18:42:48.000Z,6-3,205,10/25/1992,Georgia,WR,JAX,KC,1,TIAA Bank Field,"Jacksonville, FL",Open,Grass,Clear,91.0,54,6mph,WSW
2941,2019090802,20190908021973,home,35.0,23.16,3.59,0.24,0.35,111.33,158.64,2553318,James O'Shaughnessy,80,2019,25,3,15:00:00,JAX,1,10,JAX,13,23,2557973,SINGLEBACK,"1 RB, 1 TE, 3 WR",7,"4 DL, 2 LB, 5 DB",right,2019-09-08T18:42:49.000Z,2019-09-08T18:42:48.000Z,6-4,245,01/14/1992,Illinois State,TE,JAX,KC,1,TIAA Bank Field,"Jacksonville, FL",Open,Grass,Clear,91.0,54,6mph,WSW
2942,2019090802,20190908021973,home,34.87,18.6,2.88,2.11,0.28,107.72,88.58,2557895,Dede Westbrook,12,2019,25,3,15:00:00,JAX,1,10,JAX,13,23,2557973,SINGLEBACK,"1 RB, 1 TE, 3 WR",7,"4 DL, 2 LB, 5 DB",right,2019-09-08T18:42:49.000Z,2019-09-08T18:42:48.000Z,6-0,176,11/21/1993,Oklahoma,WR,JAX,KC,1,TIAA Bank Field,"Jacksonville, FL",Open,Grass,Clear,91.0,54,6mph,WSW
2943,2019090802,20190908021973,home,29.46,26.9,5.66,2.26,0.55,120.05,147.02,2557973,Leonard Fournette,27,2019,25,3,15:00:00,JAX,1,10,JAX,13,23,2557973,SINGLEBACK,"1 RB, 1 TE, 3 WR",7,"4 DL, 2 LB, 5 DB",right,2019-09-08T18:42:49.000Z,2019-09-08T18:42:48.000Z,6-0,228,01/18/1995,Louisiana State,RB,JAX,KC,1,TIAA Bank Field,"Jacksonville, FL",Open,Grass,Clear,91.0,54,6mph,WSW
2944,2019090802,20190908021973,home,34.96,30.46,3.6,1.07,0.36,103.55,152.73,2560853,Will Richardson,76,2019,25,3,15:00:00,JAX,1,10,JAX,13,23,2557973,SINGLEBACK,"1 RB, 1 TE, 3 WR",7,"4 DL, 2 LB, 5 DB",right,2019-09-08T18:42:49.000Z,2019-09-08T18:42:48.000Z,6-6,303,01/04/1996,North Carolina State,T,JAX,KC,1,TIAA Bank Field,"Jacksonville, FL",Open,Grass,Clear,91.0,54,6mph,WSW
2945,2019090802,20190908021973,home,34.86,8.92,3.82,3.31,0.37,104.69,121.41,2561018,D.J. Chark,17,2019,25,3,15:00:00,JAX,1,10,JAX,13,23,2557973,SINGLEBACK,"1 RB, 1 TE, 3 WR",7,"4 DL, 2 LB, 5 DB",right,2019-09-08T18:42:49.000Z,2019-09-08T18:42:48.000Z,6-4,198,09/23/1996,Louisiana State,WR,JAX,KC,1,TIAA Bank Field,"Jacksonville, FL",Open,Grass,Clear,91.0,54,6mph,WSW
2946,2019090802,20190908021973,home,34.79,24.13,2.93,0.32,0.3,111.51,156.11,2562756,Jawaan Taylor,75,2019,25,3,15:00:00,JAX,1,10,JAX,13,23,2557973,SINGLEBACK,"1 RB, 1 TE, 3 WR",7,"4 DL, 2 LB, 5 DB",right,2019-09-08T18:42:49.000Z,2019-09-08T18:42:48.000Z,6-5,312,11/25/1997,Florida,T,JAX,KC,1,TIAA Bank Field,"Jacksonville, FL",Open,Grass,Clear,91.0,54,6mph,WSW
2947,2019090802,20190908021973,home,30.22,27.73,5.65,0.74,0.55,209.25,238.1,2562796,Gardner Minshew,15,2019,25,3,15:00:00,JAX,1,10,JAX,13,23,2557973,SINGLEBACK,"1 RB, 1 TE, 3 WR",7,"4 DL, 2 LB, 5 DB",right,2019-09-08T18:42:49.000Z,2019-09-08T18:42:48.000Z,6-1,225,05/16/1996,Washington State,QB,JAX,KC,1,TIAA Bank Field,"Jacksonville, FL",Open,Grass,Clear,91.0,54,6mph,WSW
