,GameId,PlayId,Team,X,Y,S,A,Dis,Orientation,Dir,NflId,DisplayName,JerseyNumber,Season,YardLine,Quarter,GameClock,PossessionTeam,Down,Distance,FieldPosition,HomeScoreBeforePlay,VisitorScoreBeforePlay,NflIdRusher,OffenseFormation,OffensePersonnel,DefendersInTheBox,DefensePersonnel,PlayDirection,TimeHandoff,TimeSnap,PlayerHeight,PlayerWeight,PlayerBirthDate,PlayerCollegeName,Position,HomeTeamAbbr,VisitorTeamAbbr,Week,Stadium,Location,StadiumType,Turf,GameWeather,Temperature,Humidity,WindSpeed,WindDirection
990,2019090800,20190908001241,away,58.61,17.14,2.92,0.62,0.29,118.18,218.21,1302,Aqib Talib,21,2019,45,2,12:04:00,CAR,1,10,CAR,0,10,2557997,SHOTGUN,"1 RB, 2 TE, 2 WR",7,"4 DL, 3 LB, 4 DB",left,2019-09-08T17:57:06.000Z,2019-09-08T17:57:05.000Z,6-1,209,02/13/1986,Kansas,CB,CAR,LA,1,Bank of America Stadium,Charlotte North Carolina,Outdoor,Grass,Sunny,87.0,53,3,NNE
991,2019090800,20190908001241,away,65.09,33.98,2.32,1.9,0.23,163.38,180.35,80431,Clay Matthews,52,2019,45,2,12:04:00,CAR,1,10,CAR,0,10,2557997,SHOTGUN,"1 RB, 2 TE, 2 WR",7,"4 DL, 3 LB, 4 DB",left,2019-09-08T17:57:06.000Z,2019-09-08T17:57:05.000Z,6-3,255,05/14/1986,Southern California,OLB,CAR,LA,1,Bank of America Stadium,Charlotte North Carolina,Outdoor,Grass,Sunny,87.0,53,3,NNE
992,2019090800,20190908001241,away,51.36,23.8,0.86,2.05,0.08,78.85,3.54,2495775,Eric Weddle,32,2019,45,2,12:04:00,CAR,1,10,CAR,0,10,2557997,SHOTGUN,"1 RB, 2 TE, 2 WR",7,"4 DL, 3 LB, 4 DB",left,2019-09-08T17:57:06.000Z,2019-09-08T17:57:05.000Z,5-11,195,01/04/1985,Utah,FS,CAR,LA,1,Bank of America Stadium,Charlotte North Carolina,Outdoor,Grass,Sunny,87.0,53,3,NNE
993,2019090800,20190908001241,away,62.31,30.75,1.88,0.48,0.19,66.92,127.92,2552307,Bryce Hager,54,2019,45,2,12:04:00,CAR,1,10,CAR,0,10,2557997,SHOTGUN,"1 RB, 2 TE, 2 WR",7,"4 DL, 3 LB, 4 DB",left,2019-09-08T17:57:06.000Z,2019-09-08T17:57:05.000Z,6-1,237,05/04/1992,Baylor,ILB,CAR,LA,1,Bank of America Stadium,Charlotte North Carolina,Outdoor,Grass,Sunny,87.0,53,3,NNE
994,2019090800,20190908001241,away,54.01,10.85,3.77,1.69,0.37,15.6,300.36,2552488,Marcus Peters,22,2019,45,2,12:04:00,CAR,1,10,CAR,0,10,2557997,SHOTGUN,"1 RB, 2 TE, 2 WR",7,"4 DL, 3 LB, 4 DB",left,2019-09-08T17:57:06.000Z,2019-09-08T17:57:05.000Z,6-0,197,01/09/1993,Washington,CB,CAR,LA,1,Bank of America Stadium,Charlotte North Carolina,Outdoor,Grass,Sunny,87.0,53,3,NNE
995,2019090800,20190908001241,away,65.05,23.41,0.34,1.92,0.04,12.12,357.79,2553431,Dante Fowler,56,2019,45,2,12:04:00,CAR,1,10,CAR,0,10,2557997,SHOTGUN,"1 RB, 2 TE, 2 WR",7,"4 DL, 3 LB, 4 DB",left,2019-09-08T17:57:06.000Z,2019-09-08T17:57:05.000Z,6-3,255,08/03/1994,Florida,OLB,CAR,LA,1,Bank of America Stadium,Charlotte North Carolina,Outdoor,Grass,Sunny,87.0,53,3,NNE
996,2019090800,20190908001241,away,64.78,29.76,0.78,1.39,0.07,94.89,141.47,2556529,Morgan Fox,97,2019,45,2,12:04:00,CAR,1,10,CAR,0,10,2557997,SHOTGUN,"1 RB, 2 TE, 2 WR",7,"4 DL, 3 LB, 4 DB",left,2019-09-08T17:57:06.000Z,2019-09-08T17:57:05.000Z,6-3,275,09/12/1994,Colorado State-Pueblo,DE,CAR,LA,1,Bank of America Stadium,Charlotte North Carolina,Outdoor,Grass,Sunny,87.0,53,3,NNE
997,2019090800,20190908001241,away,61.37,26.48,0.97,0.65,0.09,81.42,110.84,2556593,Cory Littleton,58,2019,45,2,12:04:00,CAR,1,10,CAR,0,10,2557997,SHOTGUN,"1 RB, 2 TE, 2 WR",7,"4 DL, 3 LB, 4 DB",left,2019-09-08T17:57:06.000Z,2019-09-08T17:57:05.000Z,6-3,228,11/18/1993,Washington,ILB,CAR,LA,1,Bank of America Stadium,Charlotte North Carolina,Outdoor,Grass,Sunny,87.0,53,3,NNE
998,2019090800,20190908001241,away,58.34,34.59,2.13,3.01,0.2,131.86,164.37,2558183,John Johnson,43,2019,45,2,12:04:00,CAR,1,10,CAR,0,10,2557997,SHOTGUN,"1 RB, 2 TE, 2 WR",7,"4 DL, 3 LB, 4 DB",left,2019-09-08T17:57:06.000Z,2019-09-08T17:57:05.000Z,6-0,209,12/19/1995,Boston College,SS,CAR,LA,1,Bank of America Stadium,Charlotte North Carolina,Outdoor,Grass,Sunny,87.0,53,3,NNE
999,2019090800,20190908001241,away,64.92,24.72,0.74,0.87,0.05,50.72,135.18,2558199,Tanzel Smart,92,2019,45,2,12:04:00,CAR,1,10,CAR,0,10,2557997,SHOTGUN,"1 RB, 2 TE, 2 WR",7,"4 DL, 3 LB, 4 DB",left,2019-09-08T17:57:06.000Z,2019-09-08T17:57:05.000Z,6-1,295,11/06/1994,Tulane,DT,CAR,LA,1,Bank of America Stadium,Charlotte North Carolina,Outdoor,Grass,Sunny,87.0,53,3,NNE
1000,2019090800,20190908001241,away,64.83,26.85,1.54,0.87,0.15,37.52,171.05,2561079,Sebastian Joseph-Day,69,2019,45,2,12:04:00,CAR,1,10,CAR,0,10,2557997,SHOTGUN,"1 RB, 2 TE, 2 WR",7,"4 DL, 3 LB, 4 DB",left,2019-09-08T17:57:06.000Z,2019-09-08T17:57:05.000Z,6-4,310,03/21/1995,Rutgers,DT,CAR,LA,1,Bank of America Stadium,Charlotte North Carolina,Outdoor,Grass,Sunny,87.0,53,3,NNE
1001,2019090800,20190908001241,home,69.62,30.08,1.51,1.29,0.14,315.61,292.51,2495455,Cam Newton,1,2019,45,2,12:04:00,CAR,1,10,CAR,0,10,2557997,SHOTGUN,"1 RB, 2 TE, 2 WR",7,"4 DL, 3 LB, 4 DB",left,2019-09-08T17:57:06.000Z,2019-09-08T17:57:05.000Z,6-5,245,05/11/1989,Auburn,QB,CAR,LA,1,Bank of America Stadium,Charlotte North Carolina,Outdoor,Grass,Sunny,87.0,53,3,NNE
1002,2019090800,20190908001241,home,63.39,32.99,3.7,0.9,0.37,282.69,263.2,2495700,Greg Olsen,88,2019,45,2,12:04:00,CAR,1,10,CAR,0,10,2557997,SHOTGUN,"1 RB, 2 TE, 2 WR",7,"4 DL, 3 LB, 4 DB",left,2019-09-08T17:57:06.000Z,2019-09-08T17:57:05.000Z,6-5,255,03/11/1985,Miami,TE,CAR,LA,1,Bank of America Stadium,Charlotte North Carolina,Outdoor,Grass,Sunny,87.0,53,3,NNE
1003,2019090800,20190908001241,home,65.52,27.09,1.57,0.57,0.18,225.2,196.48,2538145,Greg Van Roten,73,2019,45,2,12:04:00,CAR,1,10,CAR,0,10,2557997,SHOTGUN,"1 RB, 2 TE, 2 WR",7,"4 DL, 3 LB, 4 DB",left,2019-09-08T17:57:06.000Z,2019-09-08T17:57:05.000Z,6-3,305,02/26/1990,Pennsylvania,G,CAR,LA,1,Bank of America Stadium,Charlotte North Carolina,Outdoor,Grass,Sunny,87.0,53,3,NNE
1004,2019090800,20190908001241,home,65.88,29.75,1.32,1.0,0.13,241.78,173.42,2543606,Trai Turner,70,2019,45,2,12:04:00,CAR,1,10,CAR,0,10,2557997,SHOTGUN,"1 RB, 2 TE, 2 WR",7,"4 DL, 3 LB, 4 DB",left,2019-09-08T17:57:06.000Z,2019-09-08T17:57:05.000Z,6-3,315,06/14/1993,Louisiana State,G,CAR,LA,1,Bank of America Stadium,Charlotte North Carolina,Outdoor,Grass,Sunny,87.0,53,3,NNE
1005,2019090800,20190908001241,home,64.81,27.61,2.41,1.17,0.24,157.2,204.33,2550155,Matt Paradis,61,2019,45,2,12:04:00,CAR,1,10,CAR,0,10,2557997,SHOTGUN,"1 RB, 2 TE, 2 WR",7,"4 DL, 3 LB, 4 DB",left,2019-09-08T17:57:06.000Z,2019-09-08T17:57:05.000Z,6-3,300,10/12/1989,Boise State,C,CAR,LA,1,Bank of America Stadium,Charlotte North Carolina,Outdoor,Grass,Sunny,87.0,53,3,NNE
1006,2019090800,20190908001241,home,65.58,25.29,1.55,1.6,0.16,230.79,210.62,2552357,Daryl Williams,60,2019,45,2,12:04:00,CAR,1,10,CAR,0,10,2557997,SHOTGUN,"1 RB, 2 TE, 2 WR",7,"4 DL, 3 LB, 4 DB",left,2019-09-08T17:57:06.000Z,2019-09-08T17:57:05.000Z,6-6,330,08/31/1992,Oklahoma,T,CAR,LA,1,Bank of America Stadium,Charlotte North Carolina,Outdoor,Grass,Sunny,87.0,53,3,NNE
1007,2019090800,20190908001241,home,63.75,30.81,2.52,2.08,0.27,224.04,235.81,2552622,Chris Manhertz,82,2019,45,2,12:04:00,CAR,1,10,CAR,0,10,2557997,SHOTGUN,"1 RB, 2 TE, 2 WR",7,"4 DL, 3 LB, 4 DB",left,2019-09-08T17:57:06.000Z,2019-09-08T17:57:05.000Z,6-6,255,04/10/1992,Canisius,TE,CAR,LA,1,Bank of America Stadium,Charlotte North Carolina,Outdoor,Grass,Sunny,87.0,53,3,NNE
1008,2019090800,20190908001241,home,66.49,25.24,0.75,0.81,0.09,226.1,234.31,2557871,Taylor Moton,72,2019,45,2,12:04:00,CAR,1,10,CAR,0,10,2557997,SHOTGUN,"1 RB, 2 TE, 2 WR",7,"4 DL, 3 LB, 4 DB",left,2019-09-08T17:57:06.000Z,2019-09-08T17:57:05.000Z,6-5,325,03/18/1994,Western Michigan,T,CAR,LA,1,Bank of America Stadium,Charlotte North Carolina,Outdoor,Grass,Sunny,87.0,53,3,NNE
1009,2019090800,20190908001241,home,68.98,30.65,4.29,2.35,0.42,265.51,247.41,2557997,Christian McCaffrey,22,2019,45,2,12:04:00,CAR,1,10,CAR,0,10,2557997,SHOTGUN,"1 RB, 2 TE, 2 WR",7,"4 DL, 3 LB, 4 DB",left,2019-09-08T17:57:06.000Z,2019-09-08T17:57:05.000Z,5-11,205,06/07/1996,Stanford,RB,CAR,LA,1,Bank of America Stadium,Charlotte North Carolina,Outdoor,Grass,Sunny,87.0,53,3,NNE
1010,2019090800,20190908001241,home,64.33,18.66,4.14,1.35,0.41,255.69,270.28,2558066,Curtis Samuel,10,2019,45,2,12:04:00,CAR,1,10,CAR,0,10,2557997,SHOTGUN,"1 RB, 2 TE, 2 WR",7,"4 DL, 3 LB, 4 DB",left,2019-09-08T17:57:06.000Z,2019-09-08T17:57:05.000Z,5-11,195,08/11/1996,Ohio State,WR,CAR,LA,1,Bank of America Stadium,Charlotte North Carolina,Outdoor,Grass,Sunny,87.0,53,3,NNE
1011,2019090800,20190908001241,home,63.42,9.72,4.55,3.44,0.44,302.63,290.23,2560813,D.J. Moore,12,2019,45,2,12:04:00,CAR,1,10,CAR,0,10,2557997,SHOTGUN,"1 RB, 2 TE, 2 WR",7,"4 DL, 3 LB, 4 DB",left,2019-09-08T17:57:06.000Z,2019-09-08T17:57:05.000Z,6-0,215,04/14/1997,Maryland,WR,CAR,LA,1,Bank of America Stadium,Charlotte North Carolina,Outdoor,Grass,Sunny,87.0,53,3,NNE
