,GameId,PlayId,Team,X,Y,S,A,Dis,Orientation,Dir,NflId,DisplayName,JerseyNumber,Season,YardLine,Quarter,GameClock,PossessionTeam,Down,Distance,FieldPosition,HomeScoreBeforePlay,VisitorScoreBeforePlay,NflIdRusher,OffenseFormation,OffensePersonnel,DefendersInTheBox,DefensePersonnel,PlayDirection,TimeHandoff,TimeSnap,PlayerHeight,PlayerWeight,PlayerBirthDate,PlayerCollegeName,Position,HomeTeamAbbr,VisitorTeamAbbr,Week,Stadium,Location,StadiumType,Turf,GameWeather,Temperature,Humidity,WindSpeed,WindDirection
44396,2019092213,20190922132070,away,34.51,32.27,1.93,0.98,0.21,3.97,349.3,2495977,Andrew Whitworth,77,2019,25,3,15:00:00,LA,1,10,LA,6,3,2552475,SINGLEBACK,"1 RB, 1 TE, 3 WR",7,"3 DL, 3 LB, 5 DB",right,2019-09-23T01:57:55.000Z,2019-09-23T01:57:53.000Z,6-7,330,12/12/1981,Louisiana State,T,CLE,LA,3,First Energy Stadium,"Cleveland, Ohio",Outdoor,Grass,Mostly Clear,83.0,33,12,SSW
44397,2019092213,20190922132070,away,35.29,17.96,5.97,2.26,0.58,16.88,25.28,2540169,Robert Woods,17,2019,25,3,15:00:00,LA,1,10,LA,6,3,2552475,SINGLEBACK,"1 RB, 1 TE, 3 WR",7,"3 DL, 3 LB, 5 DB",right,2019-09-23T01:57:55.000Z,2019-09-23T01:57:53.000Z,6-0,193,04/10/1992,Southern California,WR,CLE,LA,3,First Energy Stadium,"Cleveland, Ohio",Outdoor,Grass,Mostly Clear,83.0,33,12,SSW
44398,2019092213,20190922132070,away,35.24,39.45,3.93,2.53,0.38,92.04,80.35,2543498,Brandin Cooks,12,2019,25,3,15:00:00,LA,1,10,LA,6,3,2552475,SINGLEBACK,"1 RB, 1 TE, 3 WR",7,"3 DL, 3 LB, 5 DB",right,2019-09-23T01:57:55.000Z,2019-09-23T01:57:53.000Z,5-10,183,09/25/1993,Oregon State,WR,CLE,LA,3,First Energy Stadium,"Cleveland, Ohio",Outdoor,Grass,Mostly Clear,83.0,33,12,SSW
44399,2019092213,20190922132070,away,35.05,27.9,3.96,0.97,0.41,357.55,22.02,2552363,Rob Havenstein,79,2019,25,3,15:00:00,LA,1,10,LA,6,3,2552475,SINGLEBACK,"1 RB, 1 TE, 3 WR",7,"3 DL, 3 LB, 5 DB",right,2019-09-23T01:57:55.000Z,2019-09-23T01:57:53.000Z,6-8,328,05/13/1992,Wisconsin,T,CLE,LA,3,First Energy Stadium,"Cleveland, Ohio",Outdoor,Grass,Mostly Clear,83.0,33,12,SSW
44400,2019092213,20190922132070,away,30.43,29.97,5.46,1.39,0.54,62.9,53.35,2552475,Todd Gurley,30,2019,25,3,15:00:00,LA,1,10,LA,6,3,2552475,SINGLEBACK,"1 RB, 1 TE, 3 WR",7,"3 DL, 3 LB, 5 DB",right,2019-09-23T01:57:55.000Z,2019-09-23T01:57:53.000Z,6-1,224,08/03/1994,Georgia,RB,CLE,LA,3,First Energy Stadium,"Cleveland, Ohio",Outdoor,Grass,Mostly Clear,83.0,33,12,SSW
44401,2019092213,20190922132070,away,30.19,28.74,3.8,3.0,0.38,292.27,278.11,2555334,Jared Goff,16,2019,25,3,15:00:00,LA,1,10,LA,6,3,2552475,SINGLEBACK,"1 RB, 1 TE, 3 WR",7,"3 DL, 3 LB, 5 DB",right,2019-09-23T01:57:55.000Z,2019-09-23T01:57:53.000Z,6-4,223,10/14/1994,California,QB,CLE,LA,3,First Energy Stadium,"Cleveland, Ohio",Outdoor,Grass,Mostly Clear,83.0,33,12,SSW
44402,2019092213,20190922132070,away,33.11,27.1,4.7,0.67,0.47,28.7,345.58,2557889,Gerald Everett,81,2019,25,3,15:00:00,LA,1,10,LA,6,3,2552475,SINGLEBACK,"1 RB, 1 TE, 3 WR",7,"3 DL, 3 LB, 5 DB",right,2019-09-23T01:57:55.000Z,2019-09-23T01:57:53.000Z,6-3,240,06/25/1994,South Alabama,TE,CLE,LA,3,First Energy Stadium,"Cleveland, Ohio",Outdoor,Grass,Mostly Clear,83.0,33,12,SSW
44403,2019092213,20190922132070,away,35.36,35.84,3.78,1.09,0.38,4.46,10.49,2557898,Cooper Kupp,18,2019,25,3,15:00:00,LA,1,10,LA,6,3,2552475,SINGLEBACK,"1 RB, 1 TE, 3 WR",7,"3 DL, 3 LB, 5 DB",right,2019-09-23T01:57:55.000Z,2019-09-23T01:57:53.000Z,6-2,208,06/15/1993,Eastern Washington,WR,CLE,LA,3,First Energy Stadium,"Cleveland, Ohio",Outdoor,Grass,Mostly Clear,83.0,33,12,SSW
44404,2019092213,20190922132070,away,35.57,31.31,3.38,0.45,0.35,57.77,27.95,2560825,Joe Noteboom,70,2019,25,3,15:00:00,LA,1,10,LA,6,3,2552475,SINGLEBACK,"1 RB, 1 TE, 3 WR",7,"3 DL, 3 LB, 5 DB",right,2019-09-23T01:57:55.000Z,2019-09-23T01:57:53.000Z,6-5,321,06/19/1995,Texas Christian,T,CLE,LA,3,First Energy Stadium,"Cleveland, Ohio",Outdoor,Grass,Mostly Clear,83.0,33,12,SSW
44405,2019092213,20190922132070,away,34.87,29.74,2.53,0.05,0.3,64.67,16.74,2560954,Brian Allen,55,2019,25,3,15:00:00,LA,1,10,LA,6,3,2552475,SINGLEBACK,"1 RB, 1 TE, 3 WR",7,"3 DL, 3 LB, 5 DB",right,2019-09-23T01:57:55.000Z,2019-09-23T01:57:53.000Z,6-2,302,10/11/1995,Michigan State,C,CLE,LA,3,First Energy Stadium,"Cleveland, Ohio",Outdoor,Grass,Mostly Clear,83.0,33,12,SSW
44406,2019092213,20190922132070,away,34.79,28.69,3.91,0.47,0.4,78.42,10.58,2561043,Jamil Demby,64,2019,25,3,15:00:00,LA,1,10,LA,6,3,2552475,SINGLEBACK,"1 RB, 1 TE, 3 WR",7,"3 DL, 3 LB, 5 DB",right,2019-09-23T01:57:55.000Z,2019-09-23T01:57:53.000Z,6-5,321,06/20/1996,Maine,G,CLE,LA,3,First Energy Stadium,"Cleveland, Ohio",Outdoor,Grass,Mostly Clear,83.0,33,12,SSW
44407,2019092213,20190922132070,home,35.25,32.73,2.25,0.24,0.22,267.64,330.6,2533534,Olivier Vernon,54,2019,25,3,15:00:00,LA,1,10,LA,6,3,2552475,SINGLEBACK,"1 RB, 1 TE, 3 WR",7,"3 DL, 3 LB, 5 DB",right,2019-09-23T01:57:55.000Z,2019-09-23T01:57:53.000Z,6-2,262,10/07/1990,Miami,OLB,CLE,LA,3,First Energy Stadium,"Cleveland, Ohio",Outdoor,Grass,Mostly Clear,83.0,33,12,SSW
44408,2019092213,20190922132070,home,35.6,28.55,4.01,0.79,0.41,300.06,7.66,2540142,Sheldon Richardson,98,2019,25,3,15:00:00,LA,1,10,LA,6,3,2552475,SINGLEBACK,"1 RB, 1 TE, 3 WR",7,"3 DL, 3 LB, 5 DB",right,2019-09-23T01:57:55.000Z,2019-09-23T01:57:53.000Z,6-3,294,11/29/1990,Missouri,DT,CLE,LA,3,First Energy Stadium,"Cleveland, Ohio",Outdoor,Grass,Mostly Clear,83.0,33,12,SSW
44409,2019092213,20190922132070,home,44.16,14.12,3.2,5.7,0.29,343.23,9.56,2543637,Terrance Mitchell,39,2019,25,3,15:00:00,LA,1,10,LA,6,3,2552475,SINGLEBACK,"1 RB, 1 TE, 3 WR",7,"3 DL, 3 LB, 5 DB",right,2019-09-23T01:57:55.000Z,2019-09-23T01:57:53.000Z,5-11,190,05/17/1992,Oregon,CB,CLE,LA,3,First Energy Stadium,"Cleveland, Ohio",Outdoor,Grass,Mostly Clear,83.0,33,12,SSW
44410,2019092213,20190922132070,home,45.0,41.76,0.42,0.33,0.04,227.04,71.38,2550164,T.J. Carrie,38,2019,25,3,15:00:00,LA,1,10,LA,6,3,2552475,SINGLEBACK,"1 RB, 1 TE, 3 WR",7,"3 DL, 3 LB, 5 DB",right,2019-09-23T01:57:55.000Z,2019-09-23T01:57:53.000Z,6-0,204,07/28/1990,Ohio,CB,CLE,LA,3,First Energy Stadium,"Cleveland, Ohio",Outdoor,Grass,Mostly Clear,83.0,33,12,SSW
44411,2019092213,20190922132070,home,46.35,24.4,4.95,2.38,0.48,308.13,338.13,2552697,Jermaine Whitehead,35,2019,25,3,15:00:00,LA,1,10,LA,6,3,2552475,SINGLEBACK,"1 RB, 1 TE, 3 WR",7,"3 DL, 3 LB, 5 DB",right,2019-09-23T01:57:55.000Z,2019-09-23T01:57:53.000Z,5-11,195,03/12/1993,Auburn,FS,CLE,LA,3,First Energy Stadium,"Cleveland, Ohio",Outdoor,Grass,Mostly Clear,83.0,33,12,SSW
44412,2019092213,20190922132070,home,36.62,31.49,4.09,2.33,0.41,256.19,341.39,2555166,Joe Schobert,53,2019,25,3,15:00:00,LA,1,10,LA,6,3,2552475,SINGLEBACK,"1 RB, 1 TE, 3 WR",7,"3 DL, 3 LB, 5 DB",right,2019-09-23T01:57:55.000Z,2019-09-23T01:57:53.000Z,6-1,245,11/06/1993,Wisconsin,MLB,CLE,LA,3,First Energy Stadium,"Cleveland, Ohio",Outdoor,Grass,Mostly Clear,83.0,33,12,SSW
44413,2019092213,20190922132070,home,35.87,36.72,4.11,0.33,0.41,265.57,345.79,2555173,Eric Murray,22,2019,25,3,15:00:00,LA,1,10,LA,6,3,2552475,SINGLEBACK,"1 RB, 1 TE, 3 WR",7,"3 DL, 3 LB, 5 DB",right,2019-09-23T01:57:55.000Z,2019-09-23T01:57:53.000Z,5-11,199,01/07/1994,Minnesota,FS,CLE,LA,3,First Energy Stadium,"Cleveland, Ohio",Outdoor,Grass,Mostly Clear,83.0,33,12,SSW
44414,2019092213,20190922132070,home,49.51,31.2,3.87,2.17,0.36,268.58,102.65,2555313,Juston Burris,41,2019,25,3,15:00:00,LA,1,10,LA,6,3,2552475,SINGLEBACK,"1 RB, 1 TE, 3 WR",7,"3 DL, 3 LB, 5 DB",right,2019-09-23T01:57:55.000Z,2019-09-23T01:57:53.000Z,6-0,212,08/04/1993,North Carolina State,CB,CLE,LA,3,First Energy Stadium,"Cleveland, Ohio",Outdoor,Grass,Mostly Clear,83.0,33,12,SSW
44415,2019092213,20190922132070,home,35.35,29.58,2.31,0.5,0.27,278.3,13.18,2557836,Larry Ogunjobi,65,2019,25,3,15:00:00,LA,1,10,LA,6,3,2552475,SINGLEBACK,"1 RB, 1 TE, 3 WR",7,"3 DL, 3 LB, 5 DB",right,2019-09-23T01:57:55.000Z,2019-09-23T01:57:53.000Z,6-3,305,06/03/1994,North Carolina-Charlotte,DT,CLE,LA,3,First Energy Stadium,"Cleveland, Ohio",Outdoor,Grass,Mostly Clear,83.0,33,12,SSW
44416,2019092213,20190922132070,home,33.17,27.39,5.18,0.59,0.53,306.52,331.01,2557965,Myles Garrett,95,2019,25,3,15:00:00,LA,1,10,LA,6,3,2552475,SINGLEBACK,"1 RB, 1 TE, 3 WR",7,"3 DL, 3 LB, 5 DB",right,2019-09-23T01:57:55.000Z,2019-09-23T01:57:53.000Z,6-4,272,12/29/1995,Texas A&M,DE,CLE,LA,3,First Energy Stadium,"Cleveland, Ohio",Outdoor,Grass,Mostly Clear,83.0,33,12,SSW
44417,2019092213,20190922132070,home,35.44,23.18,3.01,1.96,0.3,285.13,7.51,2562605,Mack Wilson,51,2019,25,3,15:00:00,LA,1,10,LA,6,3,2552475,SINGLEBACK,"1 RB, 1 TE, 3 WR",7,"3 DL, 3 LB, 5 DB",right,2019-09-23T01:57:55.000Z,2019-09-23T01:57:53.000Z,6-1,240,02/14/1998,Alabama,LB,CLE,LA,3,First Energy Stadium,"Cleveland, Ohio",Outdoor,Grass,Mostly Clear,83.0,33,12,SSW
