,GameId,PlayId,Team,X,Y,S,A,Dis,Orientation,Dir,NflId,DisplayName,JerseyNumber,Season,YardLine,Quarter,GameClock,PossessionTeam,Down,Distance,FieldPosition,HomeScoreBeforePlay,VisitorScoreBeforePlay,NflIdRusher,OffenseFormation,OffensePersonnel,DefendersInTheBox,DefensePersonnel,PlayDirection,TimeHandoff,TimeSnap,PlayerHeight,PlayerWeight,PlayerBirthDate,PlayerCollegeName,Position,HomeTeamAbbr,VisitorTeamAbbr,Week,Stadium,Location,StadiumType,Turf,GameWeather,Temperature,Humidity,WindSpeed,WindDirection
23298,2019091507,20190915072401,away,96.7,23.56,4.0,1.7,0.41,347.76,1.91,808,Duane Brown,76,2019,16,3,14:50:00,SEA,2,10,SEA,10,7,2558865,SHOTGUN,"1 RB, 1 TE, 3 WR",6,"2 DL, 4 LB, 5 DB",left,2019-09-15T18:49:36.000Z,2019-09-15T18:49:35.000Z,6-4,315,08/30/1985,Virginia Tech,T,PIT,SEA,2,Heinz Field,Pittsburgh,Outdoors,Grass,Sunny,81.0,51,3,From S
23299,2019091507,20190915072401,away,96.14,24.66,4.27,2.47,0.41,354.56,4.91,497016,Mike Iupati,70,2019,16,3,14:50:00,SEA,2,10,SEA,10,7,2558865,SHOTGUN,"1 RB, 1 TE, 3 WR",6,"2 DL, 4 LB, 5 DB",left,2019-09-15T18:49:36.000Z,2019-09-15T18:49:35.000Z,6-5,331,05/12/1987,Idaho,OG,PIT,SEA,2,Heinz Field,Pittsburgh,Outdoors,Grass,Sunny,81.0,51,3,From S
23300,2019091507,20190915072401,away,99.4,22.49,2.83,3.29,0.26,198.11,174.71,2532975,Russell Wilson,3,2019,16,3,14:50:00,SEA,2,10,SEA,10,7,2558865,SHOTGUN,"1 RB, 1 TE, 3 WR",6,"2 DL, 4 LB, 5 DB",left,2019-09-15T18:49:36.000Z,2019-09-15T18:49:35.000Z,5-11,215,11/29/1988,Wisconsin,QB,PIT,SEA,2,Heinz Field,Pittsburgh,Outdoors,Grass,Sunny,81.0,51,3,From S
23301,2019091507,20190915072401,away,93.19,14.62,2.8,1.17,0.28,256.5,278.72,2541966,Jaron Brown,18,2019,16,3,14:50:00,SEA,2,10,SEA,10,7,2558865,SHOTGUN,"1 RB, 1 TE, 3 WR",6,"2 DL, 4 LB, 5 DB",left,2019-09-15T18:49:36.000Z,2019-09-15T18:49:35.000Z,6-3,205,01/08/1990,Clemson,WR,PIT,SEA,2,Heinz Field,Pittsburgh,Outdoors,Grass,Sunny,81.0,51,3,From S
23302,2019091507,20190915072401,away,94.06,23.08,1.22,0.54,0.12,179.89,259.91,2550135,Justin Britt,68,2019,16,3,14:50:00,SEA,2,10,SEA,10,7,2558865,SHOTGUN,"1 RB, 1 TE, 3 WR",6,"2 DL, 4 LB, 5 DB",left,2019-09-15T18:49:36.000Z,2019-09-15T18:49:35.000Z,6-6,315,05/29/1991,Missouri,C,PIT,SEA,2,Heinz Field,Pittsburgh,Outdoors,Grass,Sunny,81.0,51,3,From S
23303,2019091507,20190915072401,away,103.5,18.51,4.27,1.34,0.43,289.23,179.67,2552430,Tyler Lockett,16,2019,16,3,14:50:00,SEA,2,10,SEA,10,7,2558865,SHOTGUN,"1 RB, 1 TE, 3 WR",6,"2 DL, 4 LB, 5 DB",left,2019-09-15T18:49:36.000Z,2019-09-15T18:49:35.000Z,5-10,182,09/28/1992,Kansas State,WR,PIT,SEA,2,Heinz Field,Pittsburgh,Outdoors,Grass,Sunny,81.0,51,3,From S
23304,2019091507,20190915072401,away,94.72,25.51,1.57,0.88,0.16,217.49,209.39,2555395,Germain Ifedi,65,2019,16,3,14:50:00,SEA,2,10,SEA,10,7,2558865,SHOTGUN,"1 RB, 1 TE, 3 WR",6,"2 DL, 4 LB, 5 DB",left,2019-09-15T18:49:36.000Z,2019-09-15T18:49:35.000Z,6-5,325,06/02/1994,Texas A&M,G,PIT,SEA,2,Heinz Field,Pittsburgh,Outdoors,Grass,Sunny,81.0,51,3,From S
23305,2019091507,20190915072401,away,94.73,24.64,1.07,1.08,0.11,262.45,185.98,2557891,Ethan Pocic,77,2019,16,3,14:50:00,SEA,2,10,SEA,10,7,2558865,SHOTGUN,"1 RB, 1 TE, 3 WR",6,"2 DL, 4 LB, 5 DB",left,2019-09-15T18:49:36.000Z,2019-09-15T18:49:35.000Z,6-6,320,08/05/1995,Louisiana State,C,PIT,SEA,2,Heinz Field,Pittsburgh,Outdoors,Grass,Sunny,81.0,51,3,From S
23306,2019091507,20190915072401,away,98.58,22.78,5.03,2.9,0.49,336.83,333.01,2558865,Chris Carson,32,2019,16,3,14:50:00,SEA,2,10,SEA,10,7,2558865,SHOTGUN,"1 RB, 1 TE, 3 WR",6,"2 DL, 4 LB, 5 DB",left,2019-09-15T18:49:36.000Z,2019-09-15T18:49:35.000Z,5-11,222,09/16/1994,Oklahoma State,RB,PIT,SEA,2,Heinz Field,Pittsburgh,Outdoors,Grass,Sunny,81.0,51,3,From S
23307,2019091507,20190915072401,away,93.54,28.54,3.08,1.3,0.3,258.03,258.85,2561046,Will Dissly,88,2019,16,3,14:50:00,SEA,2,10,SEA,10,7,2558865,SHOTGUN,"1 RB, 1 TE, 3 WR",6,"2 DL, 4 LB, 5 DB",left,2019-09-15T18:49:36.000Z,2019-09-15T18:49:35.000Z,6-4,267,07/08/1996,Washington,TE,PIT,SEA,2,Heinz Field,Pittsburgh,Outdoors,Grass,Sunny,81.0,51,3,From S
23308,2019091507,20190915072401,away,93.8,7.44,3.66,1.75,0.36,275.75,262.99,2562685,D.K. Metcalf,14,2019,16,3,14:50:00,SEA,2,10,SEA,10,7,2558865,SHOTGUN,"1 RB, 1 TE, 3 WR",6,"2 DL, 4 LB, 5 DB",left,2019-09-15T18:49:36.000Z,2019-09-15T18:49:35.000Z,6-4,230,12/14/1997,Mississippi,WR,PIT,SEA,2,Heinz Field,Pittsburgh,Outdoors,Grass,Sunny,81.0,51,3,From S
23309,2019091507,20190915072401,home,90.79,33.5,1.88,0.73,0.19,120.83,133.76,496733,Joe Haden,23,2019,16,3,14:50:00,SEA,2,10,SEA,10,7,2558865,SHOTGUN,"1 RB, 1 TE, 3 WR",6,"2 DL, 4 LB, 5 DB",left,2019-09-15T18:49:36.000Z,2019-09-15T18:49:35.000Z,5-11,195,04/14/1989,Florida,CB,PIT,SEA,2,Heinz Field,Pittsburgh,Outdoors,Grass,Sunny,81.0,51,3,From S
23310,2019091507,20190915072401,home,93.64,22.28,0.23,0.61,0.02,60.98,203.54,2508109,Cameron Heyward,97,2019,16,3,14:50:00,SEA,2,10,SEA,10,7,2558865,SHOTGUN,"1 RB, 1 TE, 3 WR",6,"2 DL, 4 LB, 5 DB",left,2019-09-15T18:49:36.000Z,2019-09-15T18:49:35.000Z,6-5,295,05/06/1989,Ohio State,DT,PIT,SEA,2,Heinz Field,Pittsburgh,Outdoors,Grass,Sunny,81.0,51,3,From S
23311,2019091507,20190915072401,home,89.8,28.05,1.33,3.37,0.13,87.39,29.8,2532789,Mark Barron,26,2019,16,3,14:50:00,SEA,2,10,SEA,10,7,2558865,SHOTGUN,"1 RB, 1 TE, 3 WR",6,"2 DL, 4 LB, 5 DB",left,2019-09-15T18:49:36.000Z,2019-09-15T18:49:35.000Z,6-2,230,10/27/1989,Alabama,ILB,PIT,SEA,2,Heinz Field,Pittsburgh,Outdoors,Grass,Sunny,81.0,51,3,From S
23312,2019091507,20190915072401,home,86.94,7.64,1.33,1.24,0.13,55.24,139.26,2552265,Steven Nelson,22,2019,16,3,14:50:00,SEA,2,10,SEA,10,7,2558865,SHOTGUN,"1 RB, 1 TE, 3 WR",6,"2 DL, 4 LB, 5 DB",left,2019-09-15T18:49:36.000Z,2019-09-15T18:49:35.000Z,5-11,194,01/22/1993,Oregon State,CB,PIT,SEA,2,Heinz Field,Pittsburgh,Outdoors,Grass,Sunny,81.0,51,3,From S
23313,2019091507,20190915072401,home,95.03,21.91,5.88,1.7,0.58,32.61,26.62,2552289,Bud Dupree,48,2019,16,3,14:50:00,SEA,2,10,SEA,10,7,2558865,SHOTGUN,"1 RB, 1 TE, 3 WR",6,"2 DL, 4 LB, 5 DB",left,2019-09-15T18:49:36.000Z,2019-09-15T18:49:35.000Z,6-4,269,02/12/1993,Kentucky,OLB,PIT,SEA,2,Heinz Field,Pittsburgh,Outdoors,Grass,Sunny,81.0,51,3,From S
23314,2019091507,20190915072401,home,94.11,24.7,1.9,0.83,0.19,112.61,172.62,2555239,Javon Hargrave,79,2019,16,3,14:50:00,SEA,2,10,SEA,10,7,2558865,SHOTGUN,"1 RB, 1 TE, 3 WR",6,"2 DL, 4 LB, 5 DB",left,2019-09-15T18:49:36.000Z,2019-09-15T18:49:35.000Z,6-2,305,02/07/1993,South Carolina State,NT,PIT,SEA,2,Heinz Field,Pittsburgh,Outdoors,Grass,Sunny,81.0,51,3,From S
23315,2019091507,20190915072401,home,77.28,23.62,2.32,3.7,0.22,72.82,45.67,2555386,Sean Davis,21,2019,16,3,14:50:00,SEA,2,10,SEA,10,7,2558865,SHOTGUN,"1 RB, 1 TE, 3 WR",6,"2 DL, 4 LB, 5 DB",left,2019-09-15T18:49:36.000Z,2019-09-15T18:49:35.000Z,6-1,202,10/23/1993,Maryland,SS,PIT,SEA,2,Heinz Field,Pittsburgh,Outdoors,Grass,Sunny,81.0,51,3,From S
23316,2019091507,20190915072401,home,82.08,11.08,2.92,4.12,0.3,67.92,246.67,2556559,Mike Hilton,28,2019,16,3,14:50:00,SEA,2,10,SEA,10,7,2558865,SHOTGUN,"1 RB, 1 TE, 3 WR",6,"2 DL, 4 LB, 5 DB",left,2019-09-15T18:49:36.000Z,2019-09-15T18:49:35.000Z,5-9,184,03/09/1994,Mississippi,CB,PIT,SEA,2,Heinz Field,Pittsburgh,Outdoors,Grass,Sunny,81.0,51,3,From S
23317,2019091507,20190915072401,home,95.7,29.52,3.47,1.67,0.35,127.7,133.17,2558064,T.J. Watt,90,2019,16,3,14:50:00,SEA,2,10,SEA,10,7,2558865,SHOTGUN,"1 RB, 1 TE, 3 WR",6,"2 DL, 4 LB, 5 DB",left,2019-09-15T18:49:36.000Z,2019-09-15T18:49:35.000Z,6-4,252,10/11/1994,Wisconsin,OLB,PIT,SEA,2,Heinz Field,Pittsburgh,Outdoors,Grass,Sunny,81.0,51,3,From S
23318,2019091507,20190915072401,home,77.4,34.14,2.66,1.2,0.27,108.64,291.84,2560712,Terrell Edmunds,34,2019,16,3,14:50:00,SEA,2,10,SEA,10,7,2558865,SHOTGUN,"1 RB, 1 TE, 3 WR",6,"2 DL, 4 LB, 5 DB",left,2019-09-15T18:49:36.000Z,2019-09-15T18:49:35.000Z,6-1,217,01/20/1997,Virginia Tech,S,PIT,SEA,2,Heinz Field,Pittsburgh,Outdoors,Grass,Sunny,81.0,51,3,From S
23319,2019091507,20190915072401,home,87.35,17.75,0.96,1.78,0.09,52.72,308.48,2562243,Devin Bush,55,2019,16,3,14:50:00,SEA,2,10,SEA,10,7,2558865,SHOTGUN,"1 RB, 1 TE, 3 WR",6,"2 DL, 4 LB, 5 DB",left,2019-09-15T18:49:36.000Z,2019-09-15T18:49:35.000Z,5-11,233,07/18/1998,Michigan,LB,PIT,SEA,2,Heinz Field,Pittsburgh,Outdoors,Grass,Sunny,81.0,51,3,From S
