,GameId,PlayId,Team,X,Y,S,A,Dis,Orientation,Dir,NflId,DisplayName,JerseyNumber,Season,YardLine,Quarter,GameClock,PossessionTeam,Down,Distance,FieldPosition,HomeScoreBeforePlay,VisitorScoreBeforePlay,NflIdRusher,OffenseFormation,OffensePersonnel,DefendersInTheBox,DefensePersonnel,PlayDirection,TimeHandoff,TimeSnap,PlayerHeight,PlayerWeight,PlayerBirthDate,PlayerCollegeName,Position,HomeTeamAbbr,VisitorTeamAbbr,Week,Stadium,Location,StadiumType,Turf,GameWeather,Temperature,Humidity,WindSpeed,WindDirection
56320,2019092909,20190929093069,away,84.87,29.13,1.64,1.48,0.16,244.66,274.94,2507716,Demar Dotson,69,2019,25,3,09:03:00,TB,1,10,TB,20,28,2560770,SINGLEBACK,"1 RB, 2 TE, 2 WR",8,"4 DL, 3 LB, 4 DB",left,2019-09-29T22:13:53.000Z,2019-09-29T22:13:52.000Z,6-9,315,10/11/1985,Southern Mississippi,OT,LA,TB,4,Los Angeles Memorial Coliseum,"Los Angeles, Calif.",Outdoor,Grass,Mostly Sunny,74.0,41,2,SW
56321,2019092909,20190929093069,away,85.31,27.0,1.23,1.23,0.12,251.6,357.44,2541159,Ryan Jensen,66,2019,25,3,09:03:00,TB,1,10,TB,20,28,2560770,SINGLEBACK,"1 RB, 2 TE, 2 WR",8,"4 DL, 3 LB, 4 DB",left,2019-09-29T22:13:53.000Z,2019-09-29T22:13:52.000Z,6-4,319,05/27/1991,Colorado State-Pueblo,C,LA,TB,4,Los Angeles Memorial Coliseum,"Los Angeles, Calif.",Outdoor,Grass,Mostly Sunny,74.0,41,2,SW
56322,2019092909,20190929093069,away,83.58,45.59,5.03,1.43,0.5,276.46,283.22,2543468,Mike Evans,13,2019,25,3,09:03:00,TB,1,10,TB,20,28,2560770,SINGLEBACK,"1 RB, 2 TE, 2 WR",8,"4 DL, 3 LB, 4 DB",left,2019-09-29T22:13:53.000Z,2019-09-29T22:13:52.000Z,6-5,231,08/21/1993,Texas A&M,WR,LA,TB,4,Los Angeles Memorial Coliseum,"Los Angeles, Calif.",Outdoor,Grass,Mostly Sunny,74.0,41,2,SW
56323,2019092909,20190929093069,away,89.97,26.36,3.88,0.52,0.38,57.28,103.58,2552033,Jameis Winston,3,2019,25,3,09:03:00,TB,1,10,TB,20,28,2560770,SINGLEBACK,"1 RB, 2 TE, 2 WR",8,"4 DL, 3 LB, 4 DB",left,2019-09-29T22:13:53.000Z,2019-09-29T22:13:52.000Z,6-4,231,01/06/1994,Florida State,QB,LA,TB,4,Los Angeles Memorial Coliseum,"Los Angeles, Calif.",Outdoor,Grass,Mostly Sunny,74.0,41,2,SW
56324,2019092909,20190929093069,away,86.56,28.06,3.66,0.97,0.39,23.85,353.36,2552332,Ali Marpet,74,2019,25,3,09:03:00,TB,1,10,TB,20,28,2560770,SINGLEBACK,"1 RB, 2 TE, 2 WR",8,"4 DL, 3 LB, 4 DB",left,2019-09-29T22:13:53.000Z,2019-09-29T22:13:52.000Z,6-4,307,04/17/1993,Hobart,G,LA,TB,4,Los Angeles Memorial Coliseum,"Los Angeles, Calif.",Outdoor,Grass,Mostly Sunny,74.0,41,2,SW
56325,2019092909,20190929093069,away,85.78,25.43,1.53,0.46,0.16,226.13,344.0,2552460,Donovan Smith,76,2019,25,3,09:03:00,TB,1,10,TB,20,28,2560770,SINGLEBACK,"1 RB, 2 TE, 2 WR",8,"4 DL, 3 LB, 4 DB",left,2019-09-29T22:13:53.000Z,2019-09-29T22:13:52.000Z,6-6,338,06/23/1993,Penn State,T,LA,TB,4,Los Angeles Memorial Coliseum,"Los Angeles, Calif.",Outdoor,Grass,Mostly Sunny,74.0,41,2,SW
56326,2019092909,20190929093069,away,85.67,22.22,1.57,3.35,0.15,277.9,306.67,2557856,O.J. Howard,80,2019,25,3,09:03:00,TB,1,10,TB,20,28,2560770,SINGLEBACK,"1 RB, 2 TE, 2 WR",8,"4 DL, 3 LB, 4 DB",left,2019-09-29T22:13:53.000Z,2019-09-29T22:13:52.000Z,6-6,250,11/18/1994,Alabama,TE,LA,TB,4,Los Angeles Memorial Coliseum,"Los Angeles, Calif.",Outdoor,Grass,Mostly Sunny,74.0,41,2,SW
56327,2019092909,20190929093069,away,83.75,36.57,4.42,0.91,0.44,310.28,289.63,2558105,Chris Godwin,12,2019,25,3,09:03:00,TB,1,10,TB,20,28,2560770,SINGLEBACK,"1 RB, 2 TE, 2 WR",8,"4 DL, 3 LB, 4 DB",left,2019-09-29T22:13:53.000Z,2019-09-29T22:13:52.000Z,6-1,209,02/27/1996,Penn State,WR,LA,TB,4,Los Angeles Memorial Coliseum,"Los Angeles, Calif.",Outdoor,Grass,Mostly Sunny,74.0,41,2,SW
56328,2019092909,20190929093069,away,86.51,32.61,0.1,1.63,0.02,347.93,48.46,2559044,Antony Auclair,82,2019,25,3,09:03:00,TB,1,10,TB,20,28,2560770,SINGLEBACK,"1 RB, 2 TE, 2 WR",8,"4 DL, 3 LB, 4 DB",left,2019-09-29T22:13:53.000Z,2019-09-29T22:13:52.000Z,6-6,256,05/28/1993,"Laval, Can.",TE,LA,TB,4,Los Angeles Memorial Coliseum,"Los Angeles, Calif.",Outdoor,Grass,Mostly Sunny,74.0,41,2,SW
56329,2019092909,20190929093069,away,89.97,27.52,5.03,2.96,0.49,303.33,288.75,2560770,Ronald Jones,27,2019,25,3,09:03:00,TB,1,10,TB,20,28,2560770,SINGLEBACK,"1 RB, 2 TE, 2 WR",8,"4 DL, 3 LB, 4 DB",left,2019-09-29T22:13:53.000Z,2019-09-29T22:13:52.000Z,5-11,208,08/03/1997,Southern California,RB,LA,TB,4,Los Angeles Memorial Coliseum,"Los Angeles, Calif.",Outdoor,Grass,Mostly Sunny,74.0,41,2,SW
56330,2019092909,20190929093069,away,85.45,28.58,0.84,0.62,0.09,252.01,296.61,2560991,Alex Cappa,65,2019,25,3,09:03:00,TB,1,10,TB,20,28,2560770,SINGLEBACK,"1 RB, 2 TE, 2 WR",8,"4 DL, 3 LB, 4 DB",left,2019-09-29T22:13:53.000Z,2019-09-29T22:13:52.000Z,6-6,305,01/27/1995,Humboldt State,G,LA,TB,4,Los Angeles Memorial Coliseum,"Los Angeles, Calif.",Outdoor,Grass,Mostly Sunny,74.0,41,2,SW
56331,2019092909,20190929093069,home,80.52,45.33,1.88,1.62,0.18,110.37,330.56,1302,Aqib Talib,21,2019,25,3,09:03:00,TB,1,10,TB,20,28,2560770,SINGLEBACK,"1 RB, 2 TE, 2 WR",8,"4 DL, 3 LB, 4 DB",left,2019-09-29T22:13:53.000Z,2019-09-29T22:13:52.000Z,6-1,209,02/13/1986,Kansas,CB,LA,TB,4,Los Angeles Memorial Coliseum,"Los Angeles, Calif.",Outdoor,Grass,Mostly Sunny,74.0,41,2,SW
56332,2019092909,20190929093069,home,85.39,21.4,0.67,1.59,0.06,9.72,342.9,80431,Clay Matthews,52,2019,25,3,09:03:00,TB,1,10,TB,20,28,2560770,SINGLEBACK,"1 RB, 2 TE, 2 WR",8,"4 DL, 3 LB, 4 DB",left,2019-09-29T22:13:53.000Z,2019-09-29T22:13:52.000Z,6-3,255,05/14/1986,Southern California,OLB,LA,TB,4,Los Angeles Memorial Coliseum,"Los Angeles, Calif.",Outdoor,Grass,Mostly Sunny,74.0,41,2,SW
56333,2019092909,20190929093069,home,69.83,34.24,2.1,2.29,0.2,52.27,333.91,2495775,Eric Weddle,32,2019,25,3,09:03:00,TB,1,10,TB,20,28,2560770,SINGLEBACK,"1 RB, 2 TE, 2 WR",8,"4 DL, 3 LB, 4 DB",left,2019-09-29T22:13:53.000Z,2019-09-29T22:13:52.000Z,5-11,195,01/04/1985,Utah,FS,LA,TB,4,Los Angeles Memorial Coliseum,"Los Angeles, Calif.",Outdoor,Grass,Mostly Sunny,74.0,41,2,SW
56334,2019092909,20190929093069,home,85.06,25.1,1.18,1.0,0.12,29.18,350.7,2533050,Michael Brockers,90,2019,25,3,09:03:00,TB,1,10,TB,20,28,2560770,SINGLEBACK,"1 RB, 2 TE, 2 WR",8,"4 DL, 3 LB, 4 DB",left,2019-09-29T22:13:53.000Z,2019-09-29T22:13:52.000Z,6-5,305,12/21/1990,Louisiana State,DT,LA,TB,4,Los Angeles Memorial Coliseum,"Los Angeles, Calif.",Outdoor,Grass,Mostly Sunny,74.0,41,2,SW
56335,2019092909,20190929093069,home,84.75,28.43,0.14,1.51,0.01,18.98,255.4,2543485,Aaron Donald,99,2019,25,3,09:03:00,TB,1,10,TB,20,28,2560770,SINGLEBACK,"1 RB, 2 TE, 2 WR",8,"4 DL, 3 LB, 4 DB",left,2019-09-29T22:13:53.000Z,2019-09-29T22:13:52.000Z,6-1,280,05/23/1991,Pittsburgh,DT,LA,TB,4,Los Angeles Memorial Coliseum,"Los Angeles, Calif.",Outdoor,Grass,Mostly Sunny,74.0,41,2,SW
56336,2019092909,20190929093069,home,79.78,35.48,1.07,1.82,0.11,72.08,330.0,2552488,Marcus Peters,22,2019,25,3,09:03:00,TB,1,10,TB,20,28,2560770,SINGLEBACK,"1 RB, 2 TE, 2 WR",8,"4 DL, 3 LB, 4 DB",left,2019-09-29T22:13:53.000Z,2019-09-29T22:13:52.000Z,6-0,197,01/09/1993,Washington,CB,LA,TB,4,Los Angeles Memorial Coliseum,"Los Angeles, Calif.",Outdoor,Grass,Mostly Sunny,74.0,41,2,SW
56337,2019092909,20190929093069,home,86.28,33.1,1.03,1.87,0.09,143.03,71.0,2553431,Dante Fowler,56,2019,25,3,09:03:00,TB,1,10,TB,20,28,2560770,SINGLEBACK,"1 RB, 2 TE, 2 WR",8,"4 DL, 3 LB, 4 DB",left,2019-09-29T22:13:53.000Z,2019-09-29T22:13:52.000Z,6-3,255,08/03/1994,Florida,OLB,LA,TB,4,Los Angeles Memorial Coliseum,"Los Angeles, Calif.",Outdoor,Grass,Mostly Sunny,74.0,41,2,SW
56338,2019092909,20190929093069,home,84.0,30.8,4.01,1.91,0.39,104.28,86.28,2556593,Cory Littleton,58,2019,25,3,09:03:00,TB,1,10,TB,20,28,2560770,SINGLEBACK,"1 RB, 2 TE, 2 WR",8,"4 DL, 3 LB, 4 DB",left,2019-09-29T22:13:53.000Z,2019-09-29T22:13:52.000Z,6-3,228,11/18/1993,Washington,ILB,LA,TB,4,Los Angeles Memorial Coliseum,"Los Angeles, Calif.",Outdoor,Grass,Mostly Sunny,74.0,41,2,SW
56339,2019092909,20190929093069,home,80.28,23.4,2.86,3.45,0.27,74.46,44.35,2558183,John Johnson,43,2019,25,3,09:03:00,TB,1,10,TB,20,28,2560770,SINGLEBACK,"1 RB, 2 TE, 2 WR",8,"4 DL, 3 LB, 4 DB",left,2019-09-29T22:13:53.000Z,2019-09-29T22:13:52.000Z,6-0,209,12/19/1995,Boston College,SS,LA,TB,4,Los Angeles Memorial Coliseum,"Los Angeles, Calif.",Outdoor,Grass,Mostly Sunny,74.0,41,2,SW
56340,2019092909,20190929093069,home,84.77,26.47,1.08,0.88,0.11,64.02,357.56,2561079,Sebastian Joseph-Day,69,2019,25,3,09:03:00,TB,1,10,TB,20,28,2560770,SINGLEBACK,"1 RB, 2 TE, 2 WR",8,"4 DL, 3 LB, 4 DB",left,2019-09-29T22:13:53.000Z,2019-09-29T22:13:52.000Z,6-4,310,03/21/1995,Rutgers,DT,LA,TB,4,Los Angeles Memorial Coliseum,"Los Angeles, Calif.",Outdoor,Grass,Mostly Sunny,74.0,41,2,SW
56341,2019092909,20190929093069,home,82.4,27.9,3.17,1.16,0.31,99.18,32.67,2563313,Troy Reeder,51,2019,25,3,09:03:00,TB,1,10,TB,20,28,2560770,SINGLEBACK,"1 RB, 2 TE, 2 WR",8,"4 DL, 3 LB, 4 DB",left,2019-09-29T22:13:53.000Z,2019-09-29T22:13:52.000Z,6-3,245,09/13/1994,Delaware,LB,LA,TB,4,Los Angeles Memorial Coliseum,"Los Angeles, Calif.",Outdoor,Grass,Mostly Sunny,74.0,41,2,SW
