,GameId,PlayId,Team,X,Y,S,A,Dis,Orientation,Dir,NflId,DisplayName,JerseyNumber,Season,YardLine,Quarter,GameClock,PossessionTeam,Down,Distance,FieldPosition,HomeScoreBeforePlay,VisitorScoreBeforePlay,NflIdRusher,OffenseFormation,OffensePersonnel,DefendersInTheBox,DefensePersonnel,PlayDirection,TimeHandoff,TimeSnap,PlayerHeight,PlayerWeight,PlayerBirthDate,PlayerCollegeName,Position,HomeTeamAbbr,VisitorTeamAbbr,Week,Stadium,Location,StadiumType,Turf,GameWeather,Temperature,Humidity,WindSpeed,WindDirection
51942,2019092905,20190929050669,away,88.58,28.46,1.53,0.66,0.16,274.07,5.79,2495483,Corey Liuget,94,2019,22,1,06:36:00,IND,1,10,OAK,0,14,2558123,SINGLEBACK,"1 RB, 1 TE, 3 WR",8,"4 DL, 2 LB, 5 DB",right,2019-09-29T17:31:19.000Z,2019-09-29T17:31:18.000Z,6-2,300,03/18/1990,Illinois,DT,IND,OAK,4,Lucas Oil Stadium,"Indianapolis, Ind.",Retr. Roof-Closed,Artificial,Cloudy,77.0,72,10,NNE
51943,2019092905,20190929050669,away,90.67,32.53,1.62,3.13,0.17,249.45,239.83,2532986,Tahir Whitehead,59,2019,22,1,06:36:00,IND,1,10,OAK,0,14,2558123,SINGLEBACK,"1 RB, 1 TE, 3 WR",8,"4 DL, 2 LB, 5 DB",right,2019-09-29T17:31:19.000Z,2019-09-29T17:31:18.000Z,6-1,241,04/02/1990,Temple,OLB,IND,OAK,4,Lucas Oil Stadium,"Indianapolis, Ind.",Retr. Roof-Closed,Artificial,Cloudy,77.0,72,10,NNE
51944,2019092905,20190929050669,away,91.81,27.63,1.9,1.91,0.19,269.41,253.13,2533058,Vontaze Burfict,55,2019,22,1,06:36:00,IND,1,10,OAK,0,14,2558123,SINGLEBACK,"1 RB, 1 TE, 3 WR",8,"4 DL, 2 LB, 5 DB",right,2019-09-29T17:31:19.000Z,2019-09-29T17:31:18.000Z,6-1,255,09/24/1990,Arizona State,OLB,IND,OAK,4,Lucas Oil Stadium,"Indianapolis, Ind.",Retr. Roof-Closed,Artificial,Cloudy,77.0,72,10,NNE
51945,2019092905,20190929050669,away,88.13,30.41,0.6,1.11,0.06,249.99,348.74,2540147,Johnathan Hankins,90,2019,22,1,06:36:00,IND,1,10,OAK,0,14,2558123,SINGLEBACK,"1 RB, 1 TE, 3 WR",8,"4 DL, 2 LB, 5 DB",right,2019-09-29T17:31:19.000Z,2019-09-29T17:31:18.000Z,6-3,340,03/30/1992,Ohio State,DT,IND,OAK,4,Lucas Oil Stadium,"Indianapolis, Ind.",Retr. Roof-Closed,Artificial,Cloudy,77.0,72,10,NNE
51946,2019092905,20190929050669,away,89.94,32.82,2.21,1.88,0.22,203.02,202.79,2543492,Lamarcus Joyner,29,2019,22,1,06:36:00,IND,1,10,OAK,0,14,2558123,SINGLEBACK,"1 RB, 1 TE, 3 WR",8,"4 DL, 2 LB, 5 DB",right,2019-09-29T17:31:19.000Z,2019-09-29T17:31:18.000Z,5-8,185,11/27/1990,Florida State,FS,IND,OAK,4,Lucas Oil Stadium,"Indianapolis, Ind.",Retr. Roof-Closed,Artificial,Cloudy,77.0,72,10,NNE
51947,2019092905,20190929050669,away,87.29,26.78,1.9,1.97,0.19,305.16,354.18,2550437,Josh Mauro,97,2019,22,1,06:36:00,IND,1,10,OAK,0,14,2558123,SINGLEBACK,"1 RB, 1 TE, 3 WR",8,"4 DL, 2 LB, 5 DB",right,2019-09-29T17:31:19.000Z,2019-09-29T17:31:18.000Z,6-6,290,02/17/1991,Stanford,DE,IND,OAK,4,Lucas Oil Stadium,"Indianapolis, Ind.",Retr. Roof-Closed,Artificial,Cloudy,77.0,72,10,NNE
51948,2019092905,20190929050669,away,91.07,24.99,2.75,2.53,0.26,262.21,314.18,2555342,Karl Joseph,42,2019,22,1,06:36:00,IND,1,10,OAK,0,14,2558123,SINGLEBACK,"1 RB, 1 TE, 3 WR",8,"4 DL, 2 LB, 5 DB",right,2019-09-29T17:31:19.000Z,2019-09-29T17:31:18.000Z,5-10,200,09/08/1993,West Virginia,SS,IND,OAK,4,Lucas Oil Stadium,"Indianapolis, Ind.",Retr. Roof-Closed,Artificial,Cloudy,77.0,72,10,NNE
51949,2019092905,20190929050669,away,89.78,43.51,1.0,5.0,0.08,358.0,79.55,2555394,Daryl Worley,20,2019,22,1,06:36:00,IND,1,10,OAK,0,14,2558123,SINGLEBACK,"1 RB, 1 TE, 3 WR",8,"4 DL, 2 LB, 5 DB",right,2019-09-29T17:31:19.000Z,2019-09-29T17:31:18.000Z,6-1,215,02/22/1995,West Virginia,CB,IND,OAK,4,Lucas Oil Stadium,"Indianapolis, Ind.",Retr. Roof-Closed,Artificial,Cloudy,77.0,72,10,NNE
51950,2019092905,20190929050669,away,104.96,31.37,0.74,1.24,0.07,265.8,172.65,2555568,Erik Harris,25,2019,22,1,06:36:00,IND,1,10,OAK,0,14,2558123,SINGLEBACK,"1 RB, 1 TE, 3 WR",8,"4 DL, 2 LB, 5 DB",right,2019-09-29T17:31:19.000Z,2019-09-29T17:31:18.000Z,6-2,220,04/02/1990,"California, Pa.",SS,IND,OAK,4,Lucas Oil Stadium,"Indianapolis, Ind.",Retr. Roof-Closed,Artificial,Cloudy,77.0,72,10,NNE
51951,2019092905,20190929050669,away,89.47,23.65,2.75,3.03,0.26,324.58,38.21,2558062,Gareon Conley,21,2019,22,1,06:36:00,IND,1,10,OAK,0,14,2558123,SINGLEBACK,"1 RB, 1 TE, 3 WR",8,"4 DL, 2 LB, 5 DB",right,2019-09-29T17:31:19.000Z,2019-09-29T17:31:18.000Z,6-0,190,06/29/1995,Ohio State,CB,IND,OAK,4,Lucas Oil Stadium,"Indianapolis, Ind.",Retr. Roof-Closed,Artificial,Cloudy,77.0,72,10,NNE
51952,2019092905,20190929050669,away,86.93,34.36,1.28,1.2,0.13,225.18,268.2,2562263,Clelin Ferrell,96,2019,22,1,06:36:00,IND,1,10,OAK,0,14,2558123,SINGLEBACK,"1 RB, 1 TE, 3 WR",8,"4 DL, 2 LB, 5 DB",right,2019-09-29T17:31:19.000Z,2019-09-29T17:31:18.000Z,6-4,265,05/17/1997,Clemson,DL,IND,OAK,4,Lucas Oil Stadium,"Indianapolis, Ind.",Retr. Roof-Closed,Artificial,Cloudy,77.0,72,10,NNE
51953,2019092905,20190929050669,home,86.86,33.17,0.28,0.81,0.04,351.55,88.73,2495137,Anthony Castonzo,74,2019,22,1,06:36:00,IND,1,10,OAK,0,14,2558123,SINGLEBACK,"1 RB, 1 TE, 3 WR",8,"4 DL, 2 LB, 5 DB",right,2019-09-29T17:31:19.000Z,2019-09-29T17:31:18.000Z,6-7,307,08/09/1988,Boston College,T,IND,OAK,4,Lucas Oil Stadium,"Indianapolis, Ind.",Retr. Roof-Closed,Artificial,Cloudy,77.0,72,10,NNE
51954,2019092905,20190929050669,home,87.91,28.67,1.55,0.61,0.15,72.47,24.04,2552467,Mark Glowinski,64,2019,22,1,06:36:00,IND,1,10,OAK,0,14,2558123,SINGLEBACK,"1 RB, 1 TE, 3 WR",8,"4 DL, 2 LB, 5 DB",right,2019-09-29T17:31:19.000Z,2019-09-29T17:31:18.000Z,6-4,310,05/03/1992,West Virginia,G,IND,OAK,4,Lucas Oil Stadium,"Indianapolis, Ind.",Retr. Roof-Closed,Artificial,Cloudy,77.0,72,10,NNE
51955,2019092905,20190929050669,home,87.64,30.22,0.47,0.53,0.06,68.88,359.23,2555191,Ryan Kelly,78,2019,22,1,06:36:00,IND,1,10,OAK,0,14,2558123,SINGLEBACK,"1 RB, 1 TE, 3 WR",8,"4 DL, 2 LB, 5 DB",right,2019-09-29T17:31:19.000Z,2019-09-29T17:31:18.000Z,6-4,309,05/30/1993,Alabama,C,IND,OAK,4,Lucas Oil Stadium,"Indianapolis, Ind.",Retr. Roof-Closed,Artificial,Cloudy,77.0,72,10,NNE
51956,2019092905,20190929050669,home,84.38,29.55,4.74,3.14,0.46,188.58,277.96,2555261,Jacoby Brissett,7,2019,22,1,06:36:00,IND,1,10,OAK,0,14,2558123,SINGLEBACK,"1 RB, 1 TE, 3 WR",8,"4 DL, 2 LB, 5 DB",right,2019-09-29T17:31:19.000Z,2019-09-29T17:31:18.000Z,6-4,235,12/11/1992,North Carolina State,QB,IND,OAK,4,Lucas Oil Stadium,"Indianapolis, Ind.",Retr. Roof-Closed,Artificial,Cloudy,77.0,72,10,NNE
51957,2019092905,20190929050669,home,81.95,29.45,3.62,4.03,0.34,91.91,108.87,2558123,Marlon Mack,25,2019,22,1,06:36:00,IND,1,10,OAK,0,14,2558123,SINGLEBACK,"1 RB, 1 TE, 3 WR",8,"4 DL, 2 LB, 5 DB",right,2019-09-29T17:31:19.000Z,2019-09-29T17:31:18.000Z,6-0,210,03/07/1996,South Florida,RB,IND,OAK,4,Lucas Oil Stadium,"Indianapolis, Ind.",Retr. Roof-Closed,Artificial,Cloudy,77.0,72,10,NNE
51958,2019092905,20190929050669,home,86.53,27.0,2.45,1.25,0.25,94.28,14.62,2558832,Mo Alie-Cox,81,2019,22,1,06:36:00,IND,1,10,OAK,0,14,2558123,SINGLEBACK,"1 RB, 1 TE, 3 WR",8,"4 DL, 2 LB, 5 DB",right,2019-09-29T17:31:19.000Z,2019-09-29T17:31:18.000Z,6-5,267,09/19/1993,Virginia Commonwealth,TE,IND,OAK,4,Lucas Oil Stadium,"Indianapolis, Ind.",Retr. Roof-Closed,Artificial,Cloudy,77.0,72,10,NNE
51959,2019092905,20190929050669,home,88.83,24.38,3.08,2.5,0.3,73.57,41.17,2558877,Zach Pascal,14,2019,22,1,06:36:00,IND,1,10,OAK,0,14,2558123,SINGLEBACK,"1 RB, 1 TE, 3 WR",8,"4 DL, 2 LB, 5 DB",right,2019-09-29T17:31:19.000Z,2019-09-29T17:31:18.000Z,6-2,214,12/18/1994,Old Dominion,WR,IND,OAK,4,Lucas Oil Stadium,"Indianapolis, Ind.",Retr. Roof-Closed,Artificial,Cloudy,77.0,72,10,NNE
51960,2019092905,20190929050669,home,87.93,31.13,0.8,1.8,0.08,125.98,43.94,2560820,Quenton Nelson,56,2019,22,1,06:36:00,IND,1,10,OAK,0,14,2558123,SINGLEBACK,"1 RB, 1 TE, 3 WR",8,"4 DL, 2 LB, 5 DB",right,2019-09-29T17:31:19.000Z,2019-09-29T17:31:18.000Z,6-5,330,03/19/1996,Notre Dame,G,IND,OAK,4,Lucas Oil Stadium,"Indianapolis, Ind.",Retr. Roof-Closed,Artificial,Cloudy,77.0,72,10,NNE
51961,2019092905,20190929050669,home,88.01,27.85,1.92,1.28,0.2,42.86,40.75,2560876,Braden Smith,72,2019,22,1,06:36:00,IND,1,10,OAK,0,14,2558123,SINGLEBACK,"1 RB, 1 TE, 3 WR",8,"4 DL, 2 LB, 5 DB",right,2019-09-29T17:31:19.000Z,2019-09-29T17:31:18.000Z,6-6,315,03/25/1996,Auburn,G,IND,OAK,4,Lucas Oil Stadium,"Indianapolis, Ind.",Retr. Roof-Closed,Artificial,Cloudy,77.0,72,10,NNE
51962,2019092905,20190929050669,home,88.11,43.62,2.77,3.09,0.26,109.28,99.09,2560987,Deon Cain,11,2019,22,1,06:36:00,IND,1,10,OAK,0,14,2558123,SINGLEBACK,"1 RB, 1 TE, 3 WR",8,"4 DL, 2 LB, 5 DB",right,2019-09-29T17:31:19.000Z,2019-09-29T17:31:18.000Z,6-2,202,08/09/1996,Clemson,WR,IND,OAK,4,Lucas Oil Stadium,"Indianapolis, Ind.",Retr. Roof-Closed,Artificial,Cloudy,77.0,72,10,NNE
51963,2019092905,20190929050669,home,83.75,24.83,7.03,1.68,0.71,122.59,178.94,2562495,Parris Campbell,15,2019,22,1,06:36:00,IND,1,10,OAK,0,14,2558123,SINGLEBACK,"1 RB, 1 TE, 3 WR",8,"4 DL, 2 LB, 5 DB",right,2019-09-29T17:31:19.000Z,2019-09-29T17:31:18.000Z,6-0,205,07/16/1997,Ohio State,WR,IND,OAK,4,Lucas Oil Stadium,"Indianapolis, Ind.",Retr. Roof-Closed,Artificial,Cloudy,77.0,72,10,NNE
