,GameId,PlayId,Team,X,Y,S,A,Dis,Orientation,Dir,NflId,DisplayName,JerseyNumber,Season,YardLine,Quarter,GameClock,PossessionTeam,Down,Distance,FieldPosition,HomeScoreBeforePlay,VisitorScoreBeforePlay,NflIdRusher,OffenseFormation,OffensePersonnel,DefendersInTheBox,DefensePersonnel,PlayDirection,TimeHandoff,TimeSnap,PlayerHeight,PlayerWeight,PlayerBirthDate,PlayerCollegeName,Position,HomeTeamAbbr,VisitorTeamAbbr,Week,Stadium,Location,StadiumType,Turf,GameWeather,Temperature,Humidity,WindSpeed,WindDirection
51524,2019092904,20190929043095,away,69.09,28.87,4.55,1.43,0.45,15.37,357.12,2495700,Greg Olsen,88,2019,38,3,00:17:00,CAR,2,5,HST,10,10,2557997,SHOTGUN,"1 RB, 1 TE, 3 WR",7,"3 DL, 3 LB, 5 DB",right,2019-09-29T19:21:40.000Z,2019-09-29T19:21:39.000Z,6-5,255,03/11/1985,Miami,TE,HOU,CAR,4,NRG Stadium,"Houston, TX",Retractable Roof,Artificial,Mostly Cloudy,89.0,61,6mph,SE
51525,2019092904,20190929043095,away,66.05,17.52,4.1,1.86,0.42,119.01,165.75,2532978,Jarius Wright,13,2019,38,3,00:17:00,CAR,2,5,HST,10,10,2557997,SHOTGUN,"1 RB, 1 TE, 3 WR",7,"3 DL, 3 LB, 5 DB",right,2019-09-29T19:21:40.000Z,2019-09-29T19:21:39.000Z,5-10,191,11/25/1989,Arkansas,WR,HOU,CAR,4,NRG Stadium,"Houston, TX",Retractable Roof,Artificial,Mostly Cloudy,89.0,61,6mph,SE
51526,2019092904,20190929043095,away,70.7,30.07,0.83,0.91,0.08,161.29,246.38,2538145,Greg Van Roten,73,2019,38,3,00:17:00,CAR,2,5,HST,10,10,2557997,SHOTGUN,"1 RB, 1 TE, 3 WR",7,"3 DL, 3 LB, 5 DB",right,2019-09-29T19:21:40.000Z,2019-09-29T19:21:39.000Z,6-3,305,02/26/1990,Pennsylvania,G,HOU,CAR,4,NRG Stadium,"Houston, TX",Retractable Roof,Artificial,Mostly Cloudy,89.0,61,6mph,SE
51527,2019092904,20190929043095,away,72.29,28.17,1.15,1.83,0.12,163.15,87.89,2550155,Matt Paradis,61,2019,38,3,00:17:00,CAR,2,5,HST,10,10,2557997,SHOTGUN,"1 RB, 1 TE, 3 WR",7,"3 DL, 3 LB, 5 DB",right,2019-09-29T19:21:40.000Z,2019-09-29T19:21:39.000Z,6-3,300,10/12/1989,Boise State,C,HOU,CAR,4,NRG Stadium,"Houston, TX",Retractable Roof,Artificial,Mostly Cloudy,89.0,61,6mph,SE
51528,2019092904,20190929043095,away,70.06,30.94,2.17,1.89,0.23,30.07,340.79,2552357,Daryl Williams,60,2019,38,3,00:17:00,CAR,2,5,HST,10,10,2557997,SHOTGUN,"1 RB, 1 TE, 3 WR",7,"3 DL, 3 LB, 5 DB",right,2019-09-29T19:21:40.000Z,2019-09-29T19:21:39.000Z,6-6,330,08/31/1992,Oklahoma,T,HOU,CAR,4,NRG Stadium,"Houston, TX",Retractable Roof,Artificial,Mostly Cloudy,89.0,61,6mph,SE
51529,2019092904,20190929043095,away,69.38,27.46,1.86,0.75,0.18,171.24,256.87,2557871,Taylor Moton,72,2019,38,3,00:17:00,CAR,2,5,HST,10,10,2557997,SHOTGUN,"1 RB, 1 TE, 3 WR",7,"3 DL, 3 LB, 5 DB",right,2019-09-29T19:21:40.000Z,2019-09-29T19:21:39.000Z,6-5,325,03/18/1994,Western Michigan,T,HOU,CAR,4,NRG Stadium,"Houston, TX",Retractable Roof,Artificial,Mostly Cloudy,89.0,61,6mph,SE
51530,2019092904,20190929043095,away,67.52,29.18,3.17,2.2,0.31,44.18,28.6,2557997,Christian McCaffrey,22,2019,38,3,00:17:00,CAR,2,5,HST,10,10,2557997,SHOTGUN,"1 RB, 1 TE, 3 WR",7,"3 DL, 3 LB, 5 DB",right,2019-09-29T19:21:40.000Z,2019-09-29T19:21:39.000Z,5-11,205,06/07/1996,Stanford,RB,HOU,CAR,4,NRG Stadium,"Houston, TX",Retractable Roof,Artificial,Mostly Cloudy,89.0,61,6mph,SE
51531,2019092904,20190929043095,away,72.3,14.28,1.22,1.94,0.13,35.2,105.04,2558066,Curtis Samuel,10,2019,38,3,00:17:00,CAR,2,5,HST,10,10,2557997,SHOTGUN,"1 RB, 1 TE, 3 WR",7,"3 DL, 3 LB, 5 DB",right,2019-09-29T19:21:40.000Z,2019-09-29T19:21:39.000Z,5-11,195,08/11/1996,Ohio State,WR,HOU,CAR,4,NRG Stadium,"Houston, TX",Retractable Roof,Artificial,Mostly Cloudy,89.0,61,6mph,SE
51532,2019092904,20190929043095,away,73.5,46.82,4.52,1.56,0.44,89.7,48.16,2560813,D.J. Moore,12,2019,38,3,00:17:00,CAR,2,5,HST,10,10,2557997,SHOTGUN,"1 RB, 1 TE, 3 WR",7,"3 DL, 3 LB, 5 DB",right,2019-09-29T19:21:40.000Z,2019-09-29T19:21:39.000Z,6-0,215,04/14/1997,Maryland,WR,HOU,CAR,4,NRG Stadium,"Houston, TX",Retractable Roof,Artificial,Mostly Cloudy,89.0,61,6mph,SE
51533,2019092904,20190929043095,away,66.29,28.03,3.32,1.25,0.33,149.25,198.21,2561177,Kyle Allen,7,2019,38,3,00:17:00,CAR,2,5,HST,10,10,2557997,SHOTGUN,"1 RB, 1 TE, 3 WR",7,"3 DL, 3 LB, 5 DB",right,2019-09-29T19:21:40.000Z,2019-09-29T19:21:39.000Z,6-3,211,03/08/1996,Houston,QB,HOU,CAR,4,NRG Stadium,"Houston, TX",Retractable Roof,Artificial,Mostly Cloudy,89.0,61,6mph,SE
51534,2019092904,20190929043095,away,70.52,30.74,1.83,1.87,0.19,31.88,207.66,2562304,Greg Little,74,2019,38,3,00:17:00,CAR,2,5,HST,10,10,2557997,SHOTGUN,"1 RB, 1 TE, 3 WR",7,"3 DL, 3 LB, 5 DB",right,2019-09-29T19:21:40.000Z,2019-09-29T19:21:39.000Z,6-5,310,11/04/1997,Mississippi,T,HOU,CAR,4,NRG Stadium,"Houston, TX",Retractable Roof,Artificial,Mostly Cloudy,89.0,61,6mph,SE
51535,2019092904,20190929043095,home,69.8,24.96,1.83,2.17,0.18,322.01,287.19,2495488,J.J. Watt,99,2019,38,3,00:17:00,CAR,2,5,HST,10,10,2557997,SHOTGUN,"1 RB, 1 TE, 3 WR",7,"3 DL, 3 LB, 5 DB",right,2019-09-29T19:21:40.000Z,2019-09-29T19:21:39.000Z,6-5,288,03/22/1989,Wisconsin,DE,HOU,CAR,4,NRG Stadium,"Houston, TX",Retractable Roof,Artificial,Mostly Cloudy,89.0,61,6mph,SE
51536,2019092904,20190929043095,home,79.91,15.04,1.33,1.72,0.13,281.44,8.81,2495872,Johnathan Joseph,24,2019,38,3,00:17:00,CAR,2,5,HST,10,10,2557997,SHOTGUN,"1 RB, 1 TE, 3 WR",7,"3 DL, 3 LB, 5 DB",right,2019-09-29T19:21:40.000Z,2019-09-29T19:21:39.000Z,5-11,185,04/16/1984,South Carolina,CB,HOU,CAR,4,NRG Stadium,"Houston, TX",Retractable Roof,Artificial,Mostly Cloudy,89.0,61,6mph,SE
51537,2019092904,20190929043095,home,72.75,25.79,3.88,2.49,0.38,302.51,311.7,2532848,Tashaun Gipson,39,2019,38,3,00:17:00,CAR,2,5,HST,10,10,2557997,SHOTGUN,"1 RB, 1 TE, 3 WR",7,"3 DL, 3 LB, 5 DB",right,2019-09-29T19:21:40.000Z,2019-09-29T19:21:39.000Z,6-1,212,08/07/1990,Wyoming,FS,HOU,CAR,4,NRG Stadium,"Houston, TX",Retractable Roof,Artificial,Mostly Cloudy,89.0,61,6mph,SE
51538,2019092904,20190929043095,home,70.69,33.14,1.7,2.19,0.18,217.45,225.89,2533049,Whitney Mercilus,59,2019,38,3,00:17:00,CAR,2,5,HST,10,10,2557997,SHOTGUN,"1 RB, 1 TE, 3 WR",7,"3 DL, 3 LB, 5 DB",right,2019-09-29T19:21:40.000Z,2019-09-29T19:21:39.000Z,6-4,258,07/21/1990,Illinois,OLB,HOU,CAR,4,NRG Stadium,"Houston, TX",Retractable Roof,Artificial,Mostly Cloudy,89.0,61,6mph,SE
51539,2019092904,20190929043095,home,74.51,19.05,5.83,1.83,0.59,240.11,205.12,2543505,Bradley Roby,21,2019,38,3,00:17:00,CAR,2,5,HST,10,10,2557997,SHOTGUN,"1 RB, 1 TE, 3 WR",7,"3 DL, 3 LB, 5 DB",right,2019-09-29T19:21:40.000Z,2019-09-29T19:21:39.000Z,5-11,194,05/01/1992,Ohio State,CB,HOU,CAR,4,NRG Stadium,"Houston, TX",Retractable Roof,Artificial,Mostly Cloudy,89.0,61,6mph,SE
51540,2019092904,20190929043095,home,70.82,31.34,1.38,3.6,0.15,231.7,262.51,2552490,Benardrick McKinney,55,2019,38,3,00:17:00,CAR,2,5,HST,10,10,2557997,SHOTGUN,"1 RB, 1 TE, 3 WR",7,"3 DL, 3 LB, 5 DB",right,2019-09-29T19:21:40.000Z,2019-09-29T19:21:39.000Z,6-4,257,11/19/1992,Mississippi State,ILB,HOU,CAR,4,NRG Stadium,"Houston, TX",Retractable Roof,Artificial,Mostly Cloudy,89.0,61,6mph,SE
51541,2019092904,20190929043095,home,71.34,29.89,0.81,1.26,0.08,250.58,247.72,2555388,D.J. Reader,98,2019,38,3,00:17:00,CAR,2,5,HST,10,10,2557997,SHOTGUN,"1 RB, 1 TE, 3 WR",7,"3 DL, 3 LB, 5 DB",right,2019-09-29T19:21:40.000Z,2019-09-29T19:21:39.000Z,6-3,347,07/01/1994,Clemson,DT,HOU,CAR,4,NRG Stadium,"Houston, TX",Retractable Roof,Artificial,Mostly Cloudy,89.0,61,6mph,SE
51542,2019092904,20190929043095,home,72.79,27.67,1.15,1.31,0.11,307.55,57.96,2557877,Carlos Watkins,91,2019,38,3,00:17:00,CAR,2,5,HST,10,10,2557997,SHOTGUN,"1 RB, 1 TE, 3 WR",7,"3 DL, 3 LB, 5 DB",right,2019-09-29T19:21:40.000Z,2019-09-29T19:21:39.000Z,6-3,297,12/05/1993,Clemson,DT,HOU,CAR,4,NRG Stadium,"Houston, TX",Retractable Roof,Artificial,Mostly Cloudy,89.0,61,6mph,SE
51543,2019092904,20190929043095,home,73.62,29.36,3.4,1.45,0.34,282.8,330.95,2558094,Zach Cunningham,41,2019,38,3,00:17:00,CAR,2,5,HST,10,10,2557997,SHOTGUN,"1 RB, 1 TE, 3 WR",7,"3 DL, 3 LB, 5 DB",right,2019-09-29T19:21:40.000Z,2019-09-29T19:21:39.000Z,6-3,238,12/12/1994,Vanderbilt,ILB,HOU,CAR,4,NRG Stadium,"Houston, TX",Retractable Roof,Artificial,Mostly Cloudy,89.0,61,6mph,SE
51544,2019092904,20190929043095,home,90.56,29.52,1.23,1.95,0.12,280.14,69.67,2560851,Justin Reid,20,2019,38,3,00:17:00,CAR,2,5,HST,10,10,2557997,SHOTGUN,"1 RB, 1 TE, 3 WR",7,"3 DL, 3 LB, 5 DB",right,2019-09-29T19:21:40.000Z,2019-09-29T19:21:39.000Z,6-1,204,02/15/1997,Stanford,SS,HOU,CAR,4,NRG Stadium,"Houston, TX",Retractable Roof,Artificial,Mostly Cloudy,89.0,61,6mph,SE
51545,2019092904,20190929043095,home,74.25,45.5,3.79,2.27,0.37,353.58,54.41,2562295,Lonnie Johnson,32,2019,38,3,00:17:00,CAR,2,5,HST,10,10,2557997,SHOTGUN,"1 RB, 1 TE, 3 WR",7,"3 DL, 3 LB, 5 DB",right,2019-09-29T19:21:40.000Z,2019-09-29T19:21:39.000Z,6-2,213,11/04/1995,Kentucky,DB,HOU,CAR,4,NRG Stadium,"Houston, TX",Retractable Roof,Artificial,Mostly Cloudy,89.0,61,6mph,SE
