,GameId,PlayId,Team,X,Y,S,A,Dis,Orientation,Dir,NflId,DisplayName,JerseyNumber,Season,YardLine,Quarter,GameClock,PossessionTeam,Down,Distance,FieldPosition,HomeScoreBeforePlay,VisitorScoreBeforePlay,NflIdRusher,OffenseFormation,OffensePersonnel,DefendersInTheBox,DefensePersonnel,PlayDirection,TimeHandoff,TimeSnap,PlayerHeight,PlayerWeight,PlayerBirthDate,PlayerCollegeName,Position,HomeTeamAbbr,VisitorTeamAbbr,Week,Stadium,Location,StadiumType,Turf,GameWeather,Temperature,Humidity,WindSpeed,WindDirection
45078,2019092300,20190923000865,away,39.0,16.26,4.34,1.17,0.43,352.01,235.43,2495108,Prince Amukamara,20,2019,34,1,02:15:00,WAS,1,10,CHI,0,7,2507164,SINGLEBACK,"1 RB, 1 TE, 3 WR",6,"2 DL, 4 LB, 5 DB",left,2019-09-24T00:47:32.000Z,2019-09-24T00:47:31.000Z,6-0,204,06/06/1989,Nebraska,CB,WAS,CHI,3,FedexField,"Landover, MD",Outdoor,Grass,Cloudy,87.0,39,5,SW
45079,2019092300,20190923000865,away,45.18,32.87,5.87,2.67,0.58,160.35,160.59,2495343,Buster Skrine,24,2019,34,1,02:15:00,WAS,1,10,CHI,0,7,2507164,SINGLEBACK,"1 RB, 1 TE, 3 WR",6,"2 DL, 4 LB, 5 DB",left,2019-09-24T00:47:32.000Z,2019-09-24T00:47:31.000Z,5-9,185,04/26/1989,Chattanooga,CB,WAS,CHI,3,FedexField,"Landover, MD",Outdoor,Grass,Cloudy,87.0,39,5,SW
45080,2019092300,20190923000865,away,40.47,27.37,1.08,2.45,0.12,76.88,142.94,2532961,Danny Trevathan,59,2019,34,1,02:15:00,WAS,1,10,CHI,0,7,2507164,SINGLEBACK,"1 RB, 1 TE, 3 WR",6,"2 DL, 4 LB, 5 DB",left,2019-09-24T00:47:32.000Z,2019-09-24T00:47:31.000Z,6-0,239,03/24/1990,Kentucky,ILB,WAS,CHI,3,FedexField,"Landover, MD",Outdoor,Grass,Cloudy,87.0,39,5,SW
45081,2019092300,20190923000865,away,42.84,26.57,4.0,0.49,0.42,113.78,182.77,2541479,Nick Williams,97,2019,34,1,02:15:00,WAS,1,10,CHI,0,7,2507164,SINGLEBACK,"1 RB, 1 TE, 3 WR",6,"2 DL, 4 LB, 5 DB",left,2019-09-24T00:47:32.000Z,2019-09-24T00:47:31.000Z,6-4,309,02/21/1990,Samford,DT,WAS,CHI,3,FedexField,"Landover, MD",Outdoor,Grass,Cloudy,87.0,39,5,SW
45082,2019092300,20190923000865,away,43.59,30.27,4.76,1.75,0.48,135.0,179.81,2543463,Khalil Mack,52,2019,34,1,02:15:00,WAS,1,10,CHI,0,7,2507164,SINGLEBACK,"1 RB, 1 TE, 3 WR",6,"2 DL, 4 LB, 5 DB",left,2019-09-24T00:47:32.000Z,2019-09-24T00:47:31.000Z,6-3,269,02/22/1991,Buffalo,OLB,WAS,CHI,3,FedexField,"Landover, MD",Outdoor,Grass,Cloudy,87.0,39,5,SW
45083,2019092300,20190923000865,away,37.43,34.21,4.04,1.36,0.4,113.77,121.98,2543470,Ha Ha Clinton-Dix,21,2019,34,1,02:15:00,WAS,1,10,CHI,0,7,2507164,SINGLEBACK,"1 RB, 1 TE, 3 WR",6,"2 DL, 4 LB, 5 DB",left,2019-09-24T00:47:32.000Z,2019-09-24T00:47:31.000Z,6-1,211,12/21/1992,Alabama,FS,WAS,CHI,3,FedexField,"Landover, MD",Outdoor,Grass,Cloudy,87.0,39,5,SW
45084,2019092300,20190923000865,away,32.53,41.34,3.55,2.17,0.34,136.19,263.1,2543681,Kyle Fuller,23,2019,34,1,02:15:00,WAS,1,10,CHI,0,7,2507164,SINGLEBACK,"1 RB, 1 TE, 3 WR",6,"2 DL, 4 LB, 5 DB",left,2019-09-24T00:47:32.000Z,2019-09-24T00:47:31.000Z,5-11,194,02/16/1992,Virginia Tech,CB,WAS,CHI,3,FedexField,"Landover, MD",Outdoor,Grass,Cloudy,87.0,39,5,SW
45085,2019092300,20190923000865,away,43.52,24.44,3.2,1.78,0.32,82.35,181.39,2552489,Eddie Goldman,91,2019,34,1,02:15:00,WAS,1,10,CHI,0,7,2507164,SINGLEBACK,"1 RB, 1 TE, 3 WR",6,"2 DL, 4 LB, 5 DB",left,2019-09-24T00:47:32.000Z,2019-09-24T00:47:31.000Z,6-3,320,01/06/1994,Florida State,NT,WAS,CHI,3,FedexField,"Landover, MD",Outdoor,Grass,Cloudy,87.0,39,5,SW
45086,2019092300,20190923000865,away,45.36,21.99,3.88,2.99,0.38,50.48,132.44,2555285,Leonard Floyd,94,2019,34,1,02:15:00,WAS,1,10,CHI,0,7,2507164,SINGLEBACK,"1 RB, 1 TE, 3 WR",6,"2 DL, 4 LB, 5 DB",left,2019-09-24T00:47:32.000Z,2019-09-24T00:47:31.000Z,6-5,240,09/08/1992,Georgia,OLB,WAS,CHI,3,FedexField,"Landover, MD",Outdoor,Grass,Cloudy,87.0,39,5,SW
45087,2019092300,20190923000865,away,30.79,24.28,1.0,1.55,0.11,84.29,288.8,2558176,Eddie Jackson,39,2019,34,1,02:15:00,WAS,1,10,CHI,0,7,2507164,SINGLEBACK,"1 RB, 1 TE, 3 WR",6,"2 DL, 4 LB, 5 DB",left,2019-09-24T00:47:32.000Z,2019-09-24T00:47:31.000Z,6-0,202,12/10/1993,Alabama,FS,WAS,CHI,3,FedexField,"Landover, MD",Outdoor,Grass,Cloudy,87.0,39,5,SW
45088,2019092300,20190923000865,away,41.01,24.82,1.35,1.41,0.12,81.73,150.4,2560877,Roquan Smith,58,2019,34,1,02:15:00,WAS,1,10,CHI,0,7,2507164,SINGLEBACK,"1 RB, 1 TE, 3 WR",6,"2 DL, 4 LB, 5 DB",left,2019-09-24T00:47:32.000Z,2019-09-24T00:47:31.000Z,6-0,230,04/08/1997,Georgia,LB,WAS,CHI,3,FedexField,"Landover, MD",Outdoor,Grass,Cloudy,87.0,39,5,SW
45089,2019092300,20190923000865,home,45.47,22.91,4.15,1.71,0.43,250.93,166.37,2506706,Donald Penn,72,2019,34,1,02:15:00,WAS,1,10,CHI,0,7,2507164,SINGLEBACK,"1 RB, 1 TE, 3 WR",6,"2 DL, 4 LB, 5 DB",left,2019-09-24T00:47:32.000Z,2019-09-24T00:47:31.000Z,6-4,315,04/27/1983,Utah State,T,WAS,CHI,3,FedexField,"Landover, MD",Outdoor,Grass,Cloudy,87.0,39,5,SW
45090,2019092300,20190923000865,home,48.92,27.67,5.28,2.48,0.52,257.56,244.47,2507164,Adrian Peterson,26,2019,34,1,02:15:00,WAS,1,10,CHI,0,7,2507164,SINGLEBACK,"1 RB, 1 TE, 3 WR",6,"2 DL, 4 LB, 5 DB",left,2019-09-24T00:47:32.000Z,2019-09-24T00:47:31.000Z,6-1,220,03/21/1985,Oklahoma,RB,WAS,CHI,3,FedexField,"Landover, MD",Outdoor,Grass,Cloudy,87.0,39,5,SW
45091,2019092300,20190923000865,home,49.11,28.47,4.82,1.55,0.48,104.52,102.34,2532888,Case Keenum,8,2019,34,1,02:15:00,WAS,1,10,CHI,0,7,2507164,SINGLEBACK,"1 RB, 1 TE, 3 WR",6,"2 DL, 4 LB, 5 DB",left,2019-09-24T00:47:32.000Z,2019-09-24T00:47:31.000Z,6-1,215,02/17/1988,Houston,QB,WAS,CHI,3,FedexField,"Landover, MD",Outdoor,Grass,Cloudy,87.0,39,5,SW
45092,2019092300,20190923000865,home,43.04,29.12,3.65,1.29,0.37,236.07,218.74,2543489,Morgan Moses,76,2019,34,1,02:15:00,WAS,1,10,CHI,0,7,2507164,SINGLEBACK,"1 RB, 1 TE, 3 WR",6,"2 DL, 4 LB, 5 DB",left,2019-09-24T00:47:32.000Z,2019-09-24T00:47:31.000Z,6-6,330,03/03/1991,Virginia,T,WAS,CHI,3,FedexField,"Landover, MD",Outdoor,Grass,Cloudy,87.0,39,5,SW
45093,2019092300,20190923000865,home,41.98,21.54,4.94,1.63,0.49,276.34,280.62,2543491,Paul Richardson,10,2019,34,1,02:15:00,WAS,1,10,CHI,0,7,2507164,SINGLEBACK,"1 RB, 1 TE, 3 WR",6,"2 DL, 4 LB, 5 DB",left,2019-09-24T00:47:32.000Z,2019-09-24T00:47:31.000Z,6-0,180,04/13/1992,Colorado,WR,WAS,CHI,3,FedexField,"Landover, MD",Outdoor,Grass,Cloudy,87.0,39,5,SW
45094,2019092300,20190923000865,home,42.79,27.83,3.39,1.15,0.35,194.05,207.16,2552032,Brandon Scherff,75,2019,34,1,02:15:00,WAS,1,10,CHI,0,7,2507164,SINGLEBACK,"1 RB, 1 TE, 3 WR",6,"2 DL, 4 LB, 5 DB",left,2019-09-24T00:47:32.000Z,2019-09-24T00:47:31.000Z,6-5,315,12/26/1991,Iowa,G,WAS,CHI,3,FedexField,"Landover, MD",Outdoor,Grass,Cloudy,87.0,39,5,SW
45095,2019092300,20190923000865,home,44.03,24.92,2.6,0.83,0.27,251.45,193.28,2552452,Ereck Flowers,77,2019,34,1,02:15:00,WAS,1,10,CHI,0,7,2507164,SINGLEBACK,"1 RB, 1 TE, 3 WR",6,"2 DL, 4 LB, 5 DB",left,2019-09-24T00:47:32.000Z,2019-09-24T00:47:31.000Z,6-6,329,04/25/1994,Miami,T,WAS,CHI,3,FedexField,"Landover, MD",Outdoor,Grass,Cloudy,87.0,39,5,SW
45096,2019092300,20190923000865,home,45.37,27.87,3.73,3.82,0.37,325.51,315.3,2557886,Jeremy Sprinkle,87,2019,34,1,02:15:00,WAS,1,10,CHI,0,7,2507164,SINGLEBACK,"1 RB, 1 TE, 3 WR",6,"2 DL, 4 LB, 5 DB",left,2019-09-24T00:47:32.000Z,2019-09-24T00:47:31.000Z,6-5,255,08/10/1994,Arkansas,TE,WAS,CHI,3,FedexField,"Landover, MD",Outdoor,Grass,Cloudy,87.0,39,5,SW
45097,2019092300,20190923000865,home,43.37,27.15,3.23,0.73,0.33,224.73,191.4,2558037,Chase Roullier,73,2019,34,1,02:15:00,WAS,1,10,CHI,0,7,2507164,SINGLEBACK,"1 RB, 1 TE, 3 WR",6,"2 DL, 4 LB, 5 DB",left,2019-09-24T00:47:32.000Z,2019-09-24T00:47:31.000Z,6-4,312,08/23/1993,Wyoming,C,WAS,CHI,3,FedexField,"Landover, MD",Outdoor,Grass,Cloudy,87.0,39,5,SW
45098,2019092300,20190923000865,home,47.54,22.53,8.33,2.23,0.84,203.07,188.58,2560847,Trey Quinn,18,2019,34,1,02:15:00,WAS,1,10,CHI,0,7,2507164,SINGLEBACK,"1 RB, 1 TE, 3 WR",6,"2 DL, 4 LB, 5 DB",left,2019-09-24T00:47:32.000Z,2019-09-24T00:47:31.000Z,6-0,202,12/07/1995,Southern Methodist,WR,WAS,CHI,3,FedexField,"Landover, MD",Outdoor,Grass,Cloudy,87.0,39,5,SW
45099,2019092300,20190923000865,home,42.82,37.45,3.86,3.22,0.38,230.56,227.6,2562489,Terry McLaurin,17,2019,34,1,02:15:00,WAS,1,10,CHI,0,7,2507164,SINGLEBACK,"1 RB, 1 TE, 3 WR",6,"2 DL, 4 LB, 5 DB",left,2019-09-24T00:47:32.000Z,2019-09-24T00:47:31.000Z,6-0,210,09/15/1995,Ohio State,WR,WAS,CHI,3,FedexField,"Landover, MD",Outdoor,Grass,Cloudy,87.0,39,5,SW
