,GameId,PlayId,Team,X,Y,S,A,Dis,Orientation,Dir,NflId,DisplayName,JerseyNumber,Season,YardLine,Quarter,GameClock,PossessionTeam,Down,Distance,FieldPosition,HomeScoreBeforePlay,VisitorScoreBeforePlay,NflIdRusher,OffenseFormation,OffensePersonnel,DefendersInTheBox,DefensePersonnel,PlayDirection,TimeHandoff,TimeSnap,PlayerHeight,PlayerWeight,PlayerBirthDate,PlayerCollegeName,Position,HomeTeamAbbr,VisitorTeamAbbr,Week,Stadium,Location,StadiumType,Turf,GameWeather,Temperature,Humidity,WindSpeed,WindDirection
4202,2019090803,20190908033281,away,71.75,23.87,1.16,1.27,0.11,129.05,93.77,2533033,Robert Griffin III,3,2019,33,4,14:10:00,BLT,2,1,MIA,10,52,2561324,SHOTGUN,"1 RB, 1 TE, 3 WR",7,"3 DL, 3 LB, 5 DB",right,2019-09-08T19:33:41.000Z,2019-09-08T19:33:40.000Z,6-2,213,02/12/1990,Baylor,QB,MIA,BAL,1,Hard Rock Stadium,"Miami Gardens, FL",Outdoor,Natural grass,Mostly Cloudy,91.0,56,8,SSE
4203,2019090803,20190908033281,away,77.23,12.6,4.92,2.31,0.48,84.26,106.46,2550256,Willie Snead,83,2019,33,4,14:10:00,BLT,2,1,MIA,10,52,2561324,SHOTGUN,"1 RB, 1 TE, 3 WR",7,"3 DL, 3 LB, 5 DB",right,2019-09-08T19:33:41.000Z,2019-09-08T19:33:40.000Z,5-11,205,10/17/1992,Ball State,WR,MIA,BAL,1,Hard Rock Stadium,"Miami Gardens, FL",Outdoor,Natural grass,Mostly Cloudy,91.0,56,8,SSE
4204,2019090803,20190908033281,away,78.17,7.02,5.25,1.06,0.52,87.33,124.51,2550597,Seth Roberts,11,2019,33,4,14:10:00,BLT,2,1,MIA,10,52,2561324,SHOTGUN,"1 RB, 1 TE, 3 WR",7,"3 DL, 3 LB, 5 DB",right,2019-09-08T19:33:41.000Z,2019-09-08T19:33:40.000Z,6-2,195,02/22/1991,West Alabama,WR,MIA,BAL,1,Hard Rock Stadium,"Miami Gardens, FL",Outdoor,Natural grass,Mostly Cloudy,91.0,56,8,SSE
4205,2019090803,20190908033281,away,75.14,29.28,1.75,1.57,0.18,335.28,0.42,2555204,Ronnie Stanley,79,2019,33,4,14:10:00,BLT,2,1,MIA,10,52,2561324,SHOTGUN,"1 RB, 1 TE, 3 WR",7,"3 DL, 3 LB, 5 DB",right,2019-09-08T19:33:41.000Z,2019-09-08T19:33:40.000Z,6-6,315,03/18/1994,Notre Dame,T,MIA,BAL,1,Hard Rock Stadium,"Miami Gardens, FL",Outdoor,Natural grass,Mostly Cloudy,91.0,56,8,SSE
4206,2019090803,20190908033281,away,76.78,37.21,5.97,3.98,0.57,41.08,32.28,2555209,Chris Moore,10,2019,33,4,14:10:00,BLT,2,1,MIA,10,52,2561324,SHOTGUN,"1 RB, 1 TE, 3 WR",7,"3 DL, 3 LB, 5 DB",right,2019-09-08T19:33:41.000Z,2019-09-08T19:33:40.000Z,6-1,200,06/16/1993,Cincinnati,WR,MIA,BAL,1,Hard Rock Stadium,"Miami Gardens, FL",Outdoor,Natural grass,Mostly Cloudy,91.0,56,8,SSE
4207,2019090803,20190908033281,away,76.47,24.39,0.82,0.86,0.09,111.67,23.84,2556683,Matt Skura,68,2019,33,4,14:10:00,BLT,2,1,MIA,10,52,2561324,SHOTGUN,"1 RB, 1 TE, 3 WR",7,"3 DL, 3 LB, 5 DB",right,2019-09-08T19:33:41.000Z,2019-09-08T19:33:40.000Z,6-3,313,02/17/1993,Duke,C,MIA,BAL,1,Hard Rock Stadium,"Miami Gardens, FL",Outdoor,Natural grass,Mostly Cloudy,91.0,56,8,SSE
4208,2019090803,20190908033281,away,76.08,26.45,1.53,0.9,0.16,69.71,20.06,2559827,Bradley Bozeman,77,2019,33,4,14:10:00,BLT,2,1,MIA,10,52,2561324,SHOTGUN,"1 RB, 1 TE, 3 WR",7,"3 DL, 3 LB, 5 DB",right,2019-09-08T19:33:41.000Z,2019-09-08T19:33:40.000Z,6-3,317,11/24/1994,Alabama,C,MIA,BAL,1,Hard Rock Stadium,"Miami Gardens, FL",Outdoor,Natural grass,Mostly Cloudy,91.0,56,8,SSE
4209,2019090803,20190908033281,away,75.48,18.14,3.18,0.87,0.31,107.91,132.1,2560747,Hayden Hurst,81,2019,33,4,14:10:00,BLT,2,1,MIA,10,52,2561324,SHOTGUN,"1 RB, 1 TE, 3 WR",7,"3 DL, 3 LB, 5 DB",right,2019-09-08T19:33:41.000Z,2019-09-08T19:33:40.000Z,6-4,245,08/24/1993,South Carolina,TE,MIA,BAL,1,Hard Rock Stadium,"Miami Gardens, FL",Outdoor,Natural grass,Mostly Cloudy,91.0,56,8,SSE
4210,2019090803,20190908033281,away,76.67,22.82,2.38,1.21,0.24,4.43,41.18,2560981,Orlando Brown,78,2019,33,4,14:10:00,BLT,2,1,MIA,10,52,2561324,SHOTGUN,"1 RB, 1 TE, 3 WR",7,"3 DL, 3 LB, 5 DB",right,2019-09-08T19:33:41.000Z,2019-09-08T19:33:40.000Z,6-8,345,05/02/1996,Oklahoma,T,MIA,BAL,1,Hard Rock Stadium,"Miami Gardens, FL",Outdoor,Natural grass,Mostly Cloudy,91.0,56,8,SSE
4211,2019090803,20190908033281,away,72.1,23.38,4.78,2.3,0.46,49.27,44.12,2561324,Gus Edwards,35,2019,33,4,14:10:00,BLT,2,1,MIA,10,52,2561324,SHOTGUN,"1 RB, 1 TE, 3 WR",7,"3 DL, 3 LB, 5 DB",right,2019-09-08T19:33:41.000Z,2019-09-08T19:33:40.000Z,6-1,238,04/13/1995,Rutgers,RB,MIA,BAL,1,Hard Rock Stadium,"Miami Gardens, FL",Outdoor,Natural grass,Mostly Cloudy,91.0,56,8,SSE
4212,2019090803,20190908033281,away,76.16,23.49,1.17,1.16,0.12,83.37,40.09,2563100,Patrick Mekari,65,2019,33,4,14:10:00,BLT,2,1,MIA,10,52,2561324,SHOTGUN,"1 RB, 1 TE, 3 WR",7,"3 DL, 3 LB, 5 DB",right,2019-09-08T19:33:41.000Z,2019-09-08T19:33:40.000Z,6-4,308,08/13/1997,California,T,MIA,BAL,1,Hard Rock Stadium,"Miami Gardens, FL",Outdoor,Natural grass,Mostly Cloudy,91.0,56,8,SSE
4213,2019090803,20190908033281,home,77.82,16.92,2.63,3.26,0.29,298.97,233.57,496739,Reshad Jones,20,2019,33,4,14:10:00,BLT,2,1,MIA,10,52,2561324,SHOTGUN,"1 RB, 1 TE, 3 WR",7,"3 DL, 3 LB, 5 DB",right,2019-09-08T19:33:41.000Z,2019-09-08T19:33:40.000Z,6-1,215,02/25/1988,Georgia,SS,MIA,BAL,1,Hard Rock Stadium,"Miami Gardens, FL",Outdoor,Natural grass,Mostly Cloudy,91.0,56,8,SSE
4214,2019090803,20190908033281,home,76.89,23.52,1.82,0.84,0.18,268.14,4.55,2539231,John Jenkins,95,2019,33,4,14:10:00,BLT,2,1,MIA,10,52,2561324,SHOTGUN,"1 RB, 1 TE, 3 WR",7,"3 DL, 3 LB, 5 DB",right,2019-09-08T19:33:41.000Z,2019-09-08T19:33:40.000Z,6-3,327,07/11/1989,Georgia,NT,MIA,BAL,1,Hard Rock Stadium,"Miami Gardens, FL",Outdoor,Natural grass,Mostly Cloudy,91.0,56,8,SSE
4215,2019090803,20190908033281,home,79.13,8.02,4.57,2.68,0.44,225.1,132.24,2552255,Eric Rowe,21,2019,33,4,14:10:00,BLT,2,1,MIA,10,52,2561324,SHOTGUN,"1 RB, 1 TE, 3 WR",7,"3 DL, 3 LB, 5 DB",right,2019-09-08T19:33:41.000Z,2019-09-08T19:33:40.000Z,6-1,205,10/03/1992,Utah,CB,MIA,BAL,1,Hard Rock Stadium,"Miami Gardens, FL",Outdoor,Natural grass,Mostly Cloudy,91.0,56,8,SSE
4216,2019090803,20190908033281,home,92.13,26.07,1.8,0.33,0.18,251.54,26.76,2552434,Bobby McCain,28,2019,33,4,14:10:00,BLT,2,1,MIA,10,52,2561324,SHOTGUN,"1 RB, 1 TE, 3 WR",7,"3 DL, 3 LB, 5 DB",right,2019-09-08T19:33:41.000Z,2019-09-08T19:33:40.000Z,5-11,192,08/18/1993,Memphis,CB,MIA,BAL,1,Hard Rock Stadium,"Miami Gardens, FL",Outdoor,Natural grass,Mostly Cloudy,91.0,56,8,SSE
4217,2019090803,20190908033281,home,78.16,36.68,4.6,3.93,0.43,325.37,34.23,2555539,Xavien Howard,25,2019,33,4,14:10:00,BLT,2,1,MIA,10,52,2561324,SHOTGUN,"1 RB, 1 TE, 3 WR",7,"3 DL, 3 LB, 5 DB",right,2019-09-08T19:33:41.000Z,2019-09-08T19:33:40.000Z,6-1,200,07/04/1993,Baylor,CB,MIA,BAL,1,Hard Rock Stadium,"Miami Gardens, FL",Outdoor,Natural grass,Mostly Cloudy,91.0,56,8,SSE
4218,2019090803,20190908033281,home,77.08,24.37,0.84,0.65,0.09,272.4,12.41,2558012,Davon Godchaux,56,2019,33,4,14:10:00,BLT,2,1,MIA,10,52,2561324,SHOTGUN,"1 RB, 1 TE, 3 WR",7,"3 DL, 3 LB, 5 DB",right,2019-09-08T19:33:41.000Z,2019-09-08T19:33:40.000Z,6-3,311,11/11/1994,Louisiana State,DT,MIA,BAL,1,Hard Rock Stadium,"Miami Gardens, FL",Outdoor,Natural grass,Mostly Cloudy,91.0,56,8,SSE
4219,2019090803,20190908033281,home,75.52,30.24,2.26,3.48,0.23,243.25,327.08,2558031,Avery Moss,93,2019,33,4,14:10:00,BLT,2,1,MIA,10,52,2561324,SHOTGUN,"1 RB, 1 TE, 3 WR",7,"3 DL, 3 LB, 5 DB",right,2019-09-08T19:33:41.000Z,2019-09-08T19:33:40.000Z,6-3,271,09/16/1994,Youngstown State,OLB,MIA,BAL,1,Hard Rock Stadium,"Miami Gardens, FL",Outdoor,Natural grass,Mostly Cloudy,91.0,56,8,SSE
4220,2019090803,20190908033281,home,79.12,24.04,2.15,0.77,0.21,278.14,334.49,2560966,Jerome Baker,55,2019,33,4,14:10:00,BLT,2,1,MIA,10,52,2561324,SHOTGUN,"1 RB, 1 TE, 3 WR",7,"3 DL, 3 LB, 5 DB",right,2019-09-08T19:33:41.000Z,2019-09-08T19:33:40.000Z,6-2,225,12/25/1996,Ohio State,LB,MIA,BAL,1,Hard Rock Stadium,"Miami Gardens, FL",Outdoor,Natural grass,Mostly Cloudy,91.0,56,8,SSE
4221,2019090803,20190908033281,home,81.96,11.85,0.9,1.14,0.09,273.67,179.65,2561226,Chris Lammons,30,2019,33,4,14:10:00,BLT,2,1,MIA,10,52,2561324,SHOTGUN,"1 RB, 1 TE, 3 WR",7,"3 DL, 3 LB, 5 DB",right,2019-09-08T19:33:41.000Z,2019-09-08T19:33:40.000Z,5-10,190,01/31/1996,South Carolina,DB,MIA,BAL,1,Hard Rock Stadium,"Miami Gardens, FL",Outdoor,Natural grass,Mostly Cloudy,91.0,56,8,SSE
4222,2019090803,20190908033281,home,75.63,19.92,3.34,0.37,0.34,338.69,304.78,2562038,Sam Eguavoen,49,2019,33,4,14:10:00,BLT,2,1,MIA,10,52,2561324,SHOTGUN,"1 RB, 1 TE, 3 WR",7,"3 DL, 3 LB, 5 DB",right,2019-09-08T19:33:41.000Z,2019-09-08T19:33:40.000Z,6-0,236,02/22/1993,Texas Tech,LB,MIA,BAL,1,Hard Rock Stadium,"Miami Gardens, FL",Outdoor,Natural grass,Mostly Cloudy,91.0,56,8,SSE
4223,2019090803,20190908033281,home,76.82,26.73,1.48,0.81,0.15,255.21,9.93,2562302,Jonathan Ledbetter,98,2019,33,4,14:10:00,BLT,2,1,MIA,10,52,2561324,SHOTGUN,"1 RB, 1 TE, 3 WR",7,"3 DL, 3 LB, 5 DB",right,2019-09-08T19:33:41.000Z,2019-09-08T19:33:40.000Z,6-4,280,09/12/1997,Georgia,DE,MIA,BAL,1,Hard Rock Stadium,"Miami Gardens, FL",Outdoor,Natural grass,Mostly Cloudy,91.0,56,8,SSE
