,GameId,PlayId,Team,X,Y,S,A,Dis,Orientation,Dir,NflId,DisplayName,JerseyNumber,Season,YardLine,Quarter,GameClock,PossessionTeam,Down,Distance,FieldPosition,HomeScoreBeforePlay,VisitorScoreBeforePlay,NflIdRusher,OffenseFormation,OffensePersonnel,DefendersInTheBox,DefensePersonnel,PlayDirection,TimeHandoff,TimeSnap,PlayerHeight,PlayerWeight,PlayerBirthDate,PlayerCollegeName,Position,HomeTeamAbbr,VisitorTeamAbbr,Week,Stadium,Location,StadiumType,Turf,GameWeather,Temperature,Humidity,WindSpeed,WindDirection
29568,2019091600,20190916000513,away,73.74,22.77,0.22,0.78,0.01,183.19,289.87,2540292,JC Tretter,64,2019,35,1,07:52:00,CLV,1,10,NYJ,0,3,2561021,SINGLEBACK,"1 RB, 1 TE, 3 WR",7,"3 DL, 3 LB, 5 DB",right,2019-09-17T00:36:40.000Z,2019-09-17T00:36:39.000Z,6-4,307,02/12/1991,Cornell,T,NYJ,CLE,2,MetLife Stadium,"East Rutherford, NJ",Outdoors,FieldTurf,Cloudy,72.0,69,3,N
29569,2019091600,20190916000513,away,74.4,26.93,2.28,1.2,0.23,90.4,157.07,2541187,Demetrius Harris,88,2019,35,1,07:52:00,CLV,1,10,NYJ,0,3,2561021,SINGLEBACK,"1 RB, 1 TE, 3 WR",7,"3 DL, 3 LB, 5 DB",right,2019-09-17T00:36:40.000Z,2019-09-17T00:36:39.000Z,6-7,230,07/29/1991,Wisconsin-Milwaukee,TE,NYJ,CLE,2,MetLife Stadium,"East Rutherford, NJ",Outdoors,FieldTurf,Cloudy,72.0,69,3,N
29570,2019091600,20190916000513,away,72.85,26.13,4.72,2.45,0.47,59.98,3.83,2541312,Eric Kush,72,2019,35,1,07:52:00,CLV,1,10,NYJ,0,3,2561021,SINGLEBACK,"1 RB, 1 TE, 3 WR",7,"3 DL, 3 LB, 5 DB",right,2019-09-17T00:36:40.000Z,2019-09-17T00:36:39.000Z,6-4,317,09/09/1989,"California, Pa.",OG,NYJ,CLE,2,MetLife Stadium,"East Rutherford, NJ",Outdoors,FieldTurf,Cloudy,72.0,69,3,N
29571,2019091600,20190916000513,away,72.77,22.34,1.29,1.75,0.13,157.88,294.01,2541716,Chris Hubbard,74,2019,35,1,07:52:00,CLV,1,10,NYJ,0,3,2561021,SINGLEBACK,"1 RB, 1 TE, 3 WR",7,"3 DL, 3 LB, 5 DB",right,2019-09-17T00:36:40.000Z,2019-09-17T00:36:39.000Z,6-4,295,04/23/1991,Alabama-Birmingham,G,NYJ,CLE,2,MetLife Stadium,"East Rutherford, NJ",Outdoors,FieldTurf,Cloudy,72.0,69,3,N
29572,2019091600,20190916000513,away,75.73,24.66,3.14,1.73,0.32,165.09,128.47,2543458,Greg Robinson,78,2019,35,1,07:52:00,CLV,1,10,NYJ,0,3,2561021,SINGLEBACK,"1 RB, 1 TE, 3 WR",7,"3 DL, 3 LB, 5 DB",right,2019-09-17T00:36:40.000Z,2019-09-17T00:36:39.000Z,6-5,332,10/21/1992,Auburn,OT,NYJ,CLE,2,MetLife Stadium,"East Rutherford, NJ",Outdoors,FieldTurf,Cloudy,72.0,69,3,N
29573,2019091600,20190916000513,away,75.59,32.26,2.42,3.16,0.27,69.67,139.03,2543488,Jarvis Landry,80,2019,35,1,07:52:00,CLV,1,10,NYJ,0,3,2561021,SINGLEBACK,"1 RB, 1 TE, 3 WR",7,"3 DL, 3 LB, 5 DB",right,2019-09-17T00:36:40.000Z,2019-09-17T00:36:39.000Z,5-11,196,11/28/1992,Louisiana State,WR,NYJ,CLE,2,MetLife Stadium,"East Rutherford, NJ",Outdoors,FieldTurf,Cloudy,72.0,69,3,N
29574,2019091600,20190916000513,away,71.04,18.54,7.76,3.02,0.78,155.34,176.34,2543496,Odell Beckham,13,2019,35,1,07:52:00,CLV,1,10,NYJ,0,3,2561021,SINGLEBACK,"1 RB, 1 TE, 3 WR",7,"3 DL, 3 LB, 5 DB",right,2019-09-17T00:36:40.000Z,2019-09-17T00:36:39.000Z,5-11,198,11/05/1992,Louisiana State,WR,NYJ,CLE,2,MetLife Stadium,"East Rutherford, NJ",Outdoors,FieldTurf,Cloudy,72.0,69,3,N
29575,2019091600,20190916000513,away,73.99,24.82,0.25,0.49,0.02,154.61,152.02,2543737,Joel Bitonio,75,2019,35,1,07:52:00,CLV,1,10,NYJ,0,3,2561021,SINGLEBACK,"1 RB, 1 TE, 3 WR",7,"3 DL, 3 LB, 5 DB",right,2019-09-17T00:36:40.000Z,2019-09-17T00:36:39.000Z,6-4,320,10/11/1991,Nevada,G,NYJ,CLE,2,MetLife Stadium,"East Rutherford, NJ",Outdoors,FieldTurf,Cloudy,72.0,69,3,N
29576,2019091600,20190916000513,away,70.17,22.92,3.96,3.86,0.39,193.26,232.69,2560800,Baker Mayfield,6,2019,35,1,07:52:00,CLV,1,10,NYJ,0,3,2561021,SINGLEBACK,"1 RB, 1 TE, 3 WR",7,"3 DL, 3 LB, 5 DB",right,2019-09-17T00:36:40.000Z,2019-09-17T00:36:39.000Z,6-1,215,04/14/1995,Oklahoma,QB,NYJ,CLE,2,MetLife Stadium,"East Rutherford, NJ",Outdoors,FieldTurf,Cloudy,72.0,69,3,N
29577,2019091600,20190916000513,away,70.79,22.91,3.95,2.97,0.38,49.95,22.11,2561021,Nick Chubb,24,2019,35,1,07:52:00,CLV,1,10,NYJ,0,3,2561021,SINGLEBACK,"1 RB, 1 TE, 3 WR",7,"3 DL, 3 LB, 5 DB",right,2019-09-17T00:36:40.000Z,2019-09-17T00:36:39.000Z,5-11,225,12/27/1995,Georgia,RB,NYJ,CLE,2,MetLife Stadium,"East Rutherford, NJ",Outdoors,FieldTurf,Cloudy,72.0,69,3,N
29578,2019091600,20190916000513,away,77.08,8.29,5.71,1.91,0.56,105.97,92.97,2561054,Damion Ratley,18,2019,35,1,07:52:00,CLV,1,10,NYJ,0,3,2561021,SINGLEBACK,"1 RB, 1 TE, 3 WR",7,"3 DL, 3 LB, 5 DB",right,2019-09-17T00:36:40.000Z,2019-09-17T00:36:39.000Z,6-2,200,04/16/1995,Texas A&M,WR,NYJ,CLE,2,MetLife Stadium,"East Rutherford, NJ",Outdoors,FieldTurf,Cloudy,72.0,69,3,N
29579,2019091600,20190916000513,home,74.16,24.26,1.12,0.98,0.11,315.31,231.78,2552486,Leonard Williams,92,2019,35,1,07:52:00,CLV,1,10,NYJ,0,3,2561021,SINGLEBACK,"1 RB, 1 TE, 3 WR",7,"3 DL, 3 LB, 5 DB",right,2019-09-17T00:36:40.000Z,2019-09-17T00:36:39.000Z,6-5,302,06/20/1994,Southern California,DE,NYJ,CLE,2,MetLife Stadium,"East Rutherford, NJ",Outdoors,FieldTurf,Cloudy,72.0,69,3,N
29580,2019091600,20190916000513,home,82.82,35.7,0.63,3.18,0.06,226.24,349.53,2553353,Darryl Roberts,27,2019,35,1,07:52:00,CLV,1,10,NYJ,0,3,2561021,SINGLEBACK,"1 RB, 1 TE, 3 WR",7,"3 DL, 3 LB, 5 DB",right,2019-09-17T00:36:40.000Z,2019-09-17T00:36:39.000Z,6-0,182,11/26/1990,Marshall,CB,NYJ,CLE,2,MetLife Stadium,"East Rutherford, NJ",Outdoors,FieldTurf,Cloudy,72.0,69,3,N
29581,2019091600,20190916000513,home,77.59,27.9,3.41,3.94,0.32,262.01,302.41,2553657,Neville Hewitt,46,2019,35,1,07:52:00,CLV,1,10,NYJ,0,3,2561021,SINGLEBACK,"1 RB, 1 TE, 3 WR",7,"3 DL, 3 LB, 5 DB",right,2019-09-17T00:36:40.000Z,2019-09-17T00:36:39.000Z,6-2,234,04/06/1993,Marshall,OLB,NYJ,CLE,2,MetLife Stadium,"East Rutherford, NJ",Outdoors,FieldTurf,Cloudy,72.0,69,3,N
29582,2019091600,20190916000513,home,72.97,20.04,3.39,1.91,0.33,306.37,326.51,2555244,Bronson Kaufusi,91,2019,35,1,07:52:00,CLV,1,10,NYJ,0,3,2561021,SINGLEBACK,"1 RB, 1 TE, 3 WR",7,"3 DL, 3 LB, 5 DB",right,2019-09-17T00:36:40.000Z,2019-09-17T00:36:39.000Z,6-6,275,07/06/1991,Brigham Young,DE,NYJ,CLE,2,MetLife Stadium,"East Rutherford, NJ",Outdoors,FieldTurf,Cloudy,72.0,69,3,N
29583,2019091600,20190916000513,home,76.54,32.54,0.61,1.76,0.06,222.41,247.05,2556445,Brian Poole,34,2019,35,1,07:52:00,CLV,1,10,NYJ,0,3,2561021,SINGLEBACK,"1 RB, 1 TE, 3 WR",7,"3 DL, 3 LB, 5 DB",right,2019-09-17T00:36:40.000Z,2019-09-17T00:36:39.000Z,5-10,211,10/20/1992,Florida,CB,NYJ,CLE,2,MetLife Stadium,"East Rutherford, NJ",Outdoors,FieldTurf,Cloudy,72.0,69,3,N
29584,2019091600,20190916000513,home,78.36,15.67,2.37,2.36,0.26,307.22,172.61,2557979,Jamal Adams,33,2019,35,1,07:52:00,CLV,1,10,NYJ,0,3,2561021,SINGLEBACK,"1 RB, 1 TE, 3 WR",7,"3 DL, 3 LB, 5 DB",right,2019-09-17T00:36:40.000Z,2019-09-17T00:36:39.000Z,6-1,213,10/17/1995,Louisiana State,SS,NYJ,CLE,2,MetLife Stadium,"East Rutherford, NJ",Outdoors,FieldTurf,Cloudy,72.0,69,3,N
29585,2019091600,20190916000513,home,90.18,24.62,1.62,4.5,0.14,278.32,325.24,2557995,Marcus Maye,20,2019,35,1,07:52:00,CLV,1,10,NYJ,0,3,2561021,SINGLEBACK,"1 RB, 1 TE, 3 WR",7,"3 DL, 3 LB, 5 DB",right,2019-09-17T00:36:40.000Z,2019-09-17T00:36:39.000Z,6-0,207,03/09/1993,Florida,FS,NYJ,CLE,2,MetLife Stadium,"East Rutherford, NJ",Outdoors,FieldTurf,Cloudy,72.0,69,3,N
29586,2019091600,20190916000513,home,80.93,7.57,3.1,1.61,0.3,343.68,94.66,2558108,Nate Hairston,21,2019,35,1,07:52:00,CLV,1,10,NYJ,0,3,2561021,SINGLEBACK,"1 RB, 1 TE, 3 WR",7,"3 DL, 3 LB, 5 DB",right,2019-09-17T00:36:40.000Z,2019-09-17T00:36:39.000Z,6-0,185,06/30/1994,Temple,CB,NYJ,CLE,2,MetLife Stadium,"East Rutherford, NJ",Outdoors,FieldTurf,Cloudy,72.0,69,3,N
29587,2019091600,20190916000513,home,75.14,26.93,1.87,2.56,0.2,264.97,181.18,2558165,Tarell Basham,93,2019,35,1,07:52:00,CLV,1,10,NYJ,0,3,2561021,SINGLEBACK,"1 RB, 1 TE, 3 WR",7,"3 DL, 3 LB, 5 DB",right,2019-09-17T00:36:40.000Z,2019-09-17T00:36:39.000Z,6-4,266,03/18/1994,Ohio,LB,NYJ,CLE,2,MetLife Stadium,"East Rutherford, NJ",Outdoors,FieldTurf,Cloudy,72.0,69,3,N
29588,2019091600,20190916000513,home,73.86,22.01,0.6,1.8,0.06,299.04,265.81,2560722,Foley Fatukasi,94,2019,35,1,07:52:00,CLV,1,10,NYJ,0,3,2561021,SINGLEBACK,"1 RB, 1 TE, 3 WR",7,"3 DL, 3 LB, 5 DB",right,2019-09-17T00:36:40.000Z,2019-09-17T00:36:39.000Z,6-4,318,03/04/1995,Connecticut,DT,NYJ,CLE,2,MetLife Stadium,"East Rutherford, NJ",Outdoors,FieldTurf,Cloudy,72.0,69,3,N
29589,2019091600,20190916000513,home,76.71,22.28,2.43,4.14,0.23,285.31,314.5,2562496,Blake Cashman,53,2019,35,1,07:52:00,CLV,1,10,NYJ,0,3,2561021,SINGLEBACK,"1 RB, 1 TE, 3 WR",7,"3 DL, 3 LB, 5 DB",right,2019-09-17T00:36:40.000Z,2019-09-17T00:36:39.000Z,6-1,235,05/10/1996,Minnesota,LB,NYJ,CLE,2,MetLife Stadium,"East Rutherford, NJ",Outdoors,FieldTurf,Cloudy,72.0,69,3,N
