,GameId,PlayId,Team,X,Y,S,A,Dis,Orientation,Dir,NflId,DisplayName,JerseyNumber,Season,YardLine,Quarter,GameClock,PossessionTeam,Down,Distance,FieldPosition,HomeScoreBeforePlay,VisitorScoreBeforePlay,NflIdRusher,OffenseFormation,OffensePersonnel,DefendersInTheBox,DefensePersonnel,PlayDirection,TimeHandoff,TimeSnap,PlayerHeight,PlayerWeight,PlayerBirthDate,PlayerCollegeName,Position,HomeTeamAbbr,VisitorTeamAbbr,Week,Stadium,Location,StadiumType,Turf,GameWeather,Temperature,Humidity,WindSpeed,WindDirection
69784,2019100608,20191006080754,away,40.46,18.66,2.76,3.23,0.28,32.19,58.76,496796,Jerry Hughes,55,2019,27,1,01:11:00,TEN,1,10,BUF,0,0,2556075,I_FORM,"1 RB, 2 TE, 2 WR",8,"4 DL, 3 LB, 4 DB",left,2019-10-06T17:30:36.000Z,2019-10-06T17:30:35.000Z,6-2,254,08/13/1988,Texas Christian,DE,TEN,BUF,5,Nissan Stadium,"Nashville, TN",Outdoors,Grass,Cloudy,77.0,71,13,S
69785,2019100608,20191006080754,away,38.92,27.51,4.86,3.75,0.47,151.82,163.53,2506268,Lorenzo Alexander,57,2019,27,1,01:11:00,TEN,1,10,BUF,0,0,2556075,I_FORM,"1 RB, 2 TE, 2 WR",8,"4 DL, 3 LB, 4 DB",left,2019-10-06T17:30:36.000Z,2019-10-06T17:30:35.000Z,6-1,245,05/31/1983,California,OLB,TEN,BUF,5,Nissan Stadium,"Nashville, TN",Outdoors,Grass,Cloudy,77.0,71,13,S
69786,2019100608,20191006080754,away,16.64,25.03,2.24,2.36,0.21,74.43,186.95,2539240,Micah Hyde,23,2019,27,1,01:11:00,TEN,1,10,BUF,0,0,2556075,I_FORM,"1 RB, 2 TE, 2 WR",8,"4 DL, 3 LB, 4 DB",left,2019-10-06T17:30:36.000Z,2019-10-06T17:30:35.000Z,6-0,197,12/31/1990,Iowa,SS,TEN,BUF,5,Nissan Stadium,"Nashville, TN",Outdoors,Grass,Cloudy,77.0,71,13,S
69787,2019100608,20191006080754,away,33.4,26.17,4.29,1.99,0.42,113.26,191.93,2539290,Jordan Poyer,21,2019,27,1,01:11:00,TEN,1,10,BUF,0,0,2556075,I_FORM,"1 RB, 2 TE, 2 WR",8,"4 DL, 3 LB, 4 DB",left,2019-10-06T17:30:36.000Z,2019-10-06T17:30:35.000Z,6-0,191,04/25/1991,Oregon State,FS,TEN,BUF,5,Nissan Stadium,"Nashville, TN",Outdoors,Grass,Cloudy,77.0,71,13,S
69788,2019100608,20191006080754,away,37.63,22.65,1.4,1.67,0.14,203.14,167.88,2539329,Star Lotulelei,98,2019,27,1,01:11:00,TEN,1,10,BUF,0,0,2556075,I_FORM,"1 RB, 2 TE, 2 WR",8,"4 DL, 3 LB, 4 DB",left,2019-10-06T17:30:36.000Z,2019-10-06T17:30:35.000Z,6-2,318,12/20/1989,Utah,DT,TEN,BUF,5,Nissan Stadium,"Nashville, TN",Outdoors,Grass,Cloudy,77.0,71,13,S
69789,2019100608,20191006080754,away,33.62,37.79,2.96,2.45,0.29,123.5,255.95,2557867,Tre'Davious White,27,2019,27,1,01:11:00,TEN,1,10,BUF,0,0,2556075,I_FORM,"1 RB, 2 TE, 2 WR",8,"4 DL, 3 LB, 4 DB",left,2019-10-06T17:30:36.000Z,2019-10-06T17:30:35.000Z,5-11,192,01/16/1995,Louisiana State,CB,TEN,BUF,5,Nissan Stadium,"Nashville, TN",Outdoors,Grass,Cloudy,77.0,71,13,S
69790,2019100608,20191006080754,away,35.98,17.15,4.67,2.48,0.48,98.2,138.82,2557969,Matt Milano,58,2019,27,1,01:11:00,TEN,1,10,BUF,0,0,2556075,I_FORM,"1 RB, 2 TE, 2 WR",8,"4 DL, 3 LB, 4 DB",left,2019-10-06T17:30:36.000Z,2019-10-06T17:30:35.000Z,6-0,223,07/28/1994,Boston College,OLB,TEN,BUF,5,Nissan Stadium,"Nashville, TN",Outdoors,Grass,Cloudy,77.0,71,13,S
69791,2019100608,20191006080754,away,33.99,20.58,4.32,1.44,0.44,165.65,162.47,2560713,Tremaine Edmunds,49,2019,27,1,01:11:00,TEN,1,10,BUF,0,0,2556075,I_FORM,"1 RB, 2 TE, 2 WR",8,"4 DL, 3 LB, 4 DB",left,2019-10-06T17:30:36.000Z,2019-10-06T17:30:35.000Z,6-5,250,05/02/1998,Virginia Tech,LB,TEN,BUF,5,Nissan Stadium,"Nashville, TN",Outdoors,Grass,Cloudy,77.0,71,13,S
69792,2019100608,20191006080754,away,28.34,12.1,3.95,5.21,0.37,85.52,222.01,2560914,Levi Wallace,39,2019,27,1,01:11:00,TEN,1,10,BUF,0,0,2556075,I_FORM,"1 RB, 2 TE, 2 WR",8,"4 DL, 3 LB, 4 DB",left,2019-10-06T17:30:36.000Z,2019-10-06T17:30:35.000Z,6-0,179,06/12/1995,Alabama,CB,TEN,BUF,5,Nissan Stadium,"Nashville, TN",Outdoors,Grass,Cloudy,77.0,71,13,S
69793,2019100608,20191006080754,away,37.69,19.18,1.98,1.0,0.2,97.62,161.95,2562322,Ed Oliver,91,2019,27,1,01:11:00,TEN,1,10,BUF,0,0,2556075,I_FORM,"1 RB, 2 TE, 2 WR",8,"4 DL, 3 LB, 4 DB",left,2019-10-06T17:30:36.000Z,2019-10-06T17:30:35.000Z,6-1,287,12/12/1997,Houston,DT,TEN,BUF,5,Nissan Stadium,"Nashville, TN",Outdoors,Grass,Cloudy,77.0,71,13,S
69794,2019100608,20191006080754,away,38.13,23.58,1.64,2.98,0.17,101.84,135.14,2562672,Darryl Johnson,92,2019,27,1,01:11:00,TEN,1,10,BUF,0,0,2556075,I_FORM,"1 RB, 2 TE, 2 WR",8,"4 DL, 3 LB, 4 DB",left,2019-10-06T17:30:36.000Z,2019-10-06T17:30:35.000Z,6-6,253,04/04/1997,North Carolina A&T,DE,TEN,BUF,5,Nissan Stadium,"Nashville, TN",Outdoors,Grass,Cloudy,77.0,71,13,S
69795,2019100608,20191006080754,home,38.24,19.26,2.54,0.97,0.26,260.97,164.36,497048,Rodger Saffold,76,2019,27,1,01:11:00,TEN,1,10,BUF,0,0,2556075,I_FORM,"1 RB, 2 TE, 2 WR",8,"4 DL, 3 LB, 4 DB",left,2019-10-06T17:30:36.000Z,2019-10-06T17:30:35.000Z,6-5,325,06/06/1988,Indiana,G,TEN,BUF,5,Nissan Stadium,"Nashville, TN",Outdoors,Grass,Cloudy,77.0,71,13,S
69796,2019100608,20191006080754,home,35.17,19.77,4.01,1.73,0.42,290.74,212.75,2532883,Ben Jones,60,2019,27,1,01:11:00,TEN,1,10,BUF,0,0,2556075,I_FORM,"1 RB, 2 TE, 2 WR",8,"4 DL, 3 LB, 4 DB",left,2019-10-06T17:30:36.000Z,2019-10-06T17:30:35.000Z,6-3,308,07/02/1989,Georgia,C,TEN,BUF,5,Nissan Stadium,"Nashville, TN",Outdoors,Grass,Cloudy,77.0,71,13,S
69797,2019100608,20191006080754,home,39.39,17.62,2.29,1.73,0.24,53.98,122.72,2550132,Taylor Lewan,77,2019,27,1,01:11:00,TEN,1,10,BUF,0,0,2556075,I_FORM,"1 RB, 2 TE, 2 WR",8,"4 DL, 3 LB, 4 DB",left,2019-10-06T17:30:36.000Z,2019-10-06T17:30:35.000Z,6-7,309,07/22/1991,Michigan,T,TEN,BUF,5,Nissan Stadium,"Nashville, TN",Outdoors,Grass,Cloudy,77.0,71,13,S
69798,2019100608,20191006080754,home,40.01,18.82,5.61,0.99,0.57,237.12,215.38,2552401,MyCole Pruitt,85,2019,27,1,01:11:00,TEN,1,10,BUF,0,0,2556075,I_FORM,"1 RB, 2 TE, 2 WR",8,"4 DL, 3 LB, 4 DB",left,2019-10-06T17:30:36.000Z,2019-10-06T17:30:35.000Z,6-2,243,03/24/1992,Southern Illinois,TE,TEN,BUF,5,Nissan Stadium,"Nashville, TN",Outdoors,Grass,Cloudy,77.0,71,13,S
69799,2019100608,20191006080754,home,41.27,20.93,5.06,0.89,0.5,106.19,130.42,2552466,Marcus Mariota,8,2019,27,1,01:11:00,TEN,1,10,BUF,0,0,2556075,I_FORM,"1 RB, 2 TE, 2 WR",8,"4 DL, 3 LB, 4 DB",left,2019-10-06T17:30:36.000Z,2019-10-06T17:30:35.000Z,6-4,222,10/30/1993,Oregon,QB,TEN,BUF,5,Nissan Stadium,"Nashville, TN",Outdoors,Grass,Cloudy,77.0,71,13,S
69800,2019100608,20191006080754,home,37.23,24.34,1.71,2.79,0.19,169.31,201.71,2555279,Jack Conklin,78,2019,27,1,01:11:00,TEN,1,10,BUF,0,0,2556075,I_FORM,"1 RB, 2 TE, 2 WR",8,"4 DL, 3 LB, 4 DB",left,2019-10-06T17:30:36.000Z,2019-10-06T17:30:35.000Z,6-6,308,08/17/1994,Michigan State,T,TEN,BUF,5,Nissan Stadium,"Nashville, TN",Outdoors,Grass,Cloudy,77.0,71,13,S
69801,2019100608,20191006080754,home,33.59,12.93,6.3,2.42,0.62,255.25,233.75,2555317,Tajae Sharpe,19,2019,27,1,01:11:00,TEN,1,10,BUF,0,0,2556075,I_FORM,"1 RB, 2 TE, 2 WR",8,"4 DL, 3 LB, 4 DB",left,2019-10-06T17:30:36.000Z,2019-10-06T17:30:35.000Z,6-2,194,12/23/1994,Massachusetts,WR,TEN,BUF,5,Nissan Stadium,"Nashville, TN",Outdoors,Grass,Cloudy,77.0,71,13,S
69802,2019100608,20191006080754,home,41.55,20.11,5.3,3.2,0.53,248.3,236.13,2556075,Derrick Henry,22,2019,27,1,01:11:00,TEN,1,10,BUF,0,0,2556075,I_FORM,"1 RB, 2 TE, 2 WR",8,"4 DL, 3 LB, 4 DB",left,2019-10-06T17:30:36.000Z,2019-10-06T17:30:35.000Z,6-3,247,01/04/1994,Alabama,RB,TEN,BUF,5,Nissan Stadium,"Nashville, TN",Outdoors,Grass,Cloudy,77.0,71,13,S
69803,2019100608,20191006080754,home,35.55,36.78,4.55,2.89,0.44,255.77,234.96,2557848,Corey Davis,84,2019,27,1,01:11:00,TEN,1,10,BUF,0,0,2556075,I_FORM,"1 RB, 2 TE, 2 WR",8,"4 DL, 3 LB, 4 DB",left,2019-10-06T17:30:36.000Z,2019-10-06T17:30:35.000Z,6-3,209,01/11/1995,Western Michigan,WR,TEN,BUF,5,Nissan Stadium,"Nashville, TN",Outdoors,Grass,Cloudy,77.0,71,13,S
69804,2019100608,20191006080754,home,35.3,25.45,5.15,0.57,0.52,268.96,229.01,2558207,Jonnu Smith,81,2019,27,1,01:11:00,TEN,1,10,BUF,0,0,2556075,I_FORM,"1 RB, 2 TE, 2 WR",8,"4 DL, 3 LB, 4 DB",left,2019-10-06T17:30:36.000Z,2019-10-06T17:30:35.000Z,6-3,248,08/22/1995,Florida International,TE,TEN,BUF,5,Nissan Stadium,"Nashville, TN",Outdoors,Grass,Cloudy,77.0,71,13,S
69805,2019100608,20191006080754,home,37.42,22.56,0.92,2.78,0.1,221.62,198.79,2562641,Nate Davis,64,2019,27,1,01:11:00,TEN,1,10,BUF,0,0,2556075,I_FORM,"1 RB, 2 TE, 2 WR",8,"4 DL, 3 LB, 4 DB",left,2019-10-06T17:30:36.000Z,2019-10-06T17:30:35.000Z,6-3,316,09/23/1996,North Carolina-Charlotte,G,TEN,BUF,5,Nissan Stadium,"Nashville, TN",Outdoors,Grass,Cloudy,77.0,71,13,S
