,GameId,PlayId,Team,X,Y,S,A,Dis,Orientation,Dir,NflId,DisplayName,JerseyNumber,Season,YardLine,Quarter,GameClock,PossessionTeam,Down,Distance,FieldPosition,HomeScoreBeforePlay,VisitorScoreBeforePlay,NflIdRusher,OffenseFormation,OffensePersonnel,DefendersInTheBox,DefensePersonnel,PlayDirection,TimeHandoff,TimeSnap,PlayerHeight,PlayerWeight,PlayerBirthDate,PlayerCollegeName,Position,HomeTeamAbbr,VisitorTeamAbbr,Week,Stadium,Location,StadiumType,Turf,GameWeather,Temperature,Humidity,WindSpeed,WindDirection
20372,2019091504,20190915042287,away,85.59,31.7,0.68,1.0,0.07,115.31,35.85,2495478,Marcell Dareus,99,2019,24,3,07:37:00,HST,2,10,HST,6,3,2543743,SHOTGUN,"2 RB, 0 TE, 3 WR",5,"3 DL, 3 LB, 5 DB",left,2019-09-15T18:47:36.000Z,2019-09-15T18:47:34.000Z,6-3,331,03/13/1990,Alabama,DT,HOU,JAX,2,NRG Stadium,"Houston, TX",Retractable Roof,Artifical,Sunny,89.0,52,10mph,North East
20373,2019091504,20190915042287,away,88.7,24.58,5.05,3.26,0.51,18.52,42.47,2539237,D.J. Hayden,25,2019,24,3,07:37:00,HST,2,10,HST,6,3,2543743,SHOTGUN,"2 RB, 0 TE, 3 WR",5,"3 DL, 3 LB, 5 DB",left,2019-09-15T18:47:36.000Z,2019-09-15T18:47:34.000Z,5-11,190,06/27/1990,Houston,CB,HOU,JAX,2,NRG Stadium,"Houston, TX",Retractable Roof,Artifical,Sunny,89.0,52,10mph,North East
20374,2019091504,20190915042287,away,78.44,9.08,3.06,1.05,0.3,15.2,282.94,2555280,Jalen Ramsey,20,2019,24,3,07:37:00,HST,2,10,HST,6,3,2543743,SHOTGUN,"2 RB, 0 TE, 3 WR",5,"3 DL, 3 LB, 5 DB",left,2019-09-15T18:47:36.000Z,2019-09-15T18:47:34.000Z,6-1,208,10/24/1994,Florida State,CB,HOU,JAX,2,NRG Stadium,"Houston, TX",Retractable Roof,Artifical,Sunny,89.0,52,10mph,North East
20375,2019091504,20190915042287,away,78.55,29.29,1.19,0.51,0.12,106.2,282.04,2555329,Myles Jack,44,2019,24,3,07:37:00,HST,2,10,HST,6,3,2543743,SHOTGUN,"2 RB, 0 TE, 3 WR",5,"3 DL, 3 LB, 5 DB",left,2019-09-15T18:47:36.000Z,2019-09-15T18:47:34.000Z,6-1,244,09/03/1995,UCLA,OLB,HOU,JAX,2,NRG Stadium,"Houston, TX",Retractable Roof,Artifical,Sunny,89.0,52,10mph,North East
20376,2019091504,20190915042287,away,77.41,20.54,1.62,3.85,0.15,67.06,61.33,2556711,Jarrod Wilson,26,2019,24,3,07:37:00,HST,2,10,HST,6,3,2543743,SHOTGUN,"2 RB, 0 TE, 3 WR",5,"3 DL, 3 LB, 5 DB",left,2019-09-15T18:47:36.000Z,2019-09-15T18:47:34.000Z,6-2,210,02/09/1994,Michigan,SS,HOU,JAX,2,NRG Stadium,"Houston, TX",Retractable Roof,Artifical,Sunny,89.0,52,10mph,North East
20377,2019091504,20190915042287,away,89.0,28.54,4.28,1.44,0.44,8.81,47.88,2557839,Dawuane Smoot,94,2019,24,3,07:37:00,HST,2,10,HST,6,3,2543743,SHOTGUN,"2 RB, 0 TE, 3 WR",5,"3 DL, 3 LB, 5 DB",left,2019-09-15T18:47:36.000Z,2019-09-15T18:47:34.000Z,6-3,264,03/02/1995,Illinois,DE,HOU,JAX,2,NRG Stadium,"Houston, TX",Retractable Roof,Artifical,Sunny,89.0,52,10mph,North East
20378,2019091504,20190915042287,away,87.97,29.3,2.22,1.51,0.23,52.59,63.15,2560983,Taven Bryan,90,2019,24,3,07:37:00,HST,2,10,HST,6,3,2543743,SHOTGUN,"2 RB, 0 TE, 3 WR",5,"3 DL, 3 LB, 5 DB",left,2019-09-15T18:47:36.000Z,2019-09-15T18:47:34.000Z,6-5,291,03/11/1996,Florida,DT,HOU,JAX,2,NRG Stadium,"Houston, TX",Retractable Roof,Artifical,Sunny,89.0,52,10mph,North East
20379,2019091504,20190915042287,away,70.03,30.96,3.8,3.11,0.39,153.04,249.91,2561008,Ronnie Harrison,36,2019,24,3,07:37:00,HST,2,10,HST,6,3,2543743,SHOTGUN,"2 RB, 0 TE, 3 WR",5,"3 DL, 3 LB, 5 DB",left,2019-09-15T18:47:36.000Z,2019-09-15T18:47:34.000Z,6-3,214,04/18/1997,Alabama,DB,HOU,JAX,2,NRG Stadium,"Houston, TX",Retractable Roof,Artifical,Sunny,89.0,52,10mph,North East
20380,2019091504,20190915042287,away,82.54,44.18,3.87,3.33,0.37,11.65,305.46,2561340,Tre Herndon,37,2019,24,3,07:37:00,HST,2,10,HST,6,3,2543743,SHOTGUN,"2 RB, 0 TE, 3 WR",5,"3 DL, 3 LB, 5 DB",left,2019-09-15T18:47:36.000Z,2019-09-15T18:47:34.000Z,5-11,185,03/05/1996,Vanderbilt,CB,HOU,JAX,2,NRG Stadium,"Houston, TX",Retractable Roof,Artifical,Sunny,89.0,52,10mph,North East
20381,2019091504,20190915042287,away,88.59,33.56,1.49,3.25,0.16,150.51,122.39,2562619,Josh Allen,41,2019,24,3,07:37:00,HST,2,10,HST,6,3,2543743,SHOTGUN,"2 RB, 0 TE, 3 WR",5,"3 DL, 3 LB, 5 DB",left,2019-09-15T18:47:36.000Z,2019-09-15T18:47:34.000Z,6-5,262,07/13/1997,Kentucky,LB,HOU,JAX,2,NRG Stadium,"Houston, TX",Retractable Roof,Artifical,Sunny,89.0,52,10mph,North East
20382,2019091504,20190915042287,away,81.85,31.83,1.19,0.98,0.12,80.77,100.39,2562954,Quincy Williams,56,2019,24,3,07:37:00,HST,2,10,HST,6,3,2543743,SHOTGUN,"2 RB, 0 TE, 3 WR",5,"3 DL, 3 LB, 5 DB",left,2019-09-15T18:47:36.000Z,2019-09-15T18:47:34.000Z,5-11,226,08/28/1996,Murray State,LB,HOU,JAX,2,NRG Stadium,"Houston, TX",Retractable Roof,Artifical,Sunny,89.0,52,10mph,North East
20383,2019091504,20190915042287,home,83.05,22.03,5.3,1.99,0.53,312.69,300.93,2540165,DeAndre Hopkins,10,2019,24,3,07:37:00,HST,2,10,HST,6,3,2543743,SHOTGUN,"2 RB, 0 TE, 3 WR",5,"3 DL, 3 LB, 5 DB",left,2019-09-15T18:47:36.000Z,2019-09-15T18:47:34.000Z,6-1,212,06/06/1992,Clemson,WR,HOU,JAX,2,NRG Stadium,"Houston, TX",Retractable Roof,Artifical,Sunny,89.0,52,10mph,North East
20384,2019091504,20190915042287,home,83.47,45.21,5.5,1.95,0.54,281.75,310.63,2540202,Kenny Stills,12,2019,24,3,07:37:00,HST,2,10,HST,6,3,2543743,SHOTGUN,"2 RB, 0 TE, 3 WR",5,"3 DL, 3 LB, 5 DB",left,2019-09-15T18:47:36.000Z,2019-09-15T18:47:34.000Z,6-1,202,04/22/1992,Oklahoma,WR,HOU,JAX,2,NRG Stadium,"Houston, TX",Retractable Roof,Artifical,Sunny,89.0,52,10mph,North East
20385,2019091504,20190915042287,home,90.31,30.89,2.75,4.58,0.27,263.54,263.36,2543743,Carlos Hyde,23,2019,24,3,07:37:00,HST,2,10,HST,6,3,2543743,SHOTGUN,"2 RB, 0 TE, 3 WR",5,"3 DL, 3 LB, 5 DB",left,2019-09-15T18:47:36.000Z,2019-09-15T18:47:34.000Z,6-0,229,09/20/1990,Ohio State,RB,HOU,JAX,2,NRG Stadium,"Houston, TX",Retractable Roof,Artifical,Sunny,89.0,52,10mph,North East
20386,2019091504,20190915042287,home,85.97,31.01,0.46,1.42,0.05,324.31,36.55,2543862,Zach Fulton,73,2019,24,3,07:37:00,HST,2,10,HST,6,3,2543743,SHOTGUN,"2 RB, 0 TE, 3 WR",5,"3 DL, 3 LB, 5 DB",left,2019-09-15T18:47:36.000Z,2019-09-15T18:47:34.000Z,6-5,321,09/23/1991,Tennessee,G,HOU,JAX,2,NRG Stadium,"Houston, TX",Retractable Roof,Artifical,Sunny,89.0,52,10mph,North East
20387,2019091504,20190915042287,home,86.92,29.73,0.21,1.94,0.04,218.38,257.67,2555189,Nick Martin,66,2019,24,3,07:37:00,HST,2,10,HST,6,3,2543743,SHOTGUN,"2 RB, 0 TE, 3 WR",5,"3 DL, 3 LB, 5 DB",left,2019-09-15T18:47:36.000Z,2019-09-15T18:47:34.000Z,6-4,300,04/29/1993,Notre Dame,C,HOU,JAX,2,NRG Stadium,"Houston, TX",Retractable Roof,Artifical,Sunny,89.0,52,10mph,North East
20388,2019091504,20190915042287,home,89.47,28.17,3.74,0.16,0.38,320.36,43.94,2555201,Laremy Tunsil,78,2019,24,3,07:37:00,HST,2,10,HST,6,3,2543743,SHOTGUN,"2 RB, 0 TE, 3 WR",5,"3 DL, 3 LB, 5 DB",left,2019-09-15T18:47:36.000Z,2019-09-15T18:47:34.000Z,6-5,313,08/02/1994,Mississippi,T,HOU,JAX,2,NRG Stadium,"Houston, TX",Retractable Roof,Artifical,Sunny,89.0,52,10mph,North East
20389,2019091504,20190915042287,home,83.25,9.78,4.16,0.97,0.42,281.79,275.74,2555346,Will Fuller,15,2019,24,3,07:37:00,HST,2,10,HST,6,3,2543743,SHOTGUN,"2 RB, 0 TE, 3 WR",5,"3 DL, 3 LB, 5 DB",left,2019-09-15T18:47:36.000Z,2019-09-15T18:47:34.000Z,6-0,184,04/16/1994,Notre Dame,WR,HOU,JAX,2,NRG Stadium,"Houston, TX",Retractable Roof,Artifical,Sunny,89.0,52,10mph,North East
20390,2019091504,20190915042287,home,90.67,29.74,0.09,1.58,0.02,350.76,77.84,2558063,Deshaun Watson,4,2019,24,3,07:37:00,HST,2,10,HST,6,3,2543743,SHOTGUN,"2 RB, 0 TE, 3 WR",5,"3 DL, 3 LB, 5 DB",left,2019-09-15T18:47:36.000Z,2019-09-15T18:47:34.000Z,6-2,221,09/14/1995,Clemson,QB,HOU,JAX,2,NRG Stadium,"Houston, TX",Retractable Roof,Artifical,Sunny,89.0,52,10mph,North East
20391,2019091504,20190915042287,home,88.38,32.82,0.38,2.99,0.04,354.36,183.0,2558114,Roderick Johnson,63,2019,24,3,07:37:00,HST,2,10,HST,6,3,2543743,SHOTGUN,"2 RB, 0 TE, 3 WR",5,"3 DL, 3 LB, 5 DB",left,2019-09-15T18:47:36.000Z,2019-09-15T18:47:34.000Z,6-6,306,11/28/1995,Florida State,OT,HOU,JAX,2,NRG Stadium,"Houston, TX",Retractable Roof,Artifical,Sunny,89.0,52,10mph,North East
20392,2019091504,20190915042287,home,88.68,29.39,2.3,0.48,0.24,239.05,65.27,2562286,Tytus Howard,71,2019,24,3,07:37:00,HST,2,10,HST,6,3,2543743,SHOTGUN,"2 RB, 0 TE, 3 WR",5,"3 DL, 3 LB, 5 DB",left,2019-09-15T18:47:36.000Z,2019-09-15T18:47:34.000Z,6-5,322,05/23/1996,Alabama State,T,HOU,JAX,2,NRG Stadium,"Houston, TX",Retractable Roof,Artifical,Sunny,89.0,52,10mph,North East
20393,2019091504,20190915042287,home,88.03,31.16,5.17,2.08,0.52,282.14,316.31,2562906,Cullen Gillaspia,44,2019,24,3,07:37:00,HST,2,10,HST,6,3,2543743,SHOTGUN,"2 RB, 0 TE, 3 WR",5,"3 DL, 3 LB, 5 DB",left,2019-09-15T18:47:36.000Z,2019-09-15T18:47:34.000Z,6-2,235,05/12/1995,Texas A&M,RB,HOU,JAX,2,NRG Stadium,"Houston, TX",Retractable Roof,Artifical,Sunny,89.0,52,10mph,North East
