,GameId,PlayId,Team,X,Y,S,A,Dis,Orientation,Dir,NflId,DisplayName,JerseyNumber,Season,YardLine,Quarter,GameClock,PossessionTeam,Down,Distance,FieldPosition,HomeScoreBeforePlay,VisitorScoreBeforePlay,NflIdRusher,OffenseFormation,OffensePersonnel,DefendersInTheBox,DefensePersonnel,PlayDirection,TimeHandoff,TimeSnap,PlayerHeight,PlayerWeight,PlayerBirthDate,PlayerCollegeName,Position,HomeTeamAbbr,VisitorTeamAbbr,Week,Stadium,Location,StadiumType,Turf,GameWeather,Temperature,Humidity,WindSpeed,WindDirection
21494,2019091505,20190915052236,away,75.16,16.02,3.01,1.12,0.3,268.28,246.18,238498,Julian Edelman,11,2019,35,3,07:26:00,NE,1,10,NE,0,16,2560809,I_FORM,"2 RB, 1 TE, 2 WR",7,"4 DL, 3 LB, 4 DB",left,2019-09-15T18:56:44.000Z,2019-09-15T18:56:43.000Z,5-10,200,05/22/1986,Kent State,WR,MIA,NE,2,Hard Rock Stadium,"Miami Gardens, FL",Outdoor,Natural Grass,Mostly Cloudy,87.0,67,4,S
21495,2019091505,20190915052236,away,75.44,22.46,1.4,1.46,0.15,308.67,331.19,497030,Marshall Newhouse,72,2019,35,3,07:26:00,NE,1,10,NE,0,16,2560809,I_FORM,"2 RB, 1 TE, 2 WR",7,"4 DL, 3 LB, 4 DB",left,2019-09-15T18:56:44.000Z,2019-09-15T18:56:43.000Z,6-4,328,09/29/1988,Texas Christian,T,MIA,NE,2,Hard Rock Stadium,"Miami Gardens, FL",Outdoor,Natural Grass,Mostly Cloudy,87.0,67,4,S
21496,2019091505,20190915052236,away,79.38,23.5,3.37,0.48,0.34,133.22,104.34,2504211,Tom Brady,12,2019,35,3,07:26:00,NE,1,10,NE,0,16,2560809,I_FORM,"2 RB, 1 TE, 2 WR",7,"4 DL, 3 LB, 4 DB",left,2019-09-15T18:56:44.000Z,2019-09-15T18:56:43.000Z,6-4,225,08/03/1977,Michigan,QB,MIA,NE,2,Hard Rock Stadium,"Miami Gardens, FL",Outdoor,Natural Grass,Mostly Cloudy,87.0,67,4,S
21497,2019091505,20190915052236,away,76.81,21.66,4.32,0.77,0.43,262.77,246.54,2508101,James Develin,46,2019,35,3,07:26:00,NE,1,10,NE,0,16,2560809,I_FORM,"2 RB, 1 TE, 2 WR",7,"4 DL, 3 LB, 4 DB",left,2019-09-15T18:56:44.000Z,2019-09-15T18:56:43.000Z,6-3,255,07/23/1988,Brown,FB,MIA,NE,2,Hard Rock Stadium,"Miami Gardens, FL",Outdoor,Natural Grass,Mostly Cloudy,87.0,67,4,S
21498,2019091505,20190915052236,away,75.17,43.38,2.06,2.29,0.19,279.27,195.77,2552424,Phillip Dorsett,13,2019,35,3,07:26:00,NE,1,10,NE,0,16,2560809,I_FORM,"2 RB, 1 TE, 2 WR",7,"4 DL, 3 LB, 4 DB",left,2019-09-15T18:56:44.000Z,2019-09-15T18:56:43.000Z,5-10,192,01/05/1993,Miami,WR,MIA,NE,2,Hard Rock Stadium,"Miami Gardens, FL",Outdoor,Natural Grass,Mostly Cloudy,87.0,67,4,S
21499,2019091505,20190915052236,away,75.09,25.71,0.63,0.36,0.07,337.73,281.25,2552563,Shaq Mason,69,2019,35,3,07:26:00,NE,1,10,NE,0,16,2560809,I_FORM,"2 RB, 1 TE, 2 WR",7,"4 DL, 3 LB, 4 DB",left,2019-09-15T18:56:44.000Z,2019-09-15T18:56:43.000Z,6-1,310,08/28/1993,Georgia Tech,G,MIA,NE,2,Hard Rock Stadium,"Miami Gardens, FL",Outdoor,Natural Grass,Mostly Cloudy,87.0,67,4,S
21500,2019091505,20190915052236,away,75.94,19.87,1.43,0.63,0.14,217.48,31.61,2553667,Matt LaCosse,83,2019,35,3,07:26:00,NE,1,10,NE,0,16,2560809,I_FORM,"2 RB, 1 TE, 2 WR",7,"4 DL, 3 LB, 4 DB",left,2019-09-15T18:56:44.000Z,2019-09-15T18:56:43.000Z,6-6,255,09/21/1992,Illinois,TE,MIA,NE,2,Hard Rock Stadium,"Miami Gardens, FL",Outdoor,Natural Grass,Mostly Cloudy,87.0,67,4,S
21501,2019091505,20190915052236,away,75.19,24.41,0.38,1.23,0.04,320.1,57.65,2555145,Ted Karras,75,2019,35,3,07:26:00,NE,1,10,NE,0,16,2560809,I_FORM,"2 RB, 1 TE, 2 WR",7,"4 DL, 3 LB, 4 DB",left,2019-09-15T18:56:44.000Z,2019-09-15T18:56:43.000Z,6-4,305,03/15/1993,Illinois,C,MIA,NE,2,Hard Rock Stadium,"Miami Gardens, FL",Outdoor,Natural Grass,Mostly Cloudy,87.0,67,4,S
21502,2019091505,20190915052236,away,74.33,23.67,1.79,2.12,0.19,308.58,275.62,2555281,Joe Thuney,62,2019,35,3,07:26:00,NE,1,10,NE,0,16,2560809,I_FORM,"2 RB, 1 TE, 2 WR",7,"4 DL, 3 LB, 4 DB",left,2019-09-15T18:56:44.000Z,2019-09-15T18:56:43.000Z,6-5,308,11/18/1992,North Carolina State,G,MIA,NE,2,Hard Rock Stadium,"Miami Gardens, FL",Outdoor,Natural Grass,Mostly Cloudy,87.0,67,4,S
21503,2019091505,20190915052236,away,79.37,22.5,4.61,1.84,0.45,266.46,257.52,2560809,Sony Michel,26,2019,35,3,07:26:00,NE,1,10,NE,0,16,2560809,I_FORM,"2 RB, 1 TE, 2 WR",7,"4 DL, 3 LB, 4 DB",left,2019-09-15T18:56:44.000Z,2019-09-15T18:56:43.000Z,5-11,215,02/17/1995,Georgia,RB,MIA,NE,2,Hard Rock Stadium,"Miami Gardens, FL",Outdoor,Natural Grass,Mostly Cloudy,87.0,67,4,S
21504,2019091505,20190915052236,away,76.23,28.33,1.29,1.23,0.12,315.63,334.44,2561058,Korey Cunningham,74,2019,35,3,07:26:00,NE,1,10,NE,0,16,2560809,I_FORM,"2 RB, 1 TE, 2 WR",7,"4 DL, 3 LB, 4 DB",left,2019-09-15T18:56:44.000Z,2019-09-15T18:56:43.000Z,6-6,305,05/17/1995,Cincinnati,T,MIA,NE,2,Hard Rock Stadium,"Miami Gardens, FL",Outdoor,Natural Grass,Mostly Cloudy,87.0,67,4,S
21505,2019091505,20190915052236,home,74.63,22.67,0.84,2.02,0.09,87.72,295.75,2539224,Tank Carradine,92,2019,35,3,07:26:00,NE,1,10,NE,0,16,2560809,I_FORM,"2 RB, 1 TE, 2 WR",7,"4 DL, 3 LB, 4 DB",left,2019-09-15T18:56:44.000Z,2019-09-15T18:56:43.000Z,6-4,270,02/18/1990,Florida State,DE,MIA,NE,2,Hard Rock Stadium,"Miami Gardens, FL",Outdoor,Natural Grass,Mostly Cloudy,87.0,67,4,S
21506,2019091505,20190915052236,home,74.85,26.5,0.51,1.44,0.06,115.56,5.44,2539231,John Jenkins,95,2019,35,3,07:26:00,NE,1,10,NE,0,16,2560809,I_FORM,"2 RB, 1 TE, 2 WR",7,"4 DL, 3 LB, 4 DB",left,2019-09-15T18:56:44.000Z,2019-09-15T18:56:43.000Z,6-3,327,07/11/1989,Georgia,NT,MIA,NE,2,Hard Rock Stadium,"Miami Gardens, FL",Outdoor,Natural Grass,Mostly Cloudy,87.0,67,4,S
21507,2019091505,20190915052236,home,73.52,14.94,0.86,1.04,0.08,47.44,13.96,2552255,Eric Rowe,21,2019,35,3,07:26:00,NE,1,10,NE,0,16,2560809,I_FORM,"2 RB, 1 TE, 2 WR",7,"4 DL, 3 LB, 4 DB",left,2019-09-15T18:56:44.000Z,2019-09-15T18:56:43.000Z,6-1,205,10/03/1992,Utah,CB,MIA,NE,2,Hard Rock Stadium,"Miami Gardens, FL",Outdoor,Natural Grass,Mostly Cloudy,87.0,67,4,S
21508,2019091505,20190915052236,home,60.76,33.79,2.66,1.64,0.25,57.1,328.88,2552434,Bobby McCain,28,2019,35,3,07:26:00,NE,1,10,NE,0,16,2560809,I_FORM,"2 RB, 1 TE, 2 WR",7,"4 DL, 3 LB, 4 DB",left,2019-09-15T18:56:44.000Z,2019-09-15T18:56:43.000Z,5-11,192,08/18/1993,Memphis,CB,MIA,NE,2,Hard Rock Stadium,"Miami Gardens, FL",Outdoor,Natural Grass,Mostly Cloudy,87.0,67,4,S
21509,2019091505,20190915052236,home,74.21,43.53,1.89,1.9,0.18,120.2,190.16,2555539,Xavien Howard,25,2019,35,3,07:26:00,NE,1,10,NE,0,16,2560809,I_FORM,"2 RB, 1 TE, 2 WR",7,"4 DL, 3 LB, 4 DB",left,2019-09-15T18:56:44.000Z,2019-09-15T18:56:43.000Z,6-1,200,07/04/1993,Baylor,CB,MIA,NE,2,Hard Rock Stadium,"Miami Gardens, FL",Outdoor,Natural Grass,Mostly Cloudy,87.0,67,4,S
21510,2019091505,20190915052236,home,75.37,29.15,0.67,1.51,0.07,119.66,117.07,2558001,Charles Harris,90,2019,35,3,07:26:00,NE,1,10,NE,0,16,2560809,I_FORM,"2 RB, 1 TE, 2 WR",7,"4 DL, 3 LB, 4 DB",left,2019-09-15T18:56:44.000Z,2019-09-15T18:56:43.000Z,6-3,250,03/06/1995,Missouri,DE,MIA,NE,2,Hard Rock Stadium,"Miami Gardens, FL",Outdoor,Natural Grass,Mostly Cloudy,87.0,67,4,S
21511,2019091505,20190915052236,home,74.84,24.86,1.12,0.79,0.11,93.09,36.48,2558012,Davon Godchaux,56,2019,35,3,07:26:00,NE,1,10,NE,0,16,2560809,I_FORM,"2 RB, 1 TE, 2 WR",7,"4 DL, 3 LB, 4 DB",left,2019-09-15T18:56:44.000Z,2019-09-15T18:56:43.000Z,6-3,311,11/11/1994,Louisiana State,DT,MIA,NE,2,Hard Rock Stadium,"Miami Gardens, FL",Outdoor,Natural Grass,Mostly Cloudy,87.0,67,4,S
21512,2019091505,20190915052236,home,75.88,19.38,2.02,1.33,0.21,74.97,60.84,2558070,Raekwon McMillan,52,2019,35,3,07:26:00,NE,1,10,NE,0,16,2560809,I_FORM,"2 RB, 1 TE, 2 WR",7,"4 DL, 3 LB, 4 DB",left,2019-09-15T18:56:44.000Z,2019-09-15T18:56:43.000Z,6-2,242,11/17/1995,Ohio State,LB,MIA,NE,2,Hard Rock Stadium,"Miami Gardens, FL",Outdoor,Natural Grass,Mostly Cloudy,87.0,67,4,S
21513,2019091505,20190915052236,home,58.18,16.82,2.35,0.55,0.24,289.65,248.58,2560725,Minkah Fitzpatrick,29,2019,35,3,07:26:00,NE,1,10,NE,0,16,2560809,I_FORM,"2 RB, 1 TE, 2 WR",7,"4 DL, 3 LB, 4 DB",left,2019-09-15T18:56:44.000Z,2019-09-15T18:56:43.000Z,6-1,207,11/17/1996,Alabama,S,MIA,NE,2,Hard Rock Stadium,"Miami Gardens, FL",Outdoor,Natural Grass,Mostly Cloudy,87.0,67,4,S
21514,2019091505,20190915052236,home,72.09,24.45,2.58,1.53,0.25,97.11,148.71,2560966,Jerome Baker,55,2019,35,3,07:26:00,NE,1,10,NE,0,16,2560809,I_FORM,"2 RB, 1 TE, 2 WR",7,"4 DL, 3 LB, 4 DB",left,2019-09-15T18:56:44.000Z,2019-09-15T18:56:43.000Z,6-2,225,12/25/1996,Ohio State,LB,MIA,NE,2,Hard Rock Stadium,"Miami Gardens, FL",Outdoor,Natural Grass,Mostly Cloudy,87.0,67,4,S
21515,2019091505,20190915052236,home,72.82,21.24,3.61,0.69,0.35,84.38,93.1,2562038,Sam Eguavoen,49,2019,35,3,07:26:00,NE,1,10,NE,0,16,2560809,I_FORM,"2 RB, 1 TE, 2 WR",7,"4 DL, 3 LB, 4 DB",left,2019-09-15T18:56:44.000Z,2019-09-15T18:56:43.000Z,6-0,236,02/22/1993,Texas Tech,LB,MIA,NE,2,Hard Rock Stadium,"Miami Gardens, FL",Outdoor,Natural Grass,Mostly Cloudy,87.0,67,4,S
