,GameId,PlayId,Team,X,Y,S,A,Dis,Orientation,Dir,NflId,DisplayName,JerseyNumber,Season,YardLine,Quarter,GameClock,PossessionTeam,Down,Distance,FieldPosition,HomeScoreBeforePlay,VisitorScoreBeforePlay,NflIdRusher,OffenseFormation,OffensePersonnel,DefendersInTheBox,DefensePersonnel,PlayDirection,TimeHandoff,TimeSnap,PlayerHeight,PlayerWeight,PlayerBirthDate,PlayerCollegeName,Position,HomeTeamAbbr,VisitorTeamAbbr,Week,Stadium,Location,StadiumType,Turf,GameWeather,Temperature,Humidity,WindSpeed,WindDirection
22902,2019091507,20190915070486,away,61.23,26.07,1.92,0.51,0.2,78.12,123.29,808,Duane Brown,76,2019,49,1,07:16:00,SEA,1,10,PIT,0,0,2560835,SINGLEBACK,"6 OL, 1 RB, 1 TE, 2 WR",7,"3 DL, 4 LB, 4 DB",right,2019-09-15T17:20:05.000Z,2019-09-15T17:20:03.000Z,6-4,315,08/30/1985,Virginia Tech,T,PIT,SEA,2,Heinz Field,Pittsburgh,Outdoors,Grass,Sunny,81.0,51,3,From S
22903,2019091507,20190915070486,away,60.77,24.77,0.01,1.31,0.01,110.02,232.8,497016,Mike Iupati,70,2019,49,1,07:16:00,SEA,1,10,PIT,0,0,2560835,SINGLEBACK,"6 OL, 1 RB, 1 TE, 2 WR",7,"3 DL, 4 LB, 4 DB",right,2019-09-15T17:20:05.000Z,2019-09-15T17:20:03.000Z,6-5,331,05/12/1987,Idaho,OG,PIT,SEA,2,Heinz Field,Pittsburgh,Outdoors,Grass,Sunny,81.0,51,3,From S
22904,2019091507,20190915070486,away,55.82,23.43,4.02,0.5,0.4,245.56,262.39,2532975,Russell Wilson,3,2019,49,1,07:16:00,SEA,1,10,PIT,0,0,2560835,SINGLEBACK,"6 OL, 1 RB, 1 TE, 2 WR",7,"3 DL, 4 LB, 4 DB",right,2019-09-15T17:20:05.000Z,2019-09-15T17:20:03.000Z,5-11,215,11/29/1988,Wisconsin,QB,PIT,SEA,2,Heinz Field,Pittsburgh,Outdoors,Grass,Sunny,81.0,51,3,From S
22905,2019091507,20190915070486,away,60.1,21.06,1.39,2.56,0.13,203.67,238.89,2540166,D.J. Fluker,78,2019,49,1,07:16:00,SEA,1,10,PIT,0,0,2560835,SINGLEBACK,"6 OL, 1 RB, 1 TE, 2 WR",7,"3 DL, 4 LB, 4 DB",right,2019-09-15T17:20:05.000Z,2019-09-15T17:20:03.000Z,6-5,342,03/13/1991,Alabama,OG,PIT,SEA,2,Heinz Field,Pittsburgh,Outdoors,Grass,Sunny,81.0,51,3,From S
22906,2019091507,20190915070486,away,60.25,29.14,3.6,1.12,0.36,110.79,134.91,2541966,Jaron Brown,18,2019,49,1,07:16:00,SEA,1,10,PIT,0,0,2560835,SINGLEBACK,"6 OL, 1 RB, 1 TE, 2 WR",7,"3 DL, 4 LB, 4 DB",right,2019-09-15T17:20:05.000Z,2019-09-15T17:20:03.000Z,6-3,205,01/08/1990,Clemson,WR,PIT,SEA,2,Heinz Field,Pittsburgh,Outdoors,Grass,Sunny,81.0,51,3,From S
22907,2019091507,20190915070486,away,61.66,23.53,1.61,0.76,0.16,120.39,125.98,2550135,Justin Britt,68,2019,49,1,07:16:00,SEA,1,10,PIT,0,0,2560835,SINGLEBACK,"6 OL, 1 RB, 1 TE, 2 WR",7,"3 DL, 4 LB, 4 DB",right,2019-09-15T17:20:05.000Z,2019-09-15T17:20:03.000Z,6-6,315,05/29/1991,Missouri,C,PIT,SEA,2,Heinz Field,Pittsburgh,Outdoors,Grass,Sunny,81.0,51,3,From S
22908,2019091507,20190915070486,away,59.65,19.17,1.31,0.4,0.13,148.92,182.09,2555395,Germain Ifedi,65,2019,49,1,07:16:00,SEA,1,10,PIT,0,0,2560835,SINGLEBACK,"6 OL, 1 RB, 1 TE, 2 WR",7,"3 DL, 4 LB, 4 DB",right,2019-09-15T17:20:05.000Z,2019-09-15T17:20:03.000Z,6-5,325,06/02/1994,Texas A&M,G,PIT,SEA,2,Heinz Field,Pittsburgh,Outdoors,Grass,Sunny,81.0,51,3,From S
22909,2019091507,20190915070486,away,61.16,26.7,2.15,0.89,0.22,111.4,117.49,2556524,George Fant,74,2019,49,1,07:16:00,SEA,1,10,PIT,0,0,2560835,SINGLEBACK,"6 OL, 1 RB, 1 TE, 2 WR",7,"3 DL, 4 LB, 4 DB",right,2019-09-15T17:20:05.000Z,2019-09-15T17:20:03.000Z,6-5,322,07/19/1992,Western Kentucky,OT,PIT,SEA,2,Heinz Field,Pittsburgh,Outdoors,Grass,Sunny,81.0,51,3,From S
22910,2019091507,20190915070486,away,55.91,24.39,4.61,2.52,0.45,64.4,84.81,2560835,Rashaad Penny,20,2019,49,1,07:16:00,SEA,1,10,PIT,0,0,2560835,SINGLEBACK,"6 OL, 1 RB, 1 TE, 2 WR",7,"3 DL, 4 LB, 4 DB",right,2019-09-15T17:20:05.000Z,2019-09-15T17:20:03.000Z,5-11,220,02/02/1996,San Diego State,RB,PIT,SEA,2,Heinz Field,Pittsburgh,Outdoors,Grass,Sunny,81.0,51,3,From S
22911,2019091507,20190915070486,away,59.96,30.32,1.41,2.56,0.15,350.55,30.2,2561046,Will Dissly,88,2019,49,1,07:16:00,SEA,1,10,PIT,0,0,2560835,SINGLEBACK,"6 OL, 1 RB, 1 TE, 2 WR",7,"3 DL, 4 LB, 4 DB",right,2019-09-15T17:20:05.000Z,2019-09-15T17:20:03.000Z,6-4,267,07/08/1996,Washington,TE,PIT,SEA,2,Heinz Field,Pittsburgh,Outdoors,Grass,Sunny,81.0,51,3,From S
22912,2019091507,20190915070486,away,62.57,10.89,5.58,2.43,0.54,15.56,33.73,2562685,D.K. Metcalf,14,2019,49,1,07:16:00,SEA,1,10,PIT,0,0,2560835,SINGLEBACK,"6 OL, 1 RB, 1 TE, 2 WR",7,"3 DL, 4 LB, 4 DB",right,2019-09-15T17:20:05.000Z,2019-09-15T17:20:03.000Z,6-4,230,12/14/1997,Mississippi,WR,PIT,SEA,2,Heinz Field,Pittsburgh,Outdoors,Grass,Sunny,81.0,51,3,From S
22913,2019091507,20190915070486,home,68.73,10.68,2.73,1.91,0.27,308.39,35.33,496733,Joe Haden,23,2019,49,1,07:16:00,SEA,1,10,PIT,0,0,2560835,SINGLEBACK,"6 OL, 1 RB, 1 TE, 2 WR",7,"3 DL, 4 LB, 4 DB",right,2019-09-15T17:20:05.000Z,2019-09-15T17:20:03.000Z,5-11,195,04/14/1989,Florida,CB,PIT,SEA,2,Heinz Field,Pittsburgh,Outdoors,Grass,Sunny,81.0,51,3,From S
22914,2019091507,20190915070486,home,61.89,26.85,1.78,1.05,0.18,228.29,108.3,2508109,Cameron Heyward,97,2019,49,1,07:16:00,SEA,1,10,PIT,0,0,2560835,SINGLEBACK,"6 OL, 1 RB, 1 TE, 2 WR",7,"3 DL, 4 LB, 4 DB",right,2019-09-15T17:20:05.000Z,2019-09-15T17:20:03.000Z,6-5,295,05/06/1989,Ohio State,DT,PIT,SEA,2,Heinz Field,Pittsburgh,Outdoors,Grass,Sunny,81.0,51,3,From S
22915,2019091507,20190915070486,home,63.22,22.57,1.89,0.82,0.18,289.07,272.25,2532789,Mark Barron,26,2019,49,1,07:16:00,SEA,1,10,PIT,0,0,2560835,SINGLEBACK,"6 OL, 1 RB, 1 TE, 2 WR",7,"3 DL, 4 LB, 4 DB",right,2019-09-15T17:20:05.000Z,2019-09-15T17:20:03.000Z,6-2,230,10/27/1989,Alabama,ILB,PIT,SEA,2,Heinz Field,Pittsburgh,Outdoors,Grass,Sunny,81.0,51,3,From S
22916,2019091507,20190915070486,home,63.28,26.3,2.42,1.55,0.2,228.12,226.99,2540221,Vince Williams,98,2019,49,1,07:16:00,SEA,1,10,PIT,0,0,2560835,SINGLEBACK,"6 OL, 1 RB, 1 TE, 2 WR",7,"3 DL, 4 LB, 4 DB",right,2019-09-15T17:20:05.000Z,2019-09-15T17:20:03.000Z,6-1,233,12/27/1989,Florida State,ILB,PIT,SEA,2,Heinz Field,Pittsburgh,Outdoors,Grass,Sunny,81.0,51,3,From S
22917,2019091507,20190915070486,home,59.4,20.08,2.4,1.64,0.25,307.01,246.05,2543483,Stephon Tuitt,91,2019,49,1,07:16:00,SEA,1,10,PIT,0,0,2560835,SINGLEBACK,"6 OL, 1 RB, 1 TE, 2 WR",7,"3 DL, 4 LB, 4 DB",right,2019-09-15T17:20:05.000Z,2019-09-15T17:20:03.000Z,6-6,303,05/23/1993,Notre Dame,DE,PIT,SEA,2,Heinz Field,Pittsburgh,Outdoors,Grass,Sunny,81.0,51,3,From S
22918,2019091507,20190915070486,home,61.39,24.74,0.24,0.16,0.02,272.46,143.32,2550154,Dan McCullers,93,2019,49,1,07:16:00,SEA,1,10,PIT,0,0,2560835,SINGLEBACK,"6 OL, 1 RB, 1 TE, 2 WR",7,"3 DL, 4 LB, 4 DB",right,2019-09-15T17:20:05.000Z,2019-09-15T17:20:03.000Z,6-7,352,08/11/1992,Tennessee,DT,PIT,SEA,2,Heinz Field,Pittsburgh,Outdoors,Grass,Sunny,81.0,51,3,From S
22919,2019091507,20190915070486,home,63.81,33.73,1.32,1.76,0.13,215.36,195.86,2552265,Steven Nelson,22,2019,49,1,07:16:00,SEA,1,10,PIT,0,0,2560835,SINGLEBACK,"6 OL, 1 RB, 1 TE, 2 WR",7,"3 DL, 4 LB, 4 DB",right,2019-09-15T17:20:05.000Z,2019-09-15T17:20:03.000Z,5-11,194,01/22/1993,Oregon State,CB,PIT,SEA,2,Heinz Field,Pittsburgh,Outdoors,Grass,Sunny,81.0,51,3,From S
22920,2019091507,20190915070486,home,59.92,18.66,1.38,2.24,0.13,314.19,199.35,2552266,Anthony Chickillo,56,2019,49,1,07:16:00,SEA,1,10,PIT,0,0,2560835,SINGLEBACK,"6 OL, 1 RB, 1 TE, 2 WR",7,"3 DL, 4 LB, 4 DB",right,2019-09-15T17:20:05.000Z,2019-09-15T17:20:03.000Z,6-3,255,12/10/1992,Miami,OLB,PIT,SEA,2,Heinz Field,Pittsburgh,Outdoors,Grass,Sunny,81.0,51,3,From S
22921,2019091507,20190915070486,home,60.06,31.41,2.35,1.12,0.23,161.07,254.67,2552289,Bud Dupree,48,2019,49,1,07:16:00,SEA,1,10,PIT,0,0,2560835,SINGLEBACK,"6 OL, 1 RB, 1 TE, 2 WR",7,"3 DL, 4 LB, 4 DB",right,2019-09-15T17:20:05.000Z,2019-09-15T17:20:03.000Z,6-4,269,02/12/1993,Kentucky,OLB,PIT,SEA,2,Heinz Field,Pittsburgh,Outdoors,Grass,Sunny,81.0,51,3,From S
22922,2019091507,20190915070486,home,78.04,24.28,0.11,0.03,0.01,251.94,126.27,2555386,Sean Davis,21,2019,49,1,07:16:00,SEA,1,10,PIT,0,0,2560835,SINGLEBACK,"6 OL, 1 RB, 1 TE, 2 WR",7,"3 DL, 4 LB, 4 DB",right,2019-09-15T17:20:05.000Z,2019-09-15T17:20:03.000Z,6-1,202,10/23/1993,Maryland,SS,PIT,SEA,2,Heinz Field,Pittsburgh,Outdoors,Grass,Sunny,81.0,51,3,From S
22923,2019091507,20190915070486,home,61.85,29.21,3.6,1.11,0.35,222.46,193.42,2560712,Terrell Edmunds,34,2019,49,1,07:16:00,SEA,1,10,PIT,0,0,2560835,SINGLEBACK,"6 OL, 1 RB, 1 TE, 2 WR",7,"3 DL, 4 LB, 4 DB",right,2019-09-15T17:20:05.000Z,2019-09-15T17:20:03.000Z,6-1,217,01/20/1997,Virginia Tech,S,PIT,SEA,2,Heinz Field,Pittsburgh,Outdoors,Grass,Sunny,81.0,51,3,From S
