,GameId,PlayId,Team,X,Y,S,A,Dis,Orientation,Dir,NflId,DisplayName,JerseyNumber,Season,YardLine,Quarter,GameClock,PossessionTeam,Down,Distance,FieldPosition,HomeScoreBeforePlay,VisitorScoreBeforePlay,NflIdRusher,OffenseFormation,OffensePersonnel,DefendersInTheBox,DefensePersonnel,PlayDirection,TimeHandoff,TimeSnap,PlayerHeight,PlayerWeight,PlayerBirthDate,PlayerCollegeName,Position,HomeTeamAbbr,VisitorTeamAbbr,Week,Stadium,Location,StadiumType,Turf,GameWeather,Temperature,Humidity,WindSpeed,WindDirection
38456,2019092206,20190922063699,away,16.23,24.85,2.48,0.55,0.26,99.08,196.92,2495655,Ryan Kalil,55,2019,8,4,03:27:00,NYJ,3,3,NYJ,30,14,2540175,SINGLEBACK,"1 RB, 3 TE, 1 WR",6,"3 DL, 3 LB, 5 DB",right,2019-09-22T19:49:39.000Z,2019-09-22T19:49:38.000Z,6-2,300,03/29/1985,Southern California,C,NE,NYJ,3,Gillette Stadium,"Foxborough, MA",Outdoor,Field Turf,Sunny and warm,81.0,49,10,SW
38457,2019092206,20190922063699,away,17.13,25.44,2.57,1.33,0.26,145.95,175.05,2532922,Kelechi Osemele,70,2019,8,4,03:27:00,NYJ,3,3,NYJ,30,14,2540175,SINGLEBACK,"1 RB, 3 TE, 1 WR",6,"3 DL, 3 LB, 5 DB",right,2019-09-22T19:49:39.000Z,2019-09-22T19:49:38.000Z,6-5,330,06/24/1989,Iowa State,G,NE,NYJ,3,Gillette Stadium,"Foxborough, MA",Outdoor,Field Turf,Sunny and warm,81.0,49,10,SW
38458,2019092206,20190922063699,away,16.8,27.2,2.18,0.95,0.23,85.55,181.8,2533442,Kelvin Beachum,68,2019,8,4,03:27:00,NYJ,3,3,NYJ,30,14,2540175,SINGLEBACK,"1 RB, 3 TE, 1 WR",6,"3 DL, 3 LB, 5 DB",right,2019-09-22T19:49:39.000Z,2019-09-22T19:49:38.000Z,6-3,308,06/08/1989,Southern Methodist,T,NE,NYJ,3,Gillette Stadium,"Foxborough, MA",Outdoor,Field Turf,Sunny and warm,81.0,49,10,SW
38459,2019092206,20190922063699,away,17.62,23.48,1.09,1.03,0.11,71.6,156.51,2539247,Brian Winters,67,2019,8,4,03:27:00,NYJ,3,3,NYJ,30,14,2540175,SINGLEBACK,"1 RB, 3 TE, 1 WR",6,"3 DL, 3 LB, 5 DB",right,2019-09-22T19:49:39.000Z,2019-09-22T19:49:38.000Z,6-4,320,07/10/1991,Kent State,G,NE,NYJ,3,Gillette Stadium,"Foxborough, MA",Outdoor,Field Turf,Sunny and warm,81.0,49,10,SW
38460,2019092206,20190922063699,away,13.06,24.6,4.23,3.02,0.42,91.19,109.61,2540175,Le'Veon Bell,26,2019,8,4,03:27:00,NYJ,3,3,NYJ,30,14,2540175,SINGLEBACK,"1 RB, 3 TE, 1 WR",6,"3 DL, 3 LB, 5 DB",right,2019-09-22T19:49:39.000Z,2019-09-22T19:49:38.000Z,6-1,225,02/18/1992,Michigan State,RB,NE,NYJ,3,Gillette Stadium,"Foxborough, MA",Outdoor,Field Turf,Sunny and warm,81.0,49,10,SW
38461,2019092206,20190922063699,away,16.93,19.86,2.7,0.72,0.27,161.19,167.35,2541316,Ryan Griffin,84,2019,8,4,03:27:00,NYJ,3,3,NYJ,30,14,2540175,SINGLEBACK,"1 RB, 3 TE, 1 WR",6,"3 DL, 3 LB, 5 DB",right,2019-09-22T19:49:39.000Z,2019-09-22T19:49:38.000Z,6-6,255,01/11/1990,Connecticut,TE,NE,NYJ,3,Gillette Stadium,"Foxborough, MA",Outdoor,Field Turf,Sunny and warm,81.0,49,10,SW
38462,2019092206,20190922063699,away,16.14,19.97,2.21,1.81,0.22,112.33,187.82,2553900,Daniel Brown,87,2019,8,4,03:27:00,NYJ,3,3,NYJ,30,14,2540175,SINGLEBACK,"1 RB, 3 TE, 1 WR",6,"3 DL, 3 LB, 5 DB",right,2019-09-22T19:49:39.000Z,2019-09-22T19:49:38.000Z,6-5,247,05/26/1992,James Madison,TE,NE,NYJ,3,Gillette Stadium,"Foxborough, MA",Outdoor,Field Turf,Sunny and warm,81.0,49,10,SW
38463,2019092206,20190922063699,away,16.27,22.56,0.64,1.57,0.07,93.06,198.36,2555193,Brandon Shell,72,2019,8,4,03:27:00,NYJ,3,3,NYJ,30,14,2540175,SINGLEBACK,"1 RB, 3 TE, 1 WR",6,"3 DL, 3 LB, 5 DB",right,2019-09-22T19:49:39.000Z,2019-09-22T19:49:38.000Z,6-5,324,02/06/1992,South Carolina,T,NE,NYJ,3,Gillette Stadium,"Foxborough, MA",Outdoor,Field Turf,Sunny and warm,81.0,49,10,SW
38464,2019092206,20190922063699,away,17.7,40.35,4.77,3.54,0.46,118.02,152.06,2556462,Robby Anderson,11,2019,8,4,03:27:00,NYJ,3,3,NYJ,30,14,2540175,SINGLEBACK,"1 RB, 3 TE, 1 WR",6,"3 DL, 3 LB, 5 DB",right,2019-09-22T19:49:39.000Z,2019-09-22T19:49:38.000Z,6-3,190,05/09/1993,Temple,WR,NE,NYJ,3,Gillette Stadium,"Foxborough, MA",Outdoor,Field Turf,Sunny and warm,81.0,49,10,SW
38465,2019092206,20190922063699,away,12.29,25.43,4.08,1.05,0.41,228.8,255.52,2560720,Luke Falk,8,2019,8,4,03:27:00,NYJ,3,3,NYJ,30,14,2540175,SINGLEBACK,"1 RB, 3 TE, 1 WR",6,"3 DL, 3 LB, 5 DB",right,2019-09-22T19:49:39.000Z,2019-09-22T19:49:38.000Z,6-4,215,12/28/1994,Washington State,QB,NE,NYJ,3,Gillette Stadium,"Foxborough, MA",Outdoor,Field Turf,Sunny and warm,81.0,49,10,SW
38466,2019092206,20190922063699,away,18.06,29.46,2.45,1.77,0.25,62.22,131.65,2562777,Trevon Wesco,85,2019,8,4,03:27:00,NYJ,3,3,NYJ,30,14,2540175,SINGLEBACK,"1 RB, 3 TE, 1 WR",6,"3 DL, 3 LB, 5 DB",right,2019-09-22T19:49:39.000Z,2019-09-22T19:49:38.000Z,6-3,267,09/12/1995,West Virginia,TE,NE,NYJ,3,Gillette Stadium,"Foxborough, MA",Outdoor,Field Turf,Sunny and warm,81.0,49,10,SW
38467,2019092206,20190922063699,home,18.27,25.85,3.88,1.76,0.39,254.42,231.17,71251,Patrick Chung,23,2019,8,4,03:27:00,NYJ,3,3,NYJ,30,14,2540175,SINGLEBACK,"1 RB, 3 TE, 1 WR",6,"3 DL, 3 LB, 5 DB",right,2019-09-22T19:49:39.000Z,2019-09-22T19:49:38.000Z,5-11,215,08/19/1987,Oregon,SS,NE,NYJ,3,Gillette Stadium,"Foxborough, MA",Outdoor,Field Turf,Sunny and warm,81.0,49,10,SW
38468,2019092206,20190922063699,home,27.9,20.84,1.7,0.73,0.17,260.89,149.81,89756,Jason McCourty,30,2019,8,4,03:27:00,NYJ,3,3,NYJ,30,14,2540175,SINGLEBACK,"1 RB, 3 TE, 1 WR",6,"3 DL, 3 LB, 5 DB",right,2019-09-22T19:49:39.000Z,2019-09-22T19:49:38.000Z,5-11,195,08/13/1987,Rutgers,CB,NE,NYJ,3,Gillette Stadium,"Foxborough, MA",Outdoor,Field Turf,Sunny and warm,81.0,49,10,SW
38469,2019092206,20190922063699,home,31.53,35.96,1.88,2.49,0.19,264.12,87.24,494287,Devin McCourty,32,2019,8,4,03:27:00,NYJ,3,3,NYJ,30,14,2540175,SINGLEBACK,"1 RB, 3 TE, 1 WR",6,"3 DL, 3 LB, 5 DB",right,2019-09-22T19:49:39.000Z,2019-09-22T19:49:38.000Z,5-10,195,08/13/1987,Rutgers,FS,NE,NYJ,3,Gillette Stadium,"Foxborough, MA",Outdoor,Field Turf,Sunny and warm,81.0,49,10,SW
38470,2019092206,20190922063699,home,16.6,21.75,0.73,1.67,0.08,254.02,192.39,2507617,Michael Bennett,77,2019,8,4,03:27:00,NYJ,3,3,NYJ,30,14,2540175,SINGLEBACK,"1 RB, 3 TE, 1 WR",6,"3 DL, 3 LB, 5 DB",right,2019-09-22T19:49:39.000Z,2019-09-22T19:49:38.000Z,6-4,274,11/13/1985,Texas A&M,DE,NE,NYJ,3,Gillette Stadium,"Foxborough, MA",Outdoor,Field Turf,Sunny and warm,81.0,49,10,SW
38471,2019092206,20190922063699,home,19.18,39.92,5.11,2.73,0.5,224.5,180.61,2533062,Stephon Gilmore,24,2019,8,4,03:27:00,NYJ,3,3,NYJ,30,14,2540175,SINGLEBACK,"1 RB, 3 TE, 1 WR",6,"3 DL, 3 LB, 5 DB",right,2019-09-22T19:49:39.000Z,2019-09-22T19:49:38.000Z,6-1,202,09/19/1990,South Carolina,CB,NE,NYJ,3,Gillette Stadium,"Foxborough, MA",Outdoor,Field Turf,Sunny and warm,81.0,49,10,SW
38472,2019092206,20190922063699,home,17.57,27.35,2.0,1.39,0.2,244.88,183.25,2539280,John Simon,55,2019,8,4,03:27:00,NYJ,3,3,NYJ,30,14,2540175,SINGLEBACK,"1 RB, 3 TE, 1 WR",6,"3 DL, 3 LB, 5 DB",right,2019-09-22T19:49:39.000Z,2019-09-22T19:49:38.000Z,6-2,260,10/14/1990,Ohio State,DE,NE,NYJ,3,Gillette Stadium,"Foxborough, MA",Outdoor,Field Turf,Sunny and warm,81.0,49,10,SW
38473,2019092206,20190922063699,home,18.73,30.2,1.85,1.95,0.19,233.74,152.74,2539311,Jamie Collins,58,2019,8,4,03:27:00,NYJ,3,3,NYJ,30,14,2540175,SINGLEBACK,"1 RB, 3 TE, 1 WR",6,"3 DL, 3 LB, 5 DB",right,2019-09-22T19:49:39.000Z,2019-09-22T19:49:38.000Z,6-3,255,10/20/1989,Southern Mississippi,OLB,NE,NYJ,3,Gillette Stadium,"Foxborough, MA",Outdoor,Field Turf,Sunny and warm,81.0,49,10,SW
38474,2019092206,20190922063699,home,16.51,19.27,2.18,1.39,0.22,279.97,216.65,2543699,Kyle Van Noy,53,2019,8,4,03:27:00,NYJ,3,3,NYJ,30,14,2540175,SINGLEBACK,"1 RB, 3 TE, 1 WR",6,"3 DL, 3 LB, 5 DB",right,2019-09-22T19:49:39.000Z,2019-09-22T19:49:38.000Z,6-3,250,03/26/1991,Brigham Young,OLB,NE,NYJ,3,Gillette Stadium,"Foxborough, MA",Outdoor,Field Turf,Sunny and warm,81.0,49,10,SW
38475,2019092206,20190922063699,home,17.93,24.09,1.23,3.26,0.11,233.8,226.28,2556119,Elandon Roberts,52,2019,8,4,03:27:00,NYJ,3,3,NYJ,30,14,2540175,SINGLEBACK,"1 RB, 3 TE, 1 WR",6,"3 DL, 3 LB, 5 DB",right,2019-09-22T19:49:39.000Z,2019-09-22T19:49:38.000Z,6-0,238,04/22/1994,Houston,MLB,NE,NYJ,3,Gillette Stadium,"Foxborough, MA",Outdoor,Field Turf,Sunny and warm,81.0,49,10,SW
38476,2019092206,20190922063699,home,16.65,24.33,2.84,1.06,0.28,296.44,198.88,2558924,Adam Butler,70,2019,8,4,03:27:00,NYJ,3,3,NYJ,30,14,2540175,SINGLEBACK,"1 RB, 3 TE, 1 WR",6,"3 DL, 3 LB, 5 DB",right,2019-09-22T19:49:39.000Z,2019-09-22T19:49:38.000Z,6-5,300,04/12/1994,Vanderbilt,DT,NE,NYJ,3,Gillette Stadium,"Foxborough, MA",Outdoor,Field Turf,Sunny and warm,81.0,49,10,SW
38477,2019092206,20190922063699,home,19.13,16.91,3.08,1.11,0.3,302.35,243.59,2560754,J.C. Jackson,27,2019,8,4,03:27:00,NYJ,3,3,NYJ,30,14,2540175,SINGLEBACK,"1 RB, 3 TE, 1 WR",6,"3 DL, 3 LB, 5 DB",right,2019-09-22T19:49:39.000Z,2019-09-22T19:49:38.000Z,6-1,198,11/17/1995,Maryland,DB,NE,NYJ,3,Gillette Stadium,"Foxborough, MA",Outdoor,Field Turf,Sunny and warm,81.0,49,10,SW
