,GameId,PlayId,Team,X,Y,S,A,Dis,Orientation,Dir,NflId,DisplayName,JerseyNumber,Season,YardLine,Quarter,GameClock,PossessionTeam,Down,Distance,FieldPosition,HomeScoreBeforePlay,VisitorScoreBeforePlay,NflIdRusher,OffenseFormation,OffensePersonnel,DefendersInTheBox,DefensePersonnel,PlayDirection,TimeHandoff,TimeSnap,PlayerHeight,PlayerWeight,PlayerBirthDate,PlayerCollegeName,Position,HomeTeamAbbr,VisitorTeamAbbr,Week,Stadium,Location,StadiumType,Turf,GameWeather,Temperature,Humidity,WindSpeed,WindDirection
72798,2019100611,20191006111354,away,59.96,44.28,0.92,2.69,0.08,261.24,83.01,2506789,Tramon Williams,38,2019,49,2,09:46:00,DAL,2,5,DAL,0,14,2562699,SHOTGUN,"1 RB, 1 TE, 3 WR",6,"2 DL, 4 LB, 5 DB",right,2019-10-06T21:21:20.000Z,2019-10-06T21:21:19.000Z,5-11,192,03/16/1983,Louisiana Tech,CB,DAL,GB,5,AT&T Stadium,"Arlington, Texas",Indoor,Artificial,,,0,,
72799,2019100611,20191006111354,away,58.2,19.09,2.41,0.57,0.23,306.12,304.46,2552276,Preston Smith,91,2019,49,2,09:46:00,DAL,2,5,DAL,0,14,2562699,SHOTGUN,"1 RB, 1 TE, 3 WR",6,"2 DL, 4 LB, 5 DB",right,2019-10-06T21:21:20.000Z,2019-10-06T21:21:19.000Z,6-5,265,11/17/1992,Mississippi State,OLB,DAL,GB,5,AT&T Stadium,"Arlington, Texas",Indoor,Artificial,,,0,,
72800,2019100611,20191006111354,away,58.65,29.74,1.49,0.2,0.14,224.13,224.89,2552279,Za'Darius Smith,55,2019,49,2,09:46:00,DAL,2,5,DAL,0,14,2562699,SHOTGUN,"1 RB, 1 TE, 3 WR",6,"2 DL, 4 LB, 5 DB",right,2019-10-06T21:21:20.000Z,2019-10-06T21:21:19.000Z,6-4,272,09/08/1992,Kentucky,OLB,DAL,GB,5,AT&T Stadium,"Arlington, Texas",Indoor,Artificial,,,0,,
72801,2019100611,20191006111354,away,74.71,22.07,2.1,1.98,0.2,289.31,56.43,2552385,Adrian Amos,31,2019,49,2,09:46:00,DAL,2,5,DAL,0,14,2562699,SHOTGUN,"1 RB, 1 TE, 3 WR",6,"2 DL, 4 LB, 5 DB",right,2019-10-06T21:21:20.000Z,2019-10-06T21:21:19.000Z,6-0,214,04/29/1993,Penn State,FS,DAL,GB,5,AT&T Stadium,"Arlington, Texas",Indoor,Artificial,,,0,,
72802,2019100611,20191006111354,away,62.71,25.69,1.4,2.98,0.13,274.91,344.72,2555161,Blake Martinez,50,2019,49,2,09:46:00,DAL,2,5,DAL,0,14,2562699,SHOTGUN,"1 RB, 1 TE, 3 WR",6,"2 DL, 4 LB, 5 DB",right,2019-10-06T21:21:20.000Z,2019-10-06T21:21:19.000Z,6-2,237,01/09/1994,Stanford,ILB,DAL,GB,5,AT&T Stadium,"Arlington, Texas",Indoor,Artificial,,,0,,
72803,2019100611,20191006111354,away,58.94,23.42,1.02,0.45,0.11,302.88,311.7,2555282,Kenny Clark,97,2019,49,2,09:46:00,DAL,2,5,DAL,0,14,2562699,SHOTGUN,"1 RB, 1 TE, 3 WR",6,"2 DL, 4 LB, 5 DB",right,2019-10-06T21:21:20.000Z,2019-10-06T21:21:19.000Z,6-3,314,10/04/1995,UCLA,NT,DAL,GB,5,AT&T Stadium,"Arlington, Texas",Indoor,Artificial,,,0,,
72804,2019100611,20191006111354,away,63.18,21.84,1.05,3.73,0.1,251.58,333.78,2555522,B.J. Goodson,93,2019,49,2,09:46:00,DAL,2,5,DAL,0,14,2562699,SHOTGUN,"1 RB, 1 TE, 3 WR",6,"2 DL, 4 LB, 5 DB",right,2019-10-06T21:21:20.000Z,2019-10-06T21:21:19.000Z,6-1,242,05/29/1993,Clemson,ILB,DAL,GB,5,AT&T Stadium,"Arlington, Texas",Indoor,Artificial,,,0,,
72805,2019100611,20191006111354,away,64.39,30.04,1.79,2.23,0.17,265.56,350.14,2555545,Will Redmond,25,2019,49,2,09:46:00,DAL,2,5,DAL,0,14,2562699,SHOTGUN,"1 RB, 1 TE, 3 WR",6,"2 DL, 4 LB, 5 DB",right,2019-10-06T21:21:20.000Z,2019-10-06T21:21:19.000Z,5-11,186,12/28/1993,Mississippi State,CB,DAL,GB,5,AT&T Stadium,"Arlington, Texas",Indoor,Artificial,,,0,,
72806,2019100611,20191006111354,away,59.23,25.82,0.38,0.76,0.04,234.17,186.6,2557876,Montravius Adams,90,2019,49,2,09:46:00,DAL,2,5,DAL,0,14,2562699,SHOTGUN,"1 RB, 1 TE, 3 WR",6,"2 DL, 4 LB, 5 DB",right,2019-10-06T21:21:20.000Z,2019-10-06T21:21:19.000Z,6-4,304,07/24/1995,Auburn,DT,DAL,GB,5,AT&T Stadium,"Arlington, Texas",Indoor,Artificial,,,0,,
72807,2019100611,20191006111354,away,60.61,36.21,2.4,1.98,0.23,256.82,36.46,2560887,Chandon Sullivan,39,2019,49,2,09:46:00,DAL,2,5,DAL,0,14,2562699,SHOTGUN,"1 RB, 1 TE, 3 WR",6,"2 DL, 4 LB, 5 DB",right,2019-10-06T21:21:20.000Z,2019-10-06T21:21:19.000Z,5-11,189,08/07/1996,Georgia State,CB,DAL,GB,5,AT&T Stadium,"Arlington, Texas",Indoor,Artificial,,,0,,
72808,2019100611,20191006111354,away,59.98,8.67,0.48,1.85,0.04,245.46,109.11,2560952,Jaire Alexander,23,2019,49,2,09:46:00,DAL,2,5,DAL,0,14,2562699,SHOTGUN,"1 RB, 1 TE, 3 WR",6,"2 DL, 4 LB, 5 DB",right,2019-10-06T21:21:20.000Z,2019-10-06T21:21:19.000Z,5-10,196,02/09/1997,Louisville,CB,DAL,GB,5,AT&T Stadium,"Arlington, Texas",Indoor,Artificial,,,0,,
72809,2019100611,20191006111354,home,58.42,36.0,3.51,4.04,0.33,111.07,54.43,2495448,Randall Cobb,18,2019,49,2,09:46:00,DAL,2,5,DAL,0,14,2562699,SHOTGUN,"1 RB, 1 TE, 3 WR",6,"2 DL, 4 LB, 5 DB",right,2019-10-06T21:21:20.000Z,2019-10-06T21:21:19.000Z,5-10,192,08/22/1990,Kentucky,WR,DAL,GB,5,AT&T Stadium,"Arlington, Texas",Indoor,Artificial,,,0,,
72810,2019100611,20191006111354,home,58.36,23.81,0.42,1.57,0.05,103.92,339.84,2540161,Travis Frederick,72,2019,49,2,09:46:00,DAL,2,5,DAL,0,14,2562699,SHOTGUN,"1 RB, 1 TE, 3 WR",6,"2 DL, 4 LB, 5 DB",right,2019-10-06T21:21:20.000Z,2019-10-06T21:21:19.000Z,6-4,320,03/18/1991,Wisconsin,C,DAL,GB,5,AT&T Stadium,"Arlington, Texas",Indoor,Artificial,,,0,,
72811,2019100611,20191006111354,home,57.32,24.27,3.19,1.64,0.32,19.04,4.48,2543480,Zack Martin,70,2019,49,2,09:46:00,DAL,2,5,DAL,0,14,2562699,SHOTGUN,"1 RB, 1 TE, 3 WR",6,"2 DL, 4 LB, 5 DB",right,2019-10-06T21:21:20.000Z,2019-10-06T21:21:19.000Z,6-4,315,11/20/1990,Notre Dame,G,DAL,GB,5,AT&T Stadium,"Arlington, Texas",Indoor,Artificial,,,0,,
72812,2019100611,20191006111354,home,58.36,26.25,1.49,0.45,0.15,195.68,126.02,2543654,Cameron Fleming,75,2019,49,2,09:46:00,DAL,2,5,DAL,0,14,2562699,SHOTGUN,"1 RB, 1 TE, 3 WR",6,"2 DL, 4 LB, 5 DB",right,2019-10-06T21:21:20.000Z,2019-10-06T21:21:19.000Z,6-5,320,09/03/1992,Stanford,T,DAL,GB,5,AT&T Stadium,"Arlington, Texas",Indoor,Artificial,,,0,,
72813,2019100611,20191006111354,home,57.95,44.08,2.33,2.45,0.23,80.98,78.51,2552487,Amari Cooper,19,2019,49,2,09:46:00,DAL,2,5,DAL,0,14,2562699,SHOTGUN,"1 RB, 1 TE, 3 WR",6,"2 DL, 4 LB, 5 DB",right,2019-10-06T21:21:20.000Z,2019-10-06T21:21:19.000Z,6-1,211,06/17/1994,Alabama,WR,DAL,GB,5,AT&T Stadium,"Arlington, Texas",Indoor,Artificial,,,0,,
72814,2019100611,20191006111354,home,56.81,20.08,1.04,0.79,0.11,105.82,215.84,2553505,La'el Collins,71,2019,49,2,09:46:00,DAL,2,5,DAL,0,14,2562699,SHOTGUN,"1 RB, 1 TE, 3 WR",6,"2 DL, 4 LB, 5 DB",right,2019-10-06T21:21:20.000Z,2019-10-06T21:21:19.000Z,6-4,320,07/26/1993,Louisiana State,T,DAL,GB,5,AT&T Stadium,"Arlington, Texas",Indoor,Artificial,,,0,,
72815,2019100611,20191006111354,home,53.98,23.8,0.31,0.36,0.03,105.57,308.09,2555260,Dak Prescott,4,2019,49,2,09:46:00,DAL,2,5,DAL,0,14,2562699,SHOTGUN,"1 RB, 1 TE, 3 WR",6,"2 DL, 4 LB, 5 DB",right,2019-10-06T21:21:20.000Z,2019-10-06T21:21:19.000Z,6-2,238,07/29/1993,Mississippi State,QB,DAL,GB,5,AT&T Stadium,"Arlington, Texas",Indoor,Artificial,,,0,,
72816,2019100611,20191006111354,home,58.02,28.84,0.51,1.6,0.06,44.44,69.68,2559193,Blake Jarwin,89,2019,49,2,09:46:00,DAL,2,5,DAL,0,14,2562699,SHOTGUN,"1 RB, 1 TE, 3 WR",6,"2 DL, 4 LB, 5 DB",right,2019-10-06T21:21:20.000Z,2019-10-06T21:21:19.000Z,6-5,260,07/16/1994,Oklahoma State,TE,DAL,GB,5,AT&T Stadium,"Arlington, Texas",Indoor,Artificial,,,0,,
72817,2019100611,20191006111354,home,58.39,9.07,2.42,2.47,0.23,99.75,94.36,2560735,Michael Gallup,13,2019,49,2,09:46:00,DAL,2,5,DAL,0,14,2562699,SHOTGUN,"1 RB, 1 TE, 3 WR",6,"2 DL, 4 LB, 5 DB",right,2019-10-06T21:21:20.000Z,2019-10-06T21:21:19.000Z,6-1,200,03/04/1996,Colorado State,WR,DAL,GB,5,AT&T Stadium,"Arlington, Texas",Indoor,Artificial,,,0,,
72818,2019100611,20191006111354,home,58.6,25.62,1.14,0.67,0.12,126.22,122.11,2560934,Connor Williams,52,2019,49,2,09:46:00,DAL,2,5,DAL,0,14,2562699,SHOTGUN,"1 RB, 1 TE, 3 WR",6,"2 DL, 4 LB, 5 DB",right,2019-10-06T21:21:20.000Z,2019-10-06T21:21:19.000Z,6-5,298,05/12/1997,Texas,G,DAL,GB,5,AT&T Stadium,"Arlington, Texas",Indoor,Artificial,,,0,,
72819,2019100611,20191006111354,home,53.94,22.62,2.7,3.96,0.25,83.87,15.87,2562699,Tony Pollard,20,2019,49,2,09:46:00,DAL,2,5,DAL,0,14,2562699,SHOTGUN,"1 RB, 1 TE, 3 WR",6,"2 DL, 4 LB, 5 DB",right,2019-10-06T21:21:20.000Z,2019-10-06T21:21:19.000Z,6-0,209,04/30/1997,Memphis,RB,DAL,GB,5,AT&T Stadium,"Arlington, Texas",Indoor,Artificial,,,0,,
