,GameId,PlayId,Team,X,Y,S,A,Dis,Orientation,Dir,NflId,DisplayName,JerseyNumber,Season,YardLine,Quarter,GameClock,PossessionTeam,Down,Distance,FieldPosition,HomeScoreBeforePlay,VisitorScoreBeforePlay,NflIdRusher,OffenseFormation,OffensePersonnel,DefendersInTheBox,DefensePersonnel,PlayDirection,TimeHandoff,TimeSnap,PlayerHeight,PlayerWeight,PlayerBirthDate,PlayerCollegeName,Position,HomeTeamAbbr,VisitorTeamAbbr,Week,Stadium,Location,StadiumType,Turf,GameWeather,Temperature,Humidity,WindSpeed,WindDirection
57904,2019092911,20190929111129,away,46.78,29.63,1.96,0.25,0.21,137.26,99.92,2543729,Brandon Linder,65,2019,36,2,12:59:00,JAX,1,10,JAX,14,3,2557973,SINGLEBACK,"6 OL, 1 RB, 1 TE, 2 WR",7,"3 DL, 4 LB, 4 DB",right,2019-09-29T21:14:05.000Z,2019-09-29T21:14:04.000Z,6-6,315,01/25/1992,Miami,C,DEN,JAX,4,Empower Field at Mile High,"Denver, CO",Outdoor,Grass,Sunny,87.0,11,14 Gusting to 24,Southwest
57905,2019092911,20190929111129,away,46.63,30.24,2.2,1.14,0.23,105.83,109.38,2550589,Andrew Norwell,68,2019,36,2,12:59:00,JAX,1,10,JAX,14,3,2557973,SINGLEBACK,"6 OL, 1 RB, 1 TE, 2 WR",7,"3 DL, 4 LB, 4 DB",right,2019-09-29T21:14:05.000Z,2019-09-29T21:14:04.000Z,6-6,325,10/25/1991,Ohio State,G,DEN,JAX,4,Empower Field at Mile High,"Denver, CO",Outdoor,Grass,Sunny,87.0,11,14 Gusting to 24,Southwest
57906,2019092911,20190929111129,away,45.95,32.88,2.04,2.36,0.2,151.77,113.47,2552355,Cedric Ogbuehi,77,2019,36,2,12:59:00,JAX,1,10,JAX,14,3,2557973,SINGLEBACK,"6 OL, 1 RB, 1 TE, 2 WR",7,"3 DL, 4 LB, 4 DB",right,2019-09-29T21:14:05.000Z,2019-09-29T21:14:04.000Z,6-5,310,04/25/1992,Texas A&M,OT,DEN,JAX,4,Empower Field at Mile High,"Denver, CO",Outdoor,Grass,Sunny,87.0,11,14 Gusting to 24,Southwest
57907,2019092911,20190929111129,away,46.91,12.47,4.22,3.58,0.41,65.39,58.97,2552652,Chris Conley,18,2019,36,2,12:59:00,JAX,1,10,JAX,14,3,2557973,SINGLEBACK,"6 OL, 1 RB, 1 TE, 2 WR",7,"3 DL, 4 LB, 4 DB",right,2019-09-29T21:14:05.000Z,2019-09-29T21:14:04.000Z,6-3,205,10/25/1992,Georgia,WR,DEN,JAX,4,Empower Field at Mile High,"Denver, CO",Outdoor,Grass,Sunny,87.0,11,14 Gusting to 24,Southwest
57908,2019092911,20190929111129,away,45.19,36.11,0.62,2.59,0.06,74.8,138.59,2553454,Geoff Swaim,87,2019,36,2,12:59:00,JAX,1,10,JAX,14,3,2557973,SINGLEBACK,"6 OL, 1 RB, 1 TE, 2 WR",7,"3 DL, 4 LB, 4 DB",right,2019-09-29T21:14:05.000Z,2019-09-29T21:14:04.000Z,6-4,260,09/16/1993,Texas,TE,DEN,JAX,4,Empower Field at Mile High,"Denver, CO",Outdoor,Grass,Sunny,87.0,11,14 Gusting to 24,Southwest
57909,2019092911,20190929111129,away,40.74,30.28,3.91,2.64,0.38,97.06,83.96,2557973,Leonard Fournette,27,2019,36,2,12:59:00,JAX,1,10,JAX,14,3,2557973,SINGLEBACK,"6 OL, 1 RB, 1 TE, 2 WR",7,"3 DL, 4 LB, 4 DB",right,2019-09-29T21:14:05.000Z,2019-09-29T21:14:04.000Z,6-0,228,01/18/1995,Louisiana State,RB,DEN,JAX,4,Empower Field at Mile High,"Denver, CO",Outdoor,Grass,Sunny,87.0,11,14 Gusting to 24,Southwest
57910,2019092911,20190929111129,away,45.56,32.06,1.24,0.85,0.12,106.93,136.77,2558004,Cam Robinson,74,2019,36,2,12:59:00,JAX,1,10,JAX,14,3,2557973,SINGLEBACK,"6 OL, 1 RB, 1 TE, 2 WR",7,"3 DL, 4 LB, 4 DB",right,2019-09-29T21:14:05.000Z,2019-09-29T21:14:04.000Z,6-6,320,10/09/1995,Alabama,T,DEN,JAX,4,Empower Field at Mile High,"Denver, CO",Outdoor,Grass,Sunny,87.0,11,14 Gusting to 24,Southwest
57911,2019092911,20190929111129,away,46.27,29.25,1.77,1.32,0.18,66.76,83.62,2560853,Will Richardson,76,2019,36,2,12:59:00,JAX,1,10,JAX,14,3,2557973,SINGLEBACK,"6 OL, 1 RB, 1 TE, 2 WR",7,"3 DL, 4 LB, 4 DB",right,2019-09-29T21:14:05.000Z,2019-09-29T21:14:04.000Z,6-6,303,01/04/1996,North Carolina State,T,DEN,JAX,4,Empower Field at Mile High,"Denver, CO",Outdoor,Grass,Sunny,87.0,11,14 Gusting to 24,Southwest
57912,2019092911,20190929111129,away,45.39,21.64,3.69,2.57,0.36,86.96,90.45,2561018,D.J. Chark,17,2019,36,2,12:59:00,JAX,1,10,JAX,14,3,2557973,SINGLEBACK,"6 OL, 1 RB, 1 TE, 2 WR",7,"3 DL, 4 LB, 4 DB",right,2019-09-29T21:14:05.000Z,2019-09-29T21:14:04.000Z,6-4,198,09/23/1996,Louisiana State,WR,DEN,JAX,4,Empower Field at Mile High,"Denver, CO",Outdoor,Grass,Sunny,87.0,11,14 Gusting to 24,Southwest
57913,2019092911,20190929111129,away,44.25,25.74,1.06,1.28,0.1,122.31,174.81,2562756,Jawaan Taylor,75,2019,36,2,12:59:00,JAX,1,10,JAX,14,3,2557973,SINGLEBACK,"6 OL, 1 RB, 1 TE, 2 WR",7,"3 DL, 4 LB, 4 DB",right,2019-09-29T21:14:05.000Z,2019-09-29T21:14:04.000Z,6-5,312,11/25/1997,Florida,T,DEN,JAX,4,Empower Field at Mile High,"Denver, CO",Outdoor,Grass,Sunny,87.0,11,14 Gusting to 24,Southwest
57914,2019092911,20190929111129,away,41.97,29.5,5.01,2.02,0.48,260.61,264.29,2562796,Gardner Minshew,15,2019,36,2,12:59:00,JAX,1,10,JAX,14,3,2557973,SINGLEBACK,"6 OL, 1 RB, 1 TE, 2 WR",7,"3 DL, 4 LB, 4 DB",right,2019-09-29T21:14:05.000Z,2019-09-29T21:14:04.000Z,6-1,225,05/16/1996,Washington State,QB,DEN,JAX,4,Empower Field at Mile High,"Denver, CO",Outdoor,Grass,Sunny,87.0,11,14 Gusting to 24,Southwest
57915,2019092911,20190929111129,home,45.47,25.0,1.49,3.09,0.15,310.19,335.73,2495202,Von Miller,58,2019,36,2,12:59:00,JAX,1,10,JAX,14,3,2557973,SINGLEBACK,"6 OL, 1 RB, 1 TE, 2 WR",7,"3 DL, 4 LB, 4 DB",right,2019-09-29T21:14:05.000Z,2019-09-29T21:14:04.000Z,6-3,250,03/26/1989,Texas A&M,OLB,DEN,JAX,4,Empower Field at Mile High,"Denver, CO",Outdoor,Grass,Sunny,87.0,11,14 Gusting to 24,Southwest
57916,2019092911,20190929111129,home,53.23,11.83,2.47,0.91,0.25,329.09,77.04,2530510,Chris Harris,25,2019,36,2,12:59:00,JAX,1,10,JAX,14,3,2557973,SINGLEBACK,"6 OL, 1 RB, 1 TE, 2 WR",7,"3 DL, 4 LB, 4 DB",right,2019-09-29T21:14:05.000Z,2019-09-29T21:14:04.000Z,5-10,199,06/18/1989,Kansas,CB,DEN,JAX,4,Empower Field at Mile High,"Denver, CO",Outdoor,Grass,Sunny,87.0,11,14 Gusting to 24,Southwest
57917,2019092911,20190929111129,home,47.36,29.77,1.94,2.09,0.19,254.06,96.58,2549926,Shelby Harris,96,2019,36,2,12:59:00,JAX,1,10,JAX,14,3,2557973,SINGLEBACK,"6 OL, 1 RB, 1 TE, 2 WR",7,"3 DL, 4 LB, 4 DB",right,2019-09-29T21:14:05.000Z,2019-09-29T21:14:04.000Z,6-2,290,08/11/1991,Illinois State,NT,DEN,JAX,4,Empower Field at Mile High,"Denver, CO",Outdoor,Grass,Sunny,87.0,11,14 Gusting to 24,Southwest
57918,2019092911,20190929111129,home,48.62,33.34,2.32,1.11,0.22,259.37,248.33,2550930,Todd Davis,51,2019,36,2,12:59:00,JAX,1,10,JAX,14,3,2557973,SINGLEBACK,"6 OL, 1 RB, 1 TE, 2 WR",7,"3 DL, 4 LB, 4 DB",right,2019-09-29T21:14:05.000Z,2019-09-29T21:14:04.000Z,6-1,230,05/17/1992,Sacramento State,ILB,DEN,JAX,4,Empower Field at Mile High,"Denver, CO",Outdoor,Grass,Sunny,87.0,11,14 Gusting to 24,Southwest
57919,2019092911,20190929111129,home,54.02,37.21,0.18,1.37,0.02,266.8,181.1,2553790,DeVante Bausby,41,2019,36,2,12:59:00,JAX,1,10,JAX,14,3,2557973,SINGLEBACK,"6 OL, 1 RB, 1 TE, 2 WR",7,"3 DL, 4 LB, 4 DB",right,2019-09-29T21:14:05.000Z,2019-09-29T21:14:04.000Z,6-2,190,01/15/1993,Pittsburg State,CB,DEN,JAX,4,Empower Field at Mile High,"Denver, CO",Outdoor,Grass,Sunny,87.0,11,14 Gusting to 24,Southwest
57920,2019092911,20190929111129,home,46.08,32.07,0.83,1.49,0.09,300.57,171.53,2555502,Adam Gotsis,99,2019,36,2,12:59:00,JAX,1,10,JAX,14,3,2557973,SINGLEBACK,"6 OL, 1 RB, 1 TE, 2 WR",7,"3 DL, 4 LB, 4 DB",right,2019-09-29T21:14:05.000Z,2019-09-29T21:14:04.000Z,6-4,287,09/23/1992,Georgia Tech,DE,DEN,JAX,4,Empower Field at Mile High,"Denver, CO",Outdoor,Grass,Sunny,87.0,11,14 Gusting to 24,Southwest
57921,2019092911,20190929111129,home,55.91,20.07,1.8,2.08,0.17,290.31,301.86,2555550,Justin Simmons,31,2019,36,2,12:59:00,JAX,1,10,JAX,14,3,2557973,SINGLEBACK,"6 OL, 1 RB, 1 TE, 2 WR",7,"3 DL, 4 LB, 4 DB",right,2019-09-29T21:14:05.000Z,2019-09-29T21:14:04.000Z,6-2,202,11/19/1993,Boston College,SS,DEN,JAX,4,Empower Field at Mile High,"Denver, CO",Outdoor,Grass,Sunny,87.0,11,14 Gusting to 24,Southwest
57922,2019092911,20190929111129,home,59.56,31.71,2.86,1.12,0.28,250.01,111.0,2556278,Will Parks,34,2019,36,2,12:59:00,JAX,1,10,JAX,14,3,2557973,SINGLEBACK,"6 OL, 1 RB, 1 TE, 2 WR",7,"3 DL, 4 LB, 4 DB",right,2019-09-29T21:14:05.000Z,2019-09-29T21:14:04.000Z,6-1,194,07/29/1994,Arizona,FS,DEN,JAX,4,Empower Field at Mile High,"Denver, CO",Outdoor,Grass,Sunny,87.0,11,14 Gusting to 24,Southwest
57923,2019092911,20190929111129,home,45.53,28.77,1.38,0.25,0.14,338.77,307.1,2557894,DeMarcus Walker,57,2019,36,2,12:59:00,JAX,1,10,JAX,14,3,2557973,SINGLEBACK,"6 OL, 1 RB, 1 TE, 2 WR",7,"3 DL, 4 LB, 4 DB",right,2019-09-29T21:14:05.000Z,2019-09-29T21:14:04.000Z,6-4,280,09/30/1994,Florida State,DE,DEN,JAX,4,Empower Field at Mile High,"Denver, CO",Outdoor,Grass,Sunny,87.0,11,14 Gusting to 24,Southwest
57924,2019092911,20190929111129,home,48.87,29.02,1.99,0.64,0.19,278.35,269.11,2560763,Josey Jewell,47,2019,36,2,12:59:00,JAX,1,10,JAX,14,3,2557973,SINGLEBACK,"6 OL, 1 RB, 1 TE, 2 WR",7,"3 DL, 4 LB, 4 DB",right,2019-09-29T21:14:05.000Z,2019-09-29T21:14:04.000Z,6-2,236,12/25/1994,Iowa,LB,DEN,JAX,4,Empower Field at Mile High,"Denver, CO",Outdoor,Grass,Sunny,87.0,11,14 Gusting to 24,Southwest
57925,2019092911,20190929111129,home,45.91,36.27,1.18,1.4,0.12,247.25,183.92,2561020,Bradley Chubb,55,2019,36,2,12:59:00,JAX,1,10,JAX,14,3,2557973,SINGLEBACK,"6 OL, 1 RB, 1 TE, 2 WR",7,"3 DL, 4 LB, 4 DB",right,2019-09-29T21:14:05.000Z,2019-09-29T21:14:04.000Z,6-4,275,06/24/1996,North Carolina State,DE,DEN,JAX,4,Empower Field at Mile High,"Denver, CO",Outdoor,Grass,Sunny,87.0,11,14 Gusting to 24,Southwest
