,GameId,PlayId,Team,X,Y,S,A,Dis,Orientation,Dir,NflId,DisplayName,JerseyNumber,Season,YardLine,Quarter,GameClock,PossessionTeam,Down,Distance,FieldPosition,HomeScoreBeforePlay,VisitorScoreBeforePlay,NflIdRusher,OffenseFormation,OffensePersonnel,DefendersInTheBox,DefensePersonnel,PlayDirection,TimeHandoff,TimeSnap,PlayerHeight,PlayerWeight,PlayerBirthDate,PlayerCollegeName,Position,HomeTeamAbbr,VisitorTeamAbbr,Week,Stadium,Location,StadiumType,Turf,GameWeather,Temperature,Humidity,WindSpeed,WindDirection
27676,2019091511,20190915113448,away,17.7,7.78,0.3,0.32,0.03,87.42,23.59,2495108,Prince Amukamara,20,2019,16,4,07:00:00,DEN,1,10,CHI,6,13,2560733,SHOTGUN,"1 RB, 1 TE, 3 WR",6,"2 DL, 4 LB, 5 DB",left,2019-09-15T22:52:45.000Z,2019-09-15T22:52:44.000Z,6-0,204,06/06/1989,Nebraska,CB,DEN,CHI,2,Empower Field at Mile High,Denver CO,Outdoor,Grass,Mostly Sunny,87.0,14,3,East
27677,2019091511,20190915113448,away,26.1,22.79,6.06,0.96,0.6,44.23,35.05,2495343,Buster Skrine,24,2019,16,4,07:00:00,DEN,1,10,CHI,6,13,2560733,SHOTGUN,"1 RB, 1 TE, 3 WR",6,"2 DL, 4 LB, 5 DB",left,2019-09-15T22:52:45.000Z,2019-09-15T22:52:44.000Z,5-9,185,04/26/1989,Chattanooga,CB,DEN,CHI,2,Empower Field at Mile High,Denver CO,Outdoor,Grass,Mostly Sunny,87.0,14,3,East
27678,2019091511,20190915113448,away,21.7,29.14,2.42,1.77,0.24,75.03,13.81,2532961,Danny Trevathan,59,2019,16,4,07:00:00,DEN,1,10,CHI,6,13,2560733,SHOTGUN,"1 RB, 1 TE, 3 WR",6,"2 DL, 4 LB, 5 DB",left,2019-09-15T22:52:45.000Z,2019-09-15T22:52:44.000Z,6-0,239,03/24/1990,Kentucky,ILB,DEN,CHI,2,Empower Field at Mile High,Denver CO,Outdoor,Grass,Mostly Sunny,87.0,14,3,East
27679,2019091511,20190915113448,away,25.46,32.7,1.4,1.6,0.15,90.71,36.9,2541479,Nick Williams,97,2019,16,4,07:00:00,DEN,1,10,CHI,6,13,2560733,SHOTGUN,"1 RB, 1 TE, 3 WR",6,"2 DL, 4 LB, 5 DB",left,2019-09-15T22:52:45.000Z,2019-09-15T22:52:44.000Z,6-4,309,02/21/1990,Samford,DT,DEN,CHI,2,Empower Field at Mile High,Denver CO,Outdoor,Grass,Mostly Sunny,87.0,14,3,East
27680,2019091511,20190915113448,away,25.79,33.86,1.94,1.04,0.17,114.71,144.72,2543463,Khalil Mack,52,2019,16,4,07:00:00,DEN,1,10,CHI,6,13,2560733,SHOTGUN,"1 RB, 1 TE, 3 WR",6,"2 DL, 4 LB, 5 DB",left,2019-09-15T22:52:45.000Z,2019-09-15T22:52:44.000Z,6-3,269,02/22/1991,Buffalo,OLB,DEN,CHI,2,Empower Field at Mile High,Denver CO,Outdoor,Grass,Mostly Sunny,87.0,14,3,East
27681,2019091511,20190915113448,away,8.97,29.45,0.93,0.66,0.1,100.3,221.12,2543470,Ha Ha Clinton-Dix,21,2019,16,4,07:00:00,DEN,1,10,CHI,6,13,2560733,SHOTGUN,"1 RB, 1 TE, 3 WR",6,"2 DL, 4 LB, 5 DB",left,2019-09-15T22:52:45.000Z,2019-09-15T22:52:44.000Z,6-1,211,12/21/1992,Alabama,FS,DEN,CHI,2,Empower Field at Mile High,Denver CO,Outdoor,Grass,Mostly Sunny,87.0,14,3,East
27682,2019091511,20190915113448,away,16.14,40.55,2.58,2.0,0.25,99.63,316.71,2543681,Kyle Fuller,23,2019,16,4,07:00:00,DEN,1,10,CHI,6,13,2560733,SHOTGUN,"1 RB, 1 TE, 3 WR",6,"2 DL, 4 LB, 5 DB",left,2019-09-15T22:52:45.000Z,2019-09-15T22:52:44.000Z,5-11,194,02/16/1992,Virginia Tech,CB,DEN,CHI,2,Empower Field at Mile High,Denver CO,Outdoor,Grass,Mostly Sunny,87.0,14,3,East
27683,2019091511,20190915113448,away,25.93,29.28,2.6,0.78,0.27,72.87,27.16,2556665,Roy Robertson-Harris,95,2019,16,4,07:00:00,DEN,1,10,CHI,6,13,2560733,SHOTGUN,"1 RB, 1 TE, 3 WR",6,"2 DL, 4 LB, 5 DB",left,2019-09-15T22:52:45.000Z,2019-09-15T22:52:44.000Z,6-5,294,07/23/1993,Texas-El Paso,DE,DEN,CHI,2,Empower Field at Mile High,Denver CO,Outdoor,Grass,Mostly Sunny,87.0,14,3,East
27684,2019091511,20190915113448,away,15.73,16.86,2.11,2.23,0.21,62.68,66.44,2558176,Eddie Jackson,39,2019,16,4,07:00:00,DEN,1,10,CHI,6,13,2560733,SHOTGUN,"1 RB, 1 TE, 3 WR",6,"2 DL, 4 LB, 5 DB",left,2019-09-15T22:52:45.000Z,2019-09-15T22:52:44.000Z,6-0,202,12/10/1993,Alabama,FS,DEN,CHI,2,Empower Field at Mile High,Denver CO,Outdoor,Grass,Mostly Sunny,87.0,14,3,East
27685,2019091511,20190915113448,away,25.46,26.21,3.41,3.33,0.32,78.09,10.62,2559287,Isaiah Irving,47,2019,16,4,07:00:00,DEN,1,10,CHI,6,13,2560733,SHOTGUN,"1 RB, 1 TE, 3 WR",6,"2 DL, 4 LB, 5 DB",left,2019-09-15T22:52:45.000Z,2019-09-15T22:52:44.000Z,6-3,254,06/09/1994,San Jose State,LB,DEN,CHI,2,Empower Field at Mile High,Denver CO,Outdoor,Grass,Mostly Sunny,87.0,14,3,East
27686,2019091511,20190915113448,away,21.91,33.68,0.53,1.51,0.05,135.92,75.59,2560877,Roquan Smith,58,2019,16,4,07:00:00,DEN,1,10,CHI,6,13,2560733,SHOTGUN,"1 RB, 1 TE, 3 WR",6,"2 DL, 4 LB, 5 DB",left,2019-09-15T22:52:45.000Z,2019-09-15T22:52:44.000Z,6-0,230,04/08/1997,Georgia,LB,DEN,CHI,2,Empower Field at Mile High,Denver CO,Outdoor,Grass,Mostly Sunny,87.0,14,3,East
27687,2019091511,20190915113448,home,30.75,29.5,0.72,2.07,0.06,266.89,130.9,382,Joe Flacco,5,2019,16,4,07:00:00,DEN,1,10,CHI,6,13,2560733,SHOTGUN,"1 RB, 1 TE, 3 WR",6,"2 DL, 4 LB, 5 DB",left,2019-09-15T22:52:45.000Z,2019-09-15T22:52:44.000Z,6-6,245,01/16/1985,Delaware,QB,DEN,CHI,2,Empower Field at Mile High,Denver CO,Outdoor,Grass,Mostly Sunny,87.0,14,3,East
27688,2019091511,20190915113448,home,23.86,38.81,5.4,2.93,0.53,274.17,289.76,497322,Emmanuel Sanders,10,2019,16,4,07:00:00,DEN,1,10,CHI,6,13,2560733,SHOTGUN,"1 RB, 1 TE, 3 WR",6,"2 DL, 4 LB, 5 DB",left,2019-09-15T22:52:45.000Z,2019-09-15T22:52:44.000Z,5-11,180,03/17/1987,Southern Methodist,WR,DEN,CHI,2,Empower Field at Mile High,Denver CO,Outdoor,Grass,Mostly Sunny,87.0,14,3,East
27689,2019091511,20190915113448,home,25.04,31.48,2.49,0.82,0.25,252.1,289.63,2533454,Ronald Leary,65,2019,16,4,07:00:00,DEN,1,10,CHI,6,13,2560733,SHOTGUN,"1 RB, 1 TE, 3 WR",6,"2 DL, 4 LB, 5 DB",left,2019-09-15T22:52:45.000Z,2019-09-15T22:52:44.000Z,6-3,320,04/29/1989,Memphis,G,DEN,CHI,2,Empower Field at Mile High,Denver CO,Outdoor,Grass,Mostly Sunny,87.0,14,3,East
27690,2019091511,20190915113448,home,26.85,33.64,1.0,1.25,0.1,259.99,196.78,2552399,Jeff Heuerman,82,2019,16,4,07:00:00,DEN,1,10,CHI,6,13,2560733,SHOTGUN,"1 RB, 1 TE, 3 WR",6,"2 DL, 4 LB, 5 DB",left,2019-09-15T22:52:45.000Z,2019-09-15T22:52:44.000Z,6-5,255,11/24/1992,Ohio State,TE,DEN,CHI,2,Empower Field at Mile High,Denver CO,Outdoor,Grass,Mostly Sunny,87.0,14,3,East
27691,2019091511,20190915113448,home,26.89,29.53,1.73,2.04,0.17,260.14,35.04,2555133,Connor McGovern,60,2019,16,4,07:00:00,DEN,1,10,CHI,6,13,2560733,SHOTGUN,"1 RB, 1 TE, 3 WR",6,"2 DL, 4 LB, 5 DB",left,2019-09-15T22:52:45.000Z,2019-09-15T22:52:44.000Z,6-4,306,04/27/1993,Missouri,G,DEN,CHI,2,Empower Field at Mile High,Denver CO,Outdoor,Grass,Mostly Sunny,87.0,14,3,East
27692,2019091511,20190915113448,home,26.59,27.49,1.15,0.42,0.12,215.75,333.57,2558014,Garett Bolles,72,2019,16,4,07:00:00,DEN,1,10,CHI,6,13,2560733,SHOTGUN,"1 RB, 1 TE, 3 WR",6,"2 DL, 4 LB, 5 DB",left,2019-09-15T22:52:45.000Z,2019-09-15T22:52:44.000Z,6-5,300,05/27/1992,Utah,T,DEN,CHI,2,Empower Field at Mile High,Denver CO,Outdoor,Grass,Mostly Sunny,87.0,14,3,East
27693,2019091511,20190915113448,home,25.71,32.22,0.68,2.33,0.06,0.53,270.89,2559295,Elijah Wilkinson,68,2019,16,4,07:00:00,DEN,1,10,CHI,6,13,2560733,SHOTGUN,"1 RB, 1 TE, 3 WR",6,"2 DL, 4 LB, 5 DB",left,2019-09-15T22:52:45.000Z,2019-09-15T22:52:44.000Z,6-6,329,02/10/1995,Massachusetts,T,DEN,CHI,2,Empower Field at Mile High,Denver CO,Outdoor,Grass,Mostly Sunny,87.0,14,3,East
27694,2019091511,20190915113448,home,25.6,6.66,4.67,2.97,0.45,256.48,275.59,2559485,River Cracraft,12,2019,16,4,07:00:00,DEN,1,10,CHI,6,13,2560733,SHOTGUN,"1 RB, 1 TE, 3 WR",6,"2 DL, 4 LB, 5 DB",left,2019-09-15T22:52:45.000Z,2019-09-15T22:52:44.000Z,6-0,198,11/01/1994,Washington State,WR,DEN,CHI,2,Empower Field at Mile High,Denver CO,Outdoor,Grass,Mostly Sunny,87.0,14,3,East
27695,2019091511,20190915113448,home,30.27,28.67,4.58,2.93,0.45,290.66,331.37,2560733,Royce Freeman,28,2019,16,4,07:00:00,DEN,1,10,CHI,6,13,2560733,SHOTGUN,"1 RB, 1 TE, 3 WR",6,"2 DL, 4 LB, 5 DB",left,2019-09-15T22:52:45.000Z,2019-09-15T22:52:44.000Z,6-0,238,02/24/1996,Oregon,RB,DEN,CHI,2,Empower Field at Mile High,Denver CO,Outdoor,Grass,Mostly Sunny,87.0,14,3,East
27696,2019091511,20190915113448,home,24.23,17.09,4.38,2.91,0.43,271.76,281.27,2561002,DaeSean Hamilton,17,2019,16,4,07:00:00,DEN,1,10,CHI,6,13,2560733,SHOTGUN,"1 RB, 1 TE, 3 WR",6,"2 DL, 4 LB, 5 DB",left,2019-09-15T22:52:45.000Z,2019-09-15T22:52:44.000Z,6-1,206,03/10/1995,Penn State,WR,DEN,CHI,2,Empower Field at Mile High,Denver CO,Outdoor,Grass,Mostly Sunny,87.0,14,3,East
27697,2019091511,20190915113448,home,27.22,30.48,3.87,1.11,0.4,326.37,1.73,2562714,Dalton Risner,66,2019,16,4,07:00:00,DEN,1,10,CHI,6,13,2560733,SHOTGUN,"1 RB, 1 TE, 3 WR",6,"2 DL, 4 LB, 5 DB",left,2019-09-15T22:52:45.000Z,2019-09-15T22:52:44.000Z,6-5,312,07/13/1995,Kansas State,G,DEN,CHI,2,Empower Field at Mile High,Denver CO,Outdoor,Grass,Mostly Sunny,87.0,14,3,East
