,GameId,PlayId,Team,X,Y,S,A,Dis,Orientation,Dir,NflId,DisplayName,JerseyNumber,Season,YardLine,Quarter,GameClock,PossessionTeam,Down,Distance,FieldPosition,HomeScoreBeforePlay,VisitorScoreBeforePlay,NflIdRusher,OffenseFormation,OffensePersonnel,DefendersInTheBox,DefensePersonnel,PlayDirection,TimeHandoff,TimeSnap,PlayerHeight,PlayerWeight,PlayerBirthDate,PlayerCollegeName,Position,HomeTeamAbbr,VisitorTeamAbbr,Week,Stadium,Location,StadiumType,Turf,GameWeather,Temperature,Humidity,WindSpeed,WindDirection
3828,2019090803,20190908031568,away,34.18,31.64,1.63,0.89,0.16,259.11,90.54,2508080,Earl Thomas,29,2019,10,2,06:44:00,MIA,1,10,MIA,3,35,2555230,SINGLEBACK,"1 RB, 2 TE, 2 WR",7,"2 DL, 4 LB, 5 DB",right,2019-09-08T18:11:58.000Z,2019-09-08T18:11:57.000Z,5-10,202,05/07/1989,Texas,FS,MIA,BAL,1,Hard Rock Stadium,"Miami Gardens, FL",Outdoor,Natural grass,Mostly Cloudy,91.0,56,8,SSE
3829,2019090803,20190908031568,away,26.57,21.73,1.24,1.96,0.11,279.17,343.02,2540164,Tony Jefferson,23,2019,10,2,06:44:00,MIA,1,10,MIA,3,35,2555230,SINGLEBACK,"1 RB, 2 TE, 2 WR",7,"2 DL, 4 LB, 5 DB",right,2019-09-08T18:11:58.000Z,2019-09-08T18:11:57.000Z,5-11,211,01/27/1992,Oklahoma,SS,MIA,BAL,1,Hard Rock Stadium,"Miami Gardens, FL",Outdoor,Natural grass,Mostly Cloudy,91.0,56,8,SSE
3830,2019090803,20190908031568,away,20.95,25.33,0.61,0.7,0.05,79.79,59.88,2541302,Brandon Williams,98,2019,10,2,06:44:00,MIA,1,10,MIA,3,35,2555230,SINGLEBACK,"1 RB, 2 TE, 2 WR",7,"2 DL, 4 LB, 5 DB",right,2019-09-08T18:11:58.000Z,2019-09-08T18:11:57.000Z,6-1,336,02/21/1989,Missouri Southern,DT,MIA,BAL,1,Hard Rock Stadium,"Miami Gardens, FL",Outdoor,Natural grass,Mostly Cloudy,91.0,56,8,SSE
3831,2019090803,20190908031568,away,18.76,31.35,0.59,4.45,0.07,264.06,260.4,2555505,Matt Judon,99,2019,10,2,06:44:00,MIA,1,10,MIA,3,35,2555230,SINGLEBACK,"1 RB, 2 TE, 2 WR",7,"2 DL, 4 LB, 5 DB",right,2019-09-08T18:11:58.000Z,2019-09-08T18:11:57.000Z,6-3,261,08/15/1992,Grand Valley State,OLB,MIA,BAL,1,Hard Rock Stadium,"Miami Gardens, FL",Outdoor,Natural grass,Mostly Cloudy,91.0,56,8,SSE
3832,2019090803,20190908031568,away,23.25,25.16,2.42,2.01,0.23,270.04,227.46,2556642,Patrick Onwuasor,48,2019,10,2,06:44:00,MIA,1,10,MIA,3,35,2555230,SINGLEBACK,"1 RB, 2 TE, 2 WR",7,"2 DL, 4 LB, 5 DB",right,2019-09-08T18:11:58.000Z,2019-09-08T18:11:57.000Z,6-0,227,08/22/1992,Portland State,ILB,MIA,BAL,1,Hard Rock Stadium,"Miami Gardens, FL",Outdoor,Natural grass,Mostly Cloudy,91.0,56,8,SSE
3833,2019090803,20190908031568,away,20.25,27.59,0.1,0.85,0.01,281.75,83.05,2556650,Michael Pierce,97,2019,10,2,06:44:00,MIA,1,10,MIA,3,35,2555230,SINGLEBACK,"1 RB, 2 TE, 2 WR",7,"2 DL, 4 LB, 5 DB",right,2019-09-08T18:11:58.000Z,2019-09-08T18:11:57.000Z,6-0,340,11/06/1992,Samford,DT,MIA,BAL,1,Hard Rock Stadium,"Miami Gardens, FL",Outdoor,Natural grass,Mostly Cloudy,91.0,56,8,SSE
3834,2019090803,20190908031568,away,19.85,21.29,0.44,1.69,0.05,288.02,333.92,2557841,Tim Williams,56,2019,10,2,06:44:00,MIA,1,10,MIA,3,35,2555230,SINGLEBACK,"1 RB, 2 TE, 2 WR",7,"2 DL, 4 LB, 5 DB",right,2019-09-08T18:11:58.000Z,2019-09-08T18:11:57.000Z,6-3,252,11/12/1993,Alabama,OLB,MIA,BAL,1,Hard Rock Stadium,"Miami Gardens, FL",Outdoor,Natural grass,Mostly Cloudy,91.0,56,8,SSE
3835,2019090803,20190908031568,away,23.54,22.39,8.11,0.45,0.81,212.8,167.33,2558067,Marlon Humphrey,44,2019,10,2,06:44:00,MIA,1,10,MIA,3,35,2555230,SINGLEBACK,"1 RB, 2 TE, 2 WR",7,"2 DL, 4 LB, 5 DB",right,2019-09-08T18:11:58.000Z,2019-09-08T18:11:57.000Z,6-0,197,07/08/1996,Alabama,CB,MIA,BAL,1,Hard Rock Stadium,"Miami Gardens, FL",Outdoor,Natural grass,Mostly Cloudy,91.0,56,8,SSE
3836,2019090803,20190908031568,away,22.22,19.55,1.92,1.37,0.18,265.11,37.29,2558248,Chuck Clark,36,2019,10,2,06:44:00,MIA,1,10,MIA,3,35,2555230,SINGLEBACK,"1 RB, 2 TE, 2 WR",7,"2 DL, 4 LB, 5 DB",right,2019-09-08T18:11:58.000Z,2019-09-08T18:11:57.000Z,6-0,205,04/19/1995,Virginia Tech,FS,MIA,BAL,1,Hard Rock Stadium,"Miami Gardens, FL",Outdoor,Natural grass,Mostly Cloudy,91.0,56,8,SSE
3837,2019090803,20190908031568,away,22.5,28.88,2.07,1.85,0.21,235.48,194.65,2560947,Kenny Young,40,2019,10,2,06:44:00,MIA,1,10,MIA,3,35,2555230,SINGLEBACK,"1 RB, 2 TE, 2 WR",7,"2 DL, 4 LB, 5 DB",right,2019-09-08T18:11:58.000Z,2019-09-08T18:11:57.000Z,6-1,235,11/15/1994,UCLA,LB,MIA,BAL,1,Hard Rock Stadium,"Miami Gardens, FL",Outdoor,Natural grass,Mostly Cloudy,91.0,56,8,SSE
3838,2019090803,20190908031568,away,21.83,44.77,2.43,2.21,0.24,320.6,70.32,2560963,Anthony Averett,34,2019,10,2,06:44:00,MIA,1,10,MIA,3,35,2555230,SINGLEBACK,"1 RB, 2 TE, 2 WR",7,"2 DL, 4 LB, 5 DB",right,2019-09-08T18:11:58.000Z,2019-09-08T18:11:57.000Z,5-11,178,11/30/1994,Alabama,CB,MIA,BAL,1,Hard Rock Stadium,"Miami Gardens, FL",Outdoor,Natural grass,Mostly Cloudy,91.0,56,8,SSE
3839,2019090803,20190908031568,home,19.78,27.42,0.34,1.12,0.04,95.02,102.04,2495299,Daniel Kilgore,67,2019,10,2,06:44:00,MIA,1,10,MIA,3,35,2555230,SINGLEBACK,"1 RB, 2 TE, 2 WR",7,"2 DL, 4 LB, 5 DB",right,2019-09-08T18:11:58.000Z,2019-09-08T18:11:57.000Z,6-3,291,12/18/1987,Appalachian State,C,MIA,BAL,1,Hard Rock Stadium,"Miami Gardens, FL",Outdoor,Natural grass,Mostly Cloudy,91.0,56,8,SSE
3840,2019090803,20190908031568,home,15.52,27.05,3.69,0.5,0.37,219.85,274.37,2506581,Ryan Fitzpatrick,14,2019,10,2,06:44:00,MIA,1,10,MIA,3,35,2555230,SINGLEBACK,"1 RB, 2 TE, 2 WR",7,"2 DL, 4 LB, 5 DB",right,2019-09-08T18:11:58.000Z,2019-09-08T18:11:57.000Z,6-2,228,11/24/1982,Harvard,QB,MIA,BAL,1,Hard Rock Stadium,"Miami Gardens, FL",Outdoor,Natural grass,Mostly Cloudy,91.0,56,8,SSE
3841,2019090803,20190908031568,home,16.93,20.87,8.15,1.45,0.81,154.33,177.04,2550353,Allen Hurns,86,2019,10,2,06:44:00,MIA,1,10,MIA,3,35,2555230,SINGLEBACK,"1 RB, 2 TE, 2 WR",7,"2 DL, 4 LB, 5 DB",right,2019-09-08T18:11:58.000Z,2019-09-08T18:11:57.000Z,6-3,195,11/12/1991,Miami,WR,MIA,BAL,1,Hard Rock Stadium,"Miami Gardens, FL",Outdoor,Natural grass,Mostly Cloudy,91.0,56,8,SSE
3842,2019090803,20190908031568,home,19.56,22.13,0.92,0.31,0.09,92.48,99.31,2552403,Nick O'Leary,83,2019,10,2,06:44:00,MIA,1,10,MIA,3,35,2555230,SINGLEBACK,"1 RB, 2 TE, 2 WR",7,"2 DL, 4 LB, 5 DB",right,2019-09-08T18:11:58.000Z,2019-09-08T18:11:57.000Z,6-3,252,08/31/1992,Florida State,TE,MIA,BAL,1,Hard Rock Stadium,"Miami Gardens, FL",Outdoor,Natural grass,Mostly Cloudy,91.0,56,8,SSE
3843,2019090803,20190908031568,home,20.38,45.12,3.39,2.99,0.33,64.6,62.35,2552409,DeVante Parker,11,2019,10,2,06:44:00,MIA,1,10,MIA,3,35,2555230,SINGLEBACK,"1 RB, 2 TE, 2 WR",7,"2 DL, 4 LB, 5 DB",right,2019-09-08T18:11:58.000Z,2019-09-08T18:11:57.000Z,6-3,216,01/20/1993,Louisville,WR,MIA,BAL,1,Hard Rock Stadium,"Miami Gardens, FL",Outdoor,Natural grass,Mostly Cloudy,91.0,56,8,SSE
3844,2019090803,20190908031568,home,18.48,30.22,0.31,0.82,0.04,45.23,153.57,2553705,Jesse Davis,77,2019,10,2,06:44:00,MIA,1,10,MIA,3,35,2555230,SINGLEBACK,"1 RB, 2 TE, 2 WR",7,"2 DL, 4 LB, 5 DB",right,2019-09-08T18:11:58.000Z,2019-09-08T18:11:57.000Z,6-6,325,09/15/1991,Idaho,G,MIA,BAL,1,Hard Rock Stadium,"Miami Gardens, FL",Outdoor,Natural grass,Mostly Cloudy,91.0,56,8,SSE
3845,2019090803,20190908031568,home,16.0,26.32,5.14,4.07,0.49,108.4,102.09,2555230,Kenyan Drake,32,2019,10,2,06:44:00,MIA,1,10,MIA,3,35,2555230,SINGLEBACK,"1 RB, 2 TE, 2 WR",7,"2 DL, 4 LB, 5 DB",right,2019-09-08T18:11:58.000Z,2019-09-08T18:11:57.000Z,6-1,211,01/26/1994,Alabama,RB,MIA,BAL,1,Hard Rock Stadium,"Miami Gardens, FL",Outdoor,Natural grass,Mostly Cloudy,91.0,56,8,SSE
3846,2019090803,20190908031568,home,20.64,25.52,1.6,1.72,0.16,110.42,45.48,2557963,Julie'n Davenport,70,2019,10,2,06:44:00,MIA,1,10,MIA,3,35,2555230,SINGLEBACK,"1 RB, 2 TE, 2 WR",7,"2 DL, 4 LB, 5 DB",right,2019-09-08T18:11:58.000Z,2019-09-08T18:11:57.000Z,6-7,325,01/09/1995,Bucknell,T,MIA,BAL,1,Hard Rock Stadium,"Miami Gardens, FL",Outdoor,Natural grass,Mostly Cloudy,91.0,56,8,SSE
3847,2019090803,20190908031568,home,20.53,26.01,1.71,0.22,0.17,278.01,56.01,2558181,Danny Isidora,65,2019,10,2,06:44:00,MIA,1,10,MIA,3,35,2555230,SINGLEBACK,"1 RB, 2 TE, 2 WR",7,"2 DL, 4 LB, 5 DB",right,2019-09-08T18:11:58.000Z,2019-09-08T18:11:57.000Z,6-3,306,06/05/1994,Miami (Fla.),G,MIA,BAL,1,Hard Rock Stadium,"Miami Gardens, FL",Outdoor,Natural grass,Mostly Cloudy,91.0,56,8,SSE
3848,2019090803,20190908031568,home,20.6,19.4,4.19,1.41,0.42,85.04,73.78,2560994,Mike Gesicki,88,2019,10,2,06:44:00,MIA,1,10,MIA,3,35,2555230,SINGLEBACK,"1 RB, 2 TE, 2 WR",7,"2 DL, 4 LB, 5 DB",right,2019-09-08T18:11:58.000Z,2019-09-08T18:11:57.000Z,6-6,252,10/03/1995,Penn State,TE,MIA,BAL,1,Hard Rock Stadium,"Miami Gardens, FL",Outdoor,Natural grass,Mostly Cloudy,91.0,56,8,SSE
3849,2019090803,20190908031568,home,19.25,25.65,3.68,2.67,0.37,113.78,144.76,2562255,Michael Deiter,63,2019,10,2,06:44:00,MIA,1,10,MIA,3,35,2555230,SINGLEBACK,"1 RB, 2 TE, 2 WR",7,"2 DL, 4 LB, 5 DB",right,2019-09-08T18:11:58.000Z,2019-09-08T18:11:57.000Z,6-6,310,09/03/1996,Wisconsin,OG,MIA,BAL,1,Hard Rock Stadium,"Miami Gardens, FL",Outdoor,Natural grass,Mostly Cloudy,91.0,56,8,SSE
