,GameId,PlayId,Team,X,Y,S,A,Dis,Orientation,Dir,NflId,DisplayName,JerseyNumber,Season,YardLine,Quarter,GameClock,PossessionTeam,Down,Distance,FieldPosition,HomeScoreBeforePlay,VisitorScoreBeforePlay,NflIdRusher,OffenseFormation,OffensePersonnel,DefendersInTheBox,DefensePersonnel,PlayDirection,TimeHandoff,TimeSnap,PlayerHeight,PlayerWeight,PlayerBirthDate,PlayerCollegeName,Position,HomeTeamAbbr,VisitorTeamAbbr,Week,Stadium,Location,StadiumType,Turf,GameWeather,Temperature,Humidity,WindSpeed,WindDirection
54120,2019092907,20190929071090,away,27.93,24.41,2.47,1.59,0.22,190.81,165.4,2506706,Donald Penn,72,2019,19,2,11:56:00,WAS,1,10,WAS,14,0,2540011,SINGLEBACK,"1 RB, 1 TE, 3 WR",7,"2 DL, 4 LB, 5 DB",right,2019-09-29T17:43:11.000Z,2019-09-29T17:43:10.000Z,6-4,315,04/27/1983,Utah State,T,NYG,WAS,4,MetLife Stadium,"East Rutherford, NJ",,UBU Speed Series-S5-M,Fair,77.0,42,11,NNE
54121,2019092907,20190929071090,away,24.13,22.66,4.11,1.06,0.41,242.67,254.6,2532888,Case Keenum,8,2019,19,2,11:56:00,WAS,1,10,WAS,14,0,2540011,SINGLEBACK,"1 RB, 1 TE, 3 WR",7,"2 DL, 4 LB, 5 DB",right,2019-09-29T17:43:11.000Z,2019-09-29T17:43:10.000Z,6-1,215,02/17/1988,Houston,QB,NYG,WAS,4,MetLife Stadium,"East Rutherford, NJ",,UBU Speed Series-S5-M,Fair,77.0,42,11,NNE
54122,2019092907,20190929071090,away,26.85,20.69,4.31,1.53,0.44,172.74,189.26,2533010,Tony Bergstrom,66,2019,19,2,11:56:00,WAS,1,10,WAS,14,0,2540011,SINGLEBACK,"1 RB, 1 TE, 3 WR",7,"2 DL, 4 LB, 5 DB",right,2019-09-29T17:43:11.000Z,2019-09-29T17:43:10.000Z,6-5,310,08/06/1986,Utah,G,NYG,WAS,4,MetLife Stadium,"East Rutherford, NJ",,UBU Speed Series-S5-M,Fair,77.0,42,11,NNE
54123,2019092907,20190929071090,away,23.27,21.86,5.34,3.73,0.52,101.82,139.47,2540011,Chris Thompson,25,2019,19,2,11:56:00,WAS,1,10,WAS,14,0,2540011,SINGLEBACK,"1 RB, 1 TE, 3 WR",7,"2 DL, 4 LB, 5 DB",right,2019-09-29T17:43:11.000Z,2019-09-29T17:43:10.000Z,5-8,195,10/20/1990,Florida State,RB,NYG,WAS,4,MetLife Stadium,"East Rutherford, NJ",,UBU Speed Series-S5-M,Fair,77.0,42,11,NNE
54124,2019092907,20190929071090,away,27.77,17.15,4.81,1.07,0.49,99.42,175.66,2543489,Morgan Moses,76,2019,19,2,11:56:00,WAS,1,10,WAS,14,0,2540011,SINGLEBACK,"1 RB, 1 TE, 3 WR",7,"2 DL, 4 LB, 5 DB",right,2019-09-29T17:43:11.000Z,2019-09-29T17:43:10.000Z,6-6,330,03/03/1991,Virginia,T,NYG,WAS,4,MetLife Stadium,"East Rutherford, NJ",,UBU Speed Series-S5-M,Fair,77.0,42,11,NNE
54125,2019092907,20190929071090,away,24.98,29.45,7.22,3.18,0.73,7.93,3.42,2543491,Paul Richardson,10,2019,19,2,11:56:00,WAS,1,10,WAS,14,0,2540011,SINGLEBACK,"1 RB, 1 TE, 3 WR",7,"2 DL, 4 LB, 5 DB",right,2019-09-29T17:43:11.000Z,2019-09-29T17:43:10.000Z,6-0,180,04/13/1992,Colorado,WR,NYG,WAS,4,MetLife Stadium,"East Rutherford, NJ",,UBU Speed Series-S5-M,Fair,77.0,42,11,NNE
54126,2019092907,20190929071090,away,29.71,22.12,4.26,0.8,0.43,120.0,157.63,2552452,Ereck Flowers,77,2019,19,2,11:56:00,WAS,1,10,WAS,14,0,2540011,SINGLEBACK,"1 RB, 1 TE, 3 WR",7,"2 DL, 4 LB, 5 DB",right,2019-09-29T17:43:11.000Z,2019-09-29T17:43:10.000Z,6-6,329,04/25/1994,Miami,T,NYG,WAS,4,MetLife Stadium,"East Rutherford, NJ",,UBU Speed Series-S5-M,Fair,77.0,42,11,NNE
54127,2019092907,20190929071090,away,28.07,19.36,1.35,2.15,0.12,57.66,223.34,2557886,Jeremy Sprinkle,87,2019,19,2,11:56:00,WAS,1,10,WAS,14,0,2540011,SINGLEBACK,"1 RB, 1 TE, 3 WR",7,"2 DL, 4 LB, 5 DB",right,2019-09-29T17:43:11.000Z,2019-09-29T17:43:10.000Z,6-5,255,08/10/1994,Arkansas,TE,NYG,WAS,4,MetLife Stadium,"East Rutherford, NJ",,UBU Speed Series-S5-M,Fair,77.0,42,11,NNE
54128,2019092907,20190929071090,away,29.41,40.87,4.46,3.96,0.42,133.12,120.36,2558254,Robert Davis,19,2019,19,2,11:56:00,WAS,1,10,WAS,14,0,2540011,SINGLEBACK,"1 RB, 1 TE, 3 WR",7,"2 DL, 4 LB, 5 DB",right,2019-09-29T17:43:11.000Z,2019-09-29T17:43:10.000Z,6-3,210,04/02/1995,Georgia State,WR,NYG,WAS,4,MetLife Stadium,"East Rutherford, NJ",,UBU Speed Series-S5-M,Fair,77.0,42,11,NNE
54129,2019092907,20190929071090,away,27.49,26.13,3.14,1.66,0.32,72.31,176.77,2560847,Trey Quinn,18,2019,19,2,11:56:00,WAS,1,10,WAS,14,0,2540011,SINGLEBACK,"1 RB, 1 TE, 3 WR",7,"2 DL, 4 LB, 5 DB",right,2019-09-29T17:43:11.000Z,2019-09-29T17:43:10.000Z,6-0,202,12/07/1995,Southern Methodist,WR,NYG,WAS,4,MetLife Stadium,"East Rutherford, NJ",,UBU Speed Series-S5-M,Fair,77.0,42,11,NNE
54130,2019092907,20190929071090,away,27.83,21.48,1.89,0.86,0.19,83.17,193.95,2562916,Wes Martin,67,2019,19,2,11:56:00,WAS,1,10,WAS,14,0,2540011,SINGLEBACK,"1 RB, 1 TE, 3 WR",7,"2 DL, 4 LB, 5 DB",right,2019-09-29T17:43:11.000Z,2019-09-29T17:43:10.000Z,6-3,316,05/09/1996,Indiana,G,NYG,WAS,4,MetLife Stadium,"East Rutherford, NJ",,UBU Speed Series-S5-M,Fair,77.0,42,11,NNE
54131,2019092907,20190929071090,home,43.49,26.46,1.58,1.62,0.15,249.85,149.4,2495807,Antoine Bethea,41,2019,19,2,11:56:00,WAS,1,10,WAS,14,0,2540011,SINGLEBACK,"1 RB, 1 TE, 3 WR",7,"2 DL, 4 LB, 5 DB",right,2019-09-29T17:43:11.000Z,2019-09-29T17:43:10.000Z,5-11,206,07/27/1984,Howard,FS,NYG,WAS,4,MetLife Stadium,"East Rutherford, NJ",,UBU Speed Series-S5-M,Fair,77.0,42,11,NNE
54132,2019092907,20190929071090,home,31.69,15.47,3.06,3.72,0.29,277.92,233.79,2532875,Janoris Jenkins,20,2019,19,2,11:56:00,WAS,1,10,WAS,14,0,2540011,SINGLEBACK,"1 RB, 1 TE, 3 WR",7,"2 DL, 4 LB, 5 DB",right,2019-09-29T17:43:11.000Z,2019-09-29T17:43:10.000Z,5-10,190,10/29/1988,North Alabama,CB,NYG,WAS,4,MetLife Stadium,"East Rutherford, NJ",,UBU Speed Series-S5-M,Fair,77.0,42,11,NNE
54133,2019092907,20190929071090,home,30.99,21.54,5.03,3.86,0.48,216.8,203.61,2553441,David Mayo,55,2019,19,2,11:56:00,WAS,1,10,WAS,14,0,2540011,SINGLEBACK,"1 RB, 1 TE, 3 WR",7,"2 DL, 4 LB, 5 DB",right,2019-09-29T17:43:11.000Z,2019-09-29T17:43:10.000Z,6-2,245,08/08/1993,Texas State,MLB,NYG,WAS,4,MetLife Stadium,"East Rutherford, NJ",,UBU Speed Series-S5-M,Fair,77.0,42,11,NNE
54134,2019092907,20190929071090,home,30.91,19.64,4.1,4.44,0.39,264.93,226.29,2557980,Jabrill Peppers,21,2019,19,2,11:56:00,WAS,1,10,WAS,14,0,2540011,SINGLEBACK,"1 RB, 1 TE, 3 WR",7,"2 DL, 4 LB, 5 DB",right,2019-09-29T17:43:11.000Z,2019-09-29T17:43:10.000Z,5-11,213,10/04/1995,Michigan,FS,NYG,WAS,4,MetLife Stadium,"East Rutherford, NJ",,UBU Speed Series-S5-M,Fair,77.0,42,11,NNE
54135,2019092907,20190929071090,home,28.62,21.75,2.08,1.28,0.21,282.43,188.87,2560740,B.J. Hill,95,2019,19,2,11:56:00,WAS,1,10,WAS,14,0,2540011,SINGLEBACK,"1 RB, 1 TE, 3 WR",7,"2 DL, 4 LB, 5 DB",right,2019-09-29T17:43:11.000Z,2019-09-29T17:43:10.000Z,6-3,311,04/20/1995,North Carolina State,DT,NYG,WAS,4,MetLife Stadium,"East Rutherford, NJ",,UBU Speed Series-S5-M,Fair,77.0,42,11,NNE
54136,2019092907,20190929071090,home,27.92,24.51,2.42,1.88,0.23,152.62,215.77,2560806,R.J. McIntosh,90,2019,19,2,11:56:00,WAS,1,10,WAS,14,0,2540011,SINGLEBACK,"1 RB, 1 TE, 3 WR",7,"2 DL, 4 LB, 5 DB",right,2019-09-29T17:43:11.000Z,2019-09-29T17:43:10.000Z,6-5,283,06/02/1996,Miami,DT,NYG,WAS,4,MetLife Stadium,"East Rutherford, NJ",,UBU Speed Series-S5-M,Fair,77.0,42,11,NNE
54137,2019092907,20190929071090,home,30.56,33.41,4.74,0.74,0.47,272.3,350.68,2561001,Grant Haley,34,2019,19,2,11:56:00,WAS,1,10,WAS,14,0,2540011,SINGLEBACK,"1 RB, 1 TE, 3 WR",7,"2 DL, 4 LB, 5 DB",right,2019-09-29T17:43:11.000Z,2019-09-29T17:43:10.000Z,5-9,190,01/06/1996,Penn State,CB,NYG,WAS,4,MetLife Stadium,"East Rutherford, NJ",,UBU Speed Series-S5-M,Fair,77.0,42,11,NNE
54138,2019092907,20190929071090,home,28.29,27.07,3.6,1.59,0.35,243.09,243.17,2561015,Lorenzo Carter,59,2019,19,2,11:56:00,WAS,1,10,WAS,14,0,2540011,SINGLEBACK,"1 RB, 1 TE, 3 WR",7,"2 DL, 4 LB, 5 DB",right,2019-09-29T17:43:11.000Z,2019-09-29T17:43:10.000Z,6-5,250,12/10/1995,Georgia,OLB,NYG,WAS,4,MetLife Stadium,"East Rutherford, NJ",,UBU Speed Series-S5-M,Fair,77.0,42,11,NNE
54139,2019092907,20190929071090,home,38.48,41.56,2.13,2.37,0.2,232.97,128.1,2562227,Deandre Baker,27,2019,19,2,11:56:00,WAS,1,10,WAS,14,0,2540011,SINGLEBACK,"1 RB, 1 TE, 3 WR",7,"2 DL, 4 LB, 5 DB",right,2019-09-29T17:43:11.000Z,2019-09-29T17:43:10.000Z,5-11,180,09/04/1997,Georgia,CB,NYG,WAS,4,MetLife Stadium,"East Rutherford, NJ",,UBU Speed Series-S5-M,Fair,77.0,42,11,NNE
54140,2019092907,20190929071090,home,31.44,23.81,4.66,2.81,0.45,226.65,205.13,2562638,Ryan Connelly,57,2019,19,2,11:56:00,WAS,1,10,WAS,14,0,2540011,SINGLEBACK,"1 RB, 1 TE, 3 WR",7,"2 DL, 4 LB, 5 DB",right,2019-09-29T17:43:11.000Z,2019-09-29T17:43:10.000Z,6-2,236,10/03/1995,Wisconsin,LB,NYG,WAS,4,MetLife Stadium,"East Rutherford, NJ",,UBU Speed Series-S5-M,Fair,77.0,42,11,NNE
54141,2019092907,20190929071090,home,28.29,19.83,1.52,2.42,0.15,265.24,260.86,2563257,Tuzar Skipper,54,2019,19,2,11:56:00,WAS,1,10,WAS,14,0,2540011,SINGLEBACK,"1 RB, 1 TE, 3 WR",7,"2 DL, 4 LB, 5 DB",right,2019-09-29T17:43:11.000Z,2019-09-29T17:43:10.000Z,6-3,246,06/05/1995,Toledo,LB,NYG,WAS,4,MetLife Stadium,"East Rutherford, NJ",,UBU Speed Series-S5-M,Fair,77.0,42,11,NNE
