,GameId,PlayId,Team,X,Y,S,A,Dis,Orientation,Dir,NflId,DisplayName,JerseyNumber,Season,YardLine,Quarter,GameClock,PossessionTeam,Down,Distance,FieldPosition,HomeScoreBeforePlay,VisitorScoreBeforePlay,NflIdRusher,OffenseFormation,OffensePersonnel,DefendersInTheBox,DefensePersonnel,PlayDirection,TimeHandoff,TimeSnap,PlayerHeight,PlayerWeight,PlayerBirthDate,PlayerCollegeName,Position,HomeTeamAbbr,VisitorTeamAbbr,Week,Stadium,Location,StadiumType,Turf,GameWeather,Temperature,Humidity,WindSpeed,WindDirection
36366,2019092204,20190922043947,away,34.47,42.7,3.36,1.59,0.33,45.25,265.71,4365,Brandon Carr,24,2019,31,4,05:45:00,KC,2,7,BLT,30,22,2562832,SHOTGUN,"1 RB, 1 TE, 3 WR",6,"2 DL, 4 LB, 5 DB",left,2019-09-22T19:56:07.000Z,2019-09-22T19:56:06.000Z,6-0,210,05/19/1986,Grand Valley State,CB,KC,BAL,3,Arrowhead Stadium,"Kansas City, MO",Outdoor,Natural Grass,,71.0,87,3,West
36367,2019092204,20190922043947,away,40.87,27.99,4.6,1.66,0.45,60.71,3.31,2495201,Pernell McPhee,90,2019,31,4,05:45:00,KC,2,7,BLT,30,22,2562832,SHOTGUN,"1 RB, 1 TE, 3 WR",6,"2 DL, 4 LB, 5 DB",left,2019-09-22T19:56:07.000Z,2019-09-22T19:56:06.000Z,6-3,265,12/17/1988,Mississippi State,OLB,KC,BAL,3,Arrowhead Stadium,"Kansas City, MO",Outdoor,Natural Grass,,71.0,87,3,West
36368,2019092204,20190922043947,away,33.88,36.36,3.4,0.91,0.33,77.16,18.99,2508080,Earl Thomas,29,2019,31,4,05:45:00,KC,2,7,BLT,30,22,2562832,SHOTGUN,"1 RB, 1 TE, 3 WR",6,"2 DL, 4 LB, 5 DB",left,2019-09-22T19:56:07.000Z,2019-09-22T19:56:06.000Z,5-10,202,05/07/1989,Texas,FS,KC,BAL,3,Arrowhead Stadium,"Kansas City, MO",Outdoor,Natural Grass,,71.0,87,3,West
36369,2019092204,20190922043947,away,40.73,24.55,4.8,2.85,0.48,45.11,51.29,2540164,Tony Jefferson,23,2019,31,4,05:45:00,KC,2,7,BLT,30,22,2562832,SHOTGUN,"1 RB, 1 TE, 3 WR",6,"2 DL, 4 LB, 5 DB",left,2019-09-22T19:56:07.000Z,2019-09-22T19:56:06.000Z,5-11,211,01/27/1992,Oklahoma,SS,KC,BAL,3,Arrowhead Stadium,"Kansas City, MO",Outdoor,Natural Grass,,71.0,87,3,West
36370,2019092204,20190922043947,away,41.14,34.22,3.46,1.27,0.36,102.12,4.42,2541302,Brandon Williams,98,2019,31,4,05:45:00,KC,2,7,BLT,30,22,2562832,SHOTGUN,"1 RB, 1 TE, 3 WR",6,"2 DL, 4 LB, 5 DB",left,2019-09-22T19:56:07.000Z,2019-09-22T19:56:06.000Z,6-1,336,02/21/1989,Missouri Southern,DT,KC,BAL,3,Arrowhead Stadium,"Kansas City, MO",Outdoor,Natural Grass,,71.0,87,3,West
36371,2019092204,20190922043947,away,34.32,19.57,2.11,0.78,0.21,98.08,286.0,2555178,Maurice Canady,26,2019,31,4,05:45:00,KC,2,7,BLT,30,22,2562832,SHOTGUN,"1 RB, 1 TE, 3 WR",6,"2 DL, 4 LB, 5 DB",left,2019-09-22T19:56:07.000Z,2019-09-22T19:56:06.000Z,6-1,193,05/26/1994,Virginia,CB,KC,BAL,3,Arrowhead Stadium,"Kansas City, MO",Outdoor,Natural Grass,,71.0,87,3,West
36372,2019092204,20190922043947,away,40.6,37.86,2.99,2.36,0.28,103.8,17.16,2555505,Matt Judon,99,2019,31,4,05:45:00,KC,2,7,BLT,30,22,2562832,SHOTGUN,"1 RB, 1 TE, 3 WR",6,"2 DL, 4 LB, 5 DB",left,2019-09-22T19:56:07.000Z,2019-09-22T19:56:06.000Z,6-3,261,08/15/1992,Grand Valley State,OLB,KC,BAL,3,Arrowhead Stadium,"Kansas City, MO",Outdoor,Natural Grass,,71.0,87,3,West
36373,2019092204,20190922043947,away,39.86,27.59,4.06,2.44,0.4,80.67,73.72,2556642,Patrick Onwuasor,48,2019,31,4,05:45:00,KC,2,7,BLT,30,22,2562832,SHOTGUN,"1 RB, 1 TE, 3 WR",6,"2 DL, 4 LB, 5 DB",left,2019-09-22T19:56:07.000Z,2019-09-22T19:56:06.000Z,6-0,227,08/22/1992,Portland State,ILB,KC,BAL,3,Arrowhead Stadium,"Kansas City, MO",Outdoor,Natural Grass,,71.0,87,3,West
36374,2019092204,20190922043947,away,41.06,31.09,1.84,1.58,0.19,76.62,356.97,2556650,Michael Pierce,97,2019,31,4,05:45:00,KC,2,7,BLT,30,22,2562832,SHOTGUN,"1 RB, 1 TE, 3 WR",6,"2 DL, 4 LB, 5 DB",left,2019-09-22T19:56:07.000Z,2019-09-22T19:56:06.000Z,6-0,340,11/06/1992,Samford,DT,KC,BAL,3,Arrowhead Stadium,"Kansas City, MO",Outdoor,Natural Grass,,71.0,87,3,West
36375,2019092204,20190922043947,away,39.56,9.37,2.16,3.71,0.19,112.32,239.16,2558067,Marlon Humphrey,44,2019,31,4,05:45:00,KC,2,7,BLT,30,22,2562832,SHOTGUN,"1 RB, 1 TE, 3 WR",6,"2 DL, 4 LB, 5 DB",left,2019-09-22T19:56:07.000Z,2019-09-22T19:56:06.000Z,6-0,197,07/08/1996,Alabama,CB,KC,BAL,3,Arrowhead Stadium,"Kansas City, MO",Outdoor,Natural Grass,,71.0,87,3,West
36376,2019092204,20190922043947,away,36.9,30.13,3.56,1.82,0.35,128.0,186.37,2561301,Chris Board,49,2019,31,4,05:45:00,KC,2,7,BLT,30,22,2562832,SHOTGUN,"1 RB, 1 TE, 3 WR",6,"2 DL, 4 LB, 5 DB",left,2019-09-22T19:56:07.000Z,2019-09-22T19:56:06.000Z,6-2,230,07/23/1995,North Dakota State,LB,KC,BAL,3,Arrowhead Stadium,"Kansas City, MO",Outdoor,Natural Grass,,71.0,87,3,West
36377,2019092204,20190922043947,home,42.33,35.47,4.1,0.88,0.42,307.27,353.86,2532945,Mitchell Schwartz,71,2019,31,4,05:45:00,KC,2,7,BLT,30,22,2562832,SHOTGUN,"1 RB, 1 TE, 3 WR",6,"2 DL, 4 LB, 5 DB",left,2019-09-22T19:56:07.000Z,2019-09-22T19:56:06.000Z,6-5,320,06/08/1989,California,T,KC,BAL,3,Arrowhead Stadium,"Kansas City, MO",Outdoor,Natural Grass,,71.0,87,3,West
36378,2019092204,20190922043947,home,42.18,37.61,3.19,1.43,0.31,280.59,349.79,2540258,Travis Kelce,87,2019,31,4,05:45:00,KC,2,7,BLT,30,22,2562832,SHOTGUN,"1 RB, 1 TE, 3 WR",6,"2 DL, 4 LB, 5 DB",left,2019-09-22T19:56:07.000Z,2019-09-22T19:56:06.000Z,6-5,260,10/05/1989,Cincinnati,TE,KC,BAL,3,Arrowhead Stadium,"Kansas City, MO",Outdoor,Natural Grass,,71.0,87,3,West
36379,2019092204,20190922043947,home,39.34,18.73,4.94,2.79,0.48,296.27,284.94,2543457,Sammy Watkins,14,2019,31,4,05:45:00,KC,2,7,BLT,30,22,2562832,SHOTGUN,"1 RB, 1 TE, 3 WR",6,"2 DL, 4 LB, 5 DB",left,2019-09-22T19:56:07.000Z,2019-09-22T19:56:06.000Z,6-1,211,06/14/1993,Clemson,WR,KC,BAL,3,Arrowhead Stadium,"Kansas City, MO",Outdoor,Natural Grass,,71.0,87,3,West
36380,2019092204,20190922043947,home,42.11,33.82,3.4,0.13,0.35,300.5,360.0,2543816,Laurent Duvernay-Tardif,76,2019,31,4,05:45:00,KC,2,7,BLT,30,22,2562832,SHOTGUN,"1 RB, 1 TE, 3 WR",6,"2 DL, 4 LB, 5 DB",left,2019-09-22T19:56:07.000Z,2019-09-22T19:56:06.000Z,6-5,321,02/11/1991,McGill,G,KC,BAL,3,Arrowhead Stadium,"Kansas City, MO",Outdoor,Natural Grass,,71.0,87,3,West
36381,2019092204,20190922043947,home,41.83,28.63,3.13,0.55,0.33,254.56,346.74,2552240,Cameron Erving,75,2019,31,4,05:45:00,KC,2,7,BLT,30,22,2562832,SHOTGUN,"1 RB, 1 TE, 3 WR",6,"2 DL, 4 LB, 5 DB",left,2019-09-22T19:56:07.000Z,2019-09-22T19:56:06.000Z,6-5,313,08/23/1992,Florida State,G,KC,BAL,3,Arrowhead Stadium,"Kansas City, MO",Outdoor,Natural Grass,,71.0,87,3,West
36382,2019092204,20190922043947,home,41.45,31.84,2.69,1.09,0.27,258.77,335.43,2553452,Austin Reiter,62,2019,31,4,05:45:00,KC,2,7,BLT,30,22,2562832,SHOTGUN,"1 RB, 1 TE, 3 WR",6,"2 DL, 4 LB, 5 DB",left,2019-09-22T19:56:07.000Z,2019-09-22T19:56:06.000Z,6-3,300,11/27/1991,South Florida,C,KC,BAL,3,Arrowhead Stadium,"Kansas City, MO",Outdoor,Natural Grass,,71.0,87,3,West
36383,2019092204,20190922043947,home,38.75,43.02,5.63,3.14,0.55,286.23,273.22,2555478,Demarcus Robinson,11,2019,31,4,05:45:00,KC,2,7,BLT,30,22,2562832,SHOTGUN,"1 RB, 1 TE, 3 WR",6,"2 DL, 4 LB, 5 DB",left,2019-09-22T19:56:07.000Z,2019-09-22T19:56:06.000Z,6-1,203,09/21/1994,Florida,WR,KC,BAL,3,Arrowhead Stadium,"Kansas City, MO",Outdoor,Natural Grass,,71.0,87,3,West
36384,2019092204,20190922043947,home,45.88,28.91,1.87,2.02,0.18,258.37,169.93,2558125,Patrick Mahomes,15,2019,31,4,05:45:00,KC,2,7,BLT,30,22,2562832,SHOTGUN,"1 RB, 1 TE, 3 WR",6,"2 DL, 4 LB, 5 DB",left,2019-09-22T19:56:07.000Z,2019-09-22T19:56:06.000Z,6-3,230,09/17/1995,Texas Tech,QB,KC,BAL,3,Arrowhead Stadium,"Kansas City, MO",Outdoor,Natural Grass,,71.0,87,3,West
36385,2019092204,20190922043947,home,41.94,31.15,2.8,1.89,0.29,263.61,350.57,2559354,Andrew Wylie,77,2019,31,4,05:45:00,KC,2,7,BLT,30,22,2562832,SHOTGUN,"1 RB, 1 TE, 3 WR",6,"2 DL, 4 LB, 5 DB",left,2019-09-22T19:56:07.000Z,2019-09-22T19:56:06.000Z,6-6,309,08/19/1994,Eastern Michigan,OT,KC,BAL,3,Arrowhead Stadium,"Kansas City, MO",Outdoor,Natural Grass,,71.0,87,3,West
36386,2019092204,20190922043947,home,41.37,9.18,2.45,1.62,0.24,299.82,264.41,2562580,Mecole Hardman,17,2019,31,4,05:45:00,KC,2,7,BLT,30,22,2562832,SHOTGUN,"1 RB, 1 TE, 3 WR",6,"2 DL, 4 LB, 5 DB",left,2019-09-22T19:56:07.000Z,2019-09-22T19:56:06.000Z,5-10,187,03/12/1998,Georgia,WR,KC,BAL,3,Arrowhead Stadium,"Kansas City, MO",Outdoor,Natural Grass,,71.0,87,3,West
36387,2019092204,20190922043947,home,45.21,29.84,5.81,2.15,0.57,325.23,353.64,2562832,Darwin Thompson,34,2019,31,4,05:45:00,KC,2,7,BLT,30,22,2562832,SHOTGUN,"1 RB, 1 TE, 3 WR",6,"2 DL, 4 LB, 5 DB",left,2019-09-22T19:56:07.000Z,2019-09-22T19:56:06.000Z,5-8,200,02/12/1997,Utah State,RB,KC,BAL,3,Arrowhead Stadium,"Kansas City, MO",Outdoor,Natural Grass,,71.0,87,3,West
