,GameId,PlayId,Team,X,Y,S,A,Dis,Orientation,Dir,NflId,DisplayName,JerseyNumber,Season,YardLine,Quarter,GameClock,PossessionTeam,Down,Distance,FieldPosition,HomeScoreBeforePlay,VisitorScoreBeforePlay,NflIdRusher,OffenseFormation,OffensePersonnel,DefendersInTheBox,DefensePersonnel,PlayDirection,TimeHandoff,TimeSnap,PlayerHeight,PlayerWeight,PlayerBirthDate,PlayerCollegeName,Position,HomeTeamAbbr,VisitorTeamAbbr,Week,Stadium,Location,StadiumType,Turf,GameWeather,Temperature,Humidity,WindSpeed,WindDirection
36454,2019092204,20190922044417,away,66.78,21.26,1.31,1.06,0.13,92.6,298.55,4365,Brandon Carr,24,2019,36,4,01:55:00,KC,2,10,KC,33,28,2560935,SHOTGUN,"1 RB, 2 TE, 2 WR",7,"2 DL, 3 LB, 6 DB",left,2019-09-22T20:12:49.000Z,2019-09-22T20:12:47.000Z,6-0,210,05/19/1986,Grand Valley State,CB,KC,BAL,3,Arrowhead Stadium,"Kansas City, MO",Outdoor,Natural Grass,,71.0,87,3,West
36455,2019092204,20190922044417,away,75.18,25.49,2.3,3.0,0.24,50.71,44.38,2495201,Pernell McPhee,90,2019,36,4,01:55:00,KC,2,10,KC,33,28,2560935,SHOTGUN,"1 RB, 2 TE, 2 WR",7,"2 DL, 3 LB, 6 DB",left,2019-09-22T20:12:49.000Z,2019-09-22T20:12:47.000Z,6-3,265,12/17/1988,Mississippi State,OLB,KC,BAL,3,Arrowhead Stadium,"Kansas City, MO",Outdoor,Natural Grass,,71.0,87,3,West
36456,2019092204,20190922044417,away,72.04,37.88,3.19,3.8,0.3,172.15,232.16,2508004,Anthony Levine,41,2019,36,4,01:55:00,KC,2,10,KC,33,28,2560935,SHOTGUN,"1 RB, 2 TE, 2 WR",7,"2 DL, 3 LB, 6 DB",left,2019-09-22T20:12:49.000Z,2019-09-22T20:12:47.000Z,5-11,207,03/27/1987,Tennessee State,DB,KC,BAL,3,Arrowhead Stadium,"Kansas City, MO",Outdoor,Natural Grass,,71.0,87,3,West
36457,2019092204,20190922044417,away,65.3,26.87,2.12,2.52,0.2,47.27,326.88,2508080,Earl Thomas,29,2019,36,4,01:55:00,KC,2,10,KC,33,28,2560935,SHOTGUN,"1 RB, 2 TE, 2 WR",7,"2 DL, 3 LB, 6 DB",left,2019-09-22T20:12:49.000Z,2019-09-22T20:12:47.000Z,5-10,202,05/07/1989,Texas,FS,KC,BAL,3,Arrowhead Stadium,"Kansas City, MO",Outdoor,Natural Grass,,71.0,87,3,West
36458,2019092204,20190922044417,away,75.06,34.76,4.35,3.77,0.42,176.58,148.52,2540164,Tony Jefferson,23,2019,36,4,01:55:00,KC,2,10,KC,33,28,2560935,SHOTGUN,"1 RB, 2 TE, 2 WR",7,"2 DL, 3 LB, 6 DB",left,2019-09-22T20:12:49.000Z,2019-09-22T20:12:47.000Z,5-11,211,01/27/1992,Oklahoma,SS,KC,BAL,3,Arrowhead Stadium,"Kansas City, MO",Outdoor,Natural Grass,,71.0,87,3,West
36459,2019092204,20190922044417,away,73.8,31.44,0.18,1.03,0.02,90.48,233.46,2541302,Brandon Williams,98,2019,36,4,01:55:00,KC,2,10,KC,33,28,2560935,SHOTGUN,"1 RB, 2 TE, 2 WR",7,"2 DL, 3 LB, 6 DB",left,2019-09-22T20:12:49.000Z,2019-09-22T20:12:47.000Z,6-1,336,02/21/1989,Missouri Southern,DT,KC,BAL,3,Arrowhead Stadium,"Kansas City, MO",Outdoor,Natural Grass,,71.0,87,3,West
36460,2019092204,20190922044417,away,74.01,32.94,1.96,2.31,0.21,115.44,157.87,2555505,Matt Judon,99,2019,36,4,01:55:00,KC,2,10,KC,33,28,2560935,SHOTGUN,"1 RB, 2 TE, 2 WR",7,"2 DL, 3 LB, 6 DB",left,2019-09-22T20:12:49.000Z,2019-09-22T20:12:47.000Z,6-3,261,08/15/1992,Grand Valley State,OLB,KC,BAL,3,Arrowhead Stadium,"Kansas City, MO",Outdoor,Natural Grass,,71.0,87,3,West
36461,2019092204,20190922044417,away,70.97,30.7,2.3,1.81,0.22,98.99,108.3,2556642,Patrick Onwuasor,48,2019,36,4,01:55:00,KC,2,10,KC,33,28,2560935,SHOTGUN,"1 RB, 2 TE, 2 WR",7,"2 DL, 3 LB, 6 DB",left,2019-09-22T20:12:49.000Z,2019-09-22T20:12:47.000Z,6-0,227,08/22/1992,Portland State,ILB,KC,BAL,3,Arrowhead Stadium,"Kansas City, MO",Outdoor,Natural Grass,,71.0,87,3,West
36462,2019092204,20190922044417,away,73.67,29.16,0.72,0.29,0.07,83.32,30.08,2556650,Michael Pierce,97,2019,36,4,01:55:00,KC,2,10,KC,33,28,2560935,SHOTGUN,"1 RB, 2 TE, 2 WR",7,"2 DL, 3 LB, 6 DB",left,2019-09-22T20:12:49.000Z,2019-09-22T20:12:47.000Z,6-0,340,11/06/1992,Samford,DT,KC,BAL,3,Arrowhead Stadium,"Kansas City, MO",Outdoor,Natural Grass,,71.0,87,3,West
36463,2019092204,20190922044417,away,72.95,17.77,3.2,4.05,0.3,88.3,196.65,2558067,Marlon Humphrey,44,2019,36,4,01:55:00,KC,2,10,KC,33,28,2560935,SHOTGUN,"1 RB, 2 TE, 2 WR",7,"2 DL, 3 LB, 6 DB",left,2019-09-22T20:12:49.000Z,2019-09-22T20:12:47.000Z,6-0,197,07/08/1996,Alabama,CB,KC,BAL,3,Arrowhead Stadium,"Kansas City, MO",Outdoor,Natural Grass,,71.0,87,3,West
36464,2019092204,20190922044417,away,72.21,34.48,1.98,0.92,0.2,103.92,141.84,2558248,Chuck Clark,36,2019,36,4,01:55:00,KC,2,10,KC,33,28,2560935,SHOTGUN,"1 RB, 2 TE, 2 WR",7,"2 DL, 3 LB, 6 DB",left,2019-09-22T20:12:49.000Z,2019-09-22T20:12:47.000Z,6-0,205,04/19/1995,Virginia Tech,FS,KC,BAL,3,Arrowhead Stadium,"Kansas City, MO",Outdoor,Natural Grass,,71.0,87,3,West
36465,2019092204,20190922044417,home,74.54,31.68,0.73,1.19,0.07,251.53,222.48,2532945,Mitchell Schwartz,71,2019,36,4,01:55:00,KC,2,10,KC,33,28,2560935,SHOTGUN,"1 RB, 2 TE, 2 WR",7,"2 DL, 3 LB, 6 DB",left,2019-09-22T20:12:49.000Z,2019-09-22T20:12:47.000Z,6-5,320,06/08/1989,California,T,KC,BAL,3,Arrowhead Stadium,"Kansas City, MO",Outdoor,Natural Grass,,71.0,87,3,West
36466,2019092204,20190922044417,home,72.78,37.04,4.44,3.04,0.43,261.57,237.17,2540258,Travis Kelce,87,2019,36,4,01:55:00,KC,2,10,KC,33,28,2560935,SHOTGUN,"1 RB, 2 TE, 2 WR",7,"2 DL, 3 LB, 6 DB",left,2019-09-22T20:12:49.000Z,2019-09-22T20:12:47.000Z,6-5,260,10/05/1989,Cincinnati,TE,KC,BAL,3,Arrowhead Stadium,"Kansas City, MO",Outdoor,Natural Grass,,71.0,87,3,West
36467,2019092204,20190922044417,home,74.13,17.27,4.2,3.08,0.41,260.06,219.46,2543457,Sammy Watkins,14,2019,36,4,01:55:00,KC,2,10,KC,33,28,2560935,SHOTGUN,"1 RB, 2 TE, 2 WR",7,"2 DL, 3 LB, 6 DB",left,2019-09-22T20:12:49.000Z,2019-09-22T20:12:47.000Z,6-1,211,06/14/1993,Clemson,WR,KC,BAL,3,Arrowhead Stadium,"Kansas City, MO",Outdoor,Natural Grass,,71.0,87,3,West
36468,2019092204,20190922044417,home,74.49,30.98,0.49,0.33,0.05,283.96,257.31,2543816,Laurent Duvernay-Tardif,76,2019,36,4,01:55:00,KC,2,10,KC,33,28,2560935,SHOTGUN,"1 RB, 2 TE, 2 WR",7,"2 DL, 3 LB, 6 DB",left,2019-09-22T20:12:49.000Z,2019-09-22T20:12:47.000Z,6-5,321,02/11/1991,McGill,G,KC,BAL,3,Arrowhead Stadium,"Kansas City, MO",Outdoor,Natural Grass,,71.0,87,3,West
36469,2019092204,20190922044417,home,75.66,26.9,1.54,0.77,0.15,206.77,108.35,2552240,Cameron Erving,75,2019,36,4,01:55:00,KC,2,10,KC,33,28,2560935,SHOTGUN,"1 RB, 2 TE, 2 WR",7,"2 DL, 3 LB, 6 DB",left,2019-09-22T20:12:49.000Z,2019-09-22T20:12:47.000Z,6-5,313,08/23/1992,Florida State,G,KC,BAL,3,Arrowhead Stadium,"Kansas City, MO",Outdoor,Natural Grass,,71.0,87,3,West
36470,2019092204,20190922044417,home,74.95,32.6,1.67,1.83,0.18,265.36,206.73,2552478,Blake Bell,81,2019,36,4,01:55:00,KC,2,10,KC,33,28,2560935,SHOTGUN,"1 RB, 2 TE, 2 WR",7,"2 DL, 3 LB, 6 DB",left,2019-09-22T20:12:49.000Z,2019-09-22T20:12:47.000Z,6-6,252,08/07/1991,Oklahoma,TE,KC,BAL,3,Arrowhead Stadium,"Kansas City, MO",Outdoor,Natural Grass,,71.0,87,3,West
36471,2019092204,20190922044417,home,74.49,29.28,0.28,0.97,0.03,261.51,82.12,2553452,Austin Reiter,62,2019,36,4,01:55:00,KC,2,10,KC,33,28,2560935,SHOTGUN,"1 RB, 2 TE, 2 WR",7,"2 DL, 3 LB, 6 DB",left,2019-09-22T20:12:49.000Z,2019-09-22T20:12:47.000Z,6-3,300,11/27/1991,South Florida,C,KC,BAL,3,Arrowhead Stadium,"Kansas City, MO",Outdoor,Natural Grass,,71.0,87,3,West
36472,2019092204,20190922044417,home,72.59,20.49,4.51,2.86,0.43,282.63,286.03,2555478,Demarcus Robinson,11,2019,36,4,01:55:00,KC,2,10,KC,33,28,2560935,SHOTGUN,"1 RB, 2 TE, 2 WR",7,"2 DL, 3 LB, 6 DB",left,2019-09-22T20:12:49.000Z,2019-09-22T20:12:47.000Z,6-1,203,09/21/1994,Florida,WR,KC,BAL,3,Arrowhead Stadium,"Kansas City, MO",Outdoor,Natural Grass,,71.0,87,3,West
36473,2019092204,20190922044417,home,78.61,29.95,1.4,1.24,0.14,325.31,72.5,2558125,Patrick Mahomes,15,2019,36,4,01:55:00,KC,2,10,KC,33,28,2560935,SHOTGUN,"1 RB, 2 TE, 2 WR",7,"2 DL, 3 LB, 6 DB",left,2019-09-22T20:12:49.000Z,2019-09-22T20:12:47.000Z,6-3,230,09/17/1995,Texas Tech,QB,KC,BAL,3,Arrowhead Stadium,"Kansas City, MO",Outdoor,Natural Grass,,71.0,87,3,West
36474,2019092204,20190922044417,home,75.42,30.39,3.03,2.18,0.31,309.08,351.83,2559354,Andrew Wylie,77,2019,36,4,01:55:00,KC,2,10,KC,33,28,2560935,SHOTGUN,"1 RB, 2 TE, 2 WR",7,"2 DL, 3 LB, 6 DB",left,2019-09-22T20:12:49.000Z,2019-09-22T20:12:47.000Z,6-6,309,08/19/1994,Eastern Michigan,OT,KC,BAL,3,Arrowhead Stadium,"Kansas City, MO",Outdoor,Natural Grass,,71.0,87,3,West
36475,2019092204,20190922044417,home,77.91,30.68,2.2,2.04,0.22,267.78,240.72,2560935,Darrel Williams,31,2019,36,4,01:55:00,KC,2,10,KC,33,28,2560935,SHOTGUN,"1 RB, 2 TE, 2 WR",7,"2 DL, 3 LB, 6 DB",left,2019-09-22T20:12:49.000Z,2019-09-22T20:12:47.000Z,5-11,224,04/15/1995,Louisiana State,RB,KC,BAL,3,Arrowhead Stadium,"Kansas City, MO",Outdoor,Natural Grass,,71.0,87,3,West
