,GameId,PlayId,Team,X,Y,S,A,Dis,Orientation,Dir,NflId,DisplayName,JerseyNumber,Season,YardLine,Quarter,GameClock,PossessionTeam,Down,Distance,FieldPosition,HomeScoreBeforePlay,VisitorScoreBeforePlay,NflIdRusher,OffenseFormation,OffensePersonnel,DefendersInTheBox,DefensePersonnel,PlayDirection,TimeHandoff,TimeSnap,PlayerHeight,PlayerWeight,PlayerBirthDate,PlayerCollegeName,Position,HomeTeamAbbr,VisitorTeamAbbr,Week,Stadium,Location,StadiumType,Turf,GameWeather,Temperature,Humidity,WindSpeed,WindDirection
13860,2019090901,20190909010240,away,19.89,15.54,1.01,0.25,0.1,59.76,299.52,496735,Kareem Jackson,22,2019,16,1,10:12:00,OAK,1,10,DEN,0,0,2562377,SINGLEBACK,"1 RB, 2 TE, 2 WR",7,"2 DL, 4 LB, 5 DB",left,2019-09-10T02:26:32.000Z,2019-09-10T02:26:31.000Z,5-10,185,04/10/1988,Alabama,CB,OAK,DEN,1,Oakland-Alameda County Coliseum,"Oakland, CA",Outdoor,Natural Grass,Breezy,68.0,66,15,W
13861,2019090901,20190909010240,away,25.99,28.03,4.11,2.05,0.4,97.26,169.83,2495202,Von Miller,58,2019,16,1,10:12:00,OAK,1,10,DEN,0,0,2562377,SINGLEBACK,"1 RB, 2 TE, 2 WR",7,"2 DL, 4 LB, 5 DB",left,2019-09-10T02:26:32.000Z,2019-09-10T02:26:31.000Z,6-3,250,03/26/1989,Texas A&M,OLB,OAK,DEN,1,Oakland-Alameda County Coliseum,"Oakland, CA",Outdoor,Natural Grass,Breezy,68.0,66,15,W
13862,2019090901,20190909010240,away,21.09,32.0,1.36,2.46,0.13,151.89,179.48,2530510,Chris Harris,25,2019,16,1,10:12:00,OAK,1,10,DEN,0,0,2562377,SINGLEBACK,"1 RB, 2 TE, 2 WR",7,"2 DL, 4 LB, 5 DB",left,2019-09-10T02:26:32.000Z,2019-09-10T02:26:31.000Z,5-10,199,06/18/1989,Kansas,CB,OAK,DEN,1,Oakland-Alameda County Coliseum,"Oakland, CA",Outdoor,Natural Grass,Breezy,68.0,66,15,W
13863,2019090901,20190909010240,away,25.05,23.85,2.71,0.42,0.28,90.07,195.21,2533026,Derek Wolfe,95,2019,16,1,10:12:00,OAK,1,10,DEN,0,0,2562377,SINGLEBACK,"1 RB, 2 TE, 2 WR",7,"2 DL, 4 LB, 5 DB",left,2019-09-10T02:26:32.000Z,2019-09-10T02:26:31.000Z,6-5,285,02/24/1990,Cincinnati,DE,OAK,DEN,1,Oakland-Alameda County Coliseum,"Oakland, CA",Outdoor,Natural Grass,Breezy,68.0,66,15,W
13864,2019090901,20190909010240,away,23.99,19.51,3.13,0.52,0.31,76.06,126.28,2550167,Corey Nelson,56,2019,16,1,10:12:00,OAK,1,10,DEN,0,0,2562377,SINGLEBACK,"1 RB, 2 TE, 2 WR",7,"2 DL, 4 LB, 5 DB",left,2019-09-10T02:26:32.000Z,2019-09-10T02:26:31.000Z,6-1,226,04/22/1992,Oklahoma,ILB,OAK,DEN,1,Oakland-Alameda County Coliseum,"Oakland, CA",Outdoor,Natural Grass,Breezy,68.0,66,15,W
13865,2019090901,20190909010240,away,25.1,20.95,1.12,0.8,0.12,130.61,194.95,2555502,Adam Gotsis,99,2019,16,1,10:12:00,OAK,1,10,DEN,0,0,2562377,SINGLEBACK,"1 RB, 2 TE, 2 WR",7,"2 DL, 4 LB, 5 DB",left,2019-09-10T02:26:32.000Z,2019-09-10T02:26:31.000Z,6-4,287,09/23/1992,Georgia Tech,DE,OAK,DEN,1,Oakland-Alameda County Coliseum,"Oakland, CA",Outdoor,Natural Grass,Breezy,68.0,66,15,W
13866,2019090901,20190909010240,away,21.69,27.03,3.81,2.14,0.37,103.19,159.78,2555550,Justin Simmons,31,2019,16,1,10:12:00,OAK,1,10,DEN,0,0,2562377,SINGLEBACK,"1 RB, 2 TE, 2 WR",7,"2 DL, 4 LB, 5 DB",left,2019-09-10T02:26:32.000Z,2019-09-10T02:26:31.000Z,6-2,202,11/19/1993,Boston College,SS,OAK,DEN,1,Oakland-Alameda County Coliseum,"Oakland, CA",Outdoor,Natural Grass,Breezy,68.0,66,15,W
13867,2019090901,20190909010240,away,10.88,22.88,1.04,1.18,0.1,103.32,268.06,2556278,Will Parks,34,2019,16,1,10:12:00,OAK,1,10,DEN,0,0,2562377,SINGLEBACK,"1 RB, 2 TE, 2 WR",7,"2 DL, 4 LB, 5 DB",left,2019-09-10T02:26:32.000Z,2019-09-10T02:26:31.000Z,6-1,194,07/29/1994,Arizona,FS,OAK,DEN,1,Oakland-Alameda County Coliseum,"Oakland, CA",Outdoor,Natural Grass,Breezy,68.0,66,15,W
13868,2019090901,20190909010240,away,23.52,22.84,3.78,1.46,0.37,84.32,145.44,2560763,Josey Jewell,47,2019,16,1,10:12:00,OAK,1,10,DEN,0,0,2562377,SINGLEBACK,"1 RB, 2 TE, 2 WR",7,"2 DL, 4 LB, 5 DB",left,2019-09-10T02:26:32.000Z,2019-09-10T02:26:31.000Z,6-2,236,12/25/1994,Iowa,LB,OAK,DEN,1,Oakland-Alameda County Coliseum,"Oakland, CA",Outdoor,Natural Grass,Breezy,68.0,66,15,W
13869,2019090901,20190909010240,away,17.15,13.25,2.52,0.71,0.24,58.03,310.34,2560946,Isaac Yiadom,26,2019,16,1,10:12:00,OAK,1,10,DEN,0,0,2562377,SINGLEBACK,"1 RB, 2 TE, 2 WR",7,"2 DL, 4 LB, 5 DB",left,2019-09-10T02:26:32.000Z,2019-09-10T02:26:31.000Z,6-1,190,02/20/1996,Boston College,DB,OAK,DEN,1,Oakland-Alameda County Coliseum,"Oakland, CA",Outdoor,Natural Grass,Breezy,68.0,66,15,W
13870,2019090901,20190909010240,away,27.16,18.23,1.77,2.97,0.19,59.64,112.73,2561020,Bradley Chubb,55,2019,16,1,10:12:00,OAK,1,10,DEN,0,0,2562377,SINGLEBACK,"1 RB, 2 TE, 2 WR",7,"2 DL, 4 LB, 5 DB",left,2019-09-10T02:26:32.000Z,2019-09-10T02:26:31.000Z,6-4,275,06/24/1996,North Carolina State,DE,OAK,DEN,1,Oakland-Alameda County Coliseum,"Oakland, CA",Outdoor,Natural Grass,Breezy,68.0,66,15,W
13871,2019090901,20190909010240,home,25.5,21.4,1.9,2.2,0.19,208.08,195.27,2495171,Rodney Hudson,61,2019,16,1,10:12:00,OAK,1,10,DEN,0,0,2562377,SINGLEBACK,"1 RB, 2 TE, 2 WR",7,"2 DL, 4 LB, 5 DB",left,2019-09-10T02:26:32.000Z,2019-09-10T02:26:31.000Z,6-2,315,07/12/1989,Florida State,C,OAK,DEN,1,Oakland-Alameda County Coliseum,"Oakland, CA",Outdoor,Natural Grass,Breezy,68.0,66,15,W
13872,2019090901,20190909010240,home,25.48,20.31,2.75,1.1,0.27,248.9,197.44,2540247,Jordan Devey,65,2019,16,1,10:12:00,OAK,1,10,DEN,0,0,2562377,SINGLEBACK,"1 RB, 2 TE, 2 WR",7,"2 DL, 4 LB, 5 DB",left,2019-09-10T02:26:32.000Z,2019-09-10T02:26:31.000Z,6-6,320,01/11/1988,Memphis,T,OAK,DEN,1,Oakland-Alameda County Coliseum,"Oakland, CA",Outdoor,Natural Grass,Breezy,68.0,66,15,W
13873,2019090901,20190909010240,home,29.52,22.58,4.13,0.83,0.41,147.04,110.77,2543499,Derek Carr,4,2019,16,1,10:12:00,OAK,1,10,DEN,0,0,2562377,SINGLEBACK,"1 RB, 2 TE, 2 WR",7,"2 DL, 4 LB, 5 DB",left,2019-09-10T02:26:32.000Z,2019-09-10T02:26:31.000Z,6-3,210,03/28/1991,Fresno State,QB,OAK,DEN,1,Oakland-Alameda County Coliseum,"Oakland, CA",Outdoor,Natural Grass,Breezy,68.0,66,15,W
13874,2019090901,20190909010240,home,25.61,14.53,4.53,2.19,0.44,273.73,285.39,2543759,Ryan Grant,19,2019,16,1,10:12:00,OAK,1,10,DEN,0,0,2562377,SINGLEBACK,"1 RB, 2 TE, 2 WR",7,"2 DL, 4 LB, 5 DB",left,2019-09-10T02:26:32.000Z,2019-09-10T02:26:31.000Z,6-0,195,12/19/1990,Tulane,WR,OAK,DEN,1,Oakland-Alameda County Coliseum,"Oakland, CA",Outdoor,Natural Grass,Breezy,68.0,66,15,W
13875,2019090901,20190909010240,home,25.32,24.21,3.25,1.24,0.34,216.87,213.41,2552350,Trent Brown,77,2019,16,1,10:12:00,OAK,1,10,DEN,0,0,2562377,SINGLEBACK,"1 RB, 2 TE, 2 WR",7,"2 DL, 4 LB, 5 DB",left,2019-09-10T02:26:32.000Z,2019-09-10T02:26:31.000Z,6-8,380,04/13/1993,Florida,T,OAK,DEN,1,Oakland-Alameda County Coliseum,"Oakland, CA",Outdoor,Natural Grass,Breezy,68.0,66,15,W
13876,2019090901,20190909010240,home,26.66,28.12,2.81,1.82,0.27,265.81,198.01,2552408,Darren Waller,83,2019,16,1,10:12:00,OAK,1,10,DEN,0,0,2562377,SINGLEBACK,"1 RB, 2 TE, 2 WR",7,"2 DL, 4 LB, 5 DB",left,2019-09-10T02:26:32.000Z,2019-09-10T02:26:31.000Z,6-6,255,09/13/1992,Georgia Tech,TE,OAK,DEN,1,Oakland-Alameda County Coliseum,"Oakland, CA",Outdoor,Natural Grass,Breezy,68.0,66,15,W
13877,2019090901,20190909010240,home,25.57,23.3,3.5,1.64,0.34,274.04,206.91,2553460,Denzelle Good,71,2019,16,1,10:12:00,OAK,1,10,DEN,0,0,2562377,SINGLEBACK,"1 RB, 2 TE, 2 WR",7,"2 DL, 4 LB, 5 DB",left,2019-09-10T02:26:32.000Z,2019-09-10T02:26:31.000Z,6-5,340,03/08/1991,Mars Hill,OT,OAK,DEN,1,Oakland-Alameda County Coliseum,"Oakland, CA",Outdoor,Natural Grass,Breezy,68.0,66,15,W
13878,2019090901,20190909010240,home,23.7,15.97,4.81,2.02,0.47,280.03,276.38,2553913,Tyrell Williams,16,2019,16,1,10:12:00,OAK,1,10,DEN,0,0,2562377,SINGLEBACK,"1 RB, 2 TE, 2 WR",7,"2 DL, 4 LB, 5 DB",left,2019-09-10T02:26:32.000Z,2019-09-10T02:26:31.000Z,6-4,205,02/12/1992,Western Oregon,WR,OAK,DEN,1,Oakland-Alameda County Coliseum,"Oakland, CA",Outdoor,Natural Grass,Breezy,68.0,66,15,W
13879,2019090901,20190909010240,home,27.47,18.87,1.68,0.98,0.18,232.17,136.65,2560811,Kolton Miller,74,2019,16,1,10:12:00,OAK,1,10,DEN,0,0,2562377,SINGLEBACK,"1 RB, 2 TE, 2 WR",7,"2 DL, 4 LB, 5 DB",left,2019-09-10T02:26:32.000Z,2019-09-10T02:26:31.000Z,6-8,325,10/09/1995,UCLA,T,OAK,DEN,1,Oakland-Alameda County Coliseum,"Oakland, CA",Outdoor,Natural Grass,Breezy,68.0,66,15,W
13880,2019090901,20190909010240,home,25.11,26.36,3.89,1.22,0.38,270.69,231.64,2562317,Foster Moreau,87,2019,16,1,10:12:00,OAK,1,10,DEN,0,0,2562377,SINGLEBACK,"1 RB, 2 TE, 2 WR",7,"2 DL, 4 LB, 5 DB",left,2019-09-10T02:26:32.000Z,2019-09-10T02:26:31.000Z,6-4,250,05/06/1997,Louisiana State,TE,OAK,DEN,1,Oakland-Alameda County Coliseum,"Oakland, CA",Outdoor,Natural Grass,Breezy,68.0,66,15,W
13881,2019090901,20190909010240,home,30.5,21.87,5.08,2.75,0.5,254.29,242.14,2562377,Josh Jacobs,28,2019,16,1,10:12:00,OAK,1,10,DEN,0,0,2562377,SINGLEBACK,"1 RB, 2 TE, 2 WR",7,"2 DL, 4 LB, 5 DB",left,2019-09-10T02:26:32.000Z,2019-09-10T02:26:31.000Z,5-10,220,02/11/1998,Alabama,RB,OAK,DEN,1,Oakland-Alameda County Coliseum,"Oakland, CA",Outdoor,Natural Grass,Breezy,68.0,66,15,W
