,GameId,PlayId,Team,X,Y,S,A,Dis,Orientation,Dir,NflId,DisplayName,JerseyNumber,Season,YardLine,Quarter,GameClock,PossessionTeam,Down,Distance,FieldPosition,HomeScoreBeforePlay,VisitorScoreBeforePlay,NflIdRusher,OffenseFormation,OffensePersonnel,DefendersInTheBox,DefensePersonnel,PlayDirection,TimeHandoff,TimeSnap,PlayerHeight,PlayerWeight,PlayerBirthDate,PlayerCollegeName,Position,HomeTeamAbbr,VisitorTeamAbbr,Week,Stadium,Location,StadiumType,Turf,GameWeather,Temperature,Humidity,WindSpeed,WindDirection
55506,2019092908,20190929082661,away,50.5,30.07,1.81,0.67,0.2,257.17,179.46,496881,Al Woods,72,2019,40,3,04:29:00,ARZ,1,10,ARZ,3,20,2560711,SHOTGUN,"1 RB, 0 TE, 4 WR",5,"4 DL, 3 LB, 4 DB",right,2019-09-29T22:03:04.000Z,2019-09-29T22:03:03.000Z,6-4,330,03/25/1987,Louisiana State,DT,ARI,SEA,4,State Farm Stadium,"Glendale, AZ",Dome,Grass,N/A Indoors,,0,,
55507,2019092908,20190929082661,away,54.52,39.76,1.67,1.83,0.16,244.65,190.44,2495252,K.J. Wright,50,2019,40,3,04:29:00,ARZ,1,10,ARZ,3,20,2560711,SHOTGUN,"1 RB, 0 TE, 4 WR",5,"4 DL, 3 LB, 4 DB",right,2019-09-29T22:03:04.000Z,2019-09-29T22:03:03.000Z,6-4,246,07/23/1989,Mississippi State,OLB,ARI,SEA,4,State Farm Stadium,"Glendale, AZ",Dome,Grass,N/A Indoors,,0,,
55508,2019092908,20190929082661,away,53.0,18.59,0.17,0.62,0.01,296.04,340.65,2532890,Mychal Kendricks,56,2019,40,3,04:29:00,ARZ,1,10,ARZ,3,20,2560711,SHOTGUN,"1 RB, 0 TE, 4 WR",5,"4 DL, 3 LB, 4 DB",right,2019-09-29T22:03:04.000Z,2019-09-29T22:03:03.000Z,5-11,240,09/28/1990,California,OLB,ARI,SEA,4,State Farm Stadium,"Glendale, AZ",Dome,Grass,N/A Indoors,,0,,
55509,2019092908,20190929082661,away,52.16,28.91,2.71,1.59,0.26,250.38,202.5,2532966,Bobby Wagner,54,2019,40,3,04:29:00,ARZ,1,10,ARZ,3,20,2560711,SHOTGUN,"1 RB, 0 TE, 4 WR",5,"4 DL, 3 LB, 4 DB",right,2019-09-29T22:03:04.000Z,2019-09-29T22:03:03.000Z,6-0,242,06/27/1990,Utah State,MLB,ARI,SEA,4,State Farm Stadium,"Glendale, AZ",Dome,Grass,N/A Indoors,,0,,
55510,2019092908,20190929082661,away,67.31,19.54,0.93,0.19,0.09,243.68,95.55,2539243,Bradley McDougald,30,2019,40,3,04:29:00,ARZ,1,10,ARZ,3,20,2560711,SHOTGUN,"1 RB, 0 TE, 4 WR",5,"4 DL, 3 LB, 4 DB",right,2019-09-29T22:03:04.000Z,2019-09-29T22:03:03.000Z,6-1,215,11/15/1990,Kansas,SS,ARI,SEA,4,State Farm Stadium,"Glendale, AZ",Dome,Grass,N/A Indoors,,0,,
55511,2019092908,20190929082661,away,48.44,24.15,2.61,1.89,0.27,346.14,245.35,2543456,Jadeveon Clowney,90,2019,40,3,04:29:00,ARZ,1,10,ARZ,3,20,2560711,SHOTGUN,"1 RB, 0 TE, 4 WR",5,"4 DL, 3 LB, 4 DB",right,2019-09-29T22:03:04.000Z,2019-09-29T22:03:03.000Z,6-5,255,02/14/1993,South Carolina,OLB,ARI,SEA,4,State Farm Stadium,"Glendale, AZ",Dome,Grass,N/A Indoors,,0,,
55512,2019092908,20190929082661,away,50.31,27.05,2.24,0.17,0.22,294.5,207.82,2556880,Branden Jackson,93,2019,40,3,04:29:00,ARZ,1,10,ARZ,3,20,2560711,SHOTGUN,"1 RB, 0 TE, 4 WR",5,"4 DL, 3 LB, 4 DB",right,2019-09-29T22:03:04.000Z,2019-09-29T22:03:03.000Z,6-4,295,11/11/1992,Texas Tech,DE,ARI,SEA,4,State Farm Stadium,"Glendale, AZ",Dome,Grass,N/A Indoors,,0,,
55513,2019092908,20190929082661,away,64.43,38.73,0.48,1.4,0.04,253.88,316.36,2557881,Tedric Thompson,33,2019,40,3,04:29:00,ARZ,1,10,ARZ,3,20,2560711,SHOTGUN,"1 RB, 0 TE, 4 WR",5,"4 DL, 3 LB, 4 DB",right,2019-09-29T22:03:04.000Z,2019-09-29T22:03:03.000Z,6-0,204,01/20/1995,Colorado,FS,ARI,SEA,4,State Farm Stadium,"Glendale, AZ",Dome,Grass,N/A Indoors,,0,,
55514,2019092908,20190929082661,away,56.64,11.76,2.22,1.0,0.22,317.21,119.51,2558259,Shaquill Griffin,26,2019,40,3,04:29:00,ARZ,1,10,ARZ,3,20,2560711,SHOTGUN,"1 RB, 0 TE, 4 WR",5,"4 DL, 3 LB, 4 DB",right,2019-09-29T22:03:04.000Z,2019-09-29T22:03:03.000Z,6-0,198,07/20/1995,Central Florida,CB,ARI,SEA,4,State Farm Stadium,"Glendale, AZ",Dome,Grass,N/A Indoors,,0,,
55515,2019092908,20190929082661,away,54.09,48.51,1.48,1.82,0.14,199.65,78.58,2560728,Tre Flowers,21,2019,40,3,04:29:00,ARZ,1,10,ARZ,3,20,2560711,SHOTGUN,"1 RB, 0 TE, 4 WR",5,"4 DL, 3 LB, 4 DB",right,2019-09-29T22:03:04.000Z,2019-09-29T22:03:03.000Z,6-3,203,06/02/1995,Oklahoma State,CB,ARI,SEA,4,State Farm Stadium,"Glendale, AZ",Dome,Grass,N/A Indoors,,0,,
55516,2019092908,20190929082661,away,50.54,33.35,1.84,0.73,0.18,230.0,185.65,2560998,Rasheem Green,98,2019,40,3,04:29:00,ARZ,1,10,ARZ,3,20,2560711,SHOTGUN,"1 RB, 0 TE, 4 WR",5,"4 DL, 3 LB, 4 DB",right,2019-09-29T22:03:04.000Z,2019-09-29T22:03:03.000Z,6-4,279,05/15/1997,Southern California,DE,ARI,SEA,4,State Farm Stadium,"Glendale, AZ",Dome,Grass,N/A Indoors,,0,,
55517,2019092908,20190929082661,home,49.72,27.65,2.36,1.13,0.24,167.68,178.56,71461,A.Q. Shipley,53,2019,40,3,04:29:00,ARZ,1,10,ARZ,3,20,2560711,SHOTGUN,"1 RB, 0 TE, 4 WR",5,"4 DL, 3 LB, 4 DB",right,2019-09-29T22:03:04.000Z,2019-09-29T22:03:03.000Z,6-1,307,05/22/1986,Penn State,C,ARI,SEA,4,State Farm Stadium,"Glendale, AZ",Dome,Grass,N/A Indoors,,0,,
55518,2019092908,20190929082661,home,50.34,46.57,3.04,1.1,0.29,86.94,56.61,2506106,Larry Fitzgerald,11,2019,40,3,04:29:00,ARZ,1,10,ARZ,3,20,2560711,SHOTGUN,"1 RB, 0 TE, 4 WR",5,"4 DL, 3 LB, 4 DB",right,2019-09-29T22:03:04.000Z,2019-09-29T22:03:03.000Z,6-3,218,08/31/1983,Pittsburgh,WR,ARI,SEA,4,State Farm Stadium,"Glendale, AZ",Dome,Grass,N/A Indoors,,0,,
55519,2019092908,20190929082661,home,49.04,26.72,1.92,0.16,0.2,121.53,175.18,2533342,J.R. Sweezy,64,2019,40,3,04:29:00,ARZ,1,10,ARZ,3,20,2560711,SHOTGUN,"1 RB, 0 TE, 4 WR",5,"4 DL, 3 LB, 4 DB",right,2019-09-29T22:03:04.000Z,2019-09-29T22:03:03.000Z,6-5,310,04/08/1989,North Carolina State,G,ARI,SEA,4,State Farm Stadium,"Glendale, AZ",Dome,Grass,N/A Indoors,,0,,
55520,2019092908,20190929082661,home,49.83,29.65,2.24,1.32,0.23,52.53,165.3,2540195,Justin Pugh,67,2019,40,3,04:29:00,ARZ,1,10,ARZ,3,20,2560711,SHOTGUN,"1 RB, 0 TE, 4 WR",5,"4 DL, 3 LB, 4 DB",right,2019-09-29T22:03:04.000Z,2019-09-29T22:03:03.000Z,6-5,311,08/15/1990,Syracuse,G,ARI,SEA,4,State Farm Stadium,"Glendale, AZ",Dome,Grass,N/A Indoors,,0,,
55521,2019092908,20190929082661,home,49.51,30.99,3.82,0.37,0.37,102.01,155.58,2552626,D.J. Humphries,74,2019,40,3,04:29:00,ARZ,1,10,ARZ,3,20,2560711,SHOTGUN,"1 RB, 0 TE, 4 WR",5,"4 DL, 3 LB, 4 DB",right,2019-09-29T22:03:04.000Z,2019-09-29T22:03:03.000Z,6-5,307,12/28/1993,Florida,OT,ARI,SEA,4,State Farm Stadium,"Glendale, AZ",Dome,Grass,N/A Indoors,,0,,
55522,2019092908,20190929082661,home,48.6,24.85,2.09,1.99,0.21,164.99,210.64,2556628,Justin Murray,71,2019,40,3,04:29:00,ARZ,1,10,ARZ,3,20,2560711,SHOTGUN,"1 RB, 0 TE, 4 WR",5,"4 DL, 3 LB, 4 DB",right,2019-09-29T22:03:04.000Z,2019-09-29T22:03:03.000Z,6-5,315,04/19/1993,Cincinnati,OT,ARI,SEA,4,State Farm Stadium,"Glendale, AZ",Dome,Grass,N/A Indoors,,0,,
55523,2019092908,20190929082661,home,45.06,30.34,4.06,2.84,0.39,91.77,136.74,2560711,Chase Edmonds,29,2019,40,3,04:29:00,ARZ,1,10,ARZ,3,20,2560711,SHOTGUN,"1 RB, 0 TE, 4 WR",5,"4 DL, 3 LB, 4 DB",right,2019-09-29T22:03:04.000Z,2019-09-29T22:03:03.000Z,5-9,210,04/13/1996,Fordham,RB,ARI,SEA,4,State Farm Stadium,"Glendale, AZ",Dome,Grass,N/A Indoors,,0,,
55524,2019092908,20190929082661,home,51.04,14.23,4.09,3.84,0.4,87.37,120.44,2560781,Christian Kirk,13,2019,40,3,04:29:00,ARZ,1,10,ARZ,3,20,2560711,SHOTGUN,"1 RB, 0 TE, 4 WR",5,"4 DL, 3 LB, 4 DB",right,2019-09-29T22:03:04.000Z,2019-09-29T22:03:03.000Z,5-11,200,11/18/1996,Texas A&M,WR,ARI,SEA,4,State Farm Stadium,"Glendale, AZ",Dome,Grass,N/A Indoors,,0,,
55525,2019092908,20190929082661,home,48.44,47.7,0.68,1.24,0.07,132.55,47.11,2561272,Trent Sherfield,16,2019,40,3,04:29:00,ARZ,1,10,ARZ,3,20,2560711,SHOTGUN,"1 RB, 0 TE, 4 WR",5,"4 DL, 3 LB, 4 DB",right,2019-09-29T22:03:04.000Z,2019-09-29T22:03:03.000Z,6-1,219,02/26/1996,Vanderbilt,WR,ARI,SEA,4,State Farm Stadium,"Glendale, AZ",Dome,Grass,N/A Indoors,,0,,
55526,2019092908,20190929082661,home,45.01,29.73,0.7,1.5,0.06,30.71,116.4,2562382,Kyler Murray,1,2019,40,3,04:29:00,ARZ,1,10,ARZ,3,20,2560711,SHOTGUN,"1 RB, 0 TE, 4 WR",5,"4 DL, 3 LB, 4 DB",right,2019-09-29T22:03:04.000Z,2019-09-29T22:03:03.000Z,5-10,207,08/07/1997,Oklahoma,QB,ARI,SEA,4,State Farm Stadium,"Glendale, AZ",Dome,Grass,N/A Indoors,,0,,
55527,2019092908,20190929082661,home,49.94,18.4,3.81,1.89,0.36,36.68,51.91,2562677,KeeSean Johnson,19,2019,40,3,04:29:00,ARZ,1,10,ARZ,3,20,2560711,SHOTGUN,"1 RB, 0 TE, 4 WR",5,"4 DL, 3 LB, 4 DB",right,2019-09-29T22:03:04.000Z,2019-09-29T22:03:03.000Z,6-1,199,10/09/1996,Fresno State,WR,ARI,SEA,4,State Farm Stadium,"Glendale, AZ",Dome,Grass,N/A Indoors,,0,,
