,GameId,PlayId,Team,X,Y,S,A,Dis,Orientation,Dir,NflId,DisplayName,JerseyNumber,Season,YardLine,Quarter,GameClock,PossessionTeam,Down,Distance,FieldPosition,HomeScoreBeforePlay,VisitorScoreBeforePlay,NflIdRusher,OffenseFormation,OffensePersonnel,DefendersInTheBox,DefensePersonnel,PlayDirection,TimeHandoff,TimeSnap,PlayerHeight,PlayerWeight,PlayerBirthDate,PlayerCollegeName,Position,HomeTeamAbbr,VisitorTeamAbbr,Week,Stadium,Location,StadiumType,Turf,GameWeather,Temperature,Humidity,WindSpeed,WindDirection
88,2019090500,20190905000518,away,37.24,35.98,2.88,0.99,0.29,109.59,249.92,2506789,Tramon Williams,38,2019,32,1,07:12:00,CHI,2,6,GB,0,0,2562502,SHOTGUN,"2 RB, 1 TE, 2 WR",6,"3 DL, 3 LB, 5 DB",left,2019-09-06T00:41:38.000Z,2019-09-06T00:41:37.000Z,5-11,192,03/16/1983,Louisiana Tech,CB,CHI,GB,1,Soldier Field,Chicago,Outdoor,Natural Grass,Clear,65.0,69,10,E
89,2019090500,20190905000518,away,41.98,16.85,3.03,2.78,0.29,78.43,167.56,2552276,Preston Smith,91,2019,32,1,07:12:00,CHI,2,6,GB,0,0,2562502,SHOTGUN,"2 RB, 1 TE, 2 WR",6,"3 DL, 3 LB, 5 DB",left,2019-09-06T00:41:38.000Z,2019-09-06T00:41:37.000Z,6-5,265,11/17/1992,Mississippi State,OLB,CHI,GB,1,Soldier Field,Chicago,Outdoor,Natural Grass,Clear,65.0,69,10,E
90,2019090500,20190905000518,away,42.52,28.85,2.73,2.2,0.27,109.29,126.61,2552279,Za'Darius Smith,55,2019,32,1,07:12:00,CHI,2,6,GB,0,0,2562502,SHOTGUN,"2 RB, 1 TE, 2 WR",6,"3 DL, 3 LB, 5 DB",left,2019-09-06T00:41:38.000Z,2019-09-06T00:41:37.000Z,6-4,272,09/08/1992,Kentucky,OLB,CHI,GB,1,Soldier Field,Chicago,Outdoor,Natural Grass,Clear,65.0,69,10,E
91,2019090500,20190905000518,away,29.67,16.21,1.63,2.76,0.16,81.99,191.47,2552385,Adrian Amos,31,2019,32,1,07:12:00,CHI,2,6,GB,0,0,2562502,SHOTGUN,"2 RB, 1 TE, 2 WR",6,"3 DL, 3 LB, 5 DB",left,2019-09-06T00:41:38.000Z,2019-09-06T00:41:37.000Z,6-0,214,04/29/1993,Penn State,FS,CHI,GB,1,Soldier Field,Chicago,Outdoor,Natural Grass,Clear,65.0,69,10,E
92,2019090500,20190905000518,away,35.25,28.81,1.43,2.14,0.13,85.0,279.66,2555161,Blake Martinez,50,2019,32,1,07:12:00,CHI,2,6,GB,0,0,2562502,SHOTGUN,"2 RB, 1 TE, 2 WR",6,"3 DL, 3 LB, 5 DB",left,2019-09-06T00:41:38.000Z,2019-09-06T00:41:37.000Z,6-2,237,01/09/1994,Stanford,ILB,CHI,GB,1,Soldier Field,Chicago,Outdoor,Natural Grass,Clear,65.0,69,10,E
93,2019090500,20190905000518,away,42.35,19.63,2.49,1.19,0.26,80.48,159.33,2555274,Dean Lowry,94,2019,32,1,07:12:00,CHI,2,6,GB,0,0,2562502,SHOTGUN,"2 RB, 1 TE, 2 WR",6,"3 DL, 3 LB, 5 DB",left,2019-09-06T00:41:38.000Z,2019-09-06T00:41:37.000Z,6-6,296,06/09/1994,Northwestern,DE,CHI,GB,1,Soldier Field,Chicago,Outdoor,Natural Grass,Clear,65.0,69,10,E
94,2019090500,20190905000518,away,43.25,23.35,2.87,1.16,0.29,167.12,103.8,2555282,Kenny Clark,97,2019,32,1,07:12:00,CHI,2,6,GB,0,0,2562502,SHOTGUN,"2 RB, 1 TE, 2 WR",6,"3 DL, 3 LB, 5 DB",left,2019-09-06T00:41:38.000Z,2019-09-06T00:41:37.000Z,6-3,314,10/04/1995,UCLA,NT,CHI,GB,1,Soldier Field,Chicago,Outdoor,Natural Grass,Clear,65.0,69,10,E
95,2019090500,20190905000518,away,41.85,14.18,0.89,1.18,0.09,51.59,158.74,2557996,Kevin King,20,2019,32,1,07:12:00,CHI,2,6,GB,0,0,2562502,SHOTGUN,"2 RB, 1 TE, 2 WR",6,"3 DL, 3 LB, 5 DB",left,2019-09-06T00:41:38.000Z,2019-09-06T00:41:37.000Z,6-3,200,05/05/1995,Washington,CB,CHI,GB,1,Soldier Field,Chicago,Outdoor,Natural Grass,Clear,65.0,69,10,E
96,2019090500,20190905000518,away,34.6,45.79,0.7,1.13,0.07,105.97,143.15,2560952,Jaire Alexander,23,2019,32,1,07:12:00,CHI,2,6,GB,0,0,2562502,SHOTGUN,"2 RB, 1 TE, 2 WR",6,"3 DL, 3 LB, 5 DB",left,2019-09-06T00:41:38.000Z,2019-09-06T00:41:37.000Z,5-10,196,02/09/1997,Louisville,CB,CHI,GB,1,Soldier Field,Chicago,Outdoor,Natural Grass,Clear,65.0,69,10,E
97,2019090500,20190905000518,away,43.58,26.97,3.71,0.99,0.38,104.51,88.83,2561227,Tyler Lancaster,95,2019,32,1,07:12:00,CHI,2,6,GB,0,0,2562502,SHOTGUN,"2 RB, 1 TE, 2 WR",6,"3 DL, 3 LB, 5 DB",left,2019-09-06T00:41:38.000Z,2019-09-06T00:41:37.000Z,6-3,315,11/04/1994,Northwestern,DT,CHI,GB,1,Soldier Field,Chicago,Outdoor,Natural Grass,Clear,65.0,69,10,E
98,2019090500,20190905000518,away,23.46,33.79,4.15,1.21,0.41,61.9,322.25,2562724,Darnell Savage,26,2019,32,1,07:12:00,CHI,2,6,GB,0,0,2562502,SHOTGUN,"2 RB, 1 TE, 2 WR",6,"3 DL, 3 LB, 5 DB",left,2019-09-06T00:41:38.000Z,2019-09-06T00:41:37.000Z,5-11,200,07/30/1997,Maryland,DB,CHI,GB,1,Soldier Field,Chicago,Outdoor,Natural Grass,Clear,65.0,69,10,E
99,2019090500,20190905000518,home,43.51,28.33,1.37,1.8,0.12,289.03,55.02,2533543,Bobby Massie,70,2019,32,1,07:12:00,CHI,2,6,GB,0,0,2562502,SHOTGUN,"2 RB, 1 TE, 2 WR",6,"3 DL, 3 LB, 5 DB",left,2019-09-06T00:41:38.000Z,2019-09-06T00:41:37.000Z,6-6,325,08/01/1989,Mississippi,T,CHI,GB,1,Soldier Field,Chicago,Outdoor,Natural Grass,Clear,65.0,69,10,E
100,2019090500,20190905000518,home,43.38,25.85,2.38,2.74,0.23,52.38,89.61,2539933,Kyle Long,75,2019,32,1,07:12:00,CHI,2,6,GB,0,0,2562502,SHOTGUN,"2 RB, 1 TE, 2 WR",6,"3 DL, 3 LB, 5 DB",left,2019-09-06T00:41:38.000Z,2019-09-06T00:41:37.000Z,6-6,332,12/05/1988,Oregon,OG,CHI,GB,1,Soldier Field,Chicago,Outdoor,Natural Grass,Clear,65.0,69,10,E
101,2019090500,20190905000518,home,41.02,37.99,4.35,3.37,0.42,90.97,278.91,2543509,Allen Robinson,12,2019,32,1,07:12:00,CHI,2,6,GB,0,0,2562502,SHOTGUN,"2 RB, 1 TE, 2 WR",6,"3 DL, 3 LB, 5 DB",left,2019-09-06T00:41:38.000Z,2019-09-06T00:41:37.000Z,6-2,220,08/24/1993,Penn State,WR,CHI,GB,1,Soldier Field,Chicago,Outdoor,Natural Grass,Clear,65.0,69,10,E
102,2019090500,20190905000518,home,42.81,17.61,3.16,1.39,0.32,54.38,186.59,2550169,Charles Leno Jr.,72,2019,32,1,07:12:00,CHI,2,6,GB,0,0,2562502,SHOTGUN,"2 RB, 1 TE, 2 WR",6,"3 DL, 3 LB, 5 DB",left,2019-09-06T00:41:38.000Z,2019-09-06T00:41:37.000Z,6-3,305,10/09/1991,Boise State,T,CHI,GB,1,Soldier Field,Chicago,Outdoor,Natural Grass,Clear,65.0,69,10,E
103,2019090500,20190905000518,home,40.73,46.37,4.56,2.83,0.44,255.62,265.69,2550617,Taylor Gabriel,18,2019,32,1,07:12:00,CHI,2,6,GB,0,0,2562502,SHOTGUN,"2 RB, 1 TE, 2 WR",6,"3 DL, 3 LB, 5 DB",left,2019-09-06T00:41:38.000Z,2019-09-06T00:41:37.000Z,5-7,167,02/17/1991,Abilene Christian,WR,CHI,GB,1,Soldier Field,Chicago,Outdoor,Natural Grass,Clear,65.0,69,10,E
104,2019090500,20190905000518,home,43.04,19.7,3.16,0.34,0.33,248.18,163.69,2555132,Cody Whitehair,65,2019,32,1,07:12:00,CHI,2,6,GB,0,0,2562502,SHOTGUN,"2 RB, 1 TE, 2 WR",6,"3 DL, 3 LB, 5 DB",left,2019-09-06T00:41:38.000Z,2019-09-06T00:41:37.000Z,6-3,309,07/11/1992,Kansas State,OG,CHI,GB,1,Soldier Field,Chicago,Outdoor,Natural Grass,Clear,65.0,69,10,E
105,2019090500,20190905000518,home,46.68,23.09,0.88,1.43,0.1,274.09,157.75,2558008,Mitchell Trubisky,10,2019,32,1,07:12:00,CHI,2,6,GB,0,0,2562502,SHOTGUN,"2 RB, 1 TE, 2 WR",6,"3 DL, 3 LB, 5 DB",left,2019-09-06T00:41:38.000Z,2019-09-06T00:41:37.000Z,6-2,215,08/20/1994,North Carolina,QB,CHI,GB,1,Soldier Field,Chicago,Outdoor,Natural Grass,Clear,65.0,69,10,E
106,2019090500,20190905000518,home,42.75,14.74,0.76,1.5,0.07,254.13,206.23,2558144,Adam Shaheen,87,2019,32,1,07:12:00,CHI,2,6,GB,0,0,2562502,SHOTGUN,"2 RB, 1 TE, 2 WR",6,"3 DL, 3 LB, 5 DB",left,2019-09-06T00:41:38.000Z,2019-09-06T00:41:37.000Z,6-6,257,10/24/1994,Ashland,TE,CHI,GB,1,Soldier Field,Chicago,Outdoor,Natural Grass,Clear,65.0,69,10,E
107,2019090500,20190905000518,home,39.72,31.94,4.83,2.86,0.47,264.07,270.8,2558250,Tarik Cohen,29,2019,32,1,07:12:00,CHI,2,6,GB,0,0,2562502,SHOTGUN,"2 RB, 1 TE, 2 WR",6,"3 DL, 3 LB, 5 DB",left,2019-09-06T00:41:38.000Z,2019-09-06T00:41:37.000Z,5-6,191,07/26/1995,North Carolina A&T,RB,CHI,GB,1,Soldier Field,Chicago,Outdoor,Natural Grass,Clear,65.0,69,10,E
108,2019090500,20190905000518,home,43.2,22.49,1.75,1.66,0.19,14.4,124.33,2561035,James Daniels,68,2019,32,1,07:12:00,CHI,2,6,GB,0,0,2562502,SHOTGUN,"2 RB, 1 TE, 2 WR",6,"3 DL, 3 LB, 5 DB",left,2019-09-06T00:41:38.000Z,2019-09-06T00:41:37.000Z,6-3,305,09/13/1997,Iowa,C,CHI,GB,1,Soldier Field,Chicago,Outdoor,Natural Grass,Clear,65.0,69,10,E
109,2019090500,20190905000518,home,46.16,23.43,5.34,1.43,0.53,226.17,186.63,2562502,David Montgomery,32,2019,32,1,07:12:00,CHI,2,6,GB,0,0,2562502,SHOTGUN,"2 RB, 1 TE, 2 WR",6,"3 DL, 3 LB, 5 DB",left,2019-09-06T00:41:38.000Z,2019-09-06T00:41:37.000Z,5-10,222,06/07/1997,Iowa State,RB,CHI,GB,1,Soldier Field,Chicago,Outdoor,Natural Grass,Clear,65.0,69,10,E
