,GameId,PlayId,Team,X,Y,S,A,Dis,Orientation,Dir,NflId,DisplayName,JerseyNumber,Season,YardLine,Quarter,GameClock,PossessionTeam,Down,Distance,FieldPosition,HomeScoreBeforePlay,VisitorScoreBeforePlay,NflIdRusher,OffenseFormation,OffensePersonnel,DefendersInTheBox,DefensePersonnel,PlayDirection,TimeHandoff,TimeSnap,PlayerHeight,PlayerWeight,PlayerBirthDate,PlayerCollegeName,Position,HomeTeamAbbr,VisitorTeamAbbr,Week,Stadium,Location,StadiumType,Turf,GameWeather,Temperature,Humidity,WindSpeed,WindDirection
64702,2019100602,20191006024230,away,70.1,21.39,0.43,1.66,0.03,70.74,127.52,2495116,Allen Bailey,93,2019,40,4,03:22:00,HST,1,10,HST,40,32,2543743,SHOTGUN,"1 RB, 2 TE, 2 WR",8,"4 DL, 3 LB, 4 DB",left,2019-10-06T19:58:39.000Z,2019-10-06T19:58:37.000Z,6-3,288,03/25/1989,Miami,DE,HOU,ATL,5,NRG Stadium,"Houston, Texas",Retractable Roof,Artificial,Partly Cloudy,86.0,63,4,E
64703,2019100602,20191006024230,away,68.67,44.82,1.32,3.67,0.12,66.59,314.88,2539334,Desmond Trufant,21,2019,40,4,03:22:00,HST,1,10,HST,40,32,2543743,SHOTGUN,"1 RB, 2 TE, 2 WR",8,"4 DL, 3 LB, 4 DB",left,2019-10-06T19:58:39.000Z,2019-10-06T19:58:37.000Z,6-0,190,09/10/1990,Washington,CB,HOU,ATL,5,NRG Stadium,"Houston, Texas",Retractable Roof,Artificial,Partly Cloudy,86.0,63,4,E
64704,2019100602,20191006024230,away,66.44,21.72,2.59,2.44,0.24,95.87,112.73,2541431,Kemal Ishmael,36,2019,40,4,03:22:00,HST,1,10,HST,40,32,2543743,SHOTGUN,"1 RB, 2 TE, 2 WR",8,"4 DL, 3 LB, 4 DB",left,2019-10-06T19:58:39.000Z,2019-10-06T19:58:37.000Z,6-0,206,05/06/1991,Central Florida,FS,HOU,ATL,5,NRG Stadium,"Houston, Texas",Retractable Roof,Artificial,Partly Cloudy,86.0,63,4,E
64705,2019100602,20191006024230,away,62.76,30.97,4.56,2.34,0.45,118.32,102.9,2543850,Ricardo Allen,37,2019,40,4,03:22:00,HST,1,10,HST,40,32,2543743,SHOTGUN,"1 RB, 2 TE, 2 WR",8,"4 DL, 3 LB, 4 DB",left,2019-10-06T19:58:39.000Z,2019-10-06T19:58:37.000Z,5-9,186,12/18/1991,Purdue,SS,HOU,ATL,5,NRG Stadium,"Houston, Texas",Retractable Roof,Artificial,Partly Cloudy,86.0,63,4,E
64706,2019100602,20191006024230,away,69.46,27.53,2.03,1.24,0.21,91.49,158.24,2552301,Vic Beasley,44,2019,40,4,03:22:00,HST,1,10,HST,40,32,2543743,SHOTGUN,"1 RB, 2 TE, 2 WR",8,"4 DL, 3 LB, 4 DB",left,2019-10-06T19:58:39.000Z,2019-10-06T19:58:37.000Z,6-3,246,07/08/1992,Clemson,OLB,HOU,ATL,5,NRG Stadium,"Houston, Texas",Retractable Roof,Artificial,Partly Cloudy,86.0,63,4,E
64707,2019100602,20191006024230,away,69.22,24.96,1.11,1.16,0.14,115.31,205.15,2552327,Grady Jarrett,97,2019,40,4,03:22:00,HST,1,10,HST,40,32,2543743,SHOTGUN,"1 RB, 2 TE, 2 WR",8,"4 DL, 3 LB, 4 DB",left,2019-10-06T19:58:39.000Z,2019-10-06T19:58:37.000Z,6-0,305,04/28/1993,Clemson,DT,HOU,ATL,5,NRG Stadium,"Houston, Texas",Retractable Roof,Artificial,Partly Cloudy,86.0,63,4,E
64708,2019100602,20191006024230,away,69.84,23.62,0.78,0.68,0.08,73.72,106.41,2552329,Tyeler Davison,96,2019,40,4,03:22:00,HST,1,10,HST,40,32,2543743,SHOTGUN,"1 RB, 2 TE, 2 WR",8,"4 DL, 3 LB, 4 DB",left,2019-10-06T19:58:39.000Z,2019-10-06T19:58:37.000Z,6-2,309,09/03/1992,Fresno State,DT,HOU,ATL,5,NRG Stadium,"Houston, Texas",Retractable Roof,Artificial,Partly Cloudy,86.0,63,4,E
64709,2019100602,20191006024230,away,66.91,26.42,2.61,1.87,0.25,92.32,74.07,2555162,Deion Jones,45,2019,40,4,03:22:00,HST,1,10,HST,40,32,2543743,SHOTGUN,"1 RB, 2 TE, 2 WR",8,"4 DL, 3 LB, 4 DB",left,2019-10-06T19:58:39.000Z,2019-10-06T19:58:37.000Z,6-1,227,11/04/1994,Louisiana State,MLB,HOU,ATL,5,NRG Stadium,"Houston, Texas",Retractable Roof,Artificial,Partly Cloudy,86.0,63,4,E
64710,2019100602,20191006024230,away,67.71,18.1,3.5,0.49,0.35,79.91,165.75,2555255,De'Vondre Campbell,59,2019,40,4,03:22:00,HST,1,10,HST,40,32,2543743,SHOTGUN,"1 RB, 2 TE, 2 WR",8,"4 DL, 3 LB, 4 DB",left,2019-10-06T19:58:39.000Z,2019-10-06T19:58:37.000Z,6-3,232,07/01/1993,Minnesota,OLB,HOU,ATL,5,NRG Stadium,"Houston, Texas",Retractable Roof,Artificial,Partly Cloudy,86.0,63,4,E
64711,2019100602,20191006024230,away,69.94,16.89,1.03,0.98,0.11,61.05,121.15,2557872,Takkarist McKinley,98,2019,40,4,03:22:00,HST,1,10,HST,40,32,2543743,SHOTGUN,"1 RB, 2 TE, 2 WR",8,"4 DL, 3 LB, 4 DB",left,2019-10-06T19:58:39.000Z,2019-10-06T19:58:37.000Z,6-2,265,11/02/1995,UCLA,DE,HOU,ATL,5,NRG Stadium,"Houston, Texas",Retractable Roof,Artificial,Partly Cloudy,86.0,63,4,E
64712,2019100602,20191006024230,away,68.22,36.91,3.03,4.27,0.28,93.52,311.39,2562730,Kendall Sheffield,20,2019,40,4,03:22:00,HST,1,10,HST,40,32,2543743,SHOTGUN,"1 RB, 2 TE, 2 WR",8,"4 DL, 3 LB, 4 DB",left,2019-10-06T19:58:39.000Z,2019-10-06T19:58:37.000Z,5-10,212,05/30/1996,Ohio State,DB,HOU,ATL,5,NRG Stadium,"Houston, Texas",Retractable Roof,Artificial,Partly Cloudy,86.0,63,4,E
64713,2019100602,20191006024230,home,70.55,37.31,3.66,2.84,0.35,256.81,311.7,2540165,DeAndre Hopkins,10,2019,40,4,03:22:00,HST,1,10,HST,40,32,2543743,SHOTGUN,"1 RB, 2 TE, 2 WR",8,"4 DL, 3 LB, 4 DB",left,2019-10-06T19:58:39.000Z,2019-10-06T19:58:37.000Z,6-1,212,06/06/1992,Clemson,WR,HOU,ATL,5,NRG Stadium,"Houston, Texas",Retractable Roof,Artificial,Partly Cloudy,86.0,63,4,E
64714,2019100602,20191006024230,home,70.56,17.49,2.19,2.59,0.23,249.48,197.59,2540928,Darren Fells,87,2019,40,4,03:22:00,HST,1,10,HST,40,32,2543743,SHOTGUN,"1 RB, 2 TE, 2 WR",8,"4 DL, 3 LB, 4 DB",left,2019-10-06T19:58:39.000Z,2019-10-06T19:58:37.000Z,6-7,270,04/22/1986,California-Irvine,TE,HOU,ATL,5,NRG Stadium,"Houston, Texas",Retractable Roof,Artificial,Partly Cloudy,86.0,63,4,E
64715,2019100602,20191006024230,home,74.45,24.89,3.96,3.31,0.38,272.64,231.34,2543743,Carlos Hyde,23,2019,40,4,03:22:00,HST,1,10,HST,40,32,2543743,SHOTGUN,"1 RB, 2 TE, 2 WR",8,"4 DL, 3 LB, 4 DB",left,2019-10-06T19:58:39.000Z,2019-10-06T19:58:37.000Z,6-0,229,09/20/1990,Ohio State,RB,HOU,ATL,5,NRG Stadium,"Houston, Texas",Retractable Roof,Artificial,Partly Cloudy,86.0,63,4,E
64716,2019100602,20191006024230,home,70.04,24.56,1.47,0.34,0.18,265.62,224.07,2543862,Zach Fulton,73,2019,40,4,03:22:00,HST,1,10,HST,40,32,2543743,SHOTGUN,"1 RB, 2 TE, 2 WR",8,"4 DL, 3 LB, 4 DB",left,2019-10-06T19:58:39.000Z,2019-10-06T19:58:37.000Z,6-5,321,09/23/1991,Tennessee,G,HOU,ATL,5,NRG Stadium,"Houston, Texas",Retractable Roof,Artificial,Partly Cloudy,86.0,63,4,E
64717,2019100602,20191006024230,home,70.61,23.41,0.56,0.29,0.06,282.95,138.27,2555189,Nick Martin,66,2019,40,4,03:22:00,HST,1,10,HST,40,32,2543743,SHOTGUN,"1 RB, 2 TE, 2 WR",8,"4 DL, 3 LB, 4 DB",left,2019-10-06T19:58:39.000Z,2019-10-06T19:58:37.000Z,6-4,300,04/29/1993,Notre Dame,C,HOU,ATL,5,NRG Stadium,"Houston, Texas",Retractable Roof,Artificial,Partly Cloudy,86.0,63,4,E
64718,2019100602,20191006024230,home,69.73,18.51,3.55,0.36,0.36,236.28,214.31,2555201,Laremy Tunsil,78,2019,40,4,03:22:00,HST,1,10,HST,40,32,2543743,SHOTGUN,"1 RB, 2 TE, 2 WR",8,"4 DL, 3 LB, 4 DB",left,2019-10-06T19:58:39.000Z,2019-10-06T19:58:37.000Z,6-5,313,08/02/1994,Mississippi,T,HOU,ATL,5,NRG Stadium,"Houston, Texas",Retractable Roof,Artificial,Partly Cloudy,86.0,63,4,E
64719,2019100602,20191006024230,home,69.77,44.97,1.65,0.58,0.16,269.62,297.29,2555346,Will Fuller,15,2019,40,4,03:22:00,HST,1,10,HST,40,32,2543743,SHOTGUN,"1 RB, 2 TE, 2 WR",8,"4 DL, 3 LB, 4 DB",left,2019-10-06T19:58:39.000Z,2019-10-06T19:58:37.000Z,6-0,184,04/16/1994,Notre Dame,WR,HOU,ATL,5,NRG Stadium,"Houston, Texas",Retractable Roof,Artificial,Partly Cloudy,86.0,63,4,E
64720,2019100602,20191006024230,home,74.37,23.88,0.49,0.55,0.05,320.97,302.4,2558063,Deshaun Watson,4,2019,40,4,03:22:00,HST,1,10,HST,40,32,2543743,SHOTGUN,"1 RB, 2 TE, 2 WR",8,"4 DL, 3 LB, 4 DB",left,2019-10-06T19:58:39.000Z,2019-10-06T19:58:37.000Z,6-2,221,09/14/1995,Clemson,QB,HOU,ATL,5,NRG Stadium,"Houston, Texas",Retractable Roof,Artificial,Partly Cloudy,86.0,63,4,E
64721,2019100602,20191006024230,home,72.74,23.93,3.86,2.13,0.38,310.61,310.64,2560951,Jordan Akins,88,2019,40,4,03:22:00,HST,1,10,HST,40,32,2543743,SHOTGUN,"1 RB, 2 TE, 2 WR",8,"4 DL, 3 LB, 4 DB",left,2019-10-06T19:58:39.000Z,2019-10-06T19:58:37.000Z,6-4,243,04/19/1992,Central Florida,TE,HOU,ATL,5,NRG Stadium,"Houston, Texas",Retractable Roof,Artificial,Partly Cloudy,86.0,63,4,E
64722,2019100602,20191006024230,home,69.93,25.38,2.12,0.61,0.22,239.52,218.94,2562286,Tytus Howard,71,2019,40,4,03:22:00,HST,1,10,HST,40,32,2543743,SHOTGUN,"1 RB, 2 TE, 2 WR",8,"4 DL, 3 LB, 4 DB",left,2019-10-06T19:58:39.000Z,2019-10-06T19:58:37.000Z,6-5,322,05/23/1996,Alabama State,T,HOU,ATL,5,NRG Stadium,"Houston, Texas",Retractable Roof,Artificial,Partly Cloudy,86.0,63,4,E
64723,2019100602,20191006024230,home,70.9,21.49,1.01,0.44,0.1,251.49,157.8,2562726,Max Scharping,74,2019,40,4,03:22:00,HST,1,10,HST,40,32,2543743,SHOTGUN,"1 RB, 2 TE, 2 WR",8,"4 DL, 3 LB, 4 DB",left,2019-10-06T19:58:39.000Z,2019-10-06T19:58:37.000Z,6-6,325,08/10/1996,Northern Illinois,T,HOU,ATL,5,NRG Stadium,"Houston, Texas",Retractable Roof,Artificial,Partly Cloudy,86.0,63,4,E
