,GameId,PlayId,Team,X,Y,S,A,Dis,Orientation,Dir,NflId,DisplayName,JerseyNumber,Season,YardLine,Quarter,GameClock,PossessionTeam,Down,Distance,FieldPosition,HomeScoreBeforePlay,VisitorScoreBeforePlay,NflIdRusher,OffenseFormation,OffensePersonnel,DefendersInTheBox,DefensePersonnel,PlayDirection,TimeHandoff,TimeSnap,PlayerHeight,PlayerWeight,PlayerBirthDate,PlayerCollegeName,Position,HomeTeamAbbr,VisitorTeamAbbr,Week,Stadium,Location,StadiumType,Turf,GameWeather,Temperature,Humidity,WindSpeed,WindDirection
26070,2019091510,20190915101545,away,70.47,26.84,5.05,1.58,0.5,298.5,314.0,79607,LeSean McCoy,25,2019,45,2,10:17:00,KC,2,10,KC,10,7,79607,SINGLEBACK,"1 RB, 2 TE, 2 WR",7,"4 DL, 2 LB, 5 DB",left,2019-09-15T21:11:52.000Z,2019-09-15T21:11:50.000Z,5-11,210,07/12/1988,Pittsburgh,RB,OAK,KC,2,Oakland-Alameda County Coliseum,"Oakland, CA",Outdoor,Natural Grass,Sunny,70.0,61,13,WSW
26071,2019091510,20190915101545,away,66.09,30.09,2.57,0.48,0.29,356.39,7.58,2532945,Mitchell Schwartz,71,2019,45,2,10:17:00,KC,2,10,KC,10,7,79607,SINGLEBACK,"1 RB, 2 TE, 2 WR",7,"4 DL, 2 LB, 5 DB",left,2019-09-15T21:11:52.000Z,2019-09-15T21:11:50.000Z,6-5,320,06/08/1989,California,T,OAK,KC,2,Oakland-Alameda County Coliseum,"Oakland, CA",Outdoor,Natural Grass,Sunny,70.0,61,13,WSW
26072,2019091510,20190915101545,away,66.43,18.34,3.21,2.85,0.3,183.83,184.01,2540258,Travis Kelce,87,2019,45,2,10:17:00,KC,2,10,KC,10,7,79607,SINGLEBACK,"1 RB, 2 TE, 2 WR",7,"4 DL, 2 LB, 5 DB",left,2019-09-15T21:11:52.000Z,2019-09-15T21:11:50.000Z,6-5,260,10/05/1989,Cincinnati,TE,OAK,KC,2,Oakland-Alameda County Coliseum,"Oakland, CA",Outdoor,Natural Grass,Sunny,70.0,61,13,WSW
26073,2019091510,20190915101545,away,62.83,13.87,2.88,0.7,0.29,238.06,263.41,2543457,Sammy Watkins,14,2019,45,2,10:17:00,KC,2,10,KC,10,7,79607,SINGLEBACK,"1 RB, 2 TE, 2 WR",7,"4 DL, 2 LB, 5 DB",left,2019-09-15T21:11:52.000Z,2019-09-15T21:11:50.000Z,6-1,211,06/14/1993,Clemson,WR,OAK,KC,2,Oakland-Alameda County Coliseum,"Oakland, CA",Outdoor,Natural Grass,Sunny,70.0,61,13,WSW
26074,2019091510,20190915101545,away,66.31,28.32,2.83,0.56,0.28,312.13,22.75,2543816,Laurent Duvernay-Tardif,76,2019,45,2,10:17:00,KC,2,10,KC,10,7,79607,SINGLEBACK,"1 RB, 2 TE, 2 WR",7,"4 DL, 2 LB, 5 DB",left,2019-09-15T21:11:52.000Z,2019-09-15T21:11:50.000Z,6-5,321,02/11/1991,McGill,G,OAK,KC,2,Oakland-Alameda County Coliseum,"Oakland, CA",Outdoor,Natural Grass,Sunny,70.0,61,13,WSW
26075,2019091510,20190915101545,away,63.52,23.2,2.17,2.91,0.23,251.29,308.16,2552240,Cameron Erving,75,2019,45,2,10:17:00,KC,2,10,KC,10,7,79607,SINGLEBACK,"1 RB, 2 TE, 2 WR",7,"4 DL, 2 LB, 5 DB",left,2019-09-15T21:11:52.000Z,2019-09-15T21:11:50.000Z,6-5,313,08/23/1992,Florida State,G,OAK,KC,2,Oakland-Alameda County Coliseum,"Oakland, CA",Outdoor,Natural Grass,Sunny,70.0,61,13,WSW
26076,2019091510,20190915101545,away,67.94,23.21,5.47,1.92,0.54,204.34,160.31,2552478,Blake Bell,81,2019,45,2,10:17:00,KC,2,10,KC,10,7,79607,SINGLEBACK,"1 RB, 2 TE, 2 WR",7,"4 DL, 2 LB, 5 DB",left,2019-09-15T21:11:52.000Z,2019-09-15T21:11:50.000Z,6-6,252,08/07/1991,Oklahoma,TE,OAK,KC,2,Oakland-Alameda County Coliseum,"Oakland, CA",Outdoor,Natural Grass,Sunny,70.0,61,13,WSW
26077,2019091510,20190915101545,away,64.64,27.62,3.22,1.98,0.34,297.91,331.41,2553452,Austin Reiter,62,2019,45,2,10:17:00,KC,2,10,KC,10,7,79607,SINGLEBACK,"1 RB, 2 TE, 2 WR",7,"4 DL, 2 LB, 5 DB",left,2019-09-15T21:11:52.000Z,2019-09-15T21:11:50.000Z,6-3,300,11/27/1991,South Florida,C,OAK,KC,2,Oakland-Alameda County Coliseum,"Oakland, CA",Outdoor,Natural Grass,Sunny,70.0,61,13,WSW
26078,2019091510,20190915101545,away,61.79,38.04,6.17,1.98,0.6,297.01,315.13,2555478,Demarcus Robinson,11,2019,45,2,10:17:00,KC,2,10,KC,10,7,79607,SINGLEBACK,"1 RB, 2 TE, 2 WR",7,"4 DL, 2 LB, 5 DB",left,2019-09-15T21:11:52.000Z,2019-09-15T21:11:50.000Z,6-1,203,09/21/1994,Florida,WR,OAK,KC,2,Oakland-Alameda County Coliseum,"Oakland, CA",Outdoor,Natural Grass,Sunny,70.0,61,13,WSW
26079,2019091510,20190915101545,away,71.08,25.76,4.86,2.32,0.49,45.64,83.67,2558125,Patrick Mahomes,15,2019,45,2,10:17:00,KC,2,10,KC,10,7,79607,SINGLEBACK,"1 RB, 2 TE, 2 WR",7,"4 DL, 2 LB, 5 DB",left,2019-09-15T21:11:52.000Z,2019-09-15T21:11:50.000Z,6-3,230,09/17/1995,Texas Tech,QB,OAK,KC,2,Oakland-Alameda County Coliseum,"Oakland, CA",Outdoor,Natural Grass,Sunny,70.0,61,13,WSW
26080,2019091510,20190915101545,away,65.85,25.91,2.66,1.65,0.27,264.24,351.22,2559354,Andrew Wylie,77,2019,45,2,10:17:00,KC,2,10,KC,10,7,79607,SINGLEBACK,"1 RB, 2 TE, 2 WR",7,"4 DL, 2 LB, 5 DB",left,2019-09-15T21:11:52.000Z,2019-09-15T21:11:50.000Z,6-6,309,08/19/1994,Eastern Michigan,OT,OAK,KC,2,Oakland-Alameda County Coliseum,"Oakland, CA",Outdoor,Natural Grass,Sunny,70.0,61,13,WSW
26081,2019091510,20190915101545,home,62.42,22.6,2.32,1.8,0.23,64.15,90.73,2532986,Tahir Whitehead,59,2019,45,2,10:17:00,KC,2,10,KC,10,7,79607,SINGLEBACK,"1 RB, 2 TE, 2 WR",7,"4 DL, 2 LB, 5 DB",left,2019-09-15T21:11:52.000Z,2019-09-15T21:11:50.000Z,6-1,241,04/02/1990,Temple,OLB,OAK,KC,2,Oakland-Alameda County Coliseum,"Oakland, CA",Outdoor,Natural Grass,Sunny,70.0,61,13,WSW
26082,2019091510,20190915101545,home,61.93,28.47,3.37,0.15,0.33,92.91,40.65,2533058,Vontaze Burfict,55,2019,45,2,10:17:00,KC,2,10,KC,10,7,79607,SINGLEBACK,"1 RB, 2 TE, 2 WR",7,"4 DL, 2 LB, 5 DB",left,2019-09-15T21:11:52.000Z,2019-09-15T21:11:50.000Z,6-1,255,09/24/1990,Arizona State,OLB,OAK,KC,2,Oakland-Alameda County Coliseum,"Oakland, CA",Outdoor,Natural Grass,Sunny,70.0,61,13,WSW
26083,2019091510,20190915101545,home,65.02,25.83,2.95,0.71,0.31,84.83,359.8,2540147,Johnathan Hankins,90,2019,45,2,10:17:00,KC,2,10,KC,10,7,79607,SINGLEBACK,"1 RB, 2 TE, 2 WR",7,"4 DL, 2 LB, 5 DB",left,2019-09-15T21:11:52.000Z,2019-09-15T21:11:50.000Z,6-3,340,03/30/1992,Ohio State,DT,OAK,KC,2,Oakland-Alameda County Coliseum,"Oakland, CA",Outdoor,Natural Grass,Sunny,70.0,61,13,WSW
26084,2019091510,20190915101545,home,60.37,18.99,2.05,1.49,0.2,91.18,222.57,2543492,Lamarcus Joyner,29,2019,45,2,10:17:00,KC,2,10,KC,10,7,79607,SINGLEBACK,"1 RB, 2 TE, 2 WR",7,"4 DL, 2 LB, 5 DB",left,2019-09-15T21:11:52.000Z,2019-09-15T21:11:50.000Z,5-8,185,11/27/1990,Florida State,FS,OAK,KC,2,Oakland-Alameda County Coliseum,"Oakland, CA",Outdoor,Natural Grass,Sunny,70.0,61,13,WSW
26085,2019091510,20190915101545,home,54.72,30.81,2.0,1.74,0.19,94.34,9.85,2555342,Karl Joseph,42,2019,45,2,10:17:00,KC,2,10,KC,10,7,79607,SINGLEBACK,"1 RB, 2 TE, 2 WR",7,"4 DL, 2 LB, 5 DB",left,2019-09-15T21:11:52.000Z,2019-09-15T21:11:50.000Z,5-10,200,09/08/1993,West Virginia,SS,OAK,KC,2,Oakland-Alameda County Coliseum,"Oakland, CA",Outdoor,Natural Grass,Sunny,70.0,61,13,WSW
26086,2019091510,20190915101545,home,54.3,38.82,3.87,2.59,0.38,88.83,339.89,2555394,Daryl Worley,20,2019,45,2,10:17:00,KC,2,10,KC,10,7,79607,SINGLEBACK,"1 RB, 2 TE, 2 WR",7,"4 DL, 2 LB, 5 DB",left,2019-09-15T21:11:52.000Z,2019-09-15T21:11:50.000Z,6-1,215,02/22/1995,West Virginia,CB,OAK,KC,2,Oakland-Alameda County Coliseum,"Oakland, CA",Outdoor,Natural Grass,Sunny,70.0,61,13,WSW
26087,2019091510,20190915101545,home,50.5,16.53,2.87,0.99,0.29,73.29,250.64,2555568,Erik Harris,25,2019,45,2,10:17:00,KC,2,10,KC,10,7,79607,SINGLEBACK,"1 RB, 2 TE, 2 WR",7,"4 DL, 2 LB, 5 DB",left,2019-09-15T21:11:52.000Z,2019-09-15T21:11:50.000Z,6-2,220,04/02/1990,"California, Pa.",SS,OAK,KC,2,Oakland-Alameda County Coliseum,"Oakland, CA",Outdoor,Natural Grass,Sunny,70.0,61,13,WSW
26088,2019091510,20190915101545,home,66.0,29.2,3.24,0.95,0.33,101.36,27.37,2560748,Maurice Hurst,73,2019,45,2,10:17:00,KC,2,10,KC,10,7,79607,SINGLEBACK,"1 RB, 2 TE, 2 WR",7,"4 DL, 2 LB, 5 DB",left,2019-09-15T21:11:52.000Z,2019-09-15T21:11:50.000Z,6-1,291,05/09/1995,Michigan,DT,OAK,KC,2,Oakland-Alameda County Coliseum,"Oakland, CA",Outdoor,Natural Grass,Sunny,70.0,61,13,WSW
26089,2019091510,20190915101545,home,66.08,31.03,3.2,0.67,0.32,104.74,26.37,2560779,Arden Key,99,2019,45,2,10:17:00,KC,2,10,KC,10,7,79607,SINGLEBACK,"1 RB, 2 TE, 2 WR",7,"4 DL, 2 LB, 5 DB",left,2019-09-15T21:11:52.000Z,2019-09-15T21:11:50.000Z,6-5,240,05/03/1996,Louisiana State,DE,OAK,KC,2,Oakland-Alameda County Coliseum,"Oakland, CA",Outdoor,Natural Grass,Sunny,70.0,61,13,WSW
26090,2019091510,20190915101545,home,61.85,13.36,1.01,1.09,0.1,53.85,248.26,2562380,Trayvon Mullen,27,2019,45,2,10:17:00,KC,2,10,KC,10,7,79607,SINGLEBACK,"1 RB, 2 TE, 2 WR",7,"4 DL, 2 LB, 5 DB",left,2019-09-15T21:11:52.000Z,2019-09-15T21:11:50.000Z,6-2,200,09/20/1997,Clemson,CB,OAK,KC,2,Oakland-Alameda County Coliseum,"Oakland, CA",Outdoor,Natural Grass,Sunny,70.0,61,13,WSW
26091,2019091510,20190915101545,home,68.29,22.35,4.15,2.17,0.42,21.09,57.73,2562439,Maxx Crosby,98,2019,45,2,10:17:00,KC,2,10,KC,10,7,79607,SINGLEBACK,"1 RB, 2 TE, 2 WR",7,"4 DL, 2 LB, 5 DB",left,2019-09-15T21:11:52.000Z,2019-09-15T21:11:50.000Z,6-5,255,08/22/1997,Eastern Michigan,DE,OAK,KC,2,Oakland-Alameda County Coliseum,"Oakland, CA",Outdoor,Natural Grass,Sunny,70.0,61,13,WSW
