,GameId,PlayId,Team,X,Y,S,A,Dis,Orientation,Dir,NflId,DisplayName,JerseyNumber,Season,YardLine,Quarter,GameClock,PossessionTeam,Down,Distance,FieldPosition,HomeScoreBeforePlay,VisitorScoreBeforePlay,NflIdRusher,OffenseFormation,OffensePersonnel,DefendersInTheBox,DefensePersonnel,PlayDirection,TimeHandoff,TimeSnap,PlayerHeight,PlayerWeight,PlayerBirthDate,PlayerCollegeName,Position,HomeTeamAbbr,VisitorTeamAbbr,Week,Stadium,Location,StadiumType,Turf,GameWeather,Temperature,Humidity,WindSpeed,WindDirection
65560,2019100603,20191006033630,away,71.54,28.48,3.15,2.33,0.33,44.9,3.61,496861,Ndamukong Suh,93,2019,39,4,04:32:00,NO,2,6,NO,31,17,2558019,I_FORM,"2 RB, 2 TE, 1 WR",7,"4 DL, 3 LB, 4 DB",left,2019-10-06T19:49:49.000Z,2019-10-06T19:49:48.000Z,6-4,313,01/06/1987,Nebraska,DT,NO,TB,5,Mercedes-Benz Superdome,"New Orleans, LA",Indoors,UBU Speed Series-S5-M,Sunny,85.0,77,7,ENE
65561,2019100603,20191006033630,away,68.57,29.16,5.22,2.26,0.51,39.71,18.06,2532828,Lavonte David,54,2019,39,4,04:32:00,NO,2,6,NO,31,17,2558019,I_FORM,"2 RB, 2 TE, 1 WR",7,"4 DL, 3 LB, 4 DB",left,2019-10-06T19:49:49.000Z,2019-10-06T19:49:48.000Z,6-1,233,01/23/1990,Nebraska,OLB,NO,TB,5,Mercedes-Benz Superdome,"New Orleans, LA",Indoors,UBU Speed Series-S5-M,Sunny,85.0,77,7,ENE
65562,2019100603,20191006033630,away,66.73,26.41,5.41,2.84,0.52,33.55,8.1,2540159,Kevin Minter,51,2019,39,4,04:32:00,NO,2,6,NO,31,17,2558019,I_FORM,"2 RB, 2 TE, 1 WR",7,"4 DL, 3 LB, 4 DB",left,2019-10-06T19:49:49.000Z,2019-10-06T19:49:48.000Z,6-0,246,12/03/1990,Louisiana State,MLB,NO,TB,5,Mercedes-Benz Superdome,"New Orleans, LA",Indoors,UBU Speed Series-S5-M,Sunny,85.0,77,7,ENE
65563,2019100603,20191006033630,away,70.48,23.38,3.14,0.3,0.33,23.5,14.43,2540176,William Gholston,92,2019,39,4,04:32:00,NO,2,6,NO,31,17,2558019,I_FORM,"2 RB, 2 TE, 1 WR",7,"4 DL, 3 LB, 4 DB",left,2019-10-06T19:49:49.000Z,2019-10-06T19:49:48.000Z,6-6,281,07/31/1991,Michigan State,DE,NO,TB,5,Mercedes-Benz Superdome,"New Orleans, LA",Indoors,UBU Speed Series-S5-M,Sunny,85.0,77,7,ENE
65564,2019100603,20191006033630,away,53.23,27.55,2.64,2.23,0.26,86.13,325.03,2540185,Mike Edwards,34,2019,39,4,04:32:00,NO,2,6,NO,31,17,2558019,I_FORM,"2 RB, 2 TE, 1 WR",7,"4 DL, 3 LB, 4 DB",left,2019-10-06T19:49:49.000Z,2019-10-06T19:49:48.000Z,5-10,200,05/18/1996,Kentucky,FS,NO,TB,5,Mercedes-Benz Superdome,"New Orleans, LA",Indoors,UBU Speed Series-S5-M,Sunny,85.0,77,7,ENE
65565,2019100603,20191006033630,away,71.03,31.46,4.24,2.24,0.42,82.35,11.5,2550541,Shaquil Barrett,58,2019,39,4,04:32:00,NO,2,6,NO,31,17,2558019,I_FORM,"2 RB, 2 TE, 1 WR",7,"4 DL, 3 LB, 4 DB",left,2019-10-06T19:49:49.000Z,2019-10-06T19:49:48.000Z,6-2,250,11/17/1992,Colorado State,OLB,NO,TB,5,Mercedes-Benz Superdome,"New Orleans, LA",Indoors,UBU Speed Series-S5-M,Sunny,85.0,77,7,ENE
65566,2019100603,20191006033630,away,71.15,21.82,3.82,2.23,0.38,48.41,6.47,2555270,Carl Nassib,94,2019,39,4,04:32:00,NO,2,6,NO,31,17,2558019,I_FORM,"2 RB, 2 TE, 1 WR",7,"4 DL, 3 LB, 4 DB",left,2019-10-06T19:49:49.000Z,2019-10-06T19:49:48.000Z,6-7,275,04/12/1993,Penn State,DE,NO,TB,5,Mercedes-Benz Superdome,"New Orleans, LA",Indoors,UBU Speed Series-S5-M,Sunny,85.0,77,7,ENE
65567,2019100603,20191006033630,away,70.29,32.95,5.47,1.1,0.55,105.37,37.85,2555299,Vernon Hargreaves III,28,2019,39,4,04:32:00,NO,2,6,NO,31,17,2558019,I_FORM,"2 RB, 2 TE, 1 WR",7,"4 DL, 3 LB, 4 DB",left,2019-10-06T19:49:49.000Z,2019-10-06T19:49:48.000Z,5-10,204,06/03/1995,Florida,CB,NO,TB,5,Mercedes-Benz Superdome,"New Orleans, LA",Indoors,UBU Speed Series-S5-M,Sunny,85.0,77,7,ENE
65568,2019100603,20191006033630,away,71.44,26.54,4.16,0.88,0.43,56.5,12.24,2560909,Vita Vea,50,2019,39,4,04:32:00,NO,2,6,NO,31,17,2558019,I_FORM,"2 RB, 2 TE, 1 WR",7,"4 DL, 3 LB, 4 DB",left,2019-10-06T19:49:49.000Z,2019-10-06T19:49:48.000Z,6-4,347,02/05/1995,Washington,DT,NO,TB,5,Mercedes-Benz Superdome,"New Orleans, LA",Indoors,UBU Speed Series-S5-M,Sunny,85.0,77,7,ENE
65569,2019100603,20191006033630,away,69.44,18.84,4.35,2.7,0.42,21.54,358.59,2560930,Jordan Whitehead,31,2019,39,4,04:32:00,NO,2,6,NO,31,17,2558019,I_FORM,"2 RB, 2 TE, 1 WR",7,"4 DL, 3 LB, 4 DB",left,2019-10-06T19:49:49.000Z,2019-10-06T19:49:48.000Z,5-10,198,03/18/1997,Pittsburgh,DB,NO,TB,5,Mercedes-Benz Superdome,"New Orleans, LA",Indoors,UBU Speed Series-S5-M,Sunny,85.0,77,7,ENE
65570,2019100603,20191006033630,away,68.38,40.93,4.75,3.25,0.46,54.84,331.74,2562635,Sean Murphy-Bunting,26,2019,39,4,04:32:00,NO,2,6,NO,31,17,2558019,I_FORM,"2 RB, 2 TE, 1 WR",7,"4 DL, 3 LB, 4 DB",left,2019-10-06T19:49:49.000Z,2019-10-06T19:49:48.000Z,6-0,195,06/19/1997,Central Michigan,DB,NO,TB,5,Mercedes-Benz Superdome,"New Orleans, LA",Indoors,UBU Speed Series-S5-M,Sunny,85.0,77,7,ENE
65571,2019100603,20191006033630,home,71.77,22.2,4.28,0.92,0.43,320.24,354.43,71265,Jared Cook,87,2019,39,4,04:32:00,NO,2,6,NO,31,17,2558019,I_FORM,"2 RB, 2 TE, 1 WR",7,"4 DL, 3 LB, 4 DB",left,2019-10-06T19:49:49.000Z,2019-10-06T19:49:48.000Z,6-5,254,04/07/1987,South Carolina,TE,NO,TB,5,Mercedes-Benz Superdome,"New Orleans, LA",Indoors,UBU Speed Series-S5-M,Sunny,85.0,77,7,ENE
65572,2019100603,20191006033630,home,72.98,28.37,2.86,0.82,0.3,253.22,16.11,2539248,Larry Warford,67,2019,39,4,04:32:00,NO,2,6,NO,31,17,2558019,I_FORM,"2 RB, 2 TE, 1 WR",7,"4 DL, 3 LB, 4 DB",left,2019-10-06T19:49:49.000Z,2019-10-06T19:49:48.000Z,6-3,317,06/18/1991,Kentucky,G,NO,TB,5,Mercedes-Benz Superdome,"New Orleans, LA",Indoors,UBU Speed Series-S5-M,Sunny,85.0,77,7,ENE
65573,2019100603,20191006033630,home,74.53,28.22,6.08,1.76,0.6,331.73,353.05,2539303,Zach Line,42,2019,39,4,04:32:00,NO,2,6,NO,31,17,2558019,I_FORM,"2 RB, 2 TE, 1 WR",7,"4 DL, 3 LB, 4 DB",left,2019-10-06T19:49:49.000Z,2019-10-06T19:49:48.000Z,6-1,233,04/26/1990,Southern Methodist,FB,NO,TB,5,Mercedes-Benz Superdome,"New Orleans, LA",Indoors,UBU Speed Series-S5-M,Sunny,85.0,77,7,ENE
65574,2019100603,20191006033630,home,70.22,24.02,3.82,1.14,0.41,284.07,337.04,2540228,Terron Armstead,72,2019,39,4,04:32:00,NO,2,6,NO,31,17,2558019,I_FORM,"2 RB, 2 TE, 1 WR",7,"4 DL, 3 LB, 4 DB",left,2019-10-06T19:49:49.000Z,2019-10-06T19:49:48.000Z,6-5,304,07/23/1991,Arkansas-Pine Bluff,T,NO,TB,5,Mercedes-Benz Superdome,"New Orleans, LA",Indoors,UBU Speed Series-S5-M,Sunny,85.0,77,7,ENE
65575,2019100603,20191006033630,home,71.67,31.55,3.8,2.25,0.37,298.3,357.75,2541834,Josh Hill,89,2019,39,4,04:32:00,NO,2,6,NO,31,17,2558019,I_FORM,"2 RB, 2 TE, 1 WR",7,"4 DL, 3 LB, 4 DB",left,2019-10-06T19:49:49.000Z,2019-10-06T19:49:48.000Z,6-5,250,05/21/1990,Idaho State,TE,NO,TB,5,Mercedes-Benz Superdome,"New Orleans, LA",Indoors,UBU Speed Series-S5-M,Sunny,85.0,77,7,ENE
65576,2019100603,20191006033630,home,75.03,24.7,3.34,1.96,0.33,67.98,85.27,2543465,Teddy Bridgewater,5,2019,39,4,04:32:00,NO,2,6,NO,31,17,2558019,I_FORM,"2 RB, 2 TE, 1 WR",7,"4 DL, 3 LB, 4 DB",left,2019-10-06T19:49:49.000Z,2019-10-06T19:49:48.000Z,6-2,215,11/10/1992,Louisville,QB,NO,TB,5,Mercedes-Benz Superdome,"New Orleans, LA",Indoors,UBU Speed Series-S5-M,Sunny,85.0,77,7,ENE
65577,2019100603,20191006033630,home,72.23,26.09,4.08,0.48,0.43,337.77,13.05,2552455,Andrus Peat,75,2019,39,4,04:32:00,NO,2,6,NO,31,17,2558019,I_FORM,"2 RB, 2 TE, 1 WR",7,"4 DL, 3 LB, 4 DB",left,2019-10-06T19:49:49.000Z,2019-10-06T19:49:48.000Z,6-7,316,11/04/1993,Stanford,T,NO,TB,5,Mercedes-Benz Superdome,"New Orleans, LA",Indoors,UBU Speed Series-S5-M,Sunny,85.0,77,7,ENE
65578,2019100603,20191006033630,home,69.2,41.0,5.49,3.67,0.53,296.69,324.91,2556370,Michael Thomas,13,2019,39,4,04:32:00,NO,2,6,NO,31,17,2558019,I_FORM,"2 RB, 2 TE, 1 WR",7,"4 DL, 3 LB, 4 DB",left,2019-10-06T19:49:49.000Z,2019-10-06T19:49:48.000Z,6-3,212,03/03/1993,Ohio State,WR,NO,TB,5,Mercedes-Benz Superdome,"New Orleans, LA",Indoors,UBU Speed Series-S5-M,Sunny,85.0,77,7,ENE
65579,2019100603,20191006033630,home,71.89,30.78,4.09,1.44,0.42,292.1,350.35,2557959,Ryan Ramczyk,71,2019,39,4,04:32:00,NO,2,6,NO,31,17,2558019,I_FORM,"2 RB, 2 TE, 1 WR",7,"4 DL, 3 LB, 4 DB",left,2019-10-06T19:49:49.000Z,2019-10-06T19:49:48.000Z,6-6,314,04/22/1994,Wisconsin,T,NO,TB,5,Mercedes-Benz Superdome,"New Orleans, LA",Indoors,UBU Speed Series-S5-M,Sunny,85.0,77,7,ENE
65580,2019100603,20191006033630,home,77.68,26.87,5.64,2.82,0.55,313.79,333.39,2558019,Alvin Kamara,41,2019,39,4,04:32:00,NO,2,6,NO,31,17,2558019,I_FORM,"2 RB, 2 TE, 1 WR",7,"4 DL, 3 LB, 4 DB",left,2019-10-06T19:49:49.000Z,2019-10-06T19:49:48.000Z,5-10,215,07/25/1995,Tennessee,RB,NO,TB,5,Mercedes-Benz Superdome,"New Orleans, LA",Indoors,UBU Speed Series-S5-M,Sunny,85.0,77,7,ENE
65581,2019100603,20191006033630,home,69.9,27.72,5.16,0.87,0.52,302.04,333.72,2562683,Erik McCoy,78,2019,39,4,04:32:00,NO,2,6,NO,31,17,2558019,I_FORM,"2 RB, 2 TE, 1 WR",7,"4 DL, 3 LB, 4 DB",left,2019-10-06T19:49:49.000Z,2019-10-06T19:49:48.000Z,6-4,315,08/27/1997,Texas A&M,C,NO,TB,5,Mercedes-Benz Superdome,"New Orleans, LA",Indoors,UBU Speed Series-S5-M,Sunny,85.0,77,7,ENE
