,GameId,PlayId,Team,X,Y,S,A,Dis,Orientation,Dir,NflId,DisplayName,JerseyNumber,Season,YardLine,Quarter,GameClock,PossessionTeam,Down,Distance,FieldPosition,HomeScoreBeforePlay,VisitorScoreBeforePlay,NflIdRusher,OffenseFormation,OffensePersonnel,DefendersInTheBox,DefensePersonnel,PlayDirection,TimeHandoff,TimeSnap,PlayerHeight,PlayerWeight,PlayerBirthDate,PlayerCollegeName,Position,HomeTeamAbbr,VisitorTeamAbbr,Week,Stadium,Location,StadiumType,Turf,GameWeather,Temperature,Humidity,WindSpeed,WindDirection
58850,2019092912,20190929120441,away,54.11,33.8,0.25,1.89,0.03,53.79,253.55,2495435,Tyron Smith,77,2019,46,1,08:42:00,DAL,1,10,DAL,0,0,2555224,SHOTGUN,"1 RB, 1 TE, 3 WR",5,"4 DL, 2 LB, 5 DB",right,2019-09-30T00:37:46.000Z,2019-09-30T00:37:45.000Z,6-5,320,12/12/1990,Southern California,T,NO,DAL,4,Mercedes-Benz Superdome,"New Orleans, La.",Indoors,UBU Speed Series-S5-M,Sunny,87.0,62,10,E
58851,2019092912,20190929120441,away,56.02,21.97,4.67,2.82,0.46,49.89,31.85,2495448,Randall Cobb,18,2019,46,1,08:42:00,DAL,1,10,DAL,0,0,2555224,SHOTGUN,"1 RB, 1 TE, 3 WR",5,"4 DL, 2 LB, 5 DB",right,2019-09-30T00:37:46.000Z,2019-09-30T00:37:45.000Z,5-10,192,08/22/1990,Kentucky,WR,NO,DAL,4,Mercedes-Benz Superdome,"New Orleans, La.",Indoors,UBU Speed Series-S5-M,Sunny,87.0,62,10,E
58852,2019092912,20190929120441,away,58.08,37.16,4.26,3.26,0.42,118.78,121.31,2505629,Jason Witten,82,2019,46,1,08:42:00,DAL,1,10,DAL,0,0,2555224,SHOTGUN,"1 RB, 1 TE, 3 WR",5,"4 DL, 2 LB, 5 DB",right,2019-09-30T00:37:46.000Z,2019-09-30T00:37:45.000Z,6-6,263,05/06/1982,Tennessee,TE,NO,DAL,4,Mercedes-Benz Superdome,"New Orleans, La.",Indoors,UBU Speed Series-S5-M,Sunny,87.0,62,10,E
58853,2019092912,20190929120441,away,54.77,27.6,3.76,3.16,0.37,122.97,172.1,2540161,Travis Frederick,72,2019,46,1,08:42:00,DAL,1,10,DAL,0,0,2555224,SHOTGUN,"1 RB, 1 TE, 3 WR",5,"4 DL, 2 LB, 5 DB",right,2019-09-30T00:37:46.000Z,2019-09-30T00:37:45.000Z,6-4,320,03/18/1991,Wisconsin,C,NO,DAL,4,Mercedes-Benz Superdome,"New Orleans, La.",Indoors,UBU Speed Series-S5-M,Sunny,87.0,62,10,E
58854,2019092912,20190929120441,away,55.63,27.56,1.63,0.47,0.18,55.05,140.89,2543480,Zack Martin,70,2019,46,1,08:42:00,DAL,1,10,DAL,0,0,2555224,SHOTGUN,"1 RB, 1 TE, 3 WR",5,"4 DL, 2 LB, 5 DB",right,2019-09-30T00:37:46.000Z,2019-09-30T00:37:45.000Z,6-4,315,11/20/1990,Notre Dame,G,NO,DAL,4,Mercedes-Benz Superdome,"New Orleans, La.",Indoors,UBU Speed Series-S5-M,Sunny,87.0,62,10,E
58855,2019092912,20190929120441,away,56.72,46.15,4.86,3.07,0.48,94.8,97.77,2552487,Amari Cooper,19,2019,46,1,08:42:00,DAL,1,10,DAL,0,0,2555224,SHOTGUN,"1 RB, 1 TE, 3 WR",5,"4 DL, 2 LB, 5 DB",right,2019-09-30T00:37:46.000Z,2019-09-30T00:37:45.000Z,6-1,211,06/17/1994,Alabama,WR,NO,DAL,4,Mercedes-Benz Superdome,"New Orleans, La.",Indoors,UBU Speed Series-S5-M,Sunny,87.0,62,10,E
58856,2019092912,20190929120441,away,57.61,10.74,5.04,3.1,0.49,82.04,81.19,2553434,Devin Smith,15,2019,46,1,08:42:00,DAL,1,10,DAL,0,0,2555224,SHOTGUN,"1 RB, 1 TE, 3 WR",5,"4 DL, 2 LB, 5 DB",right,2019-09-30T00:37:46.000Z,2019-09-30T00:37:45.000Z,6-1,199,03/03/1992,Ohio State,WR,NO,DAL,4,Mercedes-Benz Superdome,"New Orleans, La.",Indoors,UBU Speed Series-S5-M,Sunny,87.0,62,10,E
58857,2019092912,20190929120441,away,54.67,25.77,0.98,0.57,0.1,166.96,152.98,2553505,La'el Collins,71,2019,46,1,08:42:00,DAL,1,10,DAL,0,0,2555224,SHOTGUN,"1 RB, 1 TE, 3 WR",5,"4 DL, 2 LB, 5 DB",right,2019-09-30T00:37:46.000Z,2019-09-30T00:37:45.000Z,6-4,320,07/26/1993,Louisiana State,T,NO,DAL,4,Mercedes-Benz Superdome,"New Orleans, La.",Indoors,UBU Speed Series-S5-M,Sunny,87.0,62,10,E
58858,2019092912,20190929120441,away,51.59,29.84,4.48,1.99,0.44,133.53,156.97,2555224,Ezekiel Elliott,21,2019,46,1,08:42:00,DAL,1,10,DAL,0,0,2555224,SHOTGUN,"1 RB, 1 TE, 3 WR",5,"4 DL, 2 LB, 5 DB",right,2019-09-30T00:37:46.000Z,2019-09-30T00:37:45.000Z,6-0,228,07/22/1995,Ohio State,RB,NO,DAL,4,Mercedes-Benz Superdome,"New Orleans, La.",Indoors,UBU Speed Series-S5-M,Sunny,87.0,62,10,E
58859,2019092912,20190929120441,away,51.06,29.53,0.34,1.53,0.03,87.16,129.02,2555260,Dak Prescott,4,2019,46,1,08:42:00,DAL,1,10,DAL,0,0,2555224,SHOTGUN,"1 RB, 1 TE, 3 WR",5,"4 DL, 2 LB, 5 DB",right,2019-09-30T00:37:46.000Z,2019-09-30T00:37:45.000Z,6-2,238,07/29/1993,Mississippi State,QB,NO,DAL,4,Mercedes-Benz Superdome,"New Orleans, La.",Indoors,UBU Speed Series-S5-M,Sunny,87.0,62,10,E
58860,2019092912,20190929120441,away,54.41,30.88,1.2,1.39,0.12,21.56,247.05,2560934,Connor Williams,52,2019,46,1,08:42:00,DAL,1,10,DAL,0,0,2555224,SHOTGUN,"1 RB, 1 TE, 3 WR",5,"4 DL, 2 LB, 5 DB",right,2019-09-30T00:37:46.000Z,2019-09-30T00:37:45.000Z,6-5,298,05/12/1997,Texas,G,NO,DAL,4,Mercedes-Benz Superdome,"New Orleans, La.",Indoors,UBU Speed Series-S5-M,Sunny,87.0,62,10,E
58861,2019092912,20190929120441,home,54.95,24.75,1.34,2.49,0.14,349.16,254.98,2495184,Cameron Jordan,94,2019,46,1,08:42:00,DAL,1,10,DAL,0,0,2555224,SHOTGUN,"1 RB, 1 TE, 3 WR",5,"4 DL, 2 LB, 5 DB",right,2019-09-30T00:37:46.000Z,2019-09-30T00:37:45.000Z,6-4,287,07/10/1989,California,DE,NO,DAL,4,Mercedes-Benz Superdome,"New Orleans, La.",Indoors,UBU Speed Series-S5-M,Sunny,87.0,62,10,E
58862,2019092912,20190929120441,home,59.94,36.27,1.61,2.47,0.15,273.68,176.31,2533008,Demario Davis,56,2019,46,1,08:42:00,DAL,1,10,DAL,0,0,2555224,SHOTGUN,"1 RB, 1 TE, 3 WR",5,"4 DL, 2 LB, 5 DB",right,2019-09-30T00:37:46.000Z,2019-09-30T00:37:45.000Z,6-2,248,01/11/1989,Arkansas State,ILB,NO,DAL,4,Mercedes-Benz Superdome,"New Orleans, La.",Indoors,UBU Speed Series-S5-M,Sunny,87.0,62,10,E
58863,2019092912,20190929120441,home,60.44,28.5,1.07,3.81,0.09,257.75,211.26,2539982,A.J. Klein,53,2019,46,1,08:42:00,DAL,1,10,DAL,0,0,2555224,SHOTGUN,"1 RB, 1 TE, 3 WR",5,"4 DL, 2 LB, 5 DB",right,2019-09-30T00:37:46.000Z,2019-09-30T00:37:45.000Z,6-1,240,07/30/1991,Iowa State,OLB,NO,DAL,4,Mercedes-Benz Superdome,"New Orleans, La.",Indoors,UBU Speed Series-S5-M,Sunny,87.0,62,10,E
58864,2019092912,20190929120441,home,58.73,23.95,3.75,2.26,0.37,296.31,299.49,2552484,P.J. Williams,26,2019,46,1,08:42:00,DAL,1,10,DAL,0,0,2555224,SHOTGUN,"1 RB, 1 TE, 3 WR",5,"4 DL, 2 LB, 5 DB",right,2019-09-30T00:37:46.000Z,2019-09-30T00:37:45.000Z,6-0,196,06/01/1993,Florida State,CB,NO,DAL,4,Mercedes-Benz Superdome,"New Orleans, La.",Indoors,UBU Speed Series-S5-M,Sunny,87.0,62,10,E
58865,2019092912,20190929120441,home,55.16,31.37,2.15,1.1,0.22,242.63,271.18,2555242,Sheldon Rankins,98,2019,46,1,08:42:00,DAL,1,10,DAL,0,0,2555224,SHOTGUN,"1 RB, 1 TE, 3 WR",5,"4 DL, 2 LB, 5 DB",right,2019-09-30T00:37:46.000Z,2019-09-30T00:37:45.000Z,6-2,305,04/02/1994,Louisville,DT,NO,DAL,4,Mercedes-Benz Superdome,"New Orleans, La.",Indoors,UBU Speed Series-S5-M,Sunny,87.0,62,10,E
58866,2019092912,20190929120441,home,63.11,9.93,2.63,1.0,0.26,316.11,81.77,2555277,Eli Apple,25,2019,46,1,08:42:00,DAL,1,10,DAL,0,0,2555224,SHOTGUN,"1 RB, 1 TE, 3 WR",5,"4 DL, 2 LB, 5 DB",right,2019-09-30T00:37:46.000Z,2019-09-30T00:37:45.000Z,6-1,203,08/09/1995,Ohio State,CB,NO,DAL,4,Mercedes-Benz Superdome,"New Orleans, La.",Indoors,UBU Speed Series-S5-M,Sunny,87.0,62,10,E
58867,2019092912,20190929120441,home,68.09,20.3,1.32,1.12,0.13,284.34,288.61,2555530,Vonn Bell,24,2019,46,1,08:42:00,DAL,1,10,DAL,0,0,2555224,SHOTGUN,"1 RB, 1 TE, 3 WR",5,"4 DL, 2 LB, 5 DB",right,2019-09-30T00:37:46.000Z,2019-09-30T00:37:45.000Z,5-11,205,12/12/1994,Ohio State,FS,NO,DAL,4,Mercedes-Benz Superdome,"New Orleans, La.",Indoors,UBU Speed Series-S5-M,Sunny,87.0,62,10,E
58868,2019092912,20190929120441,home,64.21,46.96,3.08,3.71,0.28,208.04,88.64,2558061,Marshon Lattimore,23,2019,46,1,08:42:00,DAL,1,10,DAL,0,0,2555224,SHOTGUN,"1 RB, 1 TE, 3 WR",5,"4 DL, 2 LB, 5 DB",right,2019-09-30T00:37:46.000Z,2019-09-30T00:37:45.000Z,6-0,192,05/20/1996,Ohio State,CB,NO,DAL,4,Mercedes-Benz Superdome,"New Orleans, La.",Indoors,UBU Speed Series-S5-M,Sunny,87.0,62,10,E
58869,2019092912,20190929120441,home,71.27,35.63,3.81,1.94,0.37,225.12,118.19,2558847,Marcus Williams,43,2019,46,1,08:42:00,DAL,1,10,DAL,0,0,2555224,SHOTGUN,"1 RB, 1 TE, 3 WR",5,"4 DL, 2 LB, 5 DB",right,2019-09-30T00:37:46.000Z,2019-09-30T00:37:45.000Z,6-1,195,09/08/1996,Utah,FS,NO,DAL,4,Mercedes-Benz Superdome,"New Orleans, La.",Indoors,UBU Speed Series-S5-M,Sunny,87.0,62,10,E
58870,2019092912,20190929120441,home,55.24,34.78,1.19,2.36,0.13,229.23,250.62,2561037,Marcus Davenport,92,2019,46,1,08:42:00,DAL,1,10,DAL,0,0,2555224,SHOTGUN,"1 RB, 1 TE, 3 WR",5,"4 DL, 2 LB, 5 DB",right,2019-09-30T00:37:46.000Z,2019-09-30T00:37:45.000Z,6-6,265,09/04/1996,Texas-San Antonio,DE,NO,DAL,4,Mercedes-Benz Superdome,"New Orleans, La.",Indoors,UBU Speed Series-S5-M,Sunny,87.0,62,10,E
58871,2019092912,20190929120441,home,56.4,27.92,1.07,1.16,0.11,254.2,166.06,2563242,Shy Tuttle,99,2019,46,1,08:42:00,DAL,1,10,DAL,0,0,2555224,SHOTGUN,"1 RB, 1 TE, 3 WR",5,"4 DL, 2 LB, 5 DB",right,2019-09-30T00:37:46.000Z,2019-09-30T00:37:45.000Z,6-3,300,10/20/1995,Tennessee,DT,NO,DAL,4,Mercedes-Benz Superdome,"New Orleans, La.",Indoors,UBU Speed Series-S5-M,Sunny,87.0,62,10,E
