,GameId,PlayId,Team,X,Y,S,A,Dis,Orientation,Dir,NflId,DisplayName,JerseyNumber,Season,YardLine,Quarter,GameClock,PossessionTeam,Down,Distance,FieldPosition,HomeScoreBeforePlay,VisitorScoreBeforePlay,NflIdRusher,OffenseFormation,OffensePersonnel,DefendersInTheBox,DefensePersonnel,PlayDirection,TimeHandoff,TimeSnap,PlayerHeight,PlayerWeight,PlayerBirthDate,PlayerCollegeName,Position,HomeTeamAbbr,VisitorTeamAbbr,Week,Stadium,Location,StadiumType,Turf,GameWeather,Temperature,Humidity,WindSpeed,WindDirection
45188,2019092300,20190923001489,away,40.72,29.07,1.26,3.8,0.15,280.85,215.52,2539933,Kyle Long,75,2019,31,2,09:26:00,CHI,1,10,WAS,0,7,2562502,I_FORM,"2 RB, 0 TE, 3 WR",6,"3 DL, 3 LB, 5 DB",left,2019-09-24T01:09:33.000Z,2019-09-24T01:09:32.000Z,6-6,332,12/05/1988,Oregon,OG,WAS,CHI,3,FedexField,"Landover, MD",Outdoor,Grass,Cloudy,87.0,39,5,SW
45189,2019092300,20190923001489,away,39.65,36.77,3.24,2.62,0.31,114.07,307.07,2543509,Allen Robinson,12,2019,31,2,09:26:00,CHI,1,10,WAS,0,7,2562502,I_FORM,"2 RB, 0 TE, 3 WR",6,"3 DL, 3 LB, 5 DB",left,2019-09-24T01:09:33.000Z,2019-09-24T01:09:32.000Z,6-2,220,08/24/1993,Penn State,WR,WAS,CHI,3,FedexField,"Landover, MD",Outdoor,Grass,Cloudy,87.0,39,5,SW
45190,2019092300,20190923001489,away,41.22,26.85,0.15,1.04,0.01,10.68,200.48,2550169,Charles Leno Jr.,72,2019,31,2,09:26:00,CHI,1,10,WAS,0,7,2562502,I_FORM,"2 RB, 0 TE, 3 WR",6,"3 DL, 3 LB, 5 DB",left,2019-09-24T01:09:33.000Z,2019-09-24T01:09:32.000Z,6-3,305,10/09/1991,Boise State,T,WAS,CHI,3,FedexField,"Landover, MD",Outdoor,Grass,Cloudy,87.0,39,5,SW
45191,2019092300,20190923001489,away,40.28,32.93,1.7,0.56,0.18,264.37,233.71,2550221,Cornelius Lucas,73,2019,31,2,09:26:00,CHI,1,10,WAS,0,7,2562502,I_FORM,"2 RB, 0 TE, 3 WR",6,"3 DL, 3 LB, 5 DB",left,2019-09-24T01:09:33.000Z,2019-09-24T01:09:32.000Z,6-8,328,07/18/1991,Kansas State,T,WAS,CHI,3,FedexField,"Landover, MD",Outdoor,Grass,Cloudy,87.0,39,5,SW
45192,2019092300,20190923001489,away,40.7,45.42,1.53,3.02,0.16,270.35,254.77,2550617,Taylor Gabriel,18,2019,31,2,09:26:00,CHI,1,10,WAS,0,7,2562502,I_FORM,"2 RB, 0 TE, 3 WR",6,"3 DL, 3 LB, 5 DB",left,2019-09-24T01:09:33.000Z,2019-09-24T01:09:32.000Z,5-7,167,02/17/1991,Abilene Christian,WR,WAS,CHI,3,FedexField,"Landover, MD",Outdoor,Grass,Cloudy,87.0,39,5,SW
45193,2019092300,20190923001489,away,41.14,30.58,3.76,1.16,0.38,287.68,344.5,2555132,Cody Whitehair,65,2019,31,2,09:26:00,CHI,1,10,WAS,0,7,2562502,I_FORM,"2 RB, 0 TE, 3 WR",6,"3 DL, 3 LB, 5 DB",left,2019-09-24T01:09:33.000Z,2019-09-24T01:09:32.000Z,6-3,309,07/11/1992,Kansas State,OG,WAS,CHI,3,FedexField,"Landover, MD",Outdoor,Grass,Cloudy,87.0,39,5,SW
45194,2019092300,20190923001489,away,43.94,29.59,2.67,2.22,0.27,214.11,110.95,2558008,Mitchell Trubisky,10,2019,31,2,09:26:00,CHI,1,10,WAS,0,7,2562502,I_FORM,"2 RB, 0 TE, 3 WR",6,"3 DL, 3 LB, 5 DB",left,2019-09-24T01:09:33.000Z,2019-09-24T01:09:32.000Z,6-2,215,08/20/1994,North Carolina,QB,WAS,CHI,3,FedexField,"Landover, MD",Outdoor,Grass,Cloudy,87.0,39,5,SW
45195,2019092300,20190923001489,away,45.98,36.88,4.96,1.92,0.5,275.61,353.8,2558250,Tarik Cohen,29,2019,31,2,09:26:00,CHI,1,10,WAS,0,7,2562502,I_FORM,"2 RB, 0 TE, 3 WR",6,"3 DL, 3 LB, 5 DB",left,2019-09-24T01:09:33.000Z,2019-09-24T01:09:32.000Z,5-6,191,07/26/1995,North Carolina A&T,RB,WAS,CHI,3,FedexField,"Landover, MD",Outdoor,Grass,Cloudy,87.0,39,5,SW
45196,2019092300,20190923001489,away,38.54,11.32,4.02,1.98,0.4,264.09,286.09,2560939,Javon Wims,83,2019,31,2,09:26:00,CHI,1,10,WAS,0,7,2562502,I_FORM,"2 RB, 0 TE, 3 WR",6,"3 DL, 3 LB, 5 DB",left,2019-09-24T01:09:33.000Z,2019-09-24T01:09:32.000Z,6-2,221,09/11/1994,Georgia,WR,WAS,CHI,3,FedexField,"Landover, MD",Outdoor,Grass,Cloudy,87.0,39,5,SW
45197,2019092300,20190923001489,away,40.09,26.95,2.38,1.24,0.26,176.04,192.96,2561035,James Daniels,68,2019,31,2,09:26:00,CHI,1,10,WAS,0,7,2562502,I_FORM,"2 RB, 0 TE, 3 WR",6,"3 DL, 3 LB, 5 DB",left,2019-09-24T01:09:33.000Z,2019-09-24T01:09:32.000Z,6-3,305,09/13/1997,Iowa,C,WAS,CHI,3,FedexField,"Landover, MD",Outdoor,Grass,Cloudy,87.0,39,5,SW
45198,2019092300,20190923001489,away,44.05,28.66,4.98,3.15,0.48,276.58,304.6,2562502,David Montgomery,32,2019,31,2,09:26:00,CHI,1,10,WAS,0,7,2562502,I_FORM,"2 RB, 0 TE, 3 WR",6,"3 DL, 3 LB, 5 DB",left,2019-09-24T01:09:33.000Z,2019-09-24T01:09:32.000Z,5-10,222,06/07/1997,Iowa State,RB,WAS,CHI,3,FedexField,"Landover, MD",Outdoor,Grass,Cloudy,87.0,39,5,SW
45199,2019092300,20190923001489,home,39.64,45.87,1.51,3.56,0.15,125.13,164.14,2532920,Josh Norman,24,2019,31,2,09:26:00,CHI,1,10,WAS,0,7,2562502,I_FORM,"2 RB, 0 TE, 3 WR",6,"3 DL, 3 LB, 5 DB",left,2019-09-24T01:09:33.000Z,2019-09-24T01:09:32.000Z,6-0,200,12/15/1987,Coastal Carolina,CB,WAS,CHI,3,FedexField,"Landover, MD",Outdoor,Grass,Cloudy,87.0,39,5,SW
45200,2019092300,20190923001489,home,37.48,31.0,1.31,0.55,0.13,83.27,53.84,2539978,Jon Bostic,53,2019,31,2,09:26:00,CHI,1,10,WAS,0,7,2562502,I_FORM,"2 RB, 0 TE, 3 WR",6,"3 DL, 3 LB, 5 DB",left,2019-09-24T01:09:33.000Z,2019-09-24T01:09:32.000Z,6-1,245,05/05/1991,Florida,ILB,WAS,CHI,3,FedexField,"Landover, MD",Outdoor,Grass,Cloudy,87.0,39,5,SW
45201,2019092300,20190923001489,home,31.28,24.1,1.69,4.16,0.15,84.75,49.13,2552454,Landon Collins,20,2019,31,2,09:26:00,CHI,1,10,WAS,0,7,2562502,I_FORM,"2 RB, 0 TE, 3 WR",6,"3 DL, 3 LB, 5 DB",left,2019-09-24T01:09:33.000Z,2019-09-24T01:09:32.000Z,6-0,218,01/10/1994,Alabama,SS,WAS,CHI,3,FedexField,"Landover, MD",Outdoor,Grass,Cloudy,87.0,39,5,SW
45202,2019092300,20190923001489,home,40.4,34.39,1.47,0.95,0.15,115.22,53.83,2555240,Matthew Ioannidis,98,2019,31,2,09:26:00,CHI,1,10,WAS,0,7,2562502,I_FORM,"2 RB, 0 TE, 3 WR",6,"3 DL, 3 LB, 5 DB",left,2019-09-24T01:09:33.000Z,2019-09-24T01:09:32.000Z,6-3,310,01/11/1994,Temple,DE,WAS,CHI,3,FedexField,"Landover, MD",Outdoor,Grass,Cloudy,87.0,39,5,SW
45203,2019092300,20190923001489,home,40.93,26.0,1.36,1.49,0.13,52.37,118.44,2557844,Jonathan Allen,93,2019,31,2,09:26:00,CHI,1,10,WAS,0,7,2562502,I_FORM,"2 RB, 0 TE, 3 WR",6,"3 DL, 3 LB, 5 DB",left,2019-09-24T01:09:33.000Z,2019-09-24T01:09:32.000Z,6-3,300,01/16/1995,Alabama,DE,WAS,CHI,3,FedexField,"Landover, MD",Outdoor,Grass,Cloudy,87.0,39,5,SW
45204,2019092300,20190923001489,home,39.72,37.55,3.41,1.2,0.34,94.03,17.96,2557853,Ryan Anderson,52,2019,31,2,09:26:00,CHI,1,10,WAS,0,7,2562502,I_FORM,"2 RB, 0 TE, 3 WR",6,"3 DL, 3 LB, 5 DB",left,2019-09-24T01:09:33.000Z,2019-09-24T01:09:32.000Z,6-2,253,08/12/1994,Alabama,OLB,WAS,CHI,3,FedexField,"Landover, MD",Outdoor,Grass,Cloudy,87.0,39,5,SW
45205,2019092300,20190923001489,home,26.45,34.39,2.55,1.42,0.27,82.12,299.18,2558133,Montae Nicholson,35,2019,31,2,09:26:00,CHI,1,10,WAS,0,7,2562502,I_FORM,"2 RB, 0 TE, 3 WR",6,"3 DL, 3 LB, 5 DB",left,2019-09-24T01:09:33.000Z,2019-09-24T01:09:32.000Z,6-2,212,12/04/1995,Michigan State,FS,WAS,CHI,3,FedexField,"Landover, MD",Outdoor,Grass,Cloudy,87.0,39,5,SW
45206,2019092300,20190923001489,home,34.3,10.98,1.64,1.72,0.16,43.55,322.94,2558136,Fabian Moreau,31,2019,31,2,09:26:00,CHI,1,10,WAS,0,7,2562502,I_FORM,"2 RB, 0 TE, 3 WR",6,"3 DL, 3 LB, 5 DB",left,2019-09-24T01:09:33.000Z,2019-09-24T01:09:32.000Z,6-0,204,04/09/1994,UCLA,CB,WAS,CHI,3,FedexField,"Landover, MD",Outdoor,Grass,Cloudy,87.0,39,5,SW
45207,2019092300,20190923001489,home,40.08,29.47,0.71,1.66,0.06,119.14,319.92,2560834,Daron Payne,94,2019,31,2,09:26:00,CHI,1,10,WAS,0,7,2562502,I_FORM,"2 RB, 0 TE, 3 WR",6,"3 DL, 3 LB, 5 DB",left,2019-09-24T01:09:33.000Z,2019-09-24T01:09:32.000Z,6-3,320,05/27/1997,Alabama,NT,WAS,CHI,3,FedexField,"Landover, MD",Outdoor,Grass,Cloudy,87.0,39,5,SW
45208,2019092300,20190923001489,home,40.23,24.28,0.16,2.26,0.02,36.79,154.57,2562749,Montez Sweat,90,2019,31,2,09:26:00,CHI,1,10,WAS,0,7,2562502,I_FORM,"2 RB, 0 TE, 3 WR",6,"3 DL, 3 LB, 5 DB",left,2019-09-24T01:09:33.000Z,2019-09-24T01:09:32.000Z,6-6,262,09/04/1996,Mississippi State,LB,WAS,CHI,3,FedexField,"Landover, MD",Outdoor,Grass,Cloudy,87.0,39,5,SW
45209,2019092300,20190923001489,home,37.21,38.66,3.75,1.94,0.37,65.65,25.24,2562858,Jimmy Moreland,32,2019,31,2,09:26:00,CHI,1,10,WAS,0,7,2562502,I_FORM,"2 RB, 0 TE, 3 WR",6,"3 DL, 3 LB, 5 DB",left,2019-09-24T01:09:33.000Z,2019-09-24T01:09:32.000Z,5-11,182,08/26/1995,James Madison,DB,WAS,CHI,3,FedexField,"Landover, MD",Outdoor,Grass,Cloudy,87.0,39,5,SW
