,GameId,PlayId,Team,X,Y,S,A,Dis,Orientation,Dir,NflId,DisplayName,JerseyNumber,Season,YardLine,Quarter,GameClock,PossessionTeam,Down,Distance,FieldPosition,HomeScoreBeforePlay,VisitorScoreBeforePlay,NflIdRusher,OffenseFormation,OffensePersonnel,DefendersInTheBox,DefensePersonnel,PlayDirection,TimeHandoff,TimeSnap,PlayerHeight,PlayerWeight,PlayerBirthDate,PlayerCollegeName,Position,HomeTeamAbbr,VisitorTeamAbbr,Week,Stadium,Location,StadiumType,Turf,GameWeather,Temperature,Humidity,WindSpeed,WindDirection
9416,2019090809,20190908091988,away,17.63,30.72,0.58,1.86,0.06,108.91,98.77,2532826,Mike Daniels,96,2019,8,2,01:40:00,ARZ,1,8,DET,0,17,2553435,SHOTGUN,"1 RB, 0 TE, 4 WR",6,"3 DL, 3 LB, 5 DB",left,2019-09-08T21:43:45.000Z,2019-09-08T21:43:44.000Z,6-0,310,05/05/1989,Iowa,DT,ARI,DET,1,State Farm Stadium,"Glendale, AZ",Dome,Grass,,,0,,
9417,2019090809,20190908091988,away,14.32,10.1,2.32,2.43,0.23,86.91,255.88,2540288,Darius Slay,23,2019,8,2,01:40:00,ARZ,1,8,DET,0,17,2553435,SHOTGUN,"1 RB, 0 TE, 4 WR",6,"3 DL, 3 LB, 5 DB",left,2019-09-08T21:43:45.000Z,2019-09-08T21:43:44.000Z,6-0,190,01/01/1991,Mississippi State,CB,ARI,DET,1,State Farm Stadium,"Glendale, AZ",Dome,Grass,,,0,,
9418,2019090809,20190908091988,away,16.18,45.99,1.53,2.14,0.14,28.49,310.08,2541200,Rashaan Melvin,29,2019,8,2,01:40:00,ARZ,1,8,DET,0,17,2553435,SHOTGUN,"1 RB, 0 TE, 4 WR",6,"3 DL, 3 LB, 5 DB",left,2019-09-08T21:43:45.000Z,2019-09-08T21:43:44.000Z,6-2,196,10/02/1989,Northern Illinois,CB,ARI,DET,1,State Farm Stadium,"Glendale, AZ",Dome,Grass,,,0,,
9419,2019090809,20190908091988,away,18.68,34.02,1.43,2.3,0.15,155.16,111.99,2543869,Devon Kennard,42,2019,8,2,01:40:00,ARZ,1,8,DET,0,17,2553435,SHOTGUN,"1 RB, 0 TE, 4 WR",6,"3 DL, 3 LB, 5 DB",left,2019-09-08T21:43:45.000Z,2019-09-08T21:43:44.000Z,6-3,256,06/24/1991,Southern California,OLB,ARI,DET,1,State Farm Stadium,"Glendale, AZ",Dome,Grass,,,0,,
9420,2019090809,20190908091988,away,15.36,30.74,3.61,1.31,0.36,90.18,35.87,2550572,Christian Jones,52,2019,8,2,01:40:00,ARZ,1,8,DET,0,17,2553435,SHOTGUN,"1 RB, 0 TE, 4 WR",6,"3 DL, 3 LB, 5 DB",left,2019-09-08T21:43:45.000Z,2019-09-08T21:43:44.000Z,6-3,250,02/18/1991,Florida State,ILB,ARI,DET,1,State Farm Stadium,"Glendale, AZ",Dome,Grass,,,0,,
9421,2019090809,20190908091988,away,11.42,26.33,2.03,2.85,0.19,75.18,141.28,2552262,Quandre Diggs,28,2019,8,2,01:40:00,ARZ,1,8,DET,0,17,2553435,SHOTGUN,"1 RB, 0 TE, 4 WR",6,"3 DL, 3 LB, 5 DB",left,2019-09-08T21:43:45.000Z,2019-09-08T21:43:44.000Z,5-9,197,01/22/1993,Texas,CB,ARI,DET,1,State Farm Stadium,"Glendale, AZ",Dome,Grass,,,0,,
9422,2019090809,20190908091988,away,18.66,24.78,1.32,1.51,0.13,79.97,94.23,2552278,Trey Flowers,90,2019,8,2,01:40:00,ARZ,1,8,DET,0,17,2553435,SHOTGUN,"1 RB, 0 TE, 4 WR",6,"3 DL, 3 LB, 5 DB",left,2019-09-08T21:43:45.000Z,2019-09-08T21:43:44.000Z,6-2,265,08/16/1993,Arkansas,DE,ARI,DET,1,State Farm Stadium,"Glendale, AZ",Dome,Grass,,,0,,
9423,2019090809,20190908091988,away,15.86,40.45,3.42,3.8,0.33,52.08,329.71,2553637,Justin Coleman,27,2019,8,2,01:40:00,ARZ,1,8,DET,0,17,2553435,SHOTGUN,"1 RB, 0 TE, 4 WR",6,"3 DL, 3 LB, 5 DB",left,2019-09-08T21:43:45.000Z,2019-09-08T21:43:44.000Z,5-11,190,03/27/1993,Tennessee,CB,ARI,DET,1,State Farm Stadium,"Glendale, AZ",Dome,Grass,,,0,,
9424,2019090809,20190908091988,away,17.17,28.7,0.24,2.0,0.03,83.37,68.91,2555265,A'Shawn Robinson,91,2019,8,2,01:40:00,ARZ,1,8,DET,0,17,2553435,SHOTGUN,"1 RB, 0 TE, 4 WR",6,"3 DL, 3 LB, 5 DB",left,2019-09-08T21:43:45.000Z,2019-09-08T21:43:44.000Z,6-4,330,03/21/1995,Alabama,DT,ARI,DET,1,State Farm Stadium,"Glendale, AZ",Dome,Grass,,,0,,
9425,2019090809,20190908091988,away,15.46,32.51,3.28,2.38,0.31,111.2,73.91,2557924,Jalen Reeves-Maybin,44,2019,8,2,01:40:00,ARZ,1,8,DET,0,17,2553435,SHOTGUN,"1 RB, 0 TE, 4 WR",6,"3 DL, 3 LB, 5 DB",left,2019-09-08T21:43:45.000Z,2019-09-08T21:43:44.000Z,6-0,233,01/31/1995,Tennessee,OLB,ARI,DET,1,State Farm Stadium,"Glendale, AZ",Dome,Grass,,,0,,
9426,2019090809,20190908091988,away,13.3,17.27,2.51,1.9,0.25,59.53,322.51,2560913,Tracy Walker,47,2019,8,2,01:40:00,ARZ,1,8,DET,0,17,2553435,SHOTGUN,"1 RB, 0 TE, 4 WR",6,"3 DL, 3 LB, 5 DB",left,2019-09-08T21:43:45.000Z,2019-09-08T21:43:44.000Z,6-1,210,02/01/1995,Louisiana-Lafayette,DB,ARI,DET,1,State Farm Stadium,"Glendale, AZ",Dome,Grass,,,0,,
9427,2019090809,20190908091988,home,17.71,29.11,0.82,1.4,0.07,263.06,331.09,71461,A.Q. Shipley,53,2019,8,2,01:40:00,ARZ,1,8,DET,0,17,2553435,SHOTGUN,"1 RB, 0 TE, 4 WR",6,"3 DL, 3 LB, 5 DB",left,2019-09-08T21:43:45.000Z,2019-09-08T21:43:44.000Z,6-1,307,05/22/1986,Penn State,C,ARI,DET,1,State Farm Stadium,"Glendale, AZ",Dome,Grass,,,0,,
9428,2019090809,20190908091988,home,16.91,18.11,4.47,3.69,0.44,318.28,318.54,2506106,Larry Fitzgerald,11,2019,8,2,01:40:00,ARZ,1,8,DET,0,17,2553435,SHOTGUN,"1 RB, 0 TE, 4 WR",6,"3 DL, 3 LB, 5 DB",left,2019-09-08T21:43:45.000Z,2019-09-08T21:43:44.000Z,6-3,218,08/31/1983,Pittsburgh,WR,ARI,DET,1,State Farm Stadium,"Glendale, AZ",Dome,Grass,,,0,,
9429,2019090809,20190908091988,home,18.13,30.74,0.74,1.26,0.07,264.41,173.32,2533342,J.R. Sweezy,64,2019,8,2,01:40:00,ARZ,1,8,DET,0,17,2553435,SHOTGUN,"1 RB, 0 TE, 4 WR",6,"3 DL, 3 LB, 5 DB",left,2019-09-08T21:43:45.000Z,2019-09-08T21:43:44.000Z,6-5,310,04/08/1989,North Carolina State,G,ARI,DET,1,State Farm Stadium,"Glendale, AZ",Dome,Grass,,,0,,
9430,2019090809,20190908091988,home,19.3,31.52,4.21,0.96,0.42,344.54,357.57,2540195,Justin Pugh,67,2019,8,2,01:40:00,ARZ,1,8,DET,0,17,2553435,SHOTGUN,"1 RB, 0 TE, 4 WR",6,"3 DL, 3 LB, 5 DB",left,2019-09-08T21:43:45.000Z,2019-09-08T21:43:44.000Z,6-5,311,08/15/1990,Syracuse,G,ARI,DET,1,State Farm Stadium,"Glendale, AZ",Dome,Grass,,,0,,
9431,2019090809,20190908091988,home,19.58,29.63,4.03,2.64,0.4,278.52,359.67,2552626,D.J. Humphries,74,2019,8,2,01:40:00,ARZ,1,8,DET,0,17,2553435,SHOTGUN,"1 RB, 0 TE, 4 WR",6,"3 DL, 3 LB, 5 DB",left,2019-09-08T21:43:45.000Z,2019-09-08T21:43:44.000Z,6-5,307,12/28/1993,Florida,OT,ARI,DET,1,State Farm Stadium,"Glendale, AZ",Dome,Grass,,,0,,
9432,2019090809,20190908091988,home,22.37,28.11,5.71,2.1,0.57,189.75,182.39,2553435,David Johnson,31,2019,8,2,01:40:00,ARZ,1,8,DET,0,17,2553435,SHOTGUN,"1 RB, 0 TE, 4 WR",6,"3 DL, 3 LB, 5 DB",left,2019-09-08T21:43:45.000Z,2019-09-08T21:43:44.000Z,6-1,224,12/16/1991,Northern Iowa,RB,ARI,DET,1,State Farm Stadium,"Glendale, AZ",Dome,Grass,,,0,,
9433,2019090809,20190908091988,home,15.93,9.51,4.45,2.2,0.44,268.91,250.9,2553499,Damiere Byrd,14,2019,8,2,01:40:00,ARZ,1,8,DET,0,17,2553435,SHOTGUN,"1 RB, 0 TE, 4 WR",6,"3 DL, 3 LB, 5 DB",left,2019-09-08T21:43:45.000Z,2019-09-08T21:43:44.000Z,5-9,180,01/27/1993,South Carolina,WR,ARI,DET,1,State Farm Stadium,"Glendale, AZ",Dome,Grass,,,0,,
9434,2019090809,20190908091988,home,17.48,31.58,1.32,3.18,0.13,193.02,290.84,2556628,Justin Murray,71,2019,8,2,01:40:00,ARZ,1,8,DET,0,17,2553435,SHOTGUN,"1 RB, 0 TE, 4 WR",6,"3 DL, 3 LB, 5 DB",left,2019-09-08T21:43:45.000Z,2019-09-08T21:43:44.000Z,6-5,315,04/19/1993,Cincinnati,OT,ARI,DET,1,State Farm Stadium,"Glendale, AZ",Dome,Grass,,,0,,
9435,2019090809,20190908091988,home,16.7,40.75,3.94,2.94,0.38,313.31,322.67,2560781,Christian Kirk,13,2019,8,2,01:40:00,ARZ,1,8,DET,0,17,2553435,SHOTGUN,"1 RB, 0 TE, 4 WR",6,"3 DL, 3 LB, 5 DB",left,2019-09-08T21:43:45.000Z,2019-09-08T21:43:44.000Z,5-11,200,11/18/1996,Texas A&M,WR,ARI,DET,1,State Farm Stadium,"Glendale, AZ",Dome,Grass,,,0,,
9436,2019090809,20190908091988,home,22.68,28.33,3.05,2.5,0.29,233.42,189.81,2562382,Kyler Murray,1,2019,8,2,01:40:00,ARZ,1,8,DET,0,17,2553435,SHOTGUN,"1 RB, 0 TE, 4 WR",6,"3 DL, 3 LB, 5 DB",left,2019-09-08T21:43:45.000Z,2019-09-08T21:43:44.000Z,5-10,207,08/07/1997,Oklahoma,QB,ARI,DET,1,State Farm Stadium,"Glendale, AZ",Dome,Grass,,,0,,
9437,2019090809,20190908091988,home,17.07,46.57,3.78,3.1,0.37,269.09,318.88,2562677,KeeSean Johnson,19,2019,8,2,01:40:00,ARZ,1,8,DET,0,17,2553435,SHOTGUN,"1 RB, 0 TE, 4 WR",6,"3 DL, 3 LB, 5 DB",left,2019-09-08T21:43:45.000Z,2019-09-08T21:43:44.000Z,6-1,199,10/09/1996,Fresno State,WR,ARI,DET,1,State Farm Stadium,"Glendale, AZ",Dome,Grass,,,0,,
