,GameId,PlayId,Team,X,Y,S,A,Dis,Orientation,Dir,NflId,DisplayName,JerseyNumber,Season,YardLine,Quarter,GameClock,PossessionTeam,Down,Distance,FieldPosition,HomeScoreBeforePlay,VisitorScoreBeforePlay,NflIdRusher,OffenseFormation,OffensePersonnel,DefendersInTheBox,DefensePersonnel,PlayDirection,TimeHandoff,TimeSnap,PlayerHeight,PlayerWeight,PlayerBirthDate,PlayerCollegeName,Position,HomeTeamAbbr,VisitorTeamAbbr,Week,Stadium,Location,StadiumType,Turf,GameWeather,Temperature,Humidity,WindSpeed,WindDirection
25322,2019091509,20190915092177,away,54.15,28.51,1.64,0.61,0.16,68.09,351.21,2495435,Tyron Smith,77,2019,46,3,13:53:00,DAL,1,10,DAL,7,14,2555224,SHOTGUN,"1 RB, 1 TE, 3 WR",6,"2 DL, 4 LB, 5 DB",right,2019-09-15T18:40:28.000Z,2019-09-15T18:40:27.000Z,6-5,320,12/12/1990,Southern California,T,WAS,DAL,2,FedExField,"Landover, MD",Outdoor,Grass,Sunny,80.0,46,7,WNW
25323,2019091509,20190915092177,away,56.99,33.95,4.5,1.24,0.44,106.83,100.65,2495448,Randall Cobb,18,2019,46,3,13:53:00,DAL,1,10,DAL,7,14,2555224,SHOTGUN,"1 RB, 1 TE, 3 WR",6,"2 DL, 4 LB, 5 DB",right,2019-09-15T18:40:28.000Z,2019-09-15T18:40:27.000Z,5-10,192,08/22/1990,Kentucky,WR,WAS,DAL,2,FedExField,"Landover, MD",Outdoor,Grass,Sunny,80.0,46,7,WNW
25324,2019091509,20190915092177,away,53.67,25.05,4.98,1.8,0.49,148.93,161.98,2505629,Jason Witten,82,2019,46,3,13:53:00,DAL,1,10,DAL,7,14,2555224,SHOTGUN,"1 RB, 1 TE, 3 WR",6,"2 DL, 4 LB, 5 DB",right,2019-09-15T18:40:28.000Z,2019-09-15T18:40:27.000Z,6-6,263,05/06/1982,Tennessee,TE,WAS,DAL,2,FedExField,"Landover, MD",Outdoor,Grass,Sunny,80.0,46,7,WNW
25325,2019091509,20190915092177,away,55.52,25.64,2.21,1.07,0.23,25.43,21.76,2540161,Travis Frederick,72,2019,46,3,13:53:00,DAL,1,10,DAL,7,14,2555224,SHOTGUN,"1 RB, 1 TE, 3 WR",6,"2 DL, 4 LB, 5 DB",right,2019-09-15T18:40:28.000Z,2019-09-15T18:40:27.000Z,6-4,320,03/18/1991,Wisconsin,C,WAS,DAL,2,FedExField,"Landover, MD",Outdoor,Grass,Sunny,80.0,46,7,WNW
25326,2019091509,20190915092177,away,55.45,23.75,2.3,0.42,0.24,82.32,20.4,2543480,Zack Martin,70,2019,46,3,13:53:00,DAL,1,10,DAL,7,14,2555224,SHOTGUN,"1 RB, 1 TE, 3 WR",6,"2 DL, 4 LB, 5 DB",right,2019-09-15T18:40:28.000Z,2019-09-15T18:40:27.000Z,6-4,315,11/20/1990,Notre Dame,G,WAS,DAL,2,FedExField,"Landover, MD",Outdoor,Grass,Sunny,80.0,46,7,WNW
25327,2019091509,20190915092177,away,56.86,43.77,4.11,3.23,0.4,96.19,102.21,2552487,Amari Cooper,19,2019,46,3,13:53:00,DAL,1,10,DAL,7,14,2555224,SHOTGUN,"1 RB, 1 TE, 3 WR",6,"2 DL, 4 LB, 5 DB",right,2019-09-15T18:40:28.000Z,2019-09-15T18:40:27.000Z,6-1,211,06/17/1994,Alabama,WR,WAS,DAL,2,FedExField,"Landover, MD",Outdoor,Grass,Sunny,80.0,46,7,WNW
25328,2019091509,20190915092177,away,55.88,22.5,3.38,0.63,0.36,48.61,29.37,2553505,La'el Collins,71,2019,46,3,13:53:00,DAL,1,10,DAL,7,14,2555224,SHOTGUN,"1 RB, 1 TE, 3 WR",6,"2 DL, 4 LB, 5 DB",right,2019-09-15T18:40:28.000Z,2019-09-15T18:40:27.000Z,6-4,320,07/26/1993,Louisiana State,T,WAS,DAL,2,FedExField,"Landover, MD",Outdoor,Grass,Sunny,80.0,46,7,WNW
25329,2019091509,20190915092177,away,51.17,22.93,3.68,3.01,0.35,69.57,40.94,2555224,Ezekiel Elliott,21,2019,46,3,13:53:00,DAL,1,10,DAL,7,14,2555224,SHOTGUN,"1 RB, 1 TE, 3 WR",6,"2 DL, 4 LB, 5 DB",right,2019-09-15T18:40:28.000Z,2019-09-15T18:40:27.000Z,6-0,228,07/22/1995,Ohio State,RB,WAS,DAL,2,FedExField,"Landover, MD",Outdoor,Grass,Sunny,80.0,46,7,WNW
25330,2019091509,20190915092177,away,50.97,23.5,0.22,1.06,0.03,104.8,98.3,2555260,Dak Prescott,4,2019,46,3,13:53:00,DAL,1,10,DAL,7,14,2555224,SHOTGUN,"1 RB, 1 TE, 3 WR",6,"2 DL, 4 LB, 5 DB",right,2019-09-15T18:40:28.000Z,2019-09-15T18:40:27.000Z,6-2,238,07/29/1993,Mississippi State,QB,WAS,DAL,2,FedExField,"Landover, MD",Outdoor,Grass,Sunny,80.0,46,7,WNW
25331,2019091509,20190915092177,away,56.73,9.75,3.95,2.38,0.38,91.8,91.21,2560735,Michael Gallup,13,2019,46,3,13:53:00,DAL,1,10,DAL,7,14,2555224,SHOTGUN,"1 RB, 1 TE, 3 WR",6,"2 DL, 4 LB, 5 DB",right,2019-09-15T18:40:28.000Z,2019-09-15T18:40:27.000Z,6-1,200,03/04/1996,Colorado State,WR,WAS,DAL,2,FedExField,"Landover, MD",Outdoor,Grass,Sunny,80.0,46,7,WNW
25332,2019091509,20190915092177,away,55.43,26.4,1.06,0.34,0.11,52.21,16.42,2560934,Connor Williams,52,2019,46,3,13:53:00,DAL,1,10,DAL,7,14,2555224,SHOTGUN,"1 RB, 1 TE, 3 WR",6,"2 DL, 4 LB, 5 DB",right,2019-09-15T18:40:28.000Z,2019-09-15T18:40:27.000Z,6-5,298,05/12/1997,Texas,G,WAS,DAL,2,FedExField,"Landover, MD",Outdoor,Grass,Sunny,80.0,46,7,WNW
25333,2019091509,20190915092177,home,66.31,43.2,4.3,1.7,0.42,171.06,99.61,306,Dominique Rodgers-Cromartie,45,2019,46,3,13:53:00,DAL,1,10,DAL,7,14,2555224,SHOTGUN,"1 RB, 1 TE, 3 WR",6,"2 DL, 4 LB, 5 DB",right,2019-09-15T18:40:28.000Z,2019-09-15T18:40:27.000Z,6-2,205,04/07/1986,Tennessee State,CB,WAS,DAL,2,FedExField,"Landover, MD",Outdoor,Grass,Sunny,80.0,46,7,WNW
25334,2019091509,20190915092177,home,55.07,19.36,2.54,2.67,0.25,297.11,336.0,2495190,Ryan Kerrigan,91,2019,46,3,13:53:00,DAL,1,10,DAL,7,14,2555224,SHOTGUN,"1 RB, 1 TE, 3 WR",6,"2 DL, 4 LB, 5 DB",right,2019-09-15T18:40:28.000Z,2019-09-15T18:40:27.000Z,6-4,265,08/16/1988,Purdue,OLB,WAS,DAL,2,FedExField,"Landover, MD",Outdoor,Grass,Sunny,80.0,46,7,WNW
25335,2019091509,20190915092177,home,65.01,10.36,2.17,1.06,0.21,290.79,83.96,2532920,Josh Norman,24,2019,46,3,13:53:00,DAL,1,10,DAL,7,14,2555224,SHOTGUN,"1 RB, 1 TE, 3 WR",6,"2 DL, 4 LB, 5 DB",right,2019-09-15T18:40:28.000Z,2019-09-15T18:40:27.000Z,6-0,200,12/15/1987,Coastal Carolina,CB,WAS,DAL,2,FedExField,"Landover, MD",Outdoor,Grass,Sunny,80.0,46,7,WNW
25336,2019091509,20190915092177,home,58.25,28.02,1.17,0.83,0.12,260.03,284.33,2539978,Jon Bostic,53,2019,46,3,13:53:00,DAL,1,10,DAL,7,14,2555224,SHOTGUN,"1 RB, 1 TE, 3 WR",6,"2 DL, 4 LB, 5 DB",right,2019-09-15T18:40:28.000Z,2019-09-15T18:40:27.000Z,6-1,245,05/05/1991,Florida,ILB,WAS,DAL,2,FedExField,"Landover, MD",Outdoor,Grass,Sunny,80.0,46,7,WNW
25337,2019091509,20190915092177,home,68.23,30.7,2.06,2.13,0.2,224.75,211.32,2552454,Landon Collins,20,2019,46,3,13:53:00,DAL,1,10,DAL,7,14,2555224,SHOTGUN,"1 RB, 1 TE, 3 WR",6,"2 DL, 4 LB, 5 DB",right,2019-09-15T18:40:28.000Z,2019-09-15T18:40:27.000Z,6-0,218,01/10/1994,Alabama,SS,WAS,DAL,2,FedExField,"Landover, MD",Outdoor,Grass,Sunny,80.0,46,7,WNW
25338,2019091509,20190915092177,home,56.38,23.61,2.21,1.18,0.22,278.51,1.36,2555240,Matthew Ioannidis,98,2019,46,3,13:53:00,DAL,1,10,DAL,7,14,2555224,SHOTGUN,"1 RB, 1 TE, 3 WR",6,"2 DL, 4 LB, 5 DB",right,2019-09-15T18:40:28.000Z,2019-09-15T18:40:27.000Z,6-3,310,01/11/1994,Temple,DE,WAS,DAL,2,FedExField,"Landover, MD",Outdoor,Grass,Sunny,80.0,46,7,WNW
25339,2019091509,20190915092177,home,61.91,16.47,1.08,0.79,0.11,253.5,167.74,2558133,Montae Nicholson,35,2019,46,3,13:53:00,DAL,1,10,DAL,7,14,2555224,SHOTGUN,"1 RB, 1 TE, 3 WR",6,"2 DL, 4 LB, 5 DB",right,2019-09-15T18:40:28.000Z,2019-09-15T18:40:27.000Z,6-2,212,12/04/1995,Michigan State,FS,WAS,DAL,2,FedExField,"Landover, MD",Outdoor,Grass,Sunny,80.0,46,7,WNW
25340,2019091509,20190915092177,home,55.97,26.51,1.49,1.08,0.15,251.84,0.28,2560834,Daron Payne,94,2019,46,3,13:53:00,DAL,1,10,DAL,7,14,2555224,SHOTGUN,"1 RB, 1 TE, 3 WR",6,"2 DL, 4 LB, 5 DB",right,2019-09-15T18:40:28.000Z,2019-09-15T18:40:27.000Z,6-3,320,05/27/1997,Alabama,NT,WAS,DAL,2,FedExField,"Landover, MD",Outdoor,Grass,Sunny,80.0,46,7,WNW
25341,2019091509,20190915092177,home,55.01,28.94,0.99,2.0,0.1,256.89,307.22,2562749,Montez Sweat,90,2019,46,3,13:53:00,DAL,1,10,DAL,7,14,2555224,SHOTGUN,"1 RB, 1 TE, 3 WR",6,"2 DL, 4 LB, 5 DB",right,2019-09-15T18:40:28.000Z,2019-09-15T18:40:27.000Z,6-6,262,09/04/1996,Mississippi State,LB,WAS,DAL,2,FedExField,"Landover, MD",Outdoor,Grass,Sunny,80.0,46,7,WNW
25342,2019091509,20190915092177,home,61.01,33.59,0.74,1.6,0.07,258.47,52.96,2562858,Jimmy Moreland,32,2019,46,3,13:53:00,DAL,1,10,DAL,7,14,2555224,SHOTGUN,"1 RB, 1 TE, 3 WR",6,"2 DL, 4 LB, 5 DB",right,2019-09-15T18:40:28.000Z,2019-09-15T18:40:27.000Z,5-11,182,08/26/1995,James Madison,DB,WAS,DAL,2,FedExField,"Landover, MD",Outdoor,Grass,Sunny,80.0,46,7,WNW
25343,2019091509,20190915092177,home,59.3,24.03,2.48,1.59,0.24,271.64,333.24,2562872,Cole Holcomb,55,2019,46,3,13:53:00,DAL,1,10,DAL,7,14,2555224,SHOTGUN,"1 RB, 1 TE, 3 WR",6,"2 DL, 4 LB, 5 DB",right,2019-09-15T18:40:28.000Z,2019-09-15T18:40:27.000Z,6-1,240,07/30/1996,North Carolina,LB,WAS,DAL,2,FedExField,"Landover, MD",Outdoor,Grass,Sunny,80.0,46,7,WNW
