,GameId,PlayId,Team,X,Y,S,A,Dis,Orientation,Dir,NflId,DisplayName,JerseyNumber,Season,YardLine,Quarter,GameClock,PossessionTeam,Down,Distance,FieldPosition,HomeScoreBeforePlay,VisitorScoreBeforePlay,NflIdRusher,OffenseFormation,OffensePersonnel,DefendersInTheBox,DefensePersonnel,PlayDirection,TimeHandoff,TimeSnap,PlayerHeight,PlayerWeight,PlayerBirthDate,PlayerCollegeName,Position,HomeTeamAbbr,VisitorTeamAbbr,Week,Stadium,Location,StadiumType,Turf,GameWeather,Temperature,Humidity,WindSpeed,WindDirection
8888,2019090808,20190908083910,away,98.48,30.28,2.04,1.1,0.2,78.01,7.55,496762,Geno Atkins,97,2019,11,4,03:18:00,SEA,2,5,SEA,21,20,2558865,SHOTGUN,"1 RB, 1 TE, 3 WR",7,"4 DL, 2 LB, 5 DB",left,2019-09-08T23:03:38.000Z,2019-09-08T23:03:37.000Z,6-1,300,03/28/1988,Georgia,DT,SEA,CIN,1,CenturyLink Field,"Seattle, WA",Outdoor,FieldTurf,Cloudy,64.0,82,7,S
8889,2019090808,20190908083910,away,99.48,35.28,2.42,1.29,0.24,120.11,36.81,496780,Carlos Dunlap,96,2019,11,4,03:18:00,SEA,2,5,SEA,21,20,2558865,SHOTGUN,"1 RB, 1 TE, 3 WR",7,"4 DL, 2 LB, 5 DB",left,2019-09-08T23:03:38.000Z,2019-09-08T23:03:37.000Z,6-6,285,02/28/1989,Florida,DE,SEA,CIN,1,CenturyLink Field,"Seattle, WA",Outdoor,FieldTurf,Cloudy,64.0,82,7,S
8890,2019090808,20190908083910,away,96.59,47.22,2.81,2.1,0.27,355.99,293.72,2533060,Dre Kirkpatrick,27,2019,11,4,03:18:00,SEA,2,5,SEA,21,20,2558865,SHOTGUN,"1 RB, 1 TE, 3 WR",7,"4 DL, 2 LB, 5 DB",left,2019-09-08T23:03:38.000Z,2019-09-08T23:03:37.000Z,6-2,190,10/26/1989,Alabama,CB,SEA,CIN,1,CenturyLink Field,"Seattle, WA",Outdoor,FieldTurf,Cloudy,64.0,82,7,S
8891,2019090808,20190908083910,away,97.16,34.76,2.27,2.09,0.22,112.06,149.61,2539233,Shawn Williams,36,2019,11,4,03:18:00,SEA,2,5,SEA,21,20,2558865,SHOTGUN,"1 RB, 1 TE, 3 WR",7,"4 DL, 2 LB, 5 DB",left,2019-09-08T23:03:38.000Z,2019-09-08T23:03:37.000Z,6-0,210,05/13/1991,Georgia,SS,SEA,CIN,1,CenturyLink Field,"Seattle, WA",Outdoor,FieldTurf,Cloudy,64.0,82,7,S
8892,2019090808,20190908083910,away,97.44,20.31,1.09,1.75,0.1,69.75,344.96,2539338,B.W. Webb,23,2019,11,4,03:18:00,SEA,2,5,SEA,21,20,2558865,SHOTGUN,"1 RB, 1 TE, 3 WR",7,"4 DL, 2 LB, 5 DB",left,2019-09-08T23:03:38.000Z,2019-09-08T23:03:37.000Z,5-11,190,05/03/1990,William & Mary,CB,SEA,CIN,1,CenturyLink Field,"Seattle, WA",Outdoor,FieldTurf,Cloudy,64.0,82,7,S
8893,2019090808,20190908083910,away,99.44,25.68,3.45,1.47,0.34,40.97,38.22,2543814,Preston Brown,52,2019,11,4,03:18:00,SEA,2,5,SEA,21,20,2558865,SHOTGUN,"1 RB, 1 TE, 3 WR",7,"4 DL, 2 LB, 5 DB",left,2019-09-08T23:03:38.000Z,2019-09-08T23:03:37.000Z,6-1,251,10/27/1992,Louisville,MLB,SEA,CIN,1,CenturyLink Field,"Seattle, WA",Outdoor,FieldTurf,Cloudy,64.0,82,7,S
8894,2019090808,20190908083910,away,96.38,29.52,2.58,0.38,0.26,77.46,30.62,2555528,Nick Vigil,59,2019,11,4,03:18:00,SEA,2,5,SEA,21,20,2558865,SHOTGUN,"1 RB, 1 TE, 3 WR",7,"4 DL, 2 LB, 5 DB",left,2019-09-08T23:03:38.000Z,2019-09-08T23:03:37.000Z,6-2,235,08/20/1993,Utah State,OLB,SEA,CIN,1,CenturyLink Field,"Seattle, WA",Outdoor,FieldTurf,Cloudy,64.0,82,7,S
8895,2019090808,20190908083910,away,96.83,40.83,0.99,1.22,0.09,118.72,298.11,2556367,William Jackson,22,2019,11,4,03:18:00,SEA,2,5,SEA,21,20,2558865,SHOTGUN,"1 RB, 1 TE, 3 WR",7,"4 DL, 2 LB, 5 DB",left,2019-09-08T23:03:38.000Z,2019-09-08T23:03:37.000Z,6-0,196,10/27/1992,Houston,CB,SEA,CIN,1,CenturyLink Field,"Seattle, WA",Outdoor,FieldTurf,Cloudy,64.0,82,7,S
8896,2019090808,20190908083910,away,99.48,33.27,2.32,1.05,0.24,149.76,27.37,2557851,Ryan Glasgow,98,2019,11,4,03:18:00,SEA,2,5,SEA,21,20,2558865,SHOTGUN,"1 RB, 1 TE, 3 WR",7,"4 DL, 2 LB, 5 DB",left,2019-09-08T23:03:38.000Z,2019-09-08T23:03:37.000Z,6-3,302,09/30/1993,Michigan,DT,SEA,CIN,1,CenturyLink Field,"Seattle, WA",Outdoor,FieldTurf,Cloudy,64.0,82,7,S
8897,2019090808,20190908083910,away,98.51,28.93,3.21,0.86,0.32,85.87,5.72,2560745,Sam Hubbard,94,2019,11,4,03:18:00,SEA,2,5,SEA,21,20,2558865,SHOTGUN,"1 RB, 1 TE, 3 WR",7,"4 DL, 2 LB, 5 DB",left,2019-09-08T23:03:38.000Z,2019-09-08T23:03:37.000Z,6-5,265,06/29/1995,Ohio State,DE,SEA,CIN,1,CenturyLink Field,"Seattle, WA",Outdoor,FieldTurf,Cloudy,64.0,82,7,S
8898,2019090808,20190908083910,away,81.73,28.77,0.91,1.37,0.1,101.35,292.76,2560970,Jessie Bates,30,2019,11,4,03:18:00,SEA,2,5,SEA,21,20,2558865,SHOTGUN,"1 RB, 1 TE, 3 WR",7,"4 DL, 2 LB, 5 DB",left,2019-09-08T23:03:38.000Z,2019-09-08T23:03:37.000Z,6-1,200,02/26/1997,Wake Forest,S,SEA,CIN,1,CenturyLink Field,"Seattle, WA",Outdoor,FieldTurf,Cloudy,64.0,82,7,S
8899,2019090808,20190908083910,home,99.39,28.52,3.42,1.1,0.35,300.36,346.49,808,Duane Brown,76,2019,11,4,03:18:00,SEA,2,5,SEA,21,20,2558865,SHOTGUN,"1 RB, 1 TE, 3 WR",7,"4 DL, 2 LB, 5 DB",left,2019-09-08T23:03:38.000Z,2019-09-08T23:03:37.000Z,6-4,315,08/30/1985,Virginia Tech,T,SEA,CIN,1,CenturyLink Field,"Seattle, WA",Outdoor,FieldTurf,Cloudy,64.0,82,7,S
8900,2019090808,20190908083910,home,103.53,29.21,0.6,0.72,0.06,233.12,219.93,2532975,Russell Wilson,3,2019,11,4,03:18:00,SEA,2,5,SEA,21,20,2558865,SHOTGUN,"1 RB, 1 TE, 3 WR",7,"4 DL, 2 LB, 5 DB",left,2019-09-08T23:03:38.000Z,2019-09-08T23:03:37.000Z,5-11,215,11/29/1988,Wisconsin,QB,SEA,CIN,1,CenturyLink Field,"Seattle, WA",Outdoor,FieldTurf,Cloudy,64.0,82,7,S
8901,2019090808,20190908083910,home,99.91,32.82,2.59,0.63,0.26,356.25,3.99,2540166,D.J. Fluker,78,2019,11,4,03:18:00,SEA,2,5,SEA,21,20,2558865,SHOTGUN,"1 RB, 1 TE, 3 WR",7,"4 DL, 2 LB, 5 DB",left,2019-09-08T23:03:38.000Z,2019-09-08T23:03:37.000Z,6-5,342,03/13/1991,Alabama,OG,SEA,CIN,1,CenturyLink Field,"Seattle, WA",Outdoor,FieldTurf,Cloudy,64.0,82,7,S
8902,2019090808,20190908083910,home,98.5,47.51,3.38,3.43,0.33,296.19,299.9,2541966,Jaron Brown,18,2019,11,4,03:18:00,SEA,2,5,SEA,21,20,2558865,SHOTGUN,"1 RB, 1 TE, 3 WR",7,"4 DL, 2 LB, 5 DB",left,2019-09-08T23:03:38.000Z,2019-09-08T23:03:37.000Z,6-3,205,01/08/1990,Clemson,WR,SEA,CIN,1,CenturyLink Field,"Seattle, WA",Outdoor,FieldTurf,Cloudy,64.0,82,7,S
8903,2019090808,20190908083910,home,99.31,30.71,1.88,0.59,0.2,278.72,353.26,2550135,Justin Britt,68,2019,11,4,03:18:00,SEA,2,5,SEA,21,20,2558865,SHOTGUN,"1 RB, 1 TE, 3 WR",7,"4 DL, 2 LB, 5 DB",left,2019-09-08T23:03:38.000Z,2019-09-08T23:03:37.000Z,6-6,315,05/29/1991,Missouri,C,SEA,CIN,1,CenturyLink Field,"Seattle, WA",Outdoor,FieldTurf,Cloudy,64.0,82,7,S
8904,2019090808,20190908083910,home,99.29,40.63,3.26,2.32,0.31,279.18,276.22,2552430,Tyler Lockett,16,2019,11,4,03:18:00,SEA,2,5,SEA,21,20,2558865,SHOTGUN,"1 RB, 1 TE, 3 WR",7,"4 DL, 2 LB, 5 DB",left,2019-09-08T23:03:38.000Z,2019-09-08T23:03:37.000Z,5-10,182,09/28/1992,Kansas State,WR,SEA,CIN,1,CenturyLink Field,"Seattle, WA",Outdoor,FieldTurf,Cloudy,64.0,82,7,S
8905,2019090808,20190908083910,home,101.11,31.95,4.81,3.12,0.47,203.88,179.88,2555289,Nick Vannett,81,2019,11,4,03:18:00,SEA,2,5,SEA,21,20,2558865,SHOTGUN,"1 RB, 1 TE, 3 WR",7,"4 DL, 2 LB, 5 DB",left,2019-09-08T23:03:38.000Z,2019-09-08T23:03:37.000Z,6-6,261,03/06/1993,Ohio State,TE,SEA,CIN,1,CenturyLink Field,"Seattle, WA",Outdoor,FieldTurf,Cloudy,64.0,82,7,S
8906,2019090808,20190908083910,home,100.3,34.52,2.41,0.19,0.24,324.43,3.22,2555395,Germain Ifedi,65,2019,11,4,03:18:00,SEA,2,5,SEA,21,20,2558865,SHOTGUN,"1 RB, 1 TE, 3 WR",7,"4 DL, 2 LB, 5 DB",left,2019-09-08T23:03:38.000Z,2019-09-08T23:03:37.000Z,6-5,325,06/02/1994,Texas A&M,G,SEA,CIN,1,CenturyLink Field,"Seattle, WA",Outdoor,FieldTurf,Cloudy,64.0,82,7,S
8907,2019090808,20190908083910,home,99.35,29.74,3.25,1.1,0.32,339.97,345.51,2557891,Ethan Pocic,77,2019,11,4,03:18:00,SEA,2,5,SEA,21,20,2558865,SHOTGUN,"1 RB, 1 TE, 3 WR",7,"4 DL, 2 LB, 5 DB",left,2019-09-08T23:03:38.000Z,2019-09-08T23:03:37.000Z,6-6,320,08/05/1995,Louisiana State,C,SEA,CIN,1,CenturyLink Field,"Seattle, WA",Outdoor,FieldTurf,Cloudy,64.0,82,7,S
8908,2019090808,20190908083910,home,102.98,28.59,4.24,1.9,0.42,319.62,331.07,2558865,Chris Carson,32,2019,11,4,03:18:00,SEA,2,5,SEA,21,20,2558865,SHOTGUN,"1 RB, 1 TE, 3 WR",7,"4 DL, 2 LB, 5 DB",left,2019-09-08T23:03:38.000Z,2019-09-08T23:03:37.000Z,5-11,222,09/16/1994,Oklahoma State,RB,SEA,CIN,1,CenturyLink Field,"Seattle, WA",Outdoor,FieldTurf,Cloudy,64.0,82,7,S
8909,2019090808,20190908083910,home,99.48,20.85,1.66,1.9,0.16,8.54,341.61,2561671,Malik Turner,17,2019,11,4,03:18:00,SEA,2,5,SEA,21,20,2558865,SHOTGUN,"1 RB, 1 TE, 3 WR",7,"4 DL, 2 LB, 5 DB",left,2019-09-08T23:03:38.000Z,2019-09-08T23:03:37.000Z,6-2,200,01/30/1996,Illinois,WR,SEA,CIN,1,CenturyLink Field,"Seattle, WA",Outdoor,FieldTurf,Cloudy,64.0,82,7,S
