,GameId,PlayId,Team,X,Y,S,A,Dis,Orientation,Dir,NflId,DisplayName,JerseyNumber,Season,YardLine,Quarter,GameClock,PossessionTeam,Down,Distance,FieldPosition,HomeScoreBeforePlay,VisitorScoreBeforePlay,NflIdRusher,OffenseFormation,OffensePersonnel,DefendersInTheBox,DefensePersonnel,PlayDirection,TimeHandoff,TimeSnap,PlayerHeight,PlayerWeight,PlayerBirthDate,PlayerCollegeName,Position,HomeTeamAbbr,VisitorTeamAbbr,Week,Stadium,Location,StadiumType,Turf,GameWeather,Temperature,Humidity,WindSpeed,WindDirection
1100,2019090800,20190908001711,away,36.8,35.04,2.55,1.84,0.27,329.89,280.39,2495977,Andrew Whitworth,77,2019,30,2,04:18:00,LA,2,9,LA,0,10,2552382,SHOTGUN,"1 RB, 1 TE, 3 WR",4,"2 DL, 4 LB, 5 DB",right,2019-09-08T18:14:36.000Z,2019-09-08T18:14:34.000Z,6-7,330,12/12/1981,Louisiana State,T,CAR,LA,1,Bank of America Stadium,Charlotte North Carolina,Outdoor,Grass,Sunny,87.0,53,3,NNE
1101,2019090800,20190908001711,away,42.72,35.71,3.22,3.7,0.34,52.13,108.94,2543498,Brandin Cooks,12,2019,30,2,04:18:00,LA,2,9,LA,0,10,2552382,SHOTGUN,"1 RB, 1 TE, 3 WR",4,"2 DL, 4 LB, 5 DB",right,2019-09-08T18:14:36.000Z,2019-09-08T18:14:34.000Z,5-10,183,09/25/1993,Oregon State,WR,CAR,LA,1,Bank of America Stadium,Charlotte North Carolina,Outdoor,Grass,Sunny,87.0,53,3,NNE
1102,2019090800,20190908001711,away,36.44,27.94,1.99,0.89,0.2,183.48,283.53,2552363,Rob Havenstein,79,2019,30,2,04:18:00,LA,2,9,LA,0,10,2552382,SHOTGUN,"1 RB, 1 TE, 3 WR",4,"2 DL, 4 LB, 5 DB",right,2019-09-08T18:14:36.000Z,2019-09-08T18:14:34.000Z,6-8,328,05/13/1992,Wisconsin,T,CAR,LA,1,Bank of America Stadium,Charlotte North Carolina,Outdoor,Grass,Sunny,87.0,53,3,NNE
1103,2019090800,20190908001711,away,35.2,31.35,1.5,3.44,0.15,65.16,109.0,2552382,Malcolm Brown,34,2019,30,2,04:18:00,LA,2,9,LA,0,10,2552382,SHOTGUN,"1 RB, 1 TE, 3 WR",4,"2 DL, 4 LB, 5 DB",right,2019-09-08T18:14:36.000Z,2019-09-08T18:14:34.000Z,5-11,222,05/15/1993,Texas,RB,CAR,LA,1,Bank of America Stadium,Charlotte North Carolina,Outdoor,Grass,Sunny,87.0,53,3,NNE
1104,2019090800,20190908001711,away,37.95,31.53,2.81,2.2,0.28,108.05,21.46,2555180,Austin Blythe,66,2019,30,2,04:18:00,LA,2,9,LA,0,10,2552382,SHOTGUN,"1 RB, 1 TE, 3 WR",4,"2 DL, 4 LB, 5 DB",right,2019-09-08T18:14:36.000Z,2019-09-08T18:14:34.000Z,6-3,300,06/16/1992,Iowa,C,CAR,LA,1,Bank of America Stadium,Charlotte North Carolina,Outdoor,Grass,Sunny,87.0,53,3,NNE
1105,2019090800,20190908001711,away,34.21,30.39,0.97,0.61,0.1,85.78,308.17,2555334,Jared Goff,16,2019,30,2,04:18:00,LA,2,9,LA,0,10,2552382,SHOTGUN,"1 RB, 1 TE, 3 WR",4,"2 DL, 4 LB, 5 DB",right,2019-09-08T18:14:36.000Z,2019-09-08T18:14:34.000Z,6-4,223,10/14/1994,California,QB,CAR,LA,1,Bank of America Stadium,Charlotte North Carolina,Outdoor,Grass,Sunny,87.0,53,3,NNE
1106,2019090800,20190908001711,away,36.87,29.64,3.69,3.85,0.37,71.58,17.36,2557889,Gerald Everett,81,2019,30,2,04:18:00,LA,2,9,LA,0,10,2552382,SHOTGUN,"1 RB, 1 TE, 3 WR",4,"2 DL, 4 LB, 5 DB",right,2019-09-08T18:14:36.000Z,2019-09-08T18:14:34.000Z,6-3,240,06/25/1994,South Alabama,TE,CAR,LA,1,Bank of America Stadium,Charlotte North Carolina,Outdoor,Grass,Sunny,87.0,53,3,NNE
1107,2019090800,20190908001711,away,40.51,36.98,5.25,1.57,0.52,160.03,136.08,2557898,Cooper Kupp,18,2019,30,2,04:18:00,LA,2,9,LA,0,10,2552382,SHOTGUN,"1 RB, 1 TE, 3 WR",4,"2 DL, 4 LB, 5 DB",right,2019-09-08T18:14:36.000Z,2019-09-08T18:14:34.000Z,6-2,208,06/15/1993,Eastern Washington,WR,CAR,LA,1,Bank of America Stadium,Charlotte North Carolina,Outdoor,Grass,Sunny,87.0,53,3,NNE
1108,2019090800,20190908001711,away,42.36,22.64,4.25,3.38,0.42,30.13,49.5,2558194,Josh Reynolds,83,2019,30,2,04:18:00,LA,2,9,LA,0,10,2552382,SHOTGUN,"1 RB, 1 TE, 3 WR",4,"2 DL, 4 LB, 5 DB",right,2019-09-08T18:14:36.000Z,2019-09-08T18:14:34.000Z,6-3,196,02/16/1995,Texas A&M,WR,CAR,LA,1,Bank of America Stadium,Charlotte North Carolina,Outdoor,Grass,Sunny,87.0,53,3,NNE
1109,2019090800,20190908001711,away,38.37,29.58,1.24,1.68,0.14,200.57,229.06,2560825,Joe Noteboom,70,2019,30,2,04:18:00,LA,2,9,LA,0,10,2552382,SHOTGUN,"1 RB, 1 TE, 3 WR",4,"2 DL, 4 LB, 5 DB",right,2019-09-08T18:14:36.000Z,2019-09-08T18:14:34.000Z,6-5,321,06/19/1995,Texas Christian,T,CAR,LA,1,Bank of America Stadium,Charlotte North Carolina,Outdoor,Grass,Sunny,87.0,53,3,NNE
1110,2019090800,20190908001711,away,38.23,27.43,1.08,2.39,0.11,187.57,244.04,2560954,Brian Allen,55,2019,30,2,04:18:00,LA,2,9,LA,0,10,2552382,SHOTGUN,"1 RB, 1 TE, 3 WR",4,"2 DL, 4 LB, 5 DB",right,2019-09-08T18:14:36.000Z,2019-09-08T18:14:34.000Z,6-2,302,10/11/1995,Michigan State,C,CAR,LA,1,Bank of America Stadium,Charlotte North Carolina,Outdoor,Grass,Sunny,87.0,53,3,NNE
1111,2019090800,20190908001711,home,37.38,27.16,1.5,1.61,0.16,356.8,266.93,496816,Gerald McCoy,93,2019,30,2,04:18:00,LA,2,9,LA,0,10,2552382,SHOTGUN,"1 RB, 1 TE, 3 WR",4,"2 DL, 4 LB, 5 DB",right,2019-09-08T18:14:36.000Z,2019-09-08T18:14:34.000Z,6-4,300,02/25/1988,Oklahoma,DT,CAR,LA,1,Bank of America Stadium,Charlotte North Carolina,Outdoor,Grass,Sunny,87.0,53,3,NNE
1112,2019090800,20190908001711,home,40.27,31.78,2.94,1.07,0.29,283.49,303.98,2533056,Luke Kuechly,59,2019,30,2,04:18:00,LA,2,9,LA,0,10,2552382,SHOTGUN,"1 RB, 1 TE, 3 WR",4,"2 DL, 4 LB, 5 DB",right,2019-09-08T18:14:36.000Z,2019-09-08T18:14:34.000Z,6-3,238,04/20/1991,Boston College,MLB,CAR,LA,1,Bank of America Stadium,Charlotte North Carolina,Outdoor,Grass,Sunny,87.0,53,3,NNE
1113,2019090800,20190908001711,home,37.82,29.16,2.05,1.87,0.21,289.1,258.41,2539296,Kawann Short,99,2019,30,2,04:18:00,LA,2,9,LA,0,10,2552382,SHOTGUN,"1 RB, 1 TE, 3 WR",4,"2 DL, 4 LB, 5 DB",right,2019-09-08T18:14:36.000Z,2019-09-08T18:14:34.000Z,6-3,315,02/02/1989,Purdue,DT,CAR,LA,1,Bank of America Stadium,Charlotte North Carolina,Outdoor,Grass,Sunny,87.0,53,3,NNE
1114,2019090800,20190908001711,home,46.71,25.55,3.14,3.25,0.32,295.81,311.48,2540152,Eric Reid,25,2019,30,2,04:18:00,LA,2,9,LA,0,10,2552382,SHOTGUN,"1 RB, 1 TE, 3 WR",4,"2 DL, 4 LB, 5 DB",right,2019-09-08T18:14:36.000Z,2019-09-08T18:14:34.000Z,6-1,213,12/10/1991,Louisiana State,SS,CAR,LA,1,Bank of America Stadium,Charlotte North Carolina,Outdoor,Grass,Sunny,87.0,53,3,NNE
1115,2019090800,20190908001711,home,54.32,33.43,1.43,1.27,0.14,288.58,138.15,2543830,Tre Boston,33,2019,30,2,04:18:00,LA,2,9,LA,0,10,2552382,SHOTGUN,"1 RB, 1 TE, 3 WR",4,"2 DL, 4 LB, 5 DB",right,2019-09-08T18:14:36.000Z,2019-09-08T18:14:34.000Z,6-1,205,06/25/1992,North Carolina,FS,CAR,LA,1,Bank of America Stadium,Charlotte North Carolina,Outdoor,Grass,Sunny,87.0,53,3,NNE
1116,2019090800,20190908001711,home,43.27,27.22,1.76,2.69,0.17,309.42,316.87,2552447,Shaq Thompson,54,2019,30,2,04:18:00,LA,2,9,LA,0,10,2552382,SHOTGUN,"1 RB, 1 TE, 3 WR",4,"2 DL, 4 LB, 5 DB",right,2019-09-08T18:14:36.000Z,2019-09-08T18:14:34.000Z,6-0,230,04/21/1994,Washington,OLB,CAR,LA,1,Bank of America Stadium,Charlotte North Carolina,Outdoor,Grass,Sunny,87.0,53,3,NNE
1117,2019090800,20190908001711,home,49.1,17.9,0.99,3.38,0.11,345.69,85.97,2555175,James Bradberry,24,2019,30,2,04:18:00,LA,2,9,LA,0,10,2552382,SHOTGUN,"1 RB, 1 TE, 3 WR",4,"2 DL, 4 LB, 5 DB",right,2019-09-08T18:14:36.000Z,2019-09-08T18:14:34.000Z,6-1,212,08/04/1993,Samford,CB,CAR,LA,1,Bank of America Stadium,Charlotte North Carolina,Outdoor,Grass,Sunny,87.0,53,3,NNE
1118,2019090800,20190908001711,home,43.93,35.95,0.61,1.95,0.06,251.38,31.8,2556934,Javien Elliott,23,2019,30,2,04:18:00,LA,2,9,LA,0,10,2552382,SHOTGUN,"1 RB, 1 TE, 3 WR",4,"2 DL, 4 LB, 5 DB",right,2019-09-08T18:14:36.000Z,2019-09-08T18:14:34.000Z,5-11,176,07/18/1993,Florida State,CB,CAR,LA,1,Bank of America Stadium,Charlotte North Carolina,Outdoor,Grass,Sunny,87.0,53,3,NNE
1119,2019090800,20190908001711,home,46.34,41.71,0.86,3.44,0.08,194.48,257.89,2560753,Donte Jackson,26,2019,30,2,04:18:00,LA,2,9,LA,0,10,2552382,SHOTGUN,"1 RB, 1 TE, 3 WR",4,"2 DL, 4 LB, 5 DB",right,2019-09-08T18:14:36.000Z,2019-09-08T18:14:34.000Z,5-10,180,11/08/1995,Louisiana State,DB,CAR,LA,1,Bank of America Stadium,Charlotte North Carolina,Outdoor,Grass,Sunny,87.0,53,3,NNE
1120,2019090800,20190908001711,home,35.81,26.19,4.7,2.87,0.47,14.17,325.28,2561009,Marquis Haynes,98,2019,30,2,04:18:00,LA,2,9,LA,0,10,2552382,SHOTGUN,"1 RB, 1 TE, 3 WR",4,"2 DL, 4 LB, 5 DB",right,2019-09-08T18:14:36.000Z,2019-09-08T18:14:34.000Z,6-2,235,12/16/1993,Mississippi,DL,CAR,LA,1,Bank of America Stadium,Charlotte North Carolina,Outdoor,Grass,Sunny,87.0,53,3,NNE
1121,2019090800,20190908001711,home,35.8,35.66,4.4,2.81,0.44,176.18,260.99,2562313,Christian Miller,50,2019,30,2,04:18:00,LA,2,9,LA,0,10,2552382,SHOTGUN,"1 RB, 1 TE, 3 WR",4,"2 DL, 4 LB, 5 DB",right,2019-09-08T18:14:36.000Z,2019-09-08T18:14:34.000Z,6-3,244,06/19/1996,Alabama,LB,CAR,LA,1,Bank of America Stadium,Charlotte North Carolina,Outdoor,Grass,Sunny,87.0,53,3,NNE
