,GameId,PlayId,Team,X,Y,S,A,Dis,Orientation,Dir,NflId,DisplayName,JerseyNumber,Season,YardLine,Quarter,GameClock,PossessionTeam,Down,Distance,FieldPosition,HomeScoreBeforePlay,VisitorScoreBeforePlay,NflIdRusher,OffenseFormation,OffensePersonnel,DefendersInTheBox,DefensePersonnel,PlayDirection,TimeHandoff,TimeSnap,PlayerHeight,PlayerWeight,PlayerBirthDate,PlayerCollegeName,Position,HomeTeamAbbr,VisitorTeamAbbr,Week,Stadium,Location,StadiumType,Turf,GameWeather,Temperature,Humidity,WindSpeed,WindDirection
18040,2019091502,20190915021382,away,31.96,27.59,3.25,2.68,0.31,100.22,117.35,2506352,Thomas Davis,58,2019,25,2,06:46:00,DET,2,5,LAC,6,7,2560765,SINGLEBACK,"1 RB, 3 TE, 1 WR",7,"4 DL, 3 LB, 4 DB",left,2019-09-15T18:00:55.000Z,2019-09-15T18:00:54.000Z,6-1,235,03/22/1983,Georgia,OLB,DET,LAC,2,Ford Field,Detroit,Indoors,Field Turf,Controlled Climate,68.0,70,,
18041,2019091502,20190915021382,away,30.2,9.29,3.28,2.2,0.32,331.32,261.47,2532861,Casey Hayward,26,2019,25,2,06:46:00,DET,2,5,LAC,6,7,2560765,SINGLEBACK,"1 RB, 3 TE, 1 WR",7,"4 DL, 3 LB, 4 DB",left,2019-09-15T18:00:55.000Z,2019-09-15T18:00:54.000Z,5-11,192,09/09/1989,Vanderbilt,CB,DET,LAC,2,Ford Field,Detroit,Indoors,Field Turf,Controlled Climate,68.0,70,,
18042,2019091502,20190915021382,away,34.63,30.06,1.01,1.75,0.09,91.51,220.2,2540003,Damion Square,71,2019,25,2,06:46:00,DET,2,5,LAC,6,7,2560765,SINGLEBACK,"1 RB, 3 TE, 1 WR",7,"4 DL, 3 LB, 4 DB",left,2019-09-15T18:00:55.000Z,2019-09-15T18:00:54.000Z,6-2,293,02/06/1989,Alabama,NT,DET,LAC,2,Ford Field,Detroit,Indoors,Field Turf,Controlled Climate,68.0,70,,
18043,2019091502,20190915021382,away,32.17,21.27,1.67,0.77,0.16,58.11,137.88,2550842,Adrian Phillips,31,2019,25,2,06:46:00,DET,2,5,LAC,6,7,2560765,SINGLEBACK,"1 RB, 3 TE, 1 WR",7,"4 DL, 3 LB, 4 DB",left,2019-09-15T18:00:55.000Z,2019-09-15T18:00:54.000Z,5-11,210,03/28/1992,Texas,SS,DET,LAC,2,Ford Field,Detroit,Indoors,Field Turf,Controlled Climate,68.0,70,,
18044,2019091502,20190915021382,away,35.35,32.26,1.41,0.41,0.14,131.69,146.44,2555249,Joey Bosa,97,2019,25,2,06:46:00,DET,2,5,LAC,6,7,2560765,SINGLEBACK,"1 RB, 3 TE, 1 WR",7,"4 DL, 3 LB, 4 DB",left,2019-09-15T18:00:55.000Z,2019-09-15T18:00:54.000Z,6-5,280,07/11/1995,Ohio State,DE,DET,LAC,2,Ford Field,Detroit,Indoors,Field Turf,Controlled Climate,68.0,70,,
18045,2019091502,20190915021382,away,36.0,26.45,1.2,2.0,0.11,111.48,78.56,2557860,Isaac Rochell,98,2019,25,2,06:46:00,DET,2,5,LAC,6,7,2560765,SINGLEBACK,"1 RB, 3 TE, 1 WR",7,"4 DL, 3 LB, 4 DB",left,2019-09-15T18:00:55.000Z,2019-09-15T18:00:54.000Z,6-4,280,04/22/1995,Notre Dame,DE,DET,LAC,2,Ford Field,Detroit,Indoors,Field Turf,Controlled Climate,68.0,70,,
18046,2019091502,20190915021382,away,20.38,26.62,1.47,1.27,0.14,113.46,193.32,2558182,Rayshawn Jenkins,23,2019,25,2,06:46:00,DET,2,5,LAC,6,7,2560765,SINGLEBACK,"1 RB, 3 TE, 1 WR",7,"4 DL, 3 LB, 4 DB",left,2019-09-15T18:00:55.000Z,2019-09-15T18:00:54.000Z,6-2,220,01/25/1994,Miami,SS,DET,LAC,2,Ford Field,Detroit,Indoors,Field Turf,Controlled Climate,68.0,70,,
18047,2019091502,20190915021382,away,32.54,38.19,2.04,2.43,0.2,165.96,185.49,2560719,Brandon Facyson,28,2019,25,2,06:46:00,DET,2,5,LAC,6,7,2560765,SINGLEBACK,"1 RB, 3 TE, 1 WR",7,"4 DL, 3 LB, 4 DB",left,2019-09-15T18:00:55.000Z,2019-09-15T18:00:54.000Z,6-2,197,09/08/1994,Virginia Tech,CB,DET,LAC,2,Ford Field,Detroit,Indoors,Field Turf,Controlled Climate,68.0,70,,
18048,2019091502,20190915021382,away,34.23,33.75,2.18,1.03,0.22,129.99,174.55,2560826,Uchenna Nwosu,42,2019,25,2,06:46:00,DET,2,5,LAC,6,7,2560765,SINGLEBACK,"1 RB, 3 TE, 1 WR",7,"4 DL, 3 LB, 4 DB",left,2019-09-15T18:00:55.000Z,2019-09-15T18:00:54.000Z,6-2,251,12/28/1996,Southern California,LB,DET,LAC,2,Ford Field,Detroit,Indoors,Field Turf,Controlled Climate,68.0,70,,
18049,2019091502,20190915021382,away,31.85,30.58,2.8,1.27,0.28,107.47,145.76,2560928,Kyzir White,44,2019,25,2,06:46:00,DET,2,5,LAC,6,7,2560765,SINGLEBACK,"1 RB, 3 TE, 1 WR",7,"4 DL, 3 LB, 4 DB",left,2019-09-15T18:00:55.000Z,2019-09-15T18:00:54.000Z,6-2,216,03/24/1996,West Virginia,LB,DET,LAC,2,Ford Field,Detroit,Indoors,Field Turf,Controlled Climate,68.0,70,,
18050,2019091502,20190915021382,away,33.72,28.46,1.19,0.64,0.11,1.59,319.19,2562763,Jerry Tillery,99,2019,25,2,06:46:00,DET,2,5,LAC,6,7,2560765,SINGLEBACK,"1 RB, 3 TE, 1 WR",7,"4 DL, 3 LB, 4 DB",left,2019-09-15T18:00:55.000Z,2019-09-15T18:00:54.000Z,6-6,295,10/08/1996,Notre Dame,DT,DET,LAC,2,Ford Field,Detroit,Indoors,Field Turf,Controlled Climate,68.0,70,,
18051,2019091502,20190915021382,home,39.96,30.41,4.28,0.88,0.42,120.37,74.0,79860,Matthew Stafford,9,2019,25,2,06:46:00,DET,2,5,LAC,6,7,2560765,SINGLEBACK,"1 RB, 3 TE, 1 WR",7,"4 DL, 3 LB, 4 DB",left,2019-09-15T18:00:55.000Z,2019-09-15T18:00:54.000Z,6-3,220,02/07/1988,Georgia,QB,DET,LAC,2,Ford Field,Detroit,Indoors,Field Turf,Controlled Climate,68.0,70,,
18052,2019091502,20190915021382,home,36.68,27.56,3.74,1.43,0.38,219.38,177.55,2530556,Kenny Wiggins,79,2019,25,2,06:46:00,DET,2,5,LAC,6,7,2560765,SINGLEBACK,"1 RB, 3 TE, 1 WR",7,"4 DL, 3 LB, 4 DB",left,2019-09-15T18:00:55.000Z,2019-09-15T18:00:54.000Z,6-6,314,08/08/1988,Fresno State,G,DET,LAC,2,Ford Field,Detroit,Indoors,Field Turf,Controlled Climate,68.0,70,,
18053,2019091502,20190915021382,home,33.37,9.81,4.16,1.5,0.41,262.82,275.67,2532884,Marvin Jones,11,2019,25,2,06:46:00,DET,2,5,LAC,6,7,2560765,SINGLEBACK,"1 RB, 3 TE, 1 WR",7,"4 DL, 3 LB, 4 DB",left,2019-09-15T18:00:55.000Z,2019-09-15T18:00:54.000Z,6-2,198,03/12/1990,California,WR,DET,LAC,2,Ford Field,Detroit,Indoors,Field Turf,Controlled Climate,68.0,70,,
18054,2019091502,20190915021382,home,35.97,31.56,1.18,0.84,0.13,305.93,159.6,2539340,Rick Wagner,71,2019,25,2,06:46:00,DET,2,5,LAC,6,7,2560765,SINGLEBACK,"1 RB, 3 TE, 1 WR",7,"4 DL, 3 LB, 4 DB",left,2019-09-15T18:00:55.000Z,2019-09-15T18:00:54.000Z,6-6,315,10/21/1989,Wisconsin,T,DET,LAC,2,Ford Field,Detroit,Indoors,Field Turf,Controlled Climate,68.0,70,,
18055,2019091502,20190915021382,home,34.41,23.81,3.41,0.86,0.34,233.38,219.98,2543767,Logan Thomas,82,2019,25,2,06:46:00,DET,2,5,LAC,6,7,2560765,SINGLEBACK,"1 RB, 3 TE, 1 WR",7,"4 DL, 3 LB, 4 DB",left,2019-09-15T18:00:55.000Z,2019-09-15T18:00:54.000Z,6-6,250,07/01/1991,Virginia Tech,TE,DET,LAC,2,Ford Field,Detroit,Indoors,Field Turf,Controlled Climate,68.0,70,,
18056,2019091502,20190915021382,home,35.05,33.26,1.8,1.93,0.18,296.18,208.77,2552633,Jesse James,83,2019,25,2,06:46:00,DET,2,5,LAC,6,7,2560765,SINGLEBACK,"1 RB, 3 TE, 1 WR",7,"4 DL, 3 LB, 4 DB",left,2019-09-15T18:00:55.000Z,2019-09-15T18:00:54.000Z,6-7,250,06/04/1994,Penn State,TE,DET,LAC,2,Ford Field,Detroit,Indoors,Field Turf,Controlled Climate,68.0,70,,
18057,2019091502,20190915021382,home,33.82,28.87,2.23,1.1,0.23,258.18,291.51,2555136,Joe Dahl,66,2019,25,2,06:46:00,DET,2,5,LAC,6,7,2560765,SINGLEBACK,"1 RB, 3 TE, 1 WR",7,"4 DL, 3 LB, 4 DB",left,2019-09-15T18:00:55.000Z,2019-09-15T18:00:54.000Z,6-4,310,04/09/1993,Washington State,G,DET,LAC,2,Ford Field,Detroit,Indoors,Field Turf,Controlled Climate,68.0,70,,
18058,2019091502,20190915021382,home,41.03,29.8,3.36,3.72,0.32,240.31,257.18,2560765,Kerryon Johnson,33,2019,25,2,06:46:00,DET,2,5,LAC,6,7,2560765,SINGLEBACK,"1 RB, 3 TE, 1 WR",7,"4 DL, 3 LB, 4 DB",left,2019-09-15T18:00:55.000Z,2019-09-15T18:00:54.000Z,5-11,212,06/30/1997,Auburn,RB,DET,LAC,2,Ford Field,Detroit,Indoors,Field Turf,Controlled Climate,68.0,70,,
18059,2019091502,20190915021382,home,34.43,28.32,1.76,1.58,0.18,312.75,313.74,2561032,Tyrell Crosby,65,2019,25,2,06:46:00,DET,2,5,LAC,6,7,2560765,SINGLEBACK,"1 RB, 3 TE, 1 WR",7,"4 DL, 3 LB, 4 DB",left,2019-09-15T18:00:55.000Z,2019-09-15T18:00:54.000Z,6-4,310,09/05/1995,Oregon,T,DET,LAC,2,Ford Field,Detroit,Indoors,Field Turf,Controlled Climate,68.0,70,,
18060,2019091502,20190915021382,home,35.09,29.87,0.81,0.93,0.11,319.79,295.9,2561142,Frank Ragnow,77,2019,25,2,06:46:00,DET,2,5,LAC,6,7,2560765,SINGLEBACK,"1 RB, 3 TE, 1 WR",7,"4 DL, 3 LB, 4 DB",left,2019-09-15T18:00:55.000Z,2019-09-15T18:00:54.000Z,6-5,311,05/17/1996,Arkansas,C,DET,LAC,2,Ford Field,Detroit,Indoors,Field Turf,Controlled Climate,68.0,70,,
18061,2019091502,20190915021382,home,37.03,31.94,5.42,2.58,0.53,211.44,190.22,2562378,T.J. Hockenson,88,2019,25,2,06:46:00,DET,2,5,LAC,6,7,2560765,SINGLEBACK,"1 RB, 3 TE, 1 WR",7,"4 DL, 3 LB, 4 DB",left,2019-09-15T18:00:55.000Z,2019-09-15T18:00:54.000Z,6-5,248,07/03/1997,Iowa,TE,DET,LAC,2,Ford Field,Detroit,Indoors,Field Turf,Controlled Climate,68.0,70,,
