,GameId,PlayId,Team,X,Y,S,A,Dis,Orientation,Dir,NflId,DisplayName,JerseyNumber,Season,YardLine,Quarter,GameClock,PossessionTeam,Down,Distance,FieldPosition,HomeScoreBeforePlay,VisitorScoreBeforePlay,NflIdRusher,OffenseFormation,OffensePersonnel,DefendersInTheBox,DefensePersonnel,PlayDirection,TimeHandoff,TimeSnap,PlayerHeight,PlayerWeight,PlayerBirthDate,PlayerCollegeName,Position,HomeTeamAbbr,VisitorTeamAbbr,Week,Stadium,Location,StadiumType,Turf,GameWeather,Temperature,Humidity,WindSpeed,WindDirection
69124,2019100607,20191006071396,away,103.36,29.21,3.7,1.17,0.36,272.21,262.51,2495466,Mark Ingram,21,2019,12,2,08:07:00,BLT,1,10,BLT,7,17,2495466,PISTOL,"1 RB, 1 TE, 3 WR",6,"2 DL, 4 LB, 5 DB",left,2019-10-06T17:57:40.000Z,2019-10-06T17:57:39.000Z,5-9,215,12/21/1989,Alabama,RB,PIT,BAL,5,Heinz Field,Pittsburgh,Outdoors,Grass,Rain,70.0,74,7,From SW
69125,2019100607,20191006071396,away,98.81,32.25,1.74,0.71,0.17,267.87,344.03,2507188,Marshal Yanda,73,2019,12,2,08:07:00,BLT,1,10,BLT,7,17,2495466,PISTOL,"1 RB, 1 TE, 3 WR",6,"2 DL, 4 LB, 5 DB",left,2019-10-06T17:57:40.000Z,2019-10-06T17:57:39.000Z,6-3,305,09/15/1984,Iowa,G,PIT,BAL,5,Heinz Field,Pittsburgh,Outdoors,Grass,Rain,70.0,74,7,From SW
69126,2019100607,20191006071396,away,97.48,24.07,4.16,1.76,0.41,264.21,278.71,2550256,Willie Snead,83,2019,12,2,08:07:00,BLT,1,10,BLT,7,17,2495466,PISTOL,"1 RB, 1 TE, 3 WR",6,"2 DL, 4 LB, 5 DB",left,2019-10-06T17:57:40.000Z,2019-10-06T17:57:39.000Z,5-11,205,10/17/1992,Ball State,WR,PIT,BAL,5,Heinz Field,Pittsburgh,Outdoors,Grass,Rain,70.0,74,7,From SW
69127,2019100607,20191006071396,away,101.2,32.89,5.5,2.33,0.54,313.26,343.61,2552402,Nick Boyle,86,2019,12,2,08:07:00,BLT,1,10,BLT,7,17,2495466,PISTOL,"1 RB, 1 TE, 3 WR",6,"2 DL, 4 LB, 5 DB",left,2019-10-06T17:57:40.000Z,2019-10-06T17:57:39.000Z,6-4,270,02/17/1993,Delaware,TE,PIT,BAL,5,Heinz Field,Pittsburgh,Outdoors,Grass,Rain,70.0,74,7,From SW
69128,2019100607,20191006071396,away,98.49,29.04,2.63,1.19,0.28,268.44,330.75,2555204,Ronnie Stanley,79,2019,12,2,08:07:00,BLT,1,10,BLT,7,17,2495466,PISTOL,"1 RB, 1 TE, 3 WR",6,"2 DL, 4 LB, 5 DB",left,2019-10-06T17:57:40.000Z,2019-10-06T17:57:39.000Z,6-6,315,03/18/1994,Notre Dame,T,PIT,BAL,5,Heinz Field,Pittsburgh,Outdoors,Grass,Rain,70.0,74,7,From SW
69129,2019100607,20191006071396,away,98.04,32.01,2.36,0.88,0.25,355.15,336.01,2556683,Matt Skura,68,2019,12,2,08:07:00,BLT,1,10,BLT,7,17,2495466,PISTOL,"1 RB, 1 TE, 3 WR",6,"2 DL, 4 LB, 5 DB",left,2019-10-06T17:57:40.000Z,2019-10-06T17:57:39.000Z,6-3,313,02/17/1993,Duke,C,PIT,BAL,5,Heinz Field,Pittsburgh,Outdoors,Grass,Rain,70.0,74,7,From SW
69130,2019100607,20191006071396,away,99.6,30.12,2.15,0.32,0.22,317.92,16.32,2559827,Bradley Bozeman,77,2019,12,2,08:07:00,BLT,1,10,BLT,7,17,2495466,PISTOL,"1 RB, 1 TE, 3 WR",6,"2 DL, 4 LB, 5 DB",left,2019-10-06T17:57:40.000Z,2019-10-06T17:57:39.000Z,6-3,317,11/24/1994,Alabama,C,PIT,BAL,5,Heinz Field,Pittsburgh,Outdoors,Grass,Rain,70.0,74,7,From SW
69131,2019100607,20191006071396,away,103.39,30.08,0.17,2.2,0.01,167.55,163.86,2560757,Lamar Jackson,8,2019,12,2,08:07:00,BLT,1,10,BLT,7,17,2495466,PISTOL,"1 RB, 1 TE, 3 WR",6,"2 DL, 4 LB, 5 DB",left,2019-10-06T17:57:40.000Z,2019-10-06T17:57:39.000Z,6-2,212,01/07/1997,Louisville,QB,PIT,BAL,5,Heinz Field,Pittsburgh,Outdoors,Grass,Rain,70.0,74,7,From SW
69132,2019100607,20191006071396,away,99.54,33.35,1.25,1.15,0.12,345.37,10.25,2560981,Orlando Brown,78,2019,12,2,08:07:00,BLT,1,10,BLT,7,17,2495466,PISTOL,"1 RB, 1 TE, 3 WR",6,"2 DL, 4 LB, 5 DB",left,2019-10-06T17:57:40.000Z,2019-10-06T17:57:39.000Z,6-8,345,05/02/1996,Oklahoma,T,PIT,BAL,5,Heinz Field,Pittsburgh,Outdoors,Grass,Rain,70.0,74,7,From SW
69133,2019100607,20191006071396,away,96.53,43.01,4.7,1.93,0.47,251.56,246.49,2562379,Marquise Brown,15,2019,12,2,08:07:00,BLT,1,10,BLT,7,17,2495466,PISTOL,"1 RB, 1 TE, 3 WR",6,"2 DL, 4 LB, 5 DB",left,2019-10-06T17:57:40.000Z,2019-10-06T17:57:39.000Z,5-9,170,06/04/1997,Oklahoma,WR,PIT,BAL,5,Heinz Field,Pittsburgh,Outdoors,Grass,Rain,70.0,74,7,From SW
69134,2019100607,20191006071396,away,95.32,10.16,5.6,3.53,0.53,281.03,278.75,2562631,Miles Boykin,80,2019,12,2,08:07:00,BLT,1,10,BLT,7,17,2495466,PISTOL,"1 RB, 1 TE, 3 WR",6,"2 DL, 4 LB, 5 DB",left,2019-10-06T17:57:40.000Z,2019-10-06T17:57:39.000Z,6-4,220,10/12/1996,Notre Dame,WR,PIT,BAL,5,Heinz Field,Pittsburgh,Outdoors,Grass,Rain,70.0,74,7,From SW
69135,2019100607,20191006071396,home,93.76,44.11,3.43,2.08,0.34,193.5,248.88,496733,Joe Haden,23,2019,12,2,08:07:00,BLT,1,10,BLT,7,17,2495466,PISTOL,"1 RB, 1 TE, 3 WR",6,"2 DL, 4 LB, 5 DB",left,2019-10-06T17:57:40.000Z,2019-10-06T17:57:39.000Z,5-11,195,04/14/1989,Florida,CB,PIT,BAL,5,Heinz Field,Pittsburgh,Outdoors,Grass,Rain,70.0,74,7,From SW
69136,2019100607,20191006071396,home,99.33,30.63,2.64,1.93,0.27,98.04,31.58,2508109,Cameron Heyward,97,2019,12,2,08:07:00,BLT,1,10,BLT,7,17,2495466,PISTOL,"1 RB, 1 TE, 3 WR",6,"2 DL, 4 LB, 5 DB",left,2019-10-06T17:57:40.000Z,2019-10-06T17:57:39.000Z,6-5,295,05/06/1989,Ohio State,DT,PIT,BAL,5,Heinz Field,Pittsburgh,Outdoors,Grass,Rain,70.0,74,7,From SW
69137,2019100607,20191006071396,home,96.4,34.23,4.33,1.0,0.43,65.31,22.62,2540221,Vince Williams,98,2019,12,2,08:07:00,BLT,1,10,BLT,7,17,2495466,PISTOL,"1 RB, 1 TE, 3 WR",6,"2 DL, 4 LB, 5 DB",left,2019-10-06T17:57:40.000Z,2019-10-06T17:57:39.000Z,6-1,233,12/27/1989,Florida State,ILB,PIT,BAL,5,Heinz Field,Pittsburgh,Outdoors,Grass,Rain,70.0,74,7,From SW
69138,2019100607,20191006071396,home,98.41,32.93,2.09,1.75,0.21,112.68,10.0,2543483,Stephon Tuitt,91,2019,12,2,08:07:00,BLT,1,10,BLT,7,17,2495466,PISTOL,"1 RB, 1 TE, 3 WR",6,"2 DL, 4 LB, 5 DB",left,2019-10-06T17:57:40.000Z,2019-10-06T17:57:39.000Z,6-6,303,05/23/1993,Notre Dame,DE,PIT,BAL,5,Heinz Field,Pittsburgh,Outdoors,Grass,Rain,70.0,74,7,From SW
69139,2019100607,20191006071396,home,90.07,10.45,2.15,2.09,0.2,67.75,275.76,2552265,Steven Nelson,22,2019,12,2,08:07:00,BLT,1,10,BLT,7,17,2495466,PISTOL,"1 RB, 1 TE, 3 WR",6,"2 DL, 4 LB, 5 DB",left,2019-10-06T17:57:40.000Z,2019-10-06T17:57:39.000Z,5-11,194,01/22/1993,Oregon State,CB,PIT,BAL,5,Heinz Field,Pittsburgh,Outdoors,Grass,Rain,70.0,74,7,From SW
69140,2019100607,20191006071396,home,101.71,25.86,3.74,3.16,0.39,41.01,65.82,2552289,Bud Dupree,48,2019,12,2,08:07:00,BLT,1,10,BLT,7,17,2495466,PISTOL,"1 RB, 1 TE, 3 WR",6,"2 DL, 4 LB, 5 DB",left,2019-10-06T17:57:40.000Z,2019-10-06T17:57:39.000Z,6-4,269,02/12/1993,Kentucky,OLB,PIT,BAL,5,Heinz Field,Pittsburgh,Outdoors,Grass,Rain,70.0,74,7,From SW
69141,2019100607,20191006071396,home,99.7,28.17,4.75,1.59,0.48,62.53,56.86,2556559,Mike Hilton,28,2019,12,2,08:07:00,BLT,1,10,BLT,7,17,2495466,PISTOL,"1 RB, 1 TE, 3 WR",6,"2 DL, 4 LB, 5 DB",left,2019-10-06T17:57:40.000Z,2019-10-06T17:57:39.000Z,5-9,184,03/09/1994,Mississippi,CB,PIT,BAL,5,Heinz Field,Pittsburgh,Outdoors,Grass,Rain,70.0,74,7,From SW
69142,2019100607,20191006071396,home,99.01,34.18,1.94,2.1,0.19,153.71,60.74,2558064,T.J. Watt,90,2019,12,2,08:07:00,BLT,1,10,BLT,7,17,2495466,PISTOL,"1 RB, 1 TE, 3 WR",6,"2 DL, 4 LB, 5 DB",left,2019-10-06T17:57:40.000Z,2019-10-06T17:57:39.000Z,6-4,252,10/11/1994,Wisconsin,OLB,PIT,BAL,5,Heinz Field,Pittsburgh,Outdoors,Grass,Rain,70.0,74,7,From SW
69143,2019100607,20191006071396,home,84.13,34.65,2.46,0.76,0.24,108.79,273.78,2560712,Terrell Edmunds,34,2019,12,2,08:07:00,BLT,1,10,BLT,7,17,2495466,PISTOL,"1 RB, 1 TE, 3 WR",6,"2 DL, 4 LB, 5 DB",left,2019-10-06T17:57:40.000Z,2019-10-06T17:57:39.000Z,6-1,217,01/20/1997,Virginia Tech,S,PIT,BAL,5,Heinz Field,Pittsburgh,Outdoors,Grass,Rain,70.0,74,7,From SW
69144,2019100607,20191006071396,home,92.7,24.08,1.08,1.05,0.11,77.53,24.09,2560725,Minkah Fitzpatrick,39,2019,12,2,08:07:00,BLT,1,10,BLT,7,17,2495466,PISTOL,"1 RB, 1 TE, 3 WR",6,"2 DL, 4 LB, 5 DB",left,2019-10-06T17:57:40.000Z,2019-10-06T17:57:39.000Z,6-1,207,11/17/1996,Alabama,S,PIT,BAL,5,Heinz Field,Pittsburgh,Outdoors,Grass,Rain,70.0,74,7,From SW
69145,2019100607,20191006071396,home,95.65,30.12,2.31,1.85,0.24,70.53,37.8,2562243,Devin Bush,55,2019,12,2,08:07:00,BLT,1,10,BLT,7,17,2495466,PISTOL,"1 RB, 1 TE, 3 WR",6,"2 DL, 4 LB, 5 DB",left,2019-10-06T17:57:40.000Z,2019-10-06T17:57:39.000Z,5-11,233,07/18/1998,Michigan,LB,PIT,BAL,5,Heinz Field,Pittsburgh,Outdoors,Grass,Rain,70.0,74,7,From SW
