,GameId,PlayId,Team,X,Y,S,A,Dis,Orientation,Dir,NflId,DisplayName,JerseyNumber,Season,YardLine,Quarter,GameClock,PossessionTeam,Down,Distance,FieldPosition,HomeScoreBeforePlay,VisitorScoreBeforePlay,NflIdRusher,OffenseFormation,OffensePersonnel,DefendersInTheBox,DefensePersonnel,PlayDirection,TimeHandoff,TimeSnap,PlayerHeight,PlayerWeight,PlayerBirthDate,PlayerCollegeName,Position,HomeTeamAbbr,VisitorTeamAbbr,Week,Stadium,Location,StadiumType,Turf,GameWeather,Temperature,Humidity,WindSpeed,WindDirection
56188,2019092909,20190929092121,away,76.41,33.44,2.08,2.62,0.2,119.11,103.52,2507716,Demar Dotson,69,2019,36,2,02:20:00,TB,1,10,TB,14,21,2556466,I_FORM,"1 RB, 2 TE, 2 WR",8,"3 DL, 4 LB, 4 DB",left,2019-09-29T21:27:47.000Z,2019-09-29T21:27:45.000Z,6-9,315,10/11/1985,Southern Mississippi,OT,LA,TB,4,Los Angeles Memorial Coliseum,"Los Angeles, Calif.",Outdoor,Grass,Mostly Sunny,74.0,41,2,SW
56189,2019092909,20190929092121,away,74.18,27.01,2.55,2.29,0.26,209.71,201.23,2541159,Ryan Jensen,66,2019,36,2,02:20:00,TB,1,10,TB,14,21,2556466,I_FORM,"1 RB, 2 TE, 2 WR",8,"3 DL, 4 LB, 4 DB",left,2019-09-29T21:27:47.000Z,2019-09-29T21:27:45.000Z,6-4,319,05/27/1991,Colorado State-Pueblo,C,LA,TB,4,Los Angeles Memorial Coliseum,"Los Angeles, Calif.",Outdoor,Grass,Mostly Sunny,74.0,41,2,SW
56190,2019092909,20190929092121,away,74.83,43.74,1.1,1.84,0.11,176.5,235.57,2543468,Mike Evans,13,2019,36,2,02:20:00,TB,1,10,TB,14,21,2556466,I_FORM,"1 RB, 2 TE, 2 WR",8,"3 DL, 4 LB, 4 DB",left,2019-09-29T21:27:47.000Z,2019-09-29T21:27:45.000Z,6-5,231,08/21/1993,Texas A&M,WR,LA,TB,4,Los Angeles Memorial Coliseum,"Los Angeles, Calif.",Outdoor,Grass,Mostly Sunny,74.0,41,2,SW
56191,2019092909,20190929092121,away,78.86,28.58,3.82,1.96,0.38,136.03,98.53,2552033,Jameis Winston,3,2019,36,2,02:20:00,TB,1,10,TB,14,21,2556466,I_FORM,"1 RB, 2 TE, 2 WR",8,"3 DL, 4 LB, 4 DB",left,2019-09-29T21:27:47.000Z,2019-09-29T21:27:45.000Z,6-4,231,01/06/1994,Florida State,QB,LA,TB,4,Los Angeles Memorial Coliseum,"Los Angeles, Calif.",Outdoor,Grass,Mostly Sunny,74.0,41,2,SW
56192,2019092909,20190929092121,away,74.19,26.25,2.42,0.9,0.24,242.72,208.42,2552332,Ali Marpet,74,2019,36,2,02:20:00,TB,1,10,TB,14,21,2556466,I_FORM,"1 RB, 2 TE, 2 WR",8,"3 DL, 4 LB, 4 DB",left,2019-09-29T21:27:47.000Z,2019-09-29T21:27:45.000Z,6-4,307,04/17/1993,Hobart,G,LA,TB,4,Los Angeles Memorial Coliseum,"Los Angeles, Calif.",Outdoor,Grass,Mostly Sunny,74.0,41,2,SW
56193,2019092909,20190929092121,away,75.57,25.36,1.43,0.72,0.14,180.16,146.49,2552460,Donovan Smith,76,2019,36,2,02:20:00,TB,1,10,TB,14,21,2556466,I_FORM,"1 RB, 2 TE, 2 WR",8,"3 DL, 4 LB, 4 DB",left,2019-09-29T21:27:47.000Z,2019-09-29T21:27:45.000Z,6-6,338,06/23/1993,Penn State,T,LA,TB,4,Los Angeles Memorial Coliseum,"Los Angeles, Calif.",Outdoor,Grass,Mostly Sunny,74.0,41,2,SW
56194,2019092909,20190929092121,away,78.62,27.7,4.7,1.41,0.46,24.5,238.64,2556466,Peyton Barber,25,2019,36,2,02:20:00,TB,1,10,TB,14,21,2556466,I_FORM,"1 RB, 2 TE, 2 WR",8,"3 DL, 4 LB, 4 DB",left,2019-09-29T21:27:47.000Z,2019-09-29T21:27:45.000Z,5-11,225,02/27/1994,Auburn,RB,LA,TB,4,Los Angeles Memorial Coliseum,"Los Angeles, Calif.",Outdoor,Grass,Mostly Sunny,74.0,41,2,SW
56195,2019092909,20190929092121,away,75.45,23.13,2.38,0.92,0.24,197.0,182.76,2557856,O.J. Howard,80,2019,36,2,02:20:00,TB,1,10,TB,14,21,2556466,I_FORM,"1 RB, 2 TE, 2 WR",8,"3 DL, 4 LB, 4 DB",left,2019-09-29T21:27:47.000Z,2019-09-29T21:27:45.000Z,6-6,250,11/18/1994,Alabama,TE,LA,TB,4,Los Angeles Memorial Coliseum,"Los Angeles, Calif.",Outdoor,Grass,Mostly Sunny,74.0,41,2,SW
56196,2019092909,20190929092121,away,72.49,23.87,3.09,1.1,0.31,302.26,265.0,2558105,Chris Godwin,12,2019,36,2,02:20:00,TB,1,10,TB,14,21,2556466,I_FORM,"1 RB, 2 TE, 2 WR",8,"3 DL, 4 LB, 4 DB",left,2019-09-29T21:27:47.000Z,2019-09-29T21:27:45.000Z,6-1,209,02/27/1996,Penn State,WR,LA,TB,4,Los Angeles Memorial Coliseum,"Los Angeles, Calif.",Outdoor,Grass,Mostly Sunny,74.0,41,2,SW
56197,2019092909,20190929092121,away,74.5,29.17,2.59,2.89,0.26,316.18,266.31,2559044,Antony Auclair,82,2019,36,2,02:20:00,TB,1,10,TB,14,21,2556466,I_FORM,"1 RB, 2 TE, 2 WR",8,"3 DL, 4 LB, 4 DB",left,2019-09-29T21:27:47.000Z,2019-09-29T21:27:45.000Z,6-6,256,05/28/1993,"Laval, Can.",TE,LA,TB,4,Los Angeles Memorial Coliseum,"Los Angeles, Calif.",Outdoor,Grass,Mostly Sunny,74.0,41,2,SW
56198,2019092909,20190929092121,away,73.48,28.43,2.36,2.37,0.24,203.89,193.31,2560991,Alex Cappa,65,2019,36,2,02:20:00,TB,1,10,TB,14,21,2556466,I_FORM,"1 RB, 2 TE, 2 WR",8,"3 DL, 4 LB, 4 DB",left,2019-09-29T21:27:47.000Z,2019-09-29T21:27:45.000Z,6-6,305,01/27/1995,Humboldt State,G,LA,TB,4,Los Angeles Memorial Coliseum,"Los Angeles, Calif.",Outdoor,Grass,Mostly Sunny,74.0,41,2,SW
56199,2019092909,20190929092121,home,61.88,43.25,2.75,1.47,0.27,163.27,247.08,1302,Aqib Talib,21,2019,36,2,02:20:00,TB,1,10,TB,14,21,2556466,I_FORM,"1 RB, 2 TE, 2 WR",8,"3 DL, 4 LB, 4 DB",left,2019-09-29T21:27:47.000Z,2019-09-29T21:27:45.000Z,6-1,209,02/13/1986,Kansas,CB,LA,TB,4,Los Angeles Memorial Coliseum,"Los Angeles, Calif.",Outdoor,Grass,Mostly Sunny,74.0,41,2,SW
56200,2019092909,20190929092121,home,77.11,33.78,4.5,3.82,0.45,165.02,129.09,80431,Clay Matthews,52,2019,36,2,02:20:00,TB,1,10,TB,14,21,2556466,I_FORM,"1 RB, 2 TE, 2 WR",8,"3 DL, 4 LB, 4 DB",left,2019-09-29T21:27:47.000Z,2019-09-29T21:27:45.000Z,6-3,255,05/14/1986,Southern California,OLB,LA,TB,4,Los Angeles Memorial Coliseum,"Los Angeles, Calif.",Outdoor,Grass,Mostly Sunny,74.0,41,2,SW
56201,2019092909,20190929092121,home,72.22,31.18,3.07,0.37,0.3,149.52,144.76,2495775,Eric Weddle,32,2019,36,2,02:20:00,TB,1,10,TB,14,21,2556466,I_FORM,"1 RB, 2 TE, 2 WR",8,"3 DL, 4 LB, 4 DB",left,2019-09-29T21:27:47.000Z,2019-09-29T21:27:45.000Z,5-11,195,01/04/1985,Utah,FS,LA,TB,4,Los Angeles Memorial Coliseum,"Los Angeles, Calif.",Outdoor,Grass,Mostly Sunny,74.0,41,2,SW
56202,2019092909,20190929092121,home,69.42,20.41,1.09,0.56,0.1,14.27,239.16,2552488,Marcus Peters,22,2019,36,2,02:20:00,TB,1,10,TB,14,21,2556466,I_FORM,"1 RB, 2 TE, 2 WR",8,"3 DL, 4 LB, 4 DB",left,2019-09-29T21:27:47.000Z,2019-09-29T21:27:45.000Z,6-0,197,01/09/1993,Washington,CB,LA,TB,4,Los Angeles Memorial Coliseum,"Los Angeles, Calif.",Outdoor,Grass,Mostly Sunny,74.0,41,2,SW
56203,2019092909,20190929092121,home,74.69,24.89,1.21,1.94,0.12,79.35,147.88,2556529,Morgan Fox,97,2019,36,2,02:20:00,TB,1,10,TB,14,21,2556466,I_FORM,"1 RB, 2 TE, 2 WR",8,"3 DL, 4 LB, 4 DB",left,2019-09-29T21:27:47.000Z,2019-09-29T21:27:45.000Z,6-3,275,09/12/1994,Colorado State-Pueblo,DE,LA,TB,4,Los Angeles Memorial Coliseum,"Los Angeles, Calif.",Outdoor,Grass,Mostly Sunny,74.0,41,2,SW
56204,2019092909,20190929092121,home,72.54,27.63,2.63,1.69,0.27,111.71,121.04,2556593,Cory Littleton,58,2019,36,2,02:20:00,TB,1,10,TB,14,21,2556466,I_FORM,"1 RB, 2 TE, 2 WR",8,"3 DL, 4 LB, 4 DB",left,2019-09-29T21:27:47.000Z,2019-09-29T21:27:45.000Z,6-3,228,11/18/1993,Washington,ILB,LA,TB,4,Los Angeles Memorial Coliseum,"Los Angeles, Calif.",Outdoor,Grass,Mostly Sunny,74.0,41,2,SW
56205,2019092909,20190929092121,home,65.78,27.26,2.96,2.55,0.29,91.69,103.51,2558183,John Johnson,43,2019,36,2,02:20:00,TB,1,10,TB,14,21,2556466,I_FORM,"1 RB, 2 TE, 2 WR",8,"3 DL, 4 LB, 4 DB",left,2019-09-29T21:27:47.000Z,2019-09-29T21:27:45.000Z,6-0,209,12/19/1995,Boston College,SS,LA,TB,4,Los Angeles Memorial Coliseum,"Los Angeles, Calif.",Outdoor,Grass,Mostly Sunny,74.0,41,2,SW
56206,2019092909,20190929092121,home,73.48,29.53,2.57,2.18,0.26,110.13,203.21,2558199,Tanzel Smart,92,2019,36,2,02:20:00,TB,1,10,TB,14,21,2556466,I_FORM,"1 RB, 2 TE, 2 WR",8,"3 DL, 4 LB, 4 DB",left,2019-09-29T21:27:47.000Z,2019-09-29T21:27:45.000Z,6-1,295,11/06/1994,Tulane,DT,LA,TB,4,Los Angeles Memorial Coliseum,"Los Angeles, Calif.",Outdoor,Grass,Mostly Sunny,74.0,41,2,SW
56207,2019092909,20190929092121,home,74.72,22.36,2.07,0.93,0.2,56.22,146.39,2558830,Samson Ebukam,50,2019,36,2,02:20:00,TB,1,10,TB,14,21,2556466,I_FORM,"1 RB, 2 TE, 2 WR",8,"3 DL, 4 LB, 4 DB",left,2019-09-29T21:27:47.000Z,2019-09-29T21:27:45.000Z,6-3,245,05/09/1995,Eastern Washington,OLB,LA,TB,4,Los Angeles Memorial Coliseum,"Los Angeles, Calif.",Outdoor,Grass,Mostly Sunny,74.0,41,2,SW
56208,2019092909,20190929092121,home,73.28,26.65,2.14,1.37,0.22,104.63,206.95,2561079,Sebastian Joseph-Day,69,2019,36,2,02:20:00,TB,1,10,TB,14,21,2556466,I_FORM,"1 RB, 2 TE, 2 WR",8,"3 DL, 4 LB, 4 DB",left,2019-09-29T21:27:47.000Z,2019-09-29T21:27:45.000Z,6-4,310,03/21/1995,Rutgers,DT,LA,TB,4,Los Angeles Memorial Coliseum,"Los Angeles, Calif.",Outdoor,Grass,Mostly Sunny,74.0,41,2,SW
56209,2019092909,20190929092121,home,71.82,25.61,0.7,2.9,0.08,76.51,124.39,2563313,Troy Reeder,51,2019,36,2,02:20:00,TB,1,10,TB,14,21,2556466,I_FORM,"1 RB, 2 TE, 2 WR",8,"3 DL, 4 LB, 4 DB",left,2019-09-29T21:27:47.000Z,2019-09-29T21:27:45.000Z,6-3,245,09/13/1994,Delaware,LB,LA,TB,4,Los Angeles Memorial Coliseum,"Los Angeles, Calif.",Outdoor,Grass,Mostly Sunny,74.0,41,2,SW
