,GameId,PlayId,Team,X,Y,S,A,Dis,Orientation,Dir,NflId,DisplayName,JerseyNumber,Season,YardLine,Quarter,GameClock,PossessionTeam,Down,Distance,FieldPosition,HomeScoreBeforePlay,VisitorScoreBeforePlay,NflIdRusher,OffenseFormation,OffensePersonnel,DefendersInTheBox,DefensePersonnel,PlayDirection,TimeHandoff,TimeSnap,PlayerHeight,PlayerWeight,PlayerBirthDate,PlayerCollegeName,Position,HomeTeamAbbr,VisitorTeamAbbr,Week,Stadium,Location,StadiumType,Turf,GameWeather,Temperature,Humidity,WindSpeed,WindDirection
74074,2019100612,20191006123619,away,49.58,30.12,3.82,0.99,0.4,59.91,349.93,2495137,Anthony Castonzo,74,2019,39,4,13:52:00,IND,4,1,KC,10,13,2558123,SINGLEBACK,"1 RB, 2 TE, 2 WR",7,"4 DL, 2 LB, 5 DB",left,2019-10-07T02:58:56.000Z,2019-10-07T02:58:54.000Z,6-7,307,08/09/1988,Boston College,T,KC,IND,5,Arrowhead Stadium,"Kansas City, MO",Outdoor,Natural Grass,Cloudy,59.0,75,3,West
74075,2019100612,20191006123619,away,47.75,17.98,4.61,2.12,0.46,302.3,288.08,2532865,T.Y. Hilton,13,2019,39,4,13:52:00,IND,4,1,KC,10,13,2558123,SINGLEBACK,"1 RB, 2 TE, 2 WR",7,"4 DL, 2 LB, 5 DB",left,2019-10-07T02:58:56.000Z,2019-10-07T02:58:54.000Z,5-10,183,11/14/1989,Florida International,WR,KC,IND,5,Arrowhead Stadium,"Kansas City, MO",Outdoor,Natural Grass,Cloudy,59.0,75,3,West
74076,2019100612,20191006123619,away,48.86,37.93,4.31,0.8,0.43,275.01,337.49,2540232,Jack Doyle,84,2019,39,4,13:52:00,IND,4,1,KC,10,13,2558123,SINGLEBACK,"1 RB, 2 TE, 2 WR",7,"4 DL, 2 LB, 5 DB",left,2019-10-07T02:58:56.000Z,2019-10-07T02:58:54.000Z,6-6,262,05/05/1990,Western Kentucky,TE,KC,IND,5,Arrowhead Stadium,"Kansas City, MO",Outdoor,Natural Grass,Cloudy,59.0,75,3,West
74077,2019100612,20191006123619,away,49.17,38.93,5.29,1.82,0.52,282.08,329.07,2543466,Eric Ebron,85,2019,39,4,13:52:00,IND,4,1,KC,10,13,2558123,SINGLEBACK,"1 RB, 2 TE, 2 WR",7,"4 DL, 2 LB, 5 DB",left,2019-10-07T02:58:56.000Z,2019-10-07T02:58:54.000Z,6-4,253,04/10/1993,North Carolina,TE,KC,IND,5,Arrowhead Stadium,"Kansas City, MO",Outdoor,Natural Grass,Cloudy,59.0,75,3,West
74078,2019100612,20191006123619,away,50.55,34.22,2.22,1.89,0.23,120.7,40.86,2552467,Mark Glowinski,64,2019,39,4,13:52:00,IND,4,1,KC,10,13,2558123,SINGLEBACK,"1 RB, 2 TE, 2 WR",7,"4 DL, 2 LB, 5 DB",left,2019-10-07T02:58:56.000Z,2019-10-07T02:58:54.000Z,6-4,310,05/03/1992,West Virginia,G,KC,IND,5,Arrowhead Stadium,"Kansas City, MO",Outdoor,Natural Grass,Cloudy,59.0,75,3,West
74079,2019100612,20191006123619,away,48.54,33.18,3.12,0.25,0.35,316.24,337.59,2555191,Ryan Kelly,78,2019,39,4,13:52:00,IND,4,1,KC,10,13,2558123,SINGLEBACK,"1 RB, 2 TE, 2 WR",7,"4 DL, 2 LB, 5 DB",left,2019-10-07T02:58:56.000Z,2019-10-07T02:58:54.000Z,6-4,309,05/30/1993,Alabama,C,KC,IND,5,Arrowhead Stadium,"Kansas City, MO",Outdoor,Natural Grass,Cloudy,59.0,75,3,West
74080,2019100612,20191006123619,away,54.19,33.41,5.1,1.07,0.51,54.21,50.87,2555261,Jacoby Brissett,7,2019,39,4,13:52:00,IND,4,1,KC,10,13,2558123,SINGLEBACK,"1 RB, 2 TE, 2 WR",7,"4 DL, 2 LB, 5 DB",left,2019-10-07T02:58:56.000Z,2019-10-07T02:58:54.000Z,6-4,235,12/11/1992,North Carolina State,QB,KC,IND,5,Arrowhead Stadium,"Kansas City, MO",Outdoor,Natural Grass,Cloudy,59.0,75,3,West
74081,2019100612,20191006123619,away,54.65,34.26,6.3,1.63,0.62,317.8,341.22,2558123,Marlon Mack,25,2019,39,4,13:52:00,IND,4,1,KC,10,13,2558123,SINGLEBACK,"1 RB, 2 TE, 2 WR",7,"4 DL, 2 LB, 5 DB",left,2019-10-07T02:58:56.000Z,2019-10-07T02:58:54.000Z,6-0,210,03/07/1996,South Florida,RB,KC,IND,5,Arrowhead Stadium,"Kansas City, MO",Outdoor,Natural Grass,Cloudy,59.0,75,3,West
74082,2019100612,20191006123619,away,51.45,32.92,4.19,1.29,0.43,312.54,12.76,2560820,Quenton Nelson,56,2019,39,4,13:52:00,IND,4,1,KC,10,13,2558123,SINGLEBACK,"1 RB, 2 TE, 2 WR",7,"4 DL, 2 LB, 5 DB",left,2019-10-07T02:58:56.000Z,2019-10-07T02:58:54.000Z,6-5,330,03/19/1996,Notre Dame,G,KC,IND,5,Arrowhead Stadium,"Kansas City, MO",Outdoor,Natural Grass,Cloudy,59.0,75,3,West
74083,2019100612,20191006123619,away,51.11,36.46,3.9,0.48,0.41,277.36,13.67,2560876,Braden Smith,72,2019,39,4,13:52:00,IND,4,1,KC,10,13,2558123,SINGLEBACK,"1 RB, 2 TE, 2 WR",7,"4 DL, 2 LB, 5 DB",left,2019-10-07T02:58:56.000Z,2019-10-07T02:58:54.000Z,6-6,315,03/25/1996,Auburn,G,KC,IND,5,Arrowhead Stadium,"Kansas City, MO",Outdoor,Natural Grass,Cloudy,59.0,75,3,West
74084,2019100612,20191006123619,away,48.55,10.07,2.63,3.5,0.25,314.4,337.25,2560987,Deon Cain,11,2019,39,4,13:52:00,IND,4,1,KC,10,13,2558123,SINGLEBACK,"1 RB, 2 TE, 2 WR",7,"4 DL, 2 LB, 5 DB",left,2019-10-07T02:58:56.000Z,2019-10-07T02:58:54.000Z,6-2,202,08/09/1996,Clemson,WR,KC,IND,5,Arrowhead Stadium,"Kansas City, MO",Outdoor,Natural Grass,Cloudy,59.0,75,3,West
74085,2019100612,20191006123619,home,47.5,9.66,2.28,3.84,0.21,83.81,353.52,2533059,Morris Claiborne,20,2019,39,4,13:52:00,IND,4,1,KC,10,13,2558123,SINGLEBACK,"1 RB, 2 TE, 2 WR",7,"4 DL, 2 LB, 5 DB",left,2019-10-07T02:58:56.000Z,2019-10-07T02:58:54.000Z,5-11,192,02/07/1990,Louisiana State,CB,KC,IND,5,Arrowhead Stadium,"Kansas City, MO",Outdoor,Natural Grass,Cloudy,59.0,75,3,West
74086,2019100612,20191006123619,home,47.83,38.01,4.12,2.46,0.4,88.68,347.15,2540180,Tyrann Mathieu,32,2019,39,4,13:52:00,IND,4,1,KC,10,13,2558123,SINGLEBACK,"1 RB, 2 TE, 2 WR",7,"4 DL, 2 LB, 5 DB",left,2019-10-07T02:58:56.000Z,2019-10-07T02:58:54.000Z,5-9,190,05/13/1992,Louisiana State,FS,KC,IND,5,Arrowhead Stadium,"Kansas City, MO",Outdoor,Natural Grass,Cloudy,59.0,75,3,West
74087,2019100612,20191006123619,home,44.2,39.75,3.43,3.2,0.34,61.54,347.46,2543571,Bashaud Breeland,21,2019,39,4,13:52:00,IND,4,1,KC,10,13,2558123,SINGLEBACK,"1 RB, 2 TE, 2 WR",7,"4 DL, 2 LB, 5 DB",left,2019-10-07T02:58:56.000Z,2019-10-07T02:58:54.000Z,5-11,195,01/30/1992,Clemson,CB,KC,IND,5,Arrowhead Stadium,"Kansas City, MO",Outdoor,Natural Grass,Cloudy,59.0,75,3,West
74088,2019100612,20191006123619,home,51.08,30.09,4.08,1.62,0.42,81.72,45.08,2552629,Frank Clark,55,2019,39,4,13:52:00,IND,4,1,KC,10,13,2558123,SINGLEBACK,"1 RB, 2 TE, 2 WR",7,"4 DL, 2 LB, 5 DB",left,2019-10-07T02:58:56.000Z,2019-10-07T02:58:54.000Z,6-3,260,06/14/1993,Michigan,DE,KC,IND,5,Arrowhead Stadium,"Kansas City, MO",Outdoor,Natural Grass,Cloudy,59.0,75,3,West
74089,2019100612,20191006123619,home,46.27,34.58,5.67,2.26,0.56,58.6,19.16,2552686,Damien Wilson,54,2019,39,4,13:52:00,IND,4,1,KC,10,13,2558123,SINGLEBACK,"1 RB, 2 TE, 2 WR",7,"4 DL, 2 LB, 5 DB",left,2019-10-07T02:58:56.000Z,2019-10-07T02:58:54.000Z,6-0,243,05/28/1993,Minnesota,OLB,KC,IND,5,Arrowhead Stadium,"Kansas City, MO",Outdoor,Natural Grass,Cloudy,59.0,75,3,West
74090,2019100612,20191006123619,home,50.2,36.48,3.75,1.42,0.39,66.94,18.0,2555278,Emmanuel Ogbah,90,2019,39,4,13:52:00,IND,4,1,KC,10,13,2558123,SINGLEBACK,"1 RB, 2 TE, 2 WR",7,"4 DL, 2 LB, 5 DB",left,2019-10-07T02:58:56.000Z,2019-10-07T02:58:54.000Z,6-4,275,11/06/1993,Oklahoma State,DE,KC,IND,5,Arrowhead Stadium,"Kansas City, MO",Outdoor,Natural Grass,Cloudy,59.0,75,3,West
74091,2019100612,20191006123619,home,50.45,28.21,5.65,2.91,0.56,23.49,6.95,2555349,Kendall Fuller,29,2019,39,4,13:52:00,IND,4,1,KC,10,13,2558123,SINGLEBACK,"1 RB, 2 TE, 2 WR",7,"4 DL, 2 LB, 5 DB",left,2019-10-07T02:58:56.000Z,2019-10-07T02:58:54.000Z,5-11,198,02/13/1995,Virginia Tech,CB,KC,IND,5,Arrowhead Stadium,"Kansas City, MO",Outdoor,Natural Grass,Cloudy,59.0,75,3,West
74092,2019100612,20191006123619,home,51.18,32.17,2.45,3.92,0.26,5.27,31.51,2560823,Derrick Nnadi,91,2019,39,4,13:52:00,IND,4,1,KC,10,13,2558123,SINGLEBACK,"1 RB, 2 TE, 2 WR",7,"4 DL, 2 LB, 5 DB",left,2019-10-07T02:58:56.000Z,2019-10-07T02:58:54.000Z,6-1,310,05/09/1996,Florida State,NT,KC,IND,5,Arrowhead Stadium,"Kansas City, MO",Outdoor,Natural Grass,Cloudy,59.0,75,3,West
74093,2019100612,20191006123619,home,48.31,33.66,3.8,0.79,0.37,124.81,356.01,2561383,Ben Niemann,56,2019,39,4,13:52:00,IND,4,1,KC,10,13,2558123,SINGLEBACK,"1 RB, 2 TE, 2 WR",7,"4 DL, 2 LB, 5 DB",left,2019-10-07T02:58:56.000Z,2019-10-07T02:58:54.000Z,6-2,233,07/27/1995,Iowa,LB,KC,IND,5,Arrowhead Stadium,"Kansas City, MO",Outdoor,Natural Grass,Cloudy,59.0,75,3,West
74094,2019100612,20191006123619,home,50.96,33.89,3.45,1.57,0.37,7.15,42.5,2562723,Khalen Saunders,99,2019,39,4,13:52:00,IND,4,1,KC,10,13,2558123,SINGLEBACK,"1 RB, 2 TE, 2 WR",7,"4 DL, 2 LB, 5 DB",left,2019-10-07T02:58:56.000Z,2019-10-07T02:58:54.000Z,6-0,324,08/09/1996,Western Illinois,DT,KC,IND,5,Arrowhead Stadium,"Kansas City, MO",Outdoor,Natural Grass,Cloudy,59.0,75,3,West
74095,2019100612,20191006123619,home,42.97,18.39,2.0,2.31,0.19,62.84,282.91,2562761,Juan Thornhill,22,2019,39,4,13:52:00,IND,4,1,KC,10,13,2558123,SINGLEBACK,"1 RB, 2 TE, 2 WR",7,"4 DL, 2 LB, 5 DB",left,2019-10-07T02:58:56.000Z,2019-10-07T02:58:54.000Z,6-0,205,10/19/1995,Virginia,DB,KC,IND,5,Arrowhead Stadium,"Kansas City, MO",Outdoor,Natural Grass,Cloudy,59.0,75,3,West
