,GameId,PlayId,Team,X,Y,S,A,Dis,Orientation,Dir,NflId,DisplayName,JerseyNumber,Season,YardLine,Quarter,GameClock,PossessionTeam,Down,Distance,FieldPosition,HomeScoreBeforePlay,VisitorScoreBeforePlay,NflIdRusher,OffenseFormation,OffensePersonnel,DefendersInTheBox,DefensePersonnel,PlayDirection,TimeHandoff,TimeSnap,PlayerHeight,PlayerWeight,PlayerBirthDate,PlayerCollegeName,Position,HomeTeamAbbr,VisitorTeamAbbr,Week,Stadium,Location,StadiumType,Turf,GameWeather,Temperature,Humidity,WindSpeed,WindDirection
72908,2019100611,20191006111650,away,16.14,28.02,1.73,1.25,0.17,291.18,21.73,496988,Bryan Bulaga,75,2019,5,2,03:53:00,GB,2,3,DAL,0,14,2558116,SHOTGUN,"1 RB, 1 TE, 3 WR",7,"4 DL, 2 LB, 5 DB",left,2019-10-06T21:32:46.000Z,2019-10-06T21:32:44.000Z,6-5,314,03/21/1989,Iowa,OT,DAL,GB,5,AT&T Stadium,"Arlington, Texas",Indoor,Artificial,,,0,,
72909,2019100611,20191006111650,away,15.51,20.05,3.4,1.84,0.33,272.27,337.36,2495888,Marcedes Lewis,89,2019,5,2,03:53:00,GB,2,3,DAL,0,14,2558116,SHOTGUN,"1 RB, 1 TE, 3 WR",7,"4 DL, 2 LB, 5 DB",left,2019-10-06T21:32:46.000Z,2019-10-06T21:32:44.000Z,6-6,267,05/19/1984,UCLA,TE,DAL,GB,5,AT&T Stadium,"Arlington, Texas",Indoor,Artificial,,,0,,
72910,2019100611,20191006111650,away,19.94,23.75,1.1,2.14,0.1,266.91,115.37,2506363,Aaron Rodgers,12,2019,5,2,03:53:00,GB,2,3,DAL,0,14,2558116,SHOTGUN,"1 RB, 1 TE, 3 WR",7,"4 DL, 2 LB, 5 DB",left,2019-10-06T21:32:46.000Z,2019-10-06T21:32:44.000Z,6-2,225,12/02/1983,California,QB,DAL,GB,5,AT&T Stadium,"Arlington, Texas",Indoor,Artificial,,,0,,
72911,2019100611,20191006111650,away,15.29,21.94,2.49,0.46,0.27,308.62,319.84,2540183,David Bakhtiari,69,2019,5,2,03:53:00,GB,2,3,DAL,0,14,2558116,SHOTGUN,"1 RB, 1 TE, 3 WR",7,"4 DL, 2 LB, 5 DB",left,2019-10-06T21:32:46.000Z,2019-10-06T21:32:44.000Z,6-4,310,09/30/1991,Colorado,T,DAL,GB,5,AT&T Stadium,"Arlington, Texas",Indoor,Artificial,,,0,,
72912,2019100611,20191006111650,away,15.18,25.5,1.0,1.37,0.1,325.32,305.0,2543740,Billy Turner,77,2019,5,2,03:53:00,GB,2,3,DAL,0,14,2558116,SHOTGUN,"1 RB, 1 TE, 3 WR",7,"4 DL, 2 LB, 5 DB",left,2019-10-06T21:32:46.000Z,2019-10-06T21:32:44.000Z,6-5,310,10/17/1991,North Dakota State,OG,DAL,GB,5,AT&T Stadium,"Arlington, Texas",Indoor,Artificial,,,0,,
72913,2019100611,20191006111650,away,15.11,14.58,2.96,0.52,0.28,271.82,263.53,2553548,Jake Kumerow,16,2019,5,2,03:53:00,GB,2,3,DAL,0,14,2558116,SHOTGUN,"1 RB, 1 TE, 3 WR",7,"4 DL, 2 LB, 5 DB",left,2019-10-06T21:32:46.000Z,2019-10-06T21:32:44.000Z,6-4,209,02/17/1992,Wisconsin-Whitewater,WR,DAL,GB,5,AT&T Stadium,"Arlington, Texas",Indoor,Artificial,,,0,,
72914,2019100611,20191006111650,away,18.54,23.54,7.56,1.22,0.75,151.43,175.28,2556460,Geronimo Allison,81,2019,5,2,03:53:00,GB,2,3,DAL,0,14,2558116,SHOTGUN,"1 RB, 1 TE, 3 WR",7,"4 DL, 2 LB, 5 DB",left,2019-10-06T21:32:46.000Z,2019-10-06T21:32:44.000Z,6-3,202,01/18/1994,Illinois,WR,DAL,GB,5,AT&T Stadium,"Arlington, Texas",Indoor,Artificial,,,0,,
72915,2019100611,20191006111650,away,16.26,25.41,1.84,2.43,0.2,296.84,3.43,2557031,Lucas Patrick,62,2019,5,2,03:53:00,GB,2,3,DAL,0,14,2558116,SHOTGUN,"1 RB, 1 TE, 3 WR",7,"4 DL, 2 LB, 5 DB",left,2019-10-06T21:32:46.000Z,2019-10-06T21:32:44.000Z,6-3,313,07/30/1993,Duke,G,DAL,GB,5,AT&T Stadium,"Arlington, Texas",Indoor,Artificial,,,0,,
72916,2019100611,20191006111650,away,19.37,23.04,3.63,1.69,0.36,345.85,338.47,2558116,Aaron Jones,33,2019,5,2,03:53:00,GB,2,3,DAL,0,14,2558116,SHOTGUN,"1 RB, 1 TE, 3 WR",7,"4 DL, 2 LB, 5 DB",left,2019-10-06T21:32:46.000Z,2019-10-06T21:32:44.000Z,5-9,208,12/02/1994,Texas-El Paso,RB,DAL,GB,5,AT&T Stadium,"Arlington, Texas",Indoor,Artificial,,,0,,
72917,2019100611,20191006111650,away,14.94,32.61,3.21,2.7,0.31,216.36,201.14,2560907,Marquez Valdes-Scantling,83,2019,5,2,03:53:00,GB,2,3,DAL,0,14,2558116,SHOTGUN,"1 RB, 1 TE, 3 WR",7,"4 DL, 2 LB, 5 DB",left,2019-10-06T21:32:46.000Z,2019-10-06T21:32:44.000Z,6-4,207,10/10/1994,South Florida,WR,DAL,GB,5,AT&T Stadium,"Arlington, Texas",Indoor,Artificial,,,0,,
72918,2019100611,20191006111650,away,15.27,23.36,1.88,1.67,0.2,277.93,347.37,2562671,Elgton Jenkins,74,2019,5,2,03:53:00,GB,2,3,DAL,0,14,2558116,SHOTGUN,"1 RB, 1 TE, 3 WR",7,"4 DL, 2 LB, 5 DB",left,2019-10-06T21:32:46.000Z,2019-10-06T21:32:44.000Z,6-5,310,12/26/1995,Mississippi State,G,DAL,GB,5,AT&T Stadium,"Arlington, Texas",Indoor,Artificial,,,0,,
72919,2019100611,20191006111650,home,14.37,19.66,3.04,2.47,0.31,81.82,15.63,2495485,Robert Quinn,58,2019,5,2,03:53:00,GB,2,3,DAL,0,14,2558116,SHOTGUN,"1 RB, 1 TE, 3 WR",7,"4 DL, 2 LB, 5 DB",left,2019-10-06T21:32:46.000Z,2019-10-06T21:32:44.000Z,6-4,257,05/18/1990,North Carolina,DE,DAL,GB,5,AT&T Stadium,"Arlington, Texas",Indoor,Artificial,,,0,,
72920,2019100611,20191006111650,home,13.44,15.21,2.09,0.62,0.21,96.68,179.04,2541832,Jeff Heath,38,2019,5,2,03:53:00,GB,2,3,DAL,0,14,2558116,SHOTGUN,"1 RB, 1 TE, 3 WR",7,"4 DL, 2 LB, 5 DB",left,2019-10-06T21:32:46.000Z,2019-10-06T21:32:44.000Z,6-1,212,05/14/1991,Saginaw Valley State,SS,DAL,GB,5,AT&T Stadium,"Arlington, Texas",Indoor,Artificial,,,0,,
72921,2019100611,20191006111650,home,15.41,28.73,1.27,1.47,0.13,104.74,77.24,2543490,Demarcus Lawrence,90,2019,5,2,03:53:00,GB,2,3,DAL,0,14,2558116,SHOTGUN,"1 RB, 1 TE, 3 WR",7,"4 DL, 2 LB, 5 DB",left,2019-10-06T21:32:46.000Z,2019-10-06T21:32:44.000Z,6-3,265,04/28/1992,Boise State,DE,DAL,GB,5,AT&T Stadium,"Arlington, Texas",Indoor,Artificial,,,0,,
72922,2019100611,20191006111650,home,10.39,13.6,1.16,1.86,0.11,4.88,158.17,2552568,Byron Jones,31,2019,5,2,03:53:00,GB,2,3,DAL,0,14,2558116,SHOTGUN,"1 RB, 1 TE, 3 WR",7,"4 DL, 2 LB, 5 DB",left,2019-10-06T21:32:46.000Z,2019-10-06T21:32:44.000Z,6-1,205,09/26/1992,Connecticut,CB,DAL,GB,5,AT&T Stadium,"Arlington, Texas",Indoor,Artificial,,,0,,
72923,2019100611,20191006111650,home,15.96,25.09,1.03,1.61,0.11,337.59,72.16,2552602,Christian Covington,95,2019,5,2,03:53:00,GB,2,3,DAL,0,14,2558116,SHOTGUN,"1 RB, 1 TE, 3 WR",7,"4 DL, 2 LB, 5 DB",left,2019-10-06T21:32:46.000Z,2019-10-06T21:32:44.000Z,6-2,305,10/16/1993,Rice,DE,DAL,GB,5,AT&T Stadium,"Arlington, Texas",Indoor,Artificial,,,0,,
72924,2019100611,20191006111650,home,12.24,25.13,1.72,3.73,0.17,83.74,92.75,2555310,Jaylon Smith,54,2019,5,2,03:53:00,GB,2,3,DAL,0,14,2558116,SHOTGUN,"1 RB, 1 TE, 3 WR",7,"4 DL, 2 LB, 5 DB",left,2019-10-06T21:32:46.000Z,2019-10-06T21:32:44.000Z,6-2,245,06/14/1995,Notre Dame,MLB,DAL,GB,5,AT&T Stadium,"Arlington, Texas",Indoor,Artificial,,,0,,
72925,2019100611,20191006111650,home,14.59,23.47,3.2,0.77,0.32,49.81,16.61,2555400,Maliek Collins,96,2019,5,2,03:53:00,GB,2,3,DAL,0,14,2558116,SHOTGUN,"1 RB, 1 TE, 3 WR",7,"4 DL, 2 LB, 5 DB",left,2019-10-06T21:32:46.000Z,2019-10-06T21:32:44.000Z,6-2,308,04/08/1995,Nebraska,DT,DAL,GB,5,AT&T Stadium,"Arlington, Texas",Indoor,Artificial,,,0,,
72926,2019100611,20191006111650,home,12.19,29.4,3.19,2.48,0.31,103.47,123.48,2555531,Anthony Brown,30,2019,5,2,03:53:00,GB,2,3,DAL,0,14,2558116,SHOTGUN,"1 RB, 1 TE, 3 WR",7,"4 DL, 2 LB, 5 DB",left,2019-10-06T21:32:46.000Z,2019-10-06T21:32:44.000Z,5-11,196,12/15/1993,Purdue,CB,DAL,GB,5,AT&T Stadium,"Arlington, Texas",Indoor,Artificial,,,0,,
72927,2019100611,20191006111650,home,9.03,35.86,2.34,2.46,0.22,111.98,164.73,2557840,Chidobe Awuzie,24,2019,5,2,03:53:00,GB,2,3,DAL,0,14,2558116,SHOTGUN,"1 RB, 1 TE, 3 WR",7,"4 DL, 2 LB, 5 DB",left,2019-10-06T21:32:46.000Z,2019-10-06T21:32:44.000Z,6-0,202,05/24/1995,Colorado,CB,DAL,GB,5,AT&T Stadium,"Arlington, Texas",Indoor,Artificial,,,0,,
72928,2019100611,20191006111650,home,7.19,25.02,1.58,2.1,0.16,99.27,148.02,2558159,Xavier Woods,25,2019,5,2,03:53:00,GB,2,3,DAL,0,14,2558116,SHOTGUN,"1 RB, 1 TE, 3 WR",7,"4 DL, 2 LB, 5 DB",left,2019-10-06T21:32:46.000Z,2019-10-06T21:32:44.000Z,5-11,202,07/26/1995,Louisiana Tech,FS,DAL,GB,5,AT&T Stadium,"Arlington, Texas",Indoor,Artificial,,,0,,
72929,2019100611,20191006111650,home,11.46,19.19,3.16,0.17,0.32,85.32,157.15,2560908,Leighton Vander Esch,55,2019,5,2,03:53:00,GB,2,3,DAL,0,14,2558116,SHOTGUN,"1 RB, 1 TE, 3 WR",7,"4 DL, 2 LB, 5 DB",left,2019-10-06T21:32:46.000Z,2019-10-06T21:32:44.000Z,6-4,256,02/08/1996,Boise State,LB,DAL,GB,5,AT&T Stadium,"Arlington, Texas",Indoor,Artificial,,,0,,
