,GameId,PlayId,Team,X,Y,S,A,Dis,Orientation,Dir,NflId,DisplayName,JerseyNumber,Season,YardLine,Quarter,GameClock,PossessionTeam,Down,Distance,FieldPosition,HomeScoreBeforePlay,VisitorScoreBeforePlay,NflIdRusher,OffenseFormation,OffensePersonnel,DefendersInTheBox,DefensePersonnel,PlayDirection,TimeHandoff,TimeSnap,PlayerHeight,PlayerWeight,PlayerBirthDate,PlayerCollegeName,Position,HomeTeamAbbr,VisitorTeamAbbr,Week,Stadium,Location,StadiumType,Turf,GameWeather,Temperature,Humidity,WindSpeed,WindDirection
13772,2019090900,20190909004062,away,72.89,26.26,4.6,1.43,0.48,326.59,305.82,2495488,J.J. Watt,99,2019,34,4,01:41:00,NO,3,11,HST,24,21,2558019,SINGLEBACK,"1 RB, 1 TE, 3 WR",6,"2 DL, 3 LB, 6 DB",right,2019-09-10T02:12:31.000Z,2019-09-10T02:12:30.000Z,6-5,288,03/22/1989,Wisconsin,DE,NO,HOU,1,Mercedes-Benz Superdome,"New Orleans, La.",Indoors,UBU-Speed Series-S5-M,Partly Cloudy,91.0,59,9,SE
13773,2019090900,20190909004062,away,83.98,9.53,3.09,2.43,0.3,338.95,55.07,2495872,Johnathan Joseph,24,2019,34,4,01:41:00,NO,3,11,HST,24,21,2558019,SINGLEBACK,"1 RB, 1 TE, 3 WR",6,"2 DL, 3 LB, 6 DB",right,2019-09-10T02:12:31.000Z,2019-09-10T02:12:30.000Z,5-11,185,04/16/1984,South Carolina,CB,NO,HOU,1,Mercedes-Benz Superdome,"New Orleans, La.",Indoors,UBU-Speed Series-S5-M,Partly Cloudy,91.0,59,9,SE
13774,2019090900,20190909004062,away,90.07,23.33,1.94,2.14,0.18,316.68,21.42,2532848,Tashaun Gipson,39,2019,34,4,01:41:00,NO,3,11,HST,24,21,2558019,SINGLEBACK,"1 RB, 1 TE, 3 WR",6,"2 DL, 3 LB, 6 DB",right,2019-09-10T02:12:31.000Z,2019-09-10T02:12:30.000Z,6-1,212,08/07/1990,Wyoming,FS,NO,HOU,1,Mercedes-Benz Superdome,"New Orleans, La.",Indoors,UBU-Speed Series-S5-M,Partly Cloudy,91.0,59,9,SE
13775,2019090900,20190909004062,away,75.06,36.68,3.0,2.44,0.3,188.01,331.46,2533049,Whitney Mercilus,59,2019,34,4,01:41:00,NO,3,11,HST,24,21,2558019,SINGLEBACK,"1 RB, 1 TE, 3 WR",6,"2 DL, 3 LB, 6 DB",right,2019-09-10T02:12:31.000Z,2019-09-10T02:12:30.000Z,6-4,258,07/21/1990,Illinois,OLB,NO,HOU,1,Mercedes-Benz Superdome,"New Orleans, La.",Indoors,UBU-Speed Series-S5-M,Partly Cloudy,91.0,59,9,SE
13776,2019090900,20190909004062,away,79.26,26.6,4.91,2.3,0.48,304.08,343.05,2541958,Jahleel Addae,37,2019,34,4,01:41:00,NO,3,11,HST,24,21,2558019,SINGLEBACK,"1 RB, 1 TE, 3 WR",6,"2 DL, 3 LB, 6 DB",right,2019-09-10T02:12:31.000Z,2019-09-10T02:12:30.000Z,5-10,195,01/24/1990,Central Michigan,SS,NO,HOU,1,Mercedes-Benz Superdome,"New Orleans, La.",Indoors,UBU-Speed Series-S5-M,Partly Cloudy,91.0,59,9,SE
13777,2019090900,20190909004062,away,81.19,37.52,2.69,1.4,0.26,253.04,325.61,2543501,Aaron Colvin,22,2019,34,4,01:41:00,NO,3,11,HST,24,21,2558019,SINGLEBACK,"1 RB, 1 TE, 3 WR",6,"2 DL, 3 LB, 6 DB",right,2019-09-10T02:12:31.000Z,2019-09-10T02:12:30.000Z,6-0,191,10/02/1991,Oklahoma,CB,NO,HOU,1,Mercedes-Benz Superdome,"New Orleans, La.",Indoors,UBU-Speed Series-S5-M,Partly Cloudy,91.0,59,9,SE
13778,2019090900,20190909004062,away,84.99,44.32,1.52,3.46,0.13,231.16,275.56,2543505,Bradley Roby,21,2019,34,4,01:41:00,NO,3,11,HST,24,21,2558019,SINGLEBACK,"1 RB, 1 TE, 3 WR",6,"2 DL, 3 LB, 6 DB",right,2019-09-10T02:12:31.000Z,2019-09-10T02:12:30.000Z,5-11,194,05/01/1992,Ohio State,CB,NO,HOU,1,Mercedes-Benz Superdome,"New Orleans, La.",Indoors,UBU-Speed Series-S5-M,Partly Cloudy,91.0,59,9,SE
13779,2019090900,20190909004062,away,76.77,29.94,3.62,1.72,0.36,287.86,10.81,2552490,Benardrick McKinney,55,2019,34,4,01:41:00,NO,3,11,HST,24,21,2558019,SINGLEBACK,"1 RB, 1 TE, 3 WR",6,"2 DL, 3 LB, 6 DB",right,2019-09-10T02:12:31.000Z,2019-09-10T02:12:30.000Z,6-4,257,11/19/1992,Mississippi State,ILB,NO,HOU,1,Mercedes-Benz Superdome,"New Orleans, La.",Indoors,UBU-Speed Series-S5-M,Partly Cloudy,91.0,59,9,SE
13780,2019090900,20190909004062,away,76.01,32.63,3.64,1.35,0.41,250.11,352.72,2557877,Carlos Watkins,91,2019,34,4,01:41:00,NO,3,11,HST,24,21,2558019,SINGLEBACK,"1 RB, 1 TE, 3 WR",6,"2 DL, 3 LB, 6 DB",right,2019-09-10T02:12:31.000Z,2019-09-10T02:12:30.000Z,6-3,297,12/05/1993,Clemson,DT,NO,HOU,1,Mercedes-Benz Superdome,"New Orleans, La.",Indoors,UBU-Speed Series-S5-M,Partly Cloudy,91.0,59,9,SE
13781,2019090900,20190909004062,away,77.0,33.97,2.87,1.37,0.28,250.16,339.23,2558094,Zach Cunningham,41,2019,34,4,01:41:00,NO,3,11,HST,24,21,2558019,SINGLEBACK,"1 RB, 1 TE, 3 WR",6,"2 DL, 3 LB, 6 DB",right,2019-09-10T02:12:31.000Z,2019-09-10T02:12:30.000Z,6-3,238,12/12/1994,Vanderbilt,ILB,NO,HOU,1,Mercedes-Benz Superdome,"New Orleans, La.",Indoors,UBU-Speed Series-S5-M,Partly Cloudy,91.0,59,9,SE
13782,2019090900,20190909004062,away,86.68,36.19,1.14,2.77,0.11,285.42,263.91,2560851,Justin Reid,20,2019,34,4,01:41:00,NO,3,11,HST,24,21,2558019,SINGLEBACK,"1 RB, 1 TE, 3 WR",6,"2 DL, 3 LB, 6 DB",right,2019-09-10T02:12:31.000Z,2019-09-10T02:12:30.000Z,6-1,204,02/15/1997,Stanford,SS,NO,HOU,1,Mercedes-Benz Superdome,"New Orleans, La.",Indoors,UBU-Speed Series-S5-M,Partly Cloudy,91.0,59,9,SE
13783,2019090900,20190909004062,home,76.88,25.21,4.49,2.54,0.44,50.37,33.35,71265,Jared Cook,87,2019,34,4,01:41:00,NO,3,11,HST,24,21,2558019,SINGLEBACK,"1 RB, 1 TE, 3 WR",6,"2 DL, 3 LB, 6 DB",right,2019-09-10T02:12:31.000Z,2019-09-10T02:12:30.000Z,6-5,254,04/07/1987,South Carolina,TE,NO,HOU,1,Mercedes-Benz Superdome,"New Orleans, La.",Indoors,UBU-Speed Series-S5-M,Partly Cloudy,91.0,59,9,SE
13784,2019090900,20190909004062,home,71.73,31.87,4.26,2.35,0.42,295.44,294.93,2504775,Drew Brees,9,2019,34,4,01:41:00,NO,3,11,HST,24,21,2558019,SINGLEBACK,"1 RB, 1 TE, 3 WR",6,"2 DL, 3 LB, 6 DB",right,2019-09-10T02:12:31.000Z,2019-09-10T02:12:30.000Z,6-0,209,01/15/1979,Purdue,QB,NO,HOU,1,Mercedes-Benz Superdome,"New Orleans, La.",Indoors,UBU-Speed Series-S5-M,Partly Cloudy,91.0,59,9,SE
13785,2019090900,20190909004062,home,77.85,10.23,5.47,1.82,0.54,80.26,78.71,2507166,Ted Ginn,19,2019,34,4,01:41:00,NO,3,11,HST,24,21,2558019,SINGLEBACK,"1 RB, 1 TE, 3 WR",6,"2 DL, 3 LB, 6 DB",right,2019-09-10T02:12:31.000Z,2019-09-10T02:12:30.000Z,5-11,180,04/12/1985,Ohio State,WR,NO,HOU,1,Mercedes-Benz Superdome,"New Orleans, La.",Indoors,UBU-Speed Series-S5-M,Partly Cloudy,91.0,59,9,SE
13786,2019090900,20190909004062,home,75.52,31.87,4.13,0.64,0.42,5.4,17.93,2539248,Larry Warford,67,2019,34,4,01:41:00,NO,3,11,HST,24,21,2558019,SINGLEBACK,"1 RB, 1 TE, 3 WR",6,"2 DL, 3 LB, 6 DB",right,2019-09-10T02:12:31.000Z,2019-09-10T02:12:30.000Z,6-3,317,06/18/1991,Kentucky,G,NO,HOU,1,Mercedes-Benz Superdome,"New Orleans, La.",Indoors,UBU-Speed Series-S5-M,Partly Cloudy,91.0,59,9,SE
13787,2019090900,20190909004062,home,74.89,36.08,2.67,1.0,0.27,0.56,356.72,2540228,Terron Armstead,72,2019,34,4,01:41:00,NO,3,11,HST,24,21,2558019,SINGLEBACK,"1 RB, 1 TE, 3 WR",6,"2 DL, 3 LB, 6 DB",right,2019-09-10T02:12:31.000Z,2019-09-10T02:12:30.000Z,6-5,304,07/23/1991,Arkansas-Pine Bluff,T,NO,HOU,1,Mercedes-Benz Superdome,"New Orleans, La.",Indoors,UBU-Speed Series-S5-M,Partly Cloudy,91.0,59,9,SE
13788,2019090900,20190909004062,home,77.66,32.73,2.89,0.93,0.3,50.9,82.13,2552455,Andrus Peat,75,2019,34,4,01:41:00,NO,3,11,HST,24,21,2558019,SINGLEBACK,"1 RB, 1 TE, 3 WR",6,"2 DL, 3 LB, 6 DB",right,2019-09-10T02:12:31.000Z,2019-09-10T02:12:30.000Z,6-7,316,11/04/1993,Stanford,T,NO,HOU,1,Mercedes-Benz Superdome,"New Orleans, La.",Indoors,UBU-Speed Series-S5-M,Partly Cloudy,91.0,59,9,SE
13789,2019090900,20190909004062,home,77.94,42.36,5.0,2.98,0.49,116.71,122.53,2556370,Michael Thomas,13,2019,34,4,01:41:00,NO,3,11,HST,24,21,2558019,SINGLEBACK,"1 RB, 1 TE, 3 WR",6,"2 DL, 3 LB, 6 DB",right,2019-09-10T02:12:31.000Z,2019-09-10T02:12:30.000Z,6-3,212,03/03/1993,Ohio State,WR,NO,HOU,1,Mercedes-Benz Superdome,"New Orleans, La.",Indoors,UBU-Speed Series-S5-M,Partly Cloudy,91.0,59,9,SE
13790,2019090900,20190909004062,home,75.89,30.22,3.75,1.72,0.39,96.46,24.94,2557959,Ryan Ramczyk,71,2019,34,4,01:41:00,NO,3,11,HST,24,21,2558019,SINGLEBACK,"1 RB, 1 TE, 3 WR",6,"2 DL, 3 LB, 6 DB",right,2019-09-10T02:12:31.000Z,2019-09-10T02:12:30.000Z,6-6,314,04/22/1994,Wisconsin,T,NO,HOU,1,Mercedes-Benz Superdome,"New Orleans, La.",Indoors,UBU-Speed Series-S5-M,Partly Cloudy,91.0,59,9,SE
13791,2019090900,20190909004062,home,71.3,32.62,5.57,2.69,0.56,68.62,52.85,2558019,Alvin Kamara,41,2019,34,4,01:41:00,NO,3,11,HST,24,21,2558019,SINGLEBACK,"1 RB, 1 TE, 3 WR",6,"2 DL, 3 LB, 6 DB",right,2019-09-10T02:12:31.000Z,2019-09-10T02:12:30.000Z,5-10,215,07/25/1995,Tennessee,RB,NO,HOU,1,Mercedes-Benz Superdome,"New Orleans, La.",Indoors,UBU-Speed Series-S5-M,Partly Cloudy,91.0,59,9,SE
13792,2019090900,20190909004062,home,76.99,37.44,3.69,2.17,0.37,73.43,68.17,2560878,Tre'Quan Smith,10,2019,34,4,01:41:00,NO,3,11,HST,24,21,2558019,SINGLEBACK,"1 RB, 1 TE, 3 WR",6,"2 DL, 3 LB, 6 DB",right,2019-09-10T02:12:31.000Z,2019-09-10T02:12:30.000Z,6-2,210,01/07/1996,Central Florida,WR,NO,HOU,1,Mercedes-Benz Superdome,"New Orleans, La.",Indoors,UBU-Speed Series-S5-M,Partly Cloudy,91.0,59,9,SE
13793,2019090900,20190909004062,home,75.34,32.66,3.27,0.93,0.34,61.92,2.37,2562683,Erik McCoy,78,2019,34,4,01:41:00,NO,3,11,HST,24,21,2558019,SINGLEBACK,"1 RB, 1 TE, 3 WR",6,"2 DL, 3 LB, 6 DB",right,2019-09-10T02:12:31.000Z,2019-09-10T02:12:30.000Z,6-4,315,08/27/1997,Texas A&M,C,NO,HOU,1,Mercedes-Benz Superdome,"New Orleans, La.",Indoors,UBU-Speed Series-S5-M,Partly Cloudy,91.0,59,9,SE
