,GameId,PlayId,Team,X,Y,S,A,Dis,Orientation,Dir,NflId,DisplayName,JerseyNumber,Season,YardLine,Quarter,GameClock,PossessionTeam,Down,Distance,FieldPosition,HomeScoreBeforePlay,VisitorScoreBeforePlay,NflIdRusher,OffenseFormation,OffensePersonnel,DefendersInTheBox,DefensePersonnel,PlayDirection,TimeHandoff,TimeSnap,PlayerHeight,PlayerWeight,PlayerBirthDate,PlayerCollegeName,Position,HomeTeamAbbr,VisitorTeamAbbr,Week,Stadium,Location,StadiumType,Turf,GameWeather,Temperature,Humidity,WindSpeed,WindDirection
70576,2019100609,20191006090431,away,47.98,34.49,3.24,1.11,0.32,233.08,173.05,89756,Jason McCourty,30,2019,35,1,09:39:00,WAS,2,8,WAS,0,0,2563033,SINGLEBACK,"1 RB, 0 TE, 4 WR",5,"2 DL, 3 LB, 6 DB",right,2019-10-06T17:17:33.000Z,2019-10-06T17:17:31.000Z,5-11,195,08/13/1987,Rutgers,CB,WAS,NE,5,FedExField,"Landover, MD",Outdoor,Grass,Cloudy,70.0,66,8,S
70577,2019100609,20191006090431,away,61.92,25.14,2.52,0.9,0.25,261.91,89.38,494287,Devin McCourty,32,2019,35,1,09:39:00,WAS,2,8,WAS,0,0,2563033,SINGLEBACK,"1 RB, 0 TE, 4 WR",5,"2 DL, 3 LB, 6 DB",right,2019-10-06T17:17:33.000Z,2019-10-06T17:17:31.000Z,5-10,195,08/13/1987,Rutgers,FS,WAS,NE,5,FedExField,"Landover, MD",Outdoor,Grass,Cloudy,70.0,66,8,S
70578,2019100609,20191006090431,away,44.55,27.14,1.5,1.03,0.17,90.0,262.39,2507617,Michael Bennett,77,2019,35,1,09:39:00,WAS,2,8,WAS,0,0,2563033,SINGLEBACK,"1 RB, 0 TE, 4 WR",5,"2 DL, 3 LB, 6 DB",right,2019-10-06T17:17:33.000Z,2019-10-06T17:17:31.000Z,6-4,274,11/13/1985,Texas A&M,DE,WAS,NE,5,FedExField,"Landover, MD",Outdoor,Grass,Cloudy,70.0,66,8,S
70579,2019100609,20191006090431,away,44.51,35.32,0.18,2.67,0.03,253.1,252.81,2533057,Dont'a Hightower,54,2019,35,1,09:39:00,WAS,2,8,WAS,0,0,2563033,SINGLEBACK,"1 RB, 0 TE, 4 WR",5,"2 DL, 3 LB, 6 DB",right,2019-10-06T17:17:33.000Z,2019-10-06T17:17:31.000Z,6-3,260,03/12/1990,Alabama,MLB,WAS,NE,5,FedExField,"Landover, MD",Outdoor,Grass,Cloudy,70.0,66,8,S
70580,2019100609,20191006090431,away,46.55,44.86,3.4,6.05,0.31,260.72,49.3,2533062,Stephon Gilmore,24,2019,35,1,09:39:00,WAS,2,8,WAS,0,0,2563033,SINGLEBACK,"1 RB, 0 TE, 4 WR",5,"2 DL, 3 LB, 6 DB",right,2019-10-06T17:17:33.000Z,2019-10-06T17:17:31.000Z,6-1,202,09/19/1990,South Carolina,CB,WAS,NE,5,FedExField,"Landover, MD",Outdoor,Grass,Cloudy,70.0,66,8,S
70581,2019100609,20191006090431,away,47.34,30.3,1.95,1.33,0.18,259.0,306.06,2539311,Jamie Collins,58,2019,35,1,09:39:00,WAS,2,8,WAS,0,0,2563033,SINGLEBACK,"1 RB, 0 TE, 4 WR",5,"2 DL, 3 LB, 6 DB",right,2019-10-06T17:17:33.000Z,2019-10-06T17:17:31.000Z,6-3,255,10/20/1989,Southern Mississippi,OLB,WAS,NE,5,FedExField,"Landover, MD",Outdoor,Grass,Cloudy,70.0,66,8,S
70582,2019100609,20191006090431,away,52.86,35.36,1.35,1.58,0.14,240.13,136.2,2541243,Duron Harmon,21,2019,35,1,09:39:00,WAS,2,8,WAS,0,0,2563033,SINGLEBACK,"1 RB, 0 TE, 4 WR",5,"2 DL, 3 LB, 6 DB",right,2019-10-06T17:17:33.000Z,2019-10-06T17:17:31.000Z,6-1,205,01/24/1991,Rutgers,FS,WAS,NE,5,FedExField,"Landover, MD",Outdoor,Grass,Cloudy,70.0,66,8,S
70583,2019100609,20191006090431,away,43.71,25.31,2.18,2.39,0.23,330.94,294.8,2543699,Kyle Van Noy,53,2019,35,1,09:39:00,WAS,2,8,WAS,0,0,2563033,SINGLEBACK,"1 RB, 0 TE, 4 WR",5,"2 DL, 3 LB, 6 DB",right,2019-10-06T17:17:33.000Z,2019-10-06T17:17:31.000Z,6-3,250,03/26/1991,Brigham Young,OLB,WAS,NE,5,FedExField,"Landover, MD",Outdoor,Grass,Cloudy,70.0,66,8,S
70584,2019100609,20191006090431,away,46.31,9.67,2.71,3.57,0.25,227.62,132.33,2556571,Jonathan Jones,31,2019,35,1,09:39:00,WAS,2,8,WAS,0,0,2563033,SINGLEBACK,"1 RB, 0 TE, 4 WR",5,"2 DL, 3 LB, 6 DB",right,2019-10-06T17:17:33.000Z,2019-10-06T17:17:31.000Z,5-10,190,09/20/1993,Auburn,CB,WAS,NE,5,FedExField,"Landover, MD",Outdoor,Grass,Cloudy,70.0,66,8,S
70585,2019100609,20191006090431,away,45.47,31.1,0.91,0.88,0.09,244.42,160.62,2558924,Adam Butler,70,2019,35,1,09:39:00,WAS,2,8,WAS,0,0,2563033,SINGLEBACK,"1 RB, 0 TE, 4 WR",5,"2 DL, 3 LB, 6 DB",right,2019-10-06T17:17:33.000Z,2019-10-06T17:17:31.000Z,6-5,300,04/12/1994,Vanderbilt,DT,WAS,NE,5,FedExField,"Landover, MD",Outdoor,Grass,Cloudy,70.0,66,8,S
70586,2019100609,20191006090431,away,48.18,24.85,0.45,4.05,0.06,291.35,18.3,2560754,J.C. Jackson,27,2019,35,1,09:39:00,WAS,2,8,WAS,0,0,2563033,SINGLEBACK,"1 RB, 0 TE, 4 WR",5,"2 DL, 3 LB, 6 DB",right,2019-10-06T17:17:33.000Z,2019-10-06T17:17:31.000Z,6-1,198,11/17/1995,Maryland,DB,WAS,NE,5,FedExField,"Landover, MD",Outdoor,Grass,Cloudy,70.0,66,8,S
70587,2019100609,20191006090431,home,41.94,29.95,1.62,3.05,0.16,343.72,348.72,497123,Colt McCoy,12,2019,35,1,09:39:00,WAS,2,8,WAS,0,0,2563033,SINGLEBACK,"1 RB, 0 TE, 4 WR",5,"2 DL, 3 LB, 6 DB",right,2019-10-06T17:17:33.000Z,2019-10-06T17:17:31.000Z,6-1,212,09/05/1986,Texas,QB,WAS,NE,5,FedExField,"Landover, MD",Outdoor,Grass,Cloudy,70.0,66,8,S
70588,2019100609,20191006090431,home,44.15,33.93,0.75,2.49,0.07,50.43,113.89,2506706,Donald Penn,72,2019,35,1,09:39:00,WAS,2,8,WAS,0,0,2563033,SINGLEBACK,"1 RB, 0 TE, 4 WR",5,"2 DL, 3 LB, 6 DB",right,2019-10-06T17:17:33.000Z,2019-10-06T17:17:31.000Z,6-4,315,04/27/1983,Utah State,T,WAS,NE,5,FedExField,"Landover, MD",Outdoor,Grass,Cloudy,70.0,66,8,S
70589,2019100609,20191006090431,home,42.71,26.56,4.14,1.68,0.42,158.89,185.28,2533010,Tony Bergstrom,66,2019,35,1,09:39:00,WAS,2,8,WAS,0,0,2563033,SINGLEBACK,"1 RB, 0 TE, 4 WR",5,"2 DL, 3 LB, 6 DB",right,2019-10-06T17:17:33.000Z,2019-10-06T17:17:31.000Z,6-5,310,08/06/1986,Utah,G,WAS,NE,5,FedExField,"Landover, MD",Outdoor,Grass,Cloudy,70.0,66,8,S
70590,2019100609,20191006090431,home,43.13,30.15,3.87,2.99,0.39,69.93,98.24,2540011,Chris Thompson,25,2019,35,1,09:39:00,WAS,2,8,WAS,0,0,2563033,SINGLEBACK,"1 RB, 0 TE, 4 WR",5,"2 DL, 3 LB, 6 DB",right,2019-10-06T17:17:33.000Z,2019-10-06T17:17:31.000Z,5-8,195,10/20/1990,Florida State,RB,WAS,NE,5,FedExField,"Landover, MD",Outdoor,Grass,Cloudy,70.0,66,8,S
70591,2019100609,20191006090431,home,45.15,26.32,0.79,1.82,0.08,334.14,134.24,2543489,Morgan Moses,76,2019,35,1,09:39:00,WAS,2,8,WAS,0,0,2563033,SINGLEBACK,"1 RB, 0 TE, 4 WR",5,"2 DL, 3 LB, 6 DB",right,2019-10-06T17:17:33.000Z,2019-10-06T17:17:31.000Z,6-6,330,03/03/1991,Virginia,T,WAS,NE,5,FedExField,"Landover, MD",Outdoor,Grass,Cloudy,70.0,66,8,S
70592,2019100609,20191006090431,home,44.96,30.32,1.23,0.94,0.13,65.17,141.42,2552452,Ereck Flowers,77,2019,35,1,09:39:00,WAS,2,8,WAS,0,0,2563033,SINGLEBACK,"1 RB, 0 TE, 4 WR",5,"2 DL, 3 LB, 6 DB",right,2019-10-06T17:17:33.000Z,2019-10-06T17:17:31.000Z,6-6,329,04/25/1994,Miami,T,WAS,NE,5,FedExField,"Landover, MD",Outdoor,Grass,Cloudy,70.0,66,8,S
70593,2019100609,20191006090431,home,45.65,9.18,3.78,3.11,0.36,91.28,133.29,2560847,Trey Quinn,18,2019,35,1,09:39:00,WAS,2,8,WAS,0,0,2563033,SINGLEBACK,"1 RB, 0 TE, 4 WR",5,"2 DL, 3 LB, 6 DB",right,2019-10-06T17:17:33.000Z,2019-10-06T17:17:31.000Z,6-0,202,12/07/1995,Southern Methodist,WR,WAS,NE,5,FedExField,"Landover, MD",Outdoor,Grass,Cloudy,70.0,66,8,S
70594,2019100609,20191006090431,home,45.41,45.52,3.85,2.21,0.37,75.28,39.86,2562489,Terry McLaurin,17,2019,35,1,09:39:00,WAS,2,8,WAS,0,0,2563033,SINGLEBACK,"1 RB, 0 TE, 4 WR",5,"2 DL, 3 LB, 6 DB",right,2019-10-06T17:17:33.000Z,2019-10-06T17:17:31.000Z,6-0,210,09/15/1995,Ohio State,WR,WAS,NE,5,FedExField,"Landover, MD",Outdoor,Grass,Cloudy,70.0,66,8,S
70595,2019100609,20191006090431,home,37.33,31.18,6.94,3.42,0.69,46.63,351.82,2562577,Kelvin Harmon,13,2019,35,1,09:39:00,WAS,2,8,WAS,0,0,2563033,SINGLEBACK,"1 RB, 0 TE, 4 WR",5,"2 DL, 3 LB, 6 DB",right,2019-10-06T17:17:33.000Z,2019-10-06T17:17:31.000Z,6-2,213,12/15/1996,North Carolina State,WR,WAS,NE,5,FedExField,"Landover, MD",Outdoor,Grass,Cloudy,70.0,66,8,S
70596,2019100609,20191006090431,home,43.07,25.42,2.16,2.31,0.2,54.91,171.42,2562916,Wes Martin,67,2019,35,1,09:39:00,WAS,2,8,WAS,0,0,2563033,SINGLEBACK,"1 RB, 0 TE, 4 WR",5,"2 DL, 3 LB, 6 DB",right,2019-10-06T17:17:33.000Z,2019-10-06T17:17:31.000Z,6-3,316,05/09/1996,Indiana,G,WAS,NE,5,FedExField,"Landover, MD",Outdoor,Grass,Cloudy,70.0,66,8,S
70597,2019100609,20191006090431,home,41.36,31.31,6.36,1.93,0.63,186.8,185.84,2563033,Steven Sims,15,2019,35,1,09:39:00,WAS,2,8,WAS,0,0,2563033,SINGLEBACK,"1 RB, 0 TE, 4 WR",5,"2 DL, 3 LB, 6 DB",right,2019-10-06T17:17:33.000Z,2019-10-06T17:17:31.000Z,5-10,176,03/31/1997,Kansas,WR,WAS,NE,5,FedExField,"Landover, MD",Outdoor,Grass,Cloudy,70.0,66,8,S
